3.06685e-10	0	0	0
1.20051e-09	0	0	0
1.52108e-09	0	0	0
1.89013e-09	0	0	0
2.82435e-09	0	0	0
3.11901e-09	0	0	0
4.34772e-09	0	0	0
4.38084e-09	0	0	0
4.95785e-09	0	0	0
5.23955e-09	0	0	0
5.65273e-09	0	0	0
5.75142e-09	0	0	0
6.15248e-09	0	0	0
7.01986e-09	0	0	0
7.12745e-09	0	0	0
7.33576e-09	0	0	0
7.44145e-09	0	0	0
8.50418e-09	0	0	0
9.11835e-09	0	0	0
9.65088e-09	0	0	0
1.0434e-08	0	0	0
1.04388e-08	0	0	0
1.04927e-08	0	0	0
1.06301e-08	0	0	0
1.21689e-08	0	0	0
1.38808e-08	0	0	0
1.79889e-08	0	0	0
1.8956e-08	0	0	0
2.29921e-08	0	0	0
2.32195e-08	0	0	0
2.4802e-08	0	0	0
2.85422e-08	0	0	0
3.1145e-08	0	0	0
3.19591e-08	0	0	0
3.31306e-08	0	0	0
3.42061e-08	0	0	0
3.77321e-08	0	0	0
4.22871e-08	0	0	0
4.23887e-08	0	0	0
4.446e-08	0	0	0
4.59431e-08	0	0	0
4.78682e-08	0	0	0
5.52891e-08	0	0	0
5.59085e-08	0	0	0
5.89472e-08	0	0	0
6.14371e-08	0	0	0
6.14825e-08	0	0	0
6.82737e-08	0	0	0
6.85527e-08	0	0	0
6.94129e-08	0	0	0
7.81941e-08	0	0	0
8.11758e-08	0	0	0
8.72465e-08	0	0	0
8.83439e-08	0	0	0
9.16107e-08	0	0	0
9.44208e-08	0	0	0
1.00142e-07	0	0	0
1.06835e-07	0	0	0
1.57779e-07	0	0	0
1.79548e-07	0	0	0
2.70032e-07	0	0	0
3.36921e-07	0	0	0
4.07396e-07	0	0	0
4.2514e-07	0	0	0
5.01492e-07	0	0	0
5.06084e-07	0	0	0
6.59548e-07	0	0	0
6.67443e-07	0	0	0
6.84238e-07	0	0	0
8.60469e-07	0	0	0
8.69396e-07	0	0	0
8.90074e-07	0	0	0
1.01194e-06	0	0	0
1.21341e-06	0	0	0
1.32e-06	0	0	0
1.58135e-06	0	0	0
1.753e-06	0	0	0
1.76127e-06	0	0	0
1.98558e-06	0	0	0
2.01905e-06	0	0	0
2.09949e-06	0	0	0
2.10247e-06	0	0	0
2.24777e-06	0	0	0
2.41488e-06	0	0	0
2.42378e-06	0	0	0
2.45094e-06	0	0	0
2.49163e-06	0	0	0
2.53138e-06	0	0	0
2.55819e-06	0	0	0
2.63375e-06	0	0	0
2.66661e-06	0	0	0
2.71044e-06	0	0	0
2.78553e-06	0	0	0
2.84458e-06	0	0	0
2.91836e-06	0	0	0
3.02184e-06	0	0	0
3.17514e-06	0	0	0
3.19675e-06	0	0	0
3.20461e-06	0	0	0
3.20922e-06	0	0	0
3.22963e-06	0	0	0
3.45456e-06	0	0	0
3.46731e-06	0	0	0
3.68413e-06	0	0	0
3.68784e-06	0	0	0
3.84934e-06	0	0	0
4.14636e-06	0	0	0
4.22973e-06	0	0	0
4.29303e-06	0	0	0
4.37007e-06	0	0	0
4.46164e-06	0	0	0
4.59136e-06	0	0	0
4.63282e-06	0	0	0
4.93244e-06	0	0	0
5.11399e-06	0	0	0
5.13286e-06	0	0	0
5.32297e-06	0	0	0
5.33363e-06	0	0	0
5.39039e-06	0	0	0
5.52445e-06	0	0	0
5.5716e-06	0	0	0
5.87704e-06	0	0	0
5.94503e-06	0	0	0
6.0178e-06	0	0	0
6.02385e-06	0	0	0
6.02827e-06	0	0	0
6.0414e-06	0	0	0
6.13638e-06	0	0	0
6.19968e-06	0	0	0
6.28901e-06	0	0	0
6.65659e-06	0	0	0
6.89153e-06	0	0	0
6.95088e-06	0	0	0
7.27088e-06	0	0	0
7.55358e-06	0	0	0
7.63125e-06	0	0	0
7.85404e-06	0	0	0
8.17367e-06	0	0	0
8.49516e-06	0	0	0
8.98889e-06	0	0	0
9.28891e-06	0	0	0
9.37651e-06	0	0	0
9.7985e-06	0	0	0
1.00815e-05	0	0	0
1.01531e-05	0	0	0
1.0486e-05	0	0	0
1.06138e-05	0	0	0
1.076e-05	0	0	0
1.09607e-05	0	0	0
1.10226e-05	0	0	0
1.1447e-05	0	0	0
1.15273e-05	0	0	0
1.15883e-05	0	0	0
1.19029e-05	0	0	0
1.1932e-05	0	0	0
1.24375e-05	0	0	0
1.32626e-05	0	0	0
1.32671e-05	0	0	0
1.34352e-05	0	0	0
1.35748e-05	0	0	0
1.36241e-05	0	0	0
1.38461e-05	0	0	0
1.38978e-05	0	0	0
1.40271e-05	0	0	0
1.47476e-05	0	0	0
1.52095e-05	0	0	0
1.53518e-05	0	0	0
1.53645e-05	0	0	0
1.54862e-05	0	0	0
1.55186e-05	0	0	0
1.56569e-05	0	0	0
1.57751e-05	0	0	0
1.61583e-05	0	0	0
1.61696e-05	0	0	0
1.63655e-05	0	0	0
1.63691e-05	0	0	0
1.65651e-05	0	0	0
1.68338e-05	0	0	0
1.70647e-05	0	0	0
1.73498e-05	0	0	0
1.75856e-05	0	0	0
1.78292e-05	0	0	0
1.8159e-05	0	0	0
1.87608e-05	0	0	0
1.8836e-05	0	0	0
1.90207e-05	0	0	0
1.90887e-05	0	0	0
1.91874e-05	0	0	0
1.9431e-05	0	0	0
2.13768e-05	0	0	0
2.31441e-05	0	0	0
2.33518e-05	0	0	0
2.36557e-05	0	0	0
2.37918e-05	0	0	0
2.47041e-05	0	0	0
2.47908e-05	0	0	0
2.50081e-05	0	0	0
2.53667e-05	0	0	0
2.61738e-05	0	0	0
2.65121e-05	0	0	0
2.65948e-05	0	0	0
2.72794e-05	0	0	0
2.76954e-05	0	0	0
2.79163e-05	0	0	0
2.85455e-05	0	0	0
2.87261e-05	0	0	0
2.8916e-05	0	0	0
2.90261e-05	0	0	0
2.92041e-05	0	0	0
2.94964e-05	0	0	0
3.05101e-05	0	0	0
3.05491e-05	0	0	0
3.15544e-05	0	0	0
3.16978e-05	0	0	0
3.2011e-05	0	0	0
3.20535e-05	0	0	0
3.23729e-05	0	0	0
3.23948e-05	0	0	0
3.26531e-05	0	0	0
3.40855e-05	0	0	0
3.46838e-05	0	0	0
3.48862e-05	0	0	0
3.51806e-05	0	0	0
3.5672e-05	0	0	0
3.59545e-05	0	0	0
3.62169e-05	0	0	0
3.66608e-05	0	0	0
3.78057e-05	0	0	0
3.80465e-05	0	0	0
3.93717e-05	0	0	0
3.99209e-05	0	0	0
4.07603e-05	0	0	0
4.40984e-05	0	0	0
4.4229e-05	0	0	0
4.50363e-05	0	0	0
4.63499e-05	0	0	0
4.88733e-05	0	0	0
4.91378e-05	0	0	0
4.94583e-05	0	0	0
5.05312e-05	0	0	0
5.15484e-05	0	0	0
5.37295e-05	0	0	0
5.48751e-05	0	0	0
5.60295e-05	0	0	0
5.66295e-05	0	0	0
6.0597e-05	0	0	0
6.15486e-05	0	0	0
6.2279e-05	0	0	0
6.23408e-05	0	0	0
6.53429e-05	0	0	0
6.56844e-05	0	0	0
6.69551e-05	0	0	0
6.77296e-05	0	0	0
6.90838e-05	0	0	0
6.93487e-05	0	0	0
6.97824e-05	0	0	0
6.98005e-05	0	0	0
7.29462e-05	0	0	0
7.5143e-05	0	0	0
7.60796e-05	0	0	0
8.03889e-05	0	0	0
8.25797e-05	0	0	0
8.34709e-05	0	0	0
8.85465e-05	0	0	0
9.55888e-05	0	0	0
9.7919e-05	0	0	0
9.79678e-05	0	0	0
9.88195e-05	0	0	0
9.99127e-05	0	0	0
0.000101645	0	0	0
0.000111016	0	0	0
0.00011866	0	0	0
0.00012333	0	0	0
0.000133823	0	0	0
0.000135535	0	0	0
0.00013585	0	0	0
0.000135884	0	0	0
0.000148505	0	0	0
0.0203049	0	0	0
0.0203926	0	0	0
0.0358643	0	0	0
0.0363761	0	0	0
0.0365712	0	0.0276396	0
0.0369	0	0.0552792	0
0.0369279	0	0.0829187	0
0.037579	0	0.110558	0
0.0399593	0	0.138198	0
0.0402482	0	0.165837	0
0.0403393	0	0.193477	0
0.0407769	0	0.221117	0
0.0407996	0	0.248756	0
0.0422189	0.0276396	0.221117	0
0.0461883	0.0276396	0.221117	0
0.0503602	0.0276396	0.221117	0
0.050365	0.0276396	0.221117	0
0.0503695	0.0552792	0.193477	0
0.0503771	0.0829187	0.165837	0
0.0503773	0.0829187	0.165837	0
0.0503779	0.0829187	0.165837	0
0.0503792	0.110558	0.138198	0
0.0503797	0.138198	0.110558	0
0.050384	0.165837	0.0829187	0
0.0503855	0.165837	0.0829187	0
0.050392	0.165837	0.0829187	0
0.0503987	0.193477	0.0552792	0
0.0504474	0.221117	0.0276396	0
0.0504485	0.221117	0.0276396	0
0.0504587	0.248756	0	0
0.0571436	0.248756	0	0
0.0573206	0.248756	0	0
0.0574087	0.248756	0.0276396	0
0.0575721	0.248756	0.0552792	0
0.057578	0.262576	0.0829187	0
0.057603	0.290216	0.0552792	0
0.0576228	0.317855	0.0276396	0
0.0924364	0.345495	0	0
0.0924586	0.345495	0	0
0.0924589	0.345495	0	0
0.0924745	0.345495	0	0
0.159667	0.345495	0	0
0.15967	0.345495	0	0
0.186006	0.345495	0	0
0.186058	0.345495	0	0
0.192064	0.345495	0	0
0.192305	0.345495	0	0
0.192316	0.359315	0.0276396	0
0.235598	0.386954	0	0
0.235697	0.386954	0	0
0.285642	0.386954	0	0
0.285742	0.386954	0	0
0.285753	0.386954	0.0552792	0
0.285785	0.414594	0.0276396	0
0.318182	0.442233	0	0
0.345559	0.442233	0	0.0909918
0.362403	0.442233	0	0.0909918
0.37577	0.442233	0	0.0909918
0.375935	0.442233	0	0.0909918
0.375935	0.456053	0.0276396	0.0909918
0.37599	0.483693	0	0.0909918
0.379654	0.483693	0	0.0909918
0.37968	0.483693	0	0.0909918
0.392773	0.483693	0	0.0909918
0.403969	0.483693	0	0.0909918
0.404072	0.483693	0	0.0909918
0.404104	0.497512	0.0276396	0.0909918
0.404249	0.525152	0	0.0909918
0.404266	0.525152	0	0.0909918
0.46417	0.525152	0	0.0909918
0.49068	0.525152	0	0.0909918
0.529782	0.525152	0	0.0909918
0.530348	0.525152	0	0.0909918
0.530655	0.525152	0.0276396	0.0909918
0.530701	0.538972	0.0552792	0.0909918
0.530732	0.566611	0.0276396	0.0909918
0.542459	0.594251	0	0.0909918
0.542686	0.594251	0	0.0909918
0.542704	0.608071	0.0276396	0.0909918
0.569375	0.63571	0	0.0909918
0.570459	0.63571	0	0.0909918
0.57048	0.64953	0.0276396	0.0909918
0.570502	0.67717	0	0.0909918
0.62833	0.67717	0	0.0909918
0.653608	0.67717	0	0.0909918
0.654392	0.67717	0	0.0909918
0.654784	0.67717	0.0276396	0.0909918
0.655173	0.67717	0.0552792	0.0909918
0.655238	0.67717	0.0829187	0.0909918
0.655593	0.67717	0.110558	0.0909918
0.657575	0.67717	0.138198	0.0909918
0.657947	0.67717	0.165837	0.0909918
0.658279	0.67717	0.193477	0.0909918
0.658411	0.67717	0.221117	0.0909918
0.658411	0.690989	0.248756	0.0909918
0.658415	0.718629	0.221117	0.0909918
0.658416	0.746269	0.193477	0.0909918
0.658418	0.773908	0.165837	0.0909918
0.658421	0.801548	0.138198	0.0909918
0.658422	0.829187	0.110558	0.0909918
0.658448	0.829187	0.110558	0.0909918
0.65847	0.856827	0.0829187	0.0909918
0.658526	0.884467	0.0552792	0.0909918
0.658572	0.912106	0.0276396	0.0909918
0.662687	0.939746	0	0.0909918
0.66318	0.939746	0	0.0909918
0.663184	0.939746	0.0552792	0.0909918
0.663215	0.967385	0.0276396	0.0909918
0.699835	0.995025	0	0.0909918
0.699863	0.995025	0	0.0909918
0.699864	0.995025	0	0.0909918
0.710287	0.995025	0	0.0909918
0.710307	0.995025	0	0.0909918
0.71031	1.00884	0.0276396	0.0909918
0.71031	1.03648	0	0.0909918
0.720927	1.03648	0	0.0909918
0.720939	1.03648	0	0.0909918
0.720964	1.03648	0	0.0909918
0.795103	1.03648	0	0.0909918
0.803473	1.03648	0	0.0909918
0.807299	1.03648	0	0.181984
0.811628	1.03648	0	0.272975
0.821503	1.03648	0	0.272975
0.821521	1.03648	0	0.272975
0.821538	1.03648	0	0.272975
0.840615	1.03648	0	0.272975
0.857557	1.03648	0	0.272975
0.858184	1.03648	0	0.272975
0.858702	1.03648	0.0276396	0.272975
0.858723	1.0503	0.0552792	0.272975
0.858729	1.07794	0.0276396	0.272975
0.858787	1.07794	0.0276396	0.272975
0.8588	1.10558	0	0.272975
0.89322	1.10558	0	0.272975
0.907654	1.10558	0	0.363967
0.90777	1.10558	0	0.363967
0.907791	1.1194	0.0276396	0.363967
0.908669	1.14704	0	0.363967
0.908851	1.14704	0	0.363967
0.909122	1.14704	0.0276396	0.363967
0.909123	1.16086	0.0552792	0.363967
0.909126	1.16086	0.0552792	0.363967
0.909148	1.16086	0.0552792	0.363967
0.909169	1.1885	0.0276396	0.363967
0.935754	1.21614	0	0.363967
0.943032	1.21614	0	0.454959
0.954984	1.21614	0	0.545951
0.956725	1.21614	0	0.545951
0.956758	1.21614	0	0.636943
0.956796	1.22996	0.0276396	0.636943
0.95903	1.2576	0	0.636943
0.959067	1.2576	0	0.636943
0.959968	1.2576	0.0276396	0.636943
0.959974	1.27142	0.0552792	0.636943
0.959976	1.29906	0.0276396	0.636943
0.959985	1.29906	0.0276396	0.636943
0.96003	1.3267	0	0.636943
0.96624	1.3267	0	0.636943
0.984918	1.3267	0	0.818926
0.984931	1.3267	0	0.818926
0.987875	1.3267	0	0.818926
0.997491	1.3267	0	0.818926
1.0107	1.3267	0	1.00091
1.01105	1.3267	0	1.00091
1.01106	1.3267	0.0552792	1.00091
1.01114	1.35434	0.0276396	1.00091
1.03926	1.38198	0	1.00091
1.10244	1.38198	0	1.0919
1.16091	1.38198	0	1.18289
1.16538	1.38198	0	1.18289
1.16579	1.38198	0	1.18289
1.166	1.38198	0.0276396	1.18289
1.16617	1.38198	0.0552792	1.18289
1.17727	1.38198	0.0829187	1.18289
1.23619	1.38198	0.0829187	1.18289
1.2362	1.38198	0.0829187	1.18289
1.2362	1.40962	0.0552792	1.18289
1.2362	1.43726	0.0276396	1.18289
1.23623	1.43726	0.0276396	1.18289
1.2363	1.43726	0.0276396	1.18289
1.24551	1.4649	0	1.18289
1.2573	1.4649	0	1.18289
1.2573	1.4649	0	1.18289
1.2737	1.4649	0	1.18289
1.34332	1.4649	0	1.18289
1.35315	1.4649	0	1.18289
1.36866	1.4649	0	1.27389
1.39173	1.4649	0	1.27389
1.39322	1.4649	0	1.36488
1.39781	1.4649	0	1.36488
1.4152	1.4649	0	1.45587
1.41686	1.4649	0	1.45587
1.41689	1.4649	0	1.54686
1.49957	1.4649	0	1.54686
1.4996	1.4649	0	1.54686
1.51223	1.4649	0	1.54686
1.51363	1.4649	0	1.54686
1.51365	1.47872	0.0276396	1.54686
1.51365	1.47872	0.0276396	1.54686
1.51368	1.50636	0	1.54686
1.52787	1.50636	0	1.54686
1.53403	1.50636	0	1.63785
1.53422	1.50636	0	1.63785
1.53432	1.50636	0.0276396	1.63785
1.53474	1.50636	0.0552792	1.63785
1.53475	1.50636	0.0829187	1.63785
1.53477	1.52018	0.110558	1.63785
1.53477	1.54782	0.0829187	1.63785
1.53478	1.57546	0.0552792	1.63785
1.53479	1.6031	0.0276396	1.63785
1.53482	1.63074	0	1.63785
1.62456	1.63074	0	1.63785
1.66994	1.63074	0	1.72884
1.67013	1.63074	0	1.72884
1.67127	1.63074	0.0276396	1.72884
1.67127	1.64456	0.0552792	1.72884
1.67128	1.67219	0.0276396	1.72884
1.6713	1.69983	0	1.72884
1.67391	1.69983	0	1.72884
1.67398	1.69983	0	1.72884
1.67403	1.69983	0	1.72884
1.67404	1.69983	0	1.72884
1.74344	1.69983	0	1.72884
1.79527	1.69983	0	1.81984
1.79561	1.69983	0	1.81984
1.79564	1.69983	0.0552792	1.81984
1.79567	1.72747	0.0276396	1.81984
1.86868	1.75511	0	1.81984
1.86902	1.75511	0	1.81984
1.86904	1.75511	0.0552792	1.81984
1.86905	1.78275	0.0276396	1.81984
1.87237	1.81039	0	1.81984
1.90305	1.81039	0	2.00182
1.91785	1.81039	0	2.09281
2.01287	1.81039	0	2.09281
2.0141	1.81039	0	2.1838
2.01427	1.81039	0	2.1838
2.01429	1.81039	0.0552792	2.1838
2.01432	1.83803	0.0276396	2.1838
2.04233	1.86567	0	2.1838
2.08979	1.86567	0	2.36579
2.1139	1.86567	0	2.36579
2.11418	1.86567	0	2.36579
2.11476	1.86567	0.0276396	2.36579
2.11476	1.87949	0.0552792	2.36579
2.11477	1.90713	0.0276396	2.36579
2.15012	1.93477	0	2.36579
2.16923	1.93477	0	2.45678
2.23615	1.93477	0	2.54777
2.2483	1.93477	0	2.63876
2.25307	1.93477	0	2.72975
2.25365	1.93477	0	2.72975
2.25367	1.94859	0.0276396	2.72975
2.25374	1.97623	0	2.72975
2.27901	1.97623	0	2.72975
2.35119	1.97623	0	2.72975
2.35183	1.97623	0	2.72975
2.35185	1.99005	0.0276396	2.72975
2.35191	1.99005	0.0276396	2.72975
2.37041	2.01769	0	2.72975
2.37173	2.01769	0	2.72975
2.37174	2.03151	0.0276396	2.72975
2.38764	2.05915	0	2.72975
2.38778	2.05915	0	2.82075
2.39762	2.05915	0	2.82075
2.39788	2.05915	0	2.82075
2.39792	2.07297	0.0276396	2.82075
2.39792	2.10061	0	2.82075
2.39792	2.10061	0	2.82075
2.41524	2.10061	0	2.82075
2.43023	2.10061	0	2.82075
2.49181	2.10061	0	2.82075
2.52469	2.10061	0	3.00273
2.5251	2.10061	0	3.00273
2.52941	2.10061	0.0276396	3.00273
2.55633	2.10061	0.0276396	3.09372
2.56132	2.10061	0.0276396	3.27571
2.58084	2.10061	0.0276396	3.3667
2.58086	2.10061	0.0276396	3.45769
2.63744	2.12825	0	3.45769
2.67703	2.12825	0	3.54868
2.67797	2.12825	0	3.54868
2.67798	2.14207	0.0276396	3.54868
2.68326	2.16971	0	3.54868
2.68476	2.16971	0	3.63967
2.68631	2.16971	0	3.63967
2.69622	2.16971	0	3.73066
2.69637	2.16971	0	3.73066
2.69641	2.16971	0.0552792	3.73066
2.69642	2.19735	0.0276396	3.73066
2.69737	2.22499	0	3.73066
2.69758	2.22499	0	3.73066
2.69758	2.23881	0.0276396	3.73066
2.69759	2.26645	0	3.73066
2.73694	2.26645	0	3.73066
2.73706	2.26645	0	3.73066
2.78104	2.26645	0	3.73066
2.78106	2.26645	0	3.73066
2.78106	2.28027	0.0276396	3.73066
2.82701	2.3079	0	3.73066
2.82727	2.3079	0	3.73066
2.82727	2.3079	0.0552792	3.73066
2.82731	2.33554	0.0276396	3.73066
2.83942	2.36318	0	3.73066
2.83988	2.36318	0	3.73066
2.84045	2.36318	0.0276396	3.73066
2.84348	2.36318	0.0552792	3.73066
2.84348	2.377	0.0829187	3.73066
2.84351	2.377	0.0829187	3.73066
2.84353	2.40464	0.0552792	3.73066
2.84353	2.43228	0.0276396	3.73066
2.89691	2.45992	0	3.73066
2.91356	2.45992	0	3.82166
2.91373	2.45992	0	3.82166
2.91373	2.47374	0.0276396	3.82166
2.92761	2.50138	0	3.82166
2.92782	2.50138	0	3.82166
2.92782	2.5152	0.0276396	3.82166
2.93352	2.54284	0	3.82166
2.93362	2.54284	0	3.82166
2.93362	2.55666	0.0276396	3.82166
2.93819	2.5843	0	3.82166
2.93915	2.5843	0	3.82166
2.93928	2.5843	0.0276396	3.82166
2.94014	2.5843	0.0552792	3.82166
2.94019	2.5843	0.0829187	3.82166
2.94181	2.5843	0.110558	3.82166
2.94184	2.5843	0.138198	3.82166
2.96499	2.5843	0.165837	3.82166
2.96501	2.5843	0.165837	3.82166
2.96501	2.61194	0.138198	3.82166
2.96501	2.63958	0.110558	3.82166
2.96503	2.66722	0.0829187	3.82166
2.96506	2.69486	0.0552792	3.82166
2.9651	2.7225	0.0276396	3.82166
2.9928	2.75014	0	3.82166
2.99365	2.75014	0	3.82166
2.99366	2.75014	0.0552792	3.82166
2.99375	2.77778	0.0276396	3.82166
2.9938	2.80542	0	3.82166
3.01617	2.80542	0	3.82166
3.03836	2.80542	0	3.82166
3.07015	2.80542	0	3.91265
3.08037	2.80542	0	3.91265
3.16181	2.80542	0	4.09463
3.16183	2.80542	0	4.09463
3.16226	2.80542	0.0276396	4.09463
3.16228	2.81924	0.0552792	4.09463
3.16232	2.84688	0.0276396	4.09463
3.16237	2.84688	0.0276396	4.09463
3.1742	2.87452	0	4.09463
3.19749	2.87452	0	4.27662
3.19754	2.87452	0	4.27662
3.19757	2.88834	0.0276396	4.27662
3.21152	2.91598	0	4.27662
3.21158	2.91598	0	4.27662
3.21159	2.91598	0.0552792	4.27662
3.21159	2.94362	0.0276396	4.27662
3.21162	2.94362	0.0276396	4.27662
3.21881	2.97125	0	4.27662
3.21979	2.97125	0	4.27662
3.21979	2.97125	0.0552792	4.27662
3.21982	2.99889	0.0276396	4.27662
3.21986	3.02653	0	4.27662
3.22008	3.02653	0	4.27662
3.22027	3.02653	0	4.27662
3.22028	3.04035	0.0276396	4.27662
3.24361	3.06799	0	4.27662
3.27988	3.06799	0	4.27662
3.34617	3.06799	0	4.36761
3.3471	3.06799	0	4.36761
3.34717	3.08181	0.0276396	4.36761
3.36354	3.10945	0	4.36761
3.36385	3.10945	0	4.36761
3.36388	3.12327	0.0276396	4.36761
3.40286	3.15091	0	4.36761
3.40303	3.15091	0	4.36761
3.40306	3.16473	0.0276396	4.36761
3.40307	3.16473	0.0276396	4.36761
3.41187	3.19237	0	4.36761
3.41192	3.19237	0	4.4586
3.42358	3.19237	0	4.4586
3.44078	3.19237	0	4.4586
3.44087	3.19237	0	4.4586
3.44088	3.20619	0.0276396	4.4586
3.47506	3.23383	0	4.4586
3.49932	3.23383	0	4.54959
3.5357	3.23383	0	4.73157
3.53593	3.23383	0	4.73157
3.53599	3.24765	0.0276396	4.73157
3.536	3.27529	0	4.73157
3.5487	3.27529	0	4.73157
3.54931	3.27529	0	4.73157
3.54934	3.28911	0.0276396	4.73157
3.5718	3.31675	0	4.73157
3.58637	3.31675	0	4.91356
3.58659	3.31675	0	4.91356
3.58667	3.33057	0.0276396	4.91356
3.64408	3.35821	0	4.91356
3.64445	3.35821	0	4.91356
3.64525	3.35821	0.0276396	4.91356
3.64527	3.37203	0.0552792	4.91356
3.64528	3.39967	0.0276396	4.91356
3.6542	3.42731	0	4.91356
3.65426	3.42731	0	4.91356
3.6543	3.44113	0.0276396	4.91356
3.66507	3.46877	0	4.91356
3.66554	3.46877	0	4.91356
3.66554	3.46877	0.0276396	4.91356
3.66697	3.46877	0.0552792	4.91356
3.66708	3.46877	0.0829187	4.91356
3.66708	3.48259	0.110558	4.91356
3.66709	3.51023	0.0829187	4.91356
3.66713	3.53787	0.0552792	4.91356
3.66717	3.56551	0.0276396	4.91356
3.67768	3.59315	0	4.91356
3.67874	3.59315	0	4.91356
3.67877	3.59315	0.0552792	4.91356
3.6788	3.62078	0.0276396	4.91356
3.6788	3.64842	0	4.91356
3.7342	3.64842	0	4.91356
3.73423	3.64842	0	4.91356
3.76902	3.64842	0	4.91356
3.76903	3.64842	0	4.91356
3.84632	3.64842	0	4.91356
3.84662	3.64842	0	4.91356
3.84663	3.64842	0.0276396	4.91356
3.84669	3.64842	0.0552792	4.91356
3.84727	3.64842	0.0829187	4.91356
3.84727	3.66224	0.110558	4.91356
3.84727	3.68988	0.0829187	4.91356
3.84727	3.68988	0.0829187	4.91356
3.84729	3.71752	0.0552792	4.91356
3.84729	3.74516	0.0276396	4.91356
3.8473	3.74516	0.0276396	4.91356
3.85248	3.7728	0	4.91356
3.88139	3.7728	0	5.00455
3.88147	3.7728	0	5.00455
3.88147	3.78662	0.0276396	5.00455
3.89862	3.81426	0	5.00455
3.89948	3.81426	0	5.00455
3.89952	3.82808	0.0276396	5.00455
3.90643	3.85572	0	5.00455
3.9148	3.85572	0	5.00455
3.91486	3.85572	0	5.00455
3.9149	3.85572	0.0552792	5.00455
3.9149	3.88336	0.0276396	5.00455
3.99805	3.911	0	5.00455
4.02896	3.911	0	5.00455
4.02898	3.911	0	5.00455
4.02899	3.92482	0.0276396	5.00455
4.0466	3.95246	0	5.00455
4.04761	3.95246	0	5.00455
4.04762	3.96628	0.0276396	5.00455
4.10099	3.99392	0	5.00455
4.1015	3.99392	0	5.00455
4.1015	3.99392	0.0552792	5.00455
4.10152	4.02156	0.0276396	5.00455
4.12791	4.0492	0	5.00455
4.13849	4.0492	0	5.18653
4.15156	4.0492	0	5.36852
4.17545	4.0492	0	5.5505
4.17641	4.0492	0	5.5505
4.17643	4.0492	0.0276396	5.5505
4.19793	4.07684	0	5.5505
4.25651	4.07684	0	5.64149
4.25732	4.07684	0	5.64149
4.25733	4.09066	0.0276396	5.64149
4.30792	4.1183	0	5.64149
4.31189	4.1183	0	5.64149
4.32008	4.1183	0	5.73248
4.32079	4.1183	0	5.73248
4.32082	4.13212	0.0276396	5.73248
4.40224	4.15976	0	5.73248
4.40236	4.15976	0	5.73248
4.40503	4.15976	0	5.73248
4.44591	4.15976	0	5.82348
4.44594	4.15976	0	5.82348
4.44788	4.15976	0	5.82348
4.44831	4.15976	0	5.82348
4.4484	4.15976	0.0276396	5.82348
4.44842	4.17358	0.0552792	5.82348
4.44847	4.20122	0.0276396	5.82348
4.50734	4.22886	0	5.82348
4.54831	4.22886	0	5.91447
4.55479	4.22886	0	6.09645
4.5553	4.22886	0	6.09645
4.55531	4.22886	0.0552792	6.09645
4.55532	4.2565	0.0276396	6.09645
4.57126	4.28413	0	6.09645
4.60832	4.28413	0	6.27843
4.6179	4.28413	0	6.36943
4.62791	4.28413	0	6.46042
4.62791	4.28413	0	6.46042
4.62794	4.29795	0.0276396	6.46042
4.64293	4.32559	0	6.46042
4.67322	4.32559	0	6.55141
4.67383	4.32559	0	6.55141
4.67384	4.32559	0.0552792	6.55141
4.67386	4.35323	0.0276396	6.55141
4.70968	4.38087	0	6.55141
4.7442	4.38087	0	6.73339
4.7448	4.38087	0	6.73339
4.74484	4.39469	0.0276396	6.73339
4.78822	4.42233	0	6.73339
4.80905	4.42233	0	6.82439
4.80943	4.42233	0	6.82439
4.80946	4.43615	0.0276396	6.82439
4.83322	4.46379	0	6.82439
4.83384	4.46379	0	6.82439
4.83385	4.46379	0.0552792	6.82439
4.8339	4.49143	0.0276396	6.82439
4.84541	4.51907	0	6.82439
4.8818	4.51907	0	6.82439
4.88344	4.51907	0	6.82439
4.88344	4.51907	0.0552792	6.82439
4.88348	4.54671	0.0276396	6.82439
4.88952	4.57435	0	6.82439
4.89045	4.57435	0	6.82439
4.89049	4.57435	0.0552792	6.82439
4.89054	4.60199	0.0276396	6.82439
4.91178	4.62963	0	6.82439
4.91178	4.62963	0	6.82439
4.91433	4.62963	0.0276396	6.82439
4.91561	4.62963	0.0552792	6.82439
4.91562	4.62963	0.110558	6.82439
4.91563	4.65727	0.0829187	6.82439
4.91566	4.68491	0.0552792	6.82439
4.91568	4.71255	0.0276396	6.82439
4.92264	4.74019	0	6.82439
4.92368	4.74019	0	6.82439
4.92383	4.74019	0.0276396	6.82439
4.92383	4.75401	0.0552792	6.82439
4.92392	4.78165	0.0276396	6.82439
4.92532	4.80929	0	6.82439
4.93996	4.80929	0	7.00637
4.94038	4.80929	0	7.00637
4.94041	4.82311	0.0276396	7.00637
4.94566	4.85075	0	7.00637
4.9713	4.85075	0	7.18835
4.98059	4.85075	0	7.27934
4.98076	4.85075	0	7.27934
4.99445	4.85075	0.0276396	7.27934
5.10199	4.85075	0.0276396	7.46133
5.10204	4.85075	0.0276396	7.55232
5.139	4.87839	0	7.55232
5.17396	4.87839	0	7.64331
5.17415	4.87839	0	7.64331
5.17416	4.87839	0.0276396	7.64331
5.17423	4.87839	0.0276396	7.64331
5.23327	4.90603	0	7.64331
5.2339	4.90603	0	7.64331
5.23392	4.91985	0.0276396	7.64331
5.29579	4.94748	0	7.64331
5.29618	4.94748	0	7.64331
5.29618	4.9613	0.0276396	7.64331
5.33995	4.98894	0	7.64331
5.34076	4.98894	0	7.64331
5.34077	5.00276	0.0276396	7.64331
5.34278	5.0304	0	7.64331
5.343	5.0304	0	7.64331
5.34378	5.0304	0.0276396	7.64331
5.34632	5.0304	0.0552792	7.64331
5.34689	5.0304	0.0829187	7.64331
5.34689	5.04422	0.110558	7.64331
5.34689	5.07186	0.0829187	7.64331
5.34692	5.0995	0.0552792	7.64331
5.34695	5.12714	0.0276396	7.64331
5.36018	5.15478	0	7.64331
5.4314	5.15478	0	7.64331
5.46766	5.15478	0	7.7343
5.46769	5.15478	0	7.7343
5.46771	5.1686	0.0276396	7.7343
5.57528	5.19624	0	7.7343
5.58429	5.19624	0	7.7343
5.58434	5.19624	0	7.7343
5.58481	5.19624	0.0276396	7.7343
5.58481	5.21006	0.0552792	7.7343
5.58482	5.2377	0.0276396	7.7343
5.62211	5.26534	0	7.7343
5.68684	5.26534	0	7.8253
5.74257	5.26534	0	7.91629
5.74285	5.26534	0	7.91629
5.74293	5.27916	0.0276396	7.91629
5.7478	5.3068	0	7.91629
5.77681	5.3068	0	8.00728
5.82202	5.3068	0	8.00728
5.85003	5.3068	0	8.00728
5.90769	5.3068	0	8.00728
5.90773	5.3068	0	8.00728
5.90773	5.32062	0.0276396	8.00728
5.96768	5.34826	0	8.00728
5.9714	5.34826	0	8.00728
5.99488	5.34826	0.0276396	8.00728
5.99489	5.34826	0.0276396	8.00728
6.00349	5.3759	0	8.00728
6.00369	5.3759	0	8.00728
6.00866	5.3759	0.0276396	8.00728
6.04004	5.3759	0.0276396	8.09827
6.04005	5.3759	0.0276396	8.18926
6.06503	5.40354	0	8.18926
6.06587	5.40354	0	8.37125
6.06618	5.40354	0	8.37125
6.06618	5.41736	0.0276396	8.37125
6.06621	5.445	0	8.37125
6.06622	5.445	0	8.37125
6.06623	5.445	0.0552792	8.37125
6.06623	5.47264	0.0276396	8.37125
6.07035	5.50028	0	8.37125
6.089	5.50028	0	8.46224
6.08901	5.50028	0	8.46224
6.08908	5.5141	0.0276396	8.46224
6.1253	5.54174	0	8.46224
6.14698	5.54174	0	8.64422
6.1475	5.54174	0	8.64422
6.14751	5.54174	0.0552792	8.64422
6.14753	5.56938	0.0276396	8.64422
6.2333	5.59701	0	8.64422
6.30632	5.59701	0	8.82621
6.30689	5.59701	0	8.82621
6.3069	5.61083	0.0276396	8.82621
6.34133	5.63847	0	8.82621
6.34321	5.63847	0	8.82621
6.34424	5.63847	0.0276396	8.82621
6.34425	5.63847	0.0829187	8.82621
6.34426	5.66611	0.0552792	8.82621
6.3443	5.69375	0.0276396	8.82621
6.39392	5.72139	0	8.82621
6.44592	5.72139	0	9.00819
6.4595	5.72139	0	9.09918
6.4595	5.72139	0	9.28116
6.4773	5.72139	0	9.28116
6.47746	5.72139	0	9.28116
6.47748	5.73521	0.0276396	9.28116
6.4817	5.76285	0	9.28116
6.48481	5.76285	0	9.46315
6.48481	5.76285	0	9.46315
6.48488	5.76285	0	9.46315
6.4849	5.76285	0	9.46315
6.5891	5.76285	0	9.46315
6.61934	5.76285	0	9.55414
6.6194	5.76285	0	9.55414
6.61944	5.77667	0.0276396	9.55414
6.68757	5.80431	0	9.55414
6.68818	5.80431	0	9.55414
6.68826	5.81813	0.0276396	9.55414
6.7401	5.84577	0	9.55414
6.74033	5.84577	0	9.55414
6.74033	5.85959	0.0276396	9.55414
6.74034	5.88723	0	9.55414
6.77656	5.88723	0	9.55414
6.80587	5.88723	0	9.55414
6.80614	5.88723	0	9.55414
6.80616	5.90105	0.0276396	9.55414
6.82296	5.92869	0	9.55414
6.82297	5.92869	0	9.55414
6.82298	5.92869	0.0552792	9.55414
6.82298	5.95633	0.0276396	9.55414
6.82301	5.95633	0.0276396	9.55414
6.994	5.98397	0	9.55414
6.99409	5.98397	0	9.55414
6.99422	5.98397	0.0276396	9.55414
6.99432	5.99779	0.0552792	9.55414
6.99435	6.02543	0.0276396	9.55414
7.00272	6.05307	0	9.55414
7.00289	6.05307	0	9.55414
7.00302	6.06689	0.0276396	9.55414
7.02457	6.09453	0	9.55414
7.0549	6.09453	0	9.64513
7.05517	6.09453	0	9.64513
7.05521	6.10835	0.0276396	9.64513
7.06097	6.13599	0	9.64513
7.06099	6.13599	0	9.64513
7.06102	6.14981	0.0276396	9.64513
7.0786	6.17745	0	9.64513
7.15997	6.17745	0	9.73612
7.16007	6.17745	0	9.73612
7.16062	6.17745	0.0276396	9.73612
7.16063	6.19127	0.0552792	9.73612
7.16066	6.21891	0.0276396	9.73612
7.21814	6.24655	0	9.73612
7.24611	6.24655	0	9.91811
7.24625	6.24655	0	9.91811
7.24628	6.26036	0.0276396	9.91811
7.2712	6.288	0	9.91811
7.27287	6.288	0	10.1001
7.3075	6.288	0	10.2821
7.30792	6.288	0	10.2821
7.30792	6.30182	0.0276396	10.2821
7.30798	6.30182	0.0276396	10.2821
7.309	6.32946	0	10.2821
7.30983	6.32946	0	10.2821
7.30985	6.34328	0.0276396	10.2821
7.30989	6.37092	0	10.2821
7.35368	6.37092	0	10.2821
7.3537	6.37092	0	10.3731
7.36018	6.37092	0	10.3731
7.36105	6.37092	0	10.3731
7.36105	6.38474	0.0276396	10.3731
7.36846	6.41238	0	10.3731
7.36888	6.41238	0	10.3731
7.36889	6.41238	0.0552792	10.3731
7.36899	6.44002	0.0276396	10.3731
7.45111	6.46766	0	10.3731
7.52181	6.46766	0	10.5551
7.52192	6.46766	0	10.5551
7.52192	6.48148	0.0276396	10.5551
7.54814	6.50912	0	10.5551
7.54828	6.50912	0	10.5551
7.54853	6.50912	0.0276396	10.5551
7.54857	6.52294	0.0552792	10.5551
7.54872	6.55058	0.0276396	10.5551
7.56779	6.57822	0	10.5551
7.56829	6.57822	0	10.5551
7.56832	6.59204	0.0276396	10.5551
7.59259	6.61968	0	10.5551
7.66967	6.61968	0	10.737
7.66988	6.61968	0	10.737
7.66991	6.6335	0.0276396	10.737
7.75514	6.66114	0	10.737
7.75605	6.66114	0	10.737
7.75608	6.67496	0.0276396	10.737
7.79197	6.7026	0	10.737
7.79238	6.7026	0	10.737
7.79243	6.71642	0.0276396	10.737
7.82545	6.74406	0	10.737
7.8256	6.74406	0	10.737
7.83781	6.74406	0.0276396	10.737
7.83782	6.74406	0.0276396	10.737
7.83796	6.74406	0.0552792	10.737
7.83801	6.74406	0.0829187	10.737
7.83834	6.74406	0.110558	10.737
7.83913	6.74406	0.138198	10.737
7.83913	6.75788	0.165837	10.737
7.83915	6.78552	0.138198	10.737
7.86695	6.81316	0.110558	10.737
7.86695	6.81316	0.110558	10.737
7.86702	6.8408	0.0829187	10.737
7.86703	6.86844	0.0552792	10.737
7.86713	6.89608	0.0276396	10.737
7.86749	6.92371	0	10.737
7.8675	6.93753	0.0276396	10.737
7.87902	6.96517	0	10.737
7.87927	6.96517	0	10.737
7.87939	6.96517	0.0276396	10.737
7.87941	6.97899	0.0552792	10.737
7.87943	7.00663	0.0276396	10.737
7.87949	7.03427	0	10.737
7.90111	7.03427	0	10.737
7.92168	7.03427	0	10.919
8.06292	7.03427	0	11.101
8.06339	7.03427	0	11.101
8.06343	7.04809	0.0276396	11.101
8.06349	7.04809	0.0276396	11.101
8.13166	7.07573	0	11.101
8.13178	7.07573	0	11.101
8.13184	7.08955	0.0276396	11.101
8.14772	7.11719	0	11.101
8.14834	7.11719	0	11.101
8.14835	7.11719	0.0552792	11.101
8.14836	7.14483	0.0276396	11.101
8.20088	7.17247	0	11.101
8.22849	7.17247	0	11.192
8.32444	7.17247	0	11.283
8.57499	7.17247	0	11.283
8.63754	7.17247	0	11.465
8.63873	7.17247	0	11.465
8.63878	7.18629	0.0276396	11.465
8.67373	7.21393	0	11.465
8.67426	7.21393	0	11.465
8.71106	7.21393	0.0276396	11.465
8.71114	7.21393	0.0276396	11.465
8.71119	7.22775	0.0552792	11.465
8.71122	7.25539	0.0276396	11.465
8.86802	7.28303	0	11.465
8.8691	7.28303	0	11.465
8.8691	7.28303	0.0552792	11.465
8.86916	7.31067	0.0276396	11.465
8.88163	7.33831	0	11.465
8.89752	7.33831	0	11.556
8.89757	7.33831	0	11.7379
8.90336	7.33831	0	11.7379
8.90568	7.33831	0	11.7379
8.90569	7.35213	0.0276396	11.7379
8.9352	7.37977	0	11.7379
8.9417	7.37977	0	11.7379
8.9422	7.37977	0	11.7379
8.94259	7.37977	0.0276396	11.7379
8.9426	7.37977	0.0552792	11.7379
8.94304	7.37977	0.0829187	11.7379
8.94305	7.39359	0.110558	11.7379
8.94305	7.42123	0.0829187	11.7379
8.94306	7.44887	0.0552792	11.7379
8.94307	7.47651	0.0276396	11.7379
9.02301	7.50415	0	11.7379
9.02796	7.50415	0	11.7379
9.07889	7.50415	0	11.9199
9.1334	7.50415	0	12.0109
9.13344	7.50415	0	12.0109
9.13344	7.50415	0.0552792	12.0109
9.13347	7.53179	0.0276396	12.0109
9.22368	7.55943	0	12.0109
9.22373	7.55943	0	12.0109
9.22387	7.55943	0.0276396	12.0109
9.22388	7.57324	0.0552792	12.0109
9.2239	7.60088	0.0276396	12.0109
9.24059	7.62852	0	12.0109
9.24075	7.62852	0	12.0109
9.24151	7.62852	0.0276396	12.0109
9.24151	7.64234	0.0552792	12.0109
9.24155	7.66998	0.0276396	12.0109
9.26941	7.69762	0	12.0109
9.27039	7.69762	0	12.0109
9.27051	7.71144	0.0276396	12.0109
9.44322	7.73908	0	12.0109
9.50164	7.73908	0	12.1929
9.50221	7.73908	0	12.1929
9.50234	7.73908	0.0276396	12.1929
9.50235	7.7529	0.0552792	12.1929
9.50237	7.78054	0.0276396	12.1929
9.61193	7.80818	0	12.1929
9.61294	7.80818	0	12.1929
9.61297	7.822	0.0276396	12.1929
9.62445	7.84964	0	12.1929
9.62553	7.84964	0	12.1929
9.62571	7.84964	0.0276396	12.1929
9.62575	7.86346	0.0552792	12.1929
9.62576	7.8911	0.0276396	12.1929
9.62576	7.91874	0	12.1929
9.66379	7.91874	0	12.1929
9.664	7.91874	0	12.1929
9.66424	7.91874	0.0276396	12.1929
9.66428	7.93256	0.0552792	12.1929
9.66428	7.9602	0.0276396	12.1929
9.69181	7.98784	0	12.1929
9.69205	7.98784	0	12.1929
9.69207	7.98784	0.0276396	12.1929
9.69244	8.01548	0	12.1929
9.69265	8.01548	0	12.1929
9.69266	8.0293	0.0276396	12.1929
9.74268	8.05694	0	12.1929
9.74287	8.05694	0	12.1929
9.74287	8.05694	0.0552792	12.1929
9.74288	8.08458	0.0276396	12.1929
9.86396	8.11222	0	12.1929
9.86479	8.11222	0	12.1929
9.8648	8.12604	0.0276396	12.1929
9.93434	8.15368	0	12.1929
9.93539	8.15368	0	12.1929
9.93552	8.15368	0.0276396	12.1929
9.93563	8.15368	0.0552792	12.1929
9.93564	8.15368	0.0829187	12.1929
9.93564	8.1675	0.110558	12.1929
9.93565	8.19514	0.0829187	12.1929
9.93568	8.22278	0.0552792	12.1929
9.9358	8.25041	0.0276396	12.1929
9.95247	8.27805	0	12.1929
9.95252	8.27805	0	12.1929
9.95254	8.29187	0.0276396	12.1929
10.0521	8.31951	0	12.1929
10.0528	8.31951	0	12.1929
10.0529	8.31951	0	12.3749
10.053	8.33333	0.0276396	12.3749
10.0552	8.36097	0	12.3749
10.0692	8.36097	0	12.4659
10.168	8.36097	0	12.4659
10.1682	8.36097	0	12.4659
10.1683	8.36097	0.0276396	12.4659
10.1684	8.37479	0.0552792	12.4659
10.1684	8.40243	0.0276396	12.4659
10.2018	8.43007	0	12.4659
10.282	8.43007	0	12.6479
10.413	8.43007	0	12.8298
10.5344	8.43007	0	12.9208
10.5354	8.43007	0	12.9208
10.5356	8.43007	0.0276396	12.9208
10.5372	8.43007	0.0276396	13.1028
10.5372	8.44389	0.0552792	13.1028
10.5373	8.47153	0.0276396	13.1028
10.6088	8.49917	0	13.1028
10.6094	8.49917	0	13.1028
10.6094	8.51299	0.0276396	13.1028
10.6099	8.54063	0	13.1028
10.6115	8.54063	0	13.1028
10.6115	8.54063	0.0552792	13.1028
10.6115	8.56827	0.0276396	13.1028
10.7011	8.59591	0	13.1028
10.7015	8.59591	0	13.1028
10.7016	8.60973	0.0276396	13.1028
10.7524	8.63737	0	13.1028
10.778	8.63737	0	13.2848
10.9703	8.63737	0	13.4668
10.9783	8.63737	0	13.6488
10.9792	8.63737	0	13.6488
10.9794	8.63737	0.0276396	13.6488
10.9794	8.65119	0.0552792	13.6488
10.9794	8.67883	0.0276396	13.6488
10.9972	8.70647	0	13.6488
10.9982	8.70647	0	13.6488
10.9983	8.72029	0.0276396	13.6488
11.0716	8.74793	0	13.6488
11.0722	8.74793	0	13.6488
11.0722	8.76175	0.0276396	13.6488
11.1521	8.78939	0	13.6488
11.1524	8.78939	0	13.6488
11.1525	8.78939	0.0276396	13.6488
11.1943	8.78939	0.0552792	13.6488
11.1943	8.78939	0.0552792	13.6488
11.1943	8.81703	0.0276396	13.6488
11.1944	8.84467	0	13.6488
11.1944	8.84467	0.0552792	13.6488
11.1944	8.87231	0.0276396	13.6488
11.4318	8.89994	0	13.6488
11.4336	8.89994	0	13.6488
11.4338	8.89994	0	13.8308
11.4342	8.89994	0.0276396	13.8308
11.4344	8.89994	0.0552792	13.8308
11.4347	8.89994	0.0829187	13.8308
11.4354	8.89994	0.110558	13.8308
11.4354	8.91376	0.138198	13.8308
11.4354	8.9414	0.110558	13.8308
11.4354	8.96904	0.0829187	13.8308
11.4355	8.99668	0.0552792	13.8308
11.4355	9.02432	0.0276396	13.8308
11.4776	9.05196	0	13.8308
11.4777	9.05196	0	13.8308
11.4777	9.06578	0.0276396	13.8308
11.4777	9.06578	0.0276396	13.8308
11.4778	9.09342	0	13.8308
11.4778	9.09342	0	13.8308
11.5079	9.09342	0	13.8308
11.5081	9.09342	0	13.8308
11.5083	9.09342	0.0276396	13.8308
11.5288	9.12106	0	13.8308
11.6074	9.12106	0	14.0127
11.6075	9.12106	0	14.0127
11.6075	9.12106	0.0552792	14.0127
11.6075	9.1487	0.0276396	14.0127
11.6529	9.17634	0	14.0127
11.6531	9.17634	0	14.0127
11.6531	9.19016	0.0276396	14.0127
11.6576	9.2178	0	14.0127
11.6582	9.2178	0	14.0127
11.6582	9.23162	0.0276396	14.0127
11.7237	9.25926	0	14.0127
11.7237	9.25926	0	14.0127
11.7237	9.25926	0.0552792	14.0127
11.7238	9.2869	0.0276396	14.0127
11.7499	9.31454	0	14.0127
11.7501	9.31454	0	14.0127
11.7501	9.32836	0.0276396	14.0127
11.7963	9.356	0	14.0127
11.7963	9.356	0	14.0127
11.7963	9.36982	0.0276396	14.0127
11.8898	9.39746	0	14.0127
11.89	9.39746	0	14.0127
11.89	9.41128	0.0276396	14.0127
11.9385	9.43892	0	14.0127
12.0061	9.43892	0	14.1037
12.0064	9.43892	0	14.1037
12.0064	9.45274	0.0276396	14.1037
12.118	9.48038	0	14.1037
12.2043	9.48038	0	14.2857
12.2048	9.48038	0	14.2857
12.2048	9.4942	0.0276396	14.2857
12.2802	9.52184	0	14.2857
12.2802	9.52184	0	14.2857
12.2803	9.52184	0.0552792	14.2857
12.2803	9.54947	0.0276396	14.2857
12.3178	9.57711	0	14.2857
12.3183	9.57711	0	14.2857
12.3183	9.57711	0.0276396	14.2857
12.3183	9.59093	0.0552792	14.2857
12.3184	9.61857	0.0276396	14.2857
12.3942	9.64621	0	14.2857
12.3954	9.64621	0	14.2857
12.3955	9.66003	0.0276396	14.2857
12.4344	9.68767	0	14.2857
12.4349	9.68767	0	14.2857
12.4349	9.70149	0.0276396	14.2857
12.441	9.72913	0	14.2857
12.5949	9.72913	0	14.2857
12.5949	9.72913	0	14.2857
12.5958	9.72913	0.0276396	14.2857
12.5958	9.74295	0.0552792	14.2857
12.5959	9.77059	0.0276396	14.2857
12.6867	9.79823	0	14.2857
12.8962	9.79823	0	14.3767
12.8977	9.79823	0	14.3767
12.8977	9.81205	0.0276396	14.3767
12.9246	9.83969	0	14.3767
12.9246	9.83969	0	14.3767
12.9264	9.83969	0.0276396	14.3767
12.9266	9.83969	0.0276396	14.3767
12.9266	9.85351	0.0552792	14.3767
13.0713	9.88115	0.0276396	14.3767
13.0714	9.88115	0.0276396	14.3767
13.0715	9.90879	0	14.3767
13.0715	9.90879	0.0552792	14.3767
13.0716	9.93643	0.0276396	14.3767
13.1639	9.96407	0	14.3767
13.164	9.96407	0	14.3767
13.164	9.97789	0.0276396	14.3767
13.1938	10.0055	0	14.3767
13.1941	10.0055	0	14.3767
13.1941	10.0193	0.0276396	14.3767
13.2215	10.047	0	14.3767
13.222	10.047	0	14.3767
13.222	10.0608	0.0276396	14.3767
13.2435	10.0884	0	14.3767
13.2444	10.0884	0	14.3767
13.2448	10.0884	0.0276396	14.3767
13.2449	10.1023	0.0552792	14.3767
13.2449	10.1299	0.0276396	14.3767
13.2478	10.1575	0	14.3767
13.2478	10.1575	0	14.3767
13.2478	10.1714	0.0276396	14.3767
13.3278	10.199	0	14.3767
13.3906	10.199	0	14.5587
13.3911	10.199	0	14.5587
13.3916	10.199	0.0276396	14.5587
13.3916	10.2128	0.0552792	14.5587
13.3916	10.2405	0.0276396	14.5587
13.4294	10.2681	0	14.5587
13.5097	10.2681	0	14.7407
13.5857	10.2681	0	14.9227
13.5859	10.2681	0	14.9227
13.586	10.2819	0.0276396	14.9227
13.65	10.3096	0	14.9227
13.6507	10.3096	0	14.9227
13.6508	10.3096	0.0276396	14.9227
13.6519	10.3096	0.0552792	14.9227
13.6521	10.3096	0.0829187	14.9227
13.6522	10.3096	0.110558	14.9227
13.7121	10.3096	0.138198	14.9227
13.7121	10.3096	0.138198	14.9227
13.7121	10.3372	0.110558	14.9227
13.7121	10.3648	0.0829187	14.9227
13.7121	10.3925	0.0552792	14.9227
13.7122	10.4201	0.0276396	14.9227
13.7136	10.4478	0	14.9227
14.0578	10.4478	0.0276396	14.9227
14.0583	10.4478	0.0276396	14.9227
14.0583	10.4478	0.0829187	14.9227
14.0583	10.4754	0.0552792	14.9227
14.0583	10.503	0.0276396	14.9227
14.1508	10.5307	0	14.9227
14.151	10.5307	0	14.9227
14.151	10.5307	0.0552792	14.9227
14.151	10.5583	0.0276396	14.9227
14.1667	10.586	0	14.9227
14.1677	10.586	0	14.9227
14.1678	10.5998	0.0276396	14.9227
14.1831	10.6274	0	14.9227
14.2766	10.6274	0	15.1046
14.2768	10.6274	0	15.1046
14.2768	10.6412	0.0276396	15.1046
14.2972	10.6689	0	15.1046
14.2985	10.6689	0	15.1046
14.2985	10.6689	0.0552792	15.1046
14.2985	10.6965	0.0276396	15.1046
14.2985	10.7242	0	15.1046
14.2985	10.7242	0	15.1046
14.3715	10.7242	0	15.1046
14.4395	10.7242	0	15.1956
14.4951	10.7242	0	15.3776
14.536	10.7242	0	15.5596
14.537	10.7242	0	15.5596
14.5371	10.738	0.0276396	15.5596
14.552	10.7656	0	15.5596
14.5522	10.7656	0	15.5596
14.5522	10.7794	0.0276396	15.5596
14.6392	10.8071	0	15.5596
14.6395	10.8071	0	15.5596
14.9438	10.8071	0.0276396	15.5596
14.9438	10.8071	0.0276396	15.5596
14.9439	10.8347	0	15.5596
14.9439	10.8485	0.0276396	15.5596
14.9494	10.8762	0	15.5596
14.9499	10.8762	0	15.5596
14.9499	10.8762	0.0552792	15.5596
14.9499	10.9038	0.0276396	15.5596
14.9499	10.9038	0.0276396	15.5596
15.0378	10.9315	0	15.5596
15.0381	10.9315	0	15.5596
15.0381	10.9315	0.0552792	15.5596
15.0382	10.9591	0.0276396	15.5596
15.0471	10.9867	0	15.5596
15.0976	10.9867	0	15.7416
15.1028	10.9867	0	15.9236
15.1034	10.9867	0	15.9236
15.1034	11.0006	0.0276396	15.9236
15.2804	11.0282	0	15.9236
15.2821	11.0282	0	15.9236
15.2821	11.0282	0.0552792	15.9236
15.2822	11.0558	0.0276396	15.9236
15.298	11.0835	0	15.9236
15.3178	11.0835	0	16.1056
15.3178	11.0835	0	16.1056
15.3179	11.0835	0.0552792	16.1056
15.3179	11.1111	0.0276396	16.1056
15.3696	11.1388	0	16.1056
15.3701	11.1388	0	16.1056
15.3701	11.1388	0.0552792	16.1056
15.3701	11.1664	0.0276396	16.1056
15.4738	11.194	0	16.1056
15.474	11.194	0	16.1056
15.474	11.194	0.0552792	16.1056
15.4741	11.2217	0.0276396	16.1056
15.4877	11.2493	0	16.1056
15.4961	11.2493	0	16.2875
15.4973	11.2493	0	16.2875
15.4973	11.2631	0.0276396	16.2875
15.5038	11.2908	0	16.2875
15.5042	11.2908	0	16.2875
15.5042	11.3046	0.0276396	16.2875
15.6012	11.3322	0	16.2875
15.6015	11.3322	0	16.2875
15.6015	11.3322	0.0552792	16.2875
15.6015	11.3599	0.0276396	16.2875
15.6579	11.3875	0	16.2875
15.6628	11.3875	0	16.4695
15.6632	11.3875	0	16.4695
15.6632	11.3875	0.0552792	16.4695
15.6632	11.4151	0.0276396	16.4695
15.7224	11.4428	0	16.4695
15.7227	11.4428	0	16.4695
15.7239	11.4428	0.0276396	16.4695
15.7239	11.4566	0.0552792	16.4695
15.7239	11.4842	0.0276396	16.4695
15.7733	11.5119	0	16.4695
15.8048	11.5119	0	16.6515
15.8052	11.5119	0	16.6515
15.8052	11.5257	0.0276396	16.6515
15.8094	11.5533	0	16.6515
15.8095	11.5533	0	16.6515
15.8095	11.5533	0.0552792	16.6515
15.8095	11.581	0.0276396	16.6515
15.8176	11.6086	0	16.6515
15.8183	11.6086	0	16.6515
15.8183	11.6224	0.0276396	16.6515
15.8226	11.6501	0	16.6515
15.8227	11.6501	0	16.6515
15.8227	11.6639	0.0276396	16.6515
15.8269	11.6915	0	16.6515
15.9545	11.6915	0	16.8335
15.9548	11.6915	0	16.8335
15.9549	11.7054	0.0276396	16.8335
16.0711	11.733	0	16.8335
16.0715	11.733	0	16.8335
16.0715	11.7468	0.0276396	16.8335
16.0858	11.7745	0	16.8335
16.0862	11.7745	0	16.8335
16.0863	11.7883	0.0276396	16.8335
16.1119	11.8159	0	16.8335
16.112	11.8159	0	16.8335
16.112	11.8159	0.0276396	16.8335
16.1122	11.8159	0.0552792	16.8335
16.1123	11.8159	0.0829187	16.8335
16.1125	11.8159	0.110558	16.8335
16.1125	11.8159	0.138198	16.8335
16.113	11.8159	0.165837	16.8335
16.113	11.8159	0.193477	16.8335
16.1131	11.8159	0.221117	16.8335
16.1131	11.8159	0.248756	16.8335
16.1136	11.8436	0.221117	16.8335
16.1136	11.8436	0.248756	16.8335
16.3127	11.8712	0.221117	16.8335
16.3127	11.8712	0.221117	16.8335
16.3127	11.8988	0.193477	16.8335
16.3127	11.9265	0.165837	16.8335
16.3127	11.9541	0.138198	16.8335
16.3127	11.9818	0.110558	16.8335
16.3128	12.0094	0.0829187	16.8335
16.3128	12.037	0.0552792	16.8335
16.3128	12.0647	0.0276396	16.8335
16.3129	12.0923	0	16.8335
16.4036	12.0923	0.0276396	16.8335
16.4036	12.0923	0.0276396	16.8335
16.4043	12.12	0	16.8335
16.4043	12.1338	0.0276396	16.8335
16.4194	12.1614	0	16.8335
16.4202	12.1614	0	16.8335
16.4202	12.1752	0.0276396	16.8335
16.4853	12.2029	0	16.8335
16.4858	12.2029	0	16.8335
16.4859	12.2167	0.0276396	16.8335
16.6035	12.2443	0	16.8335
16.6354	12.2443	0	17.0155
16.636	12.2443	0	17.0155
16.6373	12.2443	0.0276396	17.0155
16.6374	12.2582	0.0552792	17.0155
16.6374	12.2858	0.0276396	17.0155
16.6652	12.3134	0	17.0155
16.6658	12.3134	0	17.0155
16.6659	12.3134	0.0552792	17.0155
16.666	12.3411	0.0276396	17.0155
16.6744	12.3687	0	17.0155
16.6745	12.3687	0	17.0155
16.6745	12.3825	0.0276396	17.0155
16.6811	12.4102	0	17.0155
16.7137	12.4102	0	17.1975
16.7144	12.4102	0	17.1975
16.7146	12.424	0.0276396	17.1975
16.7987	12.4516	0	17.1975
16.7988	12.4516	0	17.1975
16.7989	12.4655	0.0276396	17.1975
16.8252	12.4931	0	17.1975
16.8256	12.4931	0	17.1975
16.8257	12.4931	0.0276396	17.1975
16.8257	12.5069	0.0552792	17.1975
16.8257	12.5345	0.0276396	17.1975
16.8392	12.5622	0	17.1975
16.8393	12.5622	0	17.1975
16.8393	12.576	0.0276396	17.1975
16.9149	12.6036	0	17.1975
16.9154	12.6036	0	17.1975
16.9155	12.6175	0.0276396	17.1975
16.9569	12.6451	0	17.1975
16.957	12.6451	0	17.1975
16.9571	12.6589	0.0276396	17.1975
17.0866	12.6866	0	17.1975
17.2922	12.6866	0	17.3794
17.2934	12.6866	0	17.3794
17.2935	12.7004	0.0276396	17.3794
17.3664	12.728	0	17.3794
17.367	12.728	0	17.3794
17.367	12.7418	0.0276396	17.3794
17.5116	12.7695	0	17.3794
17.5125	12.7695	0	17.3794
17.5138	12.7695	0.0276396	17.3794
17.514	12.7695	0.0552792	17.3794
17.514	12.7695	0.0829187	17.3794
17.5142	12.7695	0.110558	17.3794
17.5143	12.7695	0.138198	17.3794
17.5144	12.7695	0.165837	17.3794
17.5144	12.7695	0.221117	17.3794
17.5144	12.7971	0.193477	17.3794
17.5145	12.8248	0.165837	17.3794
17.5145	12.8524	0.138198	17.3794
17.5145	12.88	0.110558	17.3794
17.5145	12.9077	0.0829187	17.3794
17.5145	12.9353	0.0552792	17.3794
17.5145	12.963	0.0276396	17.3794
17.678	12.9906	0	17.3794
17.7744	12.9906	0	17.5614
17.7748	12.9906	0	17.5614
17.7748	13.0044	0.0276396	17.5614
17.8055	13.0321	0	17.5614
17.8669	13.0321	0	17.7434
17.867	13.0321	0	17.7434
17.8673	13.0321	0.0276396	17.7434
17.8674	13.0459	0.0552792	17.7434
17.8674	13.0735	0.0276396	17.7434
18.0777	13.1012	0	17.7434
18.0785	13.1012	0	17.7434
18.0785	13.1012	0.0276396	17.7434
18.2886	13.1012	0.0552792	17.7434
18.2886	13.1012	0.0552792	17.7434
18.2886	13.1288	0.0276396	17.7434
18.2886	13.1564	0	17.7434
18.2887	13.1703	0.0276396	17.7434
18.3931	13.1979	0	17.7434
18.3933	13.1979	0	17.7434
18.3933	13.1979	0.0552792	17.7434
18.3933	13.2255	0.0276396	17.7434
18.4676	13.2532	0	17.7434
18.4678	13.2532	0	17.7434
18.4678	13.267	0.0276396	17.7434
18.482	13.2946	0	17.7434
18.4822	13.2946	0	17.7434
18.4822	13.2946	0.0552792	17.7434
18.4822	13.3223	0.0276396	17.7434
18.5278	13.3499	0	17.7434
18.5288	13.3499	0	17.7434
18.5289	13.3637	0.0276396	17.7434
18.6231	13.3914	0	17.7434
18.6238	13.3914	0	17.7434
18.6238	13.4052	0.0276396	17.7434
18.9187	13.4328	0	17.7434
18.921	13.4328	0	17.7434
18.921	13.4328	0.0552792	17.7434
18.921	13.4605	0.0276396	17.7434
19.0209	13.4881	0	17.7434
19.0222	13.4881	0	17.7434
19.0222	13.5019	0.0276396	17.7434
19.1072	13.5296	0	17.7434
19.1133	13.5296	0	17.9254
19.114	13.5296	0	17.9254
19.114	13.5434	0.0276396	17.9254
19.1241	13.571	0	17.9254
19.1245	13.571	0	17.9254
19.1245	13.5849	0.0276396	17.9254
19.2829	13.6125	0	17.9254
19.2832	13.6125	0	17.9254
19.2832	13.6263	0.0276396	17.9254
19.3361	13.654	0	17.9254
19.3369	13.654	0	17.9254
19.3369	13.654	0.0552792	17.9254
19.337	13.6816	0.0276396	17.9254
19.5632	13.7092	0	17.9254
19.8224	13.7092	0	18.0164
19.8226	13.7092	0	18.0164
19.8226	13.7092	0.0552792	18.0164
19.8227	13.7369	0.0276396	18.0164
19.9551	13.7645	0	18.0164
19.9559	13.7645	0	18.0164
19.9559	13.7783	0.0276396	18.0164
20.0205	13.806	0	18.0164
20.0206	13.806	0	18.0164
20.0215	13.806	0.0276396	18.0164
20.0215	13.8198	0.0552792	18.0164
20.0215	13.8474	0.0276396	18.0164
20.1171	13.8751	0	18.0164
20.1323	13.8751	0	18.1984
20.1324	13.8751	0	18.1984
20.1324	13.8889	0.0276396	18.1984
20.1995	13.9165	0	18.1984
20.2747	13.9165	0	18.3803
20.2769	13.9165	0	18.3803
20.277	13.9303	0.0276396	18.3803
20.3807	13.958	0	18.3803
20.544	13.958	0	18.5623
20.5442	13.958	0	18.5623
20.5442	13.9718	0.0276396	18.5623
21.0974	13.9994	0	18.5623
21.0976	13.9994	0	18.5623
21.0976	13.9994	0.0552792	18.5623
21.0976	14.0271	0.0276396	18.5623
21.1728	14.0547	0	18.5623
21.1731	14.0547	0	18.5623
21.1731	14.0685	0.0276396	18.5623
21.423	14.0962	0	18.5623
21.423	14.0962	0	18.5623
21.423	14.0962	0.0552792	18.5623
21.423	14.1238	0.0276396	18.5623
21.4769	14.1515	0	18.5623
21.477	14.1515	0	18.5623
21.477	14.1653	0.0276396	18.5623
21.4889	14.1929	0	18.5623
21.489	14.1929	0	18.5623
21.489	14.1929	0.0276396	18.5623
21.4897	14.1929	0.0552792	18.5623
21.9052	14.1929	0.0829187	18.5623
21.9052	14.1929	0.0829187	18.5623
21.9052	14.2206	0.0552792	18.5623
21.9053	14.2482	0.0276396	18.5623
21.9054	14.2758	0	18.5623
21.9054	14.2758	0.0276396	18.5623
21.9062	14.2758	0.0552792	18.5623
21.9062	14.2758	0.0829187	18.5623
21.9063	14.3035	0.0552792	18.5623
21.9063	14.3311	0.0276396	18.5623
22.0547	14.3588	0	18.5623
22.0548	14.3588	0	18.5623
22.0548	14.3588	0.0552792	18.5623
22.0548	14.3864	0.0276396	18.5623
22.1541	14.414	0	18.5623
22.1541	14.414	0	18.5623
22.1541	14.4279	0.0276396	18.5623
22.5226	14.4555	0	18.5623
22.5226	14.4555	0	18.5623
22.5512	14.4555	0.0276396	18.5623
22.5512	14.4555	0.0276396	18.5623
22.5515	14.4831	0	18.5623
22.5515	14.4831	0.0552792	18.5623
22.5515	14.5108	0.0276396	18.5623
22.6823	14.5384	0	18.5623
22.6833	14.5384	0	18.5623
22.6833	14.5384	0.0552792	18.5623
22.6833	14.5661	0.0276396	18.5623
22.7478	14.5937	0	18.5623
22.748	14.5937	0	18.5623
22.748	14.6075	0.0276396	18.5623
22.849	14.6352	0	18.5623
22.8491	14.6352	0	18.5623
22.8491	14.6352	0.0552792	18.5623
22.8491	14.6628	0.0276396	18.5623
23.5293	14.6904	0	18.5623
23.5296	14.6904	0	18.5623
23.5296	14.6904	0.0552792	18.5623
23.5296	14.7181	0.0276396	18.5623
23.5348	14.7457	0	18.5623
23.5352	14.7457	0	18.5623
23.5357	14.7457	0.0276396	18.5623
23.5357	14.7595	0.0552792	18.5623
23.5358	14.7872	0.0276396	18.5623
23.545	14.8148	0	18.5623
23.5457	14.8148	0	18.5623
23.5457	14.8148	0.0552792	18.5623
23.5458	14.8425	0.0276396	18.5623
23.6168	14.8701	0	18.5623
23.6173	14.8701	0	18.5623
23.6173	14.8839	0.0276396	18.5623
24.126	14.9116	0	18.5623
24.1266	14.9116	0	18.5623
24.1266	14.9254	0.0276396	18.5623
24.1362	14.953	0	18.5623
24.1363	14.953	0	18.5623
24.1363	14.953	0.0552792	18.5623
24.1363	14.9807	0.0276396	18.5623
24.2795	15.0083	0	18.5623
24.2801	15.0083	0	18.5623
24.2801	15.0083	0.0552792	18.5623
24.2801	15.0359	0.0276396	18.5623
24.39	15.0636	0	18.5623
24.3915	15.0636	0	18.5623
24.3915	15.0774	0.0276396	18.5623
24.4056	15.105	0	18.5623
24.4062	15.105	0	18.5623
24.4066	15.105	0.0276396	18.5623
24.4067	15.105	0.0552792	18.5623
24.4067	15.105	0.0829187	18.5623
24.4067	15.1327	0.0552792	18.5623
24.4067	15.1603	0.0276396	18.5623
24.5654	15.1879	0	18.5623
24.6461	15.1879	0	18.7443
24.6903	15.1879	0	18.9263
24.6903	15.1879	0	18.9263
24.8562	15.1879	0.0276396	18.9263
24.8562	15.1879	0.0276396	18.9263
24.8562	15.2156	0	18.9263
24.8562	15.2294	0.0276396	18.9263
24.941	15.257	0	18.9263
24.9411	15.257	0	18.9263
24.9423	15.257	0.0276396	18.9263
24.9423	15.2709	0.0552792	18.9263
24.9423	15.2985	0.0276396	18.9263
24.956	15.3261	0	18.9263
24.9563	15.3261	0	18.9263
24.9564	15.34	0.0276396	18.9263
25.0004	15.3676	0	18.9263
25.0008	15.3676	0	18.9263
25.0008	15.3814	0.0276396	18.9263
25.0222	15.4091	0	18.9263
25.023	15.4091	0	18.9263
25.023	15.4091	0.0552792	18.9263
25.023	15.4367	0.0276396	18.9263
25.2766	15.4643	0	18.9263
25.2769	15.4643	0	18.9263
25.2769	15.4782	0.0276396	18.9263
25.2984	15.5058	0	18.9263
25.2989	15.5058	0	18.9263
25.2989	15.5058	0.0276396	18.9263
25.2989	15.5196	0.0552792	18.9263
25.2989	15.5473	0.0276396	18.9263
25.3978	15.5749	0	18.9263
25.3981	15.5749	0	18.9263
25.3985	15.5749	0.0276396	18.9263
25.3988	15.5749	0.0552792	18.9263
25.4001	15.5749	0.0829187	18.9263
25.4001	15.5887	0.110558	18.9263
25.4001	15.6164	0.0829187	18.9263
25.4001	15.644	0.0552792	18.9263
25.4002	15.6716	0.0276396	18.9263
25.5609	15.6993	0	18.9263
25.5612	15.6993	0	18.9263
25.5612	15.7131	0.0276396	18.9263
25.6272	15.7407	0	18.9263
25.6275	15.7407	0	18.9263
25.6275	15.7546	0.0276396	18.9263
25.7431	15.7822	0	18.9263
25.7432	15.7822	0	18.9263
25.7432	15.7822	0.0552792	18.9263
25.7433	15.8098	0.0276396	18.9263
26.0746	15.8375	0	18.9263
26.0752	15.8375	0	18.9263
26.1997	15.8375	0.0276396	18.9263
26.1998	15.8375	0.0276396	18.9263
26.2016	15.8651	0	18.9263
26.2017	15.8789	0.0276396	18.9263
26.2691	15.9066	0	18.9263
26.2692	15.9066	0	18.9263
26.2694	15.9066	0.0276396	18.9263
26.2698	15.9066	0.0552792	18.9263
26.2715	15.9066	0.0829187	18.9263
26.2715	15.9204	0.110558	18.9263
26.2715	15.948	0.0829187	18.9263
26.2716	15.9757	0.0552792	18.9263
26.2716	16.0033	0.0276396	18.9263
26.8134	16.031	0	18.9263
26.8142	16.031	0	18.9263
26.8143	16.031	0.0552792	18.9263
26.8143	16.0586	0.0276396	18.9263
27.2705	16.0862	0	18.9263
27.2707	16.0862	0	18.9263
27.2707	16.1001	0.0276396	18.9263
28.6775	16.1277	0	18.9263
28.6776	16.1277	0	18.9263
28.6776	16.1277	0.0552792	18.9263
28.6778	16.1553	0.0276396	18.9263
28.9805	16.183	0	18.9263
28.9819	16.183	0	18.9263
28.9823	16.183	0.0276396	18.9263
28.9823	16.1968	0.0552792	18.9263
28.9823	16.2244	0.0276396	18.9263
29.1338	16.2521	0	18.9263
29.1348	16.2521	0	18.9263
29.1348	16.2659	0.0276396	18.9263
29.732	16.2935	0	18.9263
29.7325	16.2935	0	18.9263
29.7325	16.3074	0.0276396	18.9263
29.9948	16.335	0	18.9263
29.9951	16.335	0	18.9263
31.3298	16.335	0.0276396	18.9263
31.3298	16.335	0.0276396	18.9263
31.33	16.3626	0	18.9263
31.33	16.3626	0.0552792	18.9263
31.3301	16.3903	0.0276396	18.9263
32.3051	16.4179	0	18.9263
32.3052	16.4179	0	18.9263
32.3053	16.4179	0.0276396	18.9263
32.3053	16.4317	0.0552792	18.9263
32.3053	16.4594	0.0276396	18.9263
33.4788	16.487	0	18.9263
33.4801	16.487	0	18.9263
33.4801	16.487	0.0552792	18.9263
33.4801	16.5146	0.0276396	18.9263
34.1325	16.5423	0	18.9263
34.1327	16.5423	0	18.9263
34.1328	16.5423	0.0276396	18.9263
34.1328	16.5561	0.0552792	18.9263
34.1329	16.5837	0.0276396	18.9263
34.6673	16.6114	0	18.9263
34.6681	16.6114	0	18.9263
34.6681	16.6114	0.0552792	18.9263
34.6681	16.639	0.0276396	18.9263
35.2684	16.6667	0	18.9263
35.2686	16.6667	0	18.9263
35.2686	16.6667	0.0276396	18.9263
35.2687	16.6667	0.0552792	18.9263
35.2689	16.6667	0.0829187	18.9263
35.2702	16.6667	0.110558	18.9263
35.2704	16.6667	0.138198	18.9263
35.2734	16.6667	0.165837	18.9263
35.2734	16.6667	0.193477	18.9263
35.2779	16.6667	0.221117	18.9263
35.2779	16.6667	0.248756	18.9263
35.2781	16.6943	0.221117	18.9263
35.2781	16.6943	0.248756	18.9263
35.2823	16.7219	0.221117	18.9263
35.7147	16.7219	0.221117	19.1083
35.7147	16.7219	0.221117	19.1083
35.7147	16.7219	0.276396	19.1083
35.7147	16.7496	0.248756	19.1083
35.7147	16.7772	0.221117	19.1083
35.7147	16.8049	0.193477	19.1083
35.7147	16.8325	0.165837	19.1083
35.7147	16.8601	0.138198	19.1083
35.7147	16.8878	0.110558	19.1083
35.7147	16.9154	0.0829187	19.1083
35.7148	16.9431	0.0552792	19.1083
35.7148	16.9707	0.0276396	19.1083
35.8188	16.9983	0	19.1083
35.8189	16.9983	0	19.1083
35.8189	17.0122	0.0276396	19.1083
36.9482	17.0398	0	19.1083
36.9484	17.0398	0	19.1083
36.9491	17.0398	0.0276396	19.1083
36.9491	17.0536	0.0552792	19.1083
36.9491	17.0813	0.0276396	19.1083
37.1694	17.1089	0	19.1083
37.1696	17.1089	0	19.1083
37.1697	17.1227	0.0276396	19.1083
37.5689	17.1504	0	19.1083
37.57	17.1504	0	19.1083
37.57	17.1642	0.0276396	19.1083
37.9984	17.1918	0	19.1083
37.9992	17.1918	0	19.1083
37.9992	17.1918	0.0552792	19.1083
37.9993	17.2195	0.0276396	19.1083
38.1925	17.2471	0	19.1083
38.1927	17.2471	0	19.1083
38.1927	17.2471	0.0552792	19.1083
38.1928	17.2747	0.0276396	19.1083
39.0108	17.3024	0	19.1083
39.0111	17.3024	0	19.1083
40.1088	17.3024	0.0276396	19.1083
40.1089	17.3024	0.0276396	19.1083
40.1094	17.33	0	19.1083
40.1095	17.33	0.0552792	19.1083
40.1095	17.3577	0.0276396	19.1083
41.2625	17.3853	0	19.1083
41.2627	17.3853	0	19.1083
41.2627	17.3853	0.0552792	19.1083
41.2627	17.4129	0.0276396	19.1083
41.331	17.4406	0	19.1083
41.331	17.4406	0	19.1083
41.3311	17.4544	0.0276396	19.1083
41.8983	17.482	0	19.1083
41.8986	17.482	0	19.1083
41.8986	17.482	0.0552792	19.1083
41.8986	17.5097	0.0276396	19.1083
41.9258	17.5373	0	19.1083
41.9263	17.5373	0	19.1083
41.9263	17.5511	0.0276396	19.1083
43.7623	17.5788	0	19.1083
43.7624	17.5788	0	19.1083
43.7624	17.5926	0.0276396	19.1083
44.1021	17.6202	0	19.1083
44.1025	17.6202	0	19.1083
44.1025	17.6202	0.0552792	19.1083
44.1025	17.6479	0.0276396	19.1083
44.7504	17.6755	0	19.1083
44.7504	17.6755	0	19.1083
45.3929	17.6755	0.0276396	19.1083
45.393	17.6755	0.0276396	19.1083
45.3934	17.7032	0	19.1083
45.3934	17.7032	0.0552792	19.1083
45.3934	17.7308	0.0276396	19.1083
46.5803	17.7584	0	19.1083
46.5812	17.7584	0	19.1083
46.5812	17.7722	0.0276396	19.1083
48.6598	17.7999	0	19.1083
48.6601	17.7999	0	19.1083
48.6602	17.7999	0.0552792	19.1083
48.6602	17.8275	0.0276396	19.1083
49.4628	17.8552	0	19.1083
49.4635	17.8552	0	19.1083
49.4636	17.8552	0.0552792	19.1083
49.4636	17.8828	0.0276396	19.1083
50.9232	17.9104	0	19.1083
50.9234	17.9104	0	19.1083
50.9234	17.9104	0.0276396	19.1083
50.9244	17.9104	0.0552792	19.1083
50.9245	17.9104	0.0829187	19.1083
50.925	17.9104	0.110558	19.1083
50.925	17.9104	0.138198	19.1083
50.9263	17.9104	0.165837	19.1083
50.9264	17.9104	0.193477	19.1083
50.9269	17.9104	0.221117	19.1083
50.927	17.9104	0.248756	19.1083
50.9272	17.9381	0.221117	19.1083
50.9273	17.9381	0.248756	19.1083
51.7605	17.9657	0.221117	19.1083
51.7605	17.9657	0.221117	19.1083
51.7605	17.9934	0.193477	19.1083
51.7605	18.021	0.165837	19.1083
51.7605	18.0486	0.138198	19.1083
51.7605	18.0763	0.110558	19.1083
51.7605	18.1039	0.0829187	19.1083
51.7605	18.1316	0.0552792	19.1083
51.7606	18.1592	0.0276396	19.1083
51.7612	18.1868	0	19.1083
51.7612	18.1868	0.0552792	19.1083
51.7613	18.2145	0.0276396	19.1083
52.4778	18.2421	0	19.1083
52.4779	18.2421	0	19.1083
52.4781	18.2421	0.0276396	19.1083
52.4782	18.2559	0.0552792	19.1083
52.4782	18.2836	0.0276396	19.1083
53.5803	18.3112	0	19.1083
53.5805	18.3112	0	19.1083
53.5805	18.325	0.0276396	19.1083
53.9621	18.3527	0	19.1083
53.9624	18.3527	0	19.1083
53.9625	18.3527	0.0552792	19.1083
53.9625	18.3803	0.0276396	19.1083
55.8582	18.408	0	19.1083
55.8586	18.408	0	19.1083
55.8586	18.408	0.0552792	19.1083
55.8586	18.4356	0.0276396	19.1083
55.8619	18.4632	0	19.1083
55.8625	18.4632	0	19.1083
55.8625	18.4632	0.0552792	19.1083
55.8625	18.4909	0.0276396	19.1083
58.7715	18.5185	0	19.1083
58.7719	18.5185	0	19.1083
58.7719	18.5185	0.0552792	19.1083
58.7719	18.5462	0.0276396	19.1083
59.7455	18.5738	0	19.1083
59.746	18.5738	0	19.1083
59.746	18.5738	0.0552792	19.1083
59.746	18.6014	0.0276396	19.1083
63.7937	18.6291	0	19.1083
63.7939	18.6291	0	19.1083
63.7939	18.6291	0.0552792	19.1083
63.794	18.6567	0.0276396	19.1083
65.6242	18.6844	0	19.1083
65.6251	18.6844	0	19.1083
65.6251	18.6844	0.0552792	19.1083
65.6251	18.712	0.0276396	19.1083
72.0875	18.7396	0	19.1083
72.0875	18.7396	0	19.1083
72.0875	18.7396	0.0552792	19.1083
72.0875	18.7673	0.0276396	19.1083
77.4998	18.7949	0	19.1083
77.5013	18.7949	0	19.1083
77.5016	18.7949	0.0276396	19.1083
77.5033	18.7949	0.0552792	19.1083
