3.33846e-10	0	0	0
4.75652e-10	0	0	0
7.47784e-10	0	0	0
1.05033e-09	0	0	0
1.17669e-09	0	0	0
1.49982e-09	0	0	0
1.56159e-09	0	0	0
1.95927e-09	0	0	0
4.01594e-09	0	0	0
4.43332e-09	0	0	0
4.46027e-09	0	0	0
5.05134e-09	0	0	0
5.0968e-09	0	0	0
5.45508e-09	0	0	0
5.62308e-09	0	0	0
5.71268e-09	0	0	0
7.31716e-09	0	0	0
7.50484e-09	0	0	0
7.51983e-09	0	0	0
7.62996e-09	0	0	0
7.89803e-09	0	0	0
8.24967e-09	0	0	0
8.29291e-09	0	0	0
8.91988e-09	0	0	0
1.19733e-08	0	0	0
1.34942e-08	0	0	0
1.35857e-08	0	0	0
1.62878e-08	0	0	0
1.64284e-08	0	0	0
1.68447e-08	0	0	0
1.72518e-08	0	0	0
1.81145e-08	0	0	0
1.88102e-08	0	0	0
2.03623e-08	0	0	0
2.41951e-08	0	0	0
2.82618e-08	0	0	0
2.88909e-08	0	0	0
3.20643e-08	0	0	0
3.51874e-08	0	0	0
3.66508e-08	0	0	0
3.68988e-08	0	0	0
3.90142e-08	0	0	0
4.09527e-08	0	0	0
4.24632e-08	0	0	0
4.3206e-08	0	0	0
4.39302e-08	0	0	0
4.41581e-08	0	0	0
4.44882e-08	0	0	0
5.02411e-08	0	0	0
5.05342e-08	0	0	0
5.23213e-08	0	0	0
5.41814e-08	0	0	0
6.2032e-08	0	0	0
8.23522e-08	0	0	0
8.60956e-08	0	0	0
1.12847e-07	0	0	0
1.25842e-07	0	0	0
1.67675e-07	0	0	0
1.77206e-07	0	0	0
3.941e-07	0	0	0
3.95277e-07	0	0	0
4.77305e-07	0	0	0
4.84574e-07	0	0	0
5.81219e-07	0	0	0
5.86693e-07	0	0	0
5.9095e-07	0	0	0
6.73806e-07	0	0	0
6.88364e-07	0	0	0
6.99385e-07	0	0	0
8.03985e-07	0	0	0
8.50654e-07	0	0	0
9.01008e-07	0	0	0
9.23344e-07	0	0	0
1.11218e-06	0	0	0
1.17921e-06	0	0	0
1.20188e-06	0	0	0
1.22787e-06	0	0	0
1.23099e-06	0	0	0
1.53631e-06	0	0	0
1.60682e-06	0	0	0
1.60998e-06	0	0	0
1.73037e-06	0	0	0
1.81125e-06	0	0	0
1.82339e-06	0	0	0
1.97071e-06	0	0	0
1.97239e-06	0	0	0
2.00177e-06	0	0	0
2.03676e-06	0	0	0
2.23794e-06	0	0	0
2.33503e-06	0	0	0
2.38329e-06	0	0	0
2.47581e-06	0	0	0
2.50447e-06	0	0	0
2.5273e-06	0	0	0
2.59647e-06	0	0	0
2.59992e-06	0	0	0
2.7247e-06	0	0	0
2.83106e-06	0	0	0
2.8725e-06	0	0	0
3.06523e-06	0	0	0
3.12803e-06	0	0	0
3.27982e-06	0	0	0
3.34665e-06	0	0	0
3.39023e-06	0	0	0
3.77388e-06	0	0	0
3.93254e-06	0	0	0
4.48879e-06	0	0	0
4.58885e-06	0	0	0
4.65602e-06	0	0	0
4.72321e-06	0	0	0
4.7463e-06	0	0	0
4.82506e-06	0	0	0
4.87158e-06	0	0	0
4.9112e-06	0	0	0
5.01851e-06	0	0	0
5.03615e-06	0	0	0
5.22554e-06	0	0	0
5.35195e-06	0	0	0
5.53203e-06	0	0	0
5.64264e-06	0	0	0
5.83569e-06	0	0	0
5.97373e-06	0	0	0
6.13753e-06	0	0	0
6.14688e-06	0	0	0
6.36454e-06	0	0	0
6.47438e-06	0	0	0
6.55343e-06	0	0	0
6.80926e-06	0	0	0
6.85587e-06	0	0	0
6.97782e-06	0	0	0
7.04478e-06	0	0	0
7.096e-06	0	0	0
7.1669e-06	0	0	0
7.27067e-06	0	0	0
7.38626e-06	0	0	0
7.3901e-06	0	0	0
7.41227e-06	0	0	0
7.43555e-06	0	0	0
7.50558e-06	0	0	0
7.53422e-06	0	0	0
7.72631e-06	0	0	0
7.73766e-06	0	0	0
7.79343e-06	0	0	0
7.85427e-06	0	0	0
8.09964e-06	0	0	0
8.2142e-06	0	0	0
8.30638e-06	0	0	0
8.33971e-06	0	0	0
8.40848e-06	0	0	0
8.46905e-06	0	0	0
8.50999e-06	0	0	0
8.81238e-06	0	0	0
8.95424e-06	0	0	0
9.16737e-06	0	0	0
9.28283e-06	0	0	0
9.33729e-06	0	0	0
9.45573e-06	0	0	0
9.55995e-06	0	0	0
9.6906e-06	0	0	0
9.82566e-06	0	0	0
1.00157e-05	0	0	0
1.00667e-05	0	0	0
1.01803e-05	0	0	0
1.03103e-05	0	0	0
1.05018e-05	0	0	0
1.05105e-05	0	0	0
1.07352e-05	0	0	0
1.10557e-05	0	0	0
1.11385e-05	0	0	0
1.13902e-05	0	0	0
1.14154e-05	0	0	0
1.14392e-05	0	0	0
1.15275e-05	0	0	0
1.17811e-05	0	0	0
1.18314e-05	0	0	0
1.18673e-05	0	0	0
1.19266e-05	0	0	0
1.19542e-05	0	0	0
1.21916e-05	0	0	0
1.2586e-05	0	0	0
1.26449e-05	0	0	0
1.2821e-05	0	0	0
1.30826e-05	0	0	0
1.31218e-05	0	0	0
1.34661e-05	0	0	0
1.36164e-05	0	0	0
1.36251e-05	0	0	0
1.38399e-05	0	0	0
1.40152e-05	0	0	0
1.40565e-05	0	0	0
1.4203e-05	0	0	0
1.43119e-05	0	0	0
1.47269e-05	0	0	0
1.49932e-05	0	0	0
1.58333e-05	0	0	0
1.65652e-05	0	0	0
1.68245e-05	0	0	0
1.69459e-05	0	0	0
1.79728e-05	0	0	0
1.84301e-05	0	0	0
1.84435e-05	0	0	0
1.85112e-05	0	0	0
1.87975e-05	0	0	0
1.8879e-05	0	0	0
1.89873e-05	0	0	0
1.90193e-05	0	0	0
1.90639e-05	0	0	0
1.91488e-05	0	0	0
1.92358e-05	0	0	0
1.93184e-05	0	0	0
1.93728e-05	0	0	0
1.94702e-05	0	0	0
1.96918e-05	0	0	0
1.97761e-05	0	0	0
2.01681e-05	0	0	0
2.08361e-05	0	0	0
2.12683e-05	0	0	0
2.14741e-05	0	0	0
2.15797e-05	0	0	0
2.20102e-05	0	0	0
2.25867e-05	0	0	0
2.26661e-05	0	0	0
2.29144e-05	0	0	0
2.29649e-05	0	0	0
2.36871e-05	0	0	0
2.37064e-05	0	0	0
2.39449e-05	0	0	0
2.45406e-05	0	0	0
2.4805e-05	0	0	0
2.48088e-05	0	0	0
2.49749e-05	0	0	0
2.49863e-05	0	0	0
2.49964e-05	0	0	0
2.50362e-05	0	0	0
2.5465e-05	0	0	0
2.60405e-05	0	0	0
2.68781e-05	0	0	0
2.74111e-05	0	0	0
2.76389e-05	0	0	0
2.85597e-05	0	0	0
2.89735e-05	0	0	0
2.91741e-05	0	0	0
2.98748e-05	0	0	0
2.98871e-05	0	0	0
2.98979e-05	0	0	0
2.99205e-05	0	0	0
3.00465e-05	0	0	0
3.03297e-05	0	0	0
3.12368e-05	0	0	0
3.15446e-05	0	0	0
3.15749e-05	0	0	0
3.19072e-05	0	0	0
3.26657e-05	0	0	0
3.30728e-05	0	0	0
3.32482e-05	0	0	0
3.32593e-05	0	0	0
3.4066e-05	0	0	0
3.48333e-05	0	0	0
3.53701e-05	0	0	0
3.57766e-05	0	0	0
3.62281e-05	0	0	0
3.63609e-05	0	0	0
3.75282e-05	0	0	0
3.80033e-05	0	0	0
3.82246e-05	0	0	0
3.896e-05	0	0	0
3.93261e-05	0	0	0
3.95697e-05	0	0	0
4.12389e-05	0	0	0
4.13663e-05	0	0	0
4.13988e-05	0	0	0
4.20286e-05	0	0	0
4.25602e-05	0	0	0
4.26969e-05	0	0	0
4.35013e-05	0	0	0
4.39396e-05	0	0	0
4.75646e-05	0	0	0
4.80133e-05	0	0	0
4.95439e-05	0	0	0
4.95727e-05	0	0	0
4.98257e-05	0	0	0
5.17496e-05	0	0	0
5.33064e-05	0	0	0
5.53104e-05	0	0	0
5.56202e-05	0	0	0
5.61861e-05	0	0	0
5.71926e-05	0	0	0
5.82515e-05	0	0	0
5.84295e-05	0	0	0
5.93274e-05	0	0	0
6.04973e-05	0	0	0
6.11772e-05	0	0	0
6.37939e-05	0	0	0
6.9137e-05	0	0	0
7.00098e-05	0	0	0
7.01614e-05	0	0	0
7.05383e-05	0	0	0
7.06653e-05	0	0	0
7.08193e-05	0	0	0
7.12855e-05	0	0	0
7.14661e-05	0	0	0
7.35694e-05	0	0	0
7.43253e-05	0	0	0
7.53246e-05	0	0	0
7.62063e-05	0	0	0
7.6805e-05	0	0	0
7.71003e-05	0	0	0
7.77685e-05	0	0	0
7.84687e-05	0	0	0
7.89746e-05	0	0	0
8.12623e-05	0	0	0
8.39732e-05	0	0	0
8.64214e-05	0	0	0
9.10841e-05	0	0	0
9.24056e-05	0	0	0
9.39055e-05	0	0	0
9.41562e-05	0	0	0
9.46417e-05	0	0	0
9.59125e-05	0	0	0
0.000100593	0	0	0
0.000101887	0	0	0
0.000104374	0	0	0
0.000109561	0	0	0
0.000113997	0	0	0
0.000117046	0	0	0
0.000119318	0	0	0
0.000119503	0	0	0
0.000121731	0	0	0
0.000127579	0	0	0
0.000129721	0	0	0
0.000130395	0	0	0
0.000147438	0	0	0
0.000174759	0	0	0
0.000182507	0	0	0
0.0267245	0	0	0
0.0267475	0	0	0
0.0267599	0.0138198	0.0276396	0
0.0267681	0.0414594	0	0
0.0268091	0.0414594	0	0
0.0269569	0.0414594	0	0
0.0269929	0.0414594	0	0
0.0308556	0.0414594	0	0
0.0372449	0.0414594	0	0
0.0838175	0.0414594	0	0.0909918
0.0876399	0.0414594	0	0.0909918
0.114444	0.0414594	0	0.0909918
0.134719	0.0414594	0	0.0909918
0.134848	0.0414594	0	0.0909918
0.134918	0.0414594	0.0276396	0.0909918
0.135113	0.0414594	0.0552792	0.0909918
0.13612	0.0414594	0.0829187	0.0909918
0.136188	0.0414594	0.110558	0.0909918
0.136617	0.0414594	0.138198	0.0909918
0.136941	0.0414594	0.165837	0.0909918
0.137216	0.0414594	0.193477	0.0909918
0.137694	0.0414594	0.221117	0.0909918
0.137713	0.0414594	0.248756	0.0909918
0.13821	0.0690989	0.221117	0.0909918
0.138214	0.0690989	0.248756	0.0909918
0.138228	0.0690989	0.248756	0.0909918
0.138247	0.0690989	0.248756	0.0909918
0.138348	0.0967385	0.221117	0.0909918
0.152661	0.0967385	0.221117	0.0909918
0.152663	0.0967385	0.221117	0.0909918
0.152663	0.0967385	0.221117	0.0909918
0.152665	0.0967385	0.221117	0.0909918
0.152665	0.0967385	0.221117	0.0909918
0.15267	0.0967385	0.221117	0.0909918
0.152675	0.124378	0.193477	0.0909918
0.152675	0.152018	0.165837	0.0909918
0.152677	0.179657	0.138198	0.0909918
0.152692	0.207297	0.110558	0.0909918
0.152694	0.207297	0.110558	0.0909918
0.152701	0.207297	0.110558	0.0909918
0.152712	0.207297	0.110558	0.0909918
0.152721	0.234936	0.0829187	0.0909918
0.152747	0.262576	0.0552792	0.0909918
0.152815	0.290216	0.0276396	0.0909918
0.152863	0.317855	0	0.0909918
0.152908	0.317855	0	0.0909918
0.153232	0.317855	0	0.0909918
0.153259	0.317855	0.0552792	0.0909918
0.153315	0.345495	0.0276396	0.0909918
0.15332	0.373134	0	0.0909918
0.155506	0.373134	0	0.0909918
0.156078	0.373134	0	0.0909918
0.156131	0.386954	0.0276396	0.0909918
0.158547	0.414594	0	0.0909918
0.175036	0.414594	0	0.0909918
0.178493	0.414594	0	0.0909918
0.188968	0.414594	0	0.0909918
0.189202	0.414594	0	0.0909918
0.189501	0.414594	0.0276396	0.0909918
0.189511	0.414594	0.0829187	0.0909918
0.189514	0.442233	0.0552792	0.0909918
0.189515	0.469873	0.0276396	0.0909918
0.189528	0.497512	0	0.0909918
0.225901	0.497512	0	0.0909918
0.292975	0.497512	0	0.0909918
0.294171	0.497512	0	0.0909918
0.294176	0.497512	0.0552792	0.0909918
0.294187	0.525152	0.0276396	0.0909918
0.297674	0.552792	0	0.0909918
0.303167	0.552792	0	0.0909918
0.30323	0.552792	0	0.0909918
0.303244	0.566611	0.0276396	0.0909918
0.303264	0.594251	0	0.0909918
0.30351	0.594251	0	0.0909918
0.303573	0.594251	0	0.0909918
0.303583	0.594251	0	0.0909918
0.311456	0.594251	0	0.0909918
0.311723	0.594251	0	0.0909918
0.311774	0.594251	0.0552792	0.0909918
0.311785	0.621891	0.0276396	0.0909918
0.336289	0.64953	0	0.0909918
0.337278	0.64953	0	0.0909918
0.341982	0.64953	0	0.0909918
0.361399	0.64953	0	0.181984
0.361631	0.64953	0	0.181984
0.361647	0.66335	0.0276396	0.181984
0.379936	0.690989	0	0.181984
0.395083	0.690989	0	0.181984
0.402903	0.690989	0	0.181984
0.403565	0.690989	0	0.181984
0.403581	0.690989	0.0552792	0.181984
0.40361	0.718629	0.0276396	0.181984
0.404071	0.746269	0	0.181984
0.423322	0.746269	0	0.181984
0.449799	0.746269	0	0.181984
0.452671	0.746269	0	0.272975
0.45448	0.746269	0	0.272975
0.455458	0.746269	0	0.272975
0.455479	0.760088	0.0276396	0.272975
0.524645	0.787728	0	0.272975
0.524873	0.787728	0	0.272975
0.525708	0.787728	0	0.272975
0.52573	0.801548	0.0276396	0.272975
0.529657	0.829187	0	0.272975
0.57982	0.829187	0	0.272975
0.582151	0.829187	0	0.272975
0.606733	0.829187	0	0.272975
0.616661	0.829187	0	0.272975
0.616957	0.829187	0	0.272975
0.61698	0.843007	0.0276396	0.272975
0.616995	0.843007	0.0276396	0.272975
0.617005	0.870647	0	0.272975
0.63435	0.870647	0	0.272975
0.634638	0.870647	0	0.272975
0.634642	0.870647	0.0552792	0.272975
0.634673	0.898286	0.0276396	0.272975
0.641858	0.925926	0	0.272975
0.665127	0.925926	0	0.272975
0.714317	0.925926	0	0.363967
0.715769	0.925926	0	0.363967
0.718257	0.925926	0.0276396	0.363967
0.724315	0.925926	0.0276396	0.454959
0.745832	0.925926	0.0276396	0.454959
0.745837	0.925926	0.0276396	0.454959
0.746274	0.953566	0	0.454959
0.746755	0.953566	0	0.454959
0.746783	0.953566	0.0552792	0.454959
0.746829	0.981205	0.0276396	0.454959
0.771477	1.00884	0	0.454959
0.776223	1.00884	0	0.454959
0.778898	1.00884	0	0.454959
0.778928	1.00884	0.0552792	0.454959
0.779084	1.03648	0.0276396	0.454959
0.832162	1.06412	0	0.454959
0.834744	1.06412	0	0.545951
0.834887	1.06412	0	0.545951
0.834928	1.07794	0.0276396	0.545951
0.849004	1.10558	0	0.545951
0.849008	1.10558	0	0.545951
0.866346	1.10558	0	0.545951
0.86677	1.10558	0	0.545951
0.866908	1.1194	0.0276396	0.545951
0.866971	1.14704	0	0.545951
0.86778	1.14704	0	0.545951
0.86901	1.14704	0	0.545951
0.869012	1.14704	0.0276396	0.545951
0.869019	1.16086	0.0552792	0.545951
0.869037	1.1885	0.0276396	0.545951
0.893702	1.21614	0	0.545951
0.894075	1.21614	0	0.545951
0.894096	1.22996	0.0276396	0.545951
0.909974	1.2576	0	0.545951
0.910232	1.2576	0	0.545951
0.91024	1.27142	0.0276396	0.545951
0.912746	1.29906	0	0.545951
0.922312	1.29906	0	0.636943
0.928184	1.29906	0	0.636943
0.92826	1.29906	0	0.636943
0.935011	1.29906	0	0.636943
0.939374	1.29906	0	0.727934
0.939842	1.29906	0	0.727934
0.939853	1.31288	0.0276396	0.727934
0.976243	1.34052	0	0.727934
0.978593	1.34052	0	0.818926
0.990671	1.34052	0	0.818926
0.992057	1.34052	0	0.818926
1.02752	1.34052	0.0276396	0.818926
1.02837	1.34052	0.0276396	0.818926
1.02839	1.34052	0.0829187	0.818926
1.02843	1.36816	0.0552792	0.818926
1.03173	1.3958	0.0276396	0.818926
1.03469	1.3958	0.0276396	0.818926
1.05482	1.3958	0.0276396	0.818926
1.0549	1.3958	0.0276396	0.909918
1.06954	1.42344	0	0.909918
1.0897	1.42344	0	1.0919
1.09419	1.42344	0	1.18289
1.0944	1.42344	0	1.18289
1.0944	1.43726	0.0276396	1.18289
1.14308	1.4649	0	1.18289
1.1847	1.4649	0	1.18289
1.20432	1.4649	0	1.18289
1.20515	1.4649	0	1.18289
1.2052	1.4649	0.0276396	1.18289
1.23274	1.49254	0	1.18289
1.3084	1.49254	0	1.36488
1.36586	1.49254	0	1.36488
1.36606	1.49254	0	1.36488
1.38294	1.49254	0	1.45587
1.38363	1.49254	0	1.45587
1.38401	1.49254	0.0276396	1.45587
1.38401	1.50636	0.0552792	1.45587
1.38407	1.50636	0.0552792	1.45587
1.38408	1.534	0.0276396	1.45587
1.40184	1.56164	0	1.45587
1.40538	1.56164	0	1.45587
1.40669	1.56164	0	1.45587
1.40671	1.56164	0.0552792	1.45587
1.40679	1.56164	0.0552792	1.45587
1.40683	1.58928	0.0276396	1.45587
1.41786	1.61692	0	1.45587
1.4185	1.61692	0	1.45587
1.41899	1.61692	0.0276396	1.45587
1.41903	1.63074	0.0552792	1.45587
1.41906	1.63074	0.0552792	1.45587
1.41912	1.65837	0.0276396	1.45587
1.45086	1.68601	0	1.45587
1.45098	1.68601	0	1.45587
1.45122	1.68601	0.0276396	1.45587
1.45124	1.68601	0.0552792	1.45587
1.45173	1.68601	0.0552792	1.45587
1.45254	1.68601	0.0829187	1.45587
1.45254	1.69983	0.110558	1.45587
1.45254	1.72747	0.0829187	1.45587
1.4526	1.75511	0.0552792	1.45587
1.45263	1.78275	0.0276396	1.45587
1.46807	1.81039	0	1.45587
1.46813	1.81039	0	1.45587
1.46818	1.82421	0.0276396	1.45587
1.55579	1.85185	0	1.45587
1.55676	1.85185	0	1.54686
1.55798	1.85185	0	1.54686
1.55799	1.86567	0.0276396	1.54686
1.65756	1.89331	0	1.54686
1.68045	1.89331	0	1.54686
1.69288	1.89331	0	1.54686
1.69347	1.89331	0	1.54686
1.69349	1.90713	0.0276396	1.54686
1.69805	1.93477	0	1.54686
1.69828	1.93477	0	1.54686
1.69864	1.93477	0.0276396	1.54686
1.70046	1.93477	0.0552792	1.54686
1.70046	1.94859	0.0829187	1.54686
1.70047	1.97623	0.0552792	1.54686
1.70047	2.00387	0.0276396	1.54686
1.71158	2.03151	0	1.54686
1.71208	2.03151	0	1.54686
1.71209	2.04533	0.0276396	1.54686
1.71212	2.04533	0.0276396	1.54686
1.71922	2.07297	0	1.54686
1.71973	2.07297	0	1.54686
1.72023	2.07297	0.0276396	1.54686
1.72026	2.08679	0.0552792	1.54686
1.72029	2.11443	0.0276396	1.54686
1.72433	2.14207	0	1.54686
1.72498	2.14207	0	1.54686
1.72503	2.15589	0.0276396	1.54686
1.74037	2.18353	0	1.54686
1.79133	2.18353	0	1.63785
1.80275	2.18353	0	1.63785
1.80999	2.18353	0	1.72884
1.81049	2.18353	0	1.72884
1.81061	2.19735	0.0276396	1.72884
1.82738	2.22499	0	1.72884
1.82837	2.22499	0	1.72884
1.83105	2.22499	0.0276396	1.72884
1.84937	2.22499	0.0276396	1.72884
1.8495	2.22499	0.0276396	1.72884
1.8495	2.25263	0	1.72884
1.84991	2.25263	0	1.72884
1.85001	2.25263	0	1.91083
1.85006	2.26645	0.0276396	1.91083
1.85007	2.26645	0.0276396	1.91083
1.86326	2.29409	0	1.91083
1.86904	2.29409	0	2.00182
1.87366	2.29409	0	2.00182
1.87408	2.29409	0	2.00182
1.87413	2.3079	0.0276396	2.00182
1.8759	2.33554	0	2.00182
1.88413	2.33554	0	2.09281
1.91518	2.33554	0	2.09281
1.91601	2.33554	0	2.09281
1.91601	2.33554	0.0276396	2.09281
1.91602	2.34936	0.0552792	2.09281
1.91604	2.34936	0.0552792	2.09281
1.91609	2.377	0.0276396	2.09281
1.91637	2.40464	0	2.09281
1.92259	2.40464	0	2.1838
1.93183	2.40464	0	2.2748
1.94682	2.40464	0	2.2748
1.94703	2.40464	0	2.2748
1.94704	2.41846	0.0276396	2.2748
1.94844	2.4461	0	2.2748
1.95269	2.4461	0	2.2748
1.96844	2.4461	0	2.36579
1.98765	2.4461	0	2.45678
1.98783	2.4461	0	2.45678
1.98804	2.4461	0.0276396	2.45678
2.01044	2.4461	0.0552792	2.45678
2.01057	2.4461	0.0552792	2.45678
2.01217	2.4461	0.0829187	2.45678
2.01217	2.45992	0.110558	2.45678
2.01232	2.48756	0.0829187	2.45678
2.02125	2.5152	0.0552792	2.45678
2.0214	2.5152	0.0552792	2.45678
2.02144	2.52902	0.0829187	2.45678
2.05984	2.55666	0.0552792	2.45678
2.05988	2.55666	0.0552792	2.54777
2.05993	2.5843	0.0276396	2.54777
2.07592	2.61194	0	2.54777
2.07601	2.61194	0	2.72975
2.07626	2.61194	0	2.72975
2.07629	2.62576	0.0276396	2.72975
2.10589	2.6534	0	2.72975
2.11522	2.6534	0	2.72975
2.13199	2.6534	0	2.72975
2.13256	2.6534	0	2.72975
2.13257	2.66722	0.0276396	2.72975
2.15441	2.69486	0	2.72975
2.15459	2.69486	0	2.72975
2.15588	2.69486	0.0276396	2.72975
2.15592	2.70868	0.0552792	2.72975
2.15594	2.73632	0.0276396	2.72975
2.23317	2.76396	0	2.72975
2.23456	2.76396	0	2.82075
2.23504	2.76396	0	2.82075
2.23506	2.77778	0.0276396	2.82075
2.24332	2.80542	0	2.82075
2.24541	2.80542	0	2.91174
2.24564	2.80542	0	2.91174
2.24653	2.80542	0.0276396	2.91174
2.24653	2.81924	0.0552792	2.91174
2.24655	2.84688	0.0276396	2.91174
2.25869	2.87452	0	2.91174
2.25916	2.87452	0	2.91174
2.25923	2.87452	0	2.91174
2.25924	2.88834	0.0276396	2.91174
2.26024	2.91598	0	2.91174
2.26034	2.91598	0.0276396	2.91174
2.26039	2.9298	0.0552792	2.91174
2.26041	2.95744	0.0276396	2.91174
2.29787	2.98507	0	2.91174
2.33062	2.98507	0	3.00273
2.33083	2.98507	0	3.00273
2.33089	2.99889	0.0276396	3.00273
2.34806	3.02653	0	3.00273
2.34816	3.02653	0	3.00273
2.34829	3.04035	0.0276396	3.00273
2.34938	3.06799	0	3.00273
2.35074	3.06799	0	3.00273
2.35089	3.08181	0.0276396	3.00273
2.37728	3.10945	0	3.00273
2.37813	3.10945	0	3.00273
2.37894	3.10945	0.0276396	3.00273
2.37894	3.12327	0.0552792	3.00273
2.37896	3.15091	0.0276396	3.00273
2.44249	3.17855	0	3.00273
2.44345	3.17855	0	3.00273
2.44345	3.17855	0.0552792	3.00273
2.44346	3.20619	0.0276396	3.00273
2.44347	3.20619	0.0276396	3.00273
2.44348	3.23383	0	3.00273
2.46751	3.23383	0	3.00273
2.46945	3.23383	0	3.00273
2.46948	3.24765	0.0276396	3.00273
2.47005	3.27529	0	3.00273
2.4705	3.27529	0	3.00273
2.47052	3.28911	0.0276396	3.00273
2.50364	3.31675	0	3.00273
2.50373	3.31675	0	3.00273
2.5046	3.31675	0.0276396	3.00273
2.50547	3.31675	0.0552792	3.00273
2.5055	3.31675	0.0829187	3.00273
2.50652	3.31675	0.110558	3.00273
2.50697	3.31675	0.138198	3.00273
2.50698	3.31675	0.165837	3.00273
2.50714	3.31675	0.193477	3.00273
2.50764	3.31675	0.221117	3.00273
2.50765	3.33057	0.248756	3.00273
2.50765	3.35821	0.221117	3.00273
2.50766	3.38585	0.193477	3.00273
2.50767	3.41349	0.165837	3.00273
2.50769	3.44113	0.138198	3.00273
2.50771	3.46877	0.110558	3.00273
2.50774	3.49641	0.0829187	3.00273
2.50775	3.52405	0.0552792	3.00273
2.50784	3.55169	0.0276396	3.00273
2.51083	3.57933	0	3.00273
2.53045	3.57933	0	3.00273
2.56614	3.57933	0	3.09372
2.57172	3.57933	0	3.18471
2.57286	3.57933	0	3.18471
2.57289	3.57933	0.0552792	3.18471
2.57293	3.60697	0.0276396	3.18471
2.57673	3.6346	0	3.18471
2.63635	3.6346	0	3.3667
2.63638	3.6346	0	3.3667
2.63638	3.6346	0.0552792	3.3667
2.63639	3.66224	0.0276396	3.3667
2.63743	3.68988	0	3.3667
2.64723	3.68988	0	3.45769
2.64742	3.68988	0	3.45769
2.64742	3.7037	0.0276396	3.45769
2.67603	3.73134	0	3.45769
2.67605	3.73134	0	3.54868
2.70154	3.73134	0	3.54868
2.70162	3.73134	0	3.54868
2.7017	3.74516	0.0276396	3.54868
2.71918	3.7728	0	3.54868
2.72553	3.7728	0	3.73066
2.75138	3.7728	0	3.82166
2.75216	3.7728	0	3.82166
2.75217	3.78662	0.0276396	3.82166
2.77203	3.81426	0	3.82166
2.77248	3.81426	0	3.82166
2.7725	3.82808	0.0276396	3.82166
2.81092	3.85572	0	3.82166
2.81104	3.85572	0	3.82166
2.81108	3.86954	0.0276396	3.82166
2.8498	3.89718	0	3.82166
2.85068	3.89718	0	3.82166
2.85101	3.89718	0.0276396	3.82166
2.85109	3.89718	0.0552792	3.82166
2.85142	3.89718	0.0829187	3.82166
2.85152	3.89718	0.110558	3.82166
2.85153	3.911	0.138198	3.82166
2.85153	3.93864	0.110558	3.82166
2.85154	3.96628	0.0829187	3.82166
2.85156	3.99392	0.0552792	3.82166
2.85157	4.02156	0.0276396	3.82166
2.8598	4.0492	0	3.82166
2.86013	4.0492	0	3.82166
2.86035	4.0492	0.0276396	3.82166
2.86038	4.06302	0.0552792	3.82166
2.86041	4.09066	0.0276396	3.82166
2.88629	4.1183	0	3.82166
2.88652	4.1183	0	3.82166
2.88654	4.13212	0.0276396	3.82166
2.88834	4.15976	0	3.82166
2.89101	4.15976	0	3.91265
2.93183	4.15976	0	4.00364
2.93368	4.15976	0	4.00364
2.93369	4.17358	0.0276396	4.00364
2.93542	4.20122	0	4.00364
2.93787	4.20122	0	4.00364
2.93788	4.21504	0.0276396	4.00364
2.93788	4.24268	0	4.00364
2.94045	4.24268	0	4.00364
2.94189	4.24268	0	4.09463
2.9425	4.24268	0	4.09463
2.94325	4.24268	0.0276396	4.09463
2.9433	4.24268	0.0829187	4.09463
2.94333	4.27032	0.0552792	4.09463
2.94337	4.29795	0.0276396	4.09463
2.97814	4.32559	0	4.09463
2.97889	4.32559	0	4.09463
2.97942	4.32559	0.0276396	4.09463
2.97945	4.33941	0.0552792	4.09463
2.97957	4.36705	0.0276396	4.09463
2.97962	4.39469	0	4.09463
2.995	4.39469	0	4.09463
3.02987	4.39469	0	4.18562
3.0351	4.39469	0	4.27662
3.05007	4.39469	0	4.36761
3.05021	4.39469	0	4.36761
3.05036	4.39469	0.0276396	4.36761
3.05056	4.39469	0.0552792	4.36761
3.05066	4.39469	0.0829187	4.36761
3.05069	4.39469	0.110558	4.36761
3.0507	4.40851	0.138198	4.36761
3.05073	4.43615	0.110558	4.36761
3.05075	4.46379	0.0829187	4.36761
3.05078	4.49143	0.0552792	4.36761
3.0511	4.51907	0.0276396	4.36761
3.06834	4.54671	0	4.36761
3.06912	4.54671	0	4.36761
3.06913	4.56053	0.0276396	4.36761
3.08045	4.58817	0	4.36761
3.08048	4.58817	0	4.36761
3.08049	4.60199	0.0276396	4.36761
3.10081	4.62963	0	4.36761
3.10115	4.62963	0	4.36761
3.1012	4.64345	0.0276396	4.36761
3.102	4.67109	0	4.36761
3.12318	4.67109	0	4.4586
3.1584	4.67109	0	4.54959
3.17776	4.67109	0	4.54959
3.21624	4.67109	0	4.64058
3.2164	4.67109	0	4.64058
3.21643	4.68491	0.0276396	4.64058
3.23077	4.71255	0	4.64058
3.23124	4.71255	0	4.64058
3.23154	4.71255	0.0276396	4.64058
3.23161	4.72637	0.0552792	4.64058
3.23169	4.75401	0.0276396	4.64058
3.26605	4.78165	0	4.64058
3.27754	4.78165	0	4.64058
3.27835	4.78165	0	4.64058
3.27886	4.78165	0.0276396	4.64058
3.27888	4.79547	0.0552792	4.64058
3.279	4.82311	0.0276396	4.64058
3.28243	4.85075	0	4.64058
3.28403	4.85075	0	4.64058
3.28405	4.86457	0.0276396	4.64058
3.31031	4.89221	0	4.64058
3.31083	4.89221	0	4.64058
3.31085	4.90603	0.0276396	4.64058
3.35162	4.93367	0	4.64058
3.36625	4.93367	0	4.73157
3.36713	4.93367	0	4.73157
3.36803	4.93367	0.0276396	4.73157
3.36804	4.94748	0.0552792	4.73157
3.36805	4.97512	0.0276396	4.73157
3.38245	5.00276	0	4.73157
3.38718	5.00276	0	4.73157
3.41988	5.00276	0	4.82257
3.46498	5.00276	0	4.91356
3.46571	5.00276	0	4.91356
3.46573	5.01658	0.0276396	4.91356
3.47301	5.04422	0	4.91356
3.47438	5.04422	0	4.91356
3.47501	5.04422	0.0276396	4.91356
3.47501	5.04422	0.0829187	4.91356
3.47503	5.07186	0.0552792	4.91356
3.47505	5.0995	0.0276396	4.91356
3.47822	5.12714	0	4.91356
3.48261	5.12714	0	5.00455
3.48392	5.12714	0	5.00455
3.48396	5.14096	0.0276396	5.00455
3.4895	5.1686	0	5.00455
3.48991	5.1686	0	5.00455
3.48998	5.1686	0.0552792	5.00455
3.49	5.19624	0.0276396	5.00455
3.49409	5.22388	0	5.00455
3.49899	5.22388	0	5.09554
3.49916	5.22388	0	5.09554
3.49916	5.22388	0.0552792	5.09554
3.49933	5.25152	0.0276396	5.09554
3.51589	5.27916	0	5.09554
3.51611	5.27916	0	5.09554
3.51611	5.27916	0.0276396	5.09554
3.52994	5.3068	0	5.09554
3.57168	5.3068	0	5.18653
3.57216	5.3068	0	5.18653
3.57217	5.3068	0.0552792	5.18653
3.57218	5.33444	0.0276396	5.18653
3.57222	5.36208	0	5.18653
3.59252	5.36208	0	5.18653
3.5926	5.36208	0	5.18653
3.59261	5.36208	0.0552792	5.18653
3.59265	5.38972	0.0276396	5.18653
3.63868	5.41736	0	5.18653
3.63875	5.41736	0	5.18653
3.63908	5.41736	0.0276396	5.18653
3.63927	5.41736	0.0552792	5.18653
3.64068	5.41736	0.0829187	5.18653
3.64119	5.41736	0.110558	5.18653
3.64223	5.41736	0.138198	5.18653
3.64227	5.41736	0.165837	5.18653
3.64272	5.41736	0.193477	5.18653
3.64296	5.41736	0.221117	5.18653
3.64313	5.41736	0.248756	5.18653
3.64341	5.445	0.221117	5.18653
3.64342	5.445	0.248756	5.18653
3.66302	5.47264	0.221117	5.18653
3.66325	5.47264	0.221117	5.18653
3.66333	5.48646	0.248756	5.18653
3.68311	5.5141	0.221117	5.18653
3.68311	5.5141	0.221117	5.36852
3.68312	5.54174	0.193477	5.36852
3.68312	5.56938	0.165837	5.36852
3.68313	5.59701	0.138198	5.36852
3.68313	5.59701	0.138198	5.36852
3.68313	5.62465	0.110558	5.36852
3.68314	5.65229	0.0829187	5.36852
3.68314	5.67993	0.0552792	5.36852
3.68315	5.70757	0.0276396	5.36852
3.68318	5.70757	0.0276396	5.36852
3.68321	5.70757	0.0276396	5.36852
3.6903	5.73521	0	5.36852
3.69594	5.73521	0	5.45951
3.69872	5.73521	0	5.5505
3.69924	5.73521	0	5.5505
3.6993	5.74903	0.0276396	5.5505
3.70023	5.77667	0	5.5505
3.70111	5.77667	0	5.5505
3.70115	5.77667	0.0552792	5.5505
3.70117	5.80431	0.0276396	5.5505
3.70166	5.83195	0	5.5505
3.70315	5.83195	0	5.5505
3.7032	5.83195	0.0552792	5.5505
3.70321	5.85959	0.0276396	5.5505
3.73266	5.88723	0	5.5505
3.73298	5.88723	0	5.5505
3.733	5.90105	0.0276396	5.5505
3.73302	5.92869	0	5.5505
3.76335	5.92869	0	5.5505
3.76355	5.92869	0	5.5505
3.76355	5.94251	0.0276396	5.5505
3.76389	5.97015	0	5.5505
3.79045	5.97015	0	5.5505
3.79118	5.97015	0	5.5505
3.79119	5.98397	0.0276396	5.5505
3.81887	6.01161	0	5.5505
3.82659	6.01161	0	5.5505
3.82736	6.01161	0	5.5505
3.82737	6.01161	0.0552792	5.5505
3.82752	6.03925	0.0276396	5.5505
3.86555	6.06689	0	5.5505
3.86599	6.06689	0	5.5505
3.866	6.08071	0.0276396	5.5505
3.89976	6.10835	0	5.5505
3.9001	6.10835	0	5.5505
3.9001	6.12217	0.0276396	5.5505
3.93029	6.14981	0	5.5505
3.93138	6.14981	0	5.5505
3.9314	6.16363	0.0276396	5.5505
3.96953	6.19127	0	5.5505
3.97032	6.19127	0	5.5505
3.97033	6.19127	0.0552792	5.5505
3.97035	6.21891	0.0276396	5.5505
4.02395	6.24655	0	5.5505
4.0388	6.24655	0	5.64149
4.05015	6.24655	0	5.64149
4.05021	6.24655	0	5.64149
4.05022	6.26036	0.0276396	5.64149
4.05999	6.288	0	5.64149
4.06004	6.288	0	5.64149
4.06008	6.30182	0.0276396	5.64149
4.06049	6.32946	0	5.64149
4.07308	6.32946	0	5.82348
4.08388	6.32946	0	6.00546
4.09938	6.32946	0	6.09645
4.10189	6.32946	0	6.27843
4.14708	6.32946	0	6.27843
4.14753	6.32946	0	6.27843
4.15006	6.32946	0.0276396	6.27843
4.15027	6.32946	0.0276396	6.27843
4.15078	6.32946	0.0552792	6.27843
4.15113	6.32946	0.0552792	6.46042
4.15114	6.34328	0.0829187	6.46042
4.15117	6.37092	0.0552792	6.46042
4.15117	6.37092	0.0552792	6.46042
4.15121	6.39856	0.0276396	6.46042
4.21636	6.39856	0.0276396	6.46042
4.2164	6.39856	0.0276396	6.46042
4.22225	6.4262	0	6.46042
4.22227	6.4262	0	6.46042
4.22243	6.4262	0.0276396	6.46042
4.22285	6.4262	0.0552792	6.46042
4.30096	6.4262	0.0829187	6.46042
4.30098	6.4262	0.0829187	6.6424
4.30099	6.45384	0.0552792	6.6424
4.301	6.48148	0.0276396	6.6424
4.40837	6.50912	0	6.6424
4.40918	6.50912	0	6.6424
4.40931	6.50912	0	6.6424
4.40933	6.52294	0.0276396	6.6424
4.40963	6.55058	0	6.6424
4.40968	6.5644	0.0276396	6.6424
4.58053	6.59204	0	6.6424
4.58129	6.59204	0	6.6424
4.58135	6.60586	0.0276396	6.6424
4.58674	6.6335	0	6.6424
4.58723	6.6335	0	6.6424
4.58743	6.64732	0.0276396	6.6424
4.58743	6.67496	0	6.6424
4.61327	6.67496	0	6.6424
4.61572	6.67496	0	6.73339
4.61593	6.67496	0	6.73339
4.61604	6.68878	0.0276396	6.73339
4.6492	6.71642	0	6.73339
4.68255	6.71642	0	6.91538
4.7562	6.71642	0	6.91538
4.75673	6.71642	0	6.91538
4.75675	6.71642	0.0276396	6.91538
4.75676	6.73024	0.0552792	6.91538
4.75679	6.75788	0.0276396	6.91538
4.75681	6.75788	0.0276396	6.91538
4.81481	6.78552	0	6.91538
4.81552	6.78552	0	6.91538
4.81553	6.78552	0.0552792	6.91538
4.81555	6.81316	0.0276396	6.91538
4.84697	6.8408	0	6.91538
4.86866	6.8408	0	7.00637
4.86933	6.8408	0	7.00637
4.86933	6.8408	0.0552792	7.00637
4.86937	6.86844	0.0276396	7.00637
4.87184	6.89608	0	7.00637
4.8767	6.89608	0	7.18835
4.87701	6.89608	0	7.18835
4.87708	6.89608	0.0552792	7.18835
4.87711	6.92371	0.0276396	7.18835
4.92979	6.95135	0	7.18835
4.93883	6.95135	0	7.37034
4.93955	6.95135	0	7.37034
4.93962	6.95135	0.0276396	7.37034
4.96589	6.97899	0	7.37034
5.02484	6.97899	0	7.46133
5.02485	6.97899	0	7.46133
5.02496	6.99281	0.0276396	7.46133
5.05832	7.02045	0	7.46133
5.05836	7.02045	0	7.46133
5.05839	7.03427	0.0276396	7.46133
5.05861	7.06191	0	7.46133
5.05896	7.06191	0	7.46133
5.05902	7.07573	0.0276396	7.46133
5.06693	7.10337	0	7.46133
5.06712	7.10337	0	7.46133
5.06743	7.10337	0.0276396	7.46133
5.06743	7.11719	0.0552792	7.46133
5.06744	7.14483	0.0276396	7.46133
5.0748	7.17247	0	7.46133
5.07515	7.17247	0	7.46133
5.07521	7.18629	0.0276396	7.46133
5.11782	7.21393	0	7.46133
5.14652	7.21393	0	7.55232
5.2473	7.21393	0	7.64331
5.26255	7.21393	0	7.8253
5.26273	7.21393	0	7.8253
5.26287	7.22775	0.0276396	7.8253
5.27941	7.25539	0	7.8253
5.27952	7.25539	0	7.8253
5.27967	7.25539	0.0276396	7.8253
5.2797	7.26921	0.0552792	7.8253
5.27973	7.29685	0.0276396	7.8253
5.30169	7.32449	0	7.8253
5.3017	7.32449	0	7.8253
5.3018	7.33831	0.0276396	7.8253
5.30202	7.36595	0	7.8253
5.30242	7.36595	0	7.8253
5.30242	7.37977	0.0276396	7.8253
5.31525	7.40741	0	7.8253
5.31547	7.40741	0	7.8253
5.31551	7.42123	0.0276396	7.8253
5.41394	7.44887	0	7.8253
5.41571	7.44887	0	7.8253
5.48768	7.44887	0.0276396	7.8253
5.48773	7.44887	0.0276396	7.8253
5.48811	7.47651	0	7.8253
5.48858	7.47651	0.0276396	7.8253
5.48889	7.47651	0.0552792	7.8253
5.4889	7.49033	0.0829187	7.8253
5.4889	7.51797	0.0552792	7.8253
5.48894	7.54561	0.0276396	7.8253
5.51037	7.57324	0	7.8253
5.51053	7.57324	0	7.8253
5.51056	7.57324	0.0552792	7.8253
5.51058	7.60088	0.0276396	7.8253
5.55659	7.62852	0	7.8253
5.59572	7.62852	0	7.8253
5.59642	7.62852	0	8.00728
5.59849	7.62852	0	8.00728
5.59861	7.64234	0.0276396	8.00728
5.64893	7.66998	0	8.00728
5.67185	7.66998	0	8.09827
5.67506	7.66998	0	8.28025
5.67522	7.66998	0	8.28025
5.67525	7.6838	0.0276396	8.28025
5.72796	7.71144	0	8.28025
5.72828	7.71144	0	8.28025
5.72829	7.72526	0.0276396	8.28025
5.74332	7.7529	0	8.28025
5.77195	7.7529	0	8.46224
5.7854	7.7529	0	8.55323
5.81181	7.7529	0	8.64422
5.81226	7.7529	0	8.64422
5.8123	7.76672	0.0276396	8.64422
5.82295	7.79436	0	8.64422
5.82328	7.79436	0	8.64422
5.82345	7.79436	0.0276396	8.64422
5.82346	7.79436	0.0552792	8.64422
5.82348	7.79436	0.0552792	8.64422
5.82355	7.822	0.0276396	8.64422
5.82907	7.84964	0	8.64422
5.82913	7.84964	0	8.64422
5.82914	7.84964	0.0552792	8.64422
5.82922	7.87728	0.0276396	8.64422
5.84355	7.90492	0	8.64422
5.84361	7.90492	0	8.64422
5.86417	7.90492	0.0276396	8.64422
5.90802	7.90492	0.0276396	8.82621
5.90817	7.90492	0.0276396	8.82621
5.92938	7.93256	0	8.82621
5.92965	7.93256	0	8.82621
5.92971	7.93256	0.0276396	8.82621
5.95261	7.9602	0	8.82621
5.98356	7.9602	0	8.9172
5.98394	7.9602	0	8.9172
5.98397	7.97402	0.0276396	8.9172
6.00774	8.00166	0	8.9172
6.00964	8.00166	0	8.9172
6.00967	8.00166	0.0552792	8.9172
6.0099	8.0293	0.0276396	8.9172
6.03638	8.05694	0	8.9172
6.0368	8.05694	0	8.9172
6.03691	8.07076	0.0276396	8.9172
6.07509	8.0984	0	8.9172
6.07515	8.0984	0	8.9172
6.07537	8.0984	0.0276396	8.9172
6.23114	8.0984	0.0552792	8.9172
6.23115	8.0984	0.0552792	8.9172
6.23116	8.12604	0.0276396	8.9172
6.23118	8.13986	0.0552792	8.9172
6.23125	8.1675	0.0276396	8.9172
6.23342	8.19514	0	8.9172
6.25962	8.19514	0	9.00819
6.26147	8.19514	0	9.00819
6.26152	8.20896	0.0276396	9.00819
6.26232	8.23659	0	9.00819
6.34331	8.23659	0	9.19017
6.34392	8.23659	0	9.19017
6.37214	8.23659	0.0276396	9.19017
6.37258	8.23659	0.0276396	9.19017
6.37261	8.23659	0.0552792	9.19017
6.37267	8.23659	0.0829187	9.19017
6.37315	8.23659	0.110558	9.19017
6.37319	8.23659	0.138198	9.19017
6.37329	8.26423	0.110558	9.19017
6.37689	8.29187	0.0829187	9.19017
6.37691	8.29187	0.0829187	9.19017
6.37693	8.31951	0.0552792	9.19017
6.37696	8.34715	0.0276396	9.19017
6.37706	8.37479	0	9.19017
6.37758	8.37479	0	9.19017
6.37769	8.37479	0.0276396	9.19017
6.37883	8.37479	0.0552792	9.19017
6.39319	8.37479	0.0829187	9.19017
6.3932	8.37479	0.0829187	9.19017
6.39322	8.38861	0.110558	9.19017
6.39807	8.41625	0.0829187	9.19017
6.39809	8.41625	0.0829187	9.19017
6.39809	8.44389	0.0552792	9.19017
6.39813	8.47153	0.0276396	9.19017
6.39877	8.49917	0	9.19017
6.39896	8.49917	0.0276396	9.19017
6.4232	8.49917	0.0552792	9.19017
6.42401	8.49917	0.0552792	9.19017
6.42407	8.49917	0.110558	9.19017
6.42408	8.52681	0.0829187	9.19017
6.43747	8.55445	0.0552792	9.19017
6.43754	8.55445	0.0552792	9.37216
6.43759	8.58209	0.0276396	9.37216
6.43907	8.60973	0	9.37216
6.44819	8.60973	0	9.55414
6.4542	8.60973	0	9.64513
6.45451	8.60973	0	9.64513
6.45454	8.62355	0.0276396	9.64513
6.45663	8.65119	0	9.64513
6.45705	8.65119	0	9.64513
6.45706	8.66501	0.0276396	9.64513
6.45854	8.69265	0	9.64513
6.4588	8.69265	0	9.64513
6.4599	8.69265	0	9.82712
6.46515	8.69265	0.0276396	9.82712
6.51737	8.69265	0.0276396	10.0091
6.51747	8.69265	0.0276396	10.1001
6.54594	8.72029	0	10.1001
6.54644	8.72029	0	10.1001
6.54645	8.72029	0.0552792	10.1001
6.54648	8.74793	0.0276396	10.1001
6.60947	8.77557	0	10.1001
6.61003	8.77557	0	10.1001
6.61011	8.78939	0.0276396	10.1001
6.61214	8.81703	0	10.1001
6.61231	8.81703	0	10.1001
6.61249	8.83085	0.0276396	10.1001
6.6142	8.85849	0	10.1001
6.61468	8.85849	0	10.1001
6.61474	8.87231	0.0276396	10.1001
6.66514	8.89994	0	10.1001
6.66518	8.89994	0	10.1001
6.66519	8.91376	0.0276396	10.1001
6.74569	8.9414	0	10.1001
6.74665	8.9414	0	10.1001
6.74666	8.95522	0.0276396	10.1001
6.7557	8.98286	0	10.1001
6.75588	8.98286	0	10.1001
6.75641	8.98286	0.0276396	10.1001
6.75643	8.99668	0.0552792	10.1001
6.75646	9.02432	0.0276396	10.1001
6.78367	9.05196	0	10.1001
6.7989	9.05196	0	10.1001
6.86927	9.05196	0	10.1911
6.86963	9.05196	0	10.1911
6.86965	9.06578	0.0276396	10.1911
6.90326	9.09342	0	10.1911
6.90422	9.09342	0	10.1911
6.90427	9.10724	0.0276396	10.1911
6.90869	9.13488	0	10.1911
6.90879	9.13488	0	10.1911
6.90879	9.1487	0.0276396	10.1911
6.91967	9.17634	0	10.1911
6.91969	9.17634	0	10.1911
6.91976	9.19016	0.0276396	10.1911
6.93365	9.2178	0	10.1911
6.93418	9.2178	0	10.1911
6.95305	9.2178	0.0276396	10.1911
6.95308	9.2178	0.0276396	10.2821
6.96545	9.24544	0	10.2821
6.9661	9.24544	0	10.2821
6.96613	9.24544	0.0276396	10.2821
6.96613	9.25926	0.0552792	10.2821
6.96615	9.2869	0.0276396	10.2821
7.03856	9.31454	0	10.2821
7.06499	9.31454	0	10.4641
7.06507	9.31454	0	10.4641
7.06511	9.32836	0.0276396	10.4641
7.1086	9.356	0	10.4641
7.10886	9.356	0	10.4641
7.10892	9.36982	0.0276396	10.4641
7.1194	9.39746	0	10.4641
7.30133	9.39746	0	10.5551
7.31596	9.39746	0	10.737
7.36255	9.39746	0	10.919
7.36258	9.39746	0	10.919
7.36268	9.41128	0.0276396	10.919
7.39654	9.43892	0	10.919
7.39671	9.43892	0	10.919
7.39676	9.43892	0.0276396	10.919
7.39749	9.43892	0.0552792	10.919
7.39791	9.43892	0.0829187	10.919
7.39793	9.43892	0.138198	10.919
7.39794	9.46656	0.110558	10.919
7.39801	9.4942	0.0829187	10.919
7.39801	9.52184	0.0552792	10.919
7.3982	9.54947	0.0276396	10.919
7.51336	9.57711	0	10.919
7.51403	9.57711	0	10.919
7.51403	9.59093	0.0276396	10.919
7.53414	9.61857	0	10.919
7.53438	9.61857	0	10.919
7.53439	9.63239	0.0276396	10.919
7.54964	9.66003	0	10.919
7.62866	9.66003	0	11.101
7.67274	9.66003	0	11.192
7.67286	9.66003	0	11.192
7.67288	9.67385	0.0276396	11.192
7.70318	9.70149	0	11.192
7.70367	9.70149	0	11.192
7.74744	9.70149	0.0276396	11.192
7.74749	9.70149	0.0276396	11.192
7.74752	9.72913	0	11.192
7.74756	9.74295	0.0276396	11.192
7.80775	9.77059	0	11.192
7.82707	9.77059	0	11.374
7.8273	9.77059	0	11.374
7.82736	9.78441	0.0276396	11.374
7.83676	9.81205	0	11.374
7.83686	9.81205	0	11.374
7.83687	9.81205	0.0552792	11.374
7.83706	9.83969	0.0276396	11.374
7.84238	9.86733	0	11.374
7.84258	9.86733	0	11.374
7.84265	9.88115	0.0276396	11.374
7.84627	9.90879	0	11.374
7.84688	9.90879	0	11.374
7.84689	9.90879	0.0276396	11.374
7.8469	9.92261	0.0552792	11.374
7.84693	9.95025	0.0276396	11.374
7.88685	9.97789	0	11.374
7.97219	9.97789	0	11.556
7.97271	9.97789	0	11.556
7.97275	9.97789	0.0276396	11.556
7.9728	9.99171	0.0552792	11.556
7.9728	10.0193	0.0276396	11.556
7.98582	10.047	0	11.556
7.98603	10.047	0	11.556
7.99101	10.047	0.0276396	11.556
7.99128	10.047	0.0276396	11.556
7.99131	10.0608	0.0552792	11.556
8.04142	10.0884	0.0276396	11.556
8.04192	10.0884	0.0276396	11.556
8.04204	10.0884	0.0552792	11.556
8.04204	10.1023	0.0829187	11.556
8.04207	10.1299	0.0552792	11.556
8.04209	10.1575	0.0276396	11.556
8.05622	10.1852	0	11.556
8.05692	10.1852	0	11.556
8.05694	10.1852	0.0552792	11.556
8.05695	10.2128	0.0276396	11.556
8.08915	10.2405	0	11.556
8.09037	10.2405	0	11.556
8.09044	10.2543	0.0276396	11.556
8.11545	10.2819	0	11.556
8.11729	10.2819	0	11.556
8.11735	10.2957	0.0276396	11.556
8.34783	10.3234	0	11.556
8.38272	10.3234	0	11.647
8.38371	10.3234	0	11.647
8.38371	10.3372	0.0276396	11.647
8.38373	10.3648	0	11.647
8.41686	10.3648	0	11.647
8.4172	10.3648	0	11.647
8.41724	10.3787	0.0276396	11.647
8.54611	10.4063	0	11.647
8.75073	10.4063	0	11.7379
8.86977	10.4063	0	11.9199
8.86998	10.4063	0	11.9199
8.87005	10.4201	0.0276396	11.9199
8.88464	10.4478	0	11.9199
8.95689	10.4478	0	12.0109
8.95766	10.4478	0	12.0109
8.9577	10.4478	0.0552792	12.0109
8.95779	10.4754	0.0276396	12.0109
8.97083	10.503	0	12.0109
8.97108	10.503	0	12.0109
8.97112	10.5169	0.0276396	12.0109
8.99518	10.5445	0	12.0109
9.02032	10.5445	0	12.1929
9.02241	10.5445	0	12.2839
9.02285	10.5445	0	12.2839
9.02288	10.5583	0.0276396	12.2839
9.03807	10.586	0	12.2839
9.03832	10.586	0	12.2839
9.03843	10.5998	0.0276396	12.2839
9.04872	10.6274	0	12.2839
9.04876	10.6274	0	12.2839
9.04886	10.6412	0.0276396	12.2839
9.14103	10.6689	0	12.2839
9.15457	10.6689	0	12.3749
9.15459	10.6689	0	12.3749
9.15462	10.6689	0.0552792	12.3749
9.15463	10.6965	0.0276396	12.3749
9.15698	10.7242	0	12.3749
9.15707	10.7242	0	12.3749
9.15719	10.7242	0.0276396	12.3749
9.15722	10.738	0.0552792	12.3749
9.15729	10.7656	0.0276396	12.3749
9.17342	10.7933	0	12.3749
9.1742	10.7933	0	12.3749
9.1742	10.7933	0.0552792	12.3749
9.17428	10.8209	0.0276396	12.3749
9.22792	10.8485	0	12.3749
9.22811	10.8485	0	12.3749
9.22812	10.8485	0.0552792	12.3749
9.22812	10.8762	0.0276396	12.3749
9.23654	10.9038	0	12.3749
9.24116	10.9038	0	12.5569
9.24277	10.9038	0	12.5569
9.24278	10.9038	0.0552792	12.5569
9.24287	10.9315	0.0276396	12.5569
9.28759	10.9591	0	12.5569
9.3101	10.9591	0	12.7389
9.31086	10.9591	0	12.7389
9.31087	10.9729	0.0276396	12.7389
9.38949	11.0006	0	12.7389
9.39014	11.0006	0	12.7389
9.39023	11.0144	0.0276396	12.7389
9.44928	11.042	0	12.7389
9.44972	11.042	0	12.7389
9.44977	11.0558	0.0276396	12.7389
9.49275	11.0835	0	12.7389
9.50805	11.0835	0	12.8298
9.50912	11.0835	0	12.8298
9.50913	11.0973	0.0276396	12.8298
9.50942	11.1249	0	12.8298
9.51077	11.1249	0	12.8298
9.51079	11.1388	0.0276396	12.8298
9.51592	11.1664	0	12.8298
9.51663	11.1664	0	12.8298
9.51663	11.1802	0.0276396	12.8298
9.61783	11.2078	0	12.8298
9.61819	11.2078	0	13.0118
9.6185	11.2078	0	13.0118
9.61858	11.2078	0.0552792	13.0118
9.61859	11.2355	0.0276396	13.0118
9.71583	11.2631	0	13.0118
9.71674	11.2631	0	13.0118
9.71675	11.2769	0.0276396	13.0118
9.74751	11.3046	0	13.0118
9.74785	11.3046	0	13.0118
9.74928	11.3046	0.0276396	13.0118
9.74933	11.3184	0.0552792	13.0118
9.74934	11.346	0.0276396	13.0118
9.75473	11.3737	0	13.0118
9.90526	11.3737	0	13.1938
9.90547	11.3737	0	13.1938
9.90557	11.3875	0.0276396	13.1938
9.94189	11.4151	0	13.1938
9.95574	11.4151	0	13.2848
9.95608	11.4151	0	13.2848
9.95609	11.429	0.0276396	13.2848
9.99182	11.4566	0	13.2848
9.99264	11.4566	0	13.2848
9.99265	11.4704	0.0276396	13.2848
10.0969	11.4981	0	13.2848
10.1295	11.4981	0	13.4668
10.1301	11.4981	0	13.4668
10.1318	11.4981	0.0276396	13.4668
10.1326	11.4981	0.0552792	13.4668
10.1326	11.4981	0.110558	13.4668
10.1326	11.5257	0.0829187	13.4668
10.1327	11.5533	0.0552792	13.4668
10.1327	11.581	0.0276396	13.4668
10.2177	11.6086	0	13.4668
10.2187	11.6086	0	13.4668
10.2188	11.6224	0.0276396	13.4668
10.225	11.6501	0	13.4668
10.2635	11.6501	0	13.6488
10.2635	11.6501	0	13.6488
10.2636	11.6501	0.0552792	13.6488
10.2636	11.6777	0.0276396	13.6488
10.301	11.7054	0	13.6488
10.4248	11.7054	0	13.7398
10.4256	11.7054	0	13.7398
10.4256	11.7054	0.0276396	13.7398
10.4813	11.733	0	13.7398
10.4816	11.733	0	13.7398
10.4816	11.733	0.0552792	13.7398
10.4816	11.7606	0.0276396	13.7398
10.5144	11.7883	0	13.7398
10.5148	11.7883	0	13.7398
10.5149	11.8021	0.0276396	13.7398
10.5813	11.8297	0	13.7398
10.5815	11.8297	0	13.7398
10.6609	11.8297	0.0276396	13.7398
10.661	11.8297	0.0276396	13.7398
10.6611	11.8297	0.0829187	13.7398
10.6611	11.8574	0.0552792	13.7398
10.6611	11.885	0.0276396	13.7398
10.6731	11.9127	0	13.7398
10.6756	11.9127	0	13.7398
10.6756	11.9127	0.0276396	13.7398
10.6756	11.9127	0.0552792	13.7398
10.6756	11.9403	0.0276396	13.7398
10.6793	11.9679	0	13.7398
10.6794	11.9679	0	13.7398
10.6796	11.9679	0.0276396	13.7398
10.68	11.9679	0.0552792	13.7398
10.8072	11.9679	0.0829187	13.7398
10.8072	11.9679	0.0829187	13.7398
10.8072	11.9956	0.0552792	13.7398
10.8072	12.0232	0.0276396	13.7398
10.8072	12.037	0.0552792	13.7398
10.8072	12.0647	0.0276396	13.7398
10.8325	12.0923	0	13.7398
10.8332	12.0923	0	13.7398
10.8333	12.1061	0.0276396	13.7398
10.8463	12.1338	0	13.7398
10.8652	12.1338	0	13.8308
10.8658	12.1338	0	13.8308
10.8659	12.1476	0.0276396	13.8308
10.9694	12.1752	0	13.8308
10.9705	12.1752	0	13.8308
10.9705	12.1891	0.0276396	13.8308
11.103	12.2167	0	13.8308
11.1036	12.2167	0	13.8308
11.1036	12.2305	0.0276396	13.8308
11.1276	12.2582	0	13.8308
11.15	12.2582	0	13.9217
11.1503	12.2582	0	13.9217
11.2363	12.2582	0.0276396	13.9217
11.2365	12.2582	0.0276396	13.9217
11.2377	12.2858	0	13.9217
11.2378	12.2996	0.0276396	13.9217
11.287	12.3273	0	13.9217
11.2873	12.3273	0	13.9217
11.2873	12.3273	0.0552792	13.9217
11.2874	12.3549	0.0276396	13.9217
11.6696	12.3825	0	13.9217
11.67	12.3825	0	13.9217
11.7141	12.3825	0.0276396	13.9217
11.7141	12.3825	0.0276396	14.0127
11.8132	12.4102	0	14.0127
11.8135	12.4102	0	14.0127
11.8135	12.4102	0.0276396	14.0127
11.8136	12.424	0.0552792	14.0127
11.8136	12.4516	0.0276396	14.0127
11.9359	12.4793	0	14.0127
12.1685	12.4793	0	14.1947
12.1692	12.4793	0	14.1947
12.1693	12.4793	0.0552792	14.1947
12.1693	12.5069	0.0276396	14.1947
12.2913	12.5345	0	14.1947
12.2921	12.5345	0	14.1947
12.2921	12.5345	0.0552792	14.1947
12.2921	12.5622	0.0276396	14.1947
12.304	12.5898	0	14.1947
12.3043	12.5898	0	14.1947
12.3044	12.6036	0.0276396	14.1947
12.4616	12.6313	0	14.1947
12.4617	12.6313	0	14.1947
12.4618	12.6313	0.0552792	14.1947
12.4618	12.6589	0.0276396	14.1947
12.498	12.6866	0	14.1947
12.541	12.6866	0	14.3767
12.5411	12.6866	0	14.3767
12.5411	12.7004	0.0276396	14.3767
12.5553	12.728	0	14.3767
12.6778	12.728	0	14.5587
12.6778	12.728	0	14.5587
12.6778	12.7418	0.0276396	14.5587
12.7489	12.7695	0	14.5587
12.7492	12.7695	0	14.5587
12.7492	12.7695	0.0552792	14.5587
12.7492	12.7971	0.0276396	14.5587
12.8101	12.8248	0	14.5587
12.8103	12.8248	0	14.5587
12.8103	12.8386	0.0276396	14.5587
12.8104	12.8386	0.0276396	14.5587
12.8114	12.8662	0	14.5587
12.8118	12.8662	0.0276396	14.5587
12.8119	12.88	0.0552792	14.5587
12.8119	12.9077	0.0276396	14.5587
12.8403	12.9353	0	14.5587
12.8404	12.9353	0	14.5587
12.8404	12.9491	0.0276396	14.5587
13.0142	12.9768	0	14.5587
13.0146	12.9768	0	14.5587
13.0147	12.9768	0.0552792	14.5587
13.0147	13.0044	0.0276396	14.5587
13.1184	13.0321	0	14.5587
13.1193	13.0321	0	14.5587
13.1194	13.0459	0.0276396	14.5587
13.1918	13.0735	0	14.5587
13.1921	13.0735	0	14.5587
13.1922	13.0735	0.0552792	14.5587
13.1923	13.1012	0.0276396	14.5587
13.1993	13.1288	0	14.5587
13.1996	13.1288	0	14.5587
13.1997	13.1288	0.0552792	14.5587
13.1997	13.1564	0.0276396	14.5587
13.3198	13.1841	0	14.5587
13.3198	13.1841	0	14.5587
13.3199	13.1979	0.0276396	14.5587
13.3322	13.2255	0	14.5587
13.3328	13.2255	0	14.5587
13.3328	13.2255	0.0552792	14.5587
13.3328	13.2532	0.0276396	14.5587
13.3889	13.2808	0	14.5587
13.3891	13.2808	0	14.5587
13.3902	13.2808	0.0276396	14.5587
13.3908	13.2808	0.0552792	14.5587
13.3908	13.2808	0.0829187	14.5587
13.3909	13.2946	0.110558	14.5587
13.3909	13.3223	0.0829187	14.5587
13.391	13.3499	0.0552792	14.5587
13.391	13.3776	0.0276396	14.5587
13.4794	13.4052	0	14.5587
13.4804	13.4052	0	14.5587
13.4805	13.4052	0.0276396	14.5587
13.4805	13.419	0.0552792	14.5587
13.4806	13.4467	0.0276396	14.5587
13.5271	13.4743	0	14.5587
13.5273	13.4743	0	14.5587
13.5273	13.4743	0.0552792	14.5587
13.5275	13.5019	0.0276396	14.5587
13.5319	13.5296	0	14.5587
13.5683	13.5296	0	14.6497
13.5693	13.5296	0	14.6497
13.5693	13.5296	0.0276396	14.6497
13.5694	13.5434	0.0552792	14.6497
13.5694	13.571	0.0276396	14.6497
13.8013	13.5987	0	14.6497
13.8016	13.5987	0	14.6497
13.8574	13.5987	0.0276396	14.6497
13.8574	13.5987	0.0276396	14.6497
13.8581	13.6263	0	14.6497
13.8581	13.6263	0.0552792	14.6497
13.8581	13.654	0.0276396	14.6497
13.8582	13.6816	0	14.6497
13.9014	13.6816	0	14.6497
13.9173	13.6816	0	14.8317
13.9175	13.6816	0	14.8317
13.9175	13.6954	0.0276396	14.8317
13.9548	13.7231	0	14.8317
13.9548	13.7231	0	14.8317
13.9549	13.7369	0.0276396	14.8317
13.9646	13.7645	0	14.8317
14.0312	13.7645	0	15.0136
14.0315	13.7645	0	15.0136
14.0315	13.7783	0.0276396	15.0136
14.1157	13.806	0	15.0136
14.271	13.806	0	15.1956
14.271	13.806	0	15.1956
14.2713	13.8198	0.0276396	15.1956
14.3178	13.8474	0	15.1956
14.4905	13.8474	0	15.3776
14.4913	13.8474	0	15.3776
14.4914	13.8612	0.0276396	15.3776
14.6099	13.8889	0	15.3776
14.705	13.8889	0	15.4686
14.7061	13.8889	0	15.4686
14.7063	13.8889	0.0276396	15.4686
14.7064	13.9027	0.0552792	15.4686
14.7064	13.9303	0.0276396	15.4686
14.755	13.958	0	15.4686
14.7554	13.958	0	15.4686
14.7554	13.958	0.0552792	15.4686
14.7555	13.9856	0.0276396	15.4686
14.8982	14.0133	0	15.4686
14.8984	14.0133	0	15.4686
14.8985	14.0271	0.0276396	15.4686
14.8991	14.0547	0	15.4686
14.8994	14.0547	0	15.4686
14.8994	14.0685	0.0276396	15.4686
15.053	14.0962	0	15.4686
15.0536	14.0962	0	15.4686
15.0537	14.0962	0.0552792	15.4686
15.0537	14.1238	0.0276396	15.4686
15.1386	14.1515	0	15.4686
15.1717	14.1515	0	15.6506
15.1719	14.1515	0	15.6506
15.1731	14.1515	0.0276396	15.6506
15.1731	14.1653	0.0552792	15.6506
15.1731	14.1929	0.0276396	15.6506
15.2321	14.2206	0	15.6506
15.233	14.2206	0	15.6506
15.2331	14.2344	0.0276396	15.6506
15.2437	14.262	0	15.6506
15.2756	14.262	0	15.8326
15.2758	14.262	0	15.8326
15.2758	14.262	0.0552792	15.8326
15.2759	14.2897	0.0276396	15.8326
15.3979	14.3173	0	15.8326
15.5615	14.3173	0	16.0146
15.5628	14.3173	0	16.0146
15.5628	14.3173	0.0552792	16.0146
15.5628	14.3449	0.0276396	16.0146
15.661	14.3726	0	16.0146
16.0972	14.3726	0	16.0146
16.1127	14.3726	0	16.1965
16.1129	14.3726	0	16.1965
16.1129	14.3726	0.0552792	16.1965
16.1129	14.4002	0.0276396	16.1965
16.3305	14.4279	0	16.1965
16.3305	14.4279	0	16.1965
16.3305	14.4279	0.0552792	16.1965
16.3306	14.4555	0.0276396	16.1965
16.4361	14.4831	0	16.1965
16.6253	14.4831	0	16.3785
16.6554	14.4831	0	16.5605
16.6557	14.4831	0	16.5605
16.6557	14.4831	0.0552792	16.5605
16.6557	14.5108	0.0276396	16.5605
16.7432	14.5384	0	16.5605
16.744	14.5384	0	16.5605
16.7442	14.5522	0.0276396	16.5605
16.7835	14.5799	0	16.5605
16.7836	14.5799	0	16.5605
16.7836	14.5799	0.0552792	16.5605
16.7836	14.6075	0.0276396	16.5605
16.8357	14.6352	0	16.5605
16.8585	14.6352	0	16.7425
16.9132	14.6352	0	16.9245
16.9135	14.6352	0	16.9245
16.9137	14.649	0.0276396	16.9245
16.9978	14.6766	0	16.9245
16.998	14.6766	0	16.9245
16.998	14.6904	0.0276396	16.9245
17.0794	14.7181	0	16.9245
17.0795	14.7181	0	16.9245
17.08	14.7181	0.0276396	16.9245
17.08	14.7319	0.0552792	16.9245
17.08	14.7595	0.0276396	16.9245
17.1331	14.7872	0	16.9245
17.3841	14.7872	0	17.1065
17.3842	14.7872	0	17.1065
17.3842	14.801	0.0276396	17.1065
17.4892	14.8286	0	17.1065
17.4894	14.8286	0	17.1065
17.4895	14.8286	0.0552792	17.1065
17.4895	14.8563	0.0276396	17.1065
17.6692	14.8839	0	17.1065
17.6693	14.8839	0	17.1065
17.6694	14.8977	0.0276396	17.1065
17.7428	14.9254	0	17.1065
17.7431	14.9254	0	17.1065
17.7431	14.9392	0.0276396	17.1065
17.9792	14.9668	0	17.1065
17.9798	14.9668	0	17.1065
17.9799	14.9807	0.0276396	17.1065
18.0035	15.0083	0	17.1065
18.0042	15.0083	0	17.1065
18.0042	15.0083	0.0552792	17.1065
18.0042	15.0359	0.0276396	17.1065
18.1667	15.0636	0	17.1065
18.3312	15.0636	0	17.1975
18.3313	15.0636	0	17.1975
18.3328	15.0636	0.0276396	17.1975
18.3329	15.0774	0.0552792	17.1975
18.3329	15.105	0.0276396	17.1975
18.3542	15.1327	0	17.1975
18.3549	15.1327	0	17.1975
18.355	15.1465	0.0276396	17.1975
18.4832	15.1741	0	17.1975
18.4833	15.1741	0	17.1975
18.4833	15.1879	0.0276396	17.1975
19.0825	15.2156	0	17.1975
19.0829	15.2156	0	17.1975
19.0829	15.2156	0.0552792	17.1975
19.0829	15.2432	0.0276396	17.1975
19.1178	15.2709	0	17.1975
19.1187	15.2709	0	17.1975
19.1187	15.2709	0.0552792	17.1975
19.1187	15.2985	0.0276396	17.1975
19.2346	15.3261	0	17.1975
19.2356	15.3261	0	17.1975
19.2358	15.3261	0.0276396	17.1975
19.2358	15.34	0.0552792	17.1975
19.2358	15.3676	0.0276396	17.1975
19.2739	15.3952	0	17.1975
19.2741	15.3952	0	17.1975
19.2741	15.3952	0.0552792	17.1975
19.2744	15.4229	0.0276396	17.1975
19.4273	15.4505	0	17.1975
19.4888	15.4505	0	17.3794
19.4892	15.4505	0	17.3794
19.4892	15.4505	0.0552792	17.3794
19.4893	15.4782	0.0276396	17.3794
20.0078	15.5058	0	17.3794
20.0078	15.5058	0	17.3794
20.0078	15.5196	0.0276396	17.3794
20.3211	15.5473	0	17.3794
20.3459	15.5473	0	17.5614
20.5511	15.5473	0	17.7434
20.5528	15.5473	0	17.7434
20.5528	15.5611	0.0276396	17.7434
20.8262	15.5887	0	17.7434
20.8267	15.5887	0	17.7434
20.8277	15.5887	0.0276396	17.7434
20.8277	15.6025	0.0552792	17.7434
20.8277	15.6302	0.0276396	17.7434
21.0713	15.6578	0	17.7434
21.0718	15.6578	0	17.7434
21.0719	15.6716	0.0276396	17.7434
21.3014	15.6993	0	17.7434
21.7349	15.6993	0	17.9254
21.7349	15.6993	0	17.9254
21.735	15.6993	0.0552792	17.9254
21.735	15.7269	0.0276396	17.9254
21.8395	15.7546	0	17.9254
21.8396	15.7546	0	17.9254
21.8398	15.7684	0.0276396	17.9254
22.0869	15.796	0	17.9254
22.087	15.796	0	17.9254
22.087	15.8098	0.0276396	17.9254
22.1216	15.8375	0	17.9254
22.1226	15.8375	0	17.9254
22.1227	15.8375	0.0552792	17.9254
22.1227	15.8651	0.0276396	17.9254
22.2473	15.8928	0	17.9254
22.2481	15.8928	0	17.9254
22.2481	15.9066	0.0276396	17.9254
22.6842	15.9342	0	17.9254
22.685	15.9342	0	17.9254
22.6852	15.9342	0.0276396	17.9254
22.6852	15.948	0.0552792	17.9254
22.6852	15.9757	0.0276396	17.9254
22.7654	16.0033	0	17.9254
22.7656	16.0033	0	17.9254
22.7656	16.0033	0.0552792	17.9254
22.7657	16.031	0.0276396	17.9254
22.8837	16.0586	0	17.9254
23.0225	16.0586	0	18.1074
23.0225	16.0586	0	18.1074
23.0225	16.0724	0.0276396	18.1074
23.0569	16.1001	0	18.1074
23.057	16.1001	0	18.1074
23.057	16.1001	0.0552792	18.1074
23.057	16.1277	0.0276396	18.1074
23.2863	16.1553	0	18.1074
23.2868	16.1553	0	18.1074
23.2868	16.1553	0.0552792	18.1074
23.2869	16.183	0.0276396	18.1074
23.4212	16.2106	0	18.1074
23.4213	16.2106	0	18.1074
23.4213	16.2244	0.0276396	18.1074
23.5789	16.2521	0	18.1074
23.5793	16.2521	0	18.1074
23.5794	16.2521	0.0276396	18.1074
23.5794	16.2521	0.0552792	18.1074
23.5794	16.2797	0.0276396	18.1074
24.1774	16.3074	0	18.1074
24.1781	16.3074	0	18.1074
24.1781	16.3074	0.0552792	18.1074
24.1782	16.335	0.0276396	18.1074
24.2811	16.3626	0	18.1074
24.2812	16.3626	0	18.1074
24.2812	16.3765	0.0276396	18.1074
24.429	16.4041	0	18.1074
24.7464	16.4041	0	18.2894
24.7469	16.4041	0	18.2894
24.7469	16.4179	0.0276396	18.2894
24.9034	16.4456	0	18.2894
24.9041	16.4456	0	18.2894
24.9041	16.4456	0.0552792	18.2894
24.9043	16.4732	0.0276396	18.2894
25.0837	16.5008	0	18.2894
25.0861	16.5008	0	18.2894
25.0861	16.5146	0.0276396	18.2894
25.1645	16.5423	0	18.2894
25.165	16.5423	0	18.2894
25.165	16.5423	0.0552792	18.2894
25.1651	16.5699	0.0276396	18.2894
25.2678	16.5976	0	18.2894
25.269	16.5976	0	18.2894
25.269	16.6114	0.0276396	18.2894
25.4584	16.639	0	18.2894
25.4586	16.639	0	18.2894
25.4586	16.639	0.0552792	18.2894
25.4586	16.6667	0.0276396	18.2894
25.5394	16.6943	0	18.2894
25.5407	16.6943	0	18.2894
25.5407	16.6943	0.0552792	18.2894
25.5407	16.7219	0.0276396	18.2894
25.5914	16.7496	0	18.2894
25.5918	16.7496	0	18.2894
25.5918	16.7496	0.0552792	18.2894
25.5918	16.7772	0.0276396	18.2894
25.8585	16.8049	0	18.2894
26.1168	16.8049	0	18.3803
26.1169	16.8049	0	18.3803
26.1173	16.8049	0.0276396	18.3803
26.1173	16.8187	0.0552792	18.3803
26.1173	16.8463	0.0276396	18.3803
26.4142	16.874	0	18.3803
26.4143	16.874	0	18.3803
26.4144	16.874	0.0552792	18.3803
26.4144	16.9016	0.0276396	18.3803
26.6685	16.9292	0	18.3803
26.6686	16.9292	0	18.3803
26.6686	16.9292	0.0552792	18.3803
26.6686	16.9569	0.0276396	18.3803
26.7252	16.9845	0	18.3803
26.7263	16.9845	0	18.3803
26.7263	16.9845	0.0552792	18.3803
26.7263	17.0122	0.0276396	18.3803
26.7755	17.0398	0	18.3803
26.7762	17.0398	0	18.3803
26.7763	17.0536	0.0276396	18.3803
26.9066	17.0813	0	18.3803
26.907	17.0813	0	18.3803
26.9071	17.0951	0.0276396	18.3803
27.1265	17.1227	0	18.3803
27.1266	17.1227	0	18.3803
27.1267	17.1227	0.0552792	18.3803
27.1268	17.1504	0.0276396	18.3803
27.3505	17.178	0	18.3803
27.3517	17.178	0	18.3803
27.3517	17.178	0.0552792	18.3803
27.3518	17.2056	0.0276396	18.3803
27.3956	17.2333	0	18.3803
27.3961	17.2333	0	18.3803
27.3961	17.2333	0.0552792	18.3803
27.3962	17.2609	0.0276396	18.3803
28.1127	17.2886	0	18.3803
28.1307	17.2886	0	18.5623
28.1313	17.2886	0	18.5623
28.1313	17.3024	0.0276396	18.5623
28.4248	17.33	0	18.5623
28.425	17.33	0	18.5623
31.3658	17.33	0.0276396	18.5623
31.3658	17.33	0.0276396	18.7443
31.5788	17.3577	0	18.7443
31.5793	17.3577	0	18.7443
31.5793	17.3577	0.0552792	18.7443
31.5794	17.3853	0.0276396	18.7443
31.7447	17.4129	0	18.7443
31.7455	17.4129	0	18.7443
31.7456	17.4268	0.0276396	18.7443
32.6073	17.4544	0	18.7443
32.6073	17.4544	0	18.7443
32.6075	17.4682	0.0276396	18.7443
32.8272	17.4959	0	18.7443
32.8273	17.4959	0	18.7443
32.8273	17.4959	0.0552792	18.7443
32.8274	17.5235	0.0276396	18.7443
33.8964	17.5511	0	18.7443
33.8968	17.5511	0	18.7443
33.8968	17.5511	0.0552792	18.7443
33.8968	17.5788	0.0276396	18.7443
33.9957	17.6064	0	18.7443
33.9958	17.6064	0	18.7443
33.9958	17.6064	0.0552792	18.7443
33.9961	17.6341	0.0276396	18.7443
34.1596	17.6617	0	18.7443
34.1609	17.6617	0	18.7443
34.1609	17.6617	0.0552792	18.7443
34.1611	17.6893	0.0276396	18.7443
34.4645	17.717	0	18.7443
34.4647	17.717	0	18.7443
34.4647	17.717	0.0552792	18.7443
34.4648	17.7446	0.0276396	18.7443
34.542	17.7722	0	18.7443
34.5424	17.7722	0	18.7443
34.5424	17.7722	0.0552792	18.7443
34.5424	17.7999	0.0276396	18.7443
35.1091	17.8275	0	18.7443
35.1094	17.8275	0	18.7443
35.1095	17.8413	0.0276396	18.7443
36.1884	17.869	0	18.7443
36.1901	17.869	0	18.7443
36.1901	17.869	0.0552792	18.7443
36.1901	17.8966	0.0276396	18.7443
36.4976	17.9243	0	18.7443
37.8344	17.9243	0	18.9263
37.8346	17.9243	0	18.9263
37.8346	17.9243	0.0552792	18.9263
37.8346	17.9519	0.0276396	18.9263
38.6516	17.9795	0	18.9263
38.7614	17.9795	0	19.1083
38.7618	17.9795	0	19.1083
38.7624	17.9795	0.0276396	19.1083
39.0652	17.9795	0.0552792	19.1083
39.0652	17.9795	0.0552792	19.1083
39.0652	18.0072	0.0276396	19.1083
39.0658	18.0348	0	19.1083
39.0659	18.0486	0.0276396	19.1083
39.2656	18.0763	0	19.1083
39.266	18.0763	0	19.1083
39.266	18.0763	0.0552792	19.1083
39.2661	18.1039	0.0276396	19.1083
40.1226	18.1316	0	19.1083
40.1228	18.1316	0	19.1083
40.1228	18.1316	0.0552792	19.1083
40.123	18.1592	0.0276396	19.1083
41.3797	18.1868	0	19.1083
42.1527	18.1868	0	19.2903
42.1528	18.1868	0	19.2903
42.1529	18.2007	0.0276396	19.2903
47.1225	18.2283	0	19.2903
47.1225	18.2283	0	19.2903
47.1233	18.2283	0.0276396	19.2903
47.1236	18.2283	0.0552792	19.2903
47.1237	18.2283	0.0829187	19.2903
47.124	18.2283	0.110558	19.2903
47.13	18.2283	0.138198	19.2903
47.1303	18.2283	0.138198	19.2903
47.1304	18.2421	0.165837	19.2903
48.5281	18.2698	0.138198	19.2903
48.5281	18.2698	0.138198	19.4722
48.5281	18.2974	0.110558	19.4722
48.5281	18.325	0.0829187	19.4722
48.5281	18.3527	0.0552792	19.4722
48.5281	18.3803	0.0276396	19.4722
48.6944	18.408	0	19.4722
48.6945	18.408	0	19.4722
48.6945	18.408	0.0552792	19.4722
48.6945	18.4356	0.0276396	19.4722
49.0592	18.4632	0	19.4722
49.0595	18.4632	0	19.4722
49.0595	18.4632	0.0552792	19.4722
49.0595	18.4909	0.0276396	19.4722
49.5822	18.5185	0	19.4722
49.5822	18.5185	0	19.4722
49.5823	18.5185	0.0552792	19.4722
49.5823	18.5462	0.0276396	19.4722
49.8439	18.5738	0	19.4722
49.844	18.5738	0	19.4722
49.844	18.5738	0.0552792	19.4722
49.8441	18.6014	0.0276396	19.4722
51.6986	18.6291	0	19.4722
51.6989	18.6291	0	19.4722
51.6989	18.6291	0.0552792	19.4722
51.699	18.6567	0.0276396	19.4722
52.2059	18.6844	0	19.4722
52.2084	18.6844	0	19.4722
52.209	18.6844	0.0276396	19.4722
52.209	18.6844	0.0829187	19.4722
52.2091	18.712	0.0552792	19.4722
52.2091	18.7396	0.0276396	19.4722
52.2681	18.7673	0	19.4722
52.2695	18.7673	0	19.4722
52.2695	18.7673	0.0552792	19.4722
52.2695	18.7949	0.0276396	19.4722
53.2681	18.8226	0	19.4722
53.2687	18.8226	0	19.4722
53.2687	18.8364	0.0276396	19.4722
76.8523	18.864	0	19.4722
76.8527	18.864	0	19.4722
76.8527	18.864	0.0552792	19.4722
76.853	18.8917	0.0276396	19.4722
86.0412	18.9193	0	19.4722
86.0416	18.9193	0	19.4722
113.615	18.9193	0.0276396	19.4722
113.615	18.9193	0.0276396	19.4722
113.616	18.9469	0	19.4722
113.616	18.9469	0.0552792	19.4722
113.616	18.9746	0.0276396	19.4722
115.927	19.0022	0	19.4722
115.927	19.0022	0	19.4722
115.927	19.0022	0.0552792	19.4722
115.927	19.0299	0.0276396	19.4722
