1.89725e-10	0	0	0
6.31293e-10	0	0	0
1.95207e-09	0	0	0
2.82087e-09	0	0	0
3.04989e-09	0	0	0
3.19499e-09	0	0	0
3.89137e-09	0	0	0
4.08374e-09	0	0	0
4.27688e-09	0	0	0
4.41164e-09	0	0	0
4.56714e-09	0	0	0
5.79841e-09	0	0	0
7.61679e-09	0	0	0
7.71509e-09	0	0	0
7.80654e-09	0	0	0
8.30073e-09	0	0	0
8.34807e-09	0	0	0
8.62749e-09	0	0	0
9.04491e-09	0	0	0
9.71556e-09	0	0	0
1.02493e-08	0	0	0
1.03839e-08	0	0	0
1.10719e-08	0	0	0
1.15144e-08	0	0	0
1.22792e-08	0	0	0
1.26257e-08	0	0	0
1.29777e-08	0	0	0
1.34039e-08	0	0	0
1.5614e-08	0	0	0
1.63669e-08	0	0	0
1.80322e-08	0	0	0
1.956e-08	0	0	0
1.9939e-08	0	0	0
2.1044e-08	0	0	0
2.11597e-08	0	0	0
2.36952e-08	0	0	0
2.37634e-08	0	0	0
2.71016e-08	0	0	0
2.77609e-08	0	0	0
2.77805e-08	0	0	0
2.99037e-08	0	0	0
3.28724e-08	0	0	0
3.72652e-08	0	0	0
4.13663e-08	0	0	0
4.26755e-08	0	0	0
4.47521e-08	0	0	0
4.49436e-08	0	0	0
4.7567e-08	0	0	0
4.7937e-08	0	0	0
5.1248e-08	0	0	0
5.22967e-08	0	0	0
5.26039e-08	0	0	0
5.37039e-08	0	0	0
5.74813e-08	0	0	0
6.04533e-08	0	0	0
6.5778e-08	0	0	0
7.11094e-08	0	0	0
7.8646e-08	0	0	0
8.09428e-08	0	0	0
8.43033e-08	0	0	0
1.07751e-07	0	0	0
1.31172e-07	0	0	0
1.82364e-07	0	0	0
2.24903e-07	0	0	0
2.25924e-07	0	0	0
2.33283e-07	0	0	0
2.79426e-07	0	0	0
2.82794e-07	0	0	0
2.83316e-07	0	0	0
3.1253e-07	0	0	0
5.00596e-07	0	0	0
5.43109e-07	0	0	0
6.99306e-07	0	0	0
9.06785e-07	0	0	0
1.00789e-06	0	0	0
1.04669e-06	0	0	0
1.15592e-06	0	0	0
1.25959e-06	0	0	0
1.32103e-06	0	0	0
1.34026e-06	0	0	0
1.53828e-06	0	0	0
1.61427e-06	0	0	0
1.62662e-06	0	0	0
1.77373e-06	0	0	0
1.8447e-06	0	0	0
1.85339e-06	0	0	0
1.85604e-06	0	0	0
1.96187e-06	0	0	0
1.96573e-06	0	0	0
1.97236e-06	0	0	0
2.3079e-06	0	0	0
2.61164e-06	0	0	0
2.6174e-06	0	0	0
2.62186e-06	0	0	0
2.70815e-06	0	0	0
3.00609e-06	0	0	0
3.12507e-06	0	0	0
3.19691e-06	0	0	0
3.25578e-06	0	0	0
3.31802e-06	0	0	0
3.35214e-06	0	0	0
3.42741e-06	0	0	0
3.59075e-06	0	0	0
3.62538e-06	0	0	0
3.67004e-06	0	0	0
3.71695e-06	0	0	0
3.76609e-06	0	0	0
3.82285e-06	0	0	0
3.94531e-06	0	0	0
3.96806e-06	0	0	0
4.00906e-06	0	0	0
4.03057e-06	0	0	0
4.21566e-06	0	0	0
4.33798e-06	0	0	0
4.35765e-06	0	0	0
4.37739e-06	0	0	0
4.4385e-06	0	0	0
4.60123e-06	0	0	0
4.8091e-06	0	0	0
4.80934e-06	0	0	0
4.81906e-06	0	0	0
4.88805e-06	0	0	0
4.97567e-06	0	0	0
4.98613e-06	0	0	0
5.19744e-06	0	0	0
5.28789e-06	0	0	0
5.31925e-06	0	0	0
5.35975e-06	0	0	0
5.8823e-06	0	0	0
5.93897e-06	0	0	0
6.00824e-06	0	0	0
6.04408e-06	0	0	0
6.08068e-06	0	0	0
6.229e-06	0	0	0
6.2292e-06	0	0	0
6.66049e-06	0	0	0
7.02598e-06	0	0	0
7.59553e-06	0	0	0
7.71171e-06	0	0	0
7.96646e-06	0	0	0
8.03046e-06	0	0	0
8.0526e-06	0	0	0
8.06146e-06	0	0	0
8.65568e-06	0	0	0
8.96656e-06	0	0	0
9.13775e-06	0	0	0
9.55335e-06	0	0	0
9.57215e-06	0	0	0
1.00166e-05	0	0	0
1.00534e-05	0	0	0
1.00566e-05	0	0	0
1.0075e-05	0	0	0
1.04045e-05	0	0	0
1.05465e-05	0	0	0
1.08125e-05	0	0	0
1.08311e-05	0	0	0
1.09264e-05	0	0	0
1.13819e-05	0	0	0
1.15312e-05	0	0	0
1.19043e-05	0	0	0
1.19406e-05	0	0	0
1.20252e-05	0	0	0
1.21245e-05	0	0	0
1.22141e-05	0	0	0
1.22232e-05	0	0	0
1.23251e-05	0	0	0
1.28723e-05	0	0	0
1.28985e-05	0	0	0
1.31782e-05	0	0	0
1.35942e-05	0	0	0
1.36934e-05	0	0	0
1.39141e-05	0	0	0
1.3959e-05	0	0	0
1.40041e-05	0	0	0
1.40105e-05	0	0	0
1.40884e-05	0	0	0
1.42002e-05	0	0	0
1.44013e-05	0	0	0
1.44299e-05	0	0	0
1.49189e-05	0	0	0
1.49706e-05	0	0	0
1.5036e-05	0	0	0
1.50515e-05	0	0	0
1.53168e-05	0	0	0
1.58279e-05	0	0	0
1.60198e-05	0	0	0
1.60448e-05	0	0	0
1.60949e-05	0	0	0
1.67163e-05	0	0	0
1.69981e-05	0	0	0
1.74817e-05	0	0	0
1.75224e-05	0	0	0
1.75867e-05	0	0	0
1.77437e-05	0	0	0
1.84221e-05	0	0	0
1.92185e-05	0	0	0
1.95108e-05	0	0	0
2.08157e-05	0	0	0
2.12294e-05	0	0	0
2.12942e-05	0	0	0
2.14709e-05	0	0	0
2.17864e-05	0	0	0
2.18406e-05	0	0	0
2.22031e-05	0	0	0
2.23365e-05	0	0	0
2.24054e-05	0	0	0
2.24473e-05	0	0	0
2.25061e-05	0	0	0
2.29349e-05	0	0	0
2.32637e-05	0	0	0
2.3551e-05	0	0	0
2.38106e-05	0	0	0
2.38224e-05	0	0	0
2.41269e-05	0	0	0
2.48126e-05	0	0	0
2.65205e-05	0	0	0
2.71509e-05	0	0	0
2.78898e-05	0	0	0
2.79542e-05	0	0	0
2.83098e-05	0	0	0
2.83818e-05	0	0	0
2.87253e-05	0	0	0
2.87714e-05	0	0	0
2.88088e-05	0	0	0
2.99068e-05	0	0	0
3.02053e-05	0	0	0
3.04159e-05	0	0	0
3.0764e-05	0	0	0
3.20217e-05	0	0	0
3.22937e-05	0	0	0
3.30155e-05	0	0	0
3.40177e-05	0	0	0
3.48288e-05	0	0	0
3.6585e-05	0	0	0
3.66168e-05	0	0	0
3.76452e-05	0	0	0
3.76736e-05	0	0	0
3.78012e-05	0	0	0
3.83294e-05	0	0	0
3.84745e-05	0	0	0
3.86388e-05	0	0	0
3.90976e-05	0	0	0
3.91902e-05	0	0	0
3.92104e-05	0	0	0
3.9866e-05	0	0	0
4.01213e-05	0	0	0
4.0576e-05	0	0	0
4.32473e-05	0	0	0
4.4062e-05	0	0	0
4.44811e-05	0	0	0
4.46887e-05	0	0	0
4.52532e-05	0	0	0
4.6016e-05	0	0	0
4.60874e-05	0	0	0
4.6584e-05	0	0	0
5.02151e-05	0	0	0
5.06592e-05	0	0	0
5.08188e-05	0	0	0
5.15312e-05	0	0	0
5.30626e-05	0	0	0
5.41546e-05	0	0	0
5.52628e-05	0	0	0
5.77103e-05	0	0	0
5.83532e-05	0	0	0
5.8808e-05	0	0	0
5.88157e-05	0	0	0
6.01575e-05	0	0	0
6.10678e-05	0	0	0
6.37411e-05	0	0	0
6.41635e-05	0	0	0
6.57645e-05	0	0	0
6.796e-05	0	0	0
6.80541e-05	0	0	0
7.01926e-05	0	0	0
7.12454e-05	0	0	0
7.18954e-05	0	0	0
7.39606e-05	0	0	0
7.58893e-05	0	0	0
7.63323e-05	0	0	0
8.09563e-05	0	0	0
8.47368e-05	0	0	0
8.60622e-05	0	0	0
8.60631e-05	0	0	0
8.84779e-05	0	0	0
9.17846e-05	0	0	0
9.44213e-05	0	0	0
0.000102165	0	0	0
0.00010735	0	0	0
0.000107702	0	0	0
0.000108896	0	0	0
0.000110469	0	0	0
0.000114391	0	0	0
0.000114987	0	0	0
0.000116339	0	0	0
0.000121878	0	0	0
0.00012213	0	0	0
0.000125718	0	0	0
0.000129143	0	0	0
0.000129464	0	0	0
0.000131343	0	0	0
0.000133431	0	0	0
0.000142349	0	0	0
0.000149143	0	0	0
0.000154262	0	0	0
0.000158948	0	0	0
0.000161772	0	0	0
0.000165571	0	0	0
0.000186853	0	0	0
0.000229901	0	0	0
0.000230307	0	0	0
0.0456792	0	0	0
0.0457024	0	0	0
0.045735	0	0.0276396	0
0.0464601	0	0.0552792	0
0.0469562	0	0.0829187	0
0.0473726	0	0.110558	0
0.0477168	0	0.138198	0
0.0483923	0	0.165837	0
0.0497083	0	0.193477	0
0.0501815	0	0.221117	0
0.0502071	0	0.248756	0
0.0954676	0.0276396	0.221117	0
0.0954777	0.0276396	0.221117	0
0.0954809	0.0276396	0.221117	0
0.095488	0.0552792	0.193477	0
0.0954908	0.0829187	0.165837	0
0.0954937	0.110558	0.138198	0
0.0954956	0.110558	0.138198	0
0.0954958	0.138198	0.110558	0
0.0954972	0.165837	0.0829187	0
0.0954978	0.193477	0.0552792	0
0.0955001	0.221117	0.0276396	0
0.095508	0.221117	0.0276396	0
0.0955153	0.248756	0	0
0.0955248	0.248756	0	0
0.0955309	0.248756	0	0
0.0955817	0.248756	0	0
0.138534	0.248756	0	0
0.143884	0.248756	0	0.0909918
0.143903	0.248756	0	0.0909918
0.143906	0.248756	0	0.0909918
0.143922	0.248756	0	0.0909918
0.19917	0.248756	0	0.0909918
0.201581	0.248756	0	0.0909918
0.209081	0.248756	0	0.0909918
0.209312	0.248756	0	0.0909918
0.209316	0.262576	0.0276396	0.0909918
0.20936	0.262576	0.0276396	0.0909918
0.209368	0.262576	0.0276396	0.0909918
0.209393	0.262576	0.0276396	0.0909918
0.22842	0.290216	0	0.0909918
0.231223	0.290216	0	0.0909918
0.231577	0.290216	0	0.0909918
0.231638	0.304035	0.0276396	0.0909918
0.240316	0.331675	0	0.0909918
0.24049	0.331675	0	0.0909918
0.240545	0.345495	0.0276396	0.0909918
0.249499	0.373134	0	0.0909918
0.254644	0.373134	0	0.0909918
0.264839	0.373134	0	0.0909918
0.264978	0.373134	0	0.0909918
0.265036	0.386954	0.0276396	0.0909918
0.265057	0.386954	0.0276396	0.0909918
0.268736	0.414594	0	0.0909918
0.269016	0.414594	0	0.0909918
0.269097	0.428413	0.0276396	0.0909918
0.305646	0.456053	0	0.0909918
0.3079	0.456053	0	0.0909918
0.308148	0.456053	0	0.0909918
0.308154	0.469873	0.0276396	0.0909918
0.323333	0.497512	0	0.0909918
0.364737	0.497512	0	0.0909918
0.372702	0.497512	0	0.181984
0.372959	0.497512	0	0.181984
0.373118	0.497512	0.0276396	0.181984
0.373747	0.497512	0.0552792	0.181984
0.37377	0.497512	0.0829187	0.181984
0.373779	0.511332	0.110558	0.181984
0.373781	0.538972	0.0829187	0.181984
0.373784	0.566611	0.0552792	0.181984
0.373785	0.594251	0.0276396	0.181984
0.406292	0.621891	0	0.181984
0.419198	0.621891	0	0.181984
0.41921	0.621891	0	0.181984
0.419849	0.621891	0	0.181984
0.41985	0.621891	0	0.181984
0.419886	0.621891	0	0.181984
0.419896	0.621891	0	0.181984
0.420996	0.621891	0	0.181984
0.449977	0.621891	0	0.181984
0.449978	0.621891	0	0.181984
0.449988	0.621891	0	0.181984
0.449992	0.621891	0	0.181984
0.463586	0.621891	0	0.181984
0.468926	0.621891	0	0.363967
0.468997	0.621891	0	0.363967
0.475962	0.621891	0	0.363967
0.528348	0.621891	0	0.363967
0.566385	0.621891	0	0.363967
0.566569	0.621891	0	0.363967
0.56725	0.621891	0.0276396	0.363967
0.567277	0.63571	0.0552792	0.363967
0.56742	0.66335	0.0276396	0.363967
0.593954	0.690989	0	0.363967
0.629144	0.690989	0	0.454959
0.669815	0.690989	0	0.454959
0.669968	0.690989	0	0.454959
0.669975	0.690989	0.0276396	0.454959
0.67632	0.690989	0.0552792	0.454959
0.693821	0.690989	0.0552792	0.454959
0.695049	0.690989	0.0552792	0.454959
0.695099	0.704809	0.0829187	0.454959
0.726005	0.732449	0.0552792	0.454959
0.726008	0.732449	0.0552792	0.454959
0.726028	0.732449	0.0552792	0.454959
0.726065	0.760088	0.0276396	0.454959
0.736738	0.787728	0	0.454959
0.746733	0.787728	0	0.454959
0.747015	0.787728	0	0.454959
0.747017	0.801548	0.0276396	0.454959
0.747022	0.829187	0	0.454959
0.766858	0.829187	0	0.454959
0.767126	0.829187	0	0.454959
0.768239	0.829187	0.0276396	0.454959
0.77205	0.829187	0.0552792	0.454959
0.772181	0.829187	0.0552792	0.454959
0.773173	0.829187	0.0829187	0.454959
0.773223	0.843007	0.110558	0.454959
0.773359	0.870647	0.0829187	0.454959
0.787213	0.898286	0.0552792	0.454959
0.787216	0.898286	0.0552792	0.454959
0.787221	0.925926	0.0276396	0.454959
0.787336	0.953566	0	0.454959
0.787425	0.967385	0.0276396	0.454959
0.905273	0.995025	0	0.454959
0.905292	0.995025	0	0.545951
0.905792	0.995025	0	0.545951
0.906118	0.995025	0.0276396	0.545951
0.906153	1.00884	0.0552792	0.545951
0.906173	1.03648	0.0276396	0.545951
0.953334	1.06412	0	0.545951
0.981938	1.06412	0	0.636943
1.0059	1.06412	0	0.727934
1.00695	1.06412	0	0.818926
1.00701	1.06412	0	0.818926
1.00702	1.07794	0.0276396	0.818926
1.00703	1.10558	0	0.818926
1.01781	1.10558	0	0.818926
1.02963	1.10558	0	0.909918
1.02978	1.10558	0	0.909918
1.03167	1.10558	0.0276396	0.909918
1.03171	1.1194	0.0552792	0.909918
1.03172	1.14704	0.0276396	0.909918
1.04952	1.17468	0	0.909918
1.05164	1.17468	0	0.909918
1.05166	1.1885	0.0276396	0.909918
1.0983	1.21614	0	0.909918
1.0983	1.21614	0	1.00091
1.09833	1.21614	0	1.00091
1.09837	1.21614	0	1.00091
1.1179	1.21614	0	1.00091
1.11821	1.21614	0	1.00091
1.11827	1.22996	0.0276396	1.00091
1.12994	1.2576	0	1.00091
1.13038	1.2576	0	1.00091
1.13042	1.27142	0.0276396	1.00091
1.1612	1.29906	0	1.00091
1.17944	1.29906	0	1.00091
1.18179	1.29906	0	1.0919
1.21329	1.29906	0	1.0919
1.21331	1.29906	0	1.0919
1.22878	1.29906	0.0276396	1.0919
1.23927	1.29906	0.0276396	1.0919
1.24642	1.29906	0.0276396	1.0919
1.24716	1.29906	0.0276396	1.0919
1.24716	1.29906	0.0552792	1.0919
1.24717	1.31288	0.0829187	1.0919
1.24726	1.34052	0.0552792	1.0919
1.25701	1.36816	0.0276396	1.0919
1.25702	1.36816	0.0276396	1.0919
1.25706	1.3958	0	1.0919
1.28237	1.3958	0	1.0919
1.28238	1.3958	0	1.0919
1.28238	1.3958	0	1.0919
1.28239	1.3958	0	1.0919
1.2824	1.3958	0	1.0919
1.29291	1.3958	0	1.0919
1.29293	1.3958	0	1.0919
1.2989	1.3958	0	1.0919
1.29897	1.3958	0	1.0919
1.29982	1.3958	0.0276396	1.0919
1.30006	1.3958	0.0552792	1.0919
1.30008	1.40962	0.0829187	1.0919
1.30011	1.43726	0.0552792	1.0919
1.30012	1.4649	0.0276396	1.0919
1.33312	1.49254	0	1.0919
1.38481	1.49254	0	1.0919
1.38481	1.49254	0	1.0919
1.38484	1.50636	0.0276396	1.0919
1.41544	1.534	0	1.0919
1.41902	1.534	0	1.0919
1.43203	1.534	0	1.0919
1.43204	1.534	0	1.18289
1.43205	1.534	0	1.18289
1.43206	1.534	0	1.18289
1.43206	1.534	0	1.18289
1.43241	1.534	0	1.18289
1.44493	1.534	0	1.18289
1.45444	1.534	0	1.18289
1.4545	1.534	0	1.18289
1.45451	1.534	0.0552792	1.18289
1.45453	1.56164	0.0276396	1.18289
1.45461	1.58928	0	1.18289
1.45461	1.58928	0	1.18289
1.4581	1.58928	0	1.18289
1.46565	1.58928	0	1.18289
1.5449	1.58928	0	1.18289
1.60027	1.58928	0	1.18289
1.60833	1.58928	0	1.27389
1.6238	1.58928	0	1.36488
1.6562	1.58928	0	1.36488
1.66686	1.58928	0	1.36488
1.67712	1.58928	0	1.45587
1.67787	1.58928	0	1.45587
1.67789	1.6031	0.0276396	1.45587
1.69808	1.63074	0	1.45587
1.69812	1.63074	0	1.45587
1.69815	1.63074	0	1.45587
1.69815	1.63074	0	1.45587
1.71313	1.63074	0	1.45587
1.7136	1.63074	0	1.45587
1.71362	1.63074	0.0552792	1.45587
1.71374	1.65837	0.0276396	1.45587
1.71376	1.68601	0	1.45587
1.72656	1.68601	0	1.45587
1.72682	1.68601	0	1.45587
1.72695	1.69983	0.0276396	1.45587
1.74105	1.72747	0	1.45587
1.74193	1.72747	0	1.45587
1.75469	1.72747	0.0276396	1.45587
1.75517	1.72747	0.0276396	1.45587
1.7552	1.74129	0.0552792	1.45587
1.78496	1.76893	0.0276396	1.45587
1.78509	1.76893	0.0276396	1.54686
1.78874	1.79657	0	1.54686
1.78895	1.79657	0	1.54686
1.78909	1.81039	0.0276396	1.54686
1.79046	1.83803	0	1.54686
1.79056	1.83803	0	1.54686
1.82199	1.83803	0	1.54686
1.82224	1.83803	0	1.54686
1.82226	1.83803	0.0552792	1.54686
1.82228	1.86567	0.0276396	1.54686
1.84208	1.89331	0	1.54686
1.8427	1.89331	0	1.54686
1.84338	1.89331	0.0276396	1.54686
1.84338	1.90713	0.0552792	1.54686
1.84341	1.93477	0.0276396	1.54686
1.84343	1.93477	0.0276396	1.54686
1.84719	1.96241	0	1.54686
1.86113	1.96241	0	1.63785
1.86138	1.96241	0	1.63785
1.86138	1.96241	0.0552792	1.63785
1.86139	1.99005	0.0276396	1.63785
1.86142	2.01769	0	1.63785
1.89051	2.01769	0	1.63785
1.96677	2.01769	0	1.72884
1.96727	2.01769	0	1.72884
1.96876	2.01769	0.0276396	1.72884
1.96878	2.01769	0.0552792	1.72884
1.96878	2.01769	0.110558	1.72884
1.96879	2.04533	0.0829187	1.72884
1.96879	2.04533	0.0829187	1.72884
1.9688	2.07297	0.0552792	1.72884
1.96905	2.10061	0.0276396	1.72884
2.05033	2.12825	0	1.72884
2.05621	2.12825	0	1.72884
2.05649	2.12825	0	1.72884
2.05652	2.12825	0	1.72884
2.05715	2.12825	0.0276396	1.72884
2.05723	2.12825	0.0552792	1.72884
2.06797	2.12825	0.0829187	1.72884
2.06857	2.12825	0.0829187	1.72884
2.06858	2.14207	0.110558	1.72884
2.06861	2.16971	0.0829187	1.72884
2.07124	2.16971	0.0829187	1.72884
2.09075	2.16971	0.0829187	1.72884
2.09098	2.16971	0.0829187	1.81984
2.11049	2.16971	0.0829187	1.91083
2.11049	2.16971	0.0829187	1.91083
2.1105	2.19735	0.0552792	1.91083
2.11053	2.22499	0.0276396	1.91083
2.11053	2.25263	0	1.91083
2.11074	2.25263	0	1.91083
2.11074	2.26645	0.0276396	1.91083
2.15172	2.29409	0	1.91083
2.15211	2.29409	0	1.91083
2.15214	2.3079	0.0276396	1.91083
2.17816	2.33554	0	1.91083
2.17838	2.33554	0	1.91083
2.17839	2.34936	0.0276396	1.91083
2.18041	2.377	0	1.91083
2.18414	2.377	0	2.00182
2.2123	2.377	0	2.00182
2.21982	2.377	0	2.00182
2.22001	2.377	0	2.00182
2.22008	2.39082	0.0276396	2.00182
2.22115	2.41846	0	2.00182
2.22125	2.41846	0	2.00182
2.2217	2.41846	0	2.09281
2.2217	2.43228	0.0276396	2.09281
2.22211	2.45992	0	2.09281
2.22248	2.45992	0	2.09281
2.22261	2.47374	0.0276396	2.09281
2.23299	2.50138	0	2.09281
2.25391	2.50138	0	2.09281
2.27786	2.50138	0	2.09281
2.32087	2.50138	0	2.09281
2.36026	2.50138	0	2.09281
2.36082	2.50138	0	2.09281
2.36083	2.5152	0.0276396	2.09281
2.36417	2.54284	0	2.09281
2.36472	2.54284	0	2.09281
2.36473	2.55666	0.0276396	2.09281
2.40812	2.5843	0	2.09281
2.41041	2.5843	0	2.09281
2.41046	2.59812	0.0276396	2.09281
2.45486	2.62576	0	2.09281
2.49723	2.62576	0	2.1838
2.4983	2.62576	0	2.1838
2.53121	2.62576	0.0276396	2.1838
2.53125	2.62576	0.0276396	2.2748
2.54886	2.6534	0	2.2748
2.56786	2.6534	0	2.2748
2.56814	2.6534	0	2.2748
2.56817	2.6534	0.0552792	2.2748
2.56822	2.68104	0.0276396	2.2748
2.56823	2.68104	0.0276396	2.2748
2.60328	2.70868	0	2.2748
2.60352	2.70868	0	2.2748
2.60412	2.70868	0.0276396	2.2748
2.60452	2.70868	0.0552792	2.2748
2.60538	2.70868	0.0829187	2.2748
2.60548	2.70868	0.110558	2.2748
2.6055	2.70868	0.165837	2.2748
2.60551	2.73632	0.138198	2.2748
2.60554	2.76396	0.110558	2.2748
2.60556	2.7916	0.0829187	2.2748
2.60557	2.81924	0.0552792	2.2748
2.60557	2.84688	0.0276396	2.2748
2.60562	2.84688	0.0276396	2.2748
2.60566	2.84688	0.0276396	2.2748
2.61162	2.87452	0	2.2748
2.61916	2.87452	0	2.36579
2.61928	2.87452	0	2.36579
2.61942	2.87452	0.0276396	2.36579
2.61943	2.88834	0.0552792	2.36579
2.61944	2.91598	0.0276396	2.36579
2.69515	2.94362	0	2.36579
2.70468	2.94362	0	2.45678
2.70533	2.94362	0	2.45678
2.70626	2.94362	0.0276396	2.45678
2.70629	2.95744	0.0552792	2.45678
2.70629	2.98507	0.0276396	2.45678
2.72868	3.01271	0	2.45678
2.73006	3.01271	0	2.54777
2.76679	3.01271	0	2.72975
2.76771	3.01271	0	2.72975
2.76772	3.01271	0.0276396	2.72975
2.7678	3.02653	0.0552792	2.72975
2.76783	3.05417	0.0276396	2.72975
2.76926	3.08181	0	2.72975
2.78463	3.08181	0	2.72975
2.79855	3.08181	0	2.91174
2.79949	3.08181	0	2.91174
2.79955	3.09563	0.0276396	2.91174
2.82905	3.12327	0	2.91174
2.85955	3.12327	0	3.00273
2.88577	3.12327	0	3.00273
2.92605	3.12327	0	3.18471
2.9261	3.12327	0	3.18471
2.92614	3.13709	0.0276396	3.18471
2.95226	3.16473	0	3.18471
2.98383	3.16473	0	3.27571
2.98492	3.16473	0	3.27571
2.98492	3.17855	0.0276396	3.27571
2.99138	3.20619	0	3.27571
2.99147	3.20619	0	3.27571
2.99151	3.20619	0.0552792	3.27571
2.99151	3.23383	0.0276396	3.27571
2.99152	3.26147	0	3.27571
3.00524	3.26147	0	3.27571
3.03369	3.26147	0	3.45769
3.03491	3.26147	0	3.45769
3.03495	3.27529	0.0276396	3.45769
3.03976	3.30293	0	3.45769
3.03994	3.30293	0	3.45769
3.03996	3.31675	0.0276396	3.45769
3.07121	3.34439	0	3.45769
3.07167	3.34439	0	3.45769
3.07174	3.34439	0.0552792	3.45769
3.07178	3.37203	0.0276396	3.45769
3.08855	3.39967	0	3.45769
3.10056	3.39967	0	3.63967
3.14681	3.39967	0	3.63967
3.21597	3.39967	0	3.73066
3.21717	3.39967	0	3.82166
3.21739	3.39967	0	3.82166
3.21745	3.41349	0.0276396	3.82166
3.22244	3.44113	0	3.82166
3.22714	3.44113	0	3.82166
3.22858	3.44113	0	3.82166
3.22864	3.45495	0.0276396	3.82166
3.27569	3.48259	0	3.82166
3.2944	3.48259	0	3.91265
3.29457	3.48259	0	3.91265
3.29484	3.49641	0.0276396	3.91265
3.35187	3.52405	0	3.91265
3.35207	3.52405	0	3.91265
3.35207	3.53787	0.0276396	3.91265
3.36892	3.56551	0	3.91265
3.37012	3.56551	0	4.09463
3.37927	3.56551	0	4.18562
3.38008	3.56551	0	4.18562
3.38032	3.56551	0.0276396	4.18562
3.47073	3.56551	0.0552792	4.18562
3.47079	3.56551	0.0552792	4.18562
3.47082	3.59315	0.0276396	4.18562
3.471	3.62078	0	4.18562
3.471	3.6346	0.0276396	4.18562
3.47274	3.66224	0	4.18562
3.49121	3.66224	0	4.18562
3.5146	3.66224	0	4.27662
3.5296	3.66224	0	4.4586
3.56204	3.66224	0	4.54959
3.56268	3.66224	0	4.54959
3.56273	3.66224	0.0276396	4.54959
3.56311	3.66224	0.0552792	4.54959
3.56403	3.66224	0.0829187	4.54959
3.56525	3.66224	0.110558	4.54959
3.56567	3.66224	0.138198	4.54959
3.56573	3.66224	0.165837	4.54959
3.5666	3.66224	0.193477	4.54959
3.5666	3.67606	0.221117	4.54959
3.56661	3.7037	0.193477	4.54959
3.56661	3.73134	0.165837	4.54959
3.56662	3.75898	0.138198	4.54959
3.56663	3.78662	0.110558	4.54959
3.56663	3.81426	0.0829187	4.54959
3.56666	3.8419	0.0552792	4.54959
3.5667	3.8419	0.0552792	4.54959
3.56674	3.86954	0.0276396	4.54959
3.56675	3.86954	0.0276396	4.54959
3.60766	3.89718	0	4.54959
3.63357	3.89718	0	4.73157
3.6337	3.89718	0	4.73157
3.63371	3.89718	0.0552792	4.73157
3.63395	3.92482	0.0276396	4.73157
3.63786	3.95246	0	4.73157
3.63834	3.95246	0	4.73157
3.63878	3.95246	0.0276396	4.73157
3.6388	3.96628	0.0552792	4.73157
3.6388	3.99392	0.0276396	4.73157
3.68556	4.02156	0	4.73157
3.68563	4.02156	0	4.73157
3.68564	4.03538	0.0276396	4.73157
3.71472	4.06302	0	4.73157
3.71517	4.06302	0	4.73157
3.71593	4.06302	0.0276396	4.73157
3.71594	4.07684	0.0552792	4.73157
3.71595	4.10448	0.0276396	4.73157
3.71596	4.13212	0	4.73157
3.72494	4.13212	0	4.73157
3.72976	4.13212	0	4.73157
3.72983	4.13212	0	4.73157
3.72988	4.14594	0.0276396	4.73157
3.74277	4.17358	0	4.73157
3.76044	4.17358	0	4.82257
3.76044	4.17358	0	4.82257
3.76046	4.1874	0.0276396	4.82257
3.79957	4.21504	0	4.82257
3.814	4.21504	0	4.82257
3.81411	4.21504	0	4.82257
3.81521	4.21504	0.0276396	4.82257
3.81523	4.22886	0.0552792	4.82257
3.81524	4.2565	0.0276396	4.82257
3.82468	4.28413	0	4.82257
3.8247	4.28413	0	4.82257
3.82472	4.29795	0.0276396	4.82257
3.82685	4.32559	0	4.82257
3.82706	4.32559	0	4.82257
3.82764	4.32559	0.0276396	4.82257
3.82803	4.32559	0.0552792	4.82257
3.82817	4.32559	0.0829187	4.82257
3.82937	4.32559	0.110558	4.82257
3.82943	4.32559	0.138198	4.82257
3.83013	4.32559	0.165837	4.82257
3.83047	4.32559	0.193477	4.82257
3.83052	4.32559	0.221117	4.82257
3.8306	4.32559	0.248756	4.82257
3.83078	4.35323	0.221117	4.82257
3.83079	4.35323	0.248756	4.82257
3.83079	4.38087	0.221117	4.82257
3.83659	4.38087	0.221117	4.82257
3.83661	4.38087	0.221117	4.82257
3.83665	4.39469	0.248756	4.82257
3.84402	4.42233	0.221117	4.82257
3.86372	4.42233	0.221117	4.91356
3.86519	4.42233	0.221117	4.91356
3.86626	4.42233	0.248756	4.91356
3.86627	4.42233	0.304035	4.91356
3.8663	4.44997	0.276396	4.91356
3.86631	4.47761	0.248756	4.91356
3.86962	4.50525	0.221117	4.91356
3.87027	4.50525	0.221117	4.91356
3.87028	4.50525	0.276396	4.91356
3.87032	4.53289	0.248756	4.91356
3.90861	4.56053	0.221117	4.91356
3.90861	4.56053	0.221117	4.91356
3.90861	4.56053	0.248756	4.91356
3.90862	4.58817	0.221117	4.91356
3.90862	4.61581	0.193477	4.91356
3.90863	4.64345	0.165837	4.91356
3.90864	4.67109	0.138198	4.91356
3.90864	4.69873	0.110558	4.91356
3.90865	4.72637	0.0829187	4.91356
3.90865	4.72637	0.0829187	4.91356
3.90869	4.72637	0.0829187	4.91356
3.9087	4.75401	0.0552792	4.91356
3.9087	4.78165	0.0276396	4.91356
3.9087	4.78165	0.0276396	4.91356
3.90873	4.78165	0.0276396	4.91356
3.90874	4.78165	0.0276396	4.91356
3.90881	4.78165	0.0276396	4.91356
3.90882	4.78165	0.0829187	4.91356
3.90884	4.80929	0.0552792	4.91356
3.90897	4.83693	0.0276396	4.91356
3.98165	4.86457	0	4.91356
4.02821	4.86457	0	4.91356
4.03191	4.86457	0	4.91356
4.05996	4.86457	0	5.09554
4.05998	4.86457	0	5.09554
4.06002	4.87839	0.0276396	5.09554
4.12238	4.90603	0	5.09554
4.17514	4.90603	0	5.27753
4.17633	4.90603	0	5.36852
4.17637	4.90603	0	5.36852
4.17646	4.91985	0.0276396	5.36852
4.2145	4.94748	0	5.36852
4.21463	4.94748	0	5.36852
4.21467	4.9613	0.0276396	5.36852
4.24133	4.98894	0	5.36852
4.25896	4.98894	0	5.45951
4.26168	4.98894	0	5.64149
4.2619	4.98894	0	5.64149
4.26197	5.00276	0.0276396	5.64149
4.28188	5.0304	0	5.64149
4.28245	5.0304	0	5.64149
4.28246	5.0304	0.0552792	5.64149
4.28247	5.05804	0.0276396	5.64149
4.29815	5.08568	0	5.64149
4.2983	5.08568	0	5.64149
4.29863	5.08568	0.0276396	5.64149
4.29932	5.08568	0.0552792	5.64149
4.29956	5.08568	0.0829187	5.64149
4.29957	5.08568	0.110558	5.64149
4.29957	5.11332	0.0829187	5.64149
4.29958	5.14096	0.0552792	5.64149
4.29962	5.1686	0.0276396	5.64149
4.31518	5.19624	0	5.64149
4.3158	5.19624	0	5.64149
4.3158	5.21006	0.0276396	5.64149
4.3192	5.2377	0	5.64149
4.33179	5.2377	0	5.64149
4.33204	5.2377	0	5.73248
4.33375	5.2377	0	5.73248
4.33375	5.2377	0.0276396	5.73248
4.33433	5.2377	0.0552792	5.73248
4.33482	5.2377	0.0829187	5.73248
4.3349	5.2377	0.110558	5.73248
4.33511	5.2377	0.138198	5.73248
4.33511	5.25152	0.165837	5.73248
4.33515	5.27916	0.138198	5.73248
4.33516	5.3068	0.110558	5.73248
4.33516	5.33444	0.0829187	5.73248
4.33517	5.36208	0.0552792	5.73248
4.33527	5.38972	0.0276396	5.73248
4.34574	5.41736	0	5.73248
4.34739	5.41736	0	5.82348
4.34927	5.41736	0	5.82348
4.34932	5.43118	0.0276396	5.82348
4.35208	5.45882	0	5.82348
4.36092	5.45882	0	5.91447
4.36956	5.45882	0	6.00546
4.37321	5.45882	0	6.18744
4.37391	5.45882	0	6.18744
4.37393	5.47264	0.0276396	6.18744
4.39778	5.50028	0	6.18744
4.39972	5.50028	0	6.18744
4.39979	5.5141	0.0276396	6.18744
4.42133	5.54174	0	6.18744
4.4217	5.54174	0	6.18744
4.42171	5.55556	0.0276396	6.18744
4.42209	5.5832	0	6.18744
4.42255	5.5832	0	6.18744
4.42264	5.59701	0.0276396	6.18744
4.46493	5.62465	0	6.18744
4.5232	5.62465	0	6.27843
4.52984	5.62465	0	6.46042
4.55704	5.62465	0	6.6424
4.64655	5.62465	0	6.6424
4.64668	5.62465	0	6.6424
4.64673	5.63847	0.0276396	6.6424
4.74754	5.66611	0	6.6424
4.74788	5.66611	0	6.6424
4.74789	5.66611	0.0552792	6.6424
4.7479	5.69375	0.0276396	6.6424
4.81603	5.72139	0	6.6424
4.81604	5.72139	0	6.6424
4.81605	5.73521	0.0276396	6.6424
4.9712	5.76285	0	6.6424
5.01938	5.76285	0	6.82439
5.01992	5.76285	0	6.82439
5.02033	5.76285	0.0276396	6.82439
5.02141	5.76285	0.0552792	6.82439
5.02142	5.77667	0.0829187	6.82439
5.02149	5.80431	0.0552792	6.82439
5.02154	5.83195	0.0276396	6.82439
5.02844	5.85959	0	6.82439
5.02857	5.85959	0	6.82439
5.02863	5.87341	0.0276396	6.82439
5.07907	5.90105	0	6.82439
5.07919	5.90105	0	6.82439
5.07921	5.91487	0.0276396	6.82439
5.09418	5.94251	0	6.82439
5.09439	5.94251	0	6.82439
5.09441	5.95633	0.0276396	6.82439
5.09532	5.98397	0	6.82439
5.09788	5.98397	0	6.82439
5.0979	5.98397	0.0276396	6.82439
5.09793	5.99779	0.0552792	6.82439
5.09793	6.02543	0.0276396	6.82439
5.0983	6.05307	0	6.82439
5.09917	6.05307	0	6.82439
5.10999	6.05307	0.0276396	6.82439
5.11053	6.05307	0.0276396	6.82439
5.11054	6.06689	0.0552792	6.82439
5.21151	6.09453	0.0276396	6.82439
5.21155	6.09453	0.0276396	6.91538
5.21889	6.12217	0	6.91538
5.21929	6.12217	0	6.91538
5.21937	6.12217	0	7.09736
5.21946	6.12217	0.0276396	7.09736
5.21947	6.12217	0.0829187	7.09736
5.21952	6.14981	0.0552792	7.09736
5.21962	6.17745	0.0276396	7.09736
5.23959	6.20509	0	7.09736
5.2591	6.20509	0	7.09736
5.25928	6.20509	0	7.09736
5.25928	6.21891	0.0276396	7.09736
5.2974	6.24655	0	7.09736
5.29819	6.24655	0	7.09736
5.29858	6.24655	0.0276396	7.09736
5.29863	6.24655	0.0829187	7.09736
5.29866	6.27418	0.0552792	7.09736
5.29867	6.30182	0.0276396	7.09736
5.30201	6.32946	0	7.09736
5.32841	6.32946	0	7.18835
5.32964	6.32946	0	7.18835
5.32966	6.34328	0.0276396	7.18835
5.44518	6.37092	0	7.18835
5.44797	6.37092	0	7.18835
5.46298	6.37092	0	7.37034
5.47013	6.37092	0	7.55232
5.47099	6.37092	0	7.55232
5.47103	6.38474	0.0276396	7.55232
5.47104	6.41238	0	7.55232
5.49715	6.41238	0	7.55232
5.49766	6.41238	0	7.55232
5.49777	6.4262	0.0276396	7.55232
5.53054	6.45384	0	7.55232
5.53179	6.45384	0	7.55232
5.53182	6.46766	0.0276396	7.55232
5.54755	6.4953	0	7.55232
5.54797	6.4953	0	7.55232
5.54875	6.4953	0.0276396	7.55232
5.54875	6.50912	0.0552792	7.55232
5.54877	6.53676	0.0276396	7.55232
5.54915	6.5644	0	7.55232
5.56302	6.5644	0	7.7343
5.56369	6.5644	0	7.7343
5.5637	6.57822	0.0276396	7.7343
5.56521	6.60586	0	7.7343
5.64508	6.60586	0	7.7343
5.75936	6.60586	0	7.91629
5.76011	6.60586	0	7.91629
5.76011	6.61968	0.0276396	7.91629
5.76012	6.61968	0.0276396	7.91629
5.77173	6.64732	0	7.91629
5.77297	6.64732	0	7.91629
5.773	6.66114	0.0276396	7.91629
5.78651	6.68878	0	7.91629
5.80308	6.68878	0	7.91629
5.80558	6.68878	0	7.91629
5.8225	6.68878	0	8.00728
5.84566	6.68878	0	8.09827
5.93061	6.68878	0	8.09827
5.93106	6.68878	0	8.09827
5.93113	6.7026	0.0276396	8.09827
5.98021	6.73024	0	8.09827
5.98024	6.73024	0	8.09827
5.98026	6.73024	0.0552792	8.09827
5.9804	6.75788	0.0276396	8.09827
5.99199	6.78552	0	8.09827
5.99201	6.78552	0	8.09827
5.99201	6.79934	0.0276396	8.09827
6.0064	6.82698	0	8.09827
6.0064	6.82698	0	8.09827
6.0064	6.8408	0.0276396	8.09827
6.00709	6.86844	0	8.09827
6.00722	6.86844	0	8.09827
6.00723	6.86844	0.0552792	8.09827
6.00738	6.89608	0.0276396	8.09827
6.04629	6.92371	0	8.09827
6.04642	6.92371	0	8.09827
6.04642	6.92371	0.0552792	8.09827
6.04646	6.95135	0.0276396	8.09827
6.09982	6.97899	0	8.09827
6.09988	6.97899	0	8.09827
6.09988	6.99281	0.0276396	8.09827
6.1051	7.02045	0	8.09827
6.13508	7.02045	0	8.18926
6.13509	7.02045	0	8.18926
6.13513	7.03427	0.0276396	8.18926
6.15264	7.06191	0	8.18926
6.15265	7.06191	0	8.18926
6.15311	7.06191	0.0276396	8.18926
6.15313	7.07573	0.0552792	8.18926
6.1532	7.10337	0.0276396	8.18926
6.1626	7.13101	0	8.18926
6.16353	7.13101	0	8.18926
6.25341	7.13101	0.0276396	8.18926
6.25342	7.13101	0.0276396	8.18926
6.25352	7.15865	0	8.18926
6.2537	7.17247	0.0276396	8.18926
6.25476	7.20011	0	8.18926
6.25494	7.20011	0	8.18926
6.25496	7.21393	0.0276396	8.18926
6.2588	7.24157	0	8.18926
6.2588	7.24157	0	8.18926
6.25882	7.25539	0.0276396	8.18926
6.28481	7.28303	0	8.18926
6.28544	7.28303	0	8.18926
6.28568	7.28303	0.0276396	8.18926
6.28569	7.29685	0.0552792	8.18926
6.28571	7.32449	0.0276396	8.18926
6.33712	7.35213	0	8.18926
6.33725	7.35213	0	8.18926
6.33784	7.35213	0.0276396	8.18926
6.33785	7.35213	0.0829187	8.18926
6.33785	7.37977	0.0552792	8.18926
6.33799	7.40741	0.0276396	8.18926
6.44314	7.43505	0	8.18926
6.44466	7.43505	0	8.18926
6.44469	7.43505	0.0552792	8.18926
6.44478	7.46269	0.0276396	8.18926
6.45959	7.49033	0	8.18926
6.50577	7.49033	0	8.37125
6.51972	7.49033	0	8.46224
6.52086	7.49033	0	8.46224
6.52088	7.50415	0.0276396	8.46224
6.52709	7.53179	0	8.46224
6.52755	7.53179	0	8.46224
6.52771	7.53179	0.0276396	8.46224
6.52773	7.54561	0.0552792	8.46224
6.52781	7.57324	0.0276396	8.46224
6.55416	7.60088	0	8.46224
6.55444	7.60088	0	8.46224
6.55445	7.6147	0.0276396	8.46224
6.55812	7.64234	0	8.46224
6.59489	7.64234	0	8.55323
6.67831	7.64234	0	8.64422
6.70866	7.64234	0	8.73521
6.70912	7.64234	0	8.73521
6.70915	7.64234	0.0276396	8.73521
6.70957	7.64234	0.0552792	8.73521
6.70959	7.64234	0.110558	8.73521
6.7096	7.66998	0.0829187	8.73521
6.70963	7.69762	0.0552792	8.73521
6.70971	7.72526	0.0276396	8.73521
6.74636	7.7529	0	8.73521
6.81767	7.7529	0	8.82621
6.81777	7.7529	0	8.82621
6.81784	7.7529	0.0552792	8.82621
6.81789	7.78054	0.0276396	8.82621
6.84067	7.80818	0	8.82621
6.8407	7.80818	0	8.82621
6.84071	7.822	0.0276396	8.82621
6.84709	7.84964	0	8.82621
6.84709	7.84964	0	8.82621
6.84718	7.86346	0.0276396	8.82621
6.87583	7.8911	0	8.82621
6.87602	7.8911	0	8.82621
6.87611	7.8911	0.0276396	8.82621
6.87611	7.8911	0.0552792	8.82621
6.87612	7.91874	0.0276396	8.82621
6.90512	7.94638	0	8.82621
6.9054	7.94638	0	8.82621
6.90547	7.9602	0.0276396	8.82621
6.93366	7.98784	0	8.82621
6.93846	7.98784	0	9.00819
7.00337	7.98784	0	9.09918
7.00357	7.98784	0	9.09918
7.0036	7.98784	0.0552792	9.09918
7.0036	8.01548	0.0276396	9.09918
7.01249	8.04312	0	9.09918
7.01282	8.04312	0	9.09918
7.01283	8.05694	0.0276396	9.09918
7.03936	8.08458	0	9.09918
7.05192	8.08458	0	9.19017
7.05194	8.08458	0	9.37216
7.052	8.08458	0	9.37216
7.11666	8.08458	0	9.46315
7.11686	8.08458	0	9.46315
7.11692	8.0984	0.0276396	9.46315
7.1214	8.12604	0	9.46315
7.13057	8.12604	0	9.55414
7.16281	8.12604	0	9.64513
7.16335	8.12604	0	9.64513
7.16398	8.12604	0.0276396	9.64513
7.16399	8.13986	0.0552792	9.64513
7.164	8.1675	0.0276396	9.64513
7.2195	8.19514	0	9.64513
7.24845	8.19514	0	9.73612
7.26597	8.19514	0	9.82712
7.27189	8.19514	0	10.0091
7.27202	8.19514	0	10.0091
7.27243	8.19514	0	10.0091
7.27249	8.19514	0.0552792	10.0091
7.27261	8.22278	0.0276396	10.0091
7.36942	8.25041	0	10.0091
7.3704	8.25041	0	10.0091
7.3704	8.25041	0.0552792	10.0091
7.37048	8.27805	0.0276396	10.0091
7.3894	8.30569	0	10.0091
7.38992	8.30569	0	10.0091
7.38999	8.31951	0.0276396	10.0091
7.41041	8.34715	0	10.0091
7.41075	8.34715	0	10.0091
7.4108	8.36097	0.0276396	10.0091
7.42212	8.38861	0	10.0091
7.42276	8.38861	0	10.0091
7.42287	8.40243	0.0276396	10.0091
7.50912	8.43007	0	10.0091
7.50924	8.43007	0	10.0091
7.50925	8.43007	0.0552792	10.0091
7.50949	8.45771	0.0276396	10.0091
7.58641	8.48535	0	10.0091
7.68503	8.48535	0	10.1001
7.68547	8.48535	0	10.1001
7.68549	8.48535	0.0276396	10.1001
7.68566	8.49917	0.0552792	10.1001
7.68567	8.52681	0.0276396	10.1001
7.73766	8.55445	0	10.1001
7.73768	8.55445	0	10.1001
7.73778	8.56827	0.0276396	10.1001
7.83631	8.59591	0	10.1001
7.83637	8.59591	0	10.1001
7.83639	8.59591	0.0552792	10.1001
7.83649	8.62355	0.0276396	10.1001
7.84416	8.65119	0	10.1001
7.84479	8.65119	0	10.1001
7.84481	8.66501	0.0276396	10.1001
7.89624	8.69265	0	10.1001
7.89761	8.69265	0	10.1001
7.89764	8.70647	0.0276396	10.1001
7.95461	8.73411	0	10.1001
8.07857	8.73411	0	10.2821
8.09171	8.73411	0	10.3731
8.09181	8.73411	0	10.3731
8.09194	8.73411	0	10.4641
8.18018	8.73411	0.0276396	10.4641
8.1802	8.73411	0.0276396	10.4641
8.18021	8.73411	0.0829187	10.4641
8.18024	8.76175	0.0552792	10.4641
8.18031	8.78939	0.0276396	10.4641
8.23991	8.81703	0	10.4641
8.24029	8.81703	0	10.4641
8.24032	8.81703	0.0552792	10.4641
8.24035	8.84467	0.0276396	10.4641
8.25965	8.87231	0	10.4641
8.25986	8.87231	0	10.4641
8.25991	8.88612	0.0276396	10.4641
8.32966	8.91376	0	10.4641
8.34314	8.91376	0	10.646
8.34318	8.91376	0	10.646
8.34325	8.92758	0.0276396	10.646
8.36343	8.95522	0	10.646
8.37011	8.95522	0	10.737
8.39494	8.95522	0	10.828
8.41677	8.95522	0	11.01
8.41683	8.95522	0	11.01
8.41687	8.96904	0.0276396	11.01
8.47442	8.99668	0	11.01
8.4752	8.99668	0	11.01
8.47523	8.99668	0	11.01
8.47523	8.99668	0.0552792	11.01
8.47539	9.02432	0.0276396	11.01
8.56478	9.05196	0	11.01
8.56589	9.05196	0	11.01
8.56719	9.05196	0.0276396	11.01
8.56719	9.06578	0.0552792	11.01
8.56731	9.09342	0.0276396	11.01
8.58683	9.12106	0	11.01
8.63049	9.12106	0	11.192
8.63089	9.12106	0	11.192
8.63115	9.13488	0.0276396	11.192
8.64412	9.16252	0	11.192
8.9317	9.16252	0	11.192
8.93255	9.16252	0	11.192
8.93264	9.17634	0.0276396	11.192
8.94034	9.20398	0	11.192
8.94035	9.20398	0	11.192
8.94036	9.20398	0.0552792	11.192
8.9405	9.23162	0.0276396	11.192
9.05386	9.25926	0	11.192
9.0735	9.25926	0	11.374
9.09704	9.25926	0	11.556
9.11026	9.25926	0	11.556
9.11038	9.25926	0	11.556
9.11041	9.27308	0.0276396	11.556
9.11917	9.30072	0	11.556
9.11941	9.30072	0	11.556
9.11951	9.30072	0.0276396	11.556
9.11953	9.31454	0.0552792	11.556
9.11955	9.34218	0.0276396	11.556
9.13012	9.36982	0	11.556
9.13034	9.36982	0	11.556
9.13041	9.38364	0.0276396	11.556
9.14977	9.41128	0	11.556
9.2106	9.41128	0	11.647
9.21144	9.41128	0	11.647
9.21146	9.4251	0.0276396	11.647
9.25055	9.45274	0	11.647
9.25095	9.45274	0	11.647
9.25099	9.45274	0.0552792	11.647
9.251	9.48038	0.0276396	11.647
9.25103	9.50802	0	11.647
9.26967	9.50802	0	11.647
9.26971	9.50802	0	11.647
9.26976	9.50802	0.0276396	11.647
9.30328	9.53566	0	11.647
9.33525	9.53566	0	11.8289
9.33549	9.53566	0	11.8289
9.33612	9.53566	0.0276396	11.8289
9.33617	9.54947	0.0552792	11.8289
9.33618	9.57711	0.0276396	11.8289
9.35238	9.60475	0	11.8289
9.35247	9.60475	0	11.8289
9.35251	9.61857	0.0276396	11.8289
9.40679	9.64621	0	11.8289
9.40757	9.64621	0	11.8289
9.40949	9.64621	0.0276396	11.8289
9.41061	9.64621	0.0552792	11.8289
9.48246	9.64621	0.0829187	11.8289
9.48247	9.64621	0.0829187	11.9199
9.48251	9.67385	0.0552792	11.9199
9.48257	9.67385	0.0552792	11.9199
9.48258	9.70149	0.0276396	11.9199
9.60179	9.72913	0	11.9199
9.60225	9.72913	0	11.9199
9.60227	9.74295	0.0276396	11.9199
9.65094	9.77059	0	11.9199
9.70168	9.77059	0	12.1019
9.70177	9.77059	0	12.1019
9.72324	9.77059	0.0276396	12.1019
9.72329	9.77059	0.0276396	12.1019
9.72334	9.77059	0.0829187	12.1019
9.7235	9.79823	0.0552792	12.1019
9.73711	9.82587	0.0276396	12.1019
9.73713	9.82587	0.0276396	12.1019
9.73759	9.85351	0	12.1019
9.73761	9.85351	0.0552792	12.1019
9.7377	9.88115	0.0276396	12.1019
9.7546	9.90879	0	12.1019
9.78901	9.90879	0	12.2839
9.80595	9.90879	0	12.4659
9.80625	9.90879	0	12.4659
9.8063	9.90879	0.0552792	12.4659
9.80631	9.93643	0.0276396	12.4659
9.81975	9.96407	0	12.4659
9.84039	9.96407	0	12.6479
9.8414	9.96407	0	12.6479
9.84146	9.97789	0.0276396	12.6479
9.84698	10.0055	0	12.6479
9.84833	10.0055	0	12.6479
9.84835	10.0193	0.0276396	12.6479
9.89966	10.047	0	12.6479
9.90004	10.047	0	12.6479
9.90045	10.047	0.0276396	12.6479
9.90046	10.0608	0.0552792	12.6479
9.90062	10.0884	0.0276396	12.6479
9.90717	10.1161	0	12.6479
9.90803	10.1161	0	12.6479
9.90805	10.1161	0.0276396	12.6479
9.98877	10.1437	0	12.6479
9.98949	10.1437	0	12.6479
9.9895	10.1575	0.0276396	12.6479
10.0104	10.1852	0	12.6479
10.0105	10.1852	0	12.6479
10.0105	10.199	0.0276396	12.6479
10.0552	10.2266	0	12.6479
10.0557	10.2266	0	12.6479
10.0559	10.2266	0.0276396	12.6479
10.0559	10.2405	0.0552792	12.6479
10.0559	10.2681	0.0276396	12.6479
10.0864	10.2957	0	12.6479
10.2555	10.2957	0	12.8298
10.2559	10.2957	0	12.8298
10.256	10.3096	0.0276396	12.8298
10.2817	10.3372	0	12.8298
10.2819	10.3372	0	12.8298
10.282	10.3372	0.0276396	12.8298
10.2821	10.351	0.0552792	12.8298
10.2821	10.3787	0.0276396	12.8298
10.3975	10.4063	0	12.8298
10.3976	10.4063	0	12.8298
10.3976	10.4063	0.0552792	12.8298
10.3976	10.4339	0.0276396	12.8298
10.4305	10.4616	0	12.8298
10.4305	10.4616	0	12.8298
10.4306	10.4754	0.0276396	12.8298
10.4713	10.503	0	12.8298
10.4719	10.503	0	12.8298
10.4726	10.503	0.0276396	12.8298
10.4726	10.5169	0.0552792	12.8298
10.4726	10.5445	0.0276396	12.8298
10.499	10.5721	0	12.8298
10.4992	10.5721	0	12.8298
10.4992	10.5721	0.0552792	12.8298
10.4992	10.5998	0.0276396	12.8298
10.5265	10.6274	0	12.8298
10.5439	10.6274	0	13.0118
10.6567	10.6274	0	13.1938
10.6575	10.6274	0	13.1938
10.6575	10.6412	0.0276396	13.1938
10.7232	10.6689	0	13.1938
10.7236	10.6689	0	13.1938
10.7237	10.6827	0.0276396	13.1938
10.7944	10.7103	0	13.1938
10.7944	10.7103	0	13.1938
10.7944	10.7242	0.0276396	13.1938
10.8379	10.7518	0	13.1938
10.8604	10.7518	0	13.3758
10.8607	10.7518	0	13.3758
10.8613	10.7518	0.0276396	13.3758
10.8613	10.7518	0.0829187	13.3758
10.8614	10.7794	0.0552792	13.3758
10.8614	10.8071	0.0276396	13.3758
10.8726	10.8347	0	13.3758
10.8732	10.8347	0	13.3758
10.8732	10.8347	0.0276396	13.3758
10.9297	10.8624	0	13.3758
10.9487	10.8624	0	13.5578
11.1109	10.8624	0	13.7398
11.1413	10.8624	0	13.8308
11.1413	10.8624	0	13.8308
11.1413	10.8624	0.0552792	13.8308
11.1414	10.89	0.0276396	13.8308
11.1467	10.9176	0	13.8308
11.147	10.9176	0	13.8308
11.1471	10.9315	0.0276396	13.8308
11.1763	10.9591	0	13.8308
11.2036	10.9591	0	13.9217
11.2325	10.9591	0	14.1037
11.2534	10.9591	0	14.2857
11.2537	10.9591	0	14.2857
11.2538	10.9729	0.0276396	14.2857
11.2813	11.0006	0	14.2857
11.2816	11.0006	0	14.2857
11.2817	11.0006	0.0552792	14.2857
11.2817	11.0282	0.0276396	14.2857
11.3306	11.0558	0	14.2857
11.5284	11.0558	0	14.4677
11.5291	11.0558	0	14.4677
11.5291	11.0558	0.0552792	14.4677
11.5291	11.0835	0.0276396	14.4677
11.6031	11.1111	0	14.4677
11.6042	11.1111	0	14.4677
11.7862	11.1111	0.0276396	14.4677
11.7863	11.1111	0.0276396	14.4677
11.7869	11.1388	0	14.4677
11.787	11.1388	0.0552792	14.4677
11.787	11.1664	0.0276396	14.4677
11.8335	11.194	0	14.4677
11.8339	11.194	0	14.4677
11.8339	11.2078	0.0276396	14.4677
11.8672	11.2355	0	14.4677
11.8678	11.2355	0	14.4677
11.9311	11.2355	0.0276396	14.4677
11.9316	11.2355	0.0276396	14.4677
11.9318	11.2355	0.0552792	14.4677
11.9322	11.2355	0.0829187	14.4677
11.9327	11.2355	0.110558	14.4677
11.9333	11.2355	0.138198	14.4677
11.9333	11.2355	0.165837	14.4677
11.9333	11.2631	0.138198	14.4677
11.9333	11.2908	0.110558	14.4677
11.9334	11.3184	0.0829187	14.4677
11.9334	11.346	0.0552792	14.4677
11.9334	11.3737	0.0276396	14.4677
11.9721	11.4013	0	14.4677
11.993	11.4013	0	14.6497
12.1351	11.4013	0	14.8317
12.1353	11.4013	0	14.8317
12.1358	11.4013	0.0276396	14.8317
12.1358	11.4013	0.0829187	14.8317
12.1359	11.429	0.0552792	14.8317
12.1359	11.4566	0.0276396	14.8317
12.3063	11.4842	0	14.8317
12.3073	11.4842	0	14.8317
12.3073	11.4981	0.0276396	14.8317
12.3122	11.5257	0	14.8317
12.3471	11.5257	0	15.0136
12.3472	11.5257	0	15.0136
12.3473	11.5257	0.0552792	15.0136
12.3473	11.5533	0.0276396	15.0136
12.3551	11.581	0	15.0136
12.356	11.581	0	15.0136
12.3561	11.581	0.0276396	15.0136
12.3561	11.581	0.0829187	15.0136
12.3562	11.6086	0.0552792	15.0136
12.3563	11.6363	0.0276396	15.0136
12.4345	11.6639	0	15.0136
12.4799	11.6639	0	15.1956
12.48	11.6639	0	15.1956
12.48	11.6777	0.0276396	15.1956
12.4862	11.7054	0	15.1956
12.4967	11.7054	0	15.3776
12.4975	11.7054	0	15.3776
12.4975	11.7192	0.0276396	15.3776
12.5055	11.7468	0	15.3776
12.5499	11.7468	0	15.5596
12.5517	11.7468	0	15.5596
12.5898	11.7468	0.0276396	15.5596
12.5898	11.7468	0.0276396	15.5596
12.5908	11.7745	0	15.5596
12.5908	11.7745	0.0552792	15.5596
12.5909	11.8021	0.0276396	15.5596
12.6513	11.8297	0	15.5596
12.6514	11.8297	0	15.5596
12.6514	11.8436	0.0276396	15.5596
12.6606	11.8712	0	15.5596
12.6941	11.8712	0	15.7416
12.6942	11.8712	0	15.7416
12.6942	11.8712	0.0552792	15.7416
12.6943	11.8988	0.0276396	15.7416
12.8032	11.9265	0	15.7416
12.8036	11.9265	0	15.7416
12.8037	11.9265	0.0276396	15.7416
12.8043	11.9265	0.0552792	15.7416
12.8048	11.9265	0.0829187	15.7416
12.8048	11.9265	0.110558	15.7416
12.8048	11.9541	0.0829187	15.7416
12.8048	11.9818	0.0552792	15.7416
12.8049	12.0094	0.0276396	15.7416
12.8246	12.037	0	15.7416
12.8249	12.037	0	15.7416
12.8252	12.037	0.0276396	15.7416
13.0819	12.037	0.0552792	15.7416
13.0819	12.037	0.0552792	15.9236
13.082	12.0647	0.0276396	15.9236
13.2023	12.0923	0	15.9236
13.2024	12.0923	0	15.9236
13.2024	12.1061	0.0276396	15.9236
13.3573	12.1338	0	15.9236
13.4802	12.1338	0	16.1056
13.5127	12.1338	0	16.2875
13.5132	12.1338	0	16.2875
13.5132	12.1476	0.0276396	16.2875
13.5415	12.1752	0	16.2875
13.5419	12.1752	0	16.2875
13.5422	12.1891	0.0276396	16.2875
13.5681	12.2167	0	16.2875
13.5686	12.2167	0	16.2875
13.5688	12.2167	0.0276396	16.2875
13.5689	12.2305	0.0552792	16.2875
13.5689	12.2582	0.0276396	16.2875
13.7148	12.2858	0	16.2875
13.7148	12.2858	0	16.2875
13.7149	12.2996	0.0276396	16.2875
13.9739	12.3273	0	16.2875
13.9871	12.3273	0	16.4695
13.9883	12.3273	0	16.4695
13.9883	12.3411	0.0276396	16.4695
14.0725	12.3687	0	16.4695
14.0925	12.3687	0	16.6515
14.0929	12.3687	0	16.8335
14.093	12.3687	0	16.8335
14.0931	12.3825	0.0276396	16.8335
14.1211	12.4102	0	16.8335
14.1662	12.4102	0	17.0155
14.1665	12.4102	0	17.0155
14.1665	12.424	0.0276396	17.0155
14.1788	12.4516	0	17.0155
14.1794	12.4516	0	17.0155
14.1794	12.4516	0.0552792	17.0155
14.1794	12.4793	0.0276396	17.0155
14.313	12.5069	0	17.0155
14.3131	12.5069	0	17.0155
14.3131	12.5207	0.0276396	17.0155
14.3652	12.5484	0	17.0155
14.3658	12.5484	0	17.0155
14.3659	12.5622	0.0276396	17.0155
14.4793	12.5898	0	17.0155
14.4815	12.5898	0	17.0155
14.4816	12.6036	0.0276396	17.0155
14.5044	12.6313	0	17.0155
14.5046	12.6313	0	17.0155
14.5046	12.6313	0.0276396	17.0155
14.5046	12.6451	0.0552792	17.0155
14.5046	12.6727	0.0276396	17.0155
14.6568	12.7004	0	17.0155
14.6807	12.7004	0	17.1975
14.681	12.7004	0	17.1975
14.6811	12.7004	0.0552792	17.1975
14.6811	12.728	0.0276396	17.1975
14.7475	12.7557	0	17.1975
14.7485	12.7557	0	17.1975
14.823	12.7557	0.0276396	17.1975
14.8231	12.7557	0.0276396	17.1975
14.8235	12.7833	0	17.1975
14.8236	12.7833	0.0276396	17.1975
14.8236	12.7971	0.0552792	17.1975
14.8238	12.8248	0.0276396	17.1975
14.8238	12.8524	0	17.1975
14.8754	12.8524	0	17.1975
14.8755	12.8524	0	17.1975
14.8756	12.8662	0.0276396	17.1975
14.9693	12.8939	0	17.1975
14.9944	12.8939	0	17.2884
14.9951	12.8939	0	17.2884
14.9951	12.9077	0.0276396	17.2884
15.0894	12.9353	0	17.2884
15.0909	12.9353	0	17.2884
15.091	12.9491	0.0276396	17.2884
15.2347	12.9768	0	17.2884
15.2347	12.9768	0	17.4704
15.2353	12.9768	0	17.4704
15.2354	12.9768	0.0276396	17.4704
15.2354	12.9906	0.0552792	17.4704
15.2354	13.0182	0.0276396	17.4704
15.2354	13.0459	0	17.4704
15.642	13.0459	0	17.4704
15.6421	13.0459	0	17.4704
15.6431	13.0459	0.0276396	17.4704
15.6431	13.0597	0.0552792	17.4704
15.6432	13.0873	0.0276396	17.4704
15.6776	13.115	0	17.4704
15.6779	13.115	0	17.4704
15.6779	13.1288	0.0276396	17.4704
15.7055	13.1564	0	17.4704
15.7058	13.1564	0	17.4704
15.7062	13.1564	0.0276396	17.4704
15.7062	13.1564	0.0552792	17.4704
15.7063	13.1841	0.0276396	17.4704
15.7332	13.2117	0	17.4704
15.7334	13.2117	0	17.4704
15.7334	13.2117	0.0276396	17.4704
15.7335	13.2255	0.0552792	17.4704
15.7336	13.2532	0.0276396	17.4704
15.8022	13.2808	0	17.4704
15.8025	13.2808	0	17.4704
15.8025	13.2808	0.0552792	17.4704
15.8025	13.3085	0.0276396	17.4704
15.8688	13.3361	0	17.4704
15.8692	13.3361	0	17.4704
15.8692	13.3499	0.0276396	17.4704
16.028	13.3776	0	17.4704
16.0289	13.3776	0	17.4704
16.0289	13.3914	0.0276396	17.4704
16.2428	13.419	0	17.4704
16.243	13.419	0	17.4704
16.243	13.4328	0.0276396	17.4704
16.243	13.4605	0	17.4704
16.347	13.4605	0	17.4704
16.3477	13.4605	0	17.4704
16.3477	13.4743	0.0276396	17.4704
16.5252	13.5019	0	17.4704
16.5263	13.5019	0	17.4704
16.5263	13.5158	0.0276396	17.4704
16.5936	13.5434	0	17.4704
16.5944	13.5434	0	17.4704
16.5944	13.5572	0.0276396	17.4704
16.5957	13.5849	0	17.4704
16.5959	13.5849	0	17.4704
16.596	13.5987	0.0276396	17.4704
16.6567	13.6263	0	17.4704
16.6574	13.6263	0	17.4704
16.6577	13.6263	0.0276396	17.4704
16.6577	13.6263	0.0829187	17.4704
16.6577	13.654	0.0552792	17.4704
16.6577	13.6816	0.0276396	17.4704
16.6757	13.7092	0	17.4704
16.6757	13.7092	0	17.4704
16.6758	13.7231	0.0276396	17.4704
16.6943	13.7507	0	17.4704
16.6951	13.7507	0	17.4704
16.6951	13.7645	0.0276396	17.4704
16.7354	13.7922	0	17.4704
16.7361	13.7922	0	17.4704
17.1651	13.7922	0.0276396	17.4704
17.1652	13.7922	0.0276396	17.4704
17.1653	13.8198	0	17.4704
17.1653	13.8198	0.0552792	17.4704
17.1654	13.8474	0.0276396	17.4704
17.2024	13.8751	0	17.4704
17.2024	13.8751	0	17.4704
17.2024	13.8889	0.0276396	17.4704
17.3237	13.9165	0	17.4704
17.3239	13.9165	0	17.4704
17.3242	13.9165	0.0276396	17.4704
17.3242	13.9303	0.0552792	17.4704
17.3242	13.958	0.0276396	17.4704
17.7762	13.9856	0	17.4704
17.9195	13.9856	0	17.6524
17.9206	13.9856	0	17.6524
17.9207	13.9994	0.0276396	17.6524
17.9385	14.0271	0	17.6524
17.9386	14.0271	0	17.6524
17.9386	14.0409	0.0276396	17.6524
18.0527	14.0685	0	17.6524
18.0538	14.0685	0	17.6524
18.054	14.0685	0.0276396	17.6524
18.0541	14.0824	0.0552792	17.6524
18.0542	14.11	0.0276396	17.6524
18.0875	14.1376	0	17.6524
18.09	14.1376	0	17.8344
18.1478	14.1376	0	18.0164
18.1484	14.1376	0	18.0164
18.1484	14.1376	0.0552792	18.0164
18.1485	14.1653	0.0276396	18.0164
18.2725	14.1929	0	18.0164
18.3421	14.1929	0	18.1984
18.3426	14.1929	0	18.1984
18.3426	14.2067	0.0276396	18.1984
18.4132	14.2344	0	18.1984
18.4136	14.2344	0	18.1984
18.4136	14.2344	0.0552792	18.1984
18.4137	14.262	0.0276396	18.1984
18.4387	14.2897	0	18.1984
18.439	14.2897	0	18.1984
18.439	14.3035	0.0276396	18.1984
18.5531	14.3311	0	18.1984
18.8041	14.3311	0	18.2894
18.8046	14.3311	0	18.2894
18.8047	14.3311	0.0552792	18.2894
18.8047	14.3588	0.0276396	18.2894
18.8925	14.3864	0	18.2894
18.8927	14.3864	0	18.2894
18.8927	14.3864	0.0552792	18.2894
18.8927	14.414	0.0276396	18.2894
19.0966	14.4417	0	18.2894
19.1803	14.4417	0	18.4713
19.1805	14.4417	0	18.4713
19.1806	14.4555	0.0276396	18.4713
19.2381	14.4831	0	18.4713
19.2569	14.4831	0	18.6533
19.5793	14.4831	0	18.8353
19.5801	14.4831	0	18.8353
19.5808	14.4831	0.0276396	18.8353
19.581	14.497	0.0552792	18.8353
19.5811	14.5246	0.0276396	18.8353
19.6075	14.5522	0	18.8353
19.8248	14.5522	0	19.0173
19.8263	14.5522	0	19.0173
19.8263	14.5661	0.0276396	19.0173
19.9862	14.5937	0	19.0173
19.9872	14.5937	0	19.0173
20.0012	14.5937	0.0276396	19.0173
20.0013	14.5937	0.0276396	19.0173
20.0016	14.5937	0.0552792	19.0173
20.0024	14.5937	0.0829187	19.0173
20.0024	14.5937	0.110558	19.0173
20.0024	14.5937	0.165837	19.0173
20.0024	14.6213	0.138198	19.0173
20.0024	14.649	0.110558	19.0173
20.0024	14.6766	0.0829187	19.0173
20.0024	14.7043	0.0552792	19.0173
20.2769	14.7319	0.0276396	19.0173
20.277	14.7319	0.0276396	19.0173
20.2774	14.7595	0	19.0173
20.2774	14.7734	0.0276396	19.0173
20.3424	14.801	0	19.0173
20.3427	14.801	0	19.0173
20.3427	14.801	0.0552792	19.0173
20.3427	14.8286	0.0276396	19.0173
20.7535	14.8563	0	19.0173
20.7538	14.8563	0	19.0173
20.754	14.8563	0.0276396	19.0173
20.7541	14.8701	0.0552792	19.0173
20.7542	14.8977	0.0276396	19.0173
20.8717	14.9254	0	19.0173
21.3517	14.9254	0	19.1993
21.3519	14.9254	0	19.1993
21.3519	14.9254	0.0552792	19.1993
21.3519	14.953	0.0276396	19.1993
21.5384	14.9807	0	19.1993
21.54	14.9807	0	19.1993
21.54	14.9807	0.0552792	19.1993
21.5402	15.0083	0.0276396	19.1993
21.8968	15.0359	0	19.1993
21.8971	15.0359	0	19.1993
21.8971	15.0359	0.0552792	19.1993
21.8972	15.0636	0.0276396	19.1993
22.2393	15.0912	0	19.1993
22.2396	15.0912	0	19.1993
22.2396	15.0912	0.0552792	19.1993
22.2397	15.1189	0.0276396	19.1993
22.3947	15.1465	0	19.1993
22.3972	15.1465	0	19.1993
22.3972	15.1603	0.0276396	19.1993
23.0267	15.1879	0	19.1993
23.3232	15.1879	0	19.3813
23.3246	15.1879	0	19.3813
23.3246	15.2018	0.0276396	19.3813
23.7496	15.2294	0	19.3813
23.7498	15.2294	0	19.3813
23.7498	15.2294	0.0552792	19.3813
23.7498	15.257	0.0276396	19.3813
23.8112	15.2847	0	19.3813
23.8119	15.2847	0	19.3813
23.812	15.2985	0.0276396	19.3813
23.8692	15.3261	0	19.3813
23.8694	15.3261	0	19.3813
23.8694	15.3261	0.0552792	19.3813
23.8695	15.3538	0.0276396	19.3813
24.0246	15.3814	0	19.3813
24.0247	15.3814	0	19.3813
24.0249	15.3952	0.0276396	19.3813
24.333	15.4229	0	19.3813
24.3334	15.4229	0	19.3813
24.3334	15.4367	0.0276396	19.3813
24.5726	15.4643	0	19.3813
24.5727	15.4643	0	19.3813
24.5728	15.4643	0.0552792	19.3813
24.5728	15.492	0.0276396	19.3813
24.8165	15.5196	0	19.3813
24.8167	15.5196	0	19.3813
24.8167	15.5334	0.0276396	19.3813
24.8256	15.5611	0	19.3813
24.8258	15.5611	0	19.3813
24.8258	15.5611	0.0552792	19.3813
24.8259	15.5887	0.0276396	19.3813
25.9426	15.6164	0	19.3813
25.9435	15.6164	0	19.3813
25.9435	15.6164	0.0552792	19.3813
25.9436	15.644	0.0276396	19.3813
26.16	15.6716	0	19.3813
26.1605	15.6716	0	19.3813
26.1607	15.6855	0.0276396	19.3813
26.1982	15.7131	0	19.3813
26.1998	15.7131	0	19.3813
26.1998	15.7269	0.0276396	19.3813
26.4637	15.7546	0	19.3813
26.4645	15.7546	0	19.3813
26.4646	15.7684	0.0276396	19.3813
27.5904	15.796	0	19.3813
27.5909	15.796	0	19.3813
27.5909	15.796	0.0552792	19.3813
27.591	15.8237	0.0276396	19.3813
27.6854	15.8513	0	19.3813
27.6854	15.8513	0	19.3813
27.9747	15.8513	0.0276396	19.3813
27.9747	15.8513	0.0276396	19.5632
28.4184	15.8789	0	19.5632
28.6883	15.8789	0	19.7452
28.6892	15.8789	0	19.7452
28.6892	15.8789	0.0552792	19.7452
28.6892	15.9066	0.0276396	19.7452
29.2398	15.9342	0	19.7452
29.2413	15.9342	0	19.7452
29.2413	15.9342	0.0552792	19.7452
29.2413	15.9619	0.0276396	19.7452
29.3144	15.9895	0	19.7452
29.3149	15.9895	0	19.7452
29.3149	16.0033	0.0276396	19.7452
29.5508	16.031	0	19.7452
29.9112	16.031	0	19.9272
29.9116	16.031	0	19.9272
29.9117	16.031	0.0552792	19.9272
29.9118	16.0586	0.0276396	19.9272
29.9363	16.0862	0	19.9272
29.9364	16.0862	0	19.9272
29.9365	16.1001	0.0276396	19.9272
30.073	16.1277	0	19.9272
30.0737	16.1277	0	19.9272
30.0737	16.1277	0.0552792	19.9272
30.0737	16.1553	0.0276396	19.9272
30.1988	16.183	0	19.9272
30.273	16.183	0	20.1092
30.2733	16.183	0	20.1092
30.2733	16.183	0.0552792	20.1092
30.2733	16.2106	0.0276396	20.1092
30.5682	16.2383	0	20.1092
30.5685	16.2383	0	20.1092
30.572	16.2383	0.0276396	20.1092
30.5742	16.2383	0.0552792	20.1092
30.5743	16.2383	0.0829187	20.1092
30.5744	16.2383	0.110558	20.1092
30.5756	16.2383	0.138198	20.1092
30.5761	16.2383	0.165837	20.1092
30.5762	16.2383	0.193477	20.1092
30.5772	16.2383	0.221117	20.1092
30.5772	16.2383	0.248756	20.1092
30.5779	16.2659	0.221117	20.1092
30.5779	16.2659	0.248756	20.1092
30.7678	16.2935	0.221117	20.1092
30.7678	16.2935	0.221117	20.2002
30.7678	16.3212	0.193477	20.2002
30.7678	16.3488	0.165837	20.2002
30.7678	16.3765	0.138198	20.2002
30.7678	16.4041	0.110558	20.2002
30.7678	16.4317	0.0829187	20.2002
30.7678	16.4594	0.0552792	20.2002
30.7679	16.487	0.0276396	20.2002
30.9394	16.5146	0	20.2002
30.9394	16.5146	0	20.2002
30.9405	16.5146	0.0276396	20.2002
30.9405	16.5285	0.0552792	20.2002
30.9405	16.5561	0.0276396	20.2002
31.1068	16.5837	0	20.2002
31.1078	16.5837	0	20.2002
31.1079	16.5976	0.0276396	20.2002
31.595	16.6252	0	20.2002
31.5952	16.6252	0	20.2002
31.5952	16.639	0.0276396	20.2002
31.609	16.6667	0	20.2002
31.6092	16.6667	0	20.2002
31.6092	16.6667	0.0552792	20.2002
31.6092	16.6943	0.0276396	20.2002
31.8609	16.7219	0	20.2002
31.8614	16.7219	0	20.2002
31.9642	16.7219	0.0276396	20.2002
31.9642	16.7219	0.0276396	20.2002
31.9649	16.7496	0	20.2002
31.9649	16.7496	0.0552792	20.2002
31.965	16.7772	0.0276396	20.2002
32.1337	16.8049	0	20.2002
32.1341	16.8049	0	20.2002
32.1341	16.8049	0.0552792	20.2002
32.1342	16.8325	0.0276396	20.2002
32.7994	16.8601	0	20.2002
32.7998	16.8601	0	20.2002
32.8001	16.8601	0.0276396	20.2002
32.8001	16.874	0.0552792	20.2002
32.8001	16.9016	0.0276396	20.2002
32.8757	16.9292	0	20.2002
32.8759	16.9292	0	20.2002
32.8759	16.9292	0.0552792	20.2002
32.8759	16.9569	0.0276396	20.2002
33.1975	16.9845	0	20.2002
33.1983	16.9845	0	20.2002
33.1983	16.9845	0.0552792	20.2002
33.1983	17.0122	0.0276396	20.2002
33.2133	17.0398	0	20.2002
33.5532	17.0398	0	20.3822
33.5536	17.0398	0	20.3822
33.5539	17.0398	0.0276396	20.3822
33.5539	17.0536	0.0552792	20.3822
33.554	17.0813	0.0276396	20.3822
33.747	17.1089	0	20.3822
33.7482	17.1089	0	20.3822
33.7483	17.1089	0.0552792	20.3822
33.7483	17.1365	0.0276396	20.3822
33.7542	17.1642	0	20.3822
33.7548	17.1642	0	20.3822
33.7548	17.178	0.0276396	20.3822
34.5906	17.2056	0	20.3822
34.5909	17.2056	0	20.3822
34.591	17.2195	0.0276396	20.3822
35.2559	17.2471	0	20.3822
35.256	17.2471	0	20.3822
35.2564	17.2471	0.0276396	20.3822
35.2565	17.2609	0.0552792	20.3822
35.2566	17.2886	0.0276396	20.3822
35.8332	17.3162	0	20.3822
35.8333	17.3162	0	20.3822
35.8333	17.3162	0.0552792	20.3822
35.8334	17.3438	0.0276396	20.3822
36.0275	17.3715	0	20.3822
36.0279	17.3715	0	20.3822
36.0279	17.3853	0.0276396	20.3822
36.2955	17.4129	0	20.3822
36.2958	17.4129	0	20.3822
36.2959	17.4268	0.0276396	20.3822
36.3655	17.4544	0	20.3822
36.3659	17.4544	0	20.3822
36.3665	17.4544	0.0276396	20.3822
36.3665	17.4682	0.0552792	20.3822
36.3665	17.4959	0.0276396	20.3822
37.6124	17.5235	0	20.3822
37.613	17.5235	0	20.3822
37.6131	17.5235	0.0552792	20.3822
37.6131	17.5511	0.0276396	20.3822
40.704	17.5788	0	20.3822
40.7047	17.5788	0	20.3822
40.7047	17.5788	0.0552792	20.3822
40.7047	17.6064	0.0276396	20.3822
41.3032	17.6341	0	20.3822
41.3035	17.6341	0	20.3822
41.3035	17.6341	0.0552792	20.3822
41.3036	17.6617	0.0276396	20.3822
41.9475	17.6893	0	20.3822
41.9481	17.6893	0	20.3822
41.9482	17.7032	0.0276396	20.3822
42.7283	17.7308	0	20.3822
42.7291	17.7308	0	20.3822
42.7292	17.7446	0.0276396	20.3822
44.069	17.7722	0	20.3822
44.069	17.7722	0	20.3822
44.069	17.7722	0.0552792	20.3822
44.069	17.7999	0.0276396	20.3822
44.1191	17.8275	0	20.3822
44.1193	17.8275	0	20.3822
44.1193	17.8413	0.0276396	20.3822
44.4242	17.869	0	20.3822
44.4244	17.869	0	20.3822
44.4244	17.8828	0.0276396	20.3822
45.564	17.9104	0	20.3822
45.5641	17.9104	0	20.3822
45.5641	17.9243	0.0276396	20.3822
47.7886	17.9519	0	20.3822
47.7888	17.9519	0	20.3822
48.8279	17.9519	0.0276396	20.3822
48.8279	17.9519	0.0276396	20.3822
48.828	17.9795	0	20.3822
48.828	17.9795	0.0552792	20.3822
48.8281	18.0072	0.0276396	20.3822
50.5484	18.0348	0	20.3822
50.5487	18.0348	0	20.3822
50.5487	18.0486	0.0276396	20.3822
51.7607	18.0763	0	20.3822
51.7613	18.0763	0	20.3822
51.7614	18.0763	0.0276396	20.3822
51.7614	18.0901	0.0552792	20.3822
51.7615	18.1177	0.0276396	20.3822
52.6814	18.1454	0	20.3822
52.6817	18.1454	0	20.3822
52.6818	18.1454	0.0552792	20.3822
52.6818	18.173	0.0276396	20.3822
53.3687	18.2007	0	20.3822
53.3703	18.2007	0	20.3822
53.3703	18.2007	0.0552792	20.3822
53.3704	18.2283	0.0276396	20.3822
56.0954	18.2559	0	20.3822
56.0966	18.2559	0	20.3822
56.0966	18.2698	0.0276396	20.3822
56.8074	18.2974	0	20.3822
56.8081	18.2974	0	20.3822
56.8081	18.2974	0.0552792	20.3822
56.8082	18.325	0.0276396	20.3822
58.6206	18.3527	0	20.3822
58.6209	18.3527	0	20.3822
58.6209	18.3527	0.0552792	20.3822
58.621	18.3803	0.0276396	20.3822
61.9382	18.408	0	20.3822
61.9384	18.408	0	20.3822
61.9385	18.408	0.0552792	20.3822
61.9385	18.4356	0.0276396	20.3822
62.3736	18.4632	0	20.3822
62.3744	18.4632	0	20.3822
62.3744	18.4632	0.0552792	20.3822
62.3744	18.4909	0.0276396	20.3822
65.3306	18.5185	0	20.3822
65.3312	18.5185	0	20.3822
65.3312	18.5323	0.0276396	20.3822
66.5257	18.56	0	20.3822
66.5266	18.56	0	20.3822
66.5267	18.56	0.0552792	20.3822
66.5269	18.5876	0.0276396	20.3822
66.6574	18.6153	0	20.3822
66.6579	18.6153	0	20.3822
66.658	18.6153	0.0552792	20.3822
66.658	18.6429	0.0276396	20.3822
68.7192	18.6705	0	20.3822
68.7197	18.6705	0	20.3822
68.7197	18.6705	0.0552792	20.3822
68.7198	18.6982	0.0276396	20.3822
80.6085	18.7258	0	20.3822
80.6093	18.7258	0	20.3822
80.6093	18.7258	0.0552792	20.3822
80.6094	18.7535	0.0276396	20.3822
81.7473	18.7811	0	20.3822
81.7487	18.7811	0	20.3822
81.7488	18.7811	0.0552792	20.3822
81.7488	18.8087	0.0276396	20.3822
83.1374	18.8364	0	20.3822
83.1376	18.8364	0	20.3822
83.1376	18.8364	0.0552792	20.3822
83.1376	18.864	0.0276396	20.3822
94.372	18.8917	0	20.3822
94.372	18.8917	0	20.3822
94.3721	18.8917	0.0552792	20.3822
94.3722	18.9193	0.0276396	20.3822
97.1946	18.9469	0	20.3822
97.1953	18.9469	0	20.3822
97.1974	18.9469	0.0276396	20.3822
97.1975	18.9608	0.0552792	20.3822
97.1975	18.9884	0.0276396	20.3822
103.415	19.016	0	20.3822
103.415	19.016	0	20.3822
