1.92324e-10	0	0	0
2.49343e-10	0	0	0
4.00358e-10	0	0	0
4.2902e-10	0	0	0
4.36416e-10	0	0	0
5.07878e-10	0	0	0
1.0137e-09	0	0	0
1.29853e-09	0	0	0
1.52564e-09	0	0	0
1.58811e-09	0	0	0
1.70129e-09	0	0	0
1.74874e-09	0	0	0
2.4859e-09	0	0	0
2.53914e-09	0	0	0
4.29839e-09	0	0	0
4.37558e-09	0	0	0
4.86919e-09	0	0	0
5.99213e-09	0	0	0
6.31525e-09	0	0	0
7.26494e-09	0	0	0
7.36085e-09	0	0	0
7.4719e-09	0	0	0
7.7825e-09	0	0	0
8.41968e-09	0	0	0
9.37212e-09	0	0	0
1.00479e-08	0	0	0
1.09556e-08	0	0	0
1.20199e-08	0	0	0
1.38815e-08	0	0	0
1.40157e-08	0	0	0
1.42802e-08	0	0	0
1.47057e-08	0	0	0
1.57308e-08	0	0	0
1.63434e-08	0	0	0
1.80238e-08	0	0	0
1.81393e-08	0	0	0
1.85767e-08	0	0	0
1.89339e-08	0	0	0
2.13081e-08	0	0	0
2.34068e-08	0	0	0
2.75082e-08	0	0	0
2.77957e-08	0	0	0
3.04149e-08	0	0	0
3.0715e-08	0	0	0
3.07743e-08	0	0	0
3.35488e-08	0	0	0
3.88401e-08	0	0	0
4.20659e-08	0	0	0
4.43919e-08	0	0	0
4.95559e-08	0	0	0
4.95782e-08	0	0	0
4.96083e-08	0	0	0
5.28551e-08	0	0	0
6.13757e-08	0	0	0
6.35144e-08	0	0	0
7.36372e-08	0	0	0
8.61136e-08	0	0	0
8.97087e-08	0	0	0
9.41298e-08	0	0	0
9.69965e-08	0	0	0
9.93554e-08	0	0	0
1.18116e-07	0	0	0
1.34848e-07	0	0	0
1.43111e-07	0	0	0
1.83084e-07	0	0	0
2.19969e-07	0	0	0
2.2604e-07	0	0	0
2.62294e-07	0	0	0
2.76427e-07	0	0	0
3.85652e-07	0	0	0
6.63213e-07	0	0	0
9.01949e-07	0	0	0
9.77177e-07	0	0	0
1.00611e-06	0	0	0
1.07919e-06	0	0	0
1.2579e-06	0	0	0
1.30124e-06	0	0	0
1.41634e-06	0	0	0
1.45942e-06	0	0	0
1.50527e-06	0	0	0
1.59061e-06	0	0	0
1.70844e-06	0	0	0
1.83705e-06	0	0	0
1.96295e-06	0	0	0
2.09686e-06	0	0	0
2.10788e-06	0	0	0
2.19253e-06	0	0	0
2.22783e-06	0	0	0
2.25578e-06	0	0	0
2.3125e-06	0	0	0
2.39167e-06	0	0	0
2.40924e-06	0	0	0
2.43537e-06	0	0	0
2.6918e-06	0	0	0
2.83199e-06	0	0	0
2.85193e-06	0	0	0
2.8918e-06	0	0	0
2.89733e-06	0	0	0
3.01149e-06	0	0	0
3.09133e-06	0	0	0
3.17407e-06	0	0	0
3.22889e-06	0	0	0
3.23649e-06	0	0	0
3.30579e-06	0	0	0
3.36265e-06	0	0	0
3.57078e-06	0	0	0
3.57302e-06	0	0	0
3.61617e-06	0	0	0
3.65667e-06	0	0	0
3.86383e-06	0	0	0
4.26373e-06	0	0	0
4.26576e-06	0	0	0
4.50425e-06	0	0	0
4.87706e-06	0	0	0
5.03236e-06	0	0	0
5.27421e-06	0	0	0
5.37941e-06	0	0	0
5.42809e-06	0	0	0
5.43228e-06	0	0	0
5.46912e-06	0	0	0
5.49286e-06	0	0	0
5.51074e-06	0	0	0
5.52267e-06	0	0	0
5.71427e-06	0	0	0
5.82131e-06	0	0	0
6.14061e-06	0	0	0
6.31155e-06	0	0	0
6.43973e-06	0	0	0
6.44406e-06	0	0	0
6.61819e-06	0	0	0
6.9477e-06	0	0	0
7.18986e-06	0	0	0
7.21403e-06	0	0	0
7.33846e-06	0	0	0
7.63432e-06	0	0	0
7.66191e-06	0	0	0
7.92884e-06	0	0	0
7.94759e-06	0	0	0
7.95232e-06	0	0	0
8.00857e-06	0	0	0
8.04938e-06	0	0	0
8.29532e-06	0	0	0
8.32876e-06	0	0	0
8.33709e-06	0	0	0
8.33971e-06	0	0	0
8.7376e-06	0	0	0
8.86482e-06	0	0	0
8.94527e-06	0	0	0
8.94562e-06	0	0	0
8.95968e-06	0	0	0
9.03832e-06	0	0	0
9.61121e-06	0	0	0
9.64087e-06	0	0	0
9.793e-06	0	0	0
9.85971e-06	0	0	0
9.91808e-06	0	0	0
9.95546e-06	0	0	0
1.0281e-05	0	0	0
1.0288e-05	0	0	0
1.03317e-05	0	0	0
1.04354e-05	0	0	0
1.05224e-05	0	0	0
1.06333e-05	0	0	0
1.07098e-05	0	0	0
1.07915e-05	0	0	0
1.08918e-05	0	0	0
1.09265e-05	0	0	0
1.10535e-05	0	0	0
1.10586e-05	0	0	0
1.11185e-05	0	0	0
1.12473e-05	0	0	0
1.14561e-05	0	0	0
1.17978e-05	0	0	0
1.19188e-05	0	0	0
1.20774e-05	0	0	0
1.22401e-05	0	0	0
1.25002e-05	0	0	0
1.26257e-05	0	0	0
1.26699e-05	0	0	0
1.28616e-05	0	0	0
1.3635e-05	0	0	0
1.36681e-05	0	0	0
1.37621e-05	0	0	0
1.39602e-05	0	0	0
1.44445e-05	0	0	0
1.44507e-05	0	0	0
1.51949e-05	0	0	0
1.52691e-05	0	0	0
1.5433e-05	0	0	0
1.601e-05	0	0	0
1.62189e-05	0	0	0
1.64483e-05	0	0	0
1.66253e-05	0	0	0
1.66948e-05	0	0	0
1.67804e-05	0	0	0
1.74929e-05	0	0	0
1.76076e-05	0	0	0
1.76531e-05	0	0	0
1.76989e-05	0	0	0
1.77979e-05	0	0	0
1.78065e-05	0	0	0
1.81687e-05	0	0	0
1.83169e-05	0	0	0
1.94711e-05	0	0	0
1.96236e-05	0	0	0
1.97664e-05	0	0	0
2.01718e-05	0	0	0
2.0235e-05	0	0	0
2.02506e-05	0	0	0
2.07168e-05	0	0	0
2.22129e-05	0	0	0
2.27419e-05	0	0	0
2.29268e-05	0	0	0
2.34107e-05	0	0	0
2.3537e-05	0	0	0
2.35524e-05	0	0	0
2.46294e-05	0	0	0
2.48175e-05	0	0	0
2.50774e-05	0	0	0
2.59994e-05	0	0	0
2.75967e-05	0	0	0
2.7638e-05	0	0	0
2.80667e-05	0	0	0
2.89377e-05	0	0	0
2.908e-05	0	0	0
2.95255e-05	0	0	0
2.96382e-05	0	0	0
3.00505e-05	0	0	0
3.02958e-05	0	0	0
3.0465e-05	0	0	0
3.0772e-05	0	0	0
3.083e-05	0	0	0
3.08502e-05	0	0	0
3.11711e-05	0	0	0
3.19705e-05	0	0	0
3.2882e-05	0	0	0
3.34674e-05	0	0	0
3.42037e-05	0	0	0
3.52369e-05	0	0	0
3.53426e-05	0	0	0
3.5495e-05	0	0	0
3.59054e-05	0	0	0
3.69674e-05	0	0	0
3.71894e-05	0	0	0
3.8632e-05	0	0	0
3.86538e-05	0	0	0
3.96175e-05	0	0	0
3.98941e-05	0	0	0
4.00527e-05	0	0	0
4.08655e-05	0	0	0
4.08851e-05	0	0	0
4.12726e-05	0	0	0
4.2389e-05	0	0	0
4.26314e-05	0	0	0
4.27573e-05	0	0	0
4.35304e-05	0	0	0
4.42045e-05	0	0	0
4.49066e-05	0	0	0
4.54492e-05	0	0	0
4.81897e-05	0	0	0
4.83482e-05	0	0	0
4.88071e-05	0	0	0
5.04809e-05	0	0	0
5.05504e-05	0	0	0
5.32128e-05	0	0	0
5.34877e-05	0	0	0
5.40685e-05	0	0	0
5.54647e-05	0	0	0
5.55233e-05	0	0	0
5.66776e-05	0	0	0
5.67441e-05	0	0	0
5.69166e-05	0	0	0
5.69562e-05	0	0	0
5.80265e-05	0	0	0
5.82085e-05	0	0	0
5.8238e-05	0	0	0
6.19404e-05	0	0	0
6.32224e-05	0	0	0
6.3738e-05	0	0	0
6.46321e-05	0	0	0
6.47183e-05	0	0	0
6.49916e-05	0	0	0
6.60975e-05	0	0	0
6.73453e-05	0	0	0
6.7424e-05	0	0	0
6.77574e-05	0	0	0
6.88263e-05	0	0	0
6.97486e-05	0	0	0
7.04182e-05	0	0	0
7.20173e-05	0	0	0
7.20587e-05	0	0	0
7.3504e-05	0	0	0
7.39442e-05	0	0	0
7.52702e-05	0	0	0
7.54843e-05	0	0	0
7.83495e-05	0	0	0
8.38279e-05	0	0	0
8.44049e-05	0	0	0
8.54639e-05	0	0	0
9.0418e-05	0	0	0
9.19224e-05	0	0	0
9.40618e-05	0	0	0
9.41407e-05	0	0	0
9.69137e-05	0	0	0
0.000106788	0	0	0
0.000115079	0	0	0
0.000115659	0	0	0
0.000118339	0	0	0
0.000121116	0	0	0
0.000124582	0	0	0
0.000125892	0	0	0
0.000128447	0	0	0
0.000144245	0	0	0
0.000146303	0	0	0
0.00015396	0	0	0
0.000156734	0	0	0
0.000162312	0	0	0
0.00017436	0	0	0
0.000175979	0	0	0
0.000185214	0	0	0
0.000210738	0	0	0
0.0854987	0	0	0
0.0855124	0	0	0
0.0855298	0.0138198	0.0276396	0
0.0855367	0.0414594	0	0
0.0855371	0.0414594	0	0
0.101893	0.0414594	0	0
0.10236	0.0414594	0	0
0.103858	0.0414594	0.0276396	0
0.103877	0.0414594	0.0552792	0
0.103927	0.0690989	0.0276396	0
0.109885	0.0967385	0	0
0.113571	0.0967385	0	0
0.115298	0.0967385	0	0
0.115317	0.110558	0.0276396	0
0.126546	0.138198	0	0
0.153404	0.138198	0	0.0909918
0.153896	0.138198	0	0.0909918
0.153904	0.138198	0.0552792	0.0909918
0.153917	0.165837	0.0276396	0.0909918
0.156554	0.193477	0	0.0909918
0.15997	0.193477	0	0.0909918
0.182623	0.193477	0	0.0909918
0.182843	0.193477	0	0.0909918
0.182848	0.207297	0.0276396	0.0909918
0.204939	0.234936	0	0.0909918
0.205845	0.234936	0	0.0909918
0.205926	0.248756	0.0276396	0.0909918
0.342062	0.276396	0	0.0909918
0.343955	0.276396	0	0.0909918
0.344788	0.276396	0	0.0909918
0.344799	0.290216	0.0276396	0.0909918
0.344834	0.290216	0.0276396	0.0909918
0.344838	0.317855	0	0.0909918
0.344843	0.317855	0	0.0909918
0.344894	0.317855	0	0.0909918
0.344895	0.317855	0	0.0909918
0.348123	0.317855	0	0.0909918
0.350191	0.317855	0	0.0909918
0.350206	0.317855	0	0.0909918
0.350254	0.317855	0	0.0909918
0.350292	0.317855	0	0.0909918
0.375825	0.317855	0	0.0909918
0.379754	0.317855	0	0.0909918
0.379981	0.317855	0	0.0909918
0.379986	0.317855	0.0552792	0.0909918
0.380026	0.345495	0.0276396	0.0909918
0.397391	0.373134	0	0.0909918
0.398135	0.373134	0	0.0909918
0.398137	0.373134	0.0552792	0.0909918
0.398143	0.400774	0.0276396	0.0909918
0.398147	0.400774	0.0276396	0.0909918
0.398159	0.400774	0.0276396	0.0909918
0.398176	0.400774	0.0276396	0.0909918
0.398179	0.428413	0	0.0909918
0.399629	0.428413	0	0.0909918
0.406831	0.428413	0	0.0909918
0.407166	0.428413	0	0.0909918
0.408569	0.428413	0.0276396	0.0909918
0.408623	0.428413	0.0829187	0.0909918
0.408627	0.456053	0.0552792	0.0909918
0.408631	0.456053	0.0552792	0.0909918
0.408706	0.483693	0.0276396	0.0909918
0.480239	0.511332	0	0.0909918
0.4805	0.511332	0	0.0909918
0.481098	0.511332	0.0276396	0.0909918
0.4811	0.525152	0.0552792	0.0909918
0.481132	0.552792	0.0276396	0.0909918
0.481158	0.552792	0.0276396	0.0909918
0.493614	0.580431	0	0.0909918
0.493662	0.580431	0	0.0909918
0.526855	0.580431	0	0.0909918
0.557267	0.580431	0	0.181984
0.55837	0.580431	0	0.181984
0.558391	0.594251	0.0276396	0.181984
0.587087	0.621891	0	0.181984
0.597073	0.621891	0	0.181984
0.599682	0.621891	0	0.181984
0.599682	0.621891	0.0552792	0.181984
0.599704	0.621891	0.0552792	0.181984
0.599735	0.64953	0.0276396	0.181984
0.60549	0.67717	0	0.181984
0.605844	0.67717	0	0.181984
0.605872	0.67717	0.0552792	0.181984
0.605916	0.704809	0.0276396	0.181984
0.612586	0.732449	0	0.181984
0.628789	0.732449	0	0.181984
0.628844	0.732449	0	0.181984
0.628866	0.732449	0	0.181984
0.629814	0.732449	0	0.181984
0.629848	0.732449	0	0.181984
0.629858	0.746269	0.0276396	0.181984
0.629863	0.773908	0	0.181984
0.687845	0.773908	0	0.181984
0.69699	0.773908	0	0.181984
0.710833	0.773908	0	0.272975
0.725671	0.773908	0	0.272975
0.725858	0.773908	0	0.272975
0.725866	0.787728	0.0276396	0.272975
0.732755	0.815368	0	0.272975
0.737664	0.815368	0	0.363967
0.746456	0.815368	0	0.454959
0.746529	0.815368	0	0.454959
0.74653	0.829187	0.0276396	0.454959
0.746534	0.856827	0	0.454959
0.746601	0.856827	0	0.454959
0.751166	0.856827	0	0.454959
0.766738	0.856827	0	0.454959
0.766876	0.856827	0	0.454959
0.767156	0.856827	0.0276396	0.454959
0.76716	0.870647	0.0552792	0.454959
0.767182	0.898286	0.0276396	0.454959
0.770588	0.925926	0	0.454959
0.770617	0.925926	0	0.454959
0.771022	0.925926	0.0276396	0.454959
0.771052	0.939746	0.0552792	0.454959
0.771056	0.939746	0.0552792	0.454959
0.771062	0.967385	0.0276396	0.454959
0.771127	0.967385	0.0276396	0.454959
0.782782	0.995025	0	0.454959
0.782821	0.995025	0	0.454959
0.782864	1.00884	0.0276396	0.454959
0.782866	1.03648	0	0.454959
0.786818	1.03648	0	0.454959
0.786822	1.03648	0	0.454959
0.786861	1.03648	0	0.454959
0.797091	1.03648	0	0.454959
0.797841	1.03648	0	0.454959
0.808989	1.03648	0	0.545951
0.808991	1.03648	0	0.545951
0.808993	1.0503	0.0276396	0.545951
0.819154	1.07794	0	0.545951
0.819462	1.07794	0	0.545951
0.819476	1.09176	0.0276396	0.545951
0.819506	1.1194	0	0.545951
0.819508	1.1194	0	0.545951
0.819663	1.1194	0	0.545951
0.8506	1.1194	0	0.636943
0.872779	1.1194	0	0.727934
0.873849	1.1194	0	0.727934
0.873894	1.13322	0.0276396	0.727934
0.880907	1.16086	0	0.727934
0.895869	1.16086	0	0.818926
0.896547	1.16086	0	0.818926
0.896874	1.16086	0.0276396	0.818926
0.897047	1.16086	0.0552792	0.818926
0.898087	1.16086	0.0829187	0.818926
0.899145	1.16086	0.110558	0.818926
0.899153	1.16086	0.165837	0.818926
0.899165	1.1885	0.138198	0.818926
0.899175	1.21614	0.110558	0.818926
0.899186	1.24378	0.0829187	0.818926
0.899196	1.27142	0.0552792	0.818926
0.899234	1.29906	0.0276396	0.818926
0.902448	1.3267	0	0.818926
0.902784	1.3267	0	0.818926
0.902793	1.3267	0.0552792	0.818926
0.902812	1.35434	0.0276396	0.818926
0.925529	1.38198	0	0.818926
0.925985	1.38198	0	0.818926
0.926853	1.38198	0.0276396	0.818926
0.926888	1.3958	0.0552792	0.818926
0.92691	1.42344	0.0276396	0.818926
0.926934	1.45108	0	0.818926
0.977018	1.45108	0	0.818926
0.97745	1.45108	0	0.818926
0.977902	1.45108	0.0276396	0.818926
0.978449	1.45108	0.0552792	0.818926
0.97905	1.45108	0.0829187	0.818926
0.979612	1.45108	0.110558	0.818926
0.979628	1.4649	0.138198	0.818926
0.979638	1.49254	0.110558	0.818926
0.979646	1.52018	0.0829187	0.818926
0.979682	1.54782	0.0552792	0.818926
0.979709	1.57546	0.0276396	0.818926
1.04194	1.6031	0	0.818926
1.05546	1.6031	0	0.818926
1.05991	1.6031	0	0.818926
1.17568	1.6031	0	0.818926
1.18926	1.6031	0	0.818926
1.18985	1.6031	0	0.818926
1.18988	1.61692	0.0276396	0.818926
1.20317	1.64456	0	0.818926
1.20317	1.64456	0	0.818926
1.22342	1.64456	0	0.818926
1.22347	1.64456	0	0.818926
1.22356	1.64456	0.0276396	0.818926
1.22362	1.65837	0.0552792	0.818926
1.22367	1.68601	0.0276396	0.818926
1.24476	1.71365	0	0.818926
1.25458	1.71365	0	0.909918
1.25463	1.71365	0	1.00091
1.25464	1.71365	0	1.00091
1.25563	1.71365	0	1.00091
1.28385	1.71365	0	1.0919
1.29765	1.71365	0	1.0919
1.30562	1.71365	0	1.18289
1.30566	1.71365	0	1.18289
1.30569	1.72747	0.0276396	1.18289
1.31264	1.75511	0	1.18289
1.33787	1.75511	0	1.18289
1.3384	1.75511	0	1.18289
1.33842	1.75511	0.0552792	1.18289
1.33848	1.78275	0.0276396	1.18289
1.33972	1.81039	0	1.18289
1.45456	1.81039	0	1.18289
1.46946	1.81039	0	1.27389
1.46963	1.81039	0	1.27389
1.46969	1.82421	0.0276396	1.27389
1.49067	1.85185	0	1.27389
1.5157	1.85185	0	1.27389
1.51574	1.85185	0	1.27389
1.51574	1.86567	0.0276396	1.27389
1.51575	1.89331	0	1.27389
1.51961	1.89331	0	1.27389
1.51969	1.89331	0	1.27389
1.5197	1.90713	0.0276396	1.27389
1.52491	1.93477	0	1.27389
1.55615	1.93477	0	1.36488
1.55616	1.93477	0	1.36488
1.55623	1.94859	0.0276396	1.36488
1.5662	1.97623	0	1.36488
1.56625	1.97623	0	1.36488
1.56626	1.97623	0.0552792	1.36488
1.56634	2.00387	0.0276396	1.36488
1.57717	2.03151	0	1.36488
1.57828	2.03151	0	1.36488
1.57828	2.03151	0.0552792	1.36488
1.57831	2.05915	0.0276396	1.36488
1.58112	2.08679	0	1.36488
1.61389	2.08679	0	1.45587
1.61389	2.08679	0	1.45587
1.61949	2.08679	0	1.45587
1.61952	2.08679	0	1.45587
1.63396	2.08679	0.0276396	1.45587
1.6341	2.08679	0.0276396	1.45587
1.63465	2.11443	0	1.45587
1.63579	2.11443	0.0276396	1.45587
1.63602	2.11443	0.0552792	1.45587
1.63648	2.11443	0.0829187	1.45587
1.63681	2.11443	0.110558	1.45587
1.63682	2.12825	0.138198	1.45587
1.63683	2.15589	0.110558	1.45587
1.63683	2.18353	0.0829187	1.45587
1.63683	2.18353	0.0829187	1.45587
1.63683	2.21117	0.0552792	1.45587
1.63684	2.21117	0.0552792	1.45587
1.63684	2.23881	0.0276396	1.45587
1.63684	2.23881	0.0276396	1.45587
1.63684	2.23881	0.0276396	1.45587
1.63685	2.23881	0.0276396	1.45587
1.6481	2.26645	0	1.45587
1.65544	2.26645	0	1.63785
1.65588	2.26645	0	1.63785
1.65663	2.26645	0.0276396	1.63785
1.65664	2.28027	0.0552792	1.63785
1.65667	2.3079	0.0276396	1.63785
1.66679	2.33554	0	1.63785
1.68285	2.33554	0	1.72884
1.70808	2.33554	0	1.72884
1.71151	2.33554	0	1.72884
1.78298	2.33554	0	1.72884
1.78321	2.33554	0	1.72884
1.78322	2.33554	0.0552792	1.72884
1.78323	2.36318	0.0276396	1.72884
1.81388	2.39082	0	1.72884
1.88163	2.39082	0	1.72884
1.90821	2.39082	0	1.72884
1.91243	2.39082	0	1.91083
1.94562	2.39082	0	1.91083
1.95942	2.39082	0	2.00182
1.9611	2.39082	0	2.00182
1.96111	2.40464	0.0276396	2.00182
1.9821	2.43228	0	2.00182
1.98251	2.43228	0	2.00182
1.98253	2.4461	0.0276396	2.00182
1.98663	2.47374	0	2.00182
1.98788	2.47374	0	2.00182
1.98804	2.48756	0.0276396	2.00182
2.02086	2.5152	0	2.00182
2.03907	2.5152	0	2.00182
2.05057	2.5152	0	2.09281
2.05087	2.5152	0	2.09281
2.0523	2.5152	0.0276396	2.09281
2.05231	2.52902	0.0552792	2.09281
2.05233	2.55666	0.0276396	2.09281
2.12865	2.5843	0	2.09281
2.19482	2.5843	0	2.09281
2.19558	2.5843	0	2.09281
2.19617	2.5843	0.0276396	2.09281
2.19768	2.5843	0.0552792	2.09281
2.19777	2.5843	0.0829187	2.09281
2.19779	2.59812	0.110558	2.09281
2.19781	2.62576	0.0829187	2.09281
2.19782	2.6534	0.0552792	2.09281
2.19788	2.68104	0.0276396	2.09281
2.2429	2.70868	0	2.09281
2.24351	2.70868	0	2.09281
2.24355	2.70868	0.0276396	2.09281
2.2483	2.73632	0	2.09281
2.27295	2.73632	0	2.1838
2.27297	2.73632	0	2.2748
2.2889	2.73632	0	2.2748
2.28905	2.73632	0	2.2748
2.28973	2.73632	0	2.2748
2.28979	2.75014	0.0276396	2.2748
2.3251	2.77778	0	2.2748
2.32524	2.77778	0	2.2748
2.3253	2.7916	0.0276396	2.2748
2.3253	2.81924	0	2.2748
2.33524	2.81924	0	2.2748
2.3565	2.81924	0	2.36579
2.35702	2.81924	0	2.36579
2.35703	2.81924	0.0276396	2.36579
2.35706	2.83306	0.0552792	2.36579
2.35711	2.8607	0.0276396	2.36579
2.36444	2.88834	0	2.36579
2.4008	2.88834	0	2.36579
2.4151	2.88834	0	2.36579
2.42951	2.88834	0	2.45678
2.43005	2.88834	0	2.45678
2.43005	2.90216	0.0276396	2.45678
2.4301	2.9298	0	2.45678
2.43352	2.9298	0	2.45678
2.43371	2.9298	0	2.45678
2.4338	2.94362	0.0276396	2.45678
2.51196	2.97125	0	2.45678
2.5827	2.97125	0	2.45678
2.58374	2.97125	0	2.45678
2.58377	2.98507	0.0276396	2.45678
2.58464	3.01271	0	2.45678
2.63321	3.01271	0	2.54777
2.67859	3.01271	0	2.54777
2.71542	3.01271	0	2.63876
2.71883	3.01271	0	2.72975
2.7285	3.01271	0	2.82075
2.72895	3.01271	0	2.82075
2.73228	3.01271	0.0276396	2.82075
2.74753	3.01271	0.0276396	3.00273
2.74755	3.01271	0.0276396	3.00273
2.74758	3.01271	0.0276396	3.00273
2.74773	3.04035	0	3.00273
2.74775	3.05417	0.0276396	3.00273
2.76407	3.08181	0	3.00273
2.79336	3.08181	0	3.09372
2.84414	3.08181	0	3.09372
2.84425	3.08181	0	3.09372
2.84427	3.08181	0.0552792	3.09372
2.84431	3.10945	0.0276396	3.09372
2.93814	3.13709	0	3.09372
2.95403	3.13709	0	3.09372
2.95439	3.13709	0	3.09372
2.9544	3.15091	0.0276396	3.09372
2.9545	3.15091	0.0276396	3.09372
2.98501	3.17855	0	3.09372
2.98567	3.17855	0	3.09372
2.9861	3.17855	0.0276396	3.09372
2.98615	3.19237	0.0552792	3.09372
2.98628	3.22001	0.0276396	3.09372
3.075	3.24765	0	3.09372
3.10045	3.24765	0	3.09372
3.10045	3.24765	0	3.09372
3.13043	3.24765	0	3.09372
3.13118	3.24765	0	3.09372
3.13119	3.26147	0.0276396	3.09372
3.14079	3.28911	0	3.09372
3.16569	3.28911	0	3.09372
3.1658	3.28911	0	3.09372
3.16581	3.30293	0.0276396	3.09372
3.20619	3.33057	0	3.09372
3.20632	3.33057	0	3.09372
3.20681	3.33057	0.0276396	3.09372
3.20686	3.34439	0.0552792	3.09372
3.20687	3.37203	0.0276396	3.09372
3.21012	3.39967	0	3.09372
3.21022	3.39967	0	3.09372
3.21022	3.39967	0.0552792	3.09372
3.21033	3.42731	0.0276396	3.09372
3.21258	3.45495	0	3.09372
3.22935	3.45495	0	3.09372
3.23773	3.45495	0	3.09372
3.23895	3.45495	0	3.09372
3.23902	3.45495	0.0552792	3.09372
3.23904	3.48259	0.0276396	3.09372
3.27303	3.51023	0	3.09372
3.31464	3.51023	0	3.09372
3.31472	3.51023	0	3.09372
3.31472	3.52405	0.0276396	3.09372
3.33096	3.55169	0	3.09372
3.33152	3.55169	0	3.09372
3.35261	3.55169	0.0276396	3.09372
3.35297	3.55169	0.0276396	3.09372
3.3531	3.55169	0.0552792	3.09372
3.35311	3.56551	0.0829187	3.09372
3.35317	3.59315	0.0552792	3.09372
3.36083	3.62078	0.0276396	3.09372
3.36086	3.62078	0.0276396	3.27571
3.36636	3.64842	0	3.27571
3.36672	3.64842	0	3.27571
3.36679	3.66224	0.0276396	3.27571
3.37191	3.68988	0	3.27571
3.37376	3.68988	0	3.45769
3.37417	3.68988	0	3.45769
3.3743	3.68988	0.0276396	3.45769
3.3743	3.7037	0.0552792	3.45769
3.37437	3.73134	0.0276396	3.45769
3.38074	3.75898	0	3.45769
3.39107	3.75898	0	3.63967
3.39158	3.75898	0	3.63967
3.39165	3.7728	0.0276396	3.63967
3.3951	3.80044	0	3.63967
3.42933	3.80044	0	3.73066
3.42946	3.80044	0	3.73066
3.43091	3.80044	0.0276396	3.73066
3.43093	3.81426	0.0552792	3.73066
3.43097	3.8419	0.0276396	3.73066
3.49961	3.86954	0	3.73066
3.4997	3.86954	0	3.73066
3.49972	3.86954	0.0552792	3.73066
3.4998	3.89718	0.0276396	3.73066
3.53667	3.92482	0	3.73066
3.55293	3.92482	0	3.91265
3.57875	3.92482	0	4.00364
3.57893	3.92482	0	4.00364
3.57919	3.92482	0.0276396	4.00364
3.5792	3.93864	0.0552792	4.00364
3.57923	3.96628	0.0276396	4.00364
3.57925	3.96628	0.0276396	4.00364
3.57928	3.96628	0.0276396	4.00364
3.57946	3.99392	0	4.00364
3.61657	3.99392	0	4.00364
3.61669	3.99392	0	4.00364
3.61672	4.00774	0.0276396	4.00364
3.64191	4.03538	0	4.00364
3.6594	4.03538	0	4.00364
3.66001	4.03538	0	4.00364
3.6601	4.03538	0.0276396	4.00364
3.66123	4.03538	0.0552792	4.00364
3.66123	4.0492	0.0829187	4.00364
3.66125	4.07684	0.0552792	4.00364
3.66126	4.10448	0.0276396	4.00364
3.67464	4.13212	0	4.00364
3.6891	4.13212	0	4.00364
3.68996	4.13212	0	4.00364
3.69004	4.13212	0.0276396	4.00364
3.69005	4.14594	0.0552792	4.00364
3.69008	4.17358	0.0276396	4.00364
3.69191	4.20122	0	4.00364
3.69226	4.20122	0	4.00364
3.69228	4.21504	0.0276396	4.00364
3.71996	4.24268	0	4.00364
3.72012	4.24268	0	4.00364
3.72014	4.2565	0.0276396	4.00364
3.72501	4.28413	0	4.00364
3.72567	4.28413	0	4.00364
3.72568	4.28413	0.0552792	4.00364
3.72571	4.31177	0.0276396	4.00364
3.76238	4.33941	0	4.00364
3.76263	4.33941	0	4.00364
3.76323	4.33941	0.0276396	4.00364
3.76324	4.35323	0.0552792	4.00364
3.76327	4.38087	0.0276396	4.00364
3.78298	4.40851	0	4.00364
3.81813	4.40851	0	4.18562
3.85277	4.40851	0	4.18562
3.96001	4.40851	0	4.27662
3.96073	4.40851	0	4.27662
3.96073	4.40851	0.0552792	4.27662
3.96081	4.43615	0.0276396	4.27662
3.97	4.46379	0	4.27662
4.03098	4.46379	0	4.36761
4.05367	4.46379	0	4.54959
4.05395	4.46379	0	4.54959
4.05399	4.46379	0.0552792	4.54959
4.05405	4.49143	0.0276396	4.54959
4.05564	4.51907	0	4.54959
4.05647	4.51907	0	4.54959
4.05891	4.51907	0.0276396	4.54959
4.20115	4.51907	0.0276396	4.64058
4.20115	4.51907	0.0276396	4.73157
4.21565	4.54671	0	4.73157
4.21621	4.54671	0	4.73157
4.21625	4.56053	0.0276396	4.73157
4.22281	4.58817	0	4.73157
4.22333	4.58817	0	4.73157
4.22338	4.58817	0.0552792	4.73157
4.22343	4.61581	0.0276396	4.73157
4.23931	4.64345	0	4.73157
4.23942	4.64345	0	4.73157
4.23947	4.65727	0.0276396	4.73157
4.25663	4.68491	0	4.73157
4.29711	4.68491	0	4.91356
4.32265	4.68491	0	5.00455
4.37402	4.68491	0	5.09554
4.43668	4.68491	0	5.27753
4.43701	4.68491	0	5.27753
4.43727	4.68491	0.0276396	5.27753
4.43733	4.69873	0.0552792	5.27753
4.43735	4.72637	0.0276396	5.27753
4.43789	4.75401	0	5.27753
4.43957	4.75401	0	5.27753
4.43962	4.76783	0.0276396	5.27753
4.44653	4.79547	0	5.27753
4.44699	4.79547	0	5.27753
4.447	4.79547	0.0552792	5.27753
4.447	4.82311	0.0276396	5.27753
4.46784	4.85075	0	5.27753
4.47024	4.85075	0	5.36852
4.47049	4.85075	0	5.36852
4.47055	4.86457	0.0276396	5.36852
4.48061	4.89221	0	5.36852
4.50446	4.89221	0	5.45951
4.5046	4.89221	0	5.45951
4.58595	4.89221	0.0276396	5.45951
4.58596	4.89221	0.0276396	5.5505
4.58961	4.91985	0	5.5505
4.59002	4.91985	0	5.5505
4.59011	4.93367	0.0276396	5.5505
4.6222	4.9613	0	5.5505
4.63544	4.9613	0	5.73248
4.63565	4.9613	0	5.73248
4.63566	4.97512	0.0276396	5.73248
4.66961	5.00276	0	5.73248
4.67037	5.00276	0	5.73248
4.67037	5.00276	0.0552792	5.73248
4.6704	5.0304	0.0276396	5.73248
4.7255	5.05804	0	5.73248
4.79784	5.05804	0	5.91447
4.87405	5.05804	0	6.09645
4.87431	5.05804	0	6.09645
4.87436	5.05804	0.0552792	6.09645
4.87436	5.08568	0.0276396	6.09645
4.89206	5.11332	0	6.09645
4.89207	5.11332	0	6.09645
4.89212	5.12714	0.0276396	6.09645
4.905	5.15478	0	6.09645
4.91389	5.15478	0	6.18744
4.91482	5.15478	0	6.18744
4.91487	5.1686	0.0276396	6.18744
4.91609	5.19624	0	6.18744
4.91624	5.19624	0	6.18744
4.91634	5.21006	0.0276396	6.18744
5.04038	5.2377	0	6.18744
5.04962	5.2377	0	6.27843
5.05012	5.2377	0	6.27843
5.05015	5.25152	0.0276396	6.27843
5.05211	5.27916	0	6.27843
5.05226	5.27916	0	6.27843
5.05232	5.27916	0.0552792	6.27843
5.05232	5.3068	0.0276396	6.27843
5.06245	5.33444	0	6.27843
5.16066	5.33444	0	6.36943
5.16087	5.33444	0	6.36943
5.16089	5.33444	0.0276396	6.36943
5.16091	5.34826	0.0552792	6.36943
5.16093	5.3759	0.0276396	6.36943
5.22747	5.40354	0	6.36943
5.22989	5.40354	0	6.36943
5.23975	5.40354	0.0276396	6.36943
5.23982	5.40354	0.0276396	6.36943
5.23985	5.41736	0.0552792	6.36943
5.24049	5.445	0.0276396	6.36943
5.24868	5.445	0.0276396	6.46042
5.24869	5.445	0.0276396	6.46042
5.32587	5.47264	0	6.46042
5.33566	5.47264	0	6.55141
5.35041	5.47264	0	6.6424
5.35081	5.47264	0	6.6424
5.35083	5.47264	0.0552792	6.6424
5.3509	5.50028	0.0276396	6.6424
5.44988	5.52792	0	6.6424
5.45005	5.52792	0	6.82439
5.45005	5.52792	0	6.91538
5.45005	5.52792	0	6.91538
5.45131	5.52792	0	6.91538
5.45135	5.52792	0	6.91538
5.45191	5.52792	0.0276396	6.91538
5.45196	5.54174	0.0552792	6.91538
5.45197	5.56938	0.0276396	6.91538
5.4663	5.59701	0	6.91538
5.46724	5.59701	0	6.91538
5.65117	5.59701	0.0276396	6.91538
5.65118	5.59701	0.0276396	7.09736
5.65233	5.62465	0	7.09736
5.70931	5.62465	0	7.09736
5.70939	5.62465	0	7.09736
5.70944	5.62465	0	7.09736
5.70949	5.63847	0.0276396	7.09736
5.70966	5.66611	0	7.09736
5.70967	5.67993	0.0276396	7.09736
5.70979	5.67993	0.0276396	7.09736
5.72804	5.70757	0	7.09736
5.73999	5.70757	0	7.27934
5.74019	5.70757	0	7.27934
5.7402	5.70757	0.0552792	7.27934
5.74022	5.73521	0.0276396	7.27934
5.76043	5.76285	0	7.27934
5.76055	5.76285	0	7.27934
5.76058	5.76285	0.0552792	7.27934
5.76063	5.79049	0.0276396	7.27934
5.76955	5.81813	0	7.27934
5.76974	5.81813	0	7.27934
5.76992	5.81813	0.0276396	7.27934
5.77106	5.81813	0.0552792	7.27934
5.81019	5.81813	0.0829187	7.27934
5.81019	5.81813	0.0829187	7.27934
5.8102	5.84577	0.0552792	7.27934
5.8102	5.87341	0.0276396	7.27934
5.81025	5.87341	0.0276396	7.27934
5.81028	5.87341	0.0276396	7.27934
5.84652	5.90105	0	7.27934
5.90652	5.90105	0	7.27934
5.92957	5.90105	0	7.37034
5.92957	5.90105	0	7.37034
5.92976	5.91487	0.0276396	7.37034
5.95442	5.94251	0	7.37034
5.95508	5.94251	0	7.37034
5.95508	5.94251	0.0276396	7.37034
5.99441	5.97015	0	7.37034
6.00973	5.97015	0	7.37034
6.07133	5.97015	0	7.55232
6.07144	5.97015	0	7.55232
6.07144	5.97015	0.0552792	7.55232
6.07158	5.99779	0.0276396	7.55232
6.07161	6.02543	0	7.55232
6.07166	6.02543	0	7.55232
6.14	6.02543	0	7.55232
6.14027	6.02543	0	7.55232
6.14031	6.03925	0.0276396	7.55232
6.16579	6.06689	0	7.55232
6.17547	6.06689	0	7.64331
6.17577	6.06689	0	7.64331
6.17584	6.08071	0.0276396	7.64331
6.17985	6.10835	0	7.64331
6.19589	6.10835	0	7.7343
6.19629	6.10835	0	7.7343
6.19638	6.12217	0.0276396	7.7343
6.21151	6.14981	0	7.7343
6.22566	6.14981	0	7.91629
6.22577	6.14981	0	7.91629
6.22578	6.16363	0.0276396	7.91629
6.22579	6.19127	0	7.91629
6.32374	6.19127	0	7.91629
6.39292	6.19127	0	8.09827
6.41827	6.19127	0	8.28025
6.4187	6.19127	0	8.28025
6.41873	6.20509	0.0276396	8.28025
6.4275	6.23273	0	8.28025
6.42824	6.23273	0	8.28025
6.42838	6.24655	0.0276396	8.28025
6.44024	6.27418	0	8.28025
6.44042	6.27418	0	8.28025
6.44043	6.27418	0.0552792	8.28025
6.44044	6.30182	0.0276396	8.28025
6.59191	6.32946	0	8.28025
6.62128	6.32946	0	8.37125
6.69486	6.32946	0	8.55323
6.69505	6.32946	0	8.55323
6.69522	6.32946	0.0276396	8.55323
6.69524	6.34328	0.0552792	8.55323
6.69525	6.37092	0.0276396	8.55323
6.69531	6.37092	0.0276396	8.55323
6.71832	6.39856	0	8.55323
6.71851	6.39856	0	8.55323
6.71865	6.41238	0.0276396	8.55323
6.75671	6.44002	0	8.55323
6.76143	6.44002	0	8.55323
6.76228	6.44002	0	8.55323
6.83072	6.44002	0.0276396	8.55323
6.83072	6.44002	0.0276396	8.55323
6.83073	6.46766	0	8.55323
6.85288	6.46766	0	8.55323
6.85288	6.46766	0	8.64422
6.87872	6.46766	0	8.64422
6.8789	6.46766	0	8.64422
6.87891	6.46766	0.0552792	8.64422
6.87898	6.4953	0.0276396	8.64422
6.92894	6.52294	0	8.64422
6.98113	6.52294	0	8.73521
6.982	6.52294	0	8.73521
6.98208	6.53676	0.0276396	8.73521
7.01696	6.5644	0	8.73521
7.01713	6.5644	0	8.73521
7.01716	6.57822	0.0276396	8.73521
7.11732	6.60586	0	8.73521
7.11834	6.60586	0	8.73521
7.11834	6.61968	0.0276396	8.73521
7.11942	6.64732	0	8.73521
7.12339	6.64732	0	8.73521
7.12341	6.64732	0.0552792	8.73521
7.12342	6.67496	0.0276396	8.73521
7.13725	6.7026	0	8.73521
7.13825	6.7026	0	8.73521
7.13837	6.7026	0.0276396	8.73521
7.1384	6.71642	0.0552792	8.73521
7.13865	6.74406	0.0276396	8.73521
7.16322	6.7717	0	8.73521
7.1634	6.7717	0	8.73521
7.16341	6.7717	0.0552792	8.73521
7.16349	6.79934	0.0276396	8.73521
7.22787	6.82698	0	8.73521
7.22819	6.82698	0	8.73521
7.22823	6.8408	0.0276396	8.73521
7.22827	6.86844	0	8.73521
7.32783	6.86844	0	8.73521
7.37574	6.86844	0	8.9172
7.37585	6.86844	0	8.9172
7.37589	6.88226	0.0276396	8.9172
7.38417	6.90989	0	8.9172
7.38421	6.90989	0	8.9172
7.38475	6.90989	0.0276396	8.9172
7.38477	6.92371	0.0552792	8.9172
7.38484	6.95135	0.0276396	8.9172
7.4362	6.97899	0	8.9172
7.43643	6.97899	0	8.9172
7.43646	6.99281	0.0276396	8.9172
7.44652	7.02045	0	8.9172
7.5064	7.02045	0	9.00819
7.50669	7.02045	0	9.00819
7.50674	7.03427	0.0276396	9.00819
7.51381	7.06191	0	9.00819
7.51385	7.06191	0	9.00819
7.51391	7.07573	0.0276396	9.00819
7.5234	7.10337	0	9.00819
7.5407	7.10337	0	9.09918
7.54081	7.10337	0	9.09918
7.54086	7.11719	0.0276396	9.09918
7.55003	7.14483	0	9.09918
7.55107	7.14483	0	9.09918
7.55108	7.15865	0.0276396	9.09918
7.58448	7.18629	0	9.09918
7.58459	7.18629	0	9.09918
7.58488	7.18629	0.0276396	9.09918
7.58497	7.20011	0.0552792	9.09918
7.58502	7.22775	0.0276396	9.09918
7.61937	7.25539	0	9.09918
7.62013	7.25539	0	9.09918
7.62013	7.25539	0.0552792	9.09918
7.62014	7.28303	0.0276396	9.09918
7.63852	7.31067	0	9.09918
7.6387	7.31067	0	9.09918
7.63872	7.31067	0.0552792	9.09918
7.63882	7.33831	0.0276396	9.09918
7.733	7.36595	0	9.09918
7.83403	7.36595	0	9.28116
7.89736	7.36595	0	9.37216
7.93833	7.36595	0	9.55414
7.93842	7.36595	0	9.55414
7.93843	7.37977	0.0276396	9.55414
7.98305	7.40741	0	9.55414
8.00911	7.40741	0	9.64513
8.00934	7.40741	0	9.64513
8.01016	7.40741	0.0276396	9.64513
8.01062	7.40741	0.0552792	9.64513
8.01167	7.40741	0.0829187	9.64513
8.01187	7.40741	0.110558	9.64513
8.01193	7.40741	0.138198	9.64513
8.01193	7.42123	0.165837	9.64513
8.01194	7.44887	0.138198	9.64513
8.01195	7.44887	0.138198	9.64513
8.01195	7.47651	0.110558	9.64513
8.01196	7.50415	0.0829187	9.64513
8.01196	7.50415	0.0829187	9.64513
8.01197	7.53179	0.0552792	9.64513
8.01201	7.53179	0.0552792	9.64513
8.01203	7.55943	0.0276396	9.64513
8.01204	7.58706	0	9.64513
8.01712	7.58706	0	9.64513
8.01784	7.58706	0	9.64513
8.01796	7.60088	0.0276396	9.64513
8.06215	7.62852	0	9.64513
8.06218	7.62852	0	9.64513
8.06221	7.64234	0.0276396	9.64513
8.08436	7.66998	0	9.64513
8.08466	7.66998	0	9.64513
8.08469	7.66998	0.0552792	9.64513
8.0847	7.69762	0.0276396	9.64513
8.11724	7.72526	0	9.64513
8.12912	7.72526	0	9.73612
8.1295	7.72526	0	9.73612
8.18152	7.72526	0.0276396	9.73612
8.18152	7.72526	0.0276396	9.82712
8.18157	7.72526	0.0276396	9.82712
8.18158	7.7529	0	9.82712
8.23723	7.7529	0	9.82712
8.23866	7.7529	0	9.82712
8.23877	7.76672	0.0276396	9.82712
8.25196	7.79436	0	9.82712
8.25241	7.79436	0	9.82712
8.25248	7.80818	0.0276396	9.82712
8.32375	7.83582	0	9.82712
8.37162	7.83582	0	9.91811
8.37244	7.83582	0	9.91811
8.37246	7.84964	0.0276396	9.91811
8.41165	7.87728	0	9.91811
8.41346	7.87728	0	10.0091
8.41414	7.87728	0	10.0091
8.41491	7.87728	0.0276396	10.0091
8.41501	7.8911	0.0552792	10.0091
8.41504	7.91874	0.0276396	10.0091
8.4632	7.94638	0	10.0091
8.46364	7.94638	0	10.0091
8.4638	7.94638	0.0276396	10.0091
8.46381	7.9602	0.0552792	10.0091
8.46397	7.98784	0.0276396	10.0091
8.53807	8.01548	0	10.0091
8.53828	8.01548	0	10.0091
8.53835	8.0293	0.0276396	10.0091
8.54339	8.05694	0	10.0091
8.54343	8.05694	0	10.0091
8.54355	8.07076	0.0276396	10.0091
8.55146	8.0984	0	10.0091
8.55216	8.0984	0	10.0091
8.55216	8.11222	0.0276396	10.0091
8.61209	8.13986	0	10.0091
8.61239	8.13986	0	10.0091
8.61252	8.13986	0.0276396	10.0091
8.61281	8.13986	0.0552792	10.0091
8.61299	8.13986	0.0829187	10.0091
8.613	8.15368	0.110558	10.0091
8.61301	8.18132	0.0829187	10.0091
8.61302	8.20896	0.0552792	10.0091
8.61303	8.23659	0.0276396	10.0091
8.61307	8.23659	0.0276396	10.0091
8.62363	8.26423	0	10.0091
8.62407	8.26423	0	10.0091
8.62409	8.26423	0.0552792	10.0091
8.62414	8.29187	0.0276396	10.0091
8.62416	8.31951	0	10.0091
8.68502	8.31951	0	10.0091
8.70336	8.31951	0	10.1001
8.70343	8.31951	0	10.1001
8.70343	8.31951	0.0552792	10.1001
8.7035	8.34715	0.0276396	10.1001
8.71477	8.37479	0	10.1001
8.71553	8.37479	0	10.1001
8.71568	8.38861	0.0276396	10.1001
8.72514	8.41625	0	10.1001
8.72632	8.41625	0	10.1001
8.72639	8.43007	0.0276396	10.1001
8.81548	8.45771	0	10.1001
8.81549	8.45771	0	10.1001
8.8155	8.47153	0.0276396	10.1001
8.83745	8.49917	0	10.1001
8.83919	8.49917	0	10.1001
8.83922	8.51299	0.0276396	10.1001
8.94871	8.54063	0	10.1001
8.9488	8.54063	0	10.1001
8.94881	8.54063	0.0552792	10.1001
8.9489	8.56827	0.0276396	10.1001
9.00753	8.59591	0	10.1001
9.00806	8.59591	0	10.1001
9.00807	8.60973	0.0276396	10.1001
9.12414	8.63737	0	10.1001
9.12436	8.63737	0	10.1001
9.12443	8.63737	0.0276396	10.1001
9.12443	8.65119	0.0552792	10.1001
9.12445	8.67883	0.0276396	10.1001
9.18821	8.70647	0	10.1001
9.18849	8.70647	0	10.1001
9.18849	8.72029	0.0276396	10.1001
9.21136	8.74793	0	10.1001
9.21138	8.74793	0	10.1001
9.21139	8.76175	0.0276396	10.1001
9.25625	8.78939	0	10.1001
9.25651	8.78939	0	10.1001
9.25655	8.80321	0.0276396	10.1001
9.25656	8.83085	0	10.1001
9.27043	8.83085	0	10.1001
9.28955	8.83085	0	10.2821
9.36093	8.83085	0	10.3731
9.37778	8.83085	0	10.5551
9.37816	8.83085	0	10.5551
9.37842	8.83085	0.0276396	10.5551
9.37843	8.84467	0.0552792	10.5551
9.37851	8.87231	0.0276396	10.5551
9.38418	8.89994	0	10.5551
9.38437	8.89994	0	10.5551
9.38437	8.89994	0.0552792	10.5551
9.38441	8.92758	0.0276396	10.5551
9.42748	8.95522	0	10.5551
9.42793	8.95522	0	10.5551
9.4284	8.95522	0.0276396	10.5551
9.42841	8.96904	0.0552792	10.5551
9.42854	8.99668	0.0276396	10.5551
9.50273	9.02432	0	10.5551
9.5029	9.02432	0	10.5551
9.50292	9.03814	0.0276396	10.5551
9.51265	9.06578	0	10.5551
9.51482	9.06578	0	10.5551
9.51482	9.0796	0.0276396	10.5551
9.65293	9.10724	0	10.5551
9.70004	9.10724	0	10.737
9.70018	9.10724	0	10.737
9.70023	9.12106	0.0276396	10.737
9.70727	9.1487	0	10.737
9.72979	9.1487	0	10.919
9.73019	9.1487	0	10.919
9.7302	9.1487	0.0552792	10.919
9.73021	9.1487	0.0552792	10.919
9.73021	9.17634	0.0276396	10.919
9.76786	9.20398	0	10.919
9.76807	9.20398	0	10.919
9.76811	9.2178	0.0276396	10.919
9.77497	9.24544	0	10.919
9.87602	9.24544	0	11.101
9.87609	9.24544	0	11.101
9.8761	9.24544	0.0552792	11.101
9.87611	9.27308	0.0276396	11.101
9.87614	9.30072	0	11.101
9.8763	9.30072	0	11.101
10.0045	9.30072	0	11.283
10.0059	9.30072	0	11.283
10.0059	9.31454	0.0276396	11.283
10.0225	9.34218	0	11.283
10.0234	9.34218	0	11.283
10.0235	9.356	0.0276396	11.283
10.0307	9.38364	0	11.283
10.2218	9.38364	0	11.374
10.2237	9.38364	0	11.374
10.2237	9.38364	0.0552792	11.374
10.2237	9.41128	0.0276396	11.374
10.3404	9.43892	0	11.374
10.3405	9.43892	0	11.374
10.3405	9.45274	0.0276396	11.374
10.4918	9.48038	0	11.374
10.492	9.48038	0	11.374
10.492	9.48038	0.0552792	11.374
10.492	9.50802	0.0276396	11.374
10.4921	9.53566	0	11.374
10.5237	9.53566	0	11.374
10.5253	9.53566	0	11.374
10.5259	9.53566	0.0276396	11.374
10.526	9.54947	0.0552792	11.374
10.5261	9.57711	0.0276396	11.374
10.5529	9.60475	0	11.374
10.5532	9.60475	0	11.374
10.554	9.60475	0.0276396	11.374
10.5541	9.60475	0.0552792	11.374
10.5541	9.60475	0.0829187	11.374
10.5541	9.61857	0.110558	11.374
10.5541	9.64621	0.0829187	11.374
10.5541	9.67385	0.0552792	11.374
10.5542	9.70149	0.0276396	11.374
10.566	9.72913	0	11.374
10.5663	9.72913	0	11.374
10.5664	9.74295	0.0276396	11.374
10.5686	9.77059	0	11.374
10.569	9.77059	0	11.374
10.569	9.78441	0.0276396	11.374
10.7521	9.81205	0	11.374
10.7525	9.81205	0	11.374
10.7525	9.82587	0.0276396	11.374
10.8103	9.85351	0	11.374
10.8103	9.85351	0	11.374
10.8103	9.86733	0.0276396	11.374
10.824	9.89497	0	11.374
10.8248	9.89497	0	11.374
10.8248	9.90879	0.0276396	11.374
10.8301	9.93643	0	11.374
10.8303	9.93643	0	11.374
10.8304	9.95025	0.0276396	11.374
10.8775	9.97789	0	11.374
11.0033	9.97789	0	11.556
11.0107	9.97789	0	11.7379
11.0108	9.97789	0	11.7379
11.0109	9.97789	0.0552792	11.7379
11.0109	10.0055	0.0276396	11.7379
11.0109	10.0332	0	11.7379
11.0109	10.0332	0	11.7379
11.0147	10.0332	0	11.7379
11.0147	10.0332	0	11.7379
11.0148	10.047	0.0276396	11.7379
11.0222	10.0746	0	11.7379
11.0231	10.0746	0	11.7379
11.0231	10.0746	0.0276396	11.7379
11.0243	10.0746	0.0552792	11.7379
11.0243	10.0746	0.110558	11.7379
11.0243	10.1023	0.0829187	11.7379
11.0243	10.1299	0.0552792	11.7379
11.0244	10.1575	0.0276396	11.7379
11.0566	10.1852	0	11.7379
11.0733	10.1852	0	11.8289
11.0734	10.1852	0	11.8289
11.0734	10.199	0.0276396	11.8289
11.083	10.2266	0	11.8289
11.2089	10.2266	0	12.0109
11.2095	10.2266	0	12.0109
11.2095	10.2405	0.0276396	12.0109
11.2322	10.2681	0	12.0109
11.2334	10.2681	0	12.0109
11.2335	10.2819	0.0276396	12.0109
11.2871	10.3096	0	12.0109
11.3186	10.3096	0	12.1019
11.4193	10.3096	0	12.2839
11.4216	10.3096	0	12.2839
11.4216	10.3234	0.0276396	12.2839
11.4232	10.351	0	12.2839
11.4232	10.351	0	12.2839
11.4237	10.351	0.0276396	12.2839
11.4237	10.3648	0.0552792	12.2839
11.4237	10.3925	0.0276396	12.2839
11.4485	10.4201	0	12.2839
11.4537	10.4201	0	12.4659
11.4541	10.4201	0	12.4659
11.4541	10.4339	0.0276396	12.4659
11.4933	10.4616	0	12.4659
11.4936	10.4616	0	12.4659
11.4944	10.4616	0	12.5569
11.4944	10.4754	0.0276396	12.5569
11.5059	10.503	0	12.5569
11.626	10.503	0	12.7389
11.6269	10.503	0	12.7389
11.6272	10.503	0.0276396	12.7389
11.6272	10.5169	0.0552792	12.7389
11.6272	10.5445	0.0276396	12.7389
11.6842	10.5721	0	12.7389
11.6894	10.5721	0	12.9208
11.6904	10.5721	0	12.9208
11.6905	10.5721	0.0276396	12.9208
11.6905	10.586	0.0552792	12.9208
11.6905	10.6136	0.0276396	12.9208
11.8225	10.6412	0	12.9208
11.8225	10.6412	0	12.9208
11.8226	10.6551	0.0276396	12.9208
11.9652	10.6827	0	12.9208
11.9665	10.6827	0	12.9208
11.9665	10.6965	0.0276396	12.9208
11.9965	10.7242	0	12.9208
11.9965	10.7242	0	12.9208
11.9965	10.7242	0.0552792	12.9208
11.9965	10.7518	0.0276396	12.9208
12.016	10.7794	0	12.9208
12.0693	10.7794	0	13.0118
12.0696	10.7794	0	13.0118
12.0696	10.7933	0.0276396	13.0118
12.0848	10.8209	0	13.0118
12.0849	10.8209	0	13.0118
12.0849	10.8209	0.0552792	13.0118
12.085	10.8485	0.0276396	13.0118
12.0911	10.8762	0	13.0118
12.145	10.8762	0	13.1938
12.2143	10.8762	0	13.3758
12.2625	10.8762	0	13.4668
12.2627	10.8762	0	13.4668
12.2628	10.89	0.0276396	13.4668
12.2782	10.9176	0	13.4668
12.3036	10.9176	0	13.5578
12.3053	10.9176	0	13.5578
12.3053	10.9315	0.0276396	13.5578
12.3651	10.9591	0	13.5578
12.4065	10.9591	0	13.6488
12.4067	10.9591	0	13.6488
12.4067	10.9729	0.0276396	13.6488
12.4478	11.0006	0	13.6488
12.448	11.0006	0	13.6488
12.4481	11.0144	0.0276396	13.6488
12.4599	11.042	0	13.6488
12.4612	11.042	0	13.6488
12.4614	11.042	0.0276396	13.6488
12.4614	11.0558	0.0552792	13.6488
12.4615	11.0835	0.0276396	13.6488
12.5756	11.1111	0	13.6488
12.5757	11.1111	0	13.6488
12.5758	11.1111	0.0276396	13.6488
12.6895	11.1388	0	13.6488
12.6896	11.1388	0	13.6488
12.6896	11.1388	0.0552792	13.6488
12.6897	11.1664	0.0276396	13.6488
12.771	11.194	0	13.6488
12.7715	11.194	0	13.6488
12.7716	11.194	0.0552792	13.6488
12.7716	11.2217	0.0276396	13.6488
12.7897	11.2493	0	13.6488
12.7899	11.2493	0	13.6488
12.7899	11.2493	0.0552792	13.6488
12.7899	11.2769	0.0276396	13.6488
12.8127	11.3046	0	13.6488
12.8381	11.3046	0	13.8308
12.8385	11.3046	0	13.8308
12.8385	11.3184	0.0276396	13.8308
12.8651	11.346	0	13.8308
12.8662	11.346	0	13.8308
12.8662	11.346	0.0276396	13.8308
12.8665	11.3737	0	13.8308
12.8668	11.3737	0	13.8308
12.8678	11.3737	0.0276396	13.8308
12.8679	11.3875	0.0552792	13.8308
12.868	11.4151	0.0276396	13.8308
12.9154	11.4428	0	13.8308
12.9155	11.4428	0	13.8308
12.9159	11.4428	0.0276396	13.8308
12.9159	11.4566	0.0552792	13.8308
12.9159	11.4842	0.0276396	13.8308
12.9313	11.5119	0	13.8308
12.9315	11.5119	0	13.8308
12.9315	11.5257	0.0276396	13.8308
12.9315	11.5533	0	13.8308
13.0175	11.5533	0	13.8308
13.0176	11.5533	0	13.8308
13.0176	11.5672	0.0276396	13.8308
13.0255	11.5948	0	13.8308
13.0255	11.5948	0	13.8308
13.0256	11.6086	0.0276396	13.8308
13.042	11.6363	0	13.8308
13.0423	11.6363	0	13.8308
13.0424	11.6363	0.0552792	13.8308
13.0424	11.6639	0.0276396	13.8308
13.0978	11.6915	0	13.8308
13.0978	11.6915	0	13.8308
13.098	11.7054	0.0276396	13.8308
13.1345	11.733	0	13.8308
13.1353	11.733	0	13.8308
13.1353	11.7468	0.0276396	13.8308
13.1467	11.7745	0	13.8308
13.1988	11.7745	0	14.0127
13.2404	11.7745	0	14.1947
13.2413	11.7745	0	14.1947
13.2413	11.7745	0.0552792	14.1947
13.2413	11.8021	0.0276396	14.1947
13.5881	11.8297	0	14.1947
13.5881	11.8297	0	14.3767
13.5882	11.8297	0	14.3767
13.5883	11.8436	0.0276396	14.3767
13.7205	11.8712	0	14.3767
13.7207	11.8712	0	14.3767
13.7217	11.8712	0.0276396	14.3767
13.7226	11.8712	0.0552792	14.3767
13.7226	11.8712	0.110558	14.3767
13.7227	11.8988	0.0829187	14.3767
13.7227	11.9265	0.0552792	14.3767
13.7228	11.9541	0.0276396	14.3767
13.7397	11.9818	0	14.3767
13.7412	11.9818	0	14.3767
13.7412	11.9956	0.0276396	14.3767
13.7444	12.0232	0	14.3767
13.7444	12.0232	0	14.3767
13.7445	12.0232	0.0552792	14.3767
13.7445	12.0509	0.0276396	14.3767
13.8293	12.0785	0	14.3767
13.8296	12.0785	0	14.3767
13.8516	12.0785	0.0276396	14.3767
13.8517	12.0785	0.0276396	14.4677
13.8652	12.1061	0	14.4677
13.884	12.1061	0	14.6497
13.8845	12.1061	0	14.6497
13.8845	12.1061	0.0552792	14.6497
13.8845	12.1338	0.0276396	14.6497
13.942	12.1614	0	14.6497
13.9421	12.1614	0	14.6497
13.9421	12.1614	0.0276396	14.6497
13.9422	12.1752	0.0552792	14.6497
13.9424	12.2029	0.0276396	14.6497
13.9424	12.2305	0	14.6497
13.9955	12.2305	0	14.6497
13.9974	12.2305	0	14.6497
13.9975	12.2443	0.0276396	14.6497
14.0154	12.272	0	14.6497
14.0156	12.272	0	14.6497
14.0156	12.2858	0.0276396	14.6497
14.0382	12.3134	0	14.6497
14.0382	12.3134	0	14.6497
14.0383	12.3273	0.0276396	14.6497
14.1246	12.3549	0	14.6497
14.3422	12.3549	0	14.8317
14.3586	12.3549	0	14.9227
14.359	12.3549	0	14.9227
14.3592	12.3687	0.0276396	14.9227
14.4294	12.3964	0	14.9227
14.4297	12.3964	0	14.9227
14.5111	12.3964	0.0276396	14.9227
14.5112	12.3964	0.0276396	14.9227
14.5116	12.424	0	14.9227
14.5116	12.424	0.0276396	14.9227
14.5255	12.4516	0	14.9227
14.527	12.4516	0	14.9227
14.5271	12.4655	0.0276396	14.9227
14.5375	12.4931	0	14.9227
14.5376	12.4931	0	14.9227
14.5376	12.4931	0.0552792	14.9227
14.5376	12.5207	0.0276396	14.9227
14.6657	12.5484	0	14.9227
14.7134	12.5484	0	15.0136
14.7764	12.5484	0	15.1956
14.7768	12.5484	0	15.1956
14.7768	12.5484	0.0552792	15.1956
14.7768	12.576	0.0276396	15.1956
14.7986	12.6036	0	15.1956
14.8668	12.6036	0	15.3776
14.8673	12.6036	0	15.3776
14.8674	12.6175	0.0276396	15.3776
14.9053	12.6451	0	15.3776
14.9054	12.6451	0	15.3776
14.9054	12.6589	0.0276396	15.3776
15.0068	12.6866	0	15.3776
15.0069	12.6866	0	15.3776
15.0069	12.7004	0.0276396	15.3776
15.0173	12.728	0	15.3776
15.087	12.728	0	15.5596
15.0874	12.728	0	15.5596
15.0874	12.7418	0.0276396	15.5596
15.1688	12.7695	0	15.5596
15.2846	12.7695	0	15.5596
15.3007	12.7695	0	15.7416
15.3015	12.7695	0	15.7416
15.3016	12.7695	0.0552792	15.7416
15.3017	12.7971	0.0276396	15.7416
15.3695	12.8248	0	15.7416
15.3696	12.8248	0	15.7416
15.3696	12.8386	0.0276396	15.7416
15.4886	12.8662	0	15.7416
15.4894	12.8662	0	15.7416
15.4894	12.8662	0.0552792	15.7416
15.4895	12.8939	0.0276396	15.7416
15.6375	12.9215	0	15.7416
15.6384	12.9215	0	15.7416
15.6384	12.9353	0.0276396	15.7416
15.6613	12.963	0	15.7416
15.6623	12.963	0	15.7416
15.6623	12.963	0.0552792	15.7416
15.6623	12.9906	0.0276396	15.7416
15.6838	13.0182	0	15.7416
15.7524	13.0182	0	15.9236
15.7525	13.0182	0	15.9236
15.7527	13.0182	0.0276396	15.9236
15.7527	13.0321	0.0552792	15.9236
15.7527	13.0597	0.0276396	15.9236
15.8378	13.0873	0	15.9236
15.8382	13.0873	0	15.9236
15.8382	13.0873	0.0276396	15.9236
15.8382	13.1012	0.0552792	15.9236
15.8383	13.1288	0.0276396	15.9236
15.8455	13.1564	0	15.9236
15.8457	13.1564	0	15.9236
15.8458	13.1703	0.0276396	15.9236
15.8461	13.1979	0	15.9236
15.8465	13.1979	0	15.9236
15.8465	13.2117	0.0276396	15.9236
16.0076	13.2394	0	15.9236
16.0077	13.2394	0	15.9236
16.0078	13.2532	0.0276396	15.9236
16.0127	13.2808	0	15.9236
16.0127	13.2808	0	15.9236
16.0131	13.2808	0.0276396	15.9236
16.0131	13.2946	0.0552792	15.9236
16.0131	13.2946	0.0552792	16.1056
16.0132	13.3223	0.0276396	16.1056
16.1024	13.3499	0	16.1056
16.1851	13.3499	0	16.2875
16.186	13.3499	0	16.2875
16.1862	13.3637	0.0276396	16.2875
16.3496	13.3914	0	16.2875
16.3496	13.3914	0	16.2875
16.3496	13.4052	0.0276396	16.2875
16.4823	13.4328	0	16.2875
16.4861	13.4328	0	16.4695
16.4868	13.4328	0	16.4695
16.4875	13.4328	0.0276396	16.4695
16.4875	13.4467	0.0552792	16.4695
16.4875	13.4743	0.0276396	16.4695
16.6712	13.5019	0	16.4695
16.6712	13.5019	0	16.4695
16.6718	13.5019	0.0276396	16.4695
16.8118	13.5019	0.0552792	16.4695
16.8118	13.5019	0.0552792	16.6515
16.8118	13.5019	0.0552792	16.6515
16.8118	13.5296	0.0276396	16.6515
16.9915	13.5572	0	16.6515
16.9918	13.5572	0	16.6515
16.9919	13.571	0.0276396	16.6515
17.1988	13.5987	0	16.6515
17.3066	13.5987	0	16.8335
17.464	13.5987	0	16.9245
17.4642	13.5987	0	16.9245
17.4642	13.5987	0.0552792	16.9245
17.4643	13.6263	0.0276396	16.9245
17.4676	13.654	0	16.9245
17.4677	13.654	0	16.9245
17.4677	13.654	0.0552792	16.9245
17.4677	13.6816	0.0276396	16.9245
17.4806	13.7092	0	16.9245
17.4807	13.7092	0	16.9245
17.4808	13.7231	0.0276396	16.9245
17.5166	13.7507	0	16.9245
17.518	13.7507	0	16.9245
17.5181	13.7507	0.0276396	16.9245
17.5181	13.7645	0.0552792	16.9245
17.5181	13.7922	0.0276396	16.9245
17.5345	13.8198	0	16.9245
17.5345	13.8198	0	16.9245
17.5348	13.8198	0.0276396	16.9245
17.535	13.8198	0.0552792	16.9245
17.5357	13.8198	0.0829187	16.9245
17.5358	13.8198	0.110558	16.9245
17.5358	13.8336	0.138198	16.9245
17.5358	13.8612	0.110558	16.9245
17.5359	13.8889	0.0829187	16.9245
17.5359	13.9165	0.0552792	16.9245
17.5359	13.9442	0.0276396	16.9245
17.6171	13.9718	0	16.9245
17.6854	13.9718	0	17.0155
17.686	13.9718	0	17.0155
17.6867	13.9718	0.0276396	17.0155
17.6872	13.9718	0.0552792	17.0155
17.6872	13.9718	0.0829187	17.0155
17.6872	13.9994	0.0552792	17.0155
17.6872	14.0271	0.0276396	17.0155
17.7008	14.0547	0	17.0155
17.7017	14.0547	0	17.0155
17.7018	14.0547	0.0276396	17.0155
17.7018	14.0685	0.0552792	17.0155
17.7019	14.0962	0.0276396	17.0155
17.787	14.1238	0	17.0155
17.7872	14.1238	0	17.0155
17.7877	14.1238	0.0276396	17.0155
17.7877	14.1376	0.0552792	17.0155
17.7877	14.1653	0.0276396	17.0155
17.8141	14.1929	0	17.0155
17.9465	14.1929	0	17.1975
17.947	14.1929	0	17.1975
17.9471	14.2067	0.0276396	17.1975
17.9852	14.2344	0	17.1975
18.0095	14.2344	0	17.3794
18.0097	14.2344	0	17.3794
18.0097	14.2344	0.0552792	17.3794
18.0097	14.262	0.0276396	17.3794
18.2077	14.2897	0	17.3794
18.2086	14.2897	0	17.3794
18.2086	14.2897	0.0552792	17.3794
18.2086	14.3173	0.0276396	17.3794
18.7868	14.3449	0	17.3794
18.7878	14.3449	0	17.3794
18.7881	14.3449	0.0276396	17.3794
18.7882	14.3449	0.0829187	17.3794
18.7882	14.3726	0.0552792	17.3794
18.7882	14.4002	0.0276396	17.3794
19.1761	14.4279	0	17.3794
19.1763	14.4279	0	17.3794
19.1763	14.4417	0.0276396	17.3794
19.3328	14.4693	0	17.3794
19.3329	14.4693	0	17.3794
19.3329	14.4693	0.0552792	17.3794
19.3329	14.497	0.0276396	17.3794
19.3523	14.5246	0	17.3794
19.3532	14.5246	0	17.3794
19.3536	14.5246	0.0276396	17.3794
19.3536	14.5384	0.0552792	17.3794
19.3536	14.5661	0.0276396	17.3794
19.3923	14.5937	0	17.3794
19.3925	14.5937	0	17.3794
19.3925	14.6075	0.0276396	17.3794
19.4553	14.6352	0	17.3794
19.5023	14.6352	0	17.5614
19.5024	14.6352	0	17.5614
19.5025	14.649	0.0276396	17.5614
19.8822	14.6766	0	17.5614
21.0418	14.6766	0	17.7434
21.0421	14.6766	0	17.7434
21.0422	14.6766	0.0552792	17.7434
21.0423	14.7043	0.0276396	17.7434
21.0643	14.7319	0	17.7434
21.065	14.7319	0	17.7434
21.065	14.7319	0.0552792	17.7434
21.0651	14.7595	0.0276396	17.7434
21.2444	14.7872	0	17.7434
21.2445	14.7872	0	17.7434
21.2446	14.7872	0.0552792	17.7434
21.2447	14.8148	0.0276396	17.7434
21.3647	14.8425	0	17.7434
21.365	14.8425	0	17.7434
21.3667	14.8425	0.0276396	17.7434
21.3667	14.8563	0.0552792	17.7434
21.3667	14.8839	0.0276396	17.7434
21.8214	14.9116	0	17.7434
21.8225	14.9116	0	17.7434
21.8225	14.9116	0.0552792	17.7434
21.8225	14.9392	0.0276396	17.7434
21.9934	14.9668	0	17.7434
21.9938	14.9668	0	17.7434
21.9939	14.9668	0.0276396	17.7434
21.9939	14.9807	0.0552792	17.7434
21.9939	15.0083	0.0276396	17.7434
22.0913	15.0359	0	17.7434
22.0914	15.0359	0	17.7434
22.0914	15.0359	0.0552792	17.7434
22.0914	15.0636	0.0276396	17.7434
22.1488	15.0912	0	17.7434
22.149	15.0912	0	17.7434
22.149	15.0912	0.0552792	17.7434
22.1492	15.1189	0.0276396	17.7434
22.1534	15.1465	0	17.7434
22.1534	15.1465	0	17.7434
22.1534	15.1465	0.0552792	17.7434
22.1534	15.1741	0.0276396	17.7434
22.7012	15.2018	0	17.7434
22.7012	15.2018	0	17.7434
22.7012	15.2156	0.0276396	17.7434
23.0539	15.2432	0	17.7434
23.054	15.2432	0	17.7434
23.054	15.257	0.0276396	17.7434
23.0727	15.2847	0	17.7434
23.0737	15.2847	0	17.7434
23.0743	15.2847	0.0276396	17.7434
23.0749	15.2847	0.0276396	17.7434
23.075	15.2847	0.0829187	17.7434
23.075	15.3123	0.0552792	17.7434
23.0752	15.34	0.0276396	17.7434
23.0753	15.3538	0.0552792	17.7434
23.0753	15.3814	0.0276396	17.7434
23.5127	15.4091	0	17.7434
23.5135	15.4091	0	17.7434
23.5136	15.4091	0.0276396	17.7434
23.5139	15.4091	0.0552792	17.7434
23.514	15.4229	0.0829187	17.7434
23.514	15.4505	0.0552792	17.7434
23.514	15.4782	0.0276396	17.7434
23.5319	15.5058	0	17.7434
23.5319	15.5058	0	17.7434
23.5319	15.5058	0.0276396	17.7434
23.532	15.5196	0.0552792	17.7434
23.532	15.5473	0.0276396	17.7434
23.6053	15.5749	0	17.7434
24.2643	15.5749	0	17.9254
24.4082	15.5749	0	18.0164
24.409	15.5749	0	18.0164
24.409	15.5887	0.0276396	18.0164
24.4665	15.6164	0	18.0164
24.6975	15.6164	0	18.1074
24.6975	15.6164	0	18.1074
24.6975	15.6164	0.0552792	18.1074
24.6976	15.644	0.0276396	18.1074
25.1071	15.6716	0	18.1074
25.1078	15.6716	0	18.1074
25.1078	15.6716	0.0552792	18.1074
25.1079	15.6993	0.0276396	18.1074
25.1831	15.7269	0	18.1074
25.1837	15.7269	0	18.1074
25.1842	15.7269	0.0276396	18.1074
25.1842	15.7407	0.0552792	18.1074
25.1842	15.7684	0.0276396	18.1074
25.1948	15.796	0	18.1074
25.1951	15.796	0	18.1074
25.1951	15.8098	0.0276396	18.1074
25.8398	15.8375	0	18.1074
25.8404	15.8375	0	18.1074
25.8405	15.8513	0.0276396	18.1074
26.019	15.8789	0	18.1074
26.0201	15.8789	0	18.1074
26.0201	15.8789	0.0552792	18.1074
26.0202	15.9066	0.0276396	18.1074
26.1259	15.9342	0	18.1074
26.1261	15.9342	0	18.1074
26.1271	15.9342	0.0276396	18.1074
26.1276	15.9342	0.0552792	18.1074
26.1276	15.948	0.0829187	18.1074
26.1276	15.9757	0.0552792	18.1074
26.1276	16.0033	0.0276396	18.1074
26.2839	16.031	0	18.1074
26.2847	16.031	0	18.1074
26.2847	16.0448	0.0276396	18.1074
26.636	16.0724	0	18.1074
26.6363	16.0724	0	18.1074
26.6363	16.0862	0.0276396	18.1074
27.0906	16.1139	0	18.1074
27.0915	16.1139	0	18.1074
27.0915	16.1277	0.0276396	18.1074
27.3759	16.1553	0	18.1074
27.557	16.1553	0	18.2894
27.557	16.1553	0	18.2894
27.5571	16.1692	0.0276396	18.2894
27.7184	16.1968	0	18.2894
27.719	16.1968	0	18.2894
27.719	16.1968	0.0552792	18.2894
27.7191	16.2244	0.0276396	18.2894
28.0909	16.2521	0	18.2894
28.3444	16.2521	0	18.4713
28.4812	16.2521	0	18.6533
28.4813	16.2521	0	18.6533
28.4814	16.2659	0.0276396	18.6533
28.5955	16.2935	0	18.6533
28.5958	16.2935	0	18.6533
28.5958	16.3074	0.0276396	18.6533
28.8728	16.335	0	18.6533
28.8739	16.335	0	18.6533
28.874	16.335	0.0552792	18.6533
28.874	16.3626	0.0276396	18.6533
28.8908	16.3903	0	18.6533
28.8909	16.3903	0	18.6533
28.891	16.4041	0.0276396	18.6533
29.3146	16.4317	0	18.6533
29.3149	16.4317	0	18.6533
29.3149	16.4456	0.0276396	18.6533
29.4822	16.4732	0	18.6533
29.4823	16.4732	0	18.6533
29.4823	16.4732	0.0552792	18.6533
29.4823	16.5008	0.0276396	18.6533
30.0939	16.5285	0	18.6533
30.0953	16.5285	0	18.6533
30.0954	16.5423	0.0276396	18.6533
30.7586	16.5699	0	18.6533
30.7589	16.5699	0	18.6533
31.1751	16.5699	0.0276396	18.6533
31.1752	16.5699	0.0276396	18.8353
31.2683	16.5976	0	18.8353
31.2687	16.5976	0	18.8353
31.2687	16.5976	0.0552792	18.8353
31.2688	16.6252	0.0276396	18.8353
31.3029	16.6528	0	18.8353
31.3034	16.6528	0	18.8353
31.3034	16.6528	0.0552792	18.8353
31.3034	16.6805	0.0276396	18.8353
31.347	16.7081	0	18.8353
31.3484	16.7081	0	18.8353
31.3486	16.7081	0.0552792	18.8353
31.3486	16.7358	0.0276396	18.8353
31.6079	16.7634	0	18.8353
31.6089	16.7634	0	18.8353
32.5176	16.7634	0.0276396	18.8353
32.5177	16.7634	0.0276396	18.8353
32.5194	16.791	0	18.8353
32.5194	16.8049	0.0276396	18.8353
32.6181	16.8325	0	18.8353
32.6188	16.8325	0	18.8353
32.6198	16.8325	0.0276396	18.8353
32.6199	16.8463	0.0552792	18.8353
32.6199	16.874	0.0276396	18.8353
32.6798	16.9016	0	18.8353
32.6806	16.9016	0	18.8353
32.6807	16.9154	0.0276396	18.8353
33.2171	16.9431	0	18.8353
33.2171	16.9431	0	18.8353
33.2171	16.9431	0.0552792	18.8353
33.2172	16.9707	0.0276396	18.8353
33.501	16.9983	0	18.8353
33.5015	16.9983	0	18.8353
33.5015	16.9983	0.0552792	18.8353
33.5015	17.026	0.0276396	18.8353
33.5037	17.0536	0	18.8353
33.505	17.0536	0	18.8353
33.505	17.0536	0.0552792	18.8353
33.505	17.0813	0.0276396	18.8353
33.5709	17.1089	0	18.8353
33.5717	17.1089	0	18.8353
33.5717	17.1089	0.0552792	18.8353
33.5717	17.1365	0.0276396	18.8353
33.8291	17.1642	0	18.8353
33.8318	17.1642	0	18.8353
34.7996	17.1642	0.0276396	18.8353
34.7996	17.1642	0.0276396	18.8353
34.8001	17.1918	0	18.8353
34.8002	17.1918	0.0552792	18.8353
34.8002	17.2195	0.0276396	18.8353
35.0852	17.2471	0	18.8353
35.0859	17.2471	0	18.8353
35.0859	17.2471	0.0552792	18.8353
35.086	17.2747	0.0276396	18.8353
36.5159	17.3024	0	18.8353
36.5169	17.3024	0	18.8353
36.5169	17.3162	0.0276396	18.8353
36.9955	17.3438	0	18.8353
36.9977	17.3438	0	18.8353
36.9977	17.3577	0.0276396	18.8353
37.2261	17.3853	0	18.8353
37.2263	17.3853	0	18.8353
37.2263	17.3853	0.0552792	18.8353
37.2264	17.4129	0.0276396	18.8353
37.3211	17.4406	0	18.8353
37.3216	17.4406	0	18.8353
37.3216	17.4406	0.0552792	18.8353
37.3216	17.4682	0.0276396	18.8353
37.6611	17.4959	0	18.8353
37.6615	17.4959	0	18.8353
37.6616	17.5097	0.0276396	18.8353
39.3597	17.5373	0	18.8353
39.36	17.5373	0	18.8353
39.36	17.5511	0.0276396	18.8353
39.8702	17.5788	0	18.8353
39.8706	17.5788	0	18.8353
39.8707	17.5926	0.0276396	18.8353
41.6147	17.6202	0	18.8353
41.6148	17.6202	0	18.8353
41.6148	17.6202	0.0552792	18.8353
41.615	17.6479	0.0276396	18.8353
41.6202	17.6755	0	18.8353
41.6203	17.6755	0	18.8353
41.6203	17.6755	0.0552792	18.8353
41.6203	17.7032	0.0276396	18.8353
43.3667	17.7308	0	18.8353
43.3675	17.7308	0	18.8353
43.3676	17.7308	0.0552792	18.8353
43.3676	17.7584	0.0276396	18.8353
43.5212	17.7861	0	18.8353
43.5212	17.7861	0	18.8353
43.5212	17.7999	0.0276396	18.8353
43.8759	17.8275	0	18.8353
43.8759	17.8275	0	18.8353
43.8759	17.8275	0.0552792	18.8353
43.8759	17.8552	0.0276396	18.8353
44.4603	17.8828	0	18.8353
44.4604	17.8828	0	18.8353
44.4604	17.8966	0.0276396	18.8353
45.0264	17.9243	0	18.8353
45.0267	17.9243	0	18.8353
45.0268	17.9381	0.0276396	18.8353
46.0714	17.9657	0	18.8353
46.0717	17.9657	0	18.8353
46.0719	17.9795	0.0276396	18.8353
46.3045	18.0072	0	18.8353
46.3051	18.0072	0	18.8353
46.3052	18.021	0.0276396	18.8353
46.6767	18.0486	0	18.8353
46.6769	18.0486	0	18.8353
46.6769	18.0486	0.0552792	18.8353
46.677	18.0763	0.0276396	18.8353
47.6451	18.1039	0	18.8353
47.6455	18.1039	0	18.8353
49.7737	18.1039	0.0276396	18.8353
49.7737	18.1039	0.0276396	18.8353
49.7748	18.1316	0	18.8353
49.7748	18.1316	0.0552792	18.8353
49.7748	18.1592	0.0276396	18.8353
54.5841	18.1868	0	18.8353
54.5845	18.1868	0	18.8353
54.5845	18.1868	0.0552792	18.8353
54.5845	18.2145	0.0276396	18.8353
55.6425	18.2421	0	18.8353
55.6433	18.2421	0	18.8353
55.6435	18.2421	0.0276396	18.8353
55.6436	18.2421	0.0552792	18.8353
55.6436	18.2559	0.0829187	18.8353
55.6438	18.2836	0.0552792	18.8353
55.6438	18.3112	0.0276396	18.8353
55.8842	18.3389	0	18.8353
55.8849	18.3389	0	18.8353
55.8849	18.3389	0.0552792	18.8353
55.8849	18.3665	0.0276396	18.8353
56.0054	18.3941	0	18.8353
56.0062	18.3941	0	18.8353
56.0063	18.408	0.0276396	18.8353
56.3071	18.4356	0	18.8353
56.3073	18.4356	0	18.8353
56.3073	18.4356	0.0552792	18.8353
56.3073	18.4632	0.0276396	18.8353
57.6332	18.4909	0	18.8353
57.6333	18.4909	0	18.8353
57.6333	18.5047	0.0276396	18.8353
59.3321	18.5323	0	18.8353
59.3324	18.5323	0	18.8353
59.3324	18.5323	0.0552792	18.8353
59.3325	18.56	0.0276396	18.8353
60.8907	18.5876	0	18.8353
60.8908	18.5876	0	18.8353
66.3068	18.5876	0.0276396	18.8353
66.3069	18.5876	0.0276396	18.8353
66.3077	18.6153	0	18.8353
66.3077	18.6153	0.0552792	18.8353
66.3078	18.6429	0.0276396	18.8353
66.8619	18.6705	0	18.8353
66.8619	18.6705	0	18.8353
66.8619	18.6705	0.0552792	18.8353
66.862	18.6982	0.0276396	18.8353
70.0498	18.7258	0	18.8353
70.0505	18.7258	0	18.8353
70.0505	18.7258	0.0552792	18.8353
70.0505	18.7535	0.0276396	18.8353
72.1249	18.7811	0	18.8353
72.1251	18.7811	0	18.8353
72.1251	18.7949	0.0276396	18.8353
75.6768	18.8226	0	18.8353
75.6775	18.8226	0	18.8353
84.6437	18.8226	0.0276396	18.8353
84.6437	18.8226	0.0276396	18.8353
84.6447	18.8502	0	18.8353
84.6448	18.864	0.0276396	18.8353
89.4433	18.8917	0	18.8353
89.4439	18.8917	0	18.8353
89.4439	18.8917	0.0552792	18.8353
89.4439	18.9193	0.0276396	18.8353
104.205	18.9469	0	18.8353
104.206	18.9469	0	18.8353
104.206	18.9469	0.0552792	18.8353
104.206	18.9746	0.0276396	18.8353
