2.47928e-11	0	0	0
9.29429e-11	0	0	0
4.85172e-10	0	0	0
9.30896e-10	0	0	0
1.55536e-09	0	0	0
2.81345e-09	0	0	0
2.93408e-09	0	0	0
3.55021e-09	0	0	0
3.96046e-09	0	0	0
4.14409e-09	0	0	0
5.37755e-09	0	0	0
5.74208e-09	0	0	0
6.14321e-09	0	0	0
6.20927e-09	0	0	0
6.7345e-09	0	0	0
1.14092e-08	0	0	0
1.35178e-08	0	0	0
1.38056e-08	0	0	0
1.41394e-08	0	0	0
1.41749e-08	0	0	0
1.49899e-08	0	0	0
1.51952e-08	0	0	0
1.53073e-08	0	0	0
1.58092e-08	0	0	0
1.71265e-08	0	0	0
1.91765e-08	0	0	0
1.93657e-08	0	0	0
1.97613e-08	0	0	0
2.00125e-08	0	0	0
2.02707e-08	0	0	0
2.29244e-08	0	0	0
2.34542e-08	0	0	0
2.3795e-08	0	0	0
2.45024e-08	0	0	0
2.47162e-08	0	0	0
2.6112e-08	0	0	0
2.6836e-08	0	0	0
2.78924e-08	0	0	0
2.80901e-08	0	0	0
2.83974e-08	0	0	0
2.86187e-08	0	0	0
2.93314e-08	0	0	0
3.10983e-08	0	0	0
3.19603e-08	0	0	0
3.65228e-08	0	0	0
4.16813e-08	0	0	0
4.22101e-08	0	0	0
4.36209e-08	0	0	0
4.73873e-08	0	0	0
4.75002e-08	0	0	0
4.93331e-08	0	0	0
5.76416e-08	0	0	0
5.91298e-08	0	0	0
6.12975e-08	0	0	0
6.13792e-08	0	0	0
6.53458e-08	0	0	0
6.71817e-08	0	0	0
6.78119e-08	0	0	0
6.80367e-08	0	0	0
1.03024e-07	0	0	0
1.10289e-07	0	0	0
1.11554e-07	0	0	0
3.30854e-07	0	0	0
3.61586e-07	0	0	0
3.96516e-07	0	0	0
4.06747e-07	0	0	0
4.31138e-07	0	0	0
5.05775e-07	0	0	0
5.10368e-07	0	0	0
5.48977e-07	0	0	0
6.12607e-07	0	0	0
7.09601e-07	0	0	0
1.28411e-06	0	0	0
1.59767e-06	0	0	0
1.75966e-06	0	0	0
1.82647e-06	0	0	0
1.8636e-06	0	0	0
1.91386e-06	0	0	0
1.91582e-06	0	0	0
2.14639e-06	0	0	0
2.27378e-06	0	0	0
2.31808e-06	0	0	0
2.40046e-06	0	0	0
2.40269e-06	0	0	0
2.53031e-06	0	0	0
2.84572e-06	0	0	0
2.9223e-06	0	0	0
2.9785e-06	0	0	0
3.01975e-06	0	0	0
3.02085e-06	0	0	0
3.28938e-06	0	0	0
3.30262e-06	0	0	0
3.34577e-06	0	0	0
3.41603e-06	0	0	0
3.46368e-06	0	0	0
4.17426e-06	0	0	0
4.17554e-06	0	0	0
4.30197e-06	0	0	0
4.54324e-06	0	0	0
4.75283e-06	0	0	0
4.78441e-06	0	0	0
4.94688e-06	0	0	0
5.26958e-06	0	0	0
5.29094e-06	0	0	0
5.32409e-06	0	0	0
5.42388e-06	0	0	0
5.62678e-06	0	0	0
5.70991e-06	0	0	0
5.74025e-06	0	0	0
5.78247e-06	0	0	0
5.80161e-06	0	0	0
6.01672e-06	0	0	0
6.04992e-06	0	0	0
6.34588e-06	0	0	0
6.47817e-06	0	0	0
6.52667e-06	0	0	0
6.56207e-06	0	0	0
6.59419e-06	0	0	0
6.61978e-06	0	0	0
6.81345e-06	0	0	0
6.85417e-06	0	0	0
6.89062e-06	0	0	0
6.92116e-06	0	0	0
7.05029e-06	0	0	0
7.06208e-06	0	0	0
7.17213e-06	0	0	0
7.61154e-06	0	0	0
7.71893e-06	0	0	0
7.75565e-06	0	0	0
7.81037e-06	0	0	0
7.84929e-06	0	0	0
7.86161e-06	0	0	0
8.13217e-06	0	0	0
8.21315e-06	0	0	0
8.25707e-06	0	0	0
8.56743e-06	0	0	0
8.83236e-06	0	0	0
9.18487e-06	0	0	0
9.20881e-06	0	0	0
9.65303e-06	0	0	0
1.02538e-05	0	0	0
1.07388e-05	0	0	0
1.09024e-05	0	0	0
1.1047e-05	0	0	0
1.10677e-05	0	0	0
1.11091e-05	0	0	0
1.13002e-05	0	0	0
1.13217e-05	0	0	0
1.14813e-05	0	0	0
1.14815e-05	0	0	0
1.14886e-05	0	0	0
1.1668e-05	0	0	0
1.20053e-05	0	0	0
1.25771e-05	0	0	0
1.29244e-05	0	0	0
1.31602e-05	0	0	0
1.3274e-05	0	0	0
1.35162e-05	0	0	0
1.42313e-05	0	0	0
1.45255e-05	0	0	0
1.57394e-05	0	0	0
1.602e-05	0	0	0
1.60757e-05	0	0	0
1.61161e-05	0	0	0
1.62541e-05	0	0	0
1.63517e-05	0	0	0
1.66125e-05	0	0	0
1.6618e-05	0	0	0
1.67118e-05	0	0	0
1.69674e-05	0	0	0
1.70038e-05	0	0	0
1.7151e-05	0	0	0
1.74818e-05	0	0	0
1.80346e-05	0	0	0
1.82941e-05	0	0	0
1.86944e-05	0	0	0
1.87673e-05	0	0	0
1.8888e-05	0	0	0
1.97975e-05	0	0	0
1.99523e-05	0	0	0
2.01197e-05	0	0	0
2.01225e-05	0	0	0
2.01739e-05	0	0	0
2.02862e-05	0	0	0
2.03778e-05	0	0	0
2.06991e-05	0	0	0
2.0925e-05	0	0	0
2.1251e-05	0	0	0
2.14285e-05	0	0	0
2.14885e-05	0	0	0
2.16827e-05	0	0	0
2.17372e-05	0	0	0
2.21193e-05	0	0	0
2.23772e-05	0	0	0
2.27308e-05	0	0	0
2.30102e-05	0	0	0
2.33202e-05	0	0	0
2.34353e-05	0	0	0
2.40925e-05	0	0	0
2.43548e-05	0	0	0
2.43757e-05	0	0	0
2.45931e-05	0	0	0
2.47645e-05	0	0	0
2.48388e-05	0	0	0
2.50018e-05	0	0	0
2.50359e-05	0	0	0
2.57419e-05	0	0	0
2.60268e-05	0	0	0
2.63248e-05	0	0	0
2.70595e-05	0	0	0
2.74284e-05	0	0	0
2.74584e-05	0	0	0
2.74707e-05	0	0	0
2.7663e-05	0	0	0
2.78684e-05	0	0	0
2.79692e-05	0	0	0
2.83971e-05	0	0	0
2.86142e-05	0	0	0
2.99384e-05	0	0	0
3.00496e-05	0	0	0
3.19424e-05	0	0	0
3.26834e-05	0	0	0
3.27752e-05	0	0	0
3.31792e-05	0	0	0
3.33018e-05	0	0	0
3.37187e-05	0	0	0
3.40111e-05	0	0	0
3.4062e-05	0	0	0
3.45618e-05	0	0	0
3.49072e-05	0	0	0
3.52484e-05	0	0	0
3.60851e-05	0	0	0
3.92056e-05	0	0	0
3.9528e-05	0	0	0
4.07583e-05	0	0	0
4.34016e-05	0	0	0
4.38704e-05	0	0	0
4.42876e-05	0	0	0
4.56605e-05	0	0	0
4.60682e-05	0	0	0
4.88422e-05	0	0	0
4.96059e-05	0	0	0
4.98468e-05	0	0	0
5.01734e-05	0	0	0
5.37595e-05	0	0	0
5.43462e-05	0	0	0
5.7406e-05	0	0	0
5.77493e-05	0	0	0
5.86141e-05	0	0	0
5.90067e-05	0	0	0
6.08677e-05	0	0	0
6.21394e-05	0	0	0
6.44966e-05	0	0	0
6.46625e-05	0	0	0
6.51803e-05	0	0	0
6.58964e-05	0	0	0
6.62378e-05	0	0	0
6.62723e-05	0	0	0
6.96458e-05	0	0	0
7.10373e-05	0	0	0
7.38213e-05	0	0	0
7.56761e-05	0	0	0
7.57694e-05	0	0	0
7.71595e-05	0	0	0
8.14779e-05	0	0	0
8.53574e-05	0	0	0
8.59223e-05	0	0	0
8.74779e-05	0	0	0
9.03149e-05	0	0	0
9.06477e-05	0	0	0
9.08349e-05	0	0	0
9.18382e-05	0	0	0
9.51421e-05	0	0	0
9.63098e-05	0	0	0
9.86202e-05	0	0	0
0.000100605	0	0	0
0.000101853	0	0	0
0.000102044	0	0	0
0.000103358	0	0	0
0.000104406	0	0	0
0.000109092	0	0	0
0.000110825	0	0	0
0.000111147	0	0	0
0.000111239	0	0	0
0.000116328	0	0	0
0.000116446	0	0	0
0.000117526	0	0	0
0.00012005	0	0	0
0.000146298	0	0	0
0.000153934	0	0	0
0.000183836	0	0	0
0.000199236	0	0	0
0.000238045	0	0	0
0.00361722	0	0	0
0.0172482	0	0	0
0.020056	0	0	0
0.0212741	0	0	0
0.0214298	0.0138198	0.0276396	0
0.0355729	0.0414594	0	0
0.0470734	0.0414594	0	0
0.0783852	0.0414594	0	0
0.0786711	0.0414594	0	0
0.0786729	0.0414594	0.0552792	0
0.0786952	0.0690989	0.0276396	0
0.0809652	0.0967385	0	0
0.080982	0.0967385	0	0
0.0957625	0.0967385	0	0
0.095971	0.0967385	0	0
0.096077	0.110558	0.0276396	0
0.143147	0.138198	0	0
0.149975	0.138198	0	0
0.149988	0.138198	0	0
0.154865	0.138198	0	0
0.161687	0.138198	0	0
0.162389	0.138198	0	0
0.162526	0.138198	0.0276396	0
0.162851	0.138198	0.0552792	0
0.163102	0.138198	0.0829187	0
0.16311	0.138198	0.110558	0
0.163121	0.138198	0.110558	0
0.163128	0.165837	0.0829187	0
0.163132	0.165837	0.0829187	0
0.163192	0.193477	0.0552792	0
0.163254	0.221117	0.0276396	0
0.167229	0.248756	0	0
0.207964	0.248756	0	0
0.264343	0.248756	0	0
0.264739	0.248756	0	0
0.265965	0.248756	0.0276396	0
0.266043	0.262576	0.0552792	0
0.266062	0.290216	0.0276396	0
0.301272	0.317855	0	0
0.30455	0.317855	0	0
0.306468	0.317855	0	0
0.306472	0.317855	0	0
0.306575	0.317855	0.0276396	0
0.307375	0.317855	0.0552792	0
0.307401	0.317855	0.0829187	0
0.307419	0.345495	0.0552792	0
0.307436	0.373134	0.0276396	0
0.307477	0.373134	0.0276396	0
0.309101	0.400774	0	0
0.313873	0.400774	0	0
0.314853	0.400774	0	0
0.315073	0.400774	0.0276396	0
0.315094	0.414594	0.0552792	0
0.315145	0.442233	0.0276396	0
0.315165	0.469873	0	0
0.315187	0.469873	0	0
0.353041	0.469873	0	0
0.353049	0.469873	0	0
0.353082	0.483693	0.0276396	0
0.381677	0.511332	0	0
0.383435	0.511332	0	0
0.38385	0.511332	0	0
0.383958	0.525152	0.0276396	0
0.391596	0.552792	0	0
0.394709	0.552792	0	0
0.42658	0.552792	0	0
0.427037	0.552792	0	0
0.427045	0.566611	0.0276396	0
0.429168	0.594251	0	0
0.430085	0.594251	0	0
0.43009	0.608071	0.0276396	0
0.449451	0.63571	0	0
0.4523	0.63571	0	0
0.454148	0.63571	0	0
0.454154	0.63571	0	0
0.481025	0.63571	0	0
0.481871	0.63571	0	0
0.481884	0.64953	0.0276396	0
0.481899	0.64953	0.0276396	0
0.482116	0.64953	0.0276396	0
0.528566	0.67717	0	0
0.596496	0.67717	0	0
0.597368	0.67717	0	0
0.597733	0.67717	0	0.0909918
0.597769	0.690989	0.0276396	0.0909918
0.626993	0.718629	0	0.0909918
0.642601	0.718629	0	0.272975
0.643151	0.718629	0	0.272975
0.643158	0.732449	0.0276396	0.272975
0.673562	0.760088	0	0.272975
0.67411	0.760088	0	0.272975
0.674686	0.760088	0	0.272975
0.718099	0.760088	0	0.272975
0.729207	0.760088	0	0.272975
0.732718	0.760088	0	0.272975
0.733248	0.760088	0	0.272975
0.733252	0.773908	0.0276396	0.272975
0.733255	0.801548	0	0.272975
0.733323	0.801548	0	0.272975
0.741689	0.801548	0	0.272975
0.742981	0.801548	0	0.272975
0.744085	0.801548	0	0.272975
0.744171	0.815368	0.0276396	0.272975
0.76911	0.843007	0	0.272975
0.776524	0.843007	0	0.272975
0.776779	0.843007	0	0.272975
0.776813	0.843007	0.0552792	0.272975
0.776817	0.870647	0.0276396	0.272975
0.777252	0.898286	0	0.272975
0.802155	0.898286	0	0.272975
0.813288	0.898286	0	0.272975
0.813327	0.898286	0	0.272975
0.813342	0.912106	0.0276396	0.272975
0.813344	0.912106	0.0276396	0.272975
0.8191	0.939746	0	0.272975
0.819141	0.939746	0	0.272975
0.819142	0.939746	0	0.272975
0.840193	0.939746	0	0.272975
0.840207	0.939746	0	0.272975
0.840217	0.953566	0.0276396	0.272975
0.840235	0.953566	0.0276396	0.272975
0.84025	0.953566	0.0276396	0.272975
0.862517	0.981205	0	0.272975
0.862821	0.981205	0	0.272975
0.863472	0.981205	0.0276396	0.272975
0.877619	0.981205	0.0552792	0.272975
0.877665	0.981205	0.0552792	0.272975
0.877686	0.995025	0.0829187	0.272975
0.888999	1.02266	0.0552792	0.272975
0.889002	1.02266	0.0552792	0.363967
0.889003	1.0503	0.0276396	0.363967
0.889024	1.0503	0.0276396	0.363967
0.889029	1.0503	0.0276396	0.363967
0.889065	1.07794	0	0.363967
0.889065	1.07794	0	0.363967
0.889103	1.07794	0	0.363967
0.906404	1.07794	0	0.363967
0.906501	1.07794	0	0.363967
0.913629	1.07794	0	0.363967
0.934807	1.07794	0	0.454959
0.942493	1.07794	0	0.545951
0.944271	1.07794	0	0.545951
0.9447	1.07794	0	0.545951
0.945243	1.07794	0.0276396	0.545951
0.94652	1.07794	0.0552792	0.545951
0.947	1.07794	0.0829187	0.545951
0.947435	1.07794	0.110558	0.545951
0.947821	1.07794	0.138198	0.545951
0.948754	1.07794	0.165837	0.545951
0.949322	1.07794	0.193477	0.545951
0.950558	1.07794	0.221117	0.545951
0.95056	1.07794	0.248756	0.545951
0.998576	1.10558	0.221117	0.545951
0.998583	1.10558	0.221117	0.545951
0.998589	1.13322	0.193477	0.545951
0.998599	1.16086	0.165837	0.545951
0.998607	1.1885	0.138198	0.545951
0.998646	1.21614	0.110558	0.545951
0.998669	1.24378	0.0829187	0.545951
0.998681	1.27142	0.0552792	0.545951
0.998694	1.29906	0.0276396	0.545951
1.05676	1.3267	0	0.545951
1.07664	1.3267	0	0.636943
1.08558	1.3267	0	0.636943
1.10082	1.3267	0	0.727934
1.10084	1.3267	0	0.727934
1.10085	1.34052	0.0276396	0.727934
1.10092	1.36816	0	0.727934
1.10095	1.36816	0	0.727934
1.17264	1.36816	0	0.727934
1.17273	1.36816	0	0.727934
1.17285	1.36816	0.0276396	0.727934
1.17379	1.36816	0.0552792	0.727934
1.17394	1.36816	0.0829187	0.727934
1.17413	1.36816	0.110558	0.727934
1.17469	1.36816	0.138198	0.727934
1.17469	1.36816	0.165837	0.727934
1.17471	1.3958	0.138198	0.727934
1.17472	1.42344	0.110558	0.727934
1.17476	1.45108	0.0829187	0.727934
1.17476	1.45108	0.0829187	0.727934
1.1748	1.45108	0.0829187	0.727934
1.17482	1.47872	0.0552792	0.727934
1.17486	1.50636	0.0276396	0.727934
1.18546	1.534	0	0.727934
1.18617	1.534	0	0.727934
1.18623	1.54782	0.0276396	0.727934
1.19429	1.57546	0	0.727934
1.23563	1.57546	0	0.909918
1.23564	1.57546	0	0.909918
1.23568	1.57546	0	0.909918
1.23856	1.57546	0	0.909918
1.23858	1.57546	0	0.909918
1.23861	1.57546	0	0.909918
1.24238	1.57546	0	0.909918
1.24325	1.57546	0	0.909918
1.24328	1.58928	0.0276396	0.909918
1.24329	1.61692	0	0.909918
1.24705	1.61692	0	0.909918
1.24754	1.61692	0	0.909918
1.24851	1.61692	0.0276396	0.909918
1.24938	1.61692	0.0552792	0.909918
1.24953	1.61692	0.0829187	0.909918
1.25022	1.61692	0.110558	0.909918
1.25039	1.61692	0.138198	0.909918
1.25073	1.61692	0.165837	0.909918
1.25155	1.61692	0.193477	0.909918
1.25189	1.61692	0.221117	0.909918
1.25189	1.63074	0.248756	0.909918
1.2519	1.65837	0.221117	0.909918
1.2519	1.68601	0.193477	0.909918
1.2519	1.68601	0.193477	0.909918
1.25191	1.71365	0.165837	0.909918
1.25196	1.74129	0.138198	0.909918
1.25197	1.76893	0.110558	0.909918
1.25197	1.76893	0.110558	0.909918
1.25201	1.79657	0.0829187	0.909918
1.25201	1.82421	0.0552792	0.909918
1.25202	1.82421	0.0552792	0.909918
1.25207	1.82421	0.0552792	0.909918
1.25211	1.85185	0.0276396	0.909918
1.25623	1.87949	0	0.909918
1.25677	1.87949	0	0.909918
1.25695	1.89331	0.0276396	0.909918
1.26413	1.92095	0	0.909918
1.26464	1.92095	0	0.909918
1.26508	1.93477	0.0276396	0.909918
1.27156	1.96241	0	0.909918
1.27221	1.96241	0	0.909918
1.2724	1.96241	0.0276396	0.909918
1.2726	1.96241	0.0552792	0.909918
1.27312	1.96241	0.0829187	0.909918
1.29678	1.96241	0.110558	0.909918
1.29679	1.96241	0.110558	0.909918
1.29679	1.99005	0.0829187	0.909918
1.2968	2.01769	0.0552792	0.909918
1.29681	2.04533	0.0276396	0.909918
1.29683	2.04533	0.0276396	0.909918
1.29691	2.04533	0.0276396	0.909918
1.29695	2.07297	0	0.909918
1.29696	2.08679	0.0276396	0.909918
1.30709	2.11443	0	0.909918
1.30731	2.11443	0	0.909918
1.30731	2.12825	0.0276396	0.909918
1.31553	2.15589	0	0.909918
1.3156	2.15589	0	0.909918
1.31609	2.15589	0	1.00091
1.31615	2.16971	0.0276396	1.00091
1.37118	2.19735	0	1.00091
1.37197	2.19735	0	1.00091
1.37231	2.21117	0.0276396	1.00091
1.37282	2.23881	0	1.00091
1.37877	2.23881	0	1.0919
1.37915	2.23881	0	1.0919
1.37919	2.23881	0.0276396	1.0919
1.3792	2.25263	0.0552792	1.0919
1.37921	2.25263	0.0552792	1.0919
1.37923	2.25263	0.0552792	1.0919
1.37926	2.28027	0.0276396	1.0919
1.4057	2.3079	0	1.0919
1.40572	2.3079	0	1.0919
1.40572	2.3079	0	1.0919
1.40576	2.3079	0	1.0919
1.41354	2.3079	0	1.0919
1.4333	2.3079	0	1.0919
1.43367	2.3079	0	1.0919
1.43368	2.32172	0.0276396	1.0919
1.43395	2.32172	0.0276396	1.0919
1.44634	2.34936	0	1.0919
1.44644	2.34936	0	1.0919
1.44649	2.36318	0.0276396	1.0919
1.44709	2.39082	0	1.0919
1.45524	2.39082	0	1.0919
1.47392	2.39082	0	1.0919
1.48355	2.39082	0	1.0919
1.49925	2.39082	0	1.0919
1.4997	2.39082	0	1.0919
1.50046	2.39082	0.0276396	1.0919
1.50047	2.40464	0.0552792	1.0919
1.50053	2.43228	0.0276396	1.0919
1.52761	2.45992	0	1.0919
1.56069	2.45992	0	1.27389
1.56685	2.45992	0	1.27389
1.60434	2.45992	0	1.27389
1.60441	2.45992	0	1.27389
1.60442	2.47374	0.0276396	1.27389
1.60443	2.50138	0	1.27389
1.62107	2.50138	0	1.27389
1.6212	2.50138	0	1.27389
1.62121	2.5152	0.0276396	1.27389
1.64177	2.54284	0	1.27389
1.65443	2.54284	0	1.36488
1.65467	2.54284	0	1.36488
1.66908	2.54284	0	1.36488
1.67509	2.54284	0	1.45587
1.67585	2.54284	0	1.45587
1.67589	2.55666	0.0276396	1.45587
1.70078	2.5843	0	1.45587
1.7008	2.5843	0	1.45587
1.7022	2.5843	0	1.45587
1.71658	2.5843	0	1.54686
1.72026	2.5843	0	1.54686
1.72064	2.5843	0	1.54686
1.72105	2.5843	0.0276396	1.54686
1.72106	2.59812	0.0552792	1.54686
1.72107	2.62576	0.0276396	1.54686
1.72666	2.6534	0	1.54686
1.72674	2.6534	0	1.54686
1.72681	2.66722	0.0276396	1.54686
1.74066	2.69486	0	1.54686
1.76974	2.69486	0	1.54686
1.78699	2.69486	0	1.63785
1.85222	2.69486	0	1.63785
1.86548	2.69486	0	1.72884
1.87754	2.69486	0	1.72884
1.87766	2.69486	0	1.72884
1.87891	2.69486	0.0276396	1.72884
1.87908	2.69486	0.0276396	1.72884
1.8792	2.69486	0.0552792	1.72884
1.8792	2.69486	0.110558	1.72884
1.87922	2.7225	0.0829187	1.72884
1.87924	2.75014	0.0552792	1.72884
1.87925	2.77778	0.0276396	1.72884
1.87929	2.77778	0.0276396	1.72884
1.8796	2.80542	0	1.72884
1.87973	2.81924	0.0276396	1.72884
1.8804	2.84688	0	1.72884
1.88092	2.84688	0	1.72884
1.94721	2.84688	0.0276396	1.72884
1.94752	2.84688	0.0276396	1.72884
1.94845	2.84688	0.0552792	1.72884
1.94848	2.8607	0.0829187	1.72884
1.94849	2.88834	0.0552792	1.72884
1.94854	2.91598	0.0276396	1.72884
1.94996	2.94362	0	1.72884
2.0544	2.94362	0	1.91083
2.05513	2.94362	0	1.91083
2.05514	2.94362	0.0552792	1.91083
2.05515	2.97125	0.0276396	1.91083
2.09021	2.99889	0	1.91083
2.0915	2.99889	0	1.91083
2.09158	3.01271	0.0276396	1.91083
2.12956	3.04035	0	1.91083
2.14811	3.04035	0	2.09281
2.14822	3.04035	0	2.09281
2.14924	3.04035	0.0276396	2.09281
2.14926	3.04035	0.0552792	2.09281
2.14941	3.04035	0.0829187	2.09281
2.14941	3.05417	0.110558	2.09281
2.14941	3.08181	0.0829187	2.09281
2.14942	3.08181	0.0829187	2.09281
2.14942	3.10945	0.0552792	2.09281
2.14945	3.10945	0.0552792	2.09281
2.14946	3.13709	0.0276396	2.09281
2.17021	3.16473	0	2.09281
2.17235	3.16473	0	2.09281
2.17235	3.17855	0.0276396	2.09281
2.23335	3.20619	0	2.09281
2.28944	3.20619	0	2.1838
2.30749	3.20619	0	2.1838
2.30808	3.20619	0	2.1838
2.30835	3.20619	0.0276396	2.1838
2.30838	3.22001	0.0552792	2.1838
2.30839	3.24765	0.0276396	2.1838
2.32286	3.27529	0	2.1838
2.34518	3.27529	0	2.36579
2.35005	3.27529	0	2.54777
2.35005	3.27529	0	2.54777
2.35011	3.27529	0	2.54777
2.35014	3.27529	0	2.54777
2.35025	3.27529	0	2.54777
2.35027	3.27529	0	2.54777
2.43421	3.27529	0	2.54777
2.43428	3.27529	0	2.54777
2.43437	3.28911	0.0276396	2.54777
2.43694	3.31675	0	2.54777
2.44969	3.31675	0	2.72975
2.45004	3.31675	0	2.72975
2.45006	3.33057	0.0276396	2.72975
2.45451	3.35821	0	2.72975
2.45495	3.35821	0	2.72975
2.45499	3.37203	0.0276396	2.72975
2.455	3.39967	0	2.72975
2.46326	3.39967	0	2.72975
2.4634	3.39967	0	2.72975
2.46345	3.41349	0.0276396	2.72975
2.4728	3.44113	0	2.72975
2.47345	3.44113	0	2.72975
2.4736	3.45495	0.0276396	2.72975
2.48127	3.48259	0	2.72975
2.48138	3.48259	0	2.72975
2.48146	3.49641	0.0276396	2.72975
2.48756	3.52405	0	2.72975
2.48778	3.52405	0	2.72975
2.48779	3.53787	0.0276396	2.72975
2.51857	3.56551	0	2.72975
2.51859	3.56551	0	2.72975
2.51859	3.57933	0.0276396	2.72975
2.52482	3.60697	0	2.72975
2.52808	3.60697	0	2.82075
2.52833	3.60697	0	2.82075
2.52937	3.60697	0.0276396	2.82075
2.52973	3.60697	0.0552792	2.82075
2.53108	3.60697	0.0829187	2.82075
2.53108	3.60697	0.110558	2.82075
2.5311	3.62078	0.138198	2.82075
2.5311	3.64842	0.110558	2.82075
2.53111	3.67606	0.0829187	2.82075
2.53112	3.67606	0.0829187	2.82075
2.53113	3.7037	0.0552792	2.82075
2.53114	3.73134	0.0276396	2.82075
2.53115	3.75898	0	2.82075
2.53119	3.75898	0	2.82075
2.54447	3.75898	0	2.82075
2.5466	3.75898	0	2.82075
2.5466	3.75898	0.0552792	2.82075
2.54674	3.78662	0.0276396	2.82075
2.57662	3.81426	0	2.82075
2.60169	3.81426	0	2.91174
2.60171	3.81426	0	3.00273
2.61033	3.81426	0	3.00273
2.61094	3.81426	0	3.00273
2.61101	3.82808	0.0276396	3.00273
2.66894	3.85572	0	3.00273
2.66948	3.85572	0	3.00273
2.66954	3.86954	0.0276396	3.00273
2.67049	3.89718	0	3.00273
2.7538	3.89718	0	3.09372
2.75759	3.89718	0	3.18471
2.75883	3.89718	0	3.18471
2.7589	3.911	0.0276396	3.18471
2.77837	3.93864	0	3.18471
2.80796	3.93864	0	3.27571
2.80837	3.93864	0	3.27571
2.80843	3.95246	0.0276396	3.27571
2.85941	3.9801	0	3.27571
2.87218	3.9801	0	3.27571
2.87221	3.9801	0	3.3667
2.89805	3.9801	0	3.3667
2.89821	3.9801	0	3.3667
2.89822	3.9801	0.0276396	3.3667
2.90115	4.00774	0	3.3667
2.90255	4.00774	0	3.3667
2.90256	4.02156	0.0276396	3.3667
2.92539	4.0492	0	3.3667
2.98355	4.0492	0	3.54868
2.98395	4.0492	0	3.54868
2.98421	4.0492	0.0276396	3.54868
2.98523	4.0492	0.0552792	3.54868
2.98605	4.0492	0.0829187	3.54868
2.98634	4.0492	0.110558	3.54868
2.98634	4.06302	0.138198	3.54868
2.98635	4.06302	0.138198	3.54868
2.98637	4.09066	0.110558	3.54868
2.98638	4.1183	0.0829187	3.54868
2.98647	4.14594	0.0552792	3.54868
2.98648	4.17358	0.0276396	3.54868
3.00153	4.20122	0	3.54868
3.00732	4.20122	0	3.54868
3.01699	4.20122	0	3.63967
3.01804	4.20122	0	3.63967
3.01806	4.20122	0.0276396	3.63967
3.01807	4.21504	0.0552792	3.63967
3.01811	4.24268	0.0276396	3.63967
3.05252	4.27032	0	3.63967
3.08318	4.27032	0	3.73066
3.08326	4.27032	0	3.73066
3.08345	4.27032	0.0276396	3.73066
3.08354	4.27032	0.0552792	3.73066
3.08357	4.28413	0.0829187	3.73066
3.08361	4.31177	0.0552792	3.73066
3.08363	4.31177	0.0552792	3.73066
3.0837	4.33941	0.0276396	3.73066
3.11732	4.36705	0	3.73066
3.11794	4.36705	0	3.73066
3.11801	4.36705	0.0552792	3.73066
3.11801	4.39469	0.0276396	3.73066
3.11805	4.42233	0	3.73066
3.13026	4.42233	0	3.73066
3.18629	4.42233	0	3.73066
3.19265	4.42233	0	3.82166
3.19331	4.42233	0	3.82166
3.19331	4.42233	0.0552792	3.82166
3.19335	4.44997	0.0276396	3.82166
3.21074	4.47761	0	3.82166
3.22615	4.47761	0	3.91265
3.22787	4.47761	0	3.91265
3.22799	4.47761	0	3.91265
3.22807	4.49143	0.0276396	3.91265
3.22849	4.51907	0	3.91265
3.2286	4.53289	0.0276396	3.91265
3.26223	4.56053	0	3.91265
3.28645	4.56053	0	4.00364
3.32545	4.56053	0	4.09463
3.35679	4.56053	0	4.18562
3.36711	4.56053	0	4.18562
3.36714	4.56053	0	4.18562
3.3672	4.57435	0.0276396	4.18562
3.38812	4.60199	0	4.18562
3.38871	4.60199	0	4.18562
3.38871	4.61581	0.0276396	4.18562
3.40973	4.64345	0	4.18562
3.40995	4.64345	0	4.18562
3.42495	4.64345	0.0276396	4.18562
3.42505	4.64345	0.0276396	4.18562
3.4251	4.65727	0.0552792	4.18562
3.51145	4.68491	0.0276396	4.18562
3.51146	4.68491	0.0276396	4.36761
3.52189	4.71255	0	4.36761
3.5346	4.71255	0	4.54959
3.53682	4.71255	0	4.54959
3.53713	4.71255	0	4.54959
3.53729	4.71255	0.0276396	4.54959
3.5373	4.72637	0.0552792	4.54959
3.5373	4.75401	0.0276396	4.54959
3.54187	4.78165	0	4.54959
3.5497	4.78165	0	4.73157
3.55409	4.78165	0	4.82257
3.55449	4.78165	0	4.82257
3.55453	4.79547	0.0276396	4.82257
3.61933	4.82311	0	4.82257
3.61949	4.82311	0	4.82257
3.6197	4.83693	0.0276396	4.82257
3.62462	4.86457	0	4.82257
3.62538	4.86457	0	4.82257
3.62539	4.86457	0.0276396	4.82257
3.62543	4.86457	0.0552792	4.82257
3.62548	4.89221	0.0276396	4.82257
3.68278	4.91985	0	4.82257
3.6834	4.91985	0	4.82257
3.68358	4.93367	0.0276396	4.82257
3.70226	4.9613	0	4.82257
3.70348	4.9613	0	4.82257
3.70359	4.9613	0.0552792	4.82257
3.70367	4.98894	0.0276396	4.82257
3.72885	5.01658	0	4.82257
3.72887	5.01658	0	4.82257
3.72889	5.0304	0.0276396	4.82257
3.78606	5.05804	0	4.82257
3.78909	5.05804	0	4.82257
3.78934	5.05804	0	4.82257
3.791	5.05804	0	4.91356
3.79104	5.05804	0	4.91356
3.79108	5.07186	0.0276396	4.91356
3.79108	5.0995	0	4.91356
3.79961	5.0995	0	4.91356
3.80018	5.0995	0	4.91356
3.8002	5.11332	0.0276396	4.91356
3.82548	5.14096	0	4.91356
3.8297	5.14096	0	5.09554
3.83097	5.14096	0	5.09554
3.83155	5.14096	0.0276396	5.09554
3.83155	5.15478	0.0552792	5.09554
3.83159	5.18242	0.0276396	5.09554
3.84276	5.21006	0	5.09554
3.85242	5.21006	0	5.27753
3.85254	5.21006	0	5.27753
3.85262	5.22388	0.0276396	5.27753
3.91787	5.25152	0	5.27753
3.91815	5.25152	0	5.27753
3.91847	5.25152	0.0276396	5.27753
3.91922	5.25152	0.0276396	5.36852
3.91924	5.26534	0.0552792	5.36852
3.91925	5.26534	0.0552792	5.36852
3.9193	5.29298	0.0276396	5.36852
3.94231	5.32062	0	5.36852
3.99466	5.32062	0	5.45951
3.99683	5.32062	0	5.64149
3.99802	5.32062	0	5.64149
3.99803	5.33444	0.0276396	5.64149
3.99803	5.36208	0	5.64149
3.99804	5.36208	0	5.64149
3.99804	5.36208	0	5.64149
4.02193	5.36208	0	5.64149
4.02207	5.36208	0	5.64149
4.02227	5.3759	0.0276396	5.64149
4.02829	5.40354	0	5.64149
4.02835	5.40354	0	5.64149
4.02836	5.41736	0.0276396	5.64149
4.03818	5.445	0	5.64149
4.03822	5.445	0	5.64149
4.03834	5.45882	0.0276396	5.64149
4.04301	5.48646	0	5.64149
4.04411	5.48646	0	5.64149
4.04413	5.48646	0.0552792	5.64149
4.04415	5.5141	0.0276396	5.64149
4.04788	5.54174	0	5.64149
4.04832	5.54174	0	5.64149
4.04896	5.54174	0.0276396	5.64149
4.04908	5.55556	0.0552792	5.64149
4.04913	5.5832	0.0276396	5.64149
4.05988	5.61083	0	5.64149
4.06013	5.61083	0	5.64149
4.06023	5.62465	0.0276396	5.64149
4.06256	5.65229	0	5.64149
4.0628	5.65229	0	5.64149
4.0628	5.66611	0.0276396	5.64149
4.06698	5.69375	0	5.64149
4.06721	5.69375	0	5.64149
4.06734	5.69375	0.0276396	5.64149
4.06736	5.70757	0.0552792	5.64149
4.06736	5.73521	0.0276396	5.64149
4.13758	5.76285	0	5.64149
4.13764	5.76285	0	5.64149
4.13799	5.76285	0.0276396	5.64149
4.13801	5.77667	0.0552792	5.64149
4.13804	5.80431	0.0276396	5.64149
4.14369	5.83195	0	5.64149
4.14447	5.83195	0	5.64149
4.14449	5.83195	0.0552792	5.64149
4.14458	5.85959	0.0276396	5.64149
4.17423	5.88723	0	5.64149
4.1937	5.88723	0	5.64149
4.24554	5.88723	0	5.73248
4.24642	5.88723	0	5.73248
4.24643	5.90105	0.0276396	5.73248
4.24768	5.92869	0	5.73248
4.24783	5.92869	0	5.73248
4.24785	5.92869	0.0552792	5.73248
4.24787	5.95633	0.0276396	5.73248
4.26253	5.98397	0	5.73248
4.31086	5.98397	0	5.91447
4.40483	5.98397	0	6.00546
4.41729	5.98397	0	6.09645
4.41773	5.98397	0	6.09645
4.41777	5.99779	0.0276396	6.09645
4.43503	6.02543	0	6.09645
4.4355	6.02543	0	6.09645
4.43555	6.03925	0.0276396	6.09645
4.45182	6.06689	0	6.09645
4.48596	6.06689	0	6.27843
4.48599	6.06689	0	6.27843
4.48672	6.06689	0.0276396	6.27843
4.48673	6.08071	0.0552792	6.27843
4.48688	6.10835	0.0276396	6.27843
4.53709	6.13599	0	6.27843
4.54818	6.13599	0	6.27843
4.59659	6.13599	0	6.36943
4.5968	6.13599	0	6.36943
4.63843	6.13599	0.0276396	6.36943
4.63846	6.13599	0.0276396	6.36943
4.63865	6.13599	0.0552792	6.36943
4.63869	6.16363	0.0276396	6.36943
4.63881	6.16363	0.0276396	6.36943
4.63882	6.17745	0.0552792	6.36943
4.63885	6.20509	0.0276396	6.36943
4.66292	6.23273	0	6.36943
4.66327	6.23273	0	6.36943
4.66327	6.24655	0.0276396	6.36943
4.69149	6.27418	0	6.36943
4.71125	6.27418	0	6.46042
4.71162	6.27418	0	6.46042
4.71179	6.288	0.0276396	6.46042
4.80318	6.31564	0	6.46042
4.8033	6.31564	0	6.46042
4.80338	6.32946	0.0276396	6.46042
4.8151	6.3571	0	6.46042
4.83932	6.3571	0	6.46042
4.85722	6.3571	0	6.46042
4.87073	6.3571	0	6.55141
4.87081	6.3571	0	6.55141
4.87095	6.3571	0.0276396	6.55141
4.87137	6.3571	0.0552792	6.55141
4.8714	6.37092	0.0829187	6.55141
4.87146	6.39856	0.0552792	6.55141
4.87146	6.4262	0.0276396	6.55141
4.90197	6.45384	0	6.55141
4.90213	6.45384	0	6.55141
4.90219	6.46766	0.0276396	6.55141
4.90219	6.4953	0	6.55141
4.9022	6.4953	0	6.55141
4.93109	6.4953	0	6.55141
4.93188	6.4953	0	6.55141
4.93192	6.50912	0.0276396	6.55141
4.94649	6.53676	0	6.55141
4.94651	6.53676	0	6.6424
4.95052	6.53676	0	6.6424
4.95058	6.53676	0	6.6424
4.95062	6.55058	0.0276396	6.6424
4.95063	6.57822	0	6.6424
4.98459	6.57822	0	6.6424
4.98553	6.57822	0	6.6424
4.98767	6.57822	0.0276396	6.6424
4.98767	6.59204	0.0552792	6.6424
4.98769	6.61968	0.0276396	6.6424
5.09183	6.64732	0	6.6424
5.09293	6.64732	0	6.73339
5.09519	6.64732	0	6.82439
5.09678	6.64732	0	6.82439
5.09678	6.64732	0.0552792	6.82439
5.09678	6.67496	0.0276396	6.82439
5.17876	6.7026	0	6.82439
5.17894	6.7026	0	6.82439
5.17976	6.7026	0.0276396	6.82439
5.17977	6.71642	0.0552792	6.82439
5.17987	6.71642	0.0552792	6.82439
5.17989	6.74406	0.0276396	6.82439
5.21222	6.7717	0	6.82439
5.2124	6.7717	0	6.82439
5.21261	6.7717	0.0276396	6.82439
5.21263	6.78552	0.0552792	6.82439
5.21278	6.81316	0.0276396	6.82439
5.21688	6.8408	0	6.82439
5.23381	6.8408	0	6.91538
5.23404	6.8408	0	6.91538
5.23407	6.85462	0.0276396	6.91538
5.27912	6.88226	0	6.91538
5.28117	6.88226	0	6.91538
5.2812	6.89608	0.0276396	6.91538
5.31377	6.92371	0	6.91538
5.3142	6.92371	0	6.91538
5.31421	6.93753	0.0276396	6.91538
5.33176	6.96517	0	6.91538
5.34052	6.96517	0	7.09736
5.3564	6.96517	0	7.27934
5.43356	6.96517	0	7.27934
5.43379	6.96517	0	7.27934
5.43381	6.97899	0.0276396	7.27934
5.45846	7.00663	0	7.27934
5.45876	7.00663	0	7.27934
5.45879	7.00663	0.0552792	7.27934
5.4588	7.03427	0.0276396	7.27934
5.45881	7.03427	0.0276396	7.27934
5.51207	7.06191	0	7.27934
5.51211	7.06191	0	7.27934
5.51215	7.07573	0.0276396	7.27934
5.53013	7.10337	0	7.27934
5.54386	7.10337	0	7.27934
5.54465	7.10337	0	7.27934
5.54494	7.10337	0.0276396	7.27934
5.54496	7.11719	0.0552792	7.27934
5.54501	7.14483	0.0276396	7.27934
5.61804	7.17247	0	7.27934
5.7111	7.17247	0	7.46133
5.71135	7.17247	0	7.46133
5.71179	7.17247	0.0276396	7.46133
5.71182	7.18629	0.0552792	7.46133
5.71193	7.21393	0.0276396	7.46133
5.77829	7.24157	0	7.46133
5.78537	7.24157	0	7.64331
5.78549	7.24157	0	7.64331
5.7855	7.25539	0.0276396	7.64331
5.78935	7.28303	0	7.64331
5.81492	7.28303	0	7.8253
5.86305	7.28303	0	7.91629
5.86474	7.28303	0	7.91629
5.86479	7.29685	0.0276396	7.91629
5.87571	7.32449	0	7.91629
5.87578	7.32449	0	7.91629
5.87636	7.32449	0.0276396	7.91629
5.87637	7.33831	0.0552792	7.91629
5.87637	7.36595	0.0276396	7.91629
5.94735	7.39359	0	7.91629
5.95864	7.39359	0	8.09827
5.95891	7.39359	0	8.09827
5.95924	7.39359	0.0276396	8.09827
5.95926	7.40741	0.0552792	8.09827
5.95935	7.43505	0.0276396	8.09827
5.96644	7.46269	0	8.09827
5.96652	7.46269	0	8.09827
5.96656	7.47651	0.0276396	8.09827
5.97101	7.50415	0	8.09827
5.97969	7.50415	0	8.18926
6.0266	7.50415	0	8.37125
6.06162	7.50415	0	8.46224
6.07287	7.50415	0	8.55323
6.07316	7.50415	0	8.55323
6.07318	7.50415	0.0552792	8.55323
6.07321	7.53179	0.0276396	8.55323
6.08631	7.55943	0	8.55323
6.08791	7.55943	0	8.55323
6.08795	7.55943	0.0276396	8.55323
6.08801	7.57324	0.0552792	8.55323
6.08813	7.60088	0.0276396	8.55323
6.14796	7.62852	0	8.55323
6.14838	7.62852	0	8.55323
6.14862	7.62852	0.0276396	8.55323
6.14863	7.64234	0.0552792	8.55323
6.14874	7.66998	0.0276396	8.55323
6.16791	7.69762	0	8.55323
6.16829	7.69762	0	8.55323
6.16837	7.71144	0.0276396	8.55323
6.21613	7.73908	0	8.55323
6.21639	7.73908	0	8.55323
6.21706	7.73908	0.0276396	8.55323
6.21707	7.7529	0.0552792	8.55323
6.21708	7.78054	0.0276396	8.55323
6.22712	7.80818	0	8.55323
6.22727	7.80818	0	8.55323
6.22733	7.822	0.0276396	8.55323
6.26703	7.84964	0	8.55323
6.26733	7.84964	0	8.55323
6.30538	7.84964	0.0276396	8.55323
6.30563	7.84964	0.0276396	8.73521
6.32384	7.87728	0	8.73521
6.3791	7.87728	0	8.82621
6.37927	7.87728	0	8.82621
6.37977	7.87728	0.0276396	8.82621
6.37979	7.8911	0.0552792	8.82621
6.37984	7.91874	0.0276396	8.82621
6.38484	7.94638	0	8.82621
6.38547	7.94638	0	8.82621
6.38559	7.9602	0.0276396	8.82621
6.38815	7.98784	0	8.82621
6.38828	7.98784	0	8.82621
6.3883	8.00166	0.0276396	8.82621
6.43243	8.0293	0	8.82621
6.43366	8.0293	0	8.82621
6.43366	8.04312	0.0276396	8.82621
6.43797	8.07076	0	8.82621
6.45834	8.07076	0	8.82621
6.45868	8.07076	0	8.82621
6.45869	8.08458	0.0276396	8.82621
6.53463	8.11222	0	8.82621
6.53489	8.11222	0	8.82621
6.53496	8.12604	0.0276396	8.82621
6.57036	8.15368	0	8.82621
6.57078	8.15368	0	8.82621
6.57087	8.15368	0.0276396	8.82621
6.57087	8.1675	0.0552792	8.82621
6.5709	8.19514	0.0276396	8.82621
6.59276	8.22278	0	8.82621
6.59355	8.22278	0	8.82621
6.59355	8.23659	0.0276396	8.82621
6.74105	8.26423	0	8.82621
6.74198	8.26423	0	8.82621
7.01774	8.26423	0.0276396	8.82621
7.0179	8.26423	0.0276396	9.00819
7.05847	8.29187	0	9.00819
7.06795	8.29187	0	9.09918
7.06808	8.29187	0	9.09918
7.06823	8.29187	0.0276396	9.09918
7.06826	8.30569	0.0552792	9.09918
7.06829	8.30569	0.0552792	9.09918
7.0683	8.33333	0.0276396	9.09918
7.0683	8.33333	0.0276396	9.09918
7.09286	8.36097	0	9.09918
7.10634	8.36097	0	9.19017
7.10667	8.36097	0	9.19017
7.10668	8.37479	0.0276396	9.19017
7.19813	8.40243	0	9.19017
7.23283	8.40243	0	9.37216
7.23353	8.40243	0	9.37216
7.23357	8.40243	0.0276396	9.37216
7.31422	8.43007	0	9.37216
7.31453	8.43007	0	9.37216
7.31475	8.44389	0.0276396	9.37216
7.35343	8.47153	0	9.37216
7.35347	8.47153	0	9.37216
7.35352	8.48535	0.0276396	9.37216
7.39374	8.51299	0	9.37216
7.43238	8.51299	0	9.55414
7.48864	8.51299	0	9.73612
7.48934	8.51299	0	9.73612
7.48939	8.52681	0.0276396	9.73612
7.53166	8.55445	0	9.73612
7.53186	8.55445	0	9.73612
7.53193	8.56827	0.0276396	9.73612
7.65053	8.59591	0	9.73612
7.65098	8.59591	0	9.73612
7.65101	8.60973	0.0276396	9.73612
7.69163	8.63737	0	9.73612
7.69244	8.63737	0	9.73612
7.69246	8.65119	0.0276396	9.73612
7.69493	8.67883	0	9.73612
7.72129	8.67883	0	9.82712
7.72151	8.67883	0	9.82712
7.72195	8.67883	0.0276396	9.82712
7.72195	8.69265	0.0552792	9.82712
7.722	8.72029	0.0276396	9.82712
7.73485	8.74793	0	9.82712
7.73603	8.74793	0	9.91811
7.81724	8.74793	0	10.1001
7.91092	8.74793	0	10.1911
7.91392	8.74793	0	10.3731
7.91476	8.74793	0	10.5551
7.91565	8.74793	0	10.5551
7.91565	8.76175	0.0276396	10.5551
7.92303	8.78939	0	10.5551
7.95735	8.78939	0	10.737
8.02068	8.78939	0	10.919
8.0207	8.78939	0	10.919
8.02079	8.78939	0.0552792	10.919
8.02093	8.81703	0.0276396	10.919
8.05113	8.84467	0	10.919
8.17202	8.84467	0	11.01
8.17295	8.84467	0	11.01
8.17315	8.84467	0.0276396	11.01
8.17346	8.84467	0.0552792	11.01
8.17346	8.84467	0.0829187	11.01
8.17347	8.87231	0.0552792	11.01
8.17348	8.89994	0.0276396	11.01
8.17352	8.89994	0.0276396	11.01
8.18868	8.92758	0	11.01
8.19027	8.92758	0	11.01
8.19028	8.9414	0.0276396	11.01
8.19748	8.96904	0	11.01
8.19808	8.96904	0	11.01
8.19812	8.98286	0.0276396	11.01
8.24905	9.0105	0	11.01
8.24913	9.0105	0	11.01
8.24927	9.02432	0.0276396	11.01
8.31808	9.05196	0	11.01
8.31937	9.05196	0	11.01
8.31939	9.05196	0.0552792	11.01
8.31944	9.0796	0.0276396	11.01
8.38493	9.10724	0	11.01
8.38511	9.10724	0	11.01
8.38522	9.12106	0.0276396	11.01
8.47196	9.1487	0	11.01
8.47197	9.1487	0	11.01
8.6834	9.1487	0.0276396	11.01
8.68342	9.1487	0.0276396	11.101
8.7394	9.17634	0	11.101
8.74045	9.17634	0	11.101
8.74056	9.19016	0.0276396	11.101
8.8026	9.2178	0	11.101
8.80285	9.2178	0	11.101
8.80287	9.23162	0.0276396	11.101
8.86697	9.25926	0	11.101
8.86852	9.25926	0	11.101
8.86853	9.27308	0.0276396	11.101
8.8849	9.30072	0	11.101
8.88526	9.30072	0	11.101
8.88533	9.30072	0.0552792	11.101
8.88536	9.32836	0.0276396	11.101
8.93111	9.356	0	11.101
8.93201	9.356	0	11.101
8.93202	9.36982	0.0276396	11.101
8.94772	9.39746	0	11.101
8.97001	9.39746	0	11.283
9.03448	9.39746	0	11.374
9.08367	9.39746	0	11.465
9.08385	9.39746	0	11.465
9.08385	9.39746	0.0552792	11.465
9.08394	9.4251	0.0276396	11.465
9.17169	9.45274	0	11.465
9.17197	9.45274	0	11.465
9.17197	9.45274	0.0552792	11.465
9.17199	9.48038	0.0276396	11.465
9.20092	9.50802	0	11.465
9.20147	9.50802	0	11.465
9.20212	9.50802	0.0276396	11.465
9.20217	9.52184	0.0552792	11.465
9.20219	9.54947	0.0276396	11.465
9.29289	9.57711	0	11.465
9.31316	9.57711	0	11.647
9.31347	9.57711	0	11.647
9.31348	9.59093	0.0276396	11.647
9.36985	9.61857	0	11.647
9.41125	9.61857	0	11.7379
9.44607	9.61857	0	11.9199
9.4473	9.61857	0	11.9199
9.55081	9.61857	0.0276396	11.9199
9.55083	9.61857	0.0276396	11.9199
9.55139	9.64621	0	11.9199
9.55181	9.64621	0.0276396	11.9199
9.55183	9.66003	0.0552792	11.9199
9.55184	9.68767	0.0276396	11.9199
9.5673	9.71531	0	11.9199
9.64563	9.71531	0	12.1019
9.64607	9.71531	0	12.1019
9.64611	9.72913	0.0276396	12.1019
9.73232	9.75677	0	12.1019
9.73241	9.75677	0	12.1019
9.73254	9.75677	0.0276396	12.1019
9.7328	9.75677	0.0552792	12.1019
9.73389	9.75677	0.0829187	12.1019
9.7339	9.75677	0.110558	12.1019
9.73495	9.75677	0.138198	12.1019
9.73497	9.75677	0.165837	12.1019
9.73514	9.75677	0.193477	12.1019
9.73515	9.77059	0.221117	12.1019
9.73515	9.79823	0.193477	12.1019
9.73515	9.82587	0.165837	12.1019
9.73517	9.85351	0.138198	12.1019
9.73518	9.88115	0.110558	12.1019
9.73518	9.90879	0.0829187	12.1019
9.73525	9.93643	0.0552792	12.1019
9.73527	9.96407	0.0276396	12.1019
9.73531	9.99171	0	12.1019
9.80782	9.99171	0	12.1019
9.80796	9.99171	0	12.1019
9.80797	10.0055	0.0276396	12.1019
9.93644	10.0332	0	12.1019
9.93684	10.0332	0	12.1019
9.93685	10.047	0.0276396	12.1019
9.94849	10.0746	0	12.1019
9.94906	10.0746	0	12.1019
9.94907	10.0884	0.0276396	12.1019
9.96523	10.1161	0	12.1019
9.96556	10.1161	0	12.1019
9.96575	10.1161	0.0276396	12.1019
9.96577	10.1299	0.0552792	12.1019
9.9658	10.1575	0.0276396	12.1019
9.98064	10.1852	0	12.1019
10.0124	10.1852	0	12.2839
10.0126	10.1852	0	12.2839
10.0126	10.1852	0.0552792	12.2839
10.0127	10.2128	0.0276396	12.2839
10.1793	10.2405	0	12.2839
10.2247	10.2405	0	12.4659
10.2581	10.2405	0	12.6479
10.2582	10.2405	0	12.6479
10.3841	10.2405	0.0276396	12.6479
10.3842	10.2405	0.0276396	12.6479
10.3846	10.2681	0	12.6479
10.3849	10.2681	0.0276396	12.6479
10.3849	10.2681	0.0552792	12.6479
10.385	10.2957	0.0276396	12.6479
10.4182	10.3234	0	12.6479
10.4498	10.3234	0	12.8298
10.4502	10.3234	0	12.8298
10.4502	10.3372	0.0276396	12.8298
10.4604	10.3648	0	12.8298
10.461	10.3648	0	12.8298
10.461	10.3648	0.0276396	12.8298
10.4798	10.3925	0	12.8298
10.4808	10.3925	0	12.8298
10.4808	10.4063	0.0276396	12.8298
10.5125	10.4339	0	12.8298
10.5711	10.4339	0	13.0118
10.5981	10.4339	0	13.1938
10.5988	10.4339	0	13.1938
10.5988	10.4339	0.0552792	13.1938
10.5988	10.4616	0.0276396	13.1938
10.6508	10.4892	0	13.1938
10.6511	10.4892	0	13.1938
10.6511	10.503	0.0276396	13.1938
10.6771	10.5307	0	13.1938
10.6774	10.5307	0	13.1938
10.6775	10.5307	0.0552792	13.1938
10.6776	10.5583	0.0276396	13.1938
10.6843	10.586	0	13.1938
10.6952	10.586	0	13.3758
10.6959	10.586	0	13.3758
10.696	10.5998	0.0276396	13.3758
10.7084	10.6274	0	13.3758
10.7084	10.6274	0	13.3758
10.7084	10.6274	0.0552792	13.3758
10.7084	10.6551	0.0276396	13.3758
10.7291	10.6827	0	13.3758
10.7294	10.6827	0	13.3758
10.7294	10.6827	0.0552792	13.3758
10.7296	10.7103	0.0276396	13.3758
10.8508	10.738	0	13.3758
10.851	10.738	0	13.3758
10.851	10.7518	0.0276396	13.3758
11.0003	10.7794	0	13.3758
11.0007	10.7794	0	13.3758
11.0014	10.7794	0.0276396	13.3758
11.0017	10.7794	0.0552792	13.3758
11.0022	10.7794	0.0829187	13.3758
11.0023	10.7794	0.110558	13.3758
11.0024	10.7794	0.138198	13.3758
11.0024	10.7933	0.165837	13.3758
11.0024	10.7933	0.165837	13.3758
11.0024	10.8209	0.138198	13.3758
11.0024	10.8485	0.110558	13.3758
11.0025	10.8762	0.0829187	13.3758
11.0025	10.9038	0.0552792	13.3758
11.0026	10.9315	0.0276396	13.3758
11.1059	10.9591	0	13.3758
11.286	10.9591	0	13.4668
11.2869	10.9591	0	13.4668
11.2869	10.9729	0.0276396	13.4668
11.4393	11.0006	0	13.4668
11.4795	11.0006	0	13.5578
11.4803	11.0006	0	13.5578
11.4803	11.0006	0.0552792	13.5578
11.4803	11.0282	0.0276396	13.5578
11.5092	11.0558	0	13.5578
11.5747	11.0558	0	13.6488
11.5748	11.0558	0	13.6488
11.5748	11.0697	0.0276396	13.6488
11.5845	11.0973	0	13.6488
11.728	11.0973	0	13.7398
11.7281	11.0973	0	13.7398
11.7285	11.0973	0.0276396	13.7398
11.7286	11.1111	0.0552792	13.7398
11.7286	11.1388	0.0276396	13.7398
11.7361	11.1664	0	13.7398
11.7369	11.1664	0	13.7398
11.7369	11.1802	0.0276396	13.7398
11.8281	11.2078	0	13.7398
11.854	11.2078	0	13.8308
11.854	11.2078	0	13.8308
11.8543	11.2217	0.0276396	13.8308
11.9135	11.2493	0	13.8308
11.9146	11.2493	0	13.8308
11.9146	11.2631	0.0276396	13.8308
12.0766	11.2908	0	13.8308
12.2266	11.2908	0	13.9217
12.2267	11.2908	0	13.9217
12.2268	11.2908	0.0276396	13.9217
12.2697	11.2908	0.0552792	13.9217
12.2697	11.2908	0.0552792	14.0127
12.2699	11.3184	0.0276396	14.0127
12.2761	11.346	0	14.0127
12.2765	11.346	0	14.0127
12.2765	11.3599	0.0276396	14.0127
12.3555	11.3875	0	14.0127
12.3569	11.3875	0	14.0127
12.3569	11.3875	0.0552792	14.0127
12.3571	11.4151	0.0276396	14.0127
12.4315	11.4428	0	14.0127
12.4537	11.4428	0	14.1037
12.4537	11.4428	0	14.1037
12.4537	11.4428	0.0552792	14.1037
12.4537	11.4704	0.0276396	14.1037
12.5334	11.4981	0	14.1037
12.5337	11.4981	0	14.1037
12.5337	11.4981	0.0552792	14.1037
12.5339	11.5257	0.0276396	14.1037
12.5813	11.5533	0	14.1037
12.582	11.5533	0	14.1037
12.5821	11.5533	0.0552792	14.1037
12.5822	11.581	0.0276396	14.1037
12.7048	11.6086	0	14.1037
12.7053	11.6086	0	14.1037
12.7053	11.6224	0.0276396	14.1037
12.7693	11.6501	0	14.1037
12.7694	11.6501	0	14.1037
12.7696	11.6639	0.0276396	14.1037
12.9541	11.6915	0	14.1037
12.9544	11.6915	0	14.1037
12.9545	11.6915	0.0552792	14.1037
12.9545	11.7192	0.0276396	14.1037
12.9931	11.7468	0	14.1037
12.9938	11.7468	0	14.1037
12.9938	11.7606	0.0276396	14.1037
12.9975	11.7883	0	14.1037
13.0694	11.7883	0	14.2857
13.1516	11.7883	0	14.4677
13.2824	11.7883	0	14.6497
13.363	11.7883	0	14.8317
13.363	11.7883	0	14.8317
13.3632	11.8021	0.0276396	14.8317
13.507	11.8297	0	14.8317
13.5593	11.8297	0	15.0136
13.5597	11.8297	0	15.0136
13.5597	11.8436	0.0276396	15.0136
13.7198	11.8712	0	15.0136
13.7439	11.8712	0	15.1046
13.7453	11.8712	0	15.1046
13.7453	11.8712	0.0552792	15.1046
13.7454	11.8988	0.0276396	15.1046
13.7523	11.9265	0	15.1046
13.7524	11.9265	0	15.1046
13.7524	11.9403	0.0276396	15.1046
13.9543	11.9679	0	15.1046
14.0883	11.9679	0	15.2866
14.0885	11.9679	0	15.2866
14.0886	11.9818	0.0276396	15.2866
14.3262	12.0094	0	15.2866
14.3262	12.0094	0	15.2866
14.3262	12.0232	0.0276396	15.2866
14.3704	12.0509	0	15.2866
14.3708	12.0509	0	15.2866
14.3708	12.0509	0.0552792	15.2866
14.3709	12.0785	0.0276396	15.2866
14.4593	12.1061	0	15.2866
14.5334	12.1061	0	15.4686
14.5819	12.1061	0	15.6506
14.5822	12.1061	0	15.6506
14.5822	12.1061	0.0552792	15.6506
14.5822	12.1338	0.0276396	15.6506
14.6273	12.1614	0	15.6506
14.6276	12.1614	0	15.6506
14.6276	12.1614	0.0552792	15.6506
14.6277	12.1891	0.0276396	15.6506
14.6373	12.2167	0	15.6506
14.6384	12.2167	0	15.6506
14.6384	12.2167	0.0552792	15.6506
14.6384	12.2443	0.0276396	15.6506
14.6387	12.272	0	15.6506
14.6388	12.272	0	15.6506
14.639	12.2858	0.0276396	15.6506
14.6599	12.3134	0	15.6506
14.7059	12.3134	0	15.8326
14.707	12.3134	0	15.8326
14.707	12.3134	0.0276396	15.8326
14.7071	12.3273	0.0552792	15.8326
14.7071	12.3549	0.0276396	15.8326
14.7973	12.3825	0	15.8326
14.7975	12.3825	0	15.8326
14.7978	12.3964	0.0276396	15.8326
15.0289	12.424	0	15.8326
15.029	12.424	0	15.8326
15.0294	12.424	0.0276396	15.8326
15.0294	12.4378	0.0552792	15.8326
15.0294	12.4655	0.0276396	15.8326
15.1406	12.4931	0	15.8326
15.1408	12.4931	0	15.8326
15.1409	12.5069	0.0276396	15.8326
15.1432	12.5345	0	15.8326
15.1433	12.5345	0	15.8326
15.1433	12.5345	0.0552792	15.8326
15.1434	12.5622	0.0276396	15.8326
15.2499	12.5898	0	15.8326
15.2504	12.5898	0	15.8326
15.2504	12.6036	0.0276396	15.8326
15.2645	12.6313	0	15.8326
15.2662	12.6313	0	15.8326
15.2662	12.6313	0.0552792	15.8326
15.2662	12.6589	0.0276396	15.8326
15.3185	12.6866	0	15.8326
15.3188	12.6866	0	15.8326
15.3189	12.7004	0.0276396	15.8326
15.3855	12.728	0	15.8326
15.3864	12.728	0	15.8326
15.3865	12.7418	0.0276396	15.8326
15.5766	12.7695	0	15.8326
15.5768	12.7695	0	15.8326
15.5768	12.7833	0.0276396	15.8326
15.8015	12.8109	0	15.8326
15.8019	12.8109	0	16.0146
15.8025	12.8109	0	16.0146
15.8025	12.8248	0.0276396	16.0146
15.8202	12.8524	0	16.0146
15.8208	12.8524	0	16.0146
15.8208	12.8524	0.0276396	16.0146
15.821	12.8524	0.0552792	16.0146
15.8213	12.8524	0.0829187	16.0146
15.8213	12.8524	0.110558	16.0146
15.8213	12.8524	0.138198	16.0146
15.8215	12.8524	0.165837	16.0146
15.8218	12.8524	0.193477	16.0146
15.8221	12.8524	0.221117	16.0146
15.8221	12.8662	0.248756	16.0146
15.8221	12.8939	0.221117	16.0146
15.8221	12.9215	0.193477	16.0146
15.8221	12.9491	0.165837	16.0146
15.8221	12.9768	0.138198	16.0146
15.8222	13.0044	0.110558	16.0146
15.8222	13.0321	0.0829187	16.0146
15.8222	13.0597	0.0552792	16.0146
15.8223	13.0873	0.0276396	16.0146
15.8424	13.115	0	16.0146
15.8425	13.115	0	16.0146
15.8428	13.115	0.0276396	16.0146
15.8428	13.115	0.0276396	16.1056
15.8428	13.1288	0.0552792	16.1056
15.8429	13.1564	0.0276396	16.1056
15.8829	13.1841	0	16.1056
15.8839	13.1841	0	16.1056
15.884	13.1979	0.0276396	16.1056
15.9307	13.2255	0	16.1056
15.9314	13.2255	0	16.1056
15.9316	13.2255	0.0276396	16.1056
15.9317	13.2394	0.0552792	16.1056
15.9317	13.267	0.0276396	16.1056
15.9455	13.2946	0	16.1056
15.9949	13.2946	0	16.2875
15.9955	13.2946	0	16.2875
15.9969	13.2946	0.0276396	16.2875
15.9969	13.3085	0.0552792	16.2875
15.9969	13.3361	0.0276396	16.2875
16.0438	13.3637	0	16.2875
16.0574	13.3637	0	16.4695
16.0581	13.3637	0	16.4695
16.0581	13.3776	0.0276396	16.4695
16.166	13.4052	0	16.4695
16.1675	13.4052	0	16.4695
16.1675	13.419	0.0276396	16.4695
16.4955	13.4467	0	16.4695
16.5753	13.4467	0	16.6515
16.8186	13.4467	0	16.7425
16.9118	13.4467	0	16.8335
16.9118	13.4467	0	16.8335
16.9118	13.4605	0.0276396	16.8335
17.1081	13.4881	0	16.8335
17.1081	13.4881	0	16.8335
17.1081	13.4881	0.0276396	16.8335
17.2887	13.5158	0	16.8335
17.2887	13.5158	0	16.8335
17.2887	13.5158	0.0552792	16.8335
17.2889	13.5434	0.0276396	16.8335
17.3112	13.571	0	16.8335
17.3239	13.571	0	17.0155
17.4072	13.571	0	17.1975
17.4074	13.571	0	17.1975
17.4074	13.5849	0.0276396	17.1975
17.7579	13.6125	0	17.1975
17.7615	13.6125	0	17.3794
17.7617	13.6125	0	17.3794
17.7617	13.6263	0.0276396	17.3794
18.0047	13.654	0	17.3794
18.3373	13.654	0	17.5614
18.4275	13.654	0	17.7434
18.4281	13.654	0	17.7434
18.4281	13.654	0.0552792	17.7434
18.4282	13.6816	0.0276396	17.7434
18.5788	13.7092	0	17.7434
18.5789	13.7092	0	17.7434
18.5789	13.7231	0.0276396	17.7434
18.6539	13.7507	0	17.7434
18.6545	13.7507	0	17.7434
18.6545	13.7507	0.0552792	17.7434
18.6545	13.7783	0.0276396	17.7434
18.7442	13.806	0	17.7434
18.7447	13.806	0	17.7434
18.7448	13.8198	0.0276396	17.7434
18.8964	13.8474	0	17.7434
18.8964	13.8474	0	17.7434
18.8964	13.8474	0.0552792	17.7434
18.8964	13.8751	0.0276396	17.7434
19.2292	13.9027	0	17.7434
19.2296	13.9027	0	17.7434
19.2297	13.9027	0.0552792	17.7434
19.2297	13.9303	0.0276396	17.7434
19.2579	13.958	0	17.7434
19.2581	13.958	0	17.7434
19.2582	13.958	0.0552792	17.7434
19.2582	13.9856	0.0276396	17.7434
19.3227	14.0133	0	17.7434
19.4294	14.0133	0	17.9254
19.4308	14.0133	0	17.9254
19.4308	14.0271	0.0276396	17.9254
19.4992	14.0547	0	17.9254
19.5025	14.0547	0	18.1074
19.6127	14.0547	0	18.2894
19.6133	14.0547	0	18.2894
19.6133	14.0685	0.0276396	18.2894
20.0772	14.0962	0	18.2894
20.0779	14.0962	0	18.2894
20.0779	14.0962	0.0552792	18.2894
20.078	14.1238	0.0276396	18.2894
20.5291	14.1515	0	18.2894
20.5651	14.1515	0	18.4713
20.5671	14.1515	0	18.4713
20.645	14.1515	0.0276396	18.4713
20.645	14.1515	0.0276396	18.4713
20.6456	14.1791	0	18.4713
20.6456	14.1929	0.0276396	18.4713
20.6597	14.2206	0	18.4713
20.7529	14.2206	0	18.6533
20.7533	14.2206	0	18.6533
20.7547	14.2206	0.0276396	18.6533
20.755	14.2206	0.0552792	18.6533
20.7554	14.2206	0.0829187	18.6533
20.7563	14.2206	0.110558	18.6533
20.7565	14.2206	0.138198	18.6533
20.7565	14.2344	0.165837	18.6533
20.7566	14.262	0.138198	18.6533
20.7566	14.2897	0.110558	18.6533
20.7566	14.3173	0.0829187	18.6533
20.7566	14.3449	0.0552792	18.6533
20.7566	14.3726	0.0276396	18.6533
21.1312	14.4002	0	18.6533
21.1328	14.4002	0	18.6533
21.1328	14.4002	0.0552792	18.6533
21.1329	14.4279	0.0276396	18.6533
21.2402	14.4555	0	18.6533
21.3873	14.4555	0	18.8353
21.3874	14.4555	0	18.8353
22.2166	14.4555	0.0276396	18.8353
22.2166	14.4555	0.0276396	19.0173
22.402	14.4831	0	19.0173
22.4022	14.4831	0	19.0173
22.4022	14.4831	0.0552792	19.0173
22.4022	14.5108	0.0276396	19.0173
22.4805	14.5384	0	19.0173
22.4813	14.5384	0	19.0173
22.4814	14.5522	0.0276396	19.0173
22.6265	14.5799	0	19.0173
22.6272	14.5799	0	19.0173
22.6281	14.5799	0.0276396	19.0173
22.6282	14.5937	0.0552792	19.0173
22.6282	14.6213	0.0276396	19.0173
23.2149	14.649	0	19.0173
23.2149	14.649	0	19.0173
23.216	14.649	0.0276396	19.0173
23.2163	14.649	0.0552792	19.0173
23.2165	14.649	0.0829187	19.0173
23.5372	14.649	0.110558	19.0173
23.5373	14.649	0.110558	19.0173
23.5373	14.6766	0.0829187	19.0173
23.5373	14.7043	0.0552792	19.0173
23.5373	14.7319	0.0276396	19.0173
23.5376	14.7595	0	19.0173
23.538	14.7595	0.0276396	19.0173
23.539	14.7595	0.0552792	19.0173
23.5394	14.7595	0.0829187	19.0173
23.541	14.7595	0.110558	19.0173
23.5415	14.7595	0.138198	19.0173
23.6467	14.7595	0.165837	19.0173
23.6467	14.7595	0.165837	19.1083
23.6467	14.7872	0.138198	19.1083
23.6467	14.8148	0.110558	19.1083
23.6467	14.8425	0.0829187	19.1083
23.6468	14.8701	0.0552792	19.1083
23.6468	14.8977	0.0276396	19.1083
23.8165	14.9254	0	19.1083
23.8167	14.9254	0	19.1083
23.8168	14.9254	0.0552792	19.1083
23.8168	14.953	0.0276396	19.1083
24.7891	14.9807	0	19.1083
24.7891	14.9807	0	19.1083
24.7891	14.9807	0.0552792	19.1083
24.7891	15.0083	0.0276396	19.1083
24.7997	15.0359	0	19.1083
24.8004	15.0359	0	19.1083
24.8012	15.0359	0.0276396	19.1083
24.8012	15.0498	0.0552792	19.1083
24.8013	15.0774	0.0276396	19.1083
24.8197	15.105	0	19.1083
24.8203	15.105	0	19.1083
24.8203	15.105	0.0552792	19.1083
24.8203	15.1327	0.0276396	19.1083
24.8701	15.1603	0	19.1083
24.8705	15.1603	0	19.1083
24.8706	15.1741	0.0276396	19.1083
24.9547	15.2018	0	19.1083
24.9554	15.2018	0	19.1083
24.9554	15.2156	0.0276396	19.1083
25.168	15.2432	0	19.1083
25.1683	15.2432	0	19.1083
25.1683	15.2432	0.0552792	19.1083
25.1685	15.2709	0.0276396	19.1083
25.6827	15.2985	0	19.1083
25.6831	15.2985	0	19.1083
25.6835	15.2985	0.0276396	19.1083
25.6835	15.3123	0.0552792	19.1083
25.6835	15.34	0.0276396	19.1083
26.0097	15.3676	0	19.1083
26.0099	15.3676	0	19.1083
26.0101	15.3814	0.0276396	19.1083
26.0265	15.4091	0	19.1083
26.0266	15.4091	0	19.1083
26.0266	15.4091	0.0552792	19.1083
26.0266	15.4367	0.0276396	19.1083
26.1176	15.4643	0	19.1083
26.1177	15.4643	0	19.1083
26.1178	15.4782	0.0276396	19.1083
26.2121	15.5058	0	19.1083
26.2125	15.5058	0	19.1083
26.2125	15.5196	0.0276396	19.1083
26.5721	15.5473	0	19.1083
26.5726	15.5473	0	19.1083
26.573	15.5473	0.0276396	19.1083
26.5734	15.5473	0.0552792	19.1083
26.5737	15.5473	0.0829187	19.1083
27.5905	15.5473	0.110558	19.1083
27.5905	15.5473	0.110558	19.1083
27.5905	15.5749	0.0829187	19.1083
27.5906	15.6025	0.0552792	19.1083
27.5906	15.6302	0.0276396	19.1083
27.5913	15.6578	0	19.1083
27.5913	15.6578	0.0552792	19.1083
27.5914	15.6855	0.0276396	19.1083
27.671	15.7131	0	19.1083
27.6713	15.7131	0	19.1083
27.6714	15.7131	0.0552792	19.1083
27.6715	15.7407	0.0276396	19.1083
28.0016	15.7684	0	19.1083
28.002	15.7684	0	19.1083
28.002	15.7684	0.0552792	19.1083
28.002	15.796	0.0276396	19.1083
28.3735	15.8237	0	19.1083
28.3739	15.8237	0	19.1083
29.361	15.8237	0.0276396	19.1083
29.3612	15.8237	0.0276396	19.1083
29.3632	15.8513	0	19.1083
29.3633	15.8513	0.0552792	19.1083
29.3633	15.8789	0.0276396	19.1083
29.5399	15.9066	0	19.1083
29.54	15.9066	0	19.1083
29.5401	15.9204	0.0276396	19.1083
29.578	15.948	0	19.1083
29.5785	15.948	0	19.1083
29.5786	15.9619	0.0276396	19.1083
29.8601	15.9895	0	19.1083
29.8604	15.9895	0	19.1083
29.8605	16.0033	0.0276396	19.1083
30.2139	16.031	0	19.1083
30.215	16.031	0	19.1083
30.215	16.0448	0.0276396	19.1083
30.3022	16.0724	0	19.1083
30.3026	16.0724	0	19.1083
30.304	16.0724	0.0276396	19.1083
30.3043	16.0724	0.0552792	19.1083
30.3044	16.0724	0.0829187	19.1083
30.3864	16.0724	0.110558	19.1083
30.3864	16.0724	0.110558	19.1083
30.3864	16.1001	0.0829187	19.1083
30.3864	16.1277	0.0552792	19.1083
30.3865	16.1553	0.0276396	19.1083
30.3874	16.183	0	19.1083
30.3875	16.1968	0.0276396	19.1083
30.5447	16.2244	0	19.1083
30.5448	16.2244	0	19.1083
30.5449	16.2383	0.0276396	19.1083
30.6125	16.2659	0	19.1083
30.6126	16.2659	0	19.1083
30.637	16.2659	0.0276396	19.1083
30.6374	16.2659	0.0276396	19.1083
30.6374	16.2659	0.0829187	19.1083
31.0511	16.2935	0.0552792	19.1083
31.0511	16.2935	0.0552792	19.1083
31.0513	16.3212	0.0276396	19.1083
31.0518	16.3488	0	19.1083
31.0518	16.3488	0.0552792	19.1083
31.0519	16.3765	0.0276396	19.1083
31.1006	16.4041	0	19.1083
31.1006	16.4041	0	19.1083
31.1007	16.4179	0.0276396	19.1083
31.6949	16.4456	0	19.1083
31.696	16.4456	0	19.1083
31.696	16.4594	0.0276396	19.1083
31.8057	16.487	0	19.1083
31.8058	16.487	0	19.1083
31.8058	16.487	0.0552792	19.1083
31.8058	16.5146	0.0276396	19.1083
32.0019	16.5423	0	19.1083
32.0025	16.5423	0	19.1083
32.0026	16.5561	0.0276396	19.1083
32.0962	16.5837	0	19.1083
32.0963	16.5837	0	19.1083
32.0963	16.5837	0.0552792	19.1083
32.0963	16.6114	0.0276396	19.1083
32.1408	16.639	0	19.1083
32.1409	16.639	0	19.1083
32.1409	16.639	0.0552792	19.1083
32.141	16.6667	0.0276396	19.1083
32.6243	16.6943	0	19.1083
32.6254	16.6943	0	19.1083
32.6254	16.6943	0.0552792	19.1083
32.6254	16.7219	0.0276396	19.1083
32.9231	16.7496	0	19.1083
32.9231	16.7496	0	19.1083
32.9231	16.7496	0.0552792	19.1083
32.9232	16.7772	0.0276396	19.1083
32.9669	16.8049	0	19.1083
32.9672	16.8049	0	19.1083
32.9672	16.8187	0.0276396	19.1083
32.9767	16.8463	0	19.1083
32.9775	16.8463	0	19.1083
32.9775	16.8463	0.0552792	19.1083
32.9775	16.874	0.0276396	19.1083
33.9995	16.9016	0	19.1083
34.001	16.9016	0	19.1083
34.001	16.9016	0.0552792	19.1083
34.0011	16.9292	0.0276396	19.1083
34.1131	16.9569	0	19.1083
34.1137	16.9569	0	19.1083
34.1137	16.9569	0.0276396	19.1083
34.2133	16.9845	0	19.1083
34.2134	16.9845	0	19.1083
34.2134	16.9845	0.0552792	19.1083
34.2136	17.0122	0.0276396	19.1083
34.2221	17.0398	0	19.1083
34.2674	17.0398	0	19.2903
34.268	17.0398	0	19.2903
35.7255	17.0398	0.0276396	19.2903
35.7255	17.0398	0.0276396	19.2903
35.726	17.0674	0	19.2903
35.726	17.0674	0.0552792	19.2903
35.726	17.0951	0.0276396	19.2903
36.2568	17.1227	0	19.2903
36.2571	17.1227	0	19.2903
36.2572	17.1365	0.0276396	19.2903
36.7726	17.1642	0	19.2903
36.773	17.1642	0	19.2903
36.7732	17.178	0.0276396	19.2903
36.8486	17.2056	0	19.2903
36.8488	17.2056	0	19.2903
36.8488	17.2195	0.0276396	19.2903
37.1934	17.2471	0	19.2903
37.194	17.2471	0	19.2903
37.1941	17.2471	0.0552792	19.2903
37.1941	17.2747	0.0276396	19.2903
37.4657	17.3024	0	19.2903
37.4662	17.3024	0	19.2903
37.4662	17.3162	0.0276396	19.2903
38.5145	17.3438	0	19.2903
38.5146	17.3438	0	19.2903
39.7227	17.3438	0.0276396	19.2903
39.7227	17.3438	0.0276396	19.2903
39.7228	17.3438	0.0829187	19.2903
39.7228	17.3715	0.0552792	19.2903
39.7229	17.3991	0.0276396	19.2903
41.1184	17.4268	0	19.2903
41.1189	17.4268	0	19.2903
41.1193	17.4268	0.0276396	19.2903
41.1194	17.4268	0.0552792	19.2903
41.1194	17.4406	0.0829187	19.2903
41.1195	17.4682	0.0552792	19.2903
41.1196	17.4959	0.0276396	19.2903
41.1394	17.5235	0	19.2903
41.1394	17.5235	0	19.2903
41.1395	17.5373	0.0276396	19.2903
44.6628	17.565	0	19.2903
44.6633	17.565	0	19.2903
44.6633	17.565	0.0552792	19.2903
44.6633	17.5926	0.0276396	19.2903
45.8425	17.6202	0	19.2903
45.8437	17.6202	0	19.2903
48.9008	17.6202	0.0276396	19.2903
48.901	17.6202	0.0276396	19.2903
48.9016	17.6479	0	19.2903
48.9016	17.6479	0.0276396	19.2903
49.148	17.6755	0	19.2903
49.1485	17.6755	0	19.2903
49.1489	17.6755	0.0276396	19.2903
50.0703	17.6755	0.0552792	19.2903
50.0703	17.6755	0.0552792	19.2903
50.0704	17.7032	0.0276396	19.2903
50.0707	17.7308	0	19.2903
50.0708	17.7308	0.0552792	19.2903
50.0709	17.7584	0.0276396	19.2903
53.1822	17.7861	0	19.2903
53.1835	17.7861	0	19.2903
53.1836	17.7861	0.0552792	19.2903
53.1836	17.8137	0.0276396	19.2903
53.203	17.8413	0	19.2903
53.203	17.8413	0	19.2903
53.2031	17.8413	0.0552792	19.2903
53.2031	17.869	0.0276396	19.2903
54.905	17.8966	0	19.2903
54.9061	17.8966	0	19.2903
54.9067	17.8966	0.0276396	19.2903
54.9069	17.8966	0.0552792	19.2903
54.9069	17.8966	0.110558	19.2903
54.9069	17.9243	0.0829187	19.2903
54.9069	17.9519	0.0552792	19.2903
54.907	17.9795	0.0276396	19.2903
56.0599	18.0072	0	19.2903
56.0603	18.0072	0	19.2903
56.0603	18.0072	0.0552792	19.2903
56.0603	18.0348	0.0276396	19.2903
56.7016	18.0625	0	19.2903
56.7026	18.0625	0	19.2903
56.7026	18.0625	0.0552792	19.2903
56.7026	18.0901	0.0276396	19.2903
57.0338	18.1177	0	19.2903
57.0344	18.1177	0	19.2903
57.0344	18.1177	0.0552792	19.2903
57.0345	18.1454	0.0276396	19.2903
59.1604	18.173	0	19.2903
59.1607	18.173	0	19.2903
59.38	18.173	0.0276396	19.2903
59.38	18.173	0.0276396	19.2903
59.3815	18.2007	0	19.2903
59.3815	18.2007	0.0552792	19.2903
59.3817	18.2283	0.0276396	19.2903
59.5775	18.2559	0	19.2903
59.5778	18.2559	0	19.2903
59.5778	18.2559	0.0552792	19.2903
59.5778	18.2836	0.0276396	19.2903
60.3914	18.3112	0	19.2903
60.3924	18.3112	0	19.2903
60.3924	18.325	0.0276396	19.2903
63.1641	18.3527	0	19.2903
63.1642	18.3527	0	19.2903
63.1643	18.3527	0.0552792	19.2903
63.1644	18.3803	0.0276396	19.2903
63.2766	18.408	0	19.2903
63.2777	18.408	0	19.2903
63.2778	18.408	0.0552792	19.2903
63.2778	18.4356	0.0276396	19.2903
71.292	18.4632	0	19.2903
71.2921	18.4632	0	19.2903
71.2921	18.4632	0.0552792	19.2903
71.2923	18.4909	0.0276396	19.2903
71.8367	18.5185	0	19.2903
71.8369	18.5185	0	19.2903
71.837	18.5323	0.0276396	19.2903
74.5585	18.56	0	19.2903
74.5585	18.56	0	19.2903
74.5585	18.56	0.0552792	19.2903
74.5586	18.5876	0.0276396	19.2903
77.3924	18.6153	0	19.2903
77.3932	18.6153	0	19.2903
77.3933	18.6153	0.0552792	19.2903
77.3934	18.6429	0.0276396	19.2903
88.8275	18.6705	0	19.2903
88.8277	18.6705	0	19.2903
88.8279	18.6705	0.0552792	19.2903
88.8279	18.6982	0.0276396	19.2903
89.0135	18.7258	0	19.2903
89.0135	18.7258	0	19.2903
89.0135	18.7258	0.0552792	19.2903
89.0136	18.7535	0.0276396	19.2903
89.779	18.7811	0	19.2903
89.7796	18.7811	0	19.2903
89.7796	18.7811	0.0552792	19.2903
89.7796	18.8087	0.0276396	19.2903
98.4033	18.8364	0	19.2903
98.4038	18.8364	0	19.2903
98.4039	18.8364	0.0552792	19.2903
98.404	18.864	0.0276396	19.2903
117.522	18.8917	0	19.2903
117.522	18.8917	0	19.2903
117.522	18.8917	0.0552792	19.2903
117.522	18.9193	0.0276396	19.2903
