6.28957e-10	0	0	0
8.80071e-10	0	0	0
1.04476e-09	0	0	0
1.34444e-09	0	0	0
1.50794e-09	0	0	0
1.58193e-09	0	0	0
1.60892e-09	0	0	0
1.7073e-09	0	0	0
2.57858e-09	0	0	0
3.10457e-09	0	0	0
3.18167e-09	0	0	0
3.20163e-09	0	0	0
3.58112e-09	0	0	0
3.70484e-09	0	0	0
4.05339e-09	0	0	0
5.72066e-09	0	0	0
7.54337e-09	0	0	0
8.32277e-09	0	0	0
9.94046e-09	0	0	0
1.01009e-08	0	0	0
1.17375e-08	0	0	0
1.19852e-08	0	0	0
1.2061e-08	0	0	0
1.27104e-08	0	0	0
1.32268e-08	0	0	0
1.34928e-08	0	0	0
1.41554e-08	0	0	0
1.48693e-08	0	0	0
1.61381e-08	0	0	0
1.65801e-08	0	0	0
1.75971e-08	0	0	0
1.86714e-08	0	0	0
1.87305e-08	0	0	0
1.98978e-08	0	0	0
2.0863e-08	0	0	0
2.19939e-08	0	0	0
2.28915e-08	0	0	0
2.38215e-08	0	0	0
2.5135e-08	0	0	0
2.71202e-08	0	0	0
3.17355e-08	0	0	0
3.6563e-08	0	0	0
3.79656e-08	0	0	0
4.04121e-08	0	0	0
4.33929e-08	0	0	0
5.30619e-08	0	0	0
5.69727e-08	0	0	0
5.74212e-08	0	0	0
6.06012e-08	0	0	0
7.67984e-08	0	0	0
7.8679e-08	0	0	0
8.50553e-08	0	0	0
9.2443e-08	0	0	0
1.04868e-07	0	0	0
1.07655e-07	0	0	0
1.18394e-07	0	0	0
1.33911e-07	0	0	0
1.53818e-07	0	0	0
1.58403e-07	0	0	0
2.14974e-07	0	0	0
2.49857e-07	0	0	0
4.40821e-07	0	0	0
4.54963e-07	0	0	0
4.55111e-07	0	0	0
4.95822e-07	0	0	0
5.02513e-07	0	0	0
6.08551e-07	0	0	0
6.14943e-07	0	0	0
6.16674e-07	0	0	0
7.79888e-07	0	0	0
9.30402e-07	0	0	0
9.55707e-07	0	0	0
9.61953e-07	0	0	0
1.13005e-06	0	0	0
1.20338e-06	0	0	0
1.22932e-06	0	0	0
1.31046e-06	0	0	0
1.3496e-06	0	0	0
1.37762e-06	0	0	0
1.53557e-06	0	0	0
1.72066e-06	0	0	0
1.764e-06	0	0	0
1.80372e-06	0	0	0
2.10784e-06	0	0	0
2.21164e-06	0	0	0
2.23693e-06	0	0	0
2.41124e-06	0	0	0
2.55952e-06	0	0	0
2.57582e-06	0	0	0
2.5913e-06	0	0	0
2.63524e-06	0	0	0
2.69918e-06	0	0	0
2.73997e-06	0	0	0
2.78635e-06	0	0	0
2.89067e-06	0	0	0
3.07119e-06	0	0	0
3.1025e-06	0	0	0
3.20649e-06	0	0	0
3.31009e-06	0	0	0
3.34537e-06	0	0	0
3.4799e-06	0	0	0
3.48695e-06	0	0	0
3.56603e-06	0	0	0
3.75239e-06	0	0	0
4.01024e-06	0	0	0
4.03099e-06	0	0	0
4.08337e-06	0	0	0
4.16061e-06	0	0	0
4.19018e-06	0	0	0
4.24439e-06	0	0	0
4.38541e-06	0	0	0
4.38689e-06	0	0	0
4.46131e-06	0	0	0
4.54898e-06	0	0	0
4.56671e-06	0	0	0
4.84771e-06	0	0	0
4.86715e-06	0	0	0
5.16222e-06	0	0	0
5.17592e-06	0	0	0
5.25572e-06	0	0	0
5.25683e-06	0	0	0
5.33585e-06	0	0	0
5.52604e-06	0	0	0
5.65477e-06	0	0	0
5.68331e-06	0	0	0
5.72902e-06	0	0	0
5.74922e-06	0	0	0
5.77516e-06	0	0	0
5.86021e-06	0	0	0
6.10269e-06	0	0	0
6.11813e-06	0	0	0
6.19099e-06	0	0	0
6.30441e-06	0	0	0
6.44166e-06	0	0	0
6.66605e-06	0	0	0
6.78647e-06	0	0	0
7.15131e-06	0	0	0
7.2394e-06	0	0	0
7.26633e-06	0	0	0
7.31637e-06	0	0	0
7.37434e-06	0	0	0
7.40905e-06	0	0	0
7.45838e-06	0	0	0
7.60126e-06	0	0	0
7.60774e-06	0	0	0
7.62633e-06	0	0	0
7.67604e-06	0	0	0
8.29237e-06	0	0	0
8.42982e-06	0	0	0
8.45419e-06	0	0	0
8.46731e-06	0	0	0
8.5463e-06	0	0	0
8.60844e-06	0	0	0
9.21971e-06	0	0	0
9.80938e-06	0	0	0
9.96356e-06	0	0	0
1.01602e-05	0	0	0
1.04796e-05	0	0	0
1.04942e-05	0	0	0
1.05487e-05	0	0	0
1.07593e-05	0	0	0
1.08611e-05	0	0	0
1.09184e-05	0	0	0
1.09574e-05	0	0	0
1.10407e-05	0	0	0
1.14017e-05	0	0	0
1.15496e-05	0	0	0
1.15604e-05	0	0	0
1.15631e-05	0	0	0
1.17747e-05	0	0	0
1.18897e-05	0	0	0
1.19419e-05	0	0	0
1.20528e-05	0	0	0
1.2173e-05	0	0	0
1.26586e-05	0	0	0
1.2937e-05	0	0	0
1.31325e-05	0	0	0
1.31333e-05	0	0	0
1.32951e-05	0	0	0
1.33315e-05	0	0	0
1.35482e-05	0	0	0
1.36439e-05	0	0	0
1.36812e-05	0	0	0
1.38059e-05	0	0	0
1.41012e-05	0	0	0
1.54121e-05	0	0	0
1.58932e-05	0	0	0
1.62638e-05	0	0	0
1.66174e-05	0	0	0
1.67142e-05	0	0	0
1.67263e-05	0	0	0
1.67926e-05	0	0	0
1.68833e-05	0	0	0
1.72569e-05	0	0	0
1.72785e-05	0	0	0
1.75823e-05	0	0	0
1.75964e-05	0	0	0
1.77285e-05	0	0	0
1.7889e-05	0	0	0
1.80823e-05	0	0	0
1.83643e-05	0	0	0
1.84199e-05	0	0	0
1.85667e-05	0	0	0
1.87025e-05	0	0	0
1.88756e-05	0	0	0
1.96422e-05	0	0	0
1.9748e-05	0	0	0
1.97606e-05	0	0	0
2.00195e-05	0	0	0
2.05391e-05	0	0	0
2.14728e-05	0	0	0
2.17262e-05	0	0	0
2.17309e-05	0	0	0
2.17705e-05	0	0	0
2.2076e-05	0	0	0
2.21636e-05	0	0	0
2.24757e-05	0	0	0
2.26139e-05	0	0	0
2.26146e-05	0	0	0
2.32306e-05	0	0	0
2.38011e-05	0	0	0
2.40726e-05	0	0	0
2.4681e-05	0	0	0
2.65857e-05	0	0	0
2.65865e-05	0	0	0
2.7818e-05	0	0	0
2.78416e-05	0	0	0
2.8854e-05	0	0	0
2.94021e-05	0	0	0
3.05373e-05	0	0	0
3.11786e-05	0	0	0
3.11923e-05	0	0	0
3.29441e-05	0	0	0
3.36896e-05	0	0	0
3.39996e-05	0	0	0
3.51579e-05	0	0	0
3.53637e-05	0	0	0
3.55388e-05	0	0	0
3.56894e-05	0	0	0
3.59775e-05	0	0	0
3.61749e-05	0	0	0
3.63342e-05	0	0	0
3.64405e-05	0	0	0
3.64653e-05	0	0	0
3.66054e-05	0	0	0
3.66562e-05	0	0	0
3.69834e-05	0	0	0
3.79106e-05	0	0	0
3.87398e-05	0	0	0
4.01702e-05	0	0	0
4.09661e-05	0	0	0
4.15998e-05	0	0	0
4.19972e-05	0	0	0
4.25943e-05	0	0	0
4.36655e-05	0	0	0
4.3727e-05	0	0	0
4.41149e-05	0	0	0
4.43466e-05	0	0	0
4.43827e-05	0	0	0
4.44693e-05	0	0	0
4.7058e-05	0	0	0
4.76231e-05	0	0	0
4.88997e-05	0	0	0
5.0782e-05	0	0	0
5.111e-05	0	0	0
5.23209e-05	0	0	0
5.39384e-05	0	0	0
5.60863e-05	0	0	0
5.75082e-05	0	0	0
5.87481e-05	0	0	0
5.8855e-05	0	0	0
6.17084e-05	0	0	0
6.26094e-05	0	0	0
6.31495e-05	0	0	0
6.45848e-05	0	0	0
6.63412e-05	0	0	0
6.6719e-05	0	0	0
6.86995e-05	0	0	0
7.18129e-05	0	0	0
7.38609e-05	0	0	0
7.40536e-05	0	0	0
7.8377e-05	0	0	0
7.9291e-05	0	0	0
8.08064e-05	0	0	0
8.50831e-05	0	0	0
8.56393e-05	0	0	0
8.62506e-05	0	0	0
8.65422e-05	0	0	0
9.09917e-05	0	0	0
0.000100241	0	0	0
0.000103833	0	0	0
0.000104065	0	0	0
0.000115344	0	0	0
0.00011709	0	0	0
0.000117897	0	0	0
0.000121442	0	0	0
0.000123925	0	0	0
0.000123986	0	0	0
0.000125815	0	0	0
0.00012817	0	0	0
0.000142153	0	0	0
0.000150194	0	0	0
0.000154839	0	0	0
0.000162128	0	0	0
0.000162576	0	0	0
0.000162873	0	0	0
0.000165657	0	0	0
0.0090406	0	0	0
0.00905516	0	0	0
0.00906926	0	0	0
0.0171691	0	0	0
0.0171789	0	0	0
0.045875	0	0	0
0.119153	0	0	0
0.120225	0	0	0
0.120353	0.0138198	0.0276396	0
0.122704	0.0414594	0	0
0.126559	0.0414594	0	0
0.126783	0.0414594	0	0
0.126944	0.0552792	0.0276396	0
0.133021	0.0829187	0	0
0.158545	0.0829187	0	0
0.158549	0.0829187	0	0
0.158553	0.0829187	0	0
0.162281	0.0829187	0	0
0.217399	0.0829187	0	0
0.21767	0.0829187	0	0
0.217939	0.0829187	0.0276396	0
0.217946	0.0967385	0.0552792	0
0.21795	0.124378	0.0276396	0
0.217969	0.152018	0	0
0.272186	0.152018	0	0
0.272807	0.152018	0	0
0.27358	0.152018	0.0276396	0
0.273595	0.165837	0.0552792	0
0.273658	0.193477	0.0276396	0
0.273658	0.221117	0	0
0.273736	0.221117	0	0
0.287555	0.221117	0	0
0.288661	0.221117	0	0
0.289266	0.221117	0.0276396	0
0.289309	0.234936	0.0552792	0
0.289317	0.262576	0.0276396	0
0.289339	0.290216	0	0
0.292605	0.290216	0	0
0.292619	0.290216	0	0
0.292625	0.290216	0	0
0.313826	0.290216	0	0
0.321542	0.290216	0	0
0.328169	0.290216	0	0
0.374664	0.290216	0	0.0909918
0.375409	0.290216	0	0.0909918
0.375449	0.304035	0.0276396	0.0909918
0.375473	0.331675	0	0.0909918
0.375498	0.331675	0	0.0909918
0.401387	0.331675	0	0.0909918
0.401388	0.331675	0	0.0909918
0.401439	0.331675	0	0.0909918
0.405261	0.331675	0	0.0909918
0.406041	0.331675	0	0.0909918
0.40621	0.331675	0.0276396	0.0909918
0.406284	0.345495	0.0552792	0.0909918
0.406286	0.373134	0.0276396	0.0909918
0.406358	0.400774	0	0.0909918
0.423229	0.400774	0	0.0909918
0.423386	0.400774	0	0.0909918
0.423434	0.400774	0.0552792	0.0909918
0.423451	0.428413	0.0276396	0.0909918
0.431111	0.456053	0	0.0909918
0.438873	0.456053	0	0.181984
0.45876	0.456053	0	0.272975
0.459155	0.456053	0	0.272975
0.459208	0.469873	0.0276396	0.272975
0.461363	0.497512	0	0.272975
0.461565	0.497512	0	0.272975
0.461566	0.497512	0	0.272975
0.461584	0.497512	0	0.272975
0.474318	0.497512	0	0.272975
0.491544	0.497512	0	0.272975
0.491713	0.497512	0	0.272975
0.491769	0.497512	0.0276396	0.272975
0.492136	0.497512	0.0552792	0.272975
0.492722	0.497512	0.0829187	0.272975
0.492995	0.497512	0.110558	0.272975
0.493312	0.497512	0.138198	0.272975
0.493477	0.497512	0.165837	0.272975
0.493642	0.497512	0.193477	0.272975
0.494797	0.497512	0.221117	0.272975
0.494893	0.497512	0.248756	0.272975
0.495379	0.525152	0.221117	0.272975
0.495433	0.525152	0.248756	0.272975
0.495438	0.552792	0.221117	0.272975
0.555235	0.552792	0.221117	0.272975
0.555236	0.552792	0.221117	0.272975
0.555237	0.580431	0.193477	0.272975
0.555243	0.580431	0.193477	0.272975
0.555244	0.580431	0.193477	0.272975
0.555245	0.608071	0.165837	0.272975
0.555253	0.608071	0.165837	0.272975
0.555258	0.608071	0.165837	0.272975
0.555266	0.608071	0.165837	0.272975
0.555307	0.63571	0.138198	0.272975
0.555309	0.66335	0.110558	0.272975
0.555338	0.690989	0.0829187	0.272975
0.555358	0.718629	0.0552792	0.272975
0.555374	0.746269	0.0276396	0.272975
0.555443	0.746269	0.0276396	0.272975
0.555927	0.773908	0	0.272975
0.555936	0.787728	0.0276396	0.272975
0.588547	0.815368	0	0.272975
0.589119	0.815368	0	0.272975
0.589218	0.815368	0.0276396	0.272975
0.697349	0.843007	0	0.272975
0.698115	0.843007	0	0.272975
0.699023	0.843007	0.0276396	0.272975
0.699137	0.843007	0.0552792	0.272975
0.699214	0.870647	0.0276396	0.272975
0.724098	0.898286	0	0.272975
0.724826	0.898286	0	0.272975
0.724828	0.912106	0.0276396	0.272975
0.724841	0.939746	0	0.272975
0.728171	0.939746	0	0.272975
0.728186	0.939746	0	0.363967
0.728228	0.939746	0	0.363967
0.728253	0.939746	0	0.363967
0.766402	0.939746	0	0.363967
0.767265	0.939746	0	0.363967
0.76727	0.953566	0.0276396	0.363967
0.767321	0.981205	0	0.363967
0.768499	0.981205	0	0.363967
0.768842	0.981205	0.0276396	0.363967
0.769815	0.981205	0.0552792	0.363967
0.76998	0.981205	0.0829187	0.363967
0.770008	0.995025	0.110558	0.363967
0.770015	1.02266	0.0829187	0.363967
0.770016	1.02266	0.0829187	0.363967
0.770016	1.0503	0.0552792	0.363967
0.770029	1.07794	0.0276396	0.363967
0.777228	1.10558	0	0.363967
0.777463	1.10558	0	0.363967
0.777563	1.10558	0.0552792	0.363967
0.777614	1.13322	0.0276396	0.363967
0.784409	1.16086	0	0.363967
0.795997	1.16086	0	0.363967
0.796207	1.16086	0	0.363967
0.796308	1.17468	0.0276396	0.363967
0.806939	1.20232	0	0.363967
0.807246	1.20232	0	0.363967
0.807253	1.20232	0.0552792	0.363967
0.807256	1.22996	0.0276396	0.363967
0.810448	1.2576	0	0.363967
0.811442	1.2576	0	0.363967
0.811574	1.2576	0.0276396	0.363967
0.81161	1.27142	0.0552792	0.363967
0.811664	1.29906	0.0276396	0.363967
0.822501	1.3267	0	0.363967
0.851962	1.3267	0	0.363967
0.851975	1.3267	0	0.363967
0.852006	1.3267	0	0.363967
0.878072	1.3267	0	0.363967
0.878513	1.3267	0	0.363967
0.878513	1.3267	0.0552792	0.363967
0.878529	1.35434	0.0276396	0.363967
0.878534	1.38198	0	0.363967
0.880613	1.38198	0	0.363967
0.891962	1.38198	0	0.363967
0.892049	1.38198	0	0.363967
0.892083	1.3958	0.0276396	0.363967
0.928702	1.42344	0	0.363967
0.928876	1.42344	0	0.363967
0.940691	1.42344	0.0276396	0.363967
0.955439	1.42344	0.0276396	0.363967
0.955502	1.42344	0.0276396	0.454959
0.956927	1.45108	0	0.454959
1.05885	1.45108	0	0.545951
1.05978	1.45108	0	0.545951
1.05985	1.45108	0.0552792	0.545951
1.05986	1.47872	0.0276396	0.545951
1.07123	1.50636	0	0.545951
1.0765	1.50636	0	0.545951
1.07652	1.50636	0	0.545951
1.07669	1.52018	0.0276396	0.545951
1.07794	1.54782	0	0.545951
1.12234	1.54782	0	0.545951
1.12248	1.54782	0	0.545951
1.12253	1.54782	0.0552792	0.545951
1.12254	1.57546	0.0276396	0.545951
1.12255	1.57546	0.0276396	0.545951
1.12259	1.6031	0	0.545951
1.12368	1.6031	0	0.545951
1.1241	1.6031	0	0.545951
1.12417	1.61692	0.0276396	0.545951
1.16599	1.64456	0	0.545951
1.16646	1.64456	0	0.545951
1.16746	1.64456	0.0276396	0.545951
1.16748	1.65837	0.0552792	0.545951
1.16756	1.68601	0.0276396	0.545951
1.17471	1.71365	0	0.545951
1.17474	1.71365	0	0.545951
1.17478	1.72747	0.0276396	0.545951
1.17478	1.75511	0	0.545951
1.1767	1.75511	0	0.545951
1.17689	1.75511	0	0.545951
1.17694	1.75511	0.0276396	0.545951
1.17696	1.76893	0.0552792	0.545951
1.17699	1.79657	0.0276396	0.545951
1.18022	1.82421	0	0.545951
1.18061	1.82421	0	0.545951
1.18109	1.82421	0.0276396	0.545951
1.18111	1.83803	0.0552792	0.545951
1.18117	1.86567	0.0276396	0.545951
1.20764	1.89331	0	0.545951
1.20816	1.89331	0	0.545951
1.20835	1.89331	0.0276396	0.545951
1.20835	1.90713	0.0552792	0.545951
1.20836	1.93477	0.0276396	0.545951
1.22121	1.96241	0	0.545951
1.22123	1.96241	0	0.545951
1.22124	1.97623	0.0276396	0.545951
1.22125	2.00387	0	0.545951
1.24331	2.00387	0	0.545951
1.27918	2.00387	0	0.545951
1.28463	2.00387	0	0.727934
1.31703	2.00387	0	0.727934
1.31719	2.00387	0	0.727934
1.31721	2.01769	0.0276396	0.727934
1.33476	2.04533	0	0.727934
1.34296	2.04533	0	0.818926
1.34365	2.04533	0	0.818926
1.34366	2.05915	0.0276396	0.818926
1.34374	2.05915	0.0276396	0.818926
1.34605	2.08679	0	0.818926
1.35364	2.08679	0	0.818926
1.35431	2.08679	0	0.818926
1.35442	2.10061	0.0276396	0.818926
1.35985	2.12825	0	0.818926
1.36035	2.12825	0	0.818926
1.36101	2.12825	0	0.818926
1.36102	2.14207	0.0276396	0.818926
1.38961	2.16971	0	0.818926
1.3902	2.16971	0	0.818926
1.3902	2.16971	0.0552792	0.818926
1.39021	2.19735	0.0276396	0.818926
1.39021	2.22499	0	0.818926
1.39045	2.22499	0	0.818926
1.39167	2.22499	0	0.818926
1.39181	2.23881	0.0276396	0.818926
1.4515	2.26645	0	0.818926
1.45155	2.26645	0	0.818926
1.45156	2.26645	0	0.818926
1.47074	2.26645	0	0.818926
1.47188	2.26645	0	0.909918
1.47202	2.26645	0	0.909918
1.47205	2.26645	0.0552792	0.909918
1.47207	2.29409	0.0276396	0.909918
1.50604	2.32172	0	0.909918
1.50636	2.32172	0	0.909918
1.50643	2.32172	0	0.909918
1.50647	2.33554	0.0276396	0.909918
1.54961	2.36318	0	0.909918
1.57878	2.36318	0	0.909918
1.61408	2.36318	0	1.00091
1.61412	2.36318	0	1.00091
1.61473	2.36318	0.0276396	1.00091
1.61474	2.377	0.0552792	1.00091
1.61484	2.40464	0.0276396	1.00091
1.61484	2.40464	0.0276396	1.00091
1.62617	2.43228	0	1.00091
1.68413	2.43228	0	1.18289
1.6844	2.43228	0	1.18289
1.68445	2.4461	0.0276396	1.18289
1.71074	2.47374	0	1.18289
1.71135	2.47374	0	1.18289
1.71137	2.48756	0.0276396	1.18289
1.72252	2.5152	0	1.18289
1.72263	2.5152	0	1.18289
1.72264	2.5152	0.0552792	1.18289
1.72266	2.54284	0.0276396	1.18289
1.75981	2.57048	0	1.18289
1.76026	2.57048	0	1.18289
1.76028	2.57048	0.0552792	1.18289
1.76033	2.59812	0.0276396	1.18289
1.86911	2.62576	0	1.18289
1.86912	2.62576	0	1.18289
1.86912	2.63958	0.0276396	1.18289
1.91279	2.66722	0	1.18289
1.91285	2.66722	0	1.18289
1.91286	2.68104	0.0276396	1.18289
1.92337	2.70868	0	1.18289
1.93627	2.70868	0	1.27389
1.9538	2.70868	0	1.27389
1.954	2.70868	0	1.27389
1.95402	2.7225	0.0276396	1.27389
1.95662	2.75014	0	1.27389
1.95662	2.75014	0	1.27389
1.95801	2.75014	0.0276396	1.27389
1.95802	2.76396	0.0552792	1.27389
1.95805	2.7916	0.0276396	1.27389
1.95868	2.81924	0	1.27389
1.95914	2.81924	0	1.27389
1.95922	2.83306	0.0276396	1.27389
1.95925	2.8607	0	1.27389
1.9593	2.8607	0	1.27389
1.95932	2.87452	0.0276396	1.27389
1.96623	2.90216	0	1.27389
1.9671	2.90216	0	1.27389
1.9674	2.90216	0.0276396	1.27389
1.96741	2.91598	0.0552792	1.27389
1.96748	2.94362	0.0276396	1.27389
1.97357	2.97125	0	1.27389
1.99504	2.97125	0	1.27389
1.99538	2.97125	0	1.27389
1.99538	2.98507	0.0276396	1.27389
2.01494	3.01271	0	1.27389
2.03353	3.01271	0	1.27389
2.07455	3.01271	0	1.36488
2.09335	3.01271	0	1.54686
2.14499	3.01271	0	1.63785
2.1451	3.01271	0	1.63785
2.14527	3.02653	0.0276396	1.63785
2.21201	3.05417	0	1.63785
2.21341	3.05417	0	1.63785
2.21482	3.05417	0.0276396	1.63785
2.21514	3.05417	0.0552792	1.63785
2.21519	3.05417	0.0829187	1.63785
2.2152	3.05417	0.110558	1.63785
2.2156	3.05417	0.138198	1.63785
2.21564	3.05417	0.165837	1.63785
2.21564	3.05417	0.221117	1.63785
2.21566	3.08181	0.193477	1.63785
2.21568	3.10945	0.165837	1.63785
2.21569	3.13709	0.138198	1.63785
2.21571	3.16473	0.110558	1.63785
2.21573	3.19237	0.0829187	1.63785
2.21576	3.22001	0.0552792	1.63785
2.21577	3.24765	0.0276396	1.63785
2.2158	3.24765	0.0276396	1.63785
2.21803	3.27529	0	1.63785
2.2385	3.27529	0	1.63785
2.24018	3.27529	0	1.72884
2.25166	3.27529	0	1.72884
2.2697	3.27529	0	1.72884
2.28176	3.27529	0	1.81984
2.28805	3.27529	0	1.91083
2.3046	3.27529	0	2.09281
2.42383	3.27529	0	2.09281
2.42399	3.27529	0	2.09281
2.424	3.27529	0.0552792	2.09281
2.42406	3.30293	0.0276396	2.09281
2.43684	3.33057	0	2.09281
2.44497	3.33057	0	2.1838
2.45343	3.33057	0	2.2748
2.45364	3.33057	0	2.2748
2.4537	3.34439	0.0276396	2.2748
2.4559	3.37203	0	2.2748
2.45592	3.37203	0	2.2748
2.45593	3.37203	0.0552792	2.2748
2.45612	3.39967	0.0276396	2.2748
2.46118	3.42731	0	2.2748
2.46161	3.42731	0	2.2748
2.46164	3.42731	0.0276396	2.2748
2.46168	3.44113	0.0552792	2.2748
2.46171	3.46877	0.0276396	2.2748
2.46175	3.49641	0	2.2748
2.49209	3.49641	0	2.2748
2.56071	3.49641	0	2.2748
2.58304	3.49641	0	2.2748
2.60998	3.49641	0	2.36579
2.6117	3.49641	0	2.36579
2.61244	3.49641	0.0276396	2.36579
2.61274	3.49641	0.0552792	2.36579
2.6131	3.49641	0.0829187	2.36579
2.61311	3.51023	0.110558	2.36579
2.61312	3.53787	0.0829187	2.36579
2.61313	3.56551	0.0552792	2.36579
2.61315	3.59315	0.0276396	2.36579
2.64585	3.62078	0	2.36579
2.64605	3.62078	0	2.36579
2.6474	3.62078	0.0276396	2.36579
2.64742	3.62078	0.0552792	2.36579
2.64815	3.62078	0.0829187	2.36579
2.64864	3.62078	0.110558	2.36579
2.64864	3.62078	0.165837	2.36579
2.64864	3.64842	0.138198	2.36579
2.64866	3.67606	0.110558	2.36579
2.6487	3.7037	0.0829187	2.36579
2.64872	3.73134	0.0552792	2.36579
2.64876	3.75898	0.0276396	2.36579
2.66549	3.78662	0	2.36579
2.66629	3.78662	0	2.36579
2.66638	3.80044	0.0276396	2.36579
2.6703	3.82808	0	2.36579
2.67041	3.82808	0	2.36579
2.67047	3.8419	0.0276396	2.36579
2.676	3.86954	0	2.36579
2.67607	3.86954	0	2.36579
2.67609	3.88336	0.0276396	2.36579
2.69211	3.911	0	2.36579
2.6923	3.911	0	2.36579
2.69232	3.911	0	2.36579
2.71426	3.911	0	2.36579
2.72576	3.911	0	2.36579
2.79416	3.911	0	2.36579
2.79554	3.911	0	2.36579
2.79558	3.911	0	2.36579
2.79559	3.911	0	2.36579
2.84905	3.911	0	2.36579
2.89224	3.911	0	2.36579
2.93341	3.911	0	2.54777
2.93349	3.911	0	2.54777
2.93356	3.92482	0.0276396	2.54777
2.94259	3.95246	0	2.54777
2.99773	3.95246	0	2.63876
3.01379	3.95246	0	2.63876
3.01437	3.95246	0	2.63876
3.01443	3.95246	0.0552792	2.63876
3.01457	3.9801	0.0276396	2.63876
3.07856	4.00774	0	2.63876
3.07961	4.00774	0	2.63876
3.10354	4.00774	0.0276396	2.63876
3.10363	4.00774	0.0276396	2.63876
3.12095	4.03538	0	2.63876
3.12182	4.03538	0	2.63876
3.12184	4.03538	0.0552792	2.63876
3.12199	4.06302	0.0276396	2.63876
3.12201	4.09066	0	2.63876
3.13081	4.09066	0	2.63876
3.13084	4.09066	0	2.63876
3.13084	4.10448	0.0276396	2.63876
3.17847	4.13212	0	2.63876
3.17891	4.13212	0	2.63876
3.17891	4.14594	0.0276396	2.63876
3.20009	4.17358	0	2.63876
3.20032	4.17358	0	2.63876
3.20032	4.1874	0.0276396	2.63876
3.20604	4.21504	0	2.63876
3.20639	4.21504	0	2.63876
3.20645	4.21504	0.0276396	2.63876
3.20646	4.22886	0.0552792	2.63876
3.20648	4.2565	0.0276396	2.63876
3.22004	4.28413	0	2.63876
3.22306	4.28413	0	2.72975
3.24565	4.28413	0	2.91174
3.28463	4.28413	0	3.09372
3.28496	4.28413	0	3.09372
3.28496	4.29795	0.0276396	3.09372
3.28499	4.32559	0	3.09372
3.30743	4.32559	0	3.09372
3.30781	4.32559	0	3.09372
3.30784	4.32559	0.0552792	3.09372
3.30787	4.35323	0.0276396	3.09372
3.3209	4.38087	0	3.09372
3.32144	4.38087	0	3.09372
3.32146	4.38087	0.0552792	3.09372
3.32146	4.40851	0.0276396	3.09372
3.324	4.43615	0	3.09372
3.34498	4.43615	0	3.18471
3.34501	4.43615	0	3.27571
3.34504	4.43615	0	3.27571
3.359	4.43615	0	3.27571
3.37867	4.43615	0	3.27571
3.3789	4.43615	0	3.27571
3.42945	4.43615	0.0276396	3.27571
3.42953	4.43615	0.0276396	3.27571
3.42978	4.46379	0	3.27571
3.43035	4.46379	0.0276396	3.27571
3.43035	4.47761	0.0552792	3.27571
3.43036	4.50525	0.0276396	3.27571
3.4446	4.53289	0	3.27571
3.44463	4.53289	0	3.27571
3.48456	4.53289	0	3.27571
3.48522	4.53289	0	3.27571
3.48531	4.54671	0.0276396	3.27571
3.52845	4.57435	0	3.27571
3.52942	4.57435	0	3.27571
3.53021	4.57435	0.0276396	3.27571
3.53023	4.58817	0.0552792	3.27571
3.53025	4.61581	0.0276396	3.27571
3.53337	4.64345	0	3.27571
3.53339	4.64345	0	3.27571
3.53342	4.65727	0.0276396	3.27571
3.5352	4.68491	0	3.27571
3.53548	4.68491	0	3.27571
3.53564	4.69873	0.0276396	3.27571
3.54117	4.72637	0	3.27571
3.56391	4.72637	0	3.27571
3.56514	4.72637	0	3.27571
3.56525	4.74019	0.0276396	3.27571
3.61464	4.76783	0	3.27571
3.64029	4.76783	0	3.27571
3.64076	4.76783	0	3.27571
3.64081	4.78165	0.0276396	3.27571
3.64161	4.80929	0	3.27571
3.67453	4.80929	0	3.3667
3.69257	4.80929	0	3.45769
3.69309	4.80929	0	3.45769
3.69312	4.80929	0.0276396	3.45769
3.69313	4.82311	0.0552792	3.45769
3.69315	4.82311	0.0552792	3.45769
3.69315	4.85075	0.0276396	3.45769
3.76874	4.87839	0	3.45769
3.7689	4.87839	0	3.45769
3.76892	4.89221	0.0276396	3.45769
3.77217	4.91985	0	3.45769
3.77311	4.91985	0	3.45769
3.77311	4.93367	0.0276396	3.45769
3.78977	4.9613	0	3.45769
3.78984	4.9613	0	3.45769
3.79044	4.9613	0.0276396	3.45769
3.79048	4.9613	0.0552792	3.45769
3.79055	4.98894	0.0276396	3.45769
3.81142	5.01658	0	3.45769
3.8335	5.01658	0	3.63967
3.84104	5.01658	0	3.73066
3.84133	5.01658	0	3.73066
3.84486	5.01658	0.0276396	3.73066
3.85124	5.01658	0.0276396	3.82166
3.85817	5.01658	0.0276396	4.00364
3.88283	5.01658	0.0276396	4.18562
3.88289	5.01658	0.0276396	4.18562
3.88291	5.0304	0.0552792	4.18562
3.88292	5.05804	0.0276396	4.18562
3.88297	5.05804	0.0276396	4.18562
3.94192	5.08568	0	4.18562
3.95579	5.08568	0	4.36761
3.95789	5.08568	0	4.36761
3.96591	5.08568	0	4.36761
4.03711	5.08568	0	4.54959
4.06124	5.08568	0	4.54959
4.09219	5.08568	0	4.73157
4.09233	5.08568	0	4.73157
4.09239	5.0995	0.0276396	4.73157
4.09436	5.12714	0	4.73157
4.09454	5.12714	0	4.73157
4.09468	5.12714	0.0276396	4.73157
4.09469	5.14096	0.0552792	4.73157
4.09472	5.1686	0.0276396	4.73157
4.0989	5.19624	0	4.73157
4.12158	5.19624	0	4.82257
4.12204	5.19624	0	4.82257
4.12208	5.19624	0.0552792	4.82257
4.12209	5.22388	0.0276396	4.82257
4.12214	5.25152	0	4.82257
4.1915	5.25152	0	4.82257
4.19159	5.25152	0	4.82257
4.19161	5.26534	0.0276396	4.82257
4.19164	5.29298	0	4.82257
4.19728	5.29298	0	4.82257
4.19734	5.29298	0	4.82257
4.19736	5.3068	0.0276396	4.82257
4.21152	5.33444	0	4.82257
4.21153	5.33444	0	4.82257
4.21195	5.33444	0.0276396	4.82257
4.21198	5.34826	0.0552792	4.82257
4.21202	5.3759	0.0276396	4.82257
4.2288	5.40354	0	4.82257
4.23426	5.40354	0	4.82257
4.23518	5.40354	0	4.82257
4.23519	5.41736	0.0276396	4.82257
4.23839	5.445	0	4.82257
4.24031	5.445	0	4.82257
4.24115	5.445	0.0276396	4.82257
4.24116	5.45882	0.0552792	4.82257
4.24123	5.48646	0.0276396	4.82257
4.30813	5.5141	0	4.82257
4.30815	5.5141	0	4.82257
4.30825	5.52792	0.0276396	4.82257
4.34742	5.55556	0	4.82257
4.34762	5.55556	0	4.82257
4.34771	5.56938	0.0276396	4.82257
4.38339	5.59701	0	4.82257
4.38356	5.59701	0	4.82257
4.38357	5.61083	0.0276396	4.82257
4.41397	5.63847	0	4.82257
4.4146	5.63847	0	4.82257
4.41462	5.65229	0.0276396	4.82257
4.43877	5.67993	0	4.82257
4.43878	5.67993	0	4.82257
4.43885	5.69375	0.0276396	4.82257
4.43888	5.72139	0	4.82257
4.44257	5.72139	0	4.82257
4.44599	5.72139	0	4.82257
4.46991	5.72139	0	4.91356
4.47061	5.72139	0	4.91356
4.47062	5.72139	0.0552792	4.91356
4.47066	5.74903	0.0276396	4.91356
4.47342	5.77667	0	4.91356
4.47442	5.77667	0	4.91356
4.47444	5.79049	0.0276396	4.91356
4.47916	5.81813	0	4.91356
4.49873	5.81813	0	4.91356
4.49962	5.81813	0	4.91356
4.49972	5.83195	0.0276396	4.91356
4.51101	5.85959	0	4.91356
4.52039	5.85959	0	4.91356
4.52056	5.85959	0	4.91356
4.52056	5.85959	0.0552792	4.91356
4.52059	5.88723	0.0276396	4.91356
4.52468	5.91487	0	4.91356
4.5249	5.91487	0	4.91356
4.52527	5.91487	0.0276396	4.91356
4.52668	5.91487	0.0552792	4.91356
4.52683	5.91487	0.0829187	4.91356
4.55309	5.91487	0.0829187	5.00455
4.55309	5.91487	0.0829187	5.00455
4.55309	5.94251	0.0552792	5.00455
4.55309	5.94251	0.0552792	5.00455
4.5531	5.97015	0.0276396	5.00455
4.55313	5.97015	0.0276396	5.00455
4.5534	5.99779	0	5.00455
4.55347	6.01161	0.0276396	5.00455
4.57446	6.03925	0	5.00455
4.57514	6.03925	0	5.00455
4.57516	6.03925	0.0552792	5.00455
4.57523	6.06689	0.0276396	5.00455
4.58979	6.09453	0	5.00455
4.59007	6.09453	0	5.00455
4.59011	6.10835	0.0276396	5.00455
4.6144	6.13599	0	5.00455
4.61469	6.13599	0	5.00455
4.61538	6.13599	0.0276396	5.00455
4.61538	6.14981	0.0552792	5.00455
4.6154	6.17745	0.0276396	5.00455
4.70905	6.20509	0	5.00455
4.71325	6.20509	0	5.09554
4.7867	6.20509	0	5.18653
4.78677	6.20509	0	5.18653
4.7868	6.21891	0.0276396	5.18653
4.8202	6.24655	0	5.18653
4.82041	6.24655	0	5.18653
4.82041	6.24655	0.0552792	5.18653
4.82045	6.27418	0.0276396	5.18653
4.83036	6.30182	0	5.18653
4.83076	6.30182	0	5.18653
4.8308	6.31564	0.0276396	5.18653
4.8896	6.34328	0	5.18653
4.95971	6.34328	0	5.36852
4.96015	6.34328	0	5.36852
4.96018	6.34328	0.0552792	5.36852
4.96025	6.37092	0.0276396	5.36852
5.03931	6.39856	0	5.36852
5.072	6.39856	0	5.36852
5.16988	6.39856	0	5.5505
5.17339	6.39856	0	5.5505
5.17369	6.39856	0.0276396	5.5505
5.17369	6.41238	0.0552792	5.5505
5.17373	6.44002	0.0276396	5.5505
5.1753	6.46766	0	5.5505
5.18957	6.46766	0	5.64149
5.2909	6.46766	0	5.73248
5.29153	6.46766	0	5.73248
5.29156	6.48148	0.0276396	5.73248
5.35173	6.50912	0	5.73248
5.39157	6.50912	0	5.82348
5.39253	6.50912	0	5.82348
5.39272	6.50912	0.0276396	5.82348
5.39273	6.52294	0.0552792	5.82348
5.39276	6.55058	0.0276396	5.82348
5.41076	6.57822	0	5.82348
5.4111	6.57822	0	5.82348
5.41113	6.59204	0.0276396	5.82348
5.44871	6.61968	0	5.82348
5.49059	6.61968	0	5.82348
5.51529	6.61968	0	5.91447
5.51567	6.61968	0	5.91447
5.51579	6.6335	0.0276396	5.91447
5.53871	6.66114	0	5.91447
5.53901	6.66114	0	6.00546
5.60542	6.66114	0	6.00546
5.60593	6.66114	0	6.00546
5.60597	6.66114	0.0552792	6.00546
5.60598	6.68878	0.0276396	6.00546
5.61436	6.71642	0	6.00546
5.62574	6.71642	0	6.00546
5.62634	6.71642	0	6.00546
5.62646	6.71642	0.0276396	6.00546
5.62902	6.71642	0.0552792	6.00546
5.62903	6.73024	0.0829187	6.00546
5.62903	6.75788	0.0552792	6.00546
5.62904	6.75788	0.0552792	6.00546
5.62907	6.78552	0.0276396	6.00546
5.62908	6.78552	0.0276396	6.00546
5.63064	6.81316	0	6.00546
5.63075	6.81316	0	6.00546
5.6308	6.82698	0.0276396	6.00546
5.66924	6.85462	0	6.00546
5.67129	6.85462	0	6.00546
5.67129	6.86844	0.0276396	6.00546
5.707	6.89608	0	6.00546
5.70708	6.89608	0	6.00546
5.7071	6.90989	0.0276396	6.00546
5.72802	6.93753	0	6.00546
5.72892	6.93753	0	6.00546
5.729	6.95135	0.0276396	6.00546
5.75108	6.97899	0	6.00546
5.75127	6.97899	0	6.00546
5.75196	6.97899	0.0276396	6.00546
5.752	6.97899	0.0552792	6.00546
5.752	6.99281	0.0829187	6.00546
5.75201	6.99281	0.0829187	6.00546
5.75202	7.02045	0.0552792	6.00546
5.75205	7.04809	0.0276396	6.00546
5.77861	7.07573	0	6.00546
5.7789	7.07573	0	6.00546
5.77895	7.08955	0.0276396	6.00546
5.80546	7.11719	0	6.00546
5.84795	7.11719	0	6.09645
5.93228	7.11719	0	6.18744
5.96356	7.11719	0	6.27843
5.96374	7.11719	0	6.27843
5.99073	7.11719	0	6.46042
5.99112	7.11719	0	6.46042
5.99243	7.11719	0.0276396	6.46042
5.99244	7.13101	0.0552792	6.46042
5.99248	7.15865	0.0276396	6.46042
6.03668	7.18629	0	6.46042
6.04305	7.18629	0	6.55141
6.04308	7.18629	0	6.55141
6.04313	7.20011	0.0276396	6.55141
6.05849	7.22775	0	6.55141
6.06002	7.22775	0	6.55141
6.06003	7.22775	0.0552792	6.55141
6.06003	7.25539	0.0276396	6.55141
6.07624	7.28303	0	6.55141
6.09611	7.28303	0	6.55141
6.09639	7.28303	0	6.55141
6.09649	7.28303	0	6.55141
6.09658	7.29685	0.0276396	6.55141
6.09678	7.32449	0	6.55141
6.09682	7.33831	0.0276396	6.55141
6.13251	7.36595	0	6.55141
6.13301	7.36595	0	6.55141
6.13311	7.37977	0.0276396	6.55141
6.13734	7.40741	0	6.55141
6.13753	7.40741	0	6.55141
6.13754	7.42123	0.0276396	6.55141
6.17035	7.44887	0	6.55141
6.18372	7.44887	0	6.73339
6.27358	7.44887	0	6.73339
6.2755	7.44887	0	6.73339
6.27563	7.44887	0.0552792	6.73339
6.27565	7.47651	0.0276396	6.73339
6.31516	7.50415	0	6.73339
6.31664	7.50415	0	6.73339
6.31667	7.50415	0.0552792	6.73339
6.31673	7.53179	0.0276396	6.73339
6.35997	7.55943	0	6.73339
6.35998	7.55943	0	6.73339
6.36004	7.57324	0.0276396	6.73339
6.36006	7.60088	0	6.73339
6.39591	7.60088	0	6.73339
6.43749	7.60088	0	6.73339
6.43754	7.60088	0	6.73339
6.44086	7.60088	0.0276396	6.73339
6.44092	7.60088	0.0276396	6.73339
6.44103	7.6147	0.0552792	6.73339
6.44454	7.64234	0.0276396	6.73339
6.51615	7.64234	0.0276396	6.91538
6.51616	7.64234	0.0276396	7.00637
6.54147	7.66998	0	7.00637
6.58774	7.66998	0	7.18835
6.58828	7.66998	0	7.18835
6.5883	7.6838	0.0276396	7.18835
6.59356	7.71144	0	7.18835
6.65638	7.71144	0	7.27934
6.65659	7.71144	0	7.27934
6.65661	7.71144	0.0552792	7.27934
6.65671	7.73908	0.0276396	7.27934
6.66256	7.76672	0	7.27934
6.67587	7.76672	0	7.46133
6.67613	7.76672	0	7.46133
6.67617	7.78054	0.0276396	7.46133
6.67713	7.80818	0	7.46133
6.78781	7.80818	0	7.55232
6.78787	7.80818	0	7.55232
6.78789	7.822	0.0276396	7.55232
6.80038	7.84964	0	7.55232
6.83629	7.84964	0	7.7343
6.85295	7.84964	0	7.8253
6.85364	7.84964	0	7.8253
6.85372	7.86346	0.0276396	7.8253
6.85985	7.8911	0	7.8253
6.88121	7.8911	0	8.00728
6.88199	7.8911	0	8.18926
6.90039	7.8911	0	8.28025
6.90049	7.8911	0	8.28025
6.90049	7.90492	0.0276396	8.28025
6.93746	7.93256	0	8.28025
6.93852	7.93256	0	8.28025
6.93853	7.94638	0.0276396	8.28025
6.94512	7.97402	0	8.28025
6.96717	7.97402	0	8.37125
6.96722	7.97402	0	8.37125
6.96723	7.97402	0	8.37125
6.96856	7.97402	0	8.37125
6.9691	7.97402	0	8.37125
6.96913	7.97402	0.0552792	8.37125
6.96914	8.00166	0.0276396	8.37125
6.97549	8.0293	0	8.37125
6.97931	8.0293	0	8.46224
6.98051	8.0293	0	8.46224
6.98058	8.04312	0.0276396	8.46224
6.98935	8.07076	0	8.46224
6.99103	8.07076	0	8.46224
6.99165	8.07076	0.0276396	8.46224
6.99166	8.08458	0.0552792	8.46224
6.99167	8.11222	0.0276396	8.46224
6.99342	8.13986	0	8.46224
6.99671	8.13986	0	8.64422
6.9972	8.13986	0	8.64422
6.99788	8.13986	0.0276396	8.64422
6.99794	8.15368	0.0552792	8.64422
6.99795	8.18132	0.0276396	8.64422
7.02413	8.20896	0	8.64422
7.02429	8.20896	0	8.64422
7.02432	8.20896	0.0552792	8.64422
7.02433	8.23659	0.0276396	8.64422
7.04975	8.26423	0	8.64422
7.05016	8.26423	0	8.64422
7.05022	8.27805	0.0276396	8.64422
7.11506	8.30569	0	8.64422
7.11584	8.30569	0	8.64422
7.11589	8.31951	0.0276396	8.64422
7.20959	8.34715	0	8.64422
7.22591	8.34715	0	8.73521
7.2275	8.34715	0	8.73521
7.22751	8.34715	0.0552792	8.73521
7.22754	8.37479	0.0276396	8.73521
7.23922	8.40243	0	8.73521
7.23986	8.40243	0	8.73521
7.23989	8.40243	0.0552792	8.73521
7.23999	8.43007	0.0276396	8.73521
7.25073	8.45771	0	8.73521
7.27587	8.45771	0	8.82621
7.27622	8.45771	0	8.82621
7.27652	8.45771	0.0276396	8.82621
7.27774	8.45771	0.0552792	8.82621
7.27814	8.45771	0.0829187	8.82621
7.27873	8.45771	0.110558	8.82621
7.27902	8.45771	0.138198	8.82621
7.27904	8.45771	0.165837	8.82621
7.27972	8.45771	0.193477	8.82621
7.28005	8.45771	0.221117	8.82621
7.28006	8.45771	0.248756	8.82621
7.28058	8.48535	0.221117	8.82621
7.28061	8.48535	0.248756	8.82621
7.31342	8.51299	0.221117	8.82621
7.31431	8.51299	0.221117	8.82621
7.31432	8.51299	0.248756	8.82621
7.31442	8.51299	0.248756	8.82621
7.31452	8.51299	0.248756	8.82621
7.31453	8.52681	0.276396	8.82621
7.31453	8.55445	0.248756	8.82621
7.31455	8.58209	0.221117	8.82621
7.31456	8.60973	0.193477	8.82621
7.31456	8.63737	0.165837	8.82621
7.31457	8.66501	0.138198	8.82621
7.31459	8.69265	0.110558	8.82621
7.31464	8.72029	0.0829187	8.82621
7.31464	8.74793	0.0552792	8.82621
7.31467	8.77557	0.0276396	8.82621
7.3147	8.80321	0	8.82621
7.31959	8.80321	0	8.82621
7.41962	8.80321	0	9.00819
7.4243	8.80321	0	9.09918
7.42439	8.80321	0	9.09918
7.42483	8.80321	0.0276396	9.09918
7.42484	8.81703	0.0552792	9.09918
7.42484	8.84467	0.0276396	9.09918
7.45001	8.87231	0	9.09918
7.45031	8.87231	0	9.09918
7.45039	8.88612	0.0276396	9.09918
7.4613	8.91376	0	9.09918
7.4615	8.91376	0	9.09918
7.46151	8.92758	0.0276396	9.09918
7.47627	8.95522	0	9.09918
7.50401	8.95522	0	9.28116
7.50418	8.95522	0	9.28116
7.50422	8.96904	0.0276396	9.28116
7.53783	8.99668	0	9.28116
7.57434	8.99668	0	9.46315
7.57454	8.99668	0	9.46315
7.57461	9.0105	0.0276396	9.46315
7.59757	9.03814	0	9.46315
7.59787	9.03814	0	9.46315
7.5979	9.05196	0.0276396	9.46315
7.61654	9.0796	0	9.46315
7.6166	9.0796	0	9.46315
7.61661	9.0796	0.0552792	9.46315
7.61665	9.10724	0.0276396	9.46315
7.64795	9.13488	0	9.46315
7.6499	9.13488	0	9.46315
7.65018	9.13488	0	9.46315
7.65027	9.1487	0.0276396	9.46315
7.76389	9.17634	0	9.46315
7.76499	9.17634	0	9.46315
7.76502	9.19016	0.0276396	9.46315
7.86082	9.2178	0	9.46315
7.86094	9.2178	0	9.46315
7.86095	9.23162	0.0276396	9.46315
7.91022	9.25926	0	9.46315
7.91098	9.25926	0	9.46315
7.91107	9.25926	0.0552792	9.46315
7.91109	9.2869	0.0276396	9.46315
7.92451	9.31454	0	9.46315
7.92535	9.31454	0	9.46315
7.9254	9.32836	0.0276396	9.46315
7.99862	9.356	0	9.46315
8.04235	9.356	0	9.64513
8.06993	9.356	0	9.82712
8.07598	9.356	0	9.91811
8.07653	9.356	0	9.91811
8.07653	9.356	0.0552792	9.91811
8.07667	9.38364	0.0276396	9.91811
8.08623	9.41128	0	9.91811
8.08654	9.41128	0	9.91811
8.08676	9.41128	0.0276396	9.91811
8.08677	9.41128	0.0552792	9.91811
8.08678	9.43892	0.0276396	9.91811
8.09351	9.46656	0	9.91811
8.09436	9.46656	0	9.91811
8.09438	9.46656	0.0552792	9.91811
8.09446	9.4942	0.0276396	9.91811
8.14842	9.52184	0	9.91811
8.14979	9.52184	0	9.91811
8.1498	9.53566	0.0276396	9.91811
8.19051	9.56329	0	9.91811
8.23598	9.56329	0	10.1001
8.23648	9.56329	0	10.1911
8.23714	9.56329	0	10.1911
8.23715	9.57711	0.0276396	10.1911
8.40832	9.60475	0	10.1911
8.43755	9.60475	0	10.3731
8.43761	9.60475	0	10.3731
8.43764	9.61857	0.0276396	10.3731
8.43777	9.61857	0.0276396	10.3731
8.57096	9.64621	0	10.3731
8.57121	9.64621	0	10.3731
8.57123	9.66003	0.0276396	10.3731
8.58186	9.68767	0	10.3731
8.58331	9.68767	0	10.3731
8.58361	9.68767	0	10.4641
8.58428	9.68767	0.0276396	10.4641
8.58569	9.68767	0.0552792	10.4641
8.58569	9.70149	0.0829187	10.4641
8.58569	9.72913	0.0552792	10.4641
8.58569	9.75677	0.0276396	10.4641
8.61298	9.78441	0	10.4641
8.61402	9.78441	0	10.4641
8.61404	9.79823	0.0276396	10.4641
8.63596	9.82587	0	10.4641
8.63681	9.82587	0	10.4641
8.63724	9.82587	0.0276396	10.4641
8.63725	9.82587	0.0829187	10.4641
8.63726	9.85351	0.0552792	10.4641
8.63734	9.88115	0.0276396	10.4641
8.66186	9.90879	0	10.4641
8.71683	9.90879	0	10.5551
8.71692	9.90879	0	10.646
8.72849	9.90879	0	10.828
8.72911	9.90879	0	10.828
8.72919	9.92261	0.0276396	10.828
8.77095	9.95025	0	10.828
8.81149	9.95025	0	11.01
8.81187	9.95025	0	11.01
8.81195	9.96407	0.0276396	11.01
8.84251	9.99171	0	11.01
8.8426	9.99171	0	11.01
8.84263	10.0055	0.0276396	11.01
8.85006	10.0332	0	11.01
8.85036	10.0332	0	11.01
8.85083	10.0332	0.0276396	11.01
8.85129	10.0332	0.0552792	11.01
8.8525	10.0332	0.0829187	11.01
8.85278	10.0332	0.110558	11.01
8.85377	10.0332	0.138198	11.01
8.85382	10.0332	0.165837	11.01
8.85428	10.0332	0.193477	11.01
8.85428	10.0332	0.221117	11.01
8.85429	10.0608	0.193477	11.01
8.8543	10.0884	0.165837	11.01
8.85432	10.1161	0.138198	11.01
8.85432	10.1437	0.110558	11.01
8.85436	10.1437	0.110558	11.01
8.85437	10.1714	0.0829187	11.01
8.85439	10.199	0.0552792	11.01
8.85449	10.2266	0.0276396	11.01
8.85836	10.2543	0	11.01
9.00705	10.2543	0	11.101
9.00811	10.2543	0	11.101
9.00812	10.2681	0.0276396	11.101
9.09331	10.2957	0	11.101
9.15462	10.2957	0	11.283
9.1552	10.2957	0	11.283
9.15527	10.3096	0.0276396	11.283
9.22828	10.3372	0	11.283
9.29118	10.3372	0	11.465
9.29207	10.3372	0	11.465
9.29215	10.351	0.0276396	11.465
9.30576	10.3787	0	11.465
9.3062	10.3787	0	11.465
9.30635	10.3787	0.0276396	11.465
9.30635	10.3925	0.0552792	11.465
9.30636	10.4201	0.0276396	11.465
9.44398	10.4478	0	11.465
9.44502	10.4478	0	11.465
9.44503	10.4478	0.0552792	11.465
9.44508	10.4754	0.0276396	11.465
9.50968	10.503	0	11.465
9.51026	10.503	0	11.465
9.51028	10.503	0.0552792	11.465
9.5104	10.5307	0.0276396	11.465
9.70472	10.5583	0	11.465
9.70603	10.5583	0	11.465
9.70711	10.5583	0.0276396	11.465
9.70718	10.5721	0.0552792	11.465
9.70724	10.5998	0.0276396	11.465
9.75048	10.6274	0	11.465
9.75058	10.6274	0	11.465
9.75063	10.6412	0.0276396	11.465
9.82302	10.6689	0	11.465
9.82313	10.6689	0	11.465
9.82316	10.6689	0.0552792	11.465
9.82316	10.6965	0.0276396	11.465
9.87353	10.7242	0	11.465
10.1145	10.7242	0	11.647
10.1152	10.7242	0	11.647
10.1153	10.7242	0.0552792	11.647
10.1153	10.7518	0.0276396	11.647
10.1262	10.7794	0	11.647
10.1407	10.7794	0	11.8289
10.142	10.7794	0	12.0109
10.2115	10.7794	0	12.1019
10.2125	10.7794	0	12.1019
10.2126	10.7933	0.0276396	12.1019
10.3191	10.8209	0	12.1019
10.373	10.8209	0	12.1929
10.4315	10.8209	0	12.3749
10.4317	10.8209	0	12.3749
10.4323	10.8209	0.0276396	12.3749
10.4339	10.8209	0.0552792	12.3749
10.4339	10.8347	0.0829187	12.3749
10.4339	10.8624	0.0552792	12.3749
10.4339	10.89	0.0276396	12.3749
10.4854	10.9176	0	12.3749
10.4862	10.9176	0	12.3749
10.4863	10.9315	0.0276396	12.3749
10.5049	10.9591	0	12.3749
10.5068	10.9591	0	12.3749
10.5068	10.9591	0.0552792	12.3749
10.5068	10.9867	0.0276396	12.3749
10.5463	11.0144	0	12.3749
10.5463	11.0144	0	12.3749
10.5463	11.0282	0.0276396	12.3749
10.6402	11.0558	0	12.3749
10.7351	11.0558	0	12.4659
10.7406	11.0558	0	12.5569
10.741	11.0558	0	12.5569
10.741	11.0558	0.0552792	12.5569
10.7411	11.0835	0.0276396	12.5569
10.7466	11.1111	0	12.5569
10.7468	11.1111	0	12.5569
10.7468	11.1249	0.0276396	12.5569
10.7486	11.1526	0	12.5569
10.7488	11.1526	0	12.5569
10.7488	11.1664	0.0276396	12.5569
11.0133	11.194	0	12.5569
11.0135	11.194	0	12.5569
11.0136	11.2078	0.0276396	12.5569
11.0188	11.2355	0	12.5569
11.0207	11.2355	0	12.5569
11.0213	11.2355	0.0276396	12.5569
11.0213	11.2493	0.0552792	12.5569
11.0213	11.2769	0.0276396	12.5569
11.0532	11.3046	0	12.5569
11.0689	11.3046	0	12.6479
11.0689	11.3046	0	12.6479
11.0689	11.3046	0.0552792	12.6479
11.069	11.3322	0.0276396	12.6479
11.0963	11.3599	0	12.6479
11.0976	11.3599	0	12.6479
11.0976	11.3599	0.0552792	12.6479
11.0977	11.3875	0.0276396	12.6479
11.1553	11.4151	0	12.6479
11.2473	11.4151	0	12.8298
11.2473	11.4151	0	12.8298
11.2474	11.429	0.0276396	12.8298
11.3613	11.4566	0	12.8298
11.362	11.4566	0	12.8298
11.362	11.4566	0.0552792	12.8298
11.362	11.4842	0.0276396	12.8298
11.4146	11.5119	0	12.8298
11.5605	11.5119	0	12.9208
11.561	11.5119	0	12.9208
11.561	11.5257	0.0276396	12.9208
11.5899	11.5533	0	12.9208
11.5959	11.5533	0	13.0118
11.5971	11.5533	0	13.0118
11.5971	11.5672	0.0276396	13.0118
11.6379	11.5948	0	13.0118
11.6391	11.5948	0	13.0118
11.6392	11.6086	0.0276396	13.0118
11.6882	11.6363	0	13.0118
11.6885	11.6363	0	13.0118
11.6885	11.6501	0.0276396	13.0118
11.6981	11.6777	0	13.0118
11.7529	11.6777	0	13.1028
11.7538	11.6777	0	13.1028
11.7539	11.6777	0.0276396	13.1028
11.7539	11.6915	0.0552792	13.1028
11.7539	11.7192	0.0276396	13.1028
11.9175	11.7468	0	13.1028
11.9176	11.7468	0	13.1028
11.9177	11.7468	0.0276396	13.1028
11.9177	11.7606	0.0552792	13.1028
11.9178	11.7883	0.0276396	13.1028
11.9836	11.8159	0	13.1028
12.0004	11.8159	0	13.2848
12.0311	11.8159	0	13.4668
12.0312	11.8159	0	13.4668
12.0312	11.8159	0.0552792	13.4668
12.0312	11.8436	0.0276396	13.4668
12.0383	11.8712	0	13.4668
12.0392	11.8712	0	13.4668
12.0394	11.8712	0.0276396	13.4668
12.0407	11.8712	0.0552792	13.4668
12.0408	11.8712	0.0829187	13.4668
12.0416	11.8712	0.110558	13.4668
12.0417	11.8712	0.110558	13.6488
12.0417	11.885	0.138198	13.6488
12.0417	11.9127	0.110558	13.6488
12.0417	11.9403	0.0829187	13.6488
12.0418	11.9403	0.0829187	13.6488
12.0418	11.9679	0.0552792	13.6488
12.0418	11.9956	0.0276396	13.6488
12.042	12.0232	0	13.6488
12.0637	12.0232	0	13.6488
12.1028	12.0232	0	13.8308
12.108	12.0232	0	14.0127
12.1081	12.0232	0	14.0127
12.1081	12.037	0.0276396	14.0127
12.1192	12.0647	0	14.0127
12.1201	12.0647	0	14.0127
12.1201	12.0647	0.0552792	14.0127
12.1201	12.0923	0.0276396	14.0127
12.2912	12.12	0	14.0127
12.2914	12.12	0	14.0127
12.2916	12.12	0.0276396	14.0127
12.2916	12.1338	0.0552792	14.0127
12.2916	12.1614	0.0276396	14.0127
12.3028	12.1891	0	14.0127
12.303	12.1891	0	14.0127
12.3861	12.1891	0.0276396	14.0127
12.3862	12.1891	0.0276396	14.0127
12.3868	12.2167	0	14.0127
12.3868	12.2305	0.0276396	14.0127
12.4533	12.2582	0	14.0127
12.5791	12.2582	0	14.1947
12.5796	12.2582	0	14.1947
12.5797	12.272	0.0276396	14.1947
12.6295	12.2996	0	14.1947
12.6314	12.2996	0	14.1947
12.6314	12.3134	0.0276396	14.1947
12.6371	12.3411	0	14.1947
12.6376	12.3411	0	14.1947
12.6377	12.3549	0.0276396	14.1947
12.6709	12.3825	0	14.1947
12.6714	12.3825	0	14.1947
12.6714	12.3964	0.0276396	14.1947
12.6973	12.424	0	14.1947
12.6982	12.424	0	14.1947
12.6982	12.424	0.0552792	14.1947
12.6983	12.4516	0.0276396	14.1947
12.7535	12.4793	0	14.1947
12.7537	12.4793	0	14.1947
12.7537	12.4793	0.0552792	14.1947
12.7538	12.5069	0.0276396	14.1947
12.761	12.5345	0	14.1947
12.761	12.5345	0	14.1947
12.7611	12.5484	0.0276396	14.1947
12.7674	12.576	0	14.1947
12.8129	12.576	0	14.2857
12.813	12.576	0	14.2857
12.813	12.5898	0.0276396	14.2857
12.8233	12.6175	0	14.2857
12.8234	12.6175	0	14.2857
12.8234	12.6313	0.0276396	14.2857
12.8319	12.6589	0	14.2857
12.8532	12.6589	0	14.4677
12.8533	12.6589	0	14.4677
12.8534	12.6589	0.0276396	14.4677
12.9765	12.6589	0.0276396	14.6497
12.9765	12.6589	0.0276396	14.6497
12.9768	12.6866	0	14.6497
12.9771	12.6866	0.0276396	14.6497
12.9772	12.7004	0.0552792	14.6497
12.9772	12.728	0.0276396	14.6497
13.0099	12.7557	0	14.6497
13.125	12.7557	0	14.8317
13.1253	12.7557	0	14.8317
13.1253	12.7695	0.0276396	14.8317
13.1529	12.7971	0	14.8317
13.1534	12.7971	0	14.8317
13.1536	12.8109	0.0276396	14.8317
13.2297	12.8386	0	14.8317
13.231	12.8386	0	14.8317
13.2311	12.8524	0.0276396	14.8317
13.2493	12.88	0	14.8317
13.2506	12.88	0	14.8317
13.2507	12.8939	0.0276396	14.8317
13.3204	12.9215	0	14.8317
13.3209	12.9215	0	14.8317
13.3209	12.9215	0.0552792	14.8317
13.321	12.9491	0.0276396	14.8317
13.3554	12.9768	0	14.8317
13.3554	12.9768	0	14.8317
13.3555	12.9768	0.0276396	14.8317
13.3555	12.9906	0.0552792	14.8317
13.3555	13.0182	0.0276396	14.8317
13.4504	13.0459	0	14.8317
13.4505	13.0459	0	14.8317
13.4507	13.0459	0.0276396	14.8317
13.4507	13.0597	0.0552792	14.8317
13.4508	13.0873	0.0276396	14.8317
13.5255	13.115	0	14.8317
13.5255	13.115	0	14.9227
13.5265	13.115	0	14.9227
13.5279	13.115	0	14.9227
13.528	13.1288	0.0276396	14.9227
13.7107	13.1564	0	14.9227
13.7116	13.1564	0	14.9227
13.7116	13.1564	0.0552792	14.9227
13.7117	13.1841	0.0276396	14.9227
13.788	13.2117	0	14.9227
13.7881	13.2117	0	14.9227
13.7888	13.2117	0.0276396	14.9227
13.7888	13.2255	0.0552792	14.9227
13.7889	13.2532	0.0276396	14.9227
13.8949	13.2808	0	14.9227
13.9994	13.2808	0	15.1046
13.9998	13.2808	0	15.1046
13.9999	13.2808	0.0552792	15.1046
13.9999	13.3085	0.0276396	15.1046
14.0173	13.3361	0	15.1046
14.0183	13.3361	0	15.1046
14.0183	13.3499	0.0276396	15.1046
14.0214	13.3776	0	15.1046
14.1426	13.3776	0	15.2866
14.1426	13.3776	0	15.2866
14.1427	13.3914	0.0276396	15.2866
14.4154	13.419	0	15.2866
14.5016	13.419	0	15.3776
14.5025	13.419	0	15.3776
14.5026	13.4328	0.0276396	15.3776
14.6066	13.4605	0	15.3776
14.6068	13.4605	0	15.3776
14.673	13.4605	0.0276396	15.3776
14.6732	13.4605	0.0276396	15.5596
14.8002	13.4881	0	15.5596
14.8003	13.4881	0	15.5596
14.8003	13.5019	0.0276396	15.5596
15.3298	13.5296	0	15.5596
15.3299	13.5296	0	15.5596
15.3302	13.5434	0.0276396	15.5596
15.402	13.571	0	15.5596
15.4028	13.571	0	15.5596
15.4029	13.5849	0.0276396	15.5596
15.4984	13.6125	0	15.5596
15.4987	13.6125	0	15.5596
15.4988	13.6263	0.0276396	15.5596
15.6634	13.654	0	15.5596
15.6636	13.654	0	15.5596
15.6636	13.654	0.0552792	15.5596
15.6636	13.6816	0.0276396	15.5596
15.8577	13.7092	0	15.5596
15.858	13.7092	0	15.5596
15.858	13.7092	0.0552792	15.5596
15.8583	13.7369	0.0276396	15.5596
15.8781	13.7645	0	15.5596
15.8783	13.7645	0	15.5596
15.8784	13.7783	0.0276396	15.5596
15.8934	13.806	0	15.5596
15.9587	13.806	0	15.5596
15.9588	13.806	0	15.5596
15.9591	13.806	0.0276396	15.5596
15.9591	13.8198	0.0552792	15.5596
15.9593	13.8474	0.0276396	15.5596
16.0264	13.8751	0	15.5596
16.0378	13.8751	0	15.6506
16.0388	13.8751	0	15.6506
16.0388	13.8889	0.0276396	15.6506
16.0654	13.9165	0	15.6506
16.1662	13.9165	0	15.8326
16.1666	13.9165	0	15.8326
16.1666	13.9165	0.0552792	15.8326
16.1666	13.9442	0.0276396	15.8326
16.2732	13.9718	0	15.8326
16.274	13.9718	0	15.8326
16.274	13.9856	0.0276396	15.8326
16.3019	14.0133	0	15.8326
16.3022	14.0133	0	15.8326
16.3034	14.0133	0.0276396	15.8326
16.3034	14.0271	0.0552792	15.8326
16.3034	14.0547	0.0276396	15.8326
16.3325	14.0824	0	15.8326
16.3328	14.0824	0	15.8326
16.3328	14.0962	0.0276396	15.8326
16.4539	14.1238	0	15.8326
16.454	14.1238	0	15.8326
16.454	14.1376	0.0276396	15.8326
16.4843	14.1653	0	15.8326
16.4844	14.1653	0	15.8326
17.0063	14.1653	0.0276396	15.8326
17.0068	14.1653	0.0276396	15.8326
17.0069	14.1791	0.0552792	15.8326
17.007	14.2067	0.0276396	15.8326
17.3273	14.2344	0	15.8326
17.3275	14.2344	0	15.8326
17.3275	14.2482	0.0276396	15.8326
17.3894	14.2758	0	15.8326
17.5739	14.2758	0	16.0146
17.5745	14.2758	0	16.0146
17.5751	14.2758	0.0276396	16.0146
17.5751	14.2897	0.0552792	16.0146
17.5751	14.3173	0.0276396	16.0146
17.9407	14.3449	0	16.0146
17.9418	14.3449	0	16.0146
18.1845	14.3449	0.0276396	16.0146
18.1845	14.3449	0.0276396	16.0146
18.185	14.3726	0	16.0146
18.185	14.3864	0.0276396	16.0146
18.19	14.414	0	16.0146
18.2434	14.414	0	16.1965
18.4801	14.414	0	16.2875
18.4809	14.414	0	16.2875
18.481	14.414	0.0552792	16.2875
18.481	14.4417	0.0276396	16.2875
18.6338	14.4693	0	16.2875
18.6351	14.4693	0	16.2875
18.6351	14.4831	0.0276396	16.2875
18.8178	14.5108	0	16.2875
18.8193	14.5108	0	16.2875
18.8193	14.5246	0.0276396	16.2875
18.837	14.5522	0	16.2875
19.0415	14.5522	0	16.4695
19.255	14.5522	0	16.6515
19.2551	14.5522	0	16.6515
19.2551	14.5661	0.0276396	16.6515
19.5771	14.5937	0	16.6515
19.6026	14.5937	0	16.8335
19.6029	14.5937	0	16.8335
19.6029	14.5937	0.0552792	16.8335
19.603	14.6213	0.0276396	16.8335
19.7132	14.649	0	16.8335
19.7134	14.649	0	16.8335
19.7135	14.6628	0.0276396	16.8335
19.7315	14.6904	0	16.8335
19.7326	14.6904	0	16.8335
19.7327	14.7043	0.0276396	16.8335
19.9114	14.7319	0	16.8335
19.9121	14.7319	0	16.8335
19.9121	14.7457	0.0276396	16.8335
19.9623	14.7734	0	16.8335
20.3446	14.7734	0	17.0155
20.3452	14.7734	0	17.0155
20.3452	14.7734	0.0552792	17.0155
20.3454	14.801	0.0276396	17.0155
20.4014	14.8286	0	17.0155
20.4017	14.8286	0	17.0155
20.402	14.8286	0.0276396	17.0155
20.4023	14.8286	0.0552792	17.0155
20.4032	14.8286	0.0829187	17.0155
20.4032	14.8286	0.110558	17.0155
20.4033	14.8425	0.138198	17.0155
20.4033	14.8701	0.110558	17.0155
20.4033	14.8977	0.0829187	17.0155
20.4033	14.9254	0.0552792	17.0155
20.4033	14.953	0.0276396	17.0155
20.6621	14.9807	0	17.0155
20.7952	14.9807	0	17.1975
20.8787	14.9807	0	17.2884
20.8792	14.9807	0	17.2884
20.8794	14.9945	0.0276396	17.2884
20.894	15.0221	0	17.2884
21.2353	15.0221	0	17.3794
21.3928	15.0221	0	17.5614
21.3943	15.0221	0	17.5614
21.3946	15.0221	0.0276396	17.5614
21.3947	15.0221	0.0552792	17.5614
21.3947	15.0221	0.0829187	17.5614
21.3952	15.0221	0.110558	17.5614
21.3953	15.0221	0.138198	17.5614
21.3957	15.0221	0.165837	17.5614
21.3962	15.0221	0.193477	17.5614
21.3967	15.0221	0.221117	17.5614
21.3967	15.0359	0.248756	17.5614
21.3967	15.0636	0.221117	17.5614
21.3967	15.0912	0.193477	17.5614
21.3967	15.1189	0.165837	17.5614
21.3968	15.1465	0.138198	17.5614
21.3968	15.1741	0.110558	17.5614
21.3968	15.2018	0.0829187	17.5614
21.3968	15.2294	0.0552792	17.5614
21.3969	15.257	0.0276396	17.5614
21.3969	15.257	0.0276396	17.5614
21.571	15.2847	0	17.5614
21.5711	15.2847	0	17.5614
21.8262	15.2847	0.0276396	17.5614
21.8263	15.2847	0.0276396	17.7434
21.9158	15.3123	0	17.7434
22.0376	15.3123	0	17.9254
22.0377	15.3123	0	17.9254
22.0378	15.3261	0.0276396	17.9254
22.0772	15.3538	0	17.9254
22.1611	15.3538	0	18.1074
22.1624	15.3538	0	18.1074
22.1625	15.3676	0.0276396	18.1074
22.2782	15.3952	0	18.1074
22.2783	15.3952	0	18.1074
22.2784	15.3952	0.0276396	18.1074
22.2784	15.4091	0.0552792	18.1074
22.2785	15.4367	0.0276396	18.1074
22.507	15.4643	0	18.1074
22.5076	15.4643	0	18.1074
22.5076	15.4782	0.0276396	18.1074
22.5179	15.5058	0	18.1074
22.5187	15.5058	0	18.1074
22.5188	15.5196	0.0276396	18.1074
22.6332	15.5473	0	18.1074
22.6345	15.5473	0	18.1074
22.6347	15.5611	0.0276396	18.1074
23.0419	15.5887	0	18.1074
23.0426	15.5887	0	18.1074
23.0427	15.5887	0.0552792	18.1074
23.0427	15.6164	0.0276396	18.1074
23.3149	15.644	0	18.1074
23.5099	15.644	0	18.2894
23.5106	15.644	0	18.2894
23.5106	15.644	0.0552792	18.2894
23.5107	15.6716	0.0276396	18.2894
23.6107	15.6993	0	18.2894
23.6107	15.6993	0	18.2894
23.6107	15.6993	0.0276396	18.2894
23.6108	15.7131	0.0552792	18.2894
23.6108	15.7407	0.0276396	18.2894
23.7382	15.7684	0	18.2894
23.7386	15.7684	0	18.2894
23.7387	15.7684	0.0552792	18.2894
23.7389	15.796	0.0276396	18.2894
23.8629	15.8237	0	18.2894
23.8639	15.8237	0	18.2894
23.8639	15.8237	0.0276396	18.2894
24.1791	15.8513	0	18.2894
24.1792	15.8513	0	18.2894
24.1798	15.8513	0.0276396	18.2894
24.1799	15.8513	0.0552792	18.2894
24.1799	15.8513	0.110558	18.2894
24.1799	15.8789	0.0829187	18.2894
24.1799	15.9066	0.0552792	18.2894
24.1799	15.9342	0.0276396	18.2894
24.2367	15.9619	0	18.2894
24.2371	15.9619	0	18.2894
24.2371	15.9757	0.0276396	18.2894
24.5971	16.0033	0	18.2894
24.5979	16.0033	0	18.2894
24.5979	16.0033	0.0552792	18.2894
24.5979	16.031	0.0276396	18.2894
24.9941	16.0586	0	18.2894
24.9942	16.0586	0	18.2894
24.9943	16.0724	0.0276396	18.2894
25.1396	16.1001	0	18.2894
25.1397	16.1001	0	18.2894
25.1398	16.1001	0.0276396	18.2894
25.1398	16.1139	0.0552792	18.2894
25.1398	16.1415	0.0276396	18.2894
25.2053	16.1692	0	18.2894
25.2056	16.1692	0	18.2894
25.2056	16.183	0.0276396	18.2894
25.2364	16.2106	0	18.2894
25.2366	16.2106	0	18.2894
25.2366	16.2244	0.0276396	18.2894
25.2444	16.2521	0	18.2894
25.3632	16.2521	0	18.4713
25.3634	16.2521	0	18.4713
25.3634	16.2521	0.0552792	18.4713
25.3634	16.2797	0.0276396	18.4713
25.5557	16.3074	0	18.4713
25.5558	16.3074	0	18.4713
25.5562	16.3074	0.0276396	18.4713
25.5562	16.3212	0.0552792	18.4713
25.5562	16.3488	0.0276396	18.4713
25.8793	16.3765	0	18.4713
25.8797	16.3765	0	18.4713
25.8798	16.3765	0.0276396	18.4713
25.8798	16.3903	0.0552792	18.4713
25.8799	16.4179	0.0276396	18.4713
26.0387	16.4456	0	18.4713
26.0391	16.4456	0	18.4713
26.0391	16.4456	0.0552792	18.4713
26.0392	16.4732	0.0276396	18.4713
26.0898	16.5008	0	18.4713
26.0902	16.5008	0	18.4713
26.0902	16.5008	0.0552792	18.4713
26.0902	16.5285	0.0276396	18.4713
26.0935	16.5561	0	18.4713
26.0936	16.5561	0	18.4713
26.0937	16.5699	0.0276396	18.4713
26.4341	16.5976	0	18.4713
26.4342	16.5976	0	18.4713
26.4342	16.5976	0.0552792	18.4713
26.4342	16.6252	0.0276396	18.4713
26.6433	16.6528	0	18.4713
26.6434	16.6528	0	18.4713
26.6434	16.6667	0.0276396	18.4713
26.8411	16.6943	0	18.4713
26.8426	16.6943	0	18.4713
26.8427	16.7081	0.0276396	18.4713
26.8427	16.7358	0	18.4713
27.1296	16.7358	0	18.4713
27.1312	16.7358	0	18.4713
27.1312	16.7496	0.0276396	18.4713
27.2889	16.7772	0	18.4713
27.289	16.7772	0	18.4713
27.289	16.791	0.0276396	18.4713
28.2653	16.8187	0	18.4713
28.2658	16.8187	0	18.4713
28.2772	16.8187	0.0276396	18.4713
28.3021	16.8187	0.0276396	18.6533
29.2947	16.8187	0.0276396	18.8353
29.2948	16.8187	0.0276396	18.8353
29.2957	16.8463	0	18.8353
29.2957	16.8463	0.0552792	18.8353
29.2957	16.874	0.0276396	18.8353
29.4332	16.9016	0	18.8353
29.4334	16.9016	0	18.8353
29.4334	16.9154	0.0276396	18.8353
29.7174	16.9431	0	18.8353
29.7175	16.9431	0	18.8353
30.0103	16.9431	0.0276396	18.8353
30.0107	16.9431	0.0276396	18.8353
30.0107	16.9569	0.0552792	18.8353
30.0108	16.9845	0.0276396	18.8353
30.5922	17.0122	0	18.8353
30.5923	17.0122	0	18.8353
30.5923	17.0122	0.0552792	18.8353
30.5924	17.0398	0.0276396	18.8353
30.7044	17.0674	0	18.8353
30.7046	17.0674	0	18.8353
30.7046	17.0674	0.0552792	18.8353
30.7047	17.0951	0.0276396	18.8353
30.7997	17.1227	0	18.8353
30.8009	17.1227	0	18.8353
30.8016	17.1227	0.0276396	18.8353
30.8016	17.1365	0.0552792	18.8353
30.8019	17.1642	0.0276396	18.8353
30.8453	17.1918	0	18.8353
30.8456	17.1918	0	18.8353
30.8456	17.2056	0.0276396	18.8353
30.9875	17.2333	0	18.8353
30.9875	17.2333	0	18.8353
30.9875	17.2333	0.0552792	18.8353
30.9876	17.2609	0.0276396	18.8353
31.0055	17.2886	0	18.8353
31.0061	17.2886	0	18.8353
31.0061	17.2886	0.0552792	18.8353
31.0061	17.3162	0.0276396	18.8353
31.6572	17.3438	0	18.8353
31.6575	17.3438	0	18.8353
31.6575	17.3438	0.0552792	18.8353
31.6575	17.3715	0.0276396	18.8353
31.8331	17.3991	0	18.8353
31.8334	17.3991	0	18.8353
31.8334	17.3991	0.0552792	18.8353
31.8334	17.4268	0.0276396	18.8353
32.1439	17.4544	0	18.8353
32.1439	17.4544	0	18.8353
32.144	17.4544	0.0276396	18.8353
32.144	17.4682	0.0552792	18.8353
32.144	17.4959	0.0276396	18.8353
32.5955	17.5235	0	18.8353
32.5957	17.5235	0	18.8353
32.5959	17.5235	0.0276396	18.8353
32.596	17.5235	0.0552792	18.8353
32.596	17.5511	0.0276396	18.8353
32.9741	17.5788	0	18.8353
33.1024	17.5788	0	19.0173
33.1029	17.5788	0	19.0173
33.103	17.5788	0.0552792	19.0173
33.103	17.6064	0.0276396	19.0173
33.51	17.6341	0	19.0173
33.5113	17.6341	0	19.0173
33.5114	17.6341	0.0552792	19.0173
33.5114	17.6617	0.0276396	19.0173
34.5044	17.6893	0	19.0173
34.5057	17.6893	0	19.0173
34.5058	17.6893	0.0552792	19.0173
34.5058	17.717	0.0276396	19.0173
36.0263	17.7446	0	19.0173
36.0268	17.7446	0	19.0173
36.0268	17.7446	0.0552792	19.0173
36.0269	17.7722	0.0276396	19.0173
36.969	17.7999	0	19.0173
36.9696	17.7999	0	19.0173
36.9696	17.8137	0.0276396	19.0173
37.3025	17.8413	0	19.0173
37.3042	17.8413	0	19.0173
37.3042	17.8413	0.0552792	19.0173
37.3044	17.869	0.0276396	19.0173
37.3652	17.8966	0	19.0173
37.3652	17.8966	0	19.0173
37.3652	17.8966	0.0552792	19.0173
37.3652	17.9243	0.0276396	19.0173
37.5565	17.9519	0	19.0173
37.5566	17.9519	0	19.0173
37.5569	17.9519	0.0276396	19.0173
37.5569	17.9657	0.0552792	19.0173
37.557	17.9934	0.0276396	19.0173
38.7692	18.021	0	19.0173
38.7696	18.021	0	19.0173
40.2885	18.021	0.0276396	19.0173
40.2885	18.021	0.0276396	19.0173
40.2888	18.0486	0	19.0173
40.2888	18.0486	0.0276396	19.0173
40.2889	18.0625	0.0552792	19.0173
40.289	18.0901	0.0276396	19.0173
41.8049	18.1177	0	19.0173
41.8052	18.1177	0	19.0173
41.8052	18.1177	0.0552792	19.0173
41.8052	18.1454	0.0276396	19.0173
43.0681	18.173	0	19.0173
43.1922	18.173	0	19.1993
43.1924	18.173	0	19.1993
43.1924	18.173	0.0552792	19.1993
43.1925	18.2007	0.0276396	19.1993
44.8221	18.2283	0	19.1993
44.8222	18.2283	0	19.1993
44.8223	18.2283	0.0552792	19.1993
44.8223	18.2559	0.0276396	19.1993
46.6763	18.2836	0	19.1993
46.6767	18.2836	0	19.1993
46.6767	18.2836	0.0552792	19.1993
46.6767	18.3112	0.0276396	19.1993
46.9493	18.3389	0	19.1993
46.9496	18.3389	0	19.1993
46.9496	18.3389	0.0552792	19.1993
46.9496	18.3665	0.0276396	19.1993
48.2694	18.3941	0	19.1993
48.27	18.3941	0	19.1993
48.27	18.3941	0.0552792	19.1993
48.27	18.4218	0.0276396	19.1993
50.0781	18.4494	0	19.1993
50.0782	18.4494	0	19.1993
50.0783	18.4494	0.0552792	19.1993
50.0783	18.4771	0.0276396	19.1993
50.3606	18.5047	0	19.1993
50.3607	18.5047	0	19.1993
50.3607	18.5185	0.0276396	19.1993
50.9475	18.5462	0	19.1993
50.9501	18.5462	0	19.1993
50.9501	18.56	0.0276396	19.1993
51.0686	18.5876	0	19.1993
51.0689	18.5876	0	19.1993
52.1972	18.5876	0.0276396	19.1993
52.1973	18.5876	0.0276396	19.1993
52.1975	18.6153	0	19.1993
52.1975	18.6153	0.0552792	19.1993
52.1975	18.6429	0.0276396	19.1993
55.1379	18.6705	0	19.1993
55.1381	18.6705	0	19.1993
55.1381	18.6705	0.0552792	19.1993
55.1382	18.6982	0.0276396	19.1993
59.3748	18.7258	0	19.1993
59.3756	18.7258	0	19.1993
59.3756	18.7258	0.0552792	19.1993
59.3756	18.7535	0.0276396	19.1993
72.6845	18.7811	0	19.1993
72.6848	18.7811	0	19.1993
72.6852	18.7811	0.0276396	19.1993
72.6853	18.7949	0.0552792	19.1993
72.6853	18.8226	0.0276396	19.1993
105.563	18.8502	0	19.1993
105.563	18.8502	0	19.1993
105.563	18.8502	0.0552792	19.1993
105.563	18.8778	0.0276396	19.1993
110.775	18.9055	0	19.1993
110.775	18.9055	0	19.1993
110.775	18.9055	0.0552792	19.1993
110.775	18.9331	0.0276396	19.1993
