1.32538e-09	0	0	0
1.32809e-09	0	0	0
1.49686e-09	0	0	0
1.89116e-09	0	0	0
1.95209e-09	0	0	0
2.79462e-09	0	0	0
3.13597e-09	0	0	0
4.13903e-09	0	0	0
5.63778e-09	0	0	0
5.89093e-09	0	0	0
7.53828e-09	0	0	0
7.87361e-09	0	0	0
7.99506e-09	0	0	0
8.75261e-09	0	0	0
8.90933e-09	0	0	0
1.01085e-08	0	0	0
1.01748e-08	0	0	0
1.02787e-08	0	0	0
1.08721e-08	0	0	0
1.13401e-08	0	0	0
1.182e-08	0	0	0
1.23903e-08	0	0	0
1.2839e-08	0	0	0
1.49835e-08	0	0	0
1.53033e-08	0	0	0
1.53908e-08	0	0	0
1.73071e-08	0	0	0
1.73214e-08	0	0	0
1.96641e-08	0	0	0
2.03096e-08	0	0	0
2.21154e-08	0	0	0
2.47052e-08	0	0	0
2.48898e-08	0	0	0
2.66259e-08	0	0	0
2.75364e-08	0	0	0
2.77833e-08	0	0	0
2.78399e-08	0	0	0
2.83851e-08	0	0	0
2.91367e-08	0	0	0
2.95008e-08	0	0	0
3.29024e-08	0	0	0
3.30257e-08	0	0	0
3.50764e-08	0	0	0
3.81977e-08	0	0	0
4.25838e-08	0	0	0
4.49068e-08	0	0	0
4.51807e-08	0	0	0
4.53852e-08	0	0	0
4.82069e-08	0	0	0
4.86275e-08	0	0	0
4.87272e-08	0	0	0
4.87444e-08	0	0	0
5.53377e-08	0	0	0
5.57189e-08	0	0	0
5.79208e-08	0	0	0
6.34574e-08	0	0	0
7.26223e-08	0	0	0
7.57064e-08	0	0	0
9.75557e-08	0	0	0
1.49152e-07	0	0	0
1.70769e-07	0	0	0
1.7408e-07	0	0	0
2.75373e-07	0	0	0
3.51088e-07	0	0	0
3.90543e-07	0	0	0
4.28335e-07	0	0	0
6.62054e-07	0	0	0
6.72993e-07	0	0	0
6.75047e-07	0	0	0
7.11556e-07	0	0	0
7.2139e-07	0	0	0
9.64056e-07	0	0	0
9.87615e-07	0	0	0
1.04321e-06	0	0	0
1.08326e-06	0	0	0
1.08442e-06	0	0	0
1.28437e-06	0	0	0
1.45891e-06	0	0	0
1.47475e-06	0	0	0
1.54921e-06	0	0	0
1.56299e-06	0	0	0
1.69967e-06	0	0	0
1.70221e-06	0	0	0
1.75624e-06	0	0	0
1.8118e-06	0	0	0
1.88317e-06	0	0	0
1.91488e-06	0	0	0
1.92772e-06	0	0	0
2.05312e-06	0	0	0
2.12042e-06	0	0	0
2.1774e-06	0	0	0
2.34189e-06	0	0	0
2.35496e-06	0	0	0
2.36974e-06	0	0	0
2.37704e-06	0	0	0
2.38519e-06	0	0	0
2.64513e-06	0	0	0
2.72055e-06	0	0	0
2.86084e-06	0	0	0
2.87085e-06	0	0	0
2.89e-06	0	0	0
2.99153e-06	0	0	0
3.12755e-06	0	0	0
3.34133e-06	0	0	0
3.45483e-06	0	0	0
3.52455e-06	0	0	0
3.53354e-06	0	0	0
3.54193e-06	0	0	0
3.72301e-06	0	0	0
3.8505e-06	0	0	0
3.99915e-06	0	0	0
4.00429e-06	0	0	0
4.00765e-06	0	0	0
4.1208e-06	0	0	0
4.21847e-06	0	0	0
4.22271e-06	0	0	0
4.25253e-06	0	0	0
4.29412e-06	0	0	0
4.3821e-06	0	0	0
4.44849e-06	0	0	0
4.45827e-06	0	0	0
4.47725e-06	0	0	0
4.74305e-06	0	0	0
4.83347e-06	0	0	0
4.95292e-06	0	0	0
5.07386e-06	0	0	0
5.10611e-06	0	0	0
5.14603e-06	0	0	0
5.29055e-06	0	0	0
5.38382e-06	0	0	0
5.44651e-06	0	0	0
5.84053e-06	0	0	0
6.04142e-06	0	0	0
6.09061e-06	0	0	0
6.10145e-06	0	0	0
6.18411e-06	0	0	0
6.2799e-06	0	0	0
6.35628e-06	0	0	0
6.40497e-06	0	0	0
6.47641e-06	0	0	0
6.6914e-06	0	0	0
6.90616e-06	0	0	0
7.05193e-06	0	0	0
7.08683e-06	0	0	0
7.31643e-06	0	0	0
7.36669e-06	0	0	0
7.42665e-06	0	0	0
7.50557e-06	0	0	0
7.65349e-06	0	0	0
7.66779e-06	0	0	0
7.6762e-06	0	0	0
7.70217e-06	0	0	0
7.83343e-06	0	0	0
7.86688e-06	0	0	0
7.89899e-06	0	0	0
8.21693e-06	0	0	0
8.23154e-06	0	0	0
8.45803e-06	0	0	0
8.53147e-06	0	0	0
8.5982e-06	0	0	0
8.69883e-06	0	0	0
9.38439e-06	0	0	0
9.47779e-06	0	0	0
9.57045e-06	0	0	0
9.65121e-06	0	0	0
9.6676e-06	0	0	0
1.00989e-05	0	0	0
1.03202e-05	0	0	0
1.03686e-05	0	0	0
1.06973e-05	0	0	0
1.07361e-05	0	0	0
1.09055e-05	0	0	0
1.10114e-05	0	0	0
1.11481e-05	0	0	0
1.15295e-05	0	0	0
1.16055e-05	0	0	0
1.19383e-05	0	0	0
1.19836e-05	0	0	0
1.20423e-05	0	0	0
1.25789e-05	0	0	0
1.25821e-05	0	0	0
1.26973e-05	0	0	0
1.28341e-05	0	0	0
1.28594e-05	0	0	0
1.28879e-05	0	0	0
1.31651e-05	0	0	0
1.36385e-05	0	0	0
1.40872e-05	0	0	0
1.45691e-05	0	0	0
1.5025e-05	0	0	0
1.62584e-05	0	0	0
1.67885e-05	0	0	0
1.70178e-05	0	0	0
1.71938e-05	0	0	0
1.7452e-05	0	0	0
1.77019e-05	0	0	0
1.77255e-05	0	0	0
1.77586e-05	0	0	0
1.78394e-05	0	0	0
1.83453e-05	0	0	0
1.84706e-05	0	0	0
1.87052e-05	0	0	0
1.88892e-05	0	0	0
1.96708e-05	0	0	0
2.00681e-05	0	0	0
2.0387e-05	0	0	0
2.04559e-05	0	0	0
2.06168e-05	0	0	0
2.06664e-05	0	0	0
2.07999e-05	0	0	0
2.08808e-05	0	0	0
2.10391e-05	0	0	0
2.1589e-05	0	0	0
2.16428e-05	0	0	0
2.28382e-05	0	0	0
2.30439e-05	0	0	0
2.32338e-05	0	0	0
2.41097e-05	0	0	0
2.44915e-05	0	0	0
2.529e-05	0	0	0
2.5352e-05	0	0	0
2.6219e-05	0	0	0
2.73417e-05	0	0	0
2.74086e-05	0	0	0
2.75078e-05	0	0	0
2.7534e-05	0	0	0
2.7687e-05	0	0	0
2.79848e-05	0	0	0
2.80351e-05	0	0	0
2.83685e-05	0	0	0
2.85677e-05	0	0	0
3.03355e-05	0	0	0
3.07579e-05	0	0	0
3.08074e-05	0	0	0
3.1327e-05	0	0	0
3.15922e-05	0	0	0
3.17723e-05	0	0	0
3.20511e-05	0	0	0
3.20891e-05	0	0	0
3.237e-05	0	0	0
3.33714e-05	0	0	0
3.46288e-05	0	0	0
3.48396e-05	0	0	0
3.49678e-05	0	0	0
3.49956e-05	0	0	0
3.51518e-05	0	0	0
3.54684e-05	0	0	0
3.74316e-05	0	0	0
3.81316e-05	0	0	0
3.86962e-05	0	0	0
3.93638e-05	0	0	0
3.97843e-05	0	0	0
4.00669e-05	0	0	0
4.05468e-05	0	0	0
4.15919e-05	0	0	0
4.37292e-05	0	0	0
4.40271e-05	0	0	0
4.41184e-05	0	0	0
4.46218e-05	0	0	0
4.68368e-05	0	0	0
4.72497e-05	0	0	0
4.82383e-05	0	0	0
4.83045e-05	0	0	0
4.86378e-05	0	0	0
4.99115e-05	0	0	0
5.07988e-05	0	0	0
5.09797e-05	0	0	0
5.29283e-05	0	0	0
5.30256e-05	0	0	0
5.31472e-05	0	0	0
5.52596e-05	0	0	0
5.6853e-05	0	0	0
5.75017e-05	0	0	0
5.8719e-05	0	0	0
5.97021e-05	0	0	0
6.01323e-05	0	0	0
6.19561e-05	0	0	0
6.29959e-05	0	0	0
6.34906e-05	0	0	0
6.42131e-05	0	0	0
6.58776e-05	0	0	0
6.72925e-05	0	0	0
6.77309e-05	0	0	0
6.88515e-05	0	0	0
7.00306e-05	0	0	0
7.0704e-05	0	0	0
7.12847e-05	0	0	0
7.13055e-05	0	0	0
7.23587e-05	0	0	0
7.40576e-05	0	0	0
7.61619e-05	0	0	0
7.77313e-05	0	0	0
7.98863e-05	0	0	0
8.13793e-05	0	0	0
8.30587e-05	0	0	0
8.32484e-05	0	0	0
8.64709e-05	0	0	0
9.14866e-05	0	0	0
9.24539e-05	0	0	0
9.95137e-05	0	0	0
0.000103625	0	0	0
0.000139565	0	0	0
0.000144932	0	0	0
0.000257801	0	0	0
0.0397389	0	0	0
0.0413243	0	0	0
0.0422854	0	0.0276396	0
0.0422917	0.0138198	0.0552792	0
0.0422958	0.0414594	0.0276396	0
0.0423144	0.0690989	0	0
0.0477955	0.0690989	0	0
0.0490664	0.0690989	0	0
0.0893455	0.0690989	0.0276396	0
0.0893699	0.0690989	0.0276396	0.0909918
0.0894691	0.0967385	0	0.0909918
0.101143	0.0967385	0	0.0909918
0.113306	0.0967385	0	0.0909918
0.113982	0.0967385	0	0.0909918
0.114391	0.0967385	0.0276396	0.0909918
0.114503	0.110558	0.0552792	0.0909918
0.114551	0.138198	0.0276396	0.0909918
0.114616	0.165837	0	0.0909918
0.114625	0.165837	0	0.0909918
0.116669	0.165837	0	0.0909918
0.117027	0.165837	0	0.0909918
0.117047	0.179657	0.0276396	0.0909918
0.117089	0.207297	0	0.0909918
0.137214	0.207297	0	0.0909918
0.137995	0.207297	0	0.0909918
0.138007	0.207297	0.0552792	0.0909918
0.138022	0.234936	0.0276396	0.0909918
0.138054	0.234936	0.0276396	0.0909918
0.138066	0.262576	0	0.0909918
0.157822	0.262576	0	0.0909918
0.157956	0.262576	0	0.0909918
0.158186	0.262576	0.0276396	0.0909918
0.158206	0.276396	0.0552792	0.0909918
0.158245	0.304035	0.0276396	0.0909918
0.15827	0.331675	0	0.0909918
0.181554	0.331675	0	0.0909918
0.182841	0.331675	0	0.0909918
0.183614	0.331675	0.0276396	0.0909918
0.183678	0.345495	0.0552792	0.0909918
0.183723	0.373134	0.0276396	0.0909918
0.183729	0.373134	0.0276396	0.0909918
0.183739	0.400774	0	0.0909918
0.190266	0.400774	0	0.0909918
0.190803	0.400774	0	0.0909918
0.191087	0.400774	0.0276396	0.0909918
0.192418	0.400774	0.0552792	0.0909918
0.192572	0.400774	0.0829187	0.0909918
0.192594	0.414594	0.110558	0.0909918
0.192599	0.442233	0.0829187	0.0909918
0.192614	0.469873	0.0552792	0.0909918
0.192697	0.497512	0.0276396	0.0909918
0.23385	0.525152	0	0.0909918
0.233889	0.525152	0	0.0909918
0.233891	0.525152	0.0552792	0.0909918
0.233927	0.552792	0.0276396	0.0909918
0.233941	0.552792	0.0276396	0.0909918
0.233995	0.552792	0.0276396	0.0909918
0.244766	0.580431	0	0.0909918
0.245209	0.580431	0	0.0909918
0.245295	0.580431	0.0276396	0.0909918
0.24536	0.594251	0.0552792	0.0909918
0.245457	0.621891	0.0276396	0.0909918
0.247649	0.64953	0	0.0909918
0.24767	0.64953	0	0.0909918
0.247692	0.64953	0	0.0909918
0.247696	0.64953	0	0.0909918
0.247725	0.64953	0	0.0909918
0.270234	0.64953	0	0.0909918
0.270244	0.64953	0	0.0909918
0.270246	0.64953	0	0.0909918
0.270319	0.64953	0	0.0909918
0.270334	0.64953	0	0.0909918
0.27036	0.64953	0	0.0909918
0.284695	0.64953	0	0.0909918
0.285631	0.64953	0	0.0909918
0.285721	0.64953	0.0276396	0.0909918
0.285746	0.66335	0.0552792	0.0909918
0.285747	0.690989	0.0276396	0.0909918
0.285803	0.690989	0.0276396	0.0909918
0.296555	0.718629	0	0.0909918
0.296584	0.718629	0	0.0909918
0.297052	0.718629	0.0276396	0.0909918
0.297058	0.732449	0.0552792	0.0909918
0.297068	0.760088	0.0276396	0.0909918
0.365566	0.787728	0	0.0909918
0.367609	0.787728	0	0.0909918
0.368092	0.787728	0	0.0909918
0.368135	0.801548	0.0276396	0.0909918
0.376097	0.829187	0	0.0909918
0.380655	0.829187	0	0.0909918
0.381446	0.829187	0	0.0909918
0.381817	0.829187	0.0276396	0.0909918
0.381967	0.829187	0.0552792	0.0909918
0.38213	0.829187	0.0829187	0.0909918
0.393136	0.829187	0.110558	0.0909918
0.39348	0.829187	0.110558	0.0909918
0.393892	0.829187	0.110558	0.0909918
0.393965	0.843007	0.138198	0.0909918
0.394102	0.870647	0.110558	0.0909918
0.394125	0.870647	0.110558	0.0909918
0.487204	0.870647	0.110558	0.0909918
0.487212	0.870647	0.110558	0.0909918
0.487247	0.898286	0.0829187	0.0909918
0.487257	0.925926	0.0552792	0.0909918
0.487296	0.925926	0.0552792	0.0909918
0.487315	0.953566	0.0276396	0.0909918
0.487325	0.981205	0	0.0909918
0.487388	0.981205	0	0.0909918
0.487409	0.981205	0	0.0909918
0.50194	0.981205	0	0.0909918
0.504302	0.981205	0	0.0909918
0.504376	0.981205	0	0.0909918
0.504406	0.981205	0	0.0909918
0.550543	0.981205	0	0.0909918
0.557174	0.981205	0	0.0909918
0.557435	0.981205	0	0.0909918
0.557444	0.995025	0.0276396	0.0909918
0.568495	1.02266	0	0.0909918
0.569667	1.02266	0	0.0909918
0.569668	1.03648	0.0276396	0.0909918
0.571861	1.06412	0	0.0909918
0.571864	1.06412	0	0.0909918
0.571889	1.06412	0	0.0909918
0.57192	1.06412	0	0.0909918
0.572036	1.06412	0	0.0909918
0.582409	1.06412	0	0.0909918
0.606807	1.06412	0	0.0909918
0.611254	1.06412	0	0.181984
0.612951	1.06412	0	0.181984
0.613023	1.06412	0	0.181984
0.613156	1.07794	0.0276396	0.181984
0.62789	1.10558	0	0.181984
0.627975	1.10558	0	0.181984
0.628299	1.10558	0.0276396	0.181984
0.628378	1.10558	0.0552792	0.181984
0.630653	1.10558	0.0829187	0.181984
0.63231	1.10558	0.110558	0.181984
0.632527	1.10558	0.138198	0.181984
0.63253	1.1194	0.165837	0.181984
0.63255	1.14704	0.138198	0.181984
0.632554	1.17468	0.110558	0.181984
0.632558	1.20232	0.0829187	0.181984
0.632607	1.22996	0.0552792	0.181984
0.632646	1.22996	0.0552792	0.181984
0.632662	1.2576	0.0276396	0.181984
0.642946	1.28524	0	0.181984
0.675438	1.28524	0	0.272975
0.677362	1.28524	0	0.363967
0.681413	1.28524	0	0.454959
0.702617	1.28524	0	0.454959
0.719052	1.28524	0	0.545951
0.719057	1.28524	0	0.636943
0.719061	1.28524	0	0.636943
0.719102	1.28524	0	0.636943
0.730658	1.28524	0	0.636943
0.754685	1.28524	0	0.727934
0.754728	1.28524	0	0.727934
0.754731	1.28524	0.0276396	0.727934
0.754756	1.29906	0.0552792	0.727934
0.754797	1.3267	0.0276396	0.727934
0.786547	1.35434	0	0.727934
0.810212	1.35434	0	0.818926
0.810224	1.35434	0	0.818926
0.810228	1.35434	0.0552792	0.818926
0.810235	1.38198	0.0276396	0.818926
0.812485	1.40962	0	0.818926
0.83308	1.40962	0	0.909918
0.833301	1.40962	0	0.909918
0.833458	1.40962	0.0276396	0.909918
0.833486	1.42344	0.0552792	0.909918
0.833487	1.45108	0.0276396	0.909918
0.833499	1.47872	0	0.909918
0.833516	1.47872	0	0.909918
0.845776	1.47872	0	0.909918
0.846209	1.47872	0	0.909918
0.846241	1.49254	0.0276396	0.909918
0.852939	1.52018	0	0.909918
0.874685	1.52018	0	0.909918
0.875135	1.52018	0	0.909918
0.875153	1.52018	0	0.909918
0.889162	1.52018	0	0.909918
0.889181	1.52018	0	0.909918
0.8892	1.52018	0	0.909918
0.915758	1.52018	0	0.909918
0.916634	1.52018	0	0.909918
0.916646	1.52018	0	0.909918
0.916941	1.52018	0.0276396	0.909918
0.91696	1.534	0.0552792	0.909918
0.916986	1.56164	0.0276396	0.909918
0.93874	1.58928	0	0.909918
0.951477	1.58928	0	1.0919
0.953769	1.58928	0	1.0919
0.955298	1.58928	0	1.0919
0.95556	1.58928	0	1.0919
0.955634	1.58928	0.0276396	1.0919
0.956048	1.58928	0.0552792	1.0919
0.957256	1.58928	0.0829187	1.0919
0.958636	1.58928	0.0829187	1.0919
0.959048	1.58928	0.110558	1.0919
0.960306	1.58928	0.138198	1.0919
0.960364	1.58928	0.165837	1.0919
0.960443	1.58928	0.193477	1.0919
0.960444	1.6031	0.221117	1.0919
0.960448	1.63074	0.193477	1.0919
0.960465	1.65837	0.165837	1.0919
0.960484	1.65837	0.165837	1.0919
0.960488	1.68601	0.138198	1.0919
0.960489	1.71365	0.110558	1.0919
0.960519	1.74129	0.0829187	1.0919
0.960529	1.76893	0.0552792	1.0919
0.960569	1.79657	0.0276396	1.0919
0.961397	1.82421	0	1.0919
0.964371	1.82421	0	1.18289
0.973053	1.82421	0	1.27389
0.97311	1.82421	0	1.27389
0.976896	1.82421	0	1.27389
0.977417	1.82421	0	1.27389
0.977443	1.83803	0.0276396	1.27389
0.977578	1.83803	0.0276396	1.27389
1.00045	1.86567	0	1.27389
1.00085	1.86567	0	1.27389
1.01557	1.86567	0	1.27389
1.0428	1.86567	0	1.36488
1.04412	1.86567	0	1.36488
1.04412	1.87949	0.0276396	1.36488
1.04412	1.87949	0.0276396	1.36488
1.04417	1.90713	0	1.36488
1.06076	1.90713	0	1.36488
1.0611	1.90713	0	1.36488
1.06111	1.92095	0.0276396	1.36488
1.06709	1.94859	0	1.36488
1.08091	1.94859	0	1.36488
1.08192	1.94859	0	1.36488
1.08201	1.96241	0.0276396	1.36488
1.09535	1.99005	0	1.36488
1.10758	1.99005	0	1.36488
1.108	1.99005	0	1.36488
1.10847	1.99005	0	1.36488
1.1086	2.00387	0.0276396	1.36488
1.10864	2.03151	0	1.36488
1.11318	2.03151	0	1.36488
1.11347	2.03151	0	1.36488
1.11477	2.03151	0	1.36488
1.1151	2.03151	0.0276396	1.36488
1.11511	2.04533	0.0552792	1.36488
1.11513	2.07297	0.0276396	1.36488
1.11514	2.07297	0.0276396	1.36488
1.11515	2.07297	0.0276396	1.36488
1.11517	2.07297	0.0276396	1.36488
1.13751	2.10061	0	1.36488
1.17596	2.10061	0	1.36488
1.17608	2.10061	0	1.36488
1.17622	2.10061	0.0276396	1.36488
1.17683	2.10061	0.0552792	1.36488
1.17721	2.10061	0.0552792	1.36488
1.17721	2.11443	0.0829187	1.36488
1.17836	2.14207	0.0552792	1.36488
1.17837	2.15589	0.0829187	1.36488
1.17838	2.18353	0.0552792	1.36488
1.17852	2.21117	0.0276396	1.36488
1.17965	2.23881	0	1.36488
1.18304	2.23881	0	1.45587
1.18335	2.23881	0	1.45587
1.18384	2.23881	0.0276396	1.45587
1.18392	2.23881	0.0552792	1.45587
1.18395	2.23881	0.0829187	1.45587
1.20559	2.23881	0.110558	1.45587
1.20561	2.23881	0.110558	1.54686
1.20563	2.26645	0.0829187	1.54686
1.20563	2.29409	0.0552792	1.54686
1.20568	2.32172	0.0276396	1.54686
1.22878	2.34936	0	1.54686
1.27405	2.34936	0	1.63785
1.27434	2.34936	0	1.63785
1.27448	2.36318	0.0276396	1.63785
1.27461	2.39082	0	1.63785
1.27493	2.39082	0	1.63785
1.27496	2.40464	0.0276396	1.63785
1.27504	2.40464	0.0276396	1.63785
1.27504	2.43228	0	1.63785
1.30485	2.43228	0	1.63785
1.33126	2.43228	0	1.63785
1.33204	2.43228	0	1.63785
1.33205	2.4461	0.0276396	1.63785
1.35356	2.47374	0	1.63785
1.35651	2.47374	0	1.81984
1.35783	2.47374	0	1.81984
1.35787	2.47374	0.0276396	1.81984
1.35789	2.47374	0.0829187	1.81984
1.3579	2.50138	0.0552792	1.81984
1.35802	2.52902	0.0276396	1.81984
1.36224	2.55666	0	1.81984
1.3623	2.55666	0	1.81984
1.37721	2.55666	0	1.81984
1.38929	2.55666	0	1.81984
1.39002	2.55666	0	1.81984
1.39079	2.55666	0.0276396	1.81984
1.3908	2.57048	0.0552792	1.81984
1.39081	2.59812	0.0276396	1.81984
1.47871	2.62576	0	1.81984
1.49334	2.62576	0	1.81984
1.49336	2.62576	0	1.81984
1.49342	2.63958	0.0276396	1.81984
1.51759	2.66722	0	1.81984
1.51778	2.66722	0	2.00182
1.52585	2.66722	0	2.00182
1.52588	2.66722	0	2.1838
1.52741	2.66722	0	2.1838
1.53077	2.66722	0	2.1838
1.53086	2.66722	0	2.1838
1.5309	2.68104	0.0276396	2.1838
1.55449	2.70868	0	2.1838
1.58902	2.70868	0	2.1838
1.59986	2.70868	0	2.2748
1.60059	2.70868	0	2.2748
1.60067	2.7225	0.0276396	2.2748
1.62981	2.75014	0	2.2748
1.63019	2.75014	0	2.2748
1.6302	2.75014	0.0552792	2.2748
1.63033	2.77778	0.0276396	2.2748
1.68635	2.80542	0	2.2748
1.73597	2.80542	0	2.2748
1.74834	2.80542	0	2.2748
1.74835	2.80542	0	2.36579
1.74836	2.80542	0	2.36579
1.77327	2.80542	0	2.36579
1.77369	2.80542	0	2.36579
1.77382	2.81924	0.0276396	2.36579
1.79348	2.84688	0	2.36579
1.79449	2.84688	0	2.36579
1.79475	2.84688	0.0276396	2.36579
1.79475	2.8607	0.0552792	2.36579
1.79477	2.88834	0.0276396	2.36579
1.87257	2.91598	0	2.36579
1.89798	2.91598	0	2.36579
1.9039	2.91598	0	2.45678
1.90461	2.91598	0	2.45678
1.90477	2.91598	0.0552792	2.45678
1.90485	2.94362	0.0276396	2.45678
1.9311	2.97125	0	2.45678
1.93226	2.97125	0	2.45678
1.9323	2.97125	0.0552792	2.45678
1.93232	2.99889	0.0276396	2.45678
1.93237	3.02653	0	2.45678
1.93572	3.02653	0	2.45678
1.93605	3.02653	0	2.45678
1.93609	3.02653	0.0276396	2.45678
1.93685	3.02653	0.0552792	2.45678
1.93833	3.02653	0.0829187	2.45678
1.93837	3.04035	0.110558	2.45678
1.93837	3.06799	0.0829187	2.45678
1.93844	3.09563	0.0552792	2.45678
1.93853	3.12327	0.0276396	2.45678
1.93854	3.15091	0	2.45678
1.94741	3.15091	0	2.45678
1.96023	3.15091	0	2.63876
1.99767	3.15091	0	2.72975
1.99792	3.15091	0	2.72975
1.99797	3.16473	0.0276396	2.72975
2.00259	3.19237	0	2.72975
2.05941	3.19237	0	2.82075
2.08868	3.19237	0	2.82075
2.08959	3.19237	0	2.82075
2.08961	3.19237	0.0552792	2.82075
2.08963	3.22001	0.0276396	2.82075
2.08966	3.24765	0	2.82075
2.10255	3.24765	0	2.82075
2.10401	3.24765	0	2.82075
2.10404	3.24765	0	2.82075
2.10421	3.24765	0.0276396	2.82075
2.10422	3.24765	0.0829187	2.82075
2.10424	3.27529	0.0552792	2.82075
2.10432	3.30293	0.0276396	2.82075
2.12456	3.33057	0	2.82075
2.1269	3.33057	0	2.82075
2.15708	3.33057	0	3.00273
2.17712	3.33057	0	3.09372
2.17713	3.33057	0	3.09372
2.17721	3.34439	0.0276396	3.09372
2.23755	3.37203	0	3.09372
2.30293	3.37203	0	3.27571
2.30662	3.37203	0	3.3667
2.30777	3.37203	0	3.3667
2.30789	3.38585	0.0276396	3.3667
2.30789	3.41349	0	3.3667
2.32097	3.41349	0	3.3667
2.32098	3.41349	0	3.45769
2.32873	3.41349	0	3.45769
2.33098	3.41349	0	3.45769
2.3311	3.41349	0.0276396	3.45769
2.34447	3.44113	0	3.45769
2.34611	3.44113	0	3.45769
2.347	3.44113	0.0276396	3.45769
2.347	3.45495	0.0552792	3.45769
2.34702	3.48259	0.0276396	3.45769
2.35363	3.51023	0	3.45769
2.35508	3.51023	0	3.45769
2.35509	3.52405	0.0276396	3.45769
2.35512	3.55169	0	3.45769
2.35515	3.55169	0	3.45769
2.38766	3.55169	0	3.45769
2.5267	3.55169	0	3.45769
2.52701	3.55169	0	3.45769
2.52705	3.56551	0.0276396	3.45769
2.55007	3.59315	0	3.45769
2.55039	3.59315	0	3.45769
2.55045	3.60697	0.0276396	3.45769
2.5664	3.6346	0	3.45769
2.56652	3.6346	0	3.45769
2.56653	3.64842	0.0276396	3.45769
2.63532	3.67606	0	3.45769
2.63606	3.67606	0	3.45769
2.63633	3.67606	0	3.45769
2.63665	3.67606	0.0276396	3.45769
2.63668	3.67606	0.0552792	3.45769
2.63746	3.67606	0.0829187	3.45769
2.63746	3.68988	0.110558	3.45769
2.63748	3.71752	0.0829187	3.45769
2.63749	3.74516	0.0552792	3.45769
2.6375	3.7728	0.0276396	3.45769
2.6556	3.80044	0	3.45769
2.65898	3.80044	0	3.45769
2.65927	3.80044	0	3.45769
2.65939	3.80044	0.0552792	3.45769
2.65954	3.82808	0.0276396	3.45769
2.68713	3.85572	0	3.45769
2.70595	3.85572	0	3.45769
2.70631	3.85572	0	3.45769
2.70632	3.86954	0.0276396	3.45769
2.71025	3.89718	0	3.45769
2.73299	3.89718	0	3.45769
2.73334	3.89718	0	3.45769
2.73335	3.89718	0.0552792	3.45769
2.73336	3.92482	0.0276396	3.45769
2.7334	3.92482	0.0276396	3.45769
2.78417	3.95246	0	3.45769
2.92776	3.95246	0	3.63967
2.94882	3.95246	0	3.82166
2.94923	3.95246	0	3.82166
2.94928	3.96628	0.0276396	3.82166
2.9496	3.99392	0	3.82166
2.94998	3.99392	0	3.82166
2.95041	3.99392	0.0276396	3.82166
2.95042	4.00774	0.0552792	3.82166
2.95043	4.03538	0.0276396	3.82166
2.95095	4.03538	0.0276396	3.82166
2.95097	4.0492	0.0552792	3.82166
2.95104	4.07684	0.0276396	3.82166
2.96277	4.10448	0	3.82166
3.00281	4.10448	0	3.91265
3.00348	4.10448	0	3.91265
3.0035	4.10448	0.0552792	3.91265
3.00354	4.13212	0.0276396	3.91265
3.0153	4.15976	0	3.91265
3.06889	4.15976	0	3.91265
3.11017	4.15976	0	4.00364
3.11992	4.15976	0	4.09463
3.12019	4.15976	0	4.09463
3.1202	4.17358	0.0276396	4.09463
3.1202	4.20122	0	4.09463
3.13338	4.20122	0	4.09463
3.13406	4.20122	0	4.09463
3.13407	4.21504	0.0276396	4.09463
3.16278	4.24268	0	4.09463
3.18724	4.24268	0	4.18562
3.1874	4.24268	0	4.18562
3.18896	4.24268	0.0276396	4.18562
3.18901	4.2565	0.0552792	4.18562
3.18902	4.28413	0.0276396	4.18562
3.18902	4.28413	0.0276396	4.18562
3.20254	4.31177	0	4.18562
3.20258	4.31177	0	4.18562
3.20271	4.32559	0.0276396	4.18562
3.20879	4.35323	0	4.18562
3.20915	4.35323	0	4.18562
3.20918	4.36705	0.0276396	4.18562
3.23732	4.39469	0	4.18562
3.23907	4.39469	0	4.27662
3.2396	4.39469	0	4.27662
3.23961	4.40851	0.0276396	4.27662
3.25056	4.43615	0	4.27662
3.25076	4.43615	0	4.27662
3.25187	4.43615	0.0276396	4.27662
3.2521	4.43615	0.0552792	4.27662
3.26283	4.43615	0.0829187	4.27662
3.27197	4.43615	0.0829187	4.27662
3.27381	4.43615	0.0829187	4.4586
3.34937	4.43615	0.0829187	4.54959
3.3494	4.43615	0.0829187	4.73157
3.34942	4.46379	0.0552792	4.73157
3.34943	4.49143	0.0276396	4.73157
3.36555	4.51907	0	4.73157
3.3882	4.51907	0	4.82257
3.38838	4.51907	0	4.82257
3.38839	4.51907	0.0552792	4.82257
3.38844	4.54671	0.0276396	4.82257
3.38847	4.57435	0	4.82257
3.44425	4.57435	0	4.82257
3.46212	4.57435	0	4.91356
3.52344	4.57435	0	5.00455
3.52881	4.57435	0	5.09554
3.52884	4.57435	0	5.09554
3.52897	4.58817	0.0276396	5.09554
3.5319	4.61581	0	5.09554
3.53211	4.61581	0	5.09554
3.53211	4.62963	0.0276396	5.09554
3.53213	4.65727	0	5.09554
3.53214	4.65727	0	5.09554
3.61349	4.65727	0	5.09554
3.61372	4.65727	0	5.09554
3.61383	4.67109	0.0276396	5.09554
3.63577	4.69873	0	5.09554
3.63993	4.69873	0	5.09554
3.64934	4.69873	0	5.18653
3.65543	4.69873	0	5.27753
3.65544	4.69873	0	5.27753
3.65554	4.71255	0.0276396	5.27753
3.65942	4.74019	0	5.27753
3.67862	4.74019	0	5.36852
3.67939	4.74019	0	5.36852
3.6794	4.75401	0.0276396	5.36852
3.68309	4.78165	0	5.36852
3.68328	4.78165	0	5.36852
3.68339	4.78165	0.0276396	5.36852
3.6834	4.79547	0.0552792	5.36852
3.6836	4.82311	0.0276396	5.36852
3.72142	4.85075	0	5.36852
3.72224	4.85075	0	5.36852
3.72226	4.85075	0.0552792	5.36852
3.72226	4.87839	0.0276396	5.36852
3.7344	4.90603	0	5.36852
3.73481	4.90603	0	5.36852
3.73482	4.90603	0.0552792	5.36852
3.73482	4.93367	0.0276396	5.36852
3.76172	4.9613	0	5.36852
3.76175	4.9613	0	5.5505
3.76176	4.9613	0	5.5505
3.76212	4.9613	0	5.5505
3.76241	4.9613	0	5.5505
3.76244	4.97512	0.0276396	5.5505
3.76659	5.00276	0	5.5505
3.80851	5.00276	0	5.64149
3.81618	5.00276	0	5.64149
3.81639	5.00276	0	5.64149
3.81649	5.01658	0.0276396	5.64149
3.85312	5.04422	0	5.64149
3.8554	5.04422	0	5.73248
3.8557	5.04422	0	5.73248
3.85573	5.05804	0.0276396	5.73248
3.86551	5.08568	0	5.73248
3.86672	5.08568	0	5.73248
3.86675	5.0995	0.0276396	5.73248
3.87249	5.12714	0	5.73248
3.87262	5.12714	0	5.73248
3.87268	5.12714	0.0552792	5.73248
3.87276	5.15478	0.0276396	5.73248
3.89561	5.18242	0	5.73248
3.98082	5.18242	0	5.73248
3.98312	5.18242	0	5.73248
4.19223	5.18242	0	5.73248
4.19238	5.18242	0	5.73248
4.19247	5.19624	0.0276396	5.73248
4.20344	5.22388	0	5.73248
4.27785	5.22388	0	5.91447
4.29316	5.22388	0	6.00546
4.29345	5.22388	0	6.00546
4.29347	5.22388	0.0552792	6.00546
4.29349	5.25152	0.0276396	6.00546
4.32598	5.27916	0	6.00546
4.32959	5.27916	0	6.00546
4.32997	5.27916	0.0276396	6.00546
4.33002	5.29298	0.0552792	6.00546
4.33004	5.32062	0.0276396	6.00546
4.3433	5.34826	0	6.00546
4.34413	5.34826	0	6.00546
4.34418	5.34826	0.0276396	6.00546
4.34419	5.36208	0.0552792	6.00546
4.34423	5.38972	0.0276396	6.00546
4.39343	5.41736	0	6.00546
4.4046	5.41736	0	6.00546
4.4048	5.41736	0	6.00546
4.40543	5.41736	0.0276396	6.00546
4.40658	5.41736	0.0552792	6.00546
4.40761	5.41736	0.0829187	6.00546
4.40919	5.41736	0.0829187	6.09645
4.47726	5.41736	0.110558	6.09645
4.47727	5.41736	0.110558	6.09645
4.47729	5.445	0.0829187	6.09645
4.47729	5.47264	0.0552792	6.09645
4.47731	5.50028	0.0276396	6.09645
4.47747	5.52792	0	6.09645
4.47771	5.52792	0.0276396	6.09645
4.47772	5.54174	0.0552792	6.09645
4.47775	5.56938	0.0276396	6.09645
4.51669	5.59701	0	6.09645
4.54208	5.59701	0	6.18744
4.58275	5.59701	0	6.27843
4.62937	5.59701	0	6.36943
4.62953	5.59701	0	6.36943
4.62957	5.61083	0.0276396	6.36943
4.64404	5.63847	0	6.36943
4.64418	5.63847	0	6.36943
4.64506	5.63847	0.0276396	6.36943
4.64507	5.63847	0.0552792	6.36943
4.64626	5.63847	0.0829187	6.36943
4.64642	5.63847	0.110558	6.36943
4.64703	5.63847	0.138198	6.36943
4.6482	5.63847	0.165837	6.36943
4.64842	5.63847	0.193477	6.36943
4.64842	5.63847	0.221117	6.36943
4.64843	5.66611	0.193477	6.36943
4.64846	5.69375	0.165837	6.36943
4.64849	5.72139	0.138198	6.36943
4.64851	5.74903	0.110558	6.36943
4.64852	5.77667	0.0829187	6.36943
4.64855	5.80431	0.0552792	6.36943
4.64855	5.80431	0.0552792	6.36943
4.64857	5.83195	0.0276396	6.36943
4.71724	5.85959	0	6.36943
4.71806	5.85959	0	6.36943
4.71811	5.87341	0.0276396	6.36943
4.76449	5.90105	0	6.36943
4.76531	5.90105	0	6.36943
4.76531	5.90105	0.0276396	6.36943
4.7654	5.91487	0.0552792	6.36943
4.76556	5.94251	0.0276396	6.36943
4.76782	5.97015	0	6.36943
4.76895	5.97015	0	6.36943
4.76924	5.97015	0.0276396	6.36943
4.76929	5.97015	0.0552792	6.36943
4.76975	5.97015	0.0829187	6.36943
4.76983	5.97015	0.110558	6.36943
4.77002	5.97015	0.138198	6.36943
4.77089	5.97015	0.165837	6.36943
4.77131	5.97015	0.193477	6.36943
4.77277	5.97015	0.221117	6.36943
4.77281	5.97015	0.248756	6.36943
4.77286	5.99779	0.221117	6.36943
4.77289	5.99779	0.248756	6.36943
4.78669	6.02543	0.221117	6.36943
4.88885	6.02543	0.221117	6.46042
4.88887	6.02543	0.221117	6.46042
4.88887	6.05307	0.193477	6.46042
4.88888	6.08071	0.165837	6.46042
4.88888	6.10835	0.138198	6.46042
4.8889	6.13599	0.110558	6.46042
4.88891	6.16363	0.0829187	6.46042
4.88897	6.19127	0.0552792	6.46042
4.88898	6.21891	0.0276396	6.46042
4.88969	6.24655	0	6.46042
4.8906	6.24655	0.0276396	6.46042
4.89062	6.26036	0.0552792	6.46042
4.89079	6.288	0.0276396	6.46042
4.9065	6.31564	0	6.46042
4.90695	6.31564	0	6.46042
4.90699	6.32946	0.0276396	6.46042
4.90825	6.3571	0	6.46042
4.92422	6.3571	0	6.55141
4.92425	6.3571	0	6.55141
4.92425	6.37092	0.0276396	6.55141
4.94667	6.39856	0	6.55141
4.94688	6.39856	0	6.55141
4.94733	6.39856	0.0276396	6.55141
4.94737	6.41238	0.0552792	6.55141
4.9475	6.44002	0.0276396	6.55141
5.06062	6.46766	0	6.55141
5.06121	6.46766	0	6.55141
5.06124	6.48148	0.0276396	6.55141
5.11207	6.50912	0	6.55141
5.1121	6.50912	0	6.55141
5.11212	6.52294	0.0276396	6.55141
5.11218	6.55058	0	6.55141
5.1215	6.55058	0	6.55141
5.12251	6.55058	0	6.55141
5.12263	6.5644	0.0276396	6.55141
5.14188	6.59204	0	6.55141
5.16374	6.59204	0	6.6424
5.16384	6.59204	0	6.6424
5.1639	6.59204	0.0276396	6.6424
5.16393	6.60586	0.0552792	6.6424
5.16402	6.6335	0.0276396	6.6424
5.19396	6.66114	0	6.6424
5.19495	6.66114	0	6.6424
5.19499	6.67496	0.0276396	6.6424
5.22858	6.7026	0	6.6424
5.22882	6.7026	0	6.6424
5.22894	6.71642	0.0276396	6.6424
5.23156	6.74406	0	6.6424
5.23203	6.74406	0	6.6424
5.23216	6.75788	0.0276396	6.6424
5.27713	6.78552	0	6.6424
5.27754	6.78552	0	6.6424
5.2776	6.79934	0.0276396	6.6424
5.30334	6.82698	0	6.6424
5.30354	6.82698	0	6.6424
5.30691	6.82698	0.0276396	6.6424
5.37162	6.82698	0.0276396	6.82439
5.37171	6.82698	0.0276396	6.82439
5.37171	6.8408	0.0552792	6.82439
5.37175	6.86844	0.0276396	6.82439
5.37631	6.89608	0	6.82439
5.39465	6.89608	0	6.91538
5.39471	6.89608	0	6.91538
5.39495	6.90989	0.0276396	6.91538
5.41848	6.93753	0	6.91538
5.41882	6.93753	0	6.91538
5.41883	6.95135	0.0276396	6.91538
5.42603	6.97899	0	6.91538
5.42641	6.97899	0	6.91538
5.42642	6.99281	0.0276396	6.91538
5.42723	7.02045	0	6.91538
5.42743	7.02045	0	6.91538
5.42744	7.02045	0.0552792	6.91538
5.42747	7.04809	0.0276396	6.91538
5.47469	7.07573	0	6.91538
5.47484	7.07573	0	6.91538
5.53588	7.07573	0.0276396	6.91538
5.53595	7.07573	0.0276396	7.00637
5.54428	7.10337	0	7.00637
5.54542	7.10337	0	7.00637
5.54542	7.11719	0.0276396	7.00637
5.58407	7.14483	0	7.00637
5.58412	7.14483	0	7.00637
5.58423	7.15865	0.0276396	7.00637
5.64564	7.18629	0	7.00637
5.66627	7.18629	0	7.09736
5.67076	7.18629	0	7.09736
5.67081	7.18629	0	7.27934
5.67253	7.18629	0	7.27934
5.67254	7.20011	0.0276396	7.27934
5.67485	7.22775	0	7.27934
5.67533	7.22775	0	7.27934
5.67559	7.22775	0.0276396	7.27934
5.6756	7.24157	0.0552792	7.27934
5.67565	7.26921	0.0276396	7.27934
5.71704	7.29685	0	7.27934
5.71758	7.29685	0	7.27934
5.71807	7.29685	0.0276396	7.27934
5.71809	7.31067	0.0552792	7.27934
5.71811	7.33831	0.0276396	7.27934
5.71811	7.36595	0	7.27934
5.72712	7.36595	0	7.27934
5.72746	7.36595	0	7.27934
5.72749	7.36595	0.0552792	7.27934
5.72756	7.39359	0.0276396	7.27934
5.74457	7.42123	0	7.27934
5.74493	7.42123	0	7.27934
5.74504	7.43505	0.0276396	7.27934
5.77736	7.46269	0	7.27934
5.86993	7.46269	0	7.46133
5.86993	7.46269	0	7.46133
5.87008	7.46269	0.0276396	7.46133
5.8701	7.47651	0.0552792	7.46133
5.87013	7.50415	0.0276396	7.46133
5.89046	7.53179	0	7.46133
5.89051	7.53179	0	7.46133
5.89051	7.54561	0.0276396	7.46133
5.91614	7.57324	0	7.46133
5.91768	7.57324	0	7.64331
5.92356	7.57324	0	7.7343
5.9595	7.57324	0	7.8253
5.96973	7.57324	0	7.91629
5.97083	7.57324	0	7.91629
5.97093	7.58706	0.0276396	7.91629
5.9763	7.6147	0	7.91629
5.97706	7.6147	0	7.91629
5.9771	7.62852	0.0276396	7.91629
5.99339	7.65616	0	7.91629
5.99471	7.65616	0	7.91629
6.0118	7.65616	0	7.91629
6.03505	7.65616	0	8.00728
6.03563	7.65616	0	8.00728
6.03564	7.66998	0.0276396	8.00728
6.03944	7.69762	0	8.00728
6.04027	7.69762	0	8.00728
6.04142	7.69762	0.0276396	8.00728
6.04149	7.71144	0.0552792	8.00728
6.04151	7.73908	0.0276396	8.00728
6.04957	7.76672	0	8.00728
6.12095	7.76672	0	8.09827
6.16252	7.76672	0	8.28025
6.16327	7.76672	0	8.46224
6.1633	7.76672	0	8.46224
6.16357	7.76672	0.0276396	8.46224
6.16358	7.76672	0.0829187	8.46224
6.16358	7.79436	0.0552792	8.46224
6.16366	7.822	0.0276396	8.46224
6.22629	7.84964	0	8.46224
6.22698	7.84964	0	8.46224
6.22699	7.86346	0.0276396	8.46224
6.23258	7.8911	0	8.46224
6.23279	7.8911	0	8.46224
6.23281	7.8911	0.0276396	8.46224
6.23308	7.8911	0.0552792	8.46224
6.23393	7.8911	0.0829187	8.46224
6.29316	7.8911	0.110558	8.46224
6.29317	7.8911	0.110558	8.64422
6.29318	7.91874	0.0829187	8.64422
6.29322	7.94638	0.0552792	8.64422
6.29324	7.97402	0.0276396	8.64422
6.29506	8.00166	0	8.64422
6.29514	8.00166	0	8.64422
6.29525	8.01548	0.0276396	8.64422
6.30147	8.04312	0	8.64422
6.30168	8.04312	0	8.64422
6.30169	8.04312	0.0552792	8.64422
6.30197	8.07076	0.0276396	8.64422
6.31736	8.0984	0	8.64422
6.31756	8.0984	0	8.64422
6.31766	8.11222	0.0276396	8.64422
6.3177	8.13986	0	8.64422
6.32614	8.13986	0	8.64422
6.32629	8.13986	0	8.64422
6.32647	8.15368	0.0276396	8.64422
6.36893	8.18132	0	8.64422
6.57113	8.18132	0	8.82621
6.57603	8.18132	0	8.9172
6.58119	8.18132	0	9.09918
6.58128	8.18132	0	9.09918
6.58161	8.18132	0.0276396	9.09918
6.58162	8.19514	0.0552792	9.09918
6.58164	8.22278	0.0276396	9.09918
6.59195	8.25041	0	9.09918
6.62704	8.25041	0	9.28116
6.6473	8.25041	0	9.37216
6.66321	8.25041	0	9.55414
6.66515	8.25041	0	9.55414
6.66529	8.26423	0.0276396	9.55414
6.69502	8.29187	0	9.55414
6.69591	8.29187	0	9.55414
6.69599	8.30569	0.0276396	9.55414
6.70795	8.33333	0	9.55414
6.70798	8.33333	0	9.55414
6.7081	8.33333	0.0276396	9.55414
6.70813	8.33333	0.0829187	9.55414
6.70817	8.36097	0.0552792	9.55414
6.70818	8.38861	0.0276396	9.55414
6.7142	8.41625	0	9.55414
6.71489	8.41625	0	9.55414
6.71494	8.41625	0.0276396	9.55414
6.76947	8.44389	0	9.55414
6.83648	8.44389	0	9.64513
6.84609	8.44389	0	9.73612
6.84619	8.44389	0	9.73612
6.84623	8.45771	0.0276396	9.73612
6.85036	8.48535	0	9.73612
6.85131	8.48535	0	9.73612
6.90086	8.48535	0.0276396	9.73612
6.90092	8.48535	0.0276396	9.82712
6.98412	8.51299	0	9.82712
6.98473	8.51299	0	9.82712
6.98499	8.52681	0.0276396	9.82712
7.00905	8.55445	0	9.82712
7.0105	8.55445	0	9.82712
7.01052	8.56827	0.0276396	9.82712
7.02406	8.59591	0	9.82712
7.03808	8.59591	0	10.0091
7.04977	8.59591	0	10.1911
7.0501	8.59591	0	10.1911
7.0501	8.60973	0.0276396	10.1911
7.06632	8.63737	0	10.1911
7.07108	8.63737	0	10.2821
7.09366	8.63737	0	10.4641
7.09406	8.63737	0	10.4641
7.09474	8.63737	0.0276396	10.4641
7.09475	8.65119	0.0552792	10.4641
7.09489	8.67883	0.0276396	10.4641
7.18792	8.70647	0	10.4641
7.19364	8.70647	0	10.646
7.25314	8.70647	0	10.828
7.25333	8.70647	0	10.828
7.25335	8.70647	0.0552792	10.828
7.25336	8.73411	0.0276396	10.828
7.25337	8.76175	0	10.828
7.25389	8.76175	0	10.828
7.3496	8.76175	0	11.01
7.3503	8.76175	0	11.01
7.3503	8.76175	0.0552792	11.01
7.3503	8.78939	0.0276396	11.01
7.43889	8.81703	0	11.01
7.43917	8.81703	0	11.01
7.43923	8.83085	0.0276396	11.01
7.43947	8.83085	0.0276396	11.01
7.4675	8.85849	0	11.01
7.46751	8.85849	0	11.01
7.46755	8.87231	0.0276396	11.01
7.52696	8.89994	0	11.01
7.52842	8.89994	0	11.01
7.52856	8.91376	0.0276396	11.01
7.5576	8.9414	0	11.01
7.55829	8.9414	0	11.01
7.60041	8.9414	0.0276396	11.01
7.60078	8.9414	0.0276396	11.01
7.60081	8.95522	0.0552792	11.01
7.60086	8.98286	0.0276396	11.01
7.60379	9.0105	0	11.01
7.60433	9.0105	0	11.01
7.60474	9.0105	0.0276396	11.01
7.60475	9.0105	0.0829187	11.01
7.6048	9.03814	0.0552792	11.01
7.60482	9.06578	0.0276396	11.01
7.63708	9.09342	0	11.01
7.63745	9.09342	0	11.01
7.63752	9.10724	0.0276396	11.01
7.65137	9.13488	0	11.01
7.65159	9.13488	0	11.01
7.65171	9.1487	0.0276396	11.01
7.70047	9.17634	0	11.01
7.70116	9.17634	0	11.01
7.70124	9.19016	0.0276396	11.01
7.76504	9.2178	0	11.01
7.76577	9.2178	0	11.01
7.76599	9.23162	0.0276396	11.01
7.77128	9.25926	0	11.01
7.77155	9.25926	0	11.01
7.86023	9.25926	0.0276396	11.01
7.86032	9.25926	0.0276396	11.192
7.88286	9.2869	0	11.192
7.94603	9.2869	0	11.374
7.94645	9.2869	0	11.374
7.94661	9.30072	0.0276396	11.374
7.99538	9.32836	0	11.374
7.99568	9.32836	0	11.374
7.99694	9.32836	0.0276396	11.374
7.99788	9.32836	0.0276396	11.374
7.999	9.32836	0.0552792	11.374
7.99902	9.34218	0.0829187	11.374
7.99905	9.36982	0.0552792	11.374
8.04179	9.39746	0.0276396	11.374
8.04185	9.39746	0.0276396	11.465
8.04215	9.4251	0	11.465
8.07805	9.4251	0	11.556
8.0787	9.4251	0	11.556
8.07872	9.4251	0.0276396	11.556
8.07936	9.4251	0.0552792	11.556
8.07942	9.43892	0.0829187	11.556
8.07947	9.46656	0.0552792	11.556
8.07948	9.4942	0.0276396	11.556
8.10664	9.52184	0	11.556
8.10748	9.52184	0	11.556
8.10756	9.53566	0.0276396	11.556
8.11258	9.56329	0	11.556
8.11293	9.56329	0	11.556
8.11297	9.56329	0.0276396	11.556
8.11298	9.57711	0.0552792	11.556
8.11324	9.60475	0.0276396	11.556
8.11939	9.63239	0	11.556
8.11958	9.63239	0	11.556
8.11962	9.64621	0.0276396	11.556
8.13022	9.67385	0	11.556
8.13025	9.67385	0	11.556
8.13028	9.68767	0.0276396	11.556
8.2447	9.71531	0	11.556
8.24486	9.71531	0	11.556
8.24486	9.71531	0.0552792	11.556
8.2449	9.74295	0.0276396	11.556
8.25507	9.77059	0	11.556
8.25527	9.77059	0	11.556
8.25536	9.77059	0.0552792	11.556
8.25537	9.79823	0.0276396	11.556
8.25865	9.82587	0	11.556
8.35897	9.82587	0	11.7379
8.3671	9.82587	0	11.9199
8.39292	9.82587	0	12.0109
8.39495	9.82587	0	12.0109
8.39602	9.82587	0.0276396	12.0109
8.39605	9.82587	0.0829187	12.0109
8.39605	9.85351	0.0552792	12.0109
8.39606	9.88115	0.0276396	12.0109
8.43308	9.90879	0	12.0109
8.4338	9.90879	0	12.0109
8.43381	9.90879	0.0552792	12.0109
8.43387	9.93643	0.0276396	12.0109
8.46045	9.96407	0	12.0109
8.46133	9.96407	0	12.0109
8.46136	9.96407	0.0552792	12.0109
8.46148	9.99171	0.0276396	12.0109
8.50782	10.0193	0	12.0109
8.52903	10.0193	0	12.1929
8.52947	10.0193	0	12.1929
8.53065	10.0193	0.0276396	12.1929
8.53069	10.0332	0.0552792	12.1929
8.53072	10.0608	0.0276396	12.1929
8.54405	10.0884	0	12.1929
8.54412	10.0884	0	12.1929
8.54416	10.1023	0.0276396	12.1929
8.54738	10.1299	0	12.1929
8.54751	10.1299	0	12.1929
8.54754	10.1299	0.0552792	12.1929
8.54757	10.1575	0.0276396	12.1929
8.71003	10.1852	0	12.1929
8.71051	10.1852	0	12.1929
8.71061	10.1852	0.0276396	12.1929
8.76217	10.2128	0	12.1929
8.76286	10.2128	0	12.1929
8.76287	10.2128	0.0552792	12.1929
8.76289	10.2405	0.0276396	12.1929
8.78368	10.2681	0	12.1929
8.78369	10.2681	0	12.1929
8.7837	10.2681	0.0552792	12.1929
8.78375	10.2957	0.0276396	12.1929
8.82878	10.3234	0	12.1929
8.82981	10.3234	0	12.1929
8.82994	10.3234	0.0276396	12.1929
8.82995	10.3372	0.0552792	12.1929
8.82995	10.3648	0.0276396	12.1929
8.83427	10.3925	0	12.1929
8.83453	10.3925	0	12.1929
8.83455	10.3925	0.0552792	12.1929
8.83457	10.4201	0.0276396	12.1929
8.97657	10.4478	0	12.1929
8.97722	10.4478	0	12.1929
8.97765	10.4478	0.0276396	12.1929
8.97767	10.4616	0.0552792	12.1929
8.97773	10.4892	0.0276396	12.1929
9.04523	10.5169	0	12.1929
9.04533	10.5169	0	12.1929
9.04534	10.5169	0.0552792	12.1929
9.04538	10.5445	0.0276396	12.1929
9.07154	10.5721	0	12.1929
9.07174	10.5721	0	12.1929
9.07185	10.586	0.0276396	12.1929
9.14638	10.6136	0	12.1929
9.15079	10.6136	0	12.3749
9.21239	10.6136	0	12.5569
9.29751	10.6136	0	12.7389
9.42592	10.6136	0	12.8298
9.42634	10.6136	0	12.8298
9.42638	10.6136	0.0552792	12.8298
9.42648	10.6412	0.0276396	12.8298
9.50023	10.6689	0	12.8298
9.50068	10.6689	0	12.8298
9.5008	10.6689	0.0552792	12.8298
9.50085	10.6965	0.0276396	12.8298
9.51483	10.7242	0	12.8298
9.51484	10.7242	0	12.8298
9.51484	10.7242	0.0552792	12.8298
9.51487	10.7518	0.0276396	12.8298
9.5535	10.7794	0	12.8298
9.59903	10.7794	0	13.0118
9.60006	10.7794	0	13.0118
9.60009	10.7933	0.0276396	13.0118
9.67639	10.8209	0	13.0118
9.67641	10.8209	0	13.0118
9.67822	10.8209	0.0276396	13.0118
9.67824	10.8209	0.0829187	13.0118
9.67824	10.8485	0.0552792	13.0118
9.67829	10.8762	0.0276396	13.0118
9.7138	10.9038	0	13.0118
9.71558	10.9038	0	13.0118
9.71578	10.9038	0.0276396	13.0118
9.71578	10.9176	0.0552792	13.0118
9.71581	10.9453	0.0276396	13.0118
9.71625	10.9729	0	13.0118
9.71687	10.9729	0	13.0118
9.7177	10.9729	0.0276396	13.0118
9.71771	10.9867	0.0552792	13.0118
9.71773	11.0144	0.0276396	13.0118
9.73447	11.042	0	13.0118
9.80758	11.042	0	13.1028
9.84801	11.042	0	13.2848
9.8491	11.042	0	13.2848
9.84911	11.042	0.0552792	13.2848
9.84916	11.0697	0.0276396	13.2848
9.87697	11.0973	0	13.2848
9.87762	11.0973	0	13.2848
9.87764	11.0973	0.0552792	13.2848
9.87771	11.1249	0.0276396	13.2848
9.95466	11.1526	0	13.2848
9.95957	11.1526	0	13.4668
9.95971	11.1526	0	13.4668
9.95972	11.1664	0.0276396	13.4668
9.97162	11.194	0	13.4668
9.97171	11.194	0	13.4668
9.97174	11.194	0.0552792	13.4668
9.97183	11.2217	0.0276396	13.4668
10.1113	11.2493	0	13.4668
10.1114	11.2493	0	13.4668
10.1115	11.2493	0	13.5578
10.1115	11.2631	0.0276396	13.5578
10.1639	11.2908	0	13.5578
10.1641	11.2908	0	13.5578
10.1641	11.3046	0.0276396	13.5578
10.2107	11.3322	0	13.5578
10.211	11.3322	0	13.5578
10.211	11.3322	0.0552792	13.5578
10.2111	11.3599	0.0276396	13.5578
10.2353	11.3875	0	13.5578
10.3022	11.3875	0	13.7398
10.3292	11.3875	0	13.9217
10.3295	11.3875	0	13.9217
10.3296	11.4013	0.0276396	13.9217
10.4892	11.429	0	13.9217
10.4893	11.429	0	13.9217
10.4893	11.429	0.0552792	13.9217
10.4893	11.4566	0.0276396	13.9217
10.7434	11.4842	0	13.9217
10.7436	11.4842	0	13.9217
10.7437	11.4981	0.0276396	13.9217
10.8914	11.5257	0	13.9217
10.9214	11.5257	0	14.1037
10.9215	11.5257	0	14.1037
10.9583	11.5257	0.0276396	14.1037
10.9583	11.5257	0.0276396	14.1037
10.9586	11.5533	0	14.1037
10.959	11.5533	0.0276396	14.1037
10.9591	11.5672	0.0552792	14.1037
10.9592	11.5948	0.0276396	14.1037
11.0218	11.6224	0	14.1037
11.091	11.6224	0	14.1037
11.0927	11.6224	0	14.1037
11.0928	11.6224	0.0552792	14.1037
11.0928	11.6501	0.0276396	14.1037
11.1193	11.6777	0	14.1037
11.1193	11.6777	0	14.1037
11.1194	11.6777	0.0552792	14.1037
11.1194	11.7054	0.0276396	14.1037
11.2113	11.733	0	14.1037
11.2114	11.733	0	14.1037
11.2114	11.7468	0.0276396	14.1037
11.2115	11.7745	0	14.1037
11.2119	11.7745	0	14.1037
11.212	11.7745	0.0276396	14.1037
11.212	11.7745	0.0829187	14.1037
11.2121	11.8021	0.0552792	14.1037
11.2121	11.8297	0.0276396	14.1037
11.2422	11.8574	0	14.1037
11.2433	11.8574	0	14.1037
11.2436	11.8712	0.0276396	14.1037
11.2553	11.8988	0	14.1037
11.256	11.8988	0	14.1037
11.2564	11.8988	0.0276396	14.1037
11.2564	11.9127	0.0552792	14.1037
11.2564	11.9403	0.0276396	14.1037
11.3099	11.9679	0	14.1037
11.311	11.9679	0	14.1037
11.311	11.9818	0.0276396	14.1037
11.3341	12.0094	0	14.1037
11.3348	12.0094	0	14.1037
11.3349	12.0094	0.0276396	14.1037
11.335	12.0232	0.0552792	14.1037
11.3351	12.0509	0.0276396	14.1037
11.3761	12.0785	0	14.1037
11.3761	12.0785	0	14.1037
11.3761	12.0923	0.0276396	14.1037
11.3856	12.12	0	14.1037
11.3862	12.12	0	14.1037
11.3862	12.1338	0.0276396	14.1037
11.3897	12.1614	0	14.1037
11.392	12.1614	0	14.1037
11.392	12.1752	0.0276396	14.1037
11.4503	12.2029	0	14.1037
11.4503	12.2029	0	14.1037
11.4503	12.2167	0.0276396	14.1037
11.4686	12.2443	0	14.1037
11.4694	12.2443	0	14.1037
11.4695	12.2582	0.0276396	14.1037
11.6904	12.2858	0	14.1037
11.6909	12.2858	0	14.1037
11.691	12.2858	0.0552792	14.1037
11.691	12.3134	0.0276396	14.1037
11.6988	12.3411	0	14.1037
11.699	12.3411	0	14.1037
11.699	12.3549	0.0276396	14.1037
11.7235	12.3825	0	14.1037
11.7691	12.3825	0	14.2857
11.8447	12.3825	0	14.4677
11.8448	12.3825	0	14.4677
11.8449	12.3964	0.0276396	14.4677
11.8773	12.424	0	14.4677
11.8779	12.424	0	14.4677
11.8785	12.424	0.0276396	14.4677
11.8786	12.424	0.0552792	14.4677
11.8786	12.4378	0.0829187	14.4677
11.8787	12.4655	0.0552792	14.4677
11.8788	12.4931	0.0276396	14.4677
11.9498	12.5207	0	14.4677
12.0436	12.5207	0	14.6497
12.087	12.5207	0	14.7407
12.087	12.5207	0	14.7407
12.087	12.5345	0.0276396	14.7407
12.1205	12.5622	0	14.7407
12.1848	12.5622	0	14.8317
12.228	12.5622	0	15.0136
12.2321	12.5622	0	15.1046
12.2323	12.5622	0	15.1046
12.2323	12.5622	0.0552792	15.1046
12.2323	12.5898	0.0276396	15.1046
12.2577	12.6175	0	15.1046
12.2649	12.6175	0	15.2866
12.2652	12.6175	0	15.2866
12.2652	12.6175	0.0276396	15.2866
12.3274	12.6451	0	15.2866
12.3275	12.6451	0	15.2866
12.3275	12.6589	0.0276396	15.2866
12.4791	12.6866	0	15.2866
12.6158	12.6866	0	15.4686
12.6158	12.6866	0	15.4686
12.6158	12.7004	0.0276396	15.4686
12.7158	12.728	0	15.4686
12.761	12.728	0	15.6506
12.761	12.728	0	15.6506
12.761	12.7418	0.0276396	15.6506
12.761	12.7695	0	15.6506
12.7618	12.7695	0	15.6506
12.7626	12.7695	0	15.6506
12.7626	12.7833	0.0276396	15.6506
12.7752	12.8109	0	15.6506
12.8978	12.8109	0	15.8326
12.8985	12.8109	0	15.8326
12.8985	12.8248	0.0276396	15.8326
13.0294	12.8524	0	15.8326
13.0297	12.8524	0	15.8326
13.0297	12.8524	0.0552792	15.8326
13.0298	12.88	0.0276396	15.8326
13.2775	12.9077	0	15.8326
13.2787	12.9077	0	15.8326
13.2788	12.9077	0.0552792	15.8326
13.2789	12.9353	0.0276396	15.8326
13.3229	12.963	0	15.8326
13.323	12.963	0	15.8326
13.3232	12.9768	0.0276396	15.8326
13.3564	13.0044	0	15.8326
13.3581	13.0044	0	15.8326
13.3581	13.0044	0.0276396	15.8326
13.3581	13.0182	0.0552792	15.8326
13.3583	13.0459	0.0276396	15.8326
13.4837	13.0735	0	15.8326
13.4838	13.0735	0	15.8326
13.4839	13.0735	0.0276396	15.8326
13.4847	13.0735	0.0552792	15.8326
13.4848	13.0873	0.0829187	15.8326
13.4848	13.115	0.0552792	15.8326
13.4848	13.1426	0.0276396	15.8326
13.5688	13.1703	0	15.8326
13.5691	13.1703	0	15.8326
13.5692	13.1703	0.0276396	15.8326
13.5693	13.1841	0.0552792	15.8326
13.5694	13.2117	0.0276396	15.8326
13.6984	13.2394	0	15.8326
13.6987	13.2394	0	15.8326
13.6991	13.2394	0.0276396	15.8326
13.6996	13.2394	0.0552792	15.8326
13.6997	13.2394	0.0829187	15.8326
13.6997	13.2532	0.110558	15.8326
13.6997	13.2808	0.0829187	15.8326
13.6997	13.3085	0.0552792	15.8326
13.6998	13.3361	0.0276396	15.8326
13.7814	13.3637	0	15.8326
13.7822	13.3637	0	15.8326
13.7823	13.3637	0.0552792	15.8326
13.7823	13.3914	0.0276396	15.8326
13.8029	13.419	0	15.8326
13.8034	13.419	0	15.8326
13.8034	13.419	0.0552792	15.8326
13.8035	13.4467	0.0276396	15.8326
14.1805	13.4743	0	15.8326
14.1807	13.4743	0	15.8326
14.1808	13.4881	0.0276396	15.8326
14.1985	13.5158	0	15.8326
14.6024	13.5158	0	16.0146
14.6024	13.5158	0	16.0146
14.6024	13.5158	0.0552792	16.0146
14.6024	13.5434	0.0276396	16.0146
14.6514	13.571	0	16.0146
14.6516	13.571	0	16.0146
14.6517	13.5849	0.0276396	16.0146
14.6708	13.6125	0	16.0146
14.9856	13.6125	0	16.1965
14.9858	13.6125	0	16.1965
14.9858	13.6263	0.0276396	16.1965
15.178	13.654	0	16.1965
15.1798	13.654	0	16.1965
15.1802	13.654	0.0276396	16.1965
15.1802	13.6678	0.0552792	16.1965
15.1802	13.6954	0.0276396	16.1965
15.2986	13.7231	0	16.1965
15.341	13.7231	0	16.3785
15.3413	13.7231	0	16.3785
15.3413	13.7231	0.0552792	16.3785
15.3413	13.7507	0.0276396	16.3785
15.3777	13.7783	0	16.3785
15.3785	13.7783	0	16.3785
15.3786	13.7922	0.0276396	16.3785
15.4374	13.8198	0	16.3785
15.4379	13.8198	0	16.3785
15.4379	13.8336	0.0276396	16.3785
15.4752	13.8612	0	16.3785
15.4762	13.8612	0	16.3785
15.4762	13.8612	0.0276396	16.3785
15.4763	13.8751	0.0552792	16.3785
15.4764	13.9027	0.0276396	16.3785
15.4793	13.9303	0	16.3785
15.5019	13.9303	0	16.5605
15.5025	13.9303	0	16.5605
15.5025	13.9442	0.0276396	16.5605
15.5307	13.9718	0	16.5605
15.5307	13.9718	0	16.5605
15.5307	13.9718	0.0552792	16.5605
15.5309	13.9994	0.0276396	16.5605
15.7025	14.0271	0	16.5605
15.7031	14.0271	0	16.5605
15.7031	14.0409	0.0276396	16.5605
15.9022	14.0685	0	16.5605
15.9022	14.0685	0	16.5605
15.9022	14.0824	0.0276396	16.5605
15.9324	14.11	0	16.5605
15.9328	14.11	0	16.5605
15.9328	14.1238	0.0276396	16.5605
16.0908	14.1515	0	16.5605
16.091	14.1515	0	16.5605
16.0912	14.1653	0.0276396	16.5605
16.439	14.1929	0	16.5605
16.4674	14.1929	0	16.7425
16.4682	14.1929	0	16.7425
16.4682	14.2067	0.0276396	16.7425
16.9086	14.2344	0	16.7425
16.9088	14.2344	0	16.7425
16.9088	14.2482	0.0276396	16.7425
16.9762	14.2758	0	16.7425
16.9879	14.2758	0	16.9245
16.9883	14.2758	0	16.9245
16.9901	14.2758	0.0276396	16.9245
16.9901	14.2897	0.0552792	16.9245
16.9901	14.3173	0.0276396	16.9245
17.0203	14.3449	0	16.9245
17.0208	14.3449	0	16.9245
17.0208	14.3449	0.0552792	16.9245
17.0209	14.3726	0.0276396	16.9245
17.1173	14.4002	0	16.9245
17.1179	14.4002	0	16.9245
17.1179	14.414	0.0276396	16.9245
17.1999	14.4417	0	16.9245
17.2	14.4417	0	16.9245
17.2	14.4555	0.0276396	16.9245
17.312	14.4831	0	16.9245
17.3128	14.4831	0	16.9245
17.3133	14.4831	0.0276396	16.9245
17.3133	14.497	0.0552792	16.9245
17.3134	14.5246	0.0276396	16.9245
17.3564	14.5522	0	16.9245
17.3564	14.5522	0	16.9245
17.3565	14.5661	0.0276396	16.9245
17.4192	14.5937	0	16.9245
17.4193	14.5937	0	16.9245
17.4194	14.6075	0.0276396	16.9245
17.7359	14.6352	0	16.9245
17.7366	14.6352	0	16.9245
17.7368	14.6352	0.0552792	16.9245
17.7368	14.6628	0.0276396	16.9245
17.9966	14.6904	0	16.9245
17.9967	14.6904	0	16.9245
17.9967	14.7043	0.0276396	16.9245
18.024	14.7319	0	16.9245
18.1114	14.7319	0	17.1065
18.1117	14.7319	0	17.1065
18.1118	14.7457	0.0276396	17.1065
18.2848	14.7734	0	17.1065
18.2848	14.7734	0	17.1065
18.2848	14.7872	0.0276396	17.1065
18.4112	14.8148	0	17.1065
18.4997	14.8148	0	17.2884
18.5023	14.8148	0	17.2884
18.5023	14.8148	0.0552792	17.2884
18.5025	14.8425	0.0276396	17.2884
18.6295	14.8701	0	17.2884
18.6295	14.8701	0	17.2884
18.6295	14.8701	0.0552792	17.2884
18.6295	14.8977	0.0276396	17.2884
18.6495	14.9254	0	17.2884
18.6499	14.9254	0	17.2884
18.6511	14.9254	0.0276396	17.2884
18.6532	14.9254	0.0552792	17.2884
18.6533	14.9254	0.110558	17.2884
18.6533	14.953	0.0829187	17.2884
18.6533	14.9807	0.0552792	17.2884
18.6535	15.0083	0.0276396	17.2884
18.7856	15.0359	0	17.2884
18.7856	15.0359	0	17.2884
18.7863	15.0359	0.0276396	17.2884
18.7864	15.0498	0.0552792	17.2884
18.7864	15.0774	0.0276396	17.2884
18.8384	15.105	0	17.2884
18.8405	15.105	0	17.2884
18.8405	15.105	0.0552792	17.2884
18.8406	15.1327	0.0276396	17.2884
18.8749	15.1603	0	17.2884
18.8755	15.1603	0	17.2884
18.8755	15.1741	0.0276396	17.2884
19.1663	15.2018	0	17.2884
19.1667	15.2018	0	17.2884
19.1671	15.2018	0.0276396	17.2884
19.1671	15.2156	0.0552792	17.2884
19.1672	15.2432	0.0276396	17.2884
19.2334	15.2709	0	17.2884
19.2346	15.2709	0	17.2884
19.2347	15.2709	0.0276396	17.2884
19.2347	15.2847	0.0552792	17.2884
19.2349	15.3123	0.0276396	17.2884
19.2672	15.34	0	17.2884
19.2683	15.34	0	17.2884
19.2685	15.34	0.0552792	17.2884
19.2686	15.3676	0.0276396	17.2884
19.559	15.3952	0	17.2884
20.3348	15.3952	0	17.4704
20.3349	15.3952	0	17.4704
20.335	15.3952	0.0552792	17.4704
20.335	15.4229	0.0276396	17.4704
20.4513	15.4505	0	17.4704
20.4518	15.4505	0	17.4704
20.4518	15.4643	0.0276396	17.4704
20.5143	15.492	0	17.4704
20.5408	15.492	0	17.6524
20.541	15.492	0	17.6524
20.541	15.492	0.0552792	17.6524
20.541	15.5196	0.0276396	17.6524
20.5545	15.5473	0	17.6524
20.5555	15.5473	0	17.6524
20.5555	15.5611	0.0276396	17.6524
20.5776	15.5887	0	17.6524
20.5776	15.5887	0	17.6524
20.8838	15.5887	0.0276396	17.6524
20.8838	15.5887	0.0276396	17.6524
20.8838	15.6164	0	17.6524
20.8839	15.6164	0.0552792	17.6524
20.8839	15.644	0.0276396	17.6524
21.1546	15.6716	0	17.6524
21.1565	15.6716	0	17.6524
21.1566	15.6855	0.0276396	17.6524
21.3179	15.7131	0	17.6524
21.5341	15.7131	0	17.8344
21.7771	15.7131	0	18.0164
21.9232	15.7131	0	18.1984
21.9239	15.7131	0	18.1984
21.9239	15.7269	0.0276396	18.1984
22.1495	15.7546	0	18.1984
22.15	15.7546	0	18.1984
22.1502	15.7684	0.0276396	18.1984
22.1774	15.796	0	18.1984
22.1776	15.796	0	18.1984
22.1777	15.8098	0.0276396	18.1984
22.1926	15.8375	0	18.1984
22.1927	15.8375	0	18.1984
22.1927	15.8513	0.0276396	18.1984
22.397	15.8789	0	18.1984
22.6134	15.8789	0	18.3803
22.6144	15.8789	0	18.3803
22.6144	15.8789	0.0552792	18.3803
22.6144	15.9066	0.0276396	18.3803
23.1219	15.9342	0	18.3803
23.1223	15.9342	0	18.3803
23.1224	15.948	0.0276396	18.3803
23.3773	15.9757	0	18.3803
23.3782	15.9757	0	18.3803
23.3783	15.9757	0.0552792	18.3803
23.3783	16.0033	0.0276396	18.3803
23.4114	16.031	0	18.3803
23.4115	16.031	0	18.3803
23.4116	16.0448	0.0276396	18.3803
23.742	16.0724	0	18.3803
23.7425	16.0724	0	18.3803
23.7426	16.0862	0.0276396	18.3803
23.7736	16.1139	0	18.3803
23.7741	16.1139	0	18.3803
23.7742	16.1277	0.0276396	18.3803
23.9441	16.1553	0	18.3803
23.9453	16.1553	0	18.3803
23.9453	16.1692	0.0276396	18.3803
24.1168	16.1968	0	18.3803
24.1171	16.1968	0	18.3803
24.1172	16.2106	0.0276396	18.3803
24.347	16.2383	0	18.3803
24.3472	16.2383	0	18.3803
24.3473	16.2383	0.0552792	18.3803
24.3473	16.2659	0.0276396	18.3803
24.4996	16.2935	0	18.3803
24.4997	16.2935	0	18.3803
24.4997	16.3074	0.0276396	18.3803
24.5303	16.335	0	18.3803
24.5314	16.335	0	18.3803
24.5316	16.335	0.0276396	18.3803
24.5316	16.335	0.0829187	18.3803
24.5316	16.3626	0.0552792	18.3803
24.5317	16.3903	0.0276396	18.3803
24.5932	16.4179	0	18.3803
24.5943	16.4179	0	18.3803
24.5943	16.4317	0.0276396	18.3803
24.8194	16.4594	0	18.3803
24.8196	16.4594	0	18.3803
24.8196	16.4732	0.0276396	18.3803
25.0465	16.5008	0	18.3803
25.0471	16.5008	0	18.3803
25.06	16.5008	0.0276396	18.3803
25.0604	16.5008	0.0276396	18.3803
25.0606	16.5146	0.0552792	18.3803
25.2551	16.5423	0.0276396	18.3803
25.2552	16.5423	0.0276396	18.3803
25.2556	16.5699	0	18.3803
25.2557	16.5699	0.0552792	18.3803
25.2557	16.5976	0.0276396	18.3803
25.2906	16.6252	0	18.3803
25.2912	16.6252	0	18.3803
25.2913	16.639	0.0276396	18.3803
25.8083	16.6667	0	18.3803
25.8083	16.6667	0	18.3803
25.8083	16.6805	0.0276396	18.3803
25.8802	16.7081	0	18.3803
25.8803	16.7081	0	18.3803
25.8803	16.7219	0.0276396	18.3803
25.9432	16.7496	0	18.3803
25.9447	16.7496	0	18.3803
25.9447	16.7496	0.0552792	18.3803
25.9447	16.7772	0.0276396	18.3803
26.703	16.8049	0	18.3803
26.704	16.8049	0	18.3803
26.7041	16.8187	0.0276396	18.3803
26.8123	16.8463	0	18.3803
26.813	16.8463	0	18.3803
26.813	16.8601	0.0276396	18.3803
27.5462	16.8878	0	18.3803
27.5473	16.8878	0	18.3803
27.5474	16.8878	0.0552792	18.3803
27.5474	16.9154	0.0276396	18.3803
29.606	16.9431	0	18.3803
29.6072	16.9431	0	18.3803
29.6073	16.9569	0.0276396	18.3803
29.6911	16.9845	0	18.3803
29.6917	16.9845	0	18.3803
29.6918	16.9845	0.0552792	18.3803
29.6918	17.0122	0.0276396	18.3803
29.7985	17.0398	0	18.3803
29.7991	17.0398	0	18.3803
29.7992	17.0398	0.0552792	18.3803
29.7992	17.0674	0.0276396	18.3803
29.842	17.0951	0	18.3803
29.8422	17.0951	0	18.3803
29.8422	17.0951	0.0552792	18.3803
29.8423	17.1227	0.0276396	18.3803
30.5017	17.1504	0	18.3803
30.5018	17.1504	0	18.3803
30.5018	17.1504	0.0276396	18.3803
30.5023	17.1504	0.0552792	18.3803
30.5024	17.1642	0.0829187	18.3803
30.5025	17.1918	0.0552792	18.3803
30.5027	17.2195	0.0276396	18.3803
30.5037	17.2471	0	18.3803
30.504	17.2471	0	18.3803
30.5044	17.2471	0.0276396	18.3803
30.5053	17.2471	0.0552792	18.3803
31.6212	17.2471	0.0829187	18.3803
31.6212	17.2471	0.0829187	18.3803
31.6213	17.2747	0.0552792	18.3803
31.6214	17.3024	0.0276396	18.3803
31.622	17.33	0	18.3803
31.6221	17.3438	0.0276396	18.3803
31.9016	17.3715	0	18.3803
31.9018	17.3715	0	18.3803
31.9018	17.3853	0.0276396	18.3803
31.9539	17.4129	0	18.3803
31.9542	17.4129	0	18.3803
31.9542	17.4268	0.0276396	18.3803
32.1425	17.4544	0	18.3803
32.1429	17.4544	0	18.3803
32.1429	17.4544	0.0552792	18.3803
32.1432	17.482	0.0276396	18.3803
32.3146	17.5097	0	18.3803
32.3155	17.5097	0	18.3803
32.3157	17.5097	0.0276396	18.3803
32.3157	17.5235	0.0552792	18.3803
32.3159	17.5511	0.0276396	18.3803
32.4561	17.5788	0	18.3803
32.4565	17.5788	0	18.3803
33.0722	17.5788	0.0276396	18.3803
33.0722	17.5788	0.0276396	18.3803
33.0727	17.6064	0	18.3803
33.0728	17.6064	0.0552792	18.3803
33.0729	17.6341	0.0276396	18.3803
33.4581	17.6617	0	18.3803
33.4583	17.6617	0	18.3803
33.4584	17.6755	0.0276396	18.3803
33.561	17.7032	0	18.3803
33.5612	17.7032	0	18.3803
33.5612	17.7032	0.0276396	18.3803
33.5612	17.717	0.0552792	18.3803
33.5612	17.7446	0.0276396	18.3803
34.1583	17.7722	0	18.3803
34.1587	17.7722	0	18.3803
34.1588	17.7722	0.0552792	18.3803
34.1588	17.7999	0.0276396	18.3803
34.6199	17.8275	0	18.3803
34.6203	17.8275	0	18.3803
34.6203	17.8413	0.0276396	18.3803
35.5102	17.869	0	18.3803
35.5102	17.869	0	18.3803
35.5103	17.8828	0.0276396	18.3803
35.962	17.9104	0	18.3803
35.9622	17.9104	0	18.3803
35.9623	17.9243	0.0276396	18.3803
38.133	17.9519	0	18.3803
38.1334	17.9519	0	18.3803
38.1335	17.9519	0.0276396	18.3803
38.1335	17.9657	0.0552792	18.3803
38.1336	17.9934	0.0276396	18.3803
39.2281	18.021	0	18.3803
39.2281	18.021	0	18.3803
39.2282	18.021	0.0552792	18.3803
39.2282	18.0486	0.0276396	18.3803
39.9826	18.0763	0	18.3803
39.983	18.0763	0	18.3803
39.983	18.0763	0.0552792	18.3803
39.9831	18.1039	0.0276396	18.3803
41.0627	18.1316	0	18.3803
41.0628	18.1316	0	18.3803
41.0628	18.1454	0.0276396	18.3803
42.2281	18.173	0	18.3803
42.2286	18.173	0	18.3803
42.2286	18.173	0.0552792	18.3803
42.2287	18.2007	0.0276396	18.3803
43.4326	18.2283	0	18.3803
43.4326	18.2283	0	18.3803
43.4326	18.2421	0.0276396	18.3803
43.6344	18.2698	0	18.3803
43.6344	18.2698	0	18.3803
43.6344	18.2836	0.0276396	18.3803
45.8257	18.3112	0	18.3803
45.8258	18.3112	0	18.3803
47.1018	18.3112	0.0276396	18.3803
47.1021	18.3112	0.0276396	18.3803
47.1021	18.325	0.0552792	18.3803
47.1022	18.3527	0.0276396	18.3803
51.4065	18.3803	0	18.3803
51.4066	18.3803	0	18.3803
51.4066	18.3941	0.0276396	18.3803
53.8413	18.4218	0	18.3803
53.8415	18.4218	0	18.3803
53.8415	18.4218	0.0552792	18.3803
53.8415	18.4494	0.0276396	18.3803
55.2801	18.4771	0	18.3803
55.2803	18.4771	0	18.3803
55.2805	18.4771	0.0552792	18.3803
55.2805	18.5047	0.0276396	18.3803
55.5787	18.5323	0	18.3803
55.5787	18.5323	0	18.3803
55.5788	18.5323	0.0552792	18.3803
55.5788	18.56	0.0276396	18.3803
56.7761	18.5876	0	18.3803
56.7767	18.5876	0	18.3803
56.7771	18.5876	0.0276396	18.3803
56.7771	18.6014	0.0552792	18.3803
56.7772	18.6291	0.0276396	18.3803
64.1252	18.6567	0	18.3803
64.1254	18.6567	0	18.3803
64.1254	18.6705	0.0276396	18.3803
67.0336	18.6982	0	18.3803
67.0342	18.6982	0	18.3803
67.0343	18.6982	0.0552792	18.3803
67.0343	18.7258	0.0276396	18.3803
68.7592	18.7535	0	18.3803
68.7592	18.7535	0	18.3803
68.7593	18.7673	0.0276396	18.3803
71.8993	18.7949	0	18.3803
71.8994	18.7949	0	18.3803
71.8994	18.8087	0.0276396	18.3803
74.7616	18.8364	0	18.3803
74.7617	18.8364	0	18.3803
74.7617	18.8364	0.0552792	18.3803
74.7617	18.864	0.0276396	18.3803
78.9274	18.8917	0	18.3803
78.9279	18.8917	0	18.3803
78.9279	18.8917	0.0552792	18.3803
78.9279	18.9193	0.0276396	18.3803
