1.69088e-10	0	0	0
2.14183e-10	0	0	0
8.96308e-10	0	0	0
9.6375e-10	0	0	0
1.0762e-09	0	0	0
2.0791e-09	0	0	0
2.52427e-09	0	0	0
2.53308e-09	0	0	0
2.57586e-09	0	0	0
2.6407e-09	0	0	0
2.69784e-09	0	0	0
2.8964e-09	0	0	0
3.31096e-09	0	0	0
4.25179e-09	0	0	0
5.15236e-09	0	0	0
5.57039e-09	0	0	0
6.02076e-09	0	0	0
6.48969e-09	0	0	0
7.00299e-09	0	0	0
7.73594e-09	0	0	0
8.14005e-09	0	0	0
1.16634e-08	0	0	0
1.3622e-08	0	0	0
1.77915e-08	0	0	0
1.81333e-08	0	0	0
1.81953e-08	0	0	0
1.93447e-08	0	0	0
2.00293e-08	0	0	0
2.06199e-08	0	0	0
2.06695e-08	0	0	0
2.15618e-08	0	0	0
2.22528e-08	0	0	0
2.2694e-08	0	0	0
2.28422e-08	0	0	0
2.39151e-08	0	0	0
2.76899e-08	0	0	0
2.83514e-08	0	0	0
3.18888e-08	0	0	0
3.77439e-08	0	0	0
3.93684e-08	0	0	0
3.99222e-08	0	0	0
4.02651e-08	0	0	0
4.24029e-08	0	0	0
4.61704e-08	0	0	0
4.72497e-08	0	0	0
4.7905e-08	0	0	0
4.95353e-08	0	0	0
5.30568e-08	0	0	0
5.68049e-08	0	0	0
5.80346e-08	0	0	0
5.97616e-08	0	0	0
6.17843e-08	0	0	0
6.4201e-08	0	0	0
6.49737e-08	0	0	0
6.78399e-08	0	0	0
6.86054e-08	0	0	0
6.95066e-08	0	0	0
7.38014e-08	0	0	0
7.83888e-08	0	0	0
8.78258e-08	0	0	0
9.276e-08	0	0	0
9.46418e-08	0	0	0
1.01215e-07	0	0	0
1.102e-07	0	0	0
1.34084e-07	0	0	0
1.41465e-07	0	0	0
1.87993e-07	0	0	0
2.17948e-07	0	0	0
2.75567e-07	0	0	0
4.10614e-07	0	0	0
4.29006e-07	0	0	0
4.43295e-07	0	0	0
5.71029e-07	0	0	0
6.07105e-07	0	0	0
6.23193e-07	0	0	0
7.01872e-07	0	0	0
7.07141e-07	0	0	0
7.23141e-07	0	0	0
9.79164e-07	0	0	0
1.077e-06	0	0	0
1.16201e-06	0	0	0
1.17255e-06	0	0	0
1.20847e-06	0	0	0
1.22695e-06	0	0	0
1.27663e-06	0	0	0
1.30506e-06	0	0	0
1.33552e-06	0	0	0
1.73182e-06	0	0	0
1.75268e-06	0	0	0
1.84291e-06	0	0	0
2.06337e-06	0	0	0
2.11711e-06	0	0	0
2.12347e-06	0	0	0
2.22862e-06	0	0	0
2.2578e-06	0	0	0
2.35286e-06	0	0	0
2.38204e-06	0	0	0
2.45933e-06	0	0	0
2.48287e-06	0	0	0
2.57288e-06	0	0	0
2.64221e-06	0	0	0
2.66184e-06	0	0	0
2.85054e-06	0	0	0
2.99387e-06	0	0	0
3.11355e-06	0	0	0
3.51938e-06	0	0	0
3.74295e-06	0	0	0
3.83045e-06	0	0	0
4.02428e-06	0	0	0
4.13537e-06	0	0	0
4.20368e-06	0	0	0
4.21236e-06	0	0	0
4.31285e-06	0	0	0
4.40628e-06	0	0	0
4.53139e-06	0	0	0
4.53159e-06	0	0	0
4.71375e-06	0	0	0
4.89756e-06	0	0	0
5.01661e-06	0	0	0
5.07639e-06	0	0	0
5.3542e-06	0	0	0
5.36224e-06	0	0	0
5.56416e-06	0	0	0
5.5962e-06	0	0	0
5.66498e-06	0	0	0
6.04265e-06	0	0	0
6.08867e-06	0	0	0
6.09443e-06	0	0	0
6.15248e-06	0	0	0
6.19782e-06	0	0	0
6.24787e-06	0	0	0
6.45078e-06	0	0	0
6.61866e-06	0	0	0
6.77688e-06	0	0	0
7.20933e-06	0	0	0
7.23413e-06	0	0	0
7.26459e-06	0	0	0
7.27905e-06	0	0	0
7.31409e-06	0	0	0
7.56665e-06	0	0	0
8.23257e-06	0	0	0
8.43965e-06	0	0	0
8.5529e-06	0	0	0
8.67003e-06	0	0	0
8.72842e-06	0	0	0
8.7413e-06	0	0	0
8.88335e-06	0	0	0
9.20486e-06	0	0	0
9.35243e-06	0	0	0
9.43825e-06	0	0	0
9.85036e-06	0	0	0
1.05471e-05	0	0	0
1.06002e-05	0	0	0
1.09261e-05	0	0	0
1.12335e-05	0	0	0
1.12424e-05	0	0	0
1.13444e-05	0	0	0
1.16359e-05	0	0	0
1.19267e-05	0	0	0
1.20423e-05	0	0	0
1.21028e-05	0	0	0
1.21266e-05	0	0	0
1.22365e-05	0	0	0
1.22742e-05	0	0	0
1.24231e-05	0	0	0
1.25065e-05	0	0	0
1.25489e-05	0	0	0
1.2648e-05	0	0	0
1.30187e-05	0	0	0
1.31142e-05	0	0	0
1.32899e-05	0	0	0
1.3645e-05	0	0	0
1.37011e-05	0	0	0
1.37652e-05	0	0	0
1.38207e-05	0	0	0
1.50932e-05	0	0	0
1.51112e-05	0	0	0
1.52638e-05	0	0	0
1.59955e-05	0	0	0
1.62703e-05	0	0	0
1.66885e-05	0	0	0
1.67991e-05	0	0	0
1.6814e-05	0	0	0
1.68322e-05	0	0	0
1.68922e-05	0	0	0
1.70953e-05	0	0	0
1.72406e-05	0	0	0
1.74023e-05	0	0	0
1.75784e-05	0	0	0
1.76069e-05	0	0	0
1.77145e-05	0	0	0
1.84783e-05	0	0	0
1.90166e-05	0	0	0
1.96253e-05	0	0	0
1.98947e-05	0	0	0
2.02841e-05	0	0	0
2.02905e-05	0	0	0
2.0385e-05	0	0	0
2.05402e-05	0	0	0
2.06991e-05	0	0	0
2.07062e-05	0	0	0
2.08275e-05	0	0	0
2.1232e-05	0	0	0
2.14816e-05	0	0	0
2.17832e-05	0	0	0
2.19031e-05	0	0	0
2.19263e-05	0	0	0
2.1996e-05	0	0	0
2.27963e-05	0	0	0
2.29089e-05	0	0	0
2.307e-05	0	0	0
2.31004e-05	0	0	0
2.32832e-05	0	0	0
2.33274e-05	0	0	0
2.33498e-05	0	0	0
2.36889e-05	0	0	0
2.40131e-05	0	0	0
2.4363e-05	0	0	0
2.45828e-05	0	0	0
2.49132e-05	0	0	0
2.50651e-05	0	0	0
2.54229e-05	0	0	0
2.56446e-05	0	0	0
2.58838e-05	0	0	0
2.59639e-05	0	0	0
2.66656e-05	0	0	0
2.68589e-05	0	0	0
2.69996e-05	0	0	0
2.70041e-05	0	0	0
2.71344e-05	0	0	0
2.76301e-05	0	0	0
2.77374e-05	0	0	0
2.78688e-05	0	0	0
2.78955e-05	0	0	0
2.87331e-05	0	0	0
2.95874e-05	0	0	0
3.01095e-05	0	0	0
3.05932e-05	0	0	0
3.06398e-05	0	0	0
3.06915e-05	0	0	0
3.11064e-05	0	0	0
3.14836e-05	0	0	0
3.22615e-05	0	0	0
3.28999e-05	0	0	0
3.34061e-05	0	0	0
3.40175e-05	0	0	0
3.41556e-05	0	0	0
3.51192e-05	0	0	0
3.52693e-05	0	0	0
3.54633e-05	0	0	0
3.55973e-05	0	0	0
3.75351e-05	0	0	0
3.77318e-05	0	0	0
3.87722e-05	0	0	0
4.0455e-05	0	0	0
4.09969e-05	0	0	0
4.13041e-05	0	0	0
4.13066e-05	0	0	0
4.36062e-05	0	0	0
4.36142e-05	0	0	0
4.38187e-05	0	0	0
4.44823e-05	0	0	0
4.50595e-05	0	0	0
4.54613e-05	0	0	0
4.71982e-05	0	0	0
4.75137e-05	0	0	0
4.96059e-05	0	0	0
5.02558e-05	0	0	0
5.3806e-05	0	0	0
5.38738e-05	0	0	0
5.49072e-05	0	0	0
5.86729e-05	0	0	0
5.9986e-05	0	0	0
6.015e-05	0	0	0
6.18036e-05	0	0	0
6.1964e-05	0	0	0
6.46266e-05	0	0	0
6.51958e-05	0	0	0
6.53587e-05	0	0	0
6.83154e-05	0	0	0
6.87133e-05	0	0	0
6.93319e-05	0	0	0
7.05317e-05	0	0	0
7.24879e-05	0	0	0
7.40419e-05	0	0	0
7.54566e-05	0	0	0
7.57044e-05	0	0	0
7.57735e-05	0	0	0
7.80815e-05	0	0	0
8.15519e-05	0	0	0
8.6791e-05	0	0	0
8.83428e-05	0	0	0
9.02578e-05	0	0	0
9.06824e-05	0	0	0
9.30567e-05	0	0	0
9.38287e-05	0	0	0
9.77891e-05	0	0	0
9.87001e-05	0	0	0
0.000100936	0	0	0
0.000103043	0	0	0
0.000103472	0	0	0
0.000104081	0	0	0
0.000105026	0	0	0
0.000105226	0	0	0
0.000107466	0	0	0
0.000113715	0	0	0
0.000124622	0	0	0
0.000130757	0	0	0
0.00013192	0	0	0
0.000132963	0	0	0
0.000136453	0	0	0
0.000143876	0	0	0
0.000145593	0	0	0
0.000148917	0	0	0
0.000156229	0	0	0
0.000159732	0	0	0
0.000164712	0	0	0
0.000224742	0	0	0
0.00361183	0	0	0
0.0321221	0	0	0.0909918
0.0336866	0	0	0.0909918
0.0339034	0	0.0276396	0.0909918
0.0339081	0	0.0552792	0.0909918
0.0340064	0.0276396	0.0276396	0.0909918
0.0376488	0.0552792	0	0.0909918
0.0378406	0.0552792	0	0.0909918
0.0387006	0.0552792	0.0276396	0.0909918
0.038718	0.0690989	0.0552792	0.0909918
0.0387928	0.0967385	0.0276396	0.0909918
0.041956	0.124378	0	0.0909918
0.052074	0.124378	0	0.0909918
0.0524688	0.124378	0	0.0909918
0.0528805	0.124378	0.0276396	0.0909918
0.0529158	0.138198	0.0552792	0.0909918
0.0529366	0.165837	0.0276396	0.0909918
0.0529372	0.165837	0.0276396	0.0909918
0.0529434	0.193477	0	0.0909918
0.0529575	0.193477	0	0.0909918
0.0842872	0.193477	0	0.0909918
0.0848084	0.193477	0	0.0909918
0.085045	0.207297	0.0276396	0.0909918
0.114837	0.234936	0	0.0909918
0.114944	0.234936	0	0.0909918
0.115007	0.234936	0.0276396	0.0909918
0.115008	0.248756	0.0552792	0.0909918
0.115014	0.276396	0.0276396	0.0909918
0.11717	0.304035	0	0.0909918
0.11936	0.304035	0	0.0909918
0.121698	0.304035	0	0.0909918
0.121984	0.304035	0	0.0909918
0.122874	0.304035	0.0276396	0.0909918
0.122908	0.304035	0.0552792	0.0909918
0.122936	0.331675	0.0276396	0.0909918
0.128632	0.359315	0	0.0909918
0.128659	0.359315	0	0.0909918
0.137674	0.359315	0	0.0909918
0.137675	0.359315	0	0.0909918
0.137682	0.359315	0	0.0909918
0.222383	0.359315	0	0.0909918
0.222518	0.359315	0	0.0909918
0.222546	0.359315	0.0276396	0.0909918
0.222654	0.359315	0.0552792	0.0909918
0.223019	0.359315	0.0829187	0.0909918
0.223079	0.359315	0.110558	0.0909918
0.223082	0.386954	0.0829187	0.0909918
0.223085	0.414594	0.0552792	0.0909918
0.223238	0.442233	0.0276396	0.0909918
0.228951	0.469873	0	0.0909918
0.255912	0.469873	0	0.0909918
0.255961	0.469873	0	0.0909918
0.255969	0.469873	0	0.0909918
0.255984	0.469873	0	0.0909918
0.25688	0.469873	0	0.0909918
0.256935	0.469873	0	0.0909918
0.26127	0.469873	0	0.0909918
0.262414	0.469873	0	0.0909918
0.262565	0.469873	0.0276396	0.0909918
0.273893	0.497512	0	0.0909918
0.274051	0.497512	0	0.0909918
0.274081	0.497512	0.0552792	0.0909918
0.274217	0.525152	0.0276396	0.0909918
0.281046	0.552792	0	0.0909918
0.281109	0.552792	0	0.0909918
0.281127	0.552792	0	0.0909918
0.284337	0.552792	0	0.0909918
0.305366	0.552792	0	0.0909918
0.307719	0.552792	0	0.0909918
0.308206	0.552792	0.0276396	0.0909918
0.308234	0.566611	0.0552792	0.0909918
0.308236	0.594251	0.0276396	0.0909918
0.308241	0.594251	0.0276396	0.0909918
0.308475	0.594251	0.0276396	0.0909918
0.322819	0.621891	0	0.0909918
0.322875	0.621891	0	0.0909918
0.345733	0.621891	0	0.0909918
0.353388	0.621891	0	0.0909918
0.353961	0.621891	0	0.0909918
0.35399	0.621891	0.0552792	0.0909918
0.353997	0.64953	0.0276396	0.0909918
0.354002	0.67717	0	0.0909918
0.354084	0.67717	0	0.0909918
0.359867	0.67717	0	0.0909918
0.391167	0.67717	0	0.0909918
0.398433	0.67717	0	0.181984
0.398805	0.67717	0	0.181984
0.399087	0.67717	0.0276396	0.181984
0.399099	0.690989	0.0552792	0.181984
0.399156	0.690989	0.0552792	0.181984
0.399201	0.718629	0.0276396	0.181984
0.418027	0.746269	0	0.181984
0.432913	0.746269	0	0.181984
0.433401	0.746269	0	0.181984
0.46966	0.746269	0	0.181984
0.496129	0.746269	0	0.181984
0.49637	0.746269	0	0.181984
0.496402	0.760088	0.0276396	0.181984
0.496428	0.787728	0	0.181984
0.515506	0.787728	0	0.181984
0.563517	0.787728	0	0.272975
0.563705	0.787728	0	0.272975
0.563709	0.787728	0.0552792	0.272975
0.563735	0.815368	0.0276396	0.272975
0.598774	0.843007	0	0.272975
0.599697	0.843007	0	0.272975
0.634616	0.843007	0	0.272975
0.640855	0.843007	0	0.272975
0.64727	0.843007	0	0.272975
0.647958	0.843007	0	0.272975
0.651936	0.843007	0.0276396	0.272975
0.652124	0.843007	0.0276396	0.272975
0.65268	0.843007	0.0552792	0.272975
0.652701	0.856827	0.0829187	0.272975
0.652856	0.884467	0.0552792	0.272975
0.675875	0.912106	0.0276396	0.272975
0.675878	0.912106	0.0276396	0.272975
0.676032	0.939746	0	0.272975
0.677093	0.939746	0.0276396	0.272975
0.677096	0.953566	0.0552792	0.272975
0.677191	0.981205	0.0276396	0.272975
0.690582	1.00884	0	0.272975
0.737144	1.00884	0	0.272975
0.752844	1.00884	0	0.272975
0.759306	1.00884	0	0.454959
0.75951	1.00884	0	0.454959
0.759548	1.02266	0.0276396	0.454959
0.778339	1.0503	0	0.454959
0.77871	1.0503	0	0.454959
0.778886	1.06412	0.0276396	0.454959
0.778901	1.09176	0	0.454959
0.778932	1.09176	0	0.454959
0.803534	1.09176	0	0.454959
0.803544	1.09176	0	0.454959
0.803555	1.09176	0	0.454959
0.80366	1.09176	0	0.454959
0.836027	1.09176	0	0.454959
0.837984	1.09176	0	0.454959
0.837997	1.10558	0.0276396	0.454959
0.838022	1.10558	0.0276396	0.454959
0.856058	1.13322	0	0.454959
0.856436	1.13322	0	0.454959
0.856997	1.13322	0.0276396	0.454959
0.856997	1.14704	0.0552792	0.454959
0.857026	1.17468	0.0276396	0.454959
0.857033	1.20232	0	0.454959
0.85928	1.20232	0	0.454959
0.918645	1.20232	0	0.454959
0.938824	1.20232	0	0.545951
0.986575	1.20232	0	0.545951
0.994951	1.20232	0	0.545951
0.998983	1.20232	0	0.545951
1.00026	1.20232	0	0.545951
1.00068	1.20232	0.0276396	0.545951
1.00069	1.21614	0.0552792	0.545951
1.00069	1.24378	0.0276396	0.545951
1.01327	1.27142	0	0.545951
1.0134	1.27142	0	0.545951
1.0134	1.28524	0.0276396	0.545951
1.03719	1.31288	0	0.545951
1.038	1.31288	0	0.545951
1.038	1.31288	0.0552792	0.545951
1.03801	1.34052	0.0276396	0.545951
1.06027	1.36816	0	0.545951
1.06069	1.36816	0	0.545951
1.06089	1.36816	0	0.545951
1.0609	1.36816	0.0552792	0.545951
1.06094	1.3958	0.0276396	0.545951
1.0617	1.42344	0	0.545951
1.06189	1.42344	0.0276396	0.545951
1.06189	1.43726	0.0552792	0.545951
1.06192	1.4649	0.0276396	0.545951
1.08141	1.49254	0	0.545951
1.104	1.49254	0	0.545951
1.10405	1.49254	0	0.545951
1.10409	1.49254	0.0552792	0.545951
1.10415	1.52018	0.0276396	0.545951
1.13184	1.54782	0	0.545951
1.13594	1.54782	0	0.636943
1.13988	1.54782	0	0.636943
1.14	1.56164	0.0276396	0.636943
1.16046	1.58928	0	0.636943
1.16052	1.58928	0	0.636943
1.16067	1.58928	0.0552792	0.636943
1.16068	1.61692	0.0276396	0.636943
1.17252	1.64456	0	0.636943
1.18484	1.64456	0	0.727934
1.18503	1.64456	0	0.727934
1.18505	1.64456	0.0276396	0.727934
1.18506	1.65837	0.0552792	0.727934
1.18516	1.68601	0.0276396	0.727934
1.21075	1.71365	0	0.727934
1.21077	1.71365	0	0.727934
1.21078	1.71365	0	0.727934
1.21078	1.71365	0	0.727934
1.21079	1.71365	0	0.727934
1.21088	1.71365	0	0.727934
1.2139	1.71365	0	0.727934
1.21393	1.71365	0	0.727934
1.21402	1.72747	0.0276396	0.727934
1.21572	1.75511	0	0.727934
1.25531	1.75511	0	0.818926
1.25553	1.75511	0	0.818926
1.25556	1.76893	0.0276396	0.818926
1.26233	1.79657	0	0.818926
1.26267	1.79657	0	0.818926
1.26272	1.81039	0.0276396	0.818926
1.27102	1.83803	0	0.818926
1.28729	1.83803	0	0.818926
1.28814	1.83803	0	0.818926
1.28816	1.83803	0.0552792	0.818926
1.28817	1.86567	0.0276396	0.818926
1.37225	1.89331	0	0.818926
1.37483	1.89331	0	0.818926
1.37498	1.89331	0	0.818926
1.37635	1.89331	0	0.818926
1.39312	1.89331	0	0.818926
1.39333	1.89331	0	0.818926
1.3934	1.90713	0.0276396	0.818926
1.40529	1.93477	0	0.818926
1.40659	1.93477	0	1.00091
1.41843	1.93477	0	1.0919
1.4212	1.93477	0	1.0919
1.42998	1.93477	0	1.0919
1.44444	1.93477	0	1.18289
1.44445	1.93477	0	1.18289
1.44448	1.93477	0.0276396	1.18289
1.4539	1.96241	0	1.18289
1.464	1.96241	0	1.18289
1.50049	1.96241	0	1.27389
1.50074	1.96241	0	1.27389
1.50558	1.96241	0.0276396	1.27389
1.50559	1.96241	0.0276396	1.27389
1.50568	1.96241	0.0829187	1.27389
1.56949	1.99005	0.0552792	1.27389
1.56969	1.99005	0.0552792	1.27389
1.56972	2.00387	0.0829187	1.27389
1.56977	2.03151	0.0552792	1.27389
1.56977	2.05915	0.0276396	1.27389
1.57892	2.08679	0	1.27389
1.57921	2.08679	0	1.27389
1.57925	2.10061	0.0276396	1.27389
1.59534	2.12825	0	1.27389
1.60584	2.12825	0	1.36488
1.61534	2.12825	0	1.36488
1.61654	2.12825	0	1.36488
1.61673	2.12825	0.0276396	1.36488
1.61678	2.14207	0.0552792	1.36488
1.61691	2.16971	0.0276396	1.36488
1.62062	2.19735	0	1.36488
1.62219	2.19735	0	1.54686
1.6421	2.19735	0	1.54686
1.66073	2.19735	0	1.63785
1.70464	2.19735	0	1.63785
1.7065	2.19735	0	1.63785
1.71542	2.19735	0	1.72884
1.71587	2.19735	0	1.72884
1.7165	2.19735	0.0276396	1.72884
1.71696	2.19735	0.0552792	1.72884
1.71731	2.19735	0.0829187	1.72884
1.71769	2.19735	0.110558	1.72884
1.71769	2.21117	0.138198	1.72884
1.71772	2.23881	0.110558	1.72884
1.71772	2.26645	0.0829187	1.72884
1.71776	2.29409	0.0552792	1.72884
1.71792	2.32172	0.0276396	1.72884
1.81599	2.34936	0	1.72884
1.83905	2.34936	0	1.81984
1.8405	2.34936	0	1.81984
1.8405	2.34936	0.0552792	1.81984
1.84054	2.377	0.0276396	1.81984
1.855	2.40464	0	1.81984
1.85567	2.40464	0	1.81984
1.85573	2.41846	0.0276396	1.81984
1.86337	2.4461	0	1.81984
1.90043	2.4461	0	1.91083
1.90085	2.4461	0	1.91083
1.90087	2.45992	0.0276396	1.91083
1.91112	2.48756	0	1.91083
1.91908	2.48756	0	2.00182
1.92791	2.48756	0	2.09281
1.92808	2.48756	0	2.09281
1.92813	2.50138	0.0276396	2.09281
1.93225	2.52902	0	2.09281
1.9349	2.52902	0	2.09281
1.96339	2.52902	0	2.1838
1.96349	2.52902	0	2.1838
1.9635	2.54284	0.0276396	2.1838
1.96356	2.54284	0.0276396	2.1838
1.96627	2.57048	0	2.1838
1.96659	2.57048	0	2.1838
1.96662	2.57048	0.0552792	2.1838
1.96662	2.59812	0.0276396	2.1838
1.99263	2.62576	0	2.1838
1.99529	2.62576	0	2.1838
1.99596	2.62576	0	2.1838
1.99597	2.63958	0.0276396	2.1838
1.99907	2.66722	0	2.1838
2.01874	2.66722	0	2.36579
2.01911	2.66722	0	2.36579
2.01916	2.68104	0.0276396	2.36579
2.02147	2.70868	0	2.36579
2.0226	2.70868	0	2.36579
2.0226	2.70868	0.0276396	2.36579
2.04723	2.73632	0	2.36579
2.09947	2.73632	0	2.36579
2.09965	2.73632	0	2.36579
2.15705	2.73632	0.0276396	2.36579
2.15707	2.73632	0.0276396	2.45678
2.15727	2.76396	0	2.45678
2.18474	2.76396	0	2.45678
2.18712	2.76396	0	2.45678
2.18712	2.76396	0	2.45678
2.18715	2.77778	0.0276396	2.45678
2.20898	2.80542	0	2.45678
2.20943	2.80542	0	2.45678
2.20945	2.80542	0.0552792	2.45678
2.20959	2.83306	0.0276396	2.45678
2.21487	2.8607	0	2.45678
2.21562	2.8607	0	2.45678
2.21567	2.8607	0.0276396	2.45678
2.21589	2.8607	0.0552792	2.45678
2.21594	2.8607	0.0829187	2.45678
2.21596	2.87452	0.110558	2.45678
2.21596	2.90216	0.0829187	2.45678
2.216	2.90216	0.0829187	2.45678
2.21605	2.9298	0.0552792	2.45678
2.21605	2.95744	0.0276396	2.45678
2.21619	2.95744	0.0276396	2.45678
2.23661	2.98507	0	2.45678
2.26485	2.98507	0	2.45678
2.26498	2.98507	0	2.45678
2.26501	2.99889	0.0276396	2.45678
2.27628	3.02653	0	2.45678
2.3227	3.02653	0	2.54777
2.3228	3.02653	0	2.54777
2.32287	3.02653	0.0552792	2.54777
2.32287	3.05417	0.0276396	2.54777
2.32288	3.08181	0	2.54777
2.32288	3.08181	0	2.54777
2.37608	3.08181	0	2.54777
2.38835	3.08181	0	2.63876
2.38839	3.08181	0	2.63876
2.38847	3.09563	0.0276396	2.63876
2.41512	3.12327	0	2.63876
2.43701	3.12327	0	2.63876
2.43748	3.12327	0	2.63876
2.43749	3.12327	0.0552792	2.63876
2.4375	3.15091	0.0276396	2.63876
2.45096	3.17855	0	2.63876
2.45513	3.17855	0	2.72975
2.4553	3.17855	0	2.72975
2.4554	3.19237	0.0276396	2.72975
2.53026	3.22001	0	2.72975
2.54094	3.22001	0	2.72975
2.58901	3.22001	0	2.82075
2.58903	3.22001	0	2.82075
2.59705	3.22001	0.0276396	2.82075
2.59757	3.22001	0.0276396	2.82075
2.59757	3.23383	0.0552792	2.82075
2.60544	3.26147	0.0276396	2.82075
2.63582	3.26147	0.0276396	2.82075
2.63586	3.26147	0.0276396	2.82075
2.63624	3.28911	0	2.82075
2.63676	3.28911	0.0276396	2.82075
2.63693	3.28911	0.0552792	2.82075
2.63801	3.28911	0.0829187	2.82075
2.63836	3.28911	0.110558	2.82075
2.63838	3.30293	0.138198	2.82075
2.63838	3.33057	0.110558	2.82075
2.63838	3.35821	0.0829187	2.82075
2.63841	3.38585	0.0552792	2.82075
2.63845	3.41349	0.0276396	2.82075
2.66788	3.44113	0	2.82075
2.72389	3.44113	0	2.91174
2.72398	3.44113	0	2.91174
2.725	3.44113	0.0276396	2.91174
2.72501	3.45495	0.0552792	2.91174
2.72503	3.45495	0.0552792	2.91174
2.72513	3.48259	0.0276396	2.91174
2.77071	3.51023	0	2.91174
2.77076	3.51023	0	2.91174
2.77081	3.51023	0.0276396	2.91174
2.77086	3.52405	0.0552792	2.91174
2.77087	3.55169	0.0276396	2.91174
2.78359	3.57933	0	2.91174
2.79505	3.57933	0	2.91174
2.79885	3.57933	0	2.91174
2.83742	3.57933	0	2.91174
2.83909	3.57933	0	2.91174
2.83927	3.57933	0	2.91174
2.83933	3.57933	0.0276396	2.91174
2.84005	3.57933	0.0552792	2.91174
2.84066	3.57933	0.0829187	2.91174
2.84067	3.59315	0.110558	2.91174
2.84067	3.62078	0.0829187	2.91174
2.84068	3.64842	0.0552792	2.91174
2.84072	3.67606	0.0276396	2.91174
2.84242	3.7037	0	2.91174
2.91885	3.7037	0	3.00273
2.91956	3.7037	0	3.00273
2.91962	3.71752	0.0276396	3.00273
2.9375	3.74516	0	3.00273
2.93864	3.74516	0	3.00273
2.93866	3.75898	0.0276396	3.00273
2.95444	3.78662	0	3.00273
2.98851	3.78662	0	3.00273
2.98863	3.78662	0	3.00273
2.98871	3.78662	0.0276396	3.00273
2.98874	3.80044	0.0552792	3.00273
2.98878	3.82808	0.0276396	3.00273
3.01851	3.85572	0	3.00273
3.01935	3.85572	0	3.00273
3.0999	3.85572	0.0276396	3.00273
3.0999	3.85572	0.0276396	3.00273
3.09994	3.85572	0.0276396	3.00273
3.09999	3.85572	0.0276396	3.00273
3.10001	3.88336	0	3.00273
3.11371	3.88336	0	3.00273
3.12911	3.88336	0	3.09372
3.17958	3.88336	0	3.18471
3.18134	3.88336	0	3.18471
3.18202	3.88336	0.0276396	3.18471
3.18205	3.89718	0.0552792	3.18471
3.18206	3.92482	0.0276396	3.18471
3.25127	3.95246	0	3.18471
3.29329	3.95246	0	3.18471
3.29364	3.95246	0	3.18471
3.29365	3.95246	0.0552792	3.18471
3.29374	3.9801	0.0276396	3.18471
3.2956	4.00774	0	3.18471
3.38125	4.00774	0	3.27571
3.38597	4.00774	0	3.3667
3.38613	4.00774	0	3.3667
3.38653	4.00774	0	3.3667
3.38654	4.00774	0.0552792	3.3667
3.38664	4.03538	0.0276396	3.3667
3.42048	4.06302	0	3.3667
3.47463	4.06302	0	3.54868
3.48832	4.06302	0	3.63967
3.48854	4.06302	0	3.63967
3.48855	4.07684	0.0276396	3.63967
3.50528	4.10448	0	3.63967
3.50567	4.10448	0	3.63967
3.5057	4.1183	0.0276396	3.63967
3.57307	4.14594	0	3.63967
3.63984	4.14594	0	3.73066
3.65355	4.14594	0	3.91265
3.65407	4.14594	0	3.91265
3.65438	4.14594	0.0276396	3.91265
3.6547	4.14594	0.0552792	3.91265
3.69313	4.14594	0.0829187	3.91265
3.71128	4.14594	0.0829187	4.09463
3.71129	4.14594	0.0829187	4.18562
3.71129	4.17358	0.0552792	4.18562
3.7113	4.20122	0.0276396	4.18562
3.75866	4.22886	0	4.18562
3.77235	4.22886	0	4.27662
3.77236	4.22886	0	4.27662
3.77245	4.22886	0.0276396	4.27662
3.77251	4.22886	0.0552792	4.27662
3.77251	4.24268	0.0829187	4.27662
3.77256	4.27032	0.0552792	4.27662
3.77257	4.29795	0.0276396	4.27662
3.77259	4.32559	0	4.27662
3.80615	4.32559	0	4.27662
3.83101	4.32559	0	4.4586
3.83974	4.32559	0	4.54959
3.83978	4.32559	0	4.54959
3.8398	4.33941	0.0276396	4.54959
3.87372	4.36705	0	4.54959
3.95231	4.36705	0	4.64058
3.95247	4.36705	0	4.64058
3.95248	4.38087	0.0276396	4.64058
4.00531	4.40851	0	4.64058
4.07265	4.40851	0	4.73157
4.12577	4.40851	0	4.91356
4.12589	4.40851	0	4.91356
4.1259	4.42233	0.0276396	4.91356
4.15505	4.44997	0	4.91356
4.15508	4.44997	0	4.91356
4.15562	4.44997	0.0276396	4.91356
4.15564	4.46379	0.0552792	4.91356
4.15564	4.46379	0.0552792	4.91356
4.15565	4.46379	0.0552792	4.91356
4.15565	4.49143	0.0276396	4.91356
4.16127	4.51907	0	4.91356
4.16172	4.51907	0	4.91356
4.16175	4.53289	0.0276396	4.91356
4.16212	4.56053	0	4.91356
4.16284	4.56053	0	4.91356
4.16286	4.57435	0.0276396	4.91356
4.17998	4.60199	0	4.91356
4.19291	4.60199	0	5.00455
4.19357	4.60199	0	5.00455
4.19409	4.60199	0.0276396	5.00455
4.19572	4.60199	0.0552792	5.00455
4.19641	4.60199	0.0829187	5.00455
4.19646	4.60199	0.110558	5.00455
4.19669	4.60199	0.138198	5.00455
4.19723	4.60199	0.165837	5.00455
4.19871	4.60199	0.193477	5.00455
4.19883	4.60199	0.221117	5.00455
4.19888	4.60199	0.248756	5.00455
4.19921	4.62963	0.221117	5.00455
4.19924	4.62963	0.248756	5.00455
4.22112	4.65727	0.221117	5.00455
4.22333	4.65727	0.221117	5.00455
4.22384	4.65727	0.221117	5.00455
4.22389	4.67109	0.248756	5.00455
4.23218	4.69873	0.221117	5.00455
4.23219	4.69873	0.221117	5.00455
4.23219	4.72637	0.193477	5.00455
4.2322	4.75401	0.165837	5.00455
4.2322	4.78165	0.138198	5.00455
4.2322	4.78165	0.138198	5.00455
4.2322	4.80929	0.110558	5.00455
4.23223	4.80929	0.110558	5.00455
4.23224	4.83693	0.0829187	5.00455
4.23226	4.86457	0.0552792	5.00455
4.23229	4.89221	0.0276396	5.00455
4.23229	4.91985	0	5.00455
4.23354	4.91985	0	5.00455
4.23354	4.93367	0.0276396	5.00455
4.23644	4.9613	0	5.00455
4.2369	4.9613	0	5.00455
4.23699	4.97512	0.0276396	5.00455
4.30623	5.00276	0	5.00455
4.30648	5.00276	0	5.00455
4.30652	5.01658	0.0276396	5.00455
4.30776	5.04422	0	5.00455
4.32773	5.04422	0	5.09554
4.36078	5.04422	0	5.18653
4.36101	5.04422	0	5.18653
4.36103	5.05804	0.0276396	5.18653
4.37983	5.08568	0	5.18653
4.44348	5.08568	0	5.36852
4.44417	5.08568	0	5.45951
4.44509	5.08568	0	5.45951
4.44579	5.08568	0.0276396	5.45951
4.44587	5.08568	0.0552792	5.45951
4.44588	5.0995	0.0829187	5.45951
4.44588	5.12714	0.0552792	5.45951
4.44595	5.15478	0.0276396	5.45951
4.45907	5.18242	0	5.45951
4.46371	5.18242	0	5.45951
4.46372	5.18242	0	5.45951
4.46378	5.19624	0.0276396	5.45951
4.53546	5.22388	0	5.45951
4.53755	5.22388	0	5.45951
4.53759	5.2377	0.0276396	5.45951
4.55274	5.26534	0	5.45951
4.55886	5.26534	0	5.45951
4.55902	5.26534	0	5.45951
4.5593	5.27916	0.0276396	5.45951
4.56342	5.3068	0	5.45951
4.56557	5.3068	0	5.45951
4.58617	5.3068	0.0276396	5.45951
4.58617	5.3068	0.0276396	5.45951
4.5889	5.33444	0	5.45951
4.61195	5.33444	0	5.5505
4.61208	5.33444	0	5.5505
4.61216	5.33444	0.0276396	5.5505
4.61227	5.33444	0.0276396	5.5505
4.61363	5.33444	0.0552792	5.5505
4.61365	5.34826	0.0829187	5.5505
4.64466	5.3759	0.0552792	5.5505
4.64467	5.3759	0.0552792	5.64149
4.6447	5.40354	0.0276396	5.64149
4.65296	5.43118	0	5.64149
4.65444	5.43118	0	5.64149
4.65452	5.445	0.0276396	5.64149
4.65893	5.47264	0	5.64149
4.659	5.47264	0	5.64149
4.65907	5.47264	0.0552792	5.64149
4.65912	5.50028	0.0276396	5.64149
4.67105	5.52792	0	5.64149
4.67168	5.52792	0	5.64149
4.67176	5.52792	0.0552792	5.64149
4.67183	5.55556	0.0276396	5.64149
4.67183	5.55556	0.0276396	5.82348
4.73549	5.5832	0	5.82348
4.76325	5.5832	0	5.82348
4.76332	5.5832	0	5.82348
4.76343	5.59701	0.0276396	5.82348
4.77417	5.62465	0	5.82348
4.77441	5.62465	0	5.82348
4.77467	5.62465	0.0276396	5.82348
4.77471	5.63847	0.0552792	5.82348
4.77473	5.66611	0.0276396	5.82348
4.78666	5.69375	0	5.82348
4.78703	5.69375	0	5.82348
4.78708	5.69375	0.0276396	5.82348
4.78719	5.70757	0.0552792	5.82348
4.78722	5.73521	0.0276396	5.82348
4.82333	5.76285	0	5.82348
4.82349	5.76285	0	5.82348
4.82362	5.76285	0.0276396	5.82348
4.82364	5.77667	0.0552792	5.82348
4.82366	5.80431	0.0276396	5.82348
4.82372	5.83195	0	5.82348
4.8696	5.83195	0	5.82348
4.87038	5.83195	0	5.82348
4.87096	5.83195	0.0276396	5.82348
4.871	5.84577	0.0552792	5.82348
4.871	5.87341	0.0276396	5.82348
4.87102	5.90105	0	5.82348
4.92273	5.90105	0	5.82348
4.92308	5.90105	0	5.82348
4.92313	5.91487	0.0276396	5.82348
5.0047	5.94251	0	5.82348
5.00607	5.94251	0	5.82348
5.00608	5.94251	0.0552792	5.82348
5.00608	5.97015	0.0276396	5.82348
5.00878	5.99779	0	5.82348
5.05133	5.99779	0	5.91447
5.0514	5.99779	0	5.91447
5.0514	6.01161	0.0276396	5.91447
5.06149	6.03925	0	5.91447
5.06233	6.03925	0	5.91447
5.06236	6.05307	0.0276396	5.91447
5.06913	6.08071	0	5.91447
5.08954	6.08071	0	6.09645
5.08959	6.08071	0	6.09645
5.08972	6.09453	0.0276396	6.09645
5.16828	6.12217	0	6.09645
5.17465	6.12217	0	6.18744
5.24689	6.12217	0	6.27843
5.25751	6.12217	0	6.36943
5.25821	6.12217	0	6.36943
5.25824	6.13599	0.0276396	6.36943
5.26283	6.16363	0	6.36943
5.26298	6.16363	0	6.36943
5.26307	6.16363	0.0552792	6.36943
5.26312	6.19127	0.0276396	6.36943
5.3738	6.21891	0	6.36943
5.3751	6.21891	0	6.36943
5.37511	6.23273	0.0276396	6.36943
5.42763	6.26036	0	6.36943
5.42792	6.26036	0	6.36943
5.42796	6.27418	0.0276396	6.36943
5.6523	6.30182	0	6.36943
5.65409	6.30182	0	6.55141
5.65417	6.30182	0	6.55141
5.6542	6.31564	0.0276396	6.55141
5.65449	6.34328	0	6.55141
5.65474	6.34328	0	6.55141
5.65478	6.3571	0.0276396	6.55141
5.65585	6.38474	0	6.55141
5.65633	6.38474	0	6.55141
5.65635	6.39856	0.0276396	6.55141
5.66184	6.4262	0	6.55141
5.69946	6.4262	0	6.6424
5.74018	6.4262	0	6.73339
5.77543	6.4262	0	6.82439
5.79055	6.4262	0	7.00637
5.79093	6.4262	0	7.00637
5.79094	6.44002	0.0276396	7.00637
5.80084	6.46766	0	7.00637
5.83236	6.46766	0	7.09736
5.83239	6.46766	0	7.09736
5.83241	6.46766	0.0552792	7.09736
5.83241	6.4953	0.0276396	7.09736
5.85537	6.52294	0	7.09736
5.85591	6.52294	0	7.09736
5.85593	6.53676	0.0276396	7.09736
5.94883	6.5644	0	7.09736
5.95577	6.5644	0	7.18835
5.98037	6.5644	0	7.27934
5.98521	6.5644	0	7.37034
5.99115	6.5644	0	7.46133
6.02956	6.5644	0	7.55232
6.04348	6.5644	0	7.7343
6.04463	6.5644	0	7.7343
6.04467	6.5644	0.0552792	7.7343
6.04468	6.59204	0.0276396	7.7343
6.14359	6.61968	0	7.7343
6.16396	6.61968	0	7.8253
6.2485	6.61968	0	7.91629
6.24932	6.61968	0	7.91629
6.24934	6.6335	0.0276396	7.91629
6.25037	6.66114	0	7.91629
6.25042	6.66114	0	7.91629
6.25047	6.66114	0.0276396	7.91629
6.25047	6.67496	0.0552792	7.91629
6.25048	6.7026	0.0276396	7.91629
6.28244	6.73024	0	7.91629
6.28274	6.73024	0	7.91629
6.28379	6.73024	0.0276396	7.91629
6.28389	6.74406	0.0552792	7.91629
6.28389	6.7717	0.0276396	7.91629
6.30461	6.79934	0	7.91629
6.3049	6.79934	0	7.91629
6.30496	6.81316	0.0276396	7.91629
6.3257	6.8408	0	7.91629
6.32656	6.8408	0	7.91629
6.32664	6.8408	0.0276396	7.91629
6.35555	6.86844	0	7.91629
6.35556	6.86844	0	7.91629
6.35557	6.86844	0.0552792	7.91629
6.35558	6.89608	0.0276396	7.91629
6.3567	6.92371	0	7.91629
6.36699	6.92371	0	8.09827
6.44348	6.92371	0	8.18926
6.44384	6.92371	0	8.18926
6.44393	6.93753	0.0276396	8.18926
6.44394	6.96517	0	8.18926
6.5798	6.96517	0	8.18926
6.63477	6.96517	0	8.37125
6.6352	6.96517	0	8.37125
6.63526	6.97899	0.0276396	8.37125
6.66293	7.00663	0	8.37125
6.66318	7.00663	0	8.37125
6.66327	7.00663	0.0276396	8.37125
6.66327	7.02045	0.0552792	8.37125
6.66335	7.04809	0.0276396	8.37125
6.66473	7.07573	0	8.37125
6.66563	7.07573	0	8.55323
6.66645	7.07573	0	8.55323
6.66648	7.07573	0.0552792	8.55323
6.66652	7.10337	0.0276396	8.55323
6.68102	7.13101	0	8.55323
6.68192	7.13101	0	8.55323
6.68193	7.14483	0.0276396	8.55323
6.72147	7.17247	0	8.55323
6.72174	7.17247	0	8.55323
6.72178	7.18629	0.0276396	8.55323
6.74934	7.21393	0	8.55323
6.78101	7.21393	0	8.73521
6.87176	7.21393	0	8.9172
6.87226	7.21393	0	8.9172
6.87228	7.21393	0.0552792	8.9172
6.87234	7.24157	0.0276396	8.9172
6.88112	7.26921	0	8.9172
6.88439	7.26921	0	8.9172
6.88452	7.26921	0.0276396	8.9172
6.88473	7.26921	0.0552792	8.9172
6.88475	7.26921	0.110558	8.9172
6.88476	7.29685	0.0829187	8.9172
6.88478	7.32449	0.0552792	8.9172
6.88479	7.35213	0.0276396	8.9172
6.89163	7.37977	0	8.9172
6.89248	7.37977	0	8.9172
6.89252	7.39359	0.0276396	8.9172
6.9378	7.42123	0	8.9172
7.00089	7.42123	0	9.00819
7.02819	7.42123	0	9.09918
7.09437	7.42123	0	9.28116
7.09459	7.42123	0	9.28116
7.09472	7.42123	0.0276396	9.28116
7.09479	7.43505	0.0552792	9.28116
7.09489	7.46269	0.0276396	9.28116
7.16856	7.49033	0	9.28116
7.16872	7.49033	0	9.28116
7.16878	7.50415	0.0276396	9.28116
7.21084	7.53179	0	9.28116
7.25947	7.53179	0	9.37216
7.26005	7.53179	0	9.37216
7.26026	7.53179	0.0276396	9.37216
7.26028	7.54561	0.0552792	9.37216
7.26036	7.57324	0.0276396	9.37216
7.28996	7.60088	0	9.37216
7.29017	7.60088	0	9.37216
7.29018	7.6147	0.0276396	9.37216
7.3388	7.64234	0	9.37216
7.33953	7.64234	0	9.37216
7.33977	7.65616	0.0276396	9.37216
7.34278	7.6838	0	9.37216
7.34291	7.6838	0	9.37216
7.34396	7.6838	0.0276396	9.37216
7.34397	7.6838	0.0552792	9.37216
7.34398	7.6838	0.0829187	9.37216
7.34402	7.71144	0.0552792	9.37216
7.34403	7.73908	0.0276396	9.37216
7.34405	7.76672	0	9.37216
7.38678	7.76672	0	9.37216
7.38702	7.76672	0	9.37216
7.38703	7.76672	0.0552792	9.37216
7.38704	7.79436	0.0276396	9.37216
7.39143	7.822	0	9.37216
7.3924	7.822	0	9.37216
7.39241	7.83582	0.0276396	9.37216
7.40002	7.86346	0	9.37216
7.44706	7.86346	0	9.46315
7.59965	7.86346	0	9.55414
7.60091	7.86346	0	9.55414
7.60103	7.86346	0.0276396	9.55414
7.60104	7.86346	0.0829187	9.55414
7.60104	7.8911	0.0552792	9.55414
7.60111	7.91874	0.0276396	9.55414
7.64568	7.94638	0	9.55414
7.64569	7.94638	0	9.55414
7.6457	7.9602	0.0276396	9.55414
7.65388	7.98784	0	9.55414
7.65391	7.98784	0	9.55414
7.65395	7.98784	0.0552792	9.55414
7.65396	8.01548	0.0276396	9.55414
7.65882	8.04312	0	9.55414
7.65936	8.04312	0	9.55414
7.6594	8.05694	0.0276396	9.55414
7.68981	8.08458	0	9.55414
7.69198	8.08458	0	9.55414
7.69204	8.0984	0.0276396	9.55414
7.76395	8.12604	0	9.55414
7.76395	8.12604	0	9.55414
7.76555	8.12604	0.0276396	9.55414
7.76559	8.13986	0.0552792	9.55414
7.76563	8.1675	0.0276396	9.55414
7.79222	8.19514	0	9.55414
7.7927	8.19514	0	9.55414
7.79275	8.19514	0.0276396	9.55414
7.79275	8.20896	0.0552792	9.55414
7.79278	8.23659	0.0276396	9.55414
7.7977	8.26423	0	9.55414
7.82705	8.26423	0	9.73612
7.82744	8.26423	0	9.73612
7.82746	8.27805	0.0276396	9.73612
7.82878	8.30569	0	9.73612
7.88962	8.30569	0	9.91811
7.92919	8.30569	0	10.1001
7.92936	8.30569	0	10.1001
7.92937	8.31951	0.0276396	10.1001
7.93651	8.34715	0	10.1001
7.9574	8.34715	0	10.1911
8.02064	8.34715	0	10.1911
8.02569	8.34715	0	10.3731
8.02707	8.34715	0	10.3731
8.02709	8.36097	0.0276396	10.3731
8.07947	8.38861	0	10.3731
8.07977	8.38861	0	10.3731
8.07978	8.40243	0.0276396	10.3731
8.10308	8.43007	0	10.3731
8.12453	8.43007	0	10.4641
8.12485	8.43007	0	10.4641
8.12488	8.44389	0.0276396	10.4641
8.20296	8.47153	0	10.4641
8.20755	8.47153	0	10.5551
8.20814	8.47153	0	10.5551
8.20832	8.47153	0.0276396	10.5551
8.20868	8.47153	0.0552792	10.5551
8.20869	8.48535	0.0829187	10.5551
8.20875	8.51299	0.0552792	10.5551
8.2088	8.54063	0.0276396	10.5551
8.26799	8.56827	0	10.5551
8.26905	8.56827	0	10.5551
8.26947	8.56827	0.0276396	10.5551
8.2711	8.56827	0.0552792	10.5551
8.27161	8.56827	0.0829187	10.5551
8.27215	8.56827	0.110558	10.5551
8.27348	8.56827	0.138198	10.5551
8.27349	8.56827	0.165837	10.5551
8.27349	8.59591	0.138198	10.5551
8.2735	8.62355	0.110558	10.5551
8.27354	8.65119	0.0829187	10.5551
8.27356	8.67883	0.0552792	10.5551
8.27366	8.70647	0.0276396	10.5551
8.30608	8.73411	0	10.5551
8.30705	8.73411	0	10.5551
8.3071	8.74793	0.0276396	10.5551
8.32189	8.77557	0	10.5551
8.39058	8.77557	0	10.737
8.45726	8.77557	0	10.919
8.50181	8.77557	0	11.01
8.63887	8.77557	0	11.01
8.64874	8.77557	0	11.01
8.65003	8.77557	0	11.01
8.65086	8.77557	0.0276396	11.01
8.65123	8.77557	0.0552792	11.01
8.65128	8.78939	0.0829187	11.01
8.65133	8.81703	0.0552792	11.01
8.65134	8.84467	0.0276396	11.01
8.66733	8.87231	0	11.01
8.66797	8.87231	0	11.01
8.66803	8.87231	0.0276396	11.01
8.66807	8.88612	0.0552792	11.01
8.66809	8.91376	0.0276396	11.01
8.67664	8.9414	0	11.01
8.72634	8.9414	0	11.192
8.7658	8.9414	0	11.374
8.76612	8.9414	0	11.374
8.76616	8.9414	0.0552792	11.374
8.76619	8.96904	0.0276396	11.374
8.7827	8.99668	0	11.374
8.78285	8.99668	0	11.374
8.78287	8.99668	0.0552792	11.374
8.78287	9.02432	0.0276396	11.374
8.78708	9.05196	0	11.374
8.7873	9.05196	0	11.374
8.78735	9.06578	0.0276396	11.374
8.8659	9.09342	0	11.374
8.86714	9.09342	0	11.374
8.86716	9.10724	0.0276396	11.374
8.9075	9.13488	0	11.374
8.90808	9.13488	0	11.374
8.90811	9.13488	0.0552792	11.374
8.90812	9.16252	0.0276396	11.374
9.0068	9.19016	0	11.374
9.00699	9.19016	0	11.374
9.007	9.19016	0.0552792	11.374
9.00704	9.2178	0.0276396	11.374
9.14168	9.24544	0	11.374
9.14355	9.24544	0	11.374
9.14357	9.24544	0.0552792	11.374
9.14365	9.27308	0.0276396	11.374
9.31762	9.30072	0	11.374
9.31762	9.30072	0	11.374
9.31765	9.31454	0.0276396	11.374
9.32509	9.34218	0	11.374
9.33976	9.34218	0	11.556
9.34027	9.34218	0	11.556
9.34028	9.34218	0.0552792	11.556
9.34031	9.36982	0.0276396	11.556
9.45348	9.39746	0	11.556
9.47803	9.39746	0	11.7379
9.47915	9.39746	0	11.7379
9.47916	9.41128	0.0276396	11.7379
9.52483	9.43892	0	11.7379
9.53269	9.43892	0	11.9199
9.53277	9.43892	0	11.9199
9.53282	9.45274	0.0276396	11.9199
9.581	9.48038	0	11.9199
9.5811	9.48038	0	11.9199
9.58111	9.48038	0.0552792	11.9199
9.58121	9.50802	0.0276396	11.9199
9.6076	9.53566	0	11.9199
9.60766	9.53566	0	11.9199
9.60805	9.53566	0.0276396	11.9199
9.60805	9.54947	0.0552792	11.9199
9.60806	9.54947	0.0552792	11.9199
9.60808	9.57711	0.0276396	11.9199
9.70702	9.60475	0	11.9199
9.70726	9.60475	0	11.9199
9.70744	9.60475	0.0276396	11.9199
9.70744	9.61857	0.0552792	11.9199
9.70744	9.64621	0.0276396	11.9199
9.73924	9.67385	0	11.9199
9.73933	9.67385	0	11.9199
9.73936	9.68767	0.0276396	11.9199
9.76257	9.71531	0	11.9199
9.76439	9.71531	0	11.9199
9.81173	9.71531	0.0276396	11.9199
9.81177	9.71531	0.0276396	12.0109
9.81827	9.74295	0	12.0109
9.86797	9.74295	0	12.1929
9.91685	9.74295	0	12.2839
9.95898	9.74295	0	12.4659
9.95934	9.74295	0	12.4659
9.95937	9.75677	0.0276396	12.4659
10.0065	9.78441	0	12.4659
10.0067	9.78441	0	12.4659
10.0068	9.79823	0.0276396	12.4659
10.0154	9.82587	0	12.4659
10.0582	9.82587	0	12.5569
10.0772	9.82587	0	12.7389
10.0774	9.82587	0	12.9208
10.1144	9.82587	0	13.1028
10.1149	9.82587	0	13.1028
10.1172	9.82587	0	13.2848
10.2449	9.82587	0.0276396	13.2848
10.2459	9.82587	0.0276396	13.2848
10.2459	9.83969	0.0552792	13.2848
10.2459	9.86733	0.0276396	13.2848
10.3388	9.89497	0	13.2848
10.339	9.89497	0	13.2848
10.3391	9.90879	0.0276396	13.2848
10.4062	9.93643	0	13.2848
10.4065	9.93643	0	13.2848
10.4065	9.93643	0.0552792	13.2848
10.4065	9.96407	0.0276396	13.2848
10.4859	9.99171	0	13.2848
10.4888	9.99171	0	13.2848
10.4893	9.99171	0.0276396	13.2848
10.4893	9.99171	0.0829187	13.2848
10.4893	10.0193	0.0552792	13.2848
10.4893	10.047	0.0276396	13.2848
10.4893	10.0746	0	13.2848
10.5151	10.0746	0	13.2848
10.5721	10.0746	0	13.4668
10.5739	10.0746	0	13.4668
10.5739	10.0884	0.0276396	13.4668
10.6367	10.1161	0	13.4668
10.6375	10.1161	0	13.4668
10.6375	10.1161	0.0552792	13.4668
10.6375	10.1437	0.0276396	13.4668
10.722	10.1714	0	13.4668
10.7888	10.1714	0	13.6488
10.8195	10.1714	0	13.8308
10.8242	10.1714	0	14.0127
10.8242	10.1714	0	14.0127
10.8243	10.1852	0.0276396	14.0127
10.9715	10.2128	0	14.0127
10.9722	10.2128	0	14.0127
10.9723	10.2266	0.0276396	14.0127
10.9916	10.2543	0	14.0127
11.0227	10.2543	0	14.1037
11.0229	10.2543	0	14.1037
11.023	10.2543	0	14.1037
11.023	10.2681	0.0276396	14.1037
11.0231	10.2957	0	14.1037
11.0231	10.3096	0.0276396	14.1037
11.0282	10.3372	0	14.1037
11.0286	10.3372	0	14.1037
11.0286	10.351	0.0276396	14.1037
11.0866	10.3787	0	14.1037
11.0873	10.3787	0	14.1037
11.0873	10.3925	0.0276396	14.1037
11.2029	10.4201	0	14.1037
11.2031	10.4201	0	14.1037
11.2031	10.4339	0.0276396	14.1037
11.2089	10.4616	0	14.1037
11.2099	10.4616	0	14.1037
11.2103	10.4616	0.0276396	14.1037
11.2526	10.4616	0.0552792	14.1037
11.2527	10.4616	0.0552792	14.1037
11.2527	10.4892	0.0276396	14.1037
11.2532	10.5169	0	14.1037
11.2533	10.5307	0.0276396	14.1037
11.2812	10.5583	0	14.1037
11.2814	10.5583	0	14.1037
11.2822	10.5583	0.0276396	14.1037
11.2822	10.5721	0.0552792	14.1037
11.2822	10.5998	0.0276396	14.1037
11.2963	10.6274	0	14.1037
11.2968	10.6274	0	14.1037
11.2968	10.6412	0.0276396	14.1037
11.3433	10.6689	0	14.1037
11.3759	10.6689	0	14.2857
11.3762	10.6689	0	14.2857
11.3762	10.6827	0.0276396	14.2857
11.4494	10.7103	0	14.2857
11.4505	10.7103	0	14.2857
11.4505	10.7242	0.0276396	14.2857
11.5432	10.7518	0	14.2857
11.6303	10.7518	0	14.3767
11.6924	10.7518	0	14.5587
11.6924	10.7518	0	14.5587
11.6925	10.7656	0.0276396	14.5587
11.7186	10.7933	0	14.5587
11.7187	10.7933	0	14.5587
11.7187	10.7933	0.0276396	14.5587
11.7188	10.7933	0.0552792	14.5587
11.7188	10.7933	0.110558	14.5587
11.7188	10.8209	0.0829187	14.5587
11.7188	10.8485	0.0552792	14.5587
11.7188	10.8762	0.0276396	14.5587
11.7303	10.9038	0	14.5587
11.7307	10.9038	0	14.5587
11.7308	10.9176	0.0276396	14.5587
11.7726	10.9453	0	14.5587
11.7726	10.9453	0	14.5587
11.7728	10.9453	0.0276396	14.5587
11.7732	10.9453	0.0552792	14.5587
11.7741	10.9453	0.0829187	14.5587
11.7741	10.9591	0.110558	14.5587
11.7741	10.9867	0.0829187	14.5587
11.7741	11.0144	0.0552792	14.5587
11.7742	11.042	0.0276396	14.5587
11.7814	11.0697	0	14.5587
11.7814	11.0697	0	14.5587
11.7814	11.0697	0.0552792	14.5587
11.7815	11.0973	0.0276396	14.5587
11.8356	11.1249	0	14.5587
11.8362	11.1249	0	14.5587
11.8363	11.1249	0.0276396	14.5587
11.8371	11.1249	0.0552792	14.5587
11.8374	11.1249	0.0829187	14.5587
11.8375	11.1249	0.110558	14.5587
11.8376	11.1249	0.138198	14.5587
11.8386	11.1249	0.165837	14.5587
11.8393	11.1249	0.193477	14.5587
11.9366	11.1249	0.221117	14.5587
11.9366	11.1249	0.221117	14.5587
11.9366	11.1526	0.193477	14.5587
11.9366	11.1802	0.165837	14.5587
11.9367	11.2078	0.138198	14.5587
11.9367	11.2355	0.110558	14.5587
11.9367	11.2631	0.0829187	14.5587
11.9367	11.2908	0.0552792	14.5587
11.9367	11.2908	0.110558	14.5587
11.9367	11.3184	0.0829187	14.5587
11.9367	11.346	0.0552792	14.5587
11.9368	11.3737	0.0276396	14.5587
12.0917	11.4013	0	14.5587
12.0919	11.4013	0	14.5587
12.092	11.4151	0.0276396	14.5587
12.096	11.4428	0	14.5587
12.096	11.4428	0	14.5587
12.0967	11.4428	0.0276396	14.5587
12.0967	11.4566	0.0552792	14.5587
12.0967	11.4842	0.0276396	14.5587
12.0982	11.5119	0	14.5587
12.3628	11.5119	0	14.7407
12.3629	11.5119	0	14.7407
12.3629	11.5257	0.0276396	14.7407
12.4211	11.5533	0	14.7407
12.4216	11.5533	0	14.7407
12.4216	11.5533	0.0552792	14.7407
12.4216	11.581	0.0276396	14.7407
12.4679	11.6086	0	14.7407
12.4687	11.6086	0	14.7407
12.4688	11.6086	0.0552792	14.7407
12.4688	11.6363	0.0276396	14.7407
12.6024	11.6639	0	14.7407
12.6029	11.6639	0	14.7407
12.6029	11.6777	0.0276396	14.7407
12.6536	11.7054	0	14.7407
12.8064	11.7054	0	14.9227
12.8069	11.7054	0	14.9227
12.807	11.7054	0.0552792	14.9227
12.807	11.733	0.0276396	14.9227
12.8197	11.7606	0	14.9227
12.8199	11.7606	0	14.9227
12.8199	11.7745	0.0276396	14.9227
12.9894	11.8021	0	14.9227
13.1673	11.8021	0	15.1046
13.5671	11.8021	0	15.2866
13.5678	11.8021	0	15.2866
13.5678	11.8021	0.0552792	15.2866
13.5679	11.8297	0.0276396	15.2866
13.5885	11.8574	0	15.2866
13.7219	11.8574	0	15.3776
13.7252	11.8574	0	15.3776
13.7253	11.8712	0.0276396	15.3776
13.7312	11.8988	0	15.3776
14.0072	11.8988	0	15.4686
14.0075	11.8988	0	15.4686
14.0075	11.9127	0.0276396	15.4686
14.0595	11.9403	0	15.4686
14.0604	11.9403	0	15.4686
14.0604	11.9541	0.0276396	15.4686
14.2025	11.9818	0	15.4686
14.2033	11.9818	0	15.4686
14.2034	11.9956	0.0276396	15.4686
14.3628	12.0232	0	15.4686
14.3629	12.0232	0	15.4686
14.3629	12.037	0.0276396	15.4686
14.3864	12.0647	0	15.4686
14.3869	12.0647	0	15.4686
14.3869	12.0785	0.0276396	15.4686
14.3962	12.1061	0	15.4686
14.3963	12.1061	0	15.4686
14.3964	12.12	0.0276396	15.4686
14.4339	12.1476	0	15.4686
14.554	12.1476	0	15.6506
14.6594	12.1476	0	15.7416
14.6603	12.1476	0	15.7416
14.6603	12.1614	0.0276396	15.7416
14.929	12.1891	0	15.7416
14.9295	12.1891	0	15.7416
14.9295	12.1891	0.0552792	15.7416
14.9296	12.2167	0.0276396	15.7416
15.1107	12.2443	0	15.7416
15.3458	12.2443	0	15.9236
15.3462	12.2443	0	15.9236
15.3462	12.2582	0.0276396	15.9236
15.3714	12.2858	0	15.9236
15.3714	12.2858	0	15.9236
15.3715	12.2858	0.0552792	15.9236
15.3715	12.3134	0.0276396	15.9236
15.5849	12.3411	0	15.9236
15.5851	12.3411	0	15.9236
15.5851	12.3549	0.0276396	15.9236
15.6699	12.3825	0	15.9236
15.9044	12.3825	0	16.0146
15.9045	12.3825	0	16.0146
15.9045	12.3964	0.0276396	16.0146
15.9425	12.424	0	16.0146
16.3581	12.424	0	16.1056
16.5138	12.424	0	16.1965
16.5148	12.424	0	16.1965
16.5148	12.4378	0.0276396	16.1965
16.5607	12.4655	0	16.1965
16.5607	12.4655	0	16.1965
16.5608	12.4655	0.0552792	16.1965
16.5608	12.4931	0.0276396	16.1965
16.6474	12.5207	0	16.1965
16.6486	12.5207	0	16.1965
16.6488	12.5207	0.0276396	16.1965
16.6489	12.5345	0.0552792	16.1965
16.6489	12.5622	0.0276396	16.1965
16.7221	12.5898	0	16.1965
16.7225	12.5898	0	16.1965
16.7227	12.6036	0.0276396	16.1965
16.7291	12.6313	0	16.1965
16.7294	12.6313	0	16.1965
16.7295	12.6451	0.0276396	16.1965
16.7519	12.6727	0	16.1965
16.8354	12.6727	0	16.3785
16.8355	12.6727	0	16.3785
16.8355	12.6727	0.0552792	16.3785
16.8357	12.7004	0.0276396	16.3785
16.9374	12.728	0	16.3785
16.9378	12.728	0	16.3785
16.9379	12.728	0.0552792	16.3785
16.9379	12.7557	0.0276396	16.3785
16.9619	12.7833	0	16.3785
16.963	12.7833	0	16.3785
16.963	12.7833	0.0552792	16.3785
16.963	12.8109	0.0276396	16.3785
16.9748	12.8386	0	16.3785
16.9755	12.8386	0	16.3785
16.9755	12.8386	0.0552792	16.3785
16.9756	12.8662	0.0276396	16.3785
17.017	12.8939	0	16.3785
17.0176	12.8939	0	16.3785
17.0184	12.8939	0	16.3785
17.0185	12.9077	0.0276396	16.3785
17.0185	12.9353	0	16.3785
17.0199	12.9353	0.0276396	16.3785
17.0199	12.9491	0.0552792	16.3785
17.02	12.9768	0.0276396	16.3785
17.0302	13.0044	0	16.3785
17.0304	13.0044	0	16.3785
17.0305	13.0182	0.0276396	16.3785
17.1677	13.0459	0	16.3785
17.2285	13.0459	0	16.5605
17.2286	13.0459	0	16.5605
17.2296	13.0459	0.0276396	16.5605
17.2296	13.0597	0.0552792	16.5605
17.2297	13.0873	0.0276396	16.5605
17.2826	13.115	0	16.5605
17.2833	13.115	0	16.5605
17.2833	13.1288	0.0276396	16.5605
17.4087	13.1564	0	16.5605
17.4096	13.1564	0	16.5605
17.6193	13.1564	0.0276396	16.5605
17.6193	13.1564	0.0276396	16.7425
17.7492	13.1841	0	16.7425
17.78	13.1841	0	16.9245
17.7802	13.1841	0	16.9245
17.7802	13.1841	0.0552792	16.9245
17.7802	13.2117	0.0276396	16.9245
17.8409	13.2394	0	16.9245
17.8411	13.2394	0	16.9245
18.0154	13.2394	0.0276396	16.9245
18.0154	13.2394	0.0276396	17.1065
18.0339	13.267	0	17.1065
18.0346	13.267	0	17.1065
18.0358	13.267	0.0276396	17.1065
18.0363	13.267	0.0552792	17.1065
18.0363	13.267	0.110558	17.1065
18.0363	13.2946	0.0829187	17.1065
18.0363	13.3223	0.0552792	17.1065
18.0364	13.3499	0.0276396	17.1065
18.0766	13.3776	0	17.1065
18.0858	13.3776	0	17.2884
18.0862	13.3776	0	17.2884
18.0862	13.3914	0.0276396	17.2884
18.1917	13.419	0	17.2884
18.1923	13.419	0	17.2884
18.1923	13.4328	0.0276396	17.2884
18.2012	13.4605	0	17.2884
18.2027	13.4605	0	17.2884
18.2035	13.4605	0.0276396	17.2884
18.2035	13.4743	0.0552792	17.2884
18.2035	13.5019	0.0276396	17.2884
18.2092	13.5296	0	17.2884
18.2094	13.5296	0	17.2884
18.2094	13.5296	0.0552792	17.2884
18.2094	13.5572	0.0276396	17.2884
18.2865	13.5849	0	17.2884
18.287	13.5849	0	17.2884
18.287	13.5849	0.0276396	17.2884
18.287	13.5987	0.0552792	17.2884
18.287	13.6263	0.0276396	17.2884
18.4373	13.654	0	17.2884
18.4676	13.654	0	17.4704
18.4688	13.654	0	17.4704
18.4688	13.654	0.0552792	17.4704
18.4688	13.6816	0.0276396	17.4704
18.4752	13.7092	0	17.4704
18.4757	13.7092	0	17.4704
18.4757	13.7092	0.0552792	17.4704
18.4758	13.7369	0.0276396	17.4704
18.4884	13.7645	0	17.4704
18.4889	13.7645	0	17.4704
18.489	13.7783	0.0276396	17.4704
18.5963	13.806	0	17.4704
18.597	13.806	0	17.4704
18.5971	13.806	0.0552792	17.4704
18.5971	13.8336	0.0276396	17.4704
18.6476	13.8612	0	17.4704
18.6491	13.8612	0	17.4704
18.6491	13.8751	0.0276396	17.4704
19.2334	13.9027	0	17.4704
19.2335	13.9027	0	17.4704
19.2336	13.9027	0.0276396	17.4704
19.2336	13.9165	0.0552792	17.4704
19.2337	13.9442	0.0276396	17.4704
19.3114	13.9718	0	17.4704
19.313	13.9718	0	17.4704
19.3131	13.9856	0.0276396	17.4704
19.3211	14.0133	0	17.4704
19.531	14.0133	0	17.6524
19.5323	14.0133	0	17.6524
19.5336	14.0133	0.0276396	17.6524
19.5336	14.0271	0.0552792	17.6524
19.5336	14.0547	0.0276396	17.6524
19.6336	14.0824	0	17.6524
19.6512	14.0824	0	17.8344
19.6514	14.0824	0	17.8344
19.6514	14.0824	0.0552792	17.8344
19.6514	14.11	0.0276396	17.8344
19.6751	14.1376	0	17.8344
19.6764	14.1376	0	17.8344
19.6767	14.1376	0.0276396	17.8344
19.6768	14.1515	0.0552792	17.8344
19.6768	14.1791	0.0276396	17.8344
19.9237	14.2067	0	17.8344
19.9241	14.2067	0	17.8344
19.9241	14.2206	0.0276396	17.8344
19.9489	14.2482	0	17.8344
19.9496	14.2482	0	17.8344
19.9548	14.2482	0.0276396	17.8344
19.9551	14.2482	0.0276396	17.8344
19.9552	14.262	0.0552792	17.8344
21.0372	14.2897	0.0276396	17.8344
21.0373	14.2897	0.0276396	18.0164
21.0525	14.3173	0	18.0164
21.225	14.3173	0	18.1984
21.2253	14.3173	0	18.1984
21.2253	14.3173	0.0276396	18.1984
21.2253	14.3311	0.0552792	18.1984
21.2253	14.3588	0.0276396	18.1984
21.633	14.3864	0	18.1984
21.6337	14.3864	0	18.1984
21.6337	14.4002	0.0276396	18.1984
21.6765	14.4279	0	18.1984
21.775	14.4279	0	18.3803
21.7754	14.4279	0	18.3803
21.7779	14.4279	0.0276396	18.3803
21.7779	14.4417	0.0552792	18.3803
21.7779	14.4693	0.0276396	18.3803
21.7946	14.497	0	18.3803
21.8574	14.497	0	18.5623
21.8579	14.497	0	18.5623
21.8579	14.5108	0.0276396	18.5623
21.8965	14.5384	0	18.5623
21.8967	14.5384	0	18.5623
21.8968	14.5384	0.0552792	18.5623
21.8968	14.5661	0.0276396	18.5623
22.0269	14.5937	0	18.5623
22.0277	14.5937	0	18.5623
22.0277	14.6075	0.0276396	18.5623
22.0675	14.6352	0	18.5623
22.0681	14.6352	0	18.5623
22.0681	14.649	0.0276396	18.5623
22.6913	14.6766	0	18.5623
22.6913	14.6766	0	18.5623
22.6915	14.6766	0.0276396	18.5623
22.6916	14.6766	0.0829187	18.5623
22.6916	14.7043	0.0552792	18.5623
22.6916	14.7319	0.0276396	18.5623
22.7595	14.7595	0	18.5623
22.7598	14.7595	0	18.5623
22.7598	14.7595	0.0552792	18.5623
22.7599	14.7872	0.0276396	18.5623
23.0219	14.8148	0	18.5623
23.022	14.8148	0	18.5623
23.022	14.8286	0.0276396	18.5623
23.0992	14.8563	0	18.5623
23.0995	14.8563	0	18.5623
23.0995	14.8701	0.0276396	18.5623
23.2158	14.8977	0	18.5623
23.2158	14.8977	0	18.5623
23.216	14.9116	0.0276396	18.5623
23.2483	14.9392	0	18.5623
23.25	14.9392	0	18.5623
23.2501	14.953	0.0276396	18.5623
23.6247	14.9807	0	18.5623
23.6254	14.9807	0	18.5623
23.626	14.9807	0.0276396	18.5623
23.626	14.9807	0.0829187	18.5623
23.6261	15.0083	0.0552792	18.5623
23.6261	15.0359	0.0276396	18.5623
23.9434	15.0636	0	18.5623
23.9443	15.0636	0	18.5623
23.9443	15.0774	0.0276396	18.5623
24.3675	15.105	0	18.5623
24.3678	15.105	0	18.5623
24.368	15.105	0.0276396	18.5623
24.368	15.1189	0.0552792	18.5623
24.368	15.1465	0.0276396	18.5623
24.6426	15.1741	0	18.5623
24.6435	15.1741	0	18.5623
24.6436	15.1879	0.0276396	18.5623
24.982	15.2156	0	18.5623
24.9822	15.2156	0	18.5623
25.1225	15.2156	0.0276396	18.5623
25.1225	15.2156	0.0276396	18.7443
25.1472	15.2432	0	18.7443
25.1474	15.2432	0	18.7443
25.1605	15.2432	0.0276396	18.7443
25.1614	15.2432	0.0276396	18.7443
25.1614	15.257	0.0552792	18.7443
25.5921	15.2847	0.0276396	18.7443
25.5923	15.2847	0.0276396	18.7443
25.5932	15.3123	0	18.7443
25.5932	15.3261	0.0276396	18.7443
25.8194	15.3538	0	18.7443
25.8205	15.3538	0	18.7443
25.8205	15.3538	0.0552792	18.7443
25.8205	15.3814	0.0276396	18.7443
25.8572	15.4091	0	18.7443
25.8577	15.4091	0	18.7443
25.8578	15.4229	0.0276396	18.7443
25.8652	15.4505	0	18.7443
25.8667	15.4505	0	18.7443
25.8668	15.4505	0.0552792	18.7443
25.8668	15.4782	0.0276396	18.7443
26.2007	15.5058	0	18.7443
26.201	15.5058	0	18.7443
26.202	15.5058	0.0276396	18.7443
26.203	15.5058	0.0552792	18.7443
26.2031	15.5058	0.0829187	18.7443
26.2033	15.5058	0.110558	18.7443
26.2042	15.5058	0.138198	18.7443
26.2043	15.5058	0.165837	18.7443
26.2046	15.5058	0.193477	18.7443
26.2058	15.5058	0.221117	18.7443
26.2058	15.5058	0.248756	18.7443
26.2061	15.5334	0.221117	18.7443
26.2061	15.5334	0.248756	18.7443
26.4446	15.5611	0.221117	18.7443
26.4446	15.5611	0.221117	18.7443
26.4446	15.5887	0.193477	18.7443
26.4446	15.6164	0.165837	18.7443
26.4446	15.644	0.138198	18.7443
26.4446	15.6716	0.110558	18.7443
26.4447	15.6993	0.0829187	18.7443
26.4448	15.7269	0.0552792	18.7443
26.4448	15.7546	0.0276396	18.7443
26.4454	15.7822	0	18.7443
26.4454	15.796	0.0276396	18.7443
26.9722	15.8237	0	18.7443
26.9723	15.8237	0	18.7443
27.5145	15.8237	0.0276396	18.7443
27.5145	15.8237	0.0276396	18.7443
27.5168	15.8513	0	18.7443
27.5168	15.8651	0.0276396	18.7443
28.062	15.8928	0	18.7443
28.062	15.8928	0	18.7443
28.0621	15.9066	0.0276396	18.7443
29.8775	15.9342	0	18.7443
29.878	15.9342	0	18.7443
29.878	15.9342	0.0552792	18.7443
29.8782	15.9619	0.0276396	18.7443
29.8882	15.9895	0	18.7443
29.8886	15.9895	0	18.7443
29.9707	15.9895	0.0276396	18.7443
29.9708	15.9895	0.0276396	18.9263
30.1289	16.0171	0	18.9263
30.1321	16.0171	0	18.9263
30.1323	16.031	0.0276396	18.9263
30.7867	16.0586	0	18.9263
30.8057	16.0586	0	19.1083
30.8061	16.0586	0	19.1083
30.8067	16.0586	0.0276396	19.1083
30.8068	16.0724	0.0552792	19.1083
30.8068	16.1001	0.0276396	19.1083
31.3125	16.1277	0	19.1083
31.3129	16.1277	0	19.1083
31.3129	16.1277	0.0552792	19.1083
31.3129	16.1553	0.0276396	19.1083
31.4773	16.183	0	19.1083
31.6679	16.183	0	19.2903
31.6686	16.183	0	19.2903
31.6687	16.183	0.0276396	19.2903
31.6704	16.183	0.0552792	19.2903
31.6704	16.183	0.0829187	19.2903
32.0627	16.183	0.110558	19.2903
32.0627	16.183	0.110558	19.2903
32.0628	16.2106	0.0829187	19.2903
32.0628	16.2383	0.0552792	19.2903
32.0628	16.2383	0.0552792	19.2903
32.0629	16.2659	0.0276396	19.2903
32.0655	16.2935	0	19.2903
32.0655	16.2935	0.0552792	19.2903
32.0655	16.3212	0.0276396	19.2903
32.1075	16.3488	0	19.2903
32.1078	16.3488	0	19.2903
32.1078	16.3626	0.0276396	19.2903
32.4592	16.3903	0	19.2903
32.4592	16.3903	0	19.2903
32.4595	16.3903	0.0276396	19.2903
32.4596	16.4041	0.0552792	19.2903
32.4596	16.4317	0.0276396	19.2903
33.8548	16.4594	0	19.2903
33.8556	16.4594	0	19.2903
33.8557	16.4594	0.0552792	19.2903
33.8557	16.487	0.0276396	19.2903
34.0865	16.5146	0	19.2903
34.0866	16.5146	0	19.2903
34.0871	16.5146	0.0276396	19.2903
34.0872	16.5285	0.0552792	19.2903
34.0872	16.5561	0.0276396	19.2903
34.111	16.5837	0	19.2903
34.1111	16.5837	0	19.2903
34.1111	16.5837	0.0552792	19.2903
34.1112	16.6114	0.0276396	19.2903
35.3093	16.639	0	19.2903
35.3094	16.639	0	19.2903
35.3094	16.639	0.0552792	19.2903
35.3095	16.6667	0.0276396	19.2903
35.4629	16.6943	0	19.2903
35.4631	16.6943	0	19.2903
35.4633	16.6943	0.0276396	19.2903
35.4633	16.7081	0.0552792	19.2903
35.4634	16.7358	0.0276396	19.2903
35.5938	16.7634	0	19.2903
35.5951	16.7634	0	19.2903
36.3063	16.7634	0.0276396	19.2903
36.3065	16.7634	0.0276396	19.2903
36.3067	16.791	0	19.2903
36.3067	16.8049	0.0276396	19.2903
36.4305	16.8325	0	19.2903
36.432	16.8325	0	19.2903
36.4339	16.8325	0.0276396	19.2903
36.4339	16.8463	0.0552792	19.2903
36.4339	16.874	0.0276396	19.2903
36.4866	16.9016	0	19.2903
36.487	16.9016	0	19.2903
36.487	16.9016	0.0552792	19.2903
36.487	16.9292	0.0276396	19.2903
36.7848	16.9569	0	19.2903
36.7866	16.9569	0	19.2903
36.7866	16.9707	0.0276396	19.2903
37.0017	16.9983	0	19.2903
37.0023	16.9983	0	19.2903
37.0024	17.0122	0.0276396	19.2903
37.3293	17.0398	0	19.2903
37.3294	17.0398	0	19.2903
37.3294	17.0398	0.0552792	19.2903
37.3295	17.0674	0.0276396	19.2903
37.4181	17.0951	0	19.2903
37.4182	17.0951	0	19.2903
37.4184	17.1089	0.0276396	19.2903
37.506	17.1365	0	19.2903
37.5065	17.1365	0	19.2903
37.5065	17.1365	0.0552792	19.2903
37.5065	17.1642	0.0276396	19.2903
37.6618	17.1918	0	19.2903
37.6626	17.1918	0	19.2903
37.6626	17.1918	0.0552792	19.2903
37.6626	17.2195	0.0276396	19.2903
38.835	17.2471	0	19.2903
38.8361	17.2471	0	19.2903
38.8361	17.2471	0.0276396	19.2903
41.4441	17.2747	0	19.2903
41.4441	17.2747	0	19.2903
41.4442	17.2886	0.0276396	19.2903
41.6367	17.3162	0	19.2903
41.637	17.3162	0	19.2903
41.637	17.3162	0.0552792	19.2903
41.637	17.3438	0.0276396	19.2903
41.6526	17.3715	0	19.2903
41.6526	17.3715	0	19.2903
41.6526	17.3715	0.0552792	19.2903
41.6528	17.3991	0.0276396	19.2903
44.075	17.4268	0	19.2903
44.0757	17.4268	0	19.2903
44.0757	17.4268	0.0552792	19.2903
44.0757	17.4544	0.0276396	19.2903
44.3969	17.482	0	19.2903
44.3971	17.482	0	19.2903
44.3987	17.482	0.0276396	19.2903
45.1593	17.482	0.0552792	19.2903
45.1593	17.482	0.0552792	19.2903
45.1594	17.5097	0.0276396	19.2903
45.1605	17.5373	0	19.2903
45.1606	17.5511	0.0276396	19.2903
45.1877	17.5788	0	19.2903
45.1878	17.5788	0	19.2903
45.1878	17.5788	0.0552792	19.2903
45.1878	17.6064	0.0276396	19.2903
46.034	17.6341	0	19.2903
46.0342	17.6341	0	19.2903
46.0342	17.6341	0.0552792	19.2903
46.0342	17.6617	0.0276396	19.2903
46.1193	17.6893	0	19.2903
46.1194	17.6893	0	19.2903
46.1207	17.6893	0.0276396	19.2903
46.1207	17.6893	0.0552792	19.2903
46.1208	17.717	0.0276396	19.2903
47.0183	17.7446	0	19.2903
47.0187	17.7446	0	19.2903
47.0188	17.7584	0.0276396	19.2903
47.2444	17.7861	0	19.2903
47.2446	17.7861	0	19.2903
47.2456	17.7861	0.0276396	19.2903
47.2457	17.7999	0.0552792	19.2903
47.2457	17.8275	0.0276396	19.2903
47.257	17.8552	0	19.2903
47.2575	17.8552	0	19.2903
47.2576	17.8552	0.0276396	19.2903
47.2585	17.8552	0.0552792	19.2903
47.2587	17.8552	0.0829187	19.2903
47.2589	17.8552	0.110558	19.2903
47.2596	17.8552	0.138198	19.2903
47.2606	17.8552	0.165837	19.2903
47.2609	17.8552	0.193477	19.2903
47.2612	17.8552	0.221117	19.2903
47.2613	17.8552	0.248756	19.2903
47.2625	17.8828	0.221117	19.2903
47.2626	17.8828	0.248756	19.2903
49.5357	17.9104	0.221117	19.2903
49.5357	17.9104	0.221117	19.2903
49.5357	17.9381	0.193477	19.2903
49.5357	17.9657	0.165837	19.2903
49.5357	17.9934	0.138198	19.2903
49.5358	18.021	0.110558	19.2903
49.5358	18.0486	0.0829187	19.2903
49.5358	18.0763	0.0552792	19.2903
49.5358	18.1039	0.0276396	19.2903
49.5371	18.1316	0	19.2903
49.5372	18.1316	0.0552792	19.2903
49.5373	18.1592	0.0276396	19.2903
49.6568	18.1868	0	19.2903
49.6572	18.1868	0	19.2903
49.6572	18.1868	0.0552792	19.2903
49.6573	18.2145	0.0276396	19.2903
49.7635	18.2421	0	19.2903
49.7637	18.2421	0	19.2903
49.7639	18.2559	0.0276396	19.2903
50.0529	18.2836	0	19.2903
50.9155	18.2836	0	19.4722
50.916	18.2836	0	19.4722
50.916	18.2836	0.0552792	19.4722
50.916	18.3112	0.0276396	19.4722
52.2286	18.3389	0	19.4722
52.2291	18.3389	0	19.4722
52.3577	18.3389	0.0276396	19.4722
52.3578	18.3389	0.0276396	19.4722
52.3583	18.3665	0	19.4722
52.3583	18.3803	0.0276396	19.4722
54.561	18.408	0	19.4722
54.5613	18.408	0	19.4722
54.5613	18.408	0.0552792	19.4722
54.5613	18.4356	0.0276396	19.4722
55.3059	18.4632	0	19.4722
55.306	18.4632	0	19.4722
55.306	18.4771	0.0276396	19.4722
56.9756	18.5047	0	19.4722
56.9759	18.5047	0	19.4722
82.8456	18.5047	0.0276396	19.4722
82.8456	18.5047	0.0276396	19.4722
82.8457	18.5323	0	19.4722
82.8457	18.5323	0.0552792	19.4722
82.8457	18.56	0.0276396	19.4722
94.3434	18.5876	0	19.4722
94.3436	18.5876	0	19.4722
94.3436	18.5876	0.0552792	19.4722
94.3436	18.6153	0.0276396	19.4722
94.9072	18.6429	0	19.4722
94.9073	18.6429	0	19.4722
101.277	18.6429	0.0276396	19.4722
101.277	18.6429	0.0276396	19.4722
101.277	18.6705	0	19.4722
101.277	18.6705	0.0552792	19.4722
101.277	18.6982	0.0276396	19.4722
103.088	18.7258	0	19.4722
103.088	18.7258	0	19.4722
103.088	18.7258	0.0552792	19.4722
103.088	18.7535	0.0276396	19.4722
103.849	18.7811	0	19.4722
103.85	18.7811	0	19.4722
103.85	18.7811	0.0552792	19.4722
103.85	18.8087	0.0276396	19.4722
107.515	18.8364	0	19.4722
107.515	18.8364	0	19.4722
107.515	18.8502	0.0276396	19.4722
109.259	18.8778	0	19.4722
109.262	18.8778	0	19.4722
109.262	18.8778	0.0552792	19.4722
109.262	18.9055	0.0276396	19.4722
118.994	18.9331	0	19.4722
118.994	18.9331	0	19.4722
118.994	18.9331	0.0552792	19.4722
118.994	18.9608	0.0276396	19.4722
138.575	18.9884	0	19.4722
138.576	18.9884	0	19.4722
138.576	18.9884	0.0552792	19.4722
138.576	19.016	0.0276396	19.4722
174.834	19.0437	0	19.4722
174.834	19.0437	0	19.4722
174.834	19.0437	0.0552792	19.4722
174.835	19.0713	0.0276396	19.4722
