1.22526e-10	0	0	0
1.71454e-10	0	0	0
4.89242e-10	0	0	0
7.09246e-10	0	0	0
7.30734e-10	0	0	0
1.75639e-09	0	0	0
1.90964e-09	0	0	0
2.03451e-09	0	0	0
2.72918e-09	0	0	0
3.5162e-09	0	0	0
4.65157e-09	0	0	0
7.49697e-09	0	0	0
8.25729e-09	0	0	0
1.0685e-08	0	0	0
1.11169e-08	0	0	0
1.11612e-08	0	0	0
1.20947e-08	0	0	0
1.24473e-08	0	0	0
1.25012e-08	0	0	0
1.26297e-08	0	0	0
1.27842e-08	0	0	0
1.30979e-08	0	0	0
1.36635e-08	0	0	0
1.5013e-08	0	0	0
1.53777e-08	0	0	0
1.59151e-08	0	0	0
1.6589e-08	0	0	0
1.69473e-08	0	0	0
1.73359e-08	0	0	0
1.77912e-08	0	0	0
1.86489e-08	0	0	0
2.1376e-08	0	0	0
2.15972e-08	0	0	0
2.23139e-08	0	0	0
2.26069e-08	0	0	0
2.33607e-08	0	0	0
2.43859e-08	0	0	0
2.44635e-08	0	0	0
2.61005e-08	0	0	0
2.99388e-08	0	0	0
3.04031e-08	0	0	0
3.05378e-08	0	0	0
3.05542e-08	0	0	0
3.20633e-08	0	0	0
3.48968e-08	0	0	0
3.99978e-08	0	0	0
4.01242e-08	0	0	0
4.4086e-08	0	0	0
4.65104e-08	0	0	0
4.97172e-08	0	0	0
5.08828e-08	0	0	0
5.57786e-08	0	0	0
5.73059e-08	0	0	0
6.61695e-08	0	0	0
7.24094e-08	0	0	0
7.3847e-08	0	0	0
7.7101e-08	0	0	0
9.009e-08	0	0	0
9.80484e-08	0	0	0
1.26458e-07	0	0	0
1.44591e-07	0	0	0
1.80246e-07	0	0	0
1.89869e-07	0	0	0
2.34684e-07	0	0	0
2.83834e-07	0	0	0
3.4104e-07	0	0	0
3.81985e-07	0	0	0
3.86984e-07	0	0	0
3.96526e-07	0	0	0
4.32184e-07	0	0	0
4.46424e-07	0	0	0
5.93931e-07	0	0	0
6.32424e-07	0	0	0
7.8641e-07	0	0	0
8.21617e-07	0	0	0
9.15235e-07	0	0	0
1.10328e-06	0	0	0
1.1431e-06	0	0	0
1.31461e-06	0	0	0
1.40134e-06	0	0	0
1.44246e-06	0	0	0
1.44798e-06	0	0	0
1.46363e-06	0	0	0
1.64319e-06	0	0	0
1.65857e-06	0	0	0
1.72913e-06	0	0	0
1.86075e-06	0	0	0
1.86981e-06	0	0	0
2.05081e-06	0	0	0
2.10399e-06	0	0	0
2.38714e-06	0	0	0
2.55504e-06	0	0	0
2.56769e-06	0	0	0
2.65658e-06	0	0	0
2.72114e-06	0	0	0
2.98649e-06	0	0	0
3.17297e-06	0	0	0
3.18672e-06	0	0	0
3.22554e-06	0	0	0
3.40337e-06	0	0	0
3.45688e-06	0	0	0
3.50253e-06	0	0	0
3.55122e-06	0	0	0
3.57633e-06	0	0	0
4.04554e-06	0	0	0
4.30348e-06	0	0	0
4.42338e-06	0	0	0
4.56631e-06	0	0	0
4.65983e-06	0	0	0
4.66574e-06	0	0	0
5.00695e-06	0	0	0
5.02422e-06	0	0	0
5.11553e-06	0	0	0
5.23743e-06	0	0	0
5.30067e-06	0	0	0
5.32685e-06	0	0	0
5.51323e-06	0	0	0
5.60065e-06	0	0	0
5.61616e-06	0	0	0
5.61627e-06	0	0	0
5.65845e-06	0	0	0
5.93863e-06	0	0	0
6.08856e-06	0	0	0
6.4151e-06	0	0	0
6.43885e-06	0	0	0
6.55741e-06	0	0	0
6.6036e-06	0	0	0
6.69478e-06	0	0	0
6.75961e-06	0	0	0
7.05957e-06	0	0	0
7.08604e-06	0	0	0
7.31224e-06	0	0	0
7.38284e-06	0	0	0
7.4194e-06	0	0	0
7.48977e-06	0	0	0
7.62038e-06	0	0	0
7.78569e-06	0	0	0
8.03336e-06	0	0	0
8.05289e-06	0	0	0
8.15112e-06	0	0	0
8.19255e-06	0	0	0
8.25224e-06	0	0	0
8.2889e-06	0	0	0
8.50126e-06	0	0	0
8.87106e-06	0	0	0
9.01223e-06	0	0	0
9.22224e-06	0	0	0
9.28181e-06	0	0	0
9.61981e-06	0	0	0
9.71864e-06	0	0	0
9.93068e-06	0	0	0
1.06569e-05	0	0	0
1.07743e-05	0	0	0
1.1026e-05	0	0	0
1.11761e-05	0	0	0
1.11892e-05	0	0	0
1.1264e-05	0	0	0
1.16699e-05	0	0	0
1.17149e-05	0	0	0
1.18769e-05	0	0	0
1.19826e-05	0	0	0
1.20821e-05	0	0	0
1.22518e-05	0	0	0
1.26875e-05	0	0	0
1.28168e-05	0	0	0
1.30084e-05	0	0	0
1.31852e-05	0	0	0
1.35557e-05	0	0	0
1.35641e-05	0	0	0
1.3994e-05	0	0	0
1.46253e-05	0	0	0
1.50453e-05	0	0	0
1.50551e-05	0	0	0
1.50801e-05	0	0	0
1.53232e-05	0	0	0
1.54429e-05	0	0	0
1.5719e-05	0	0	0
1.616e-05	0	0	0
1.65297e-05	0	0	0
1.68748e-05	0	0	0
1.69055e-05	0	0	0
1.701e-05	0	0	0
1.78811e-05	0	0	0
1.80308e-05	0	0	0
1.8404e-05	0	0	0
1.84472e-05	0	0	0
1.85967e-05	0	0	0
1.89745e-05	0	0	0
1.92202e-05	0	0	0
1.92499e-05	0	0	0
1.92632e-05	0	0	0
1.99713e-05	0	0	0
2.02034e-05	0	0	0
2.02653e-05	0	0	0
2.09767e-05	0	0	0
2.1359e-05	0	0	0
2.18582e-05	0	0	0
2.20533e-05	0	0	0
2.28723e-05	0	0	0
2.30086e-05	0	0	0
2.35108e-05	0	0	0
2.41939e-05	0	0	0
2.45502e-05	0	0	0
2.50406e-05	0	0	0
2.51895e-05	0	0	0
2.53891e-05	0	0	0
2.54313e-05	0	0	0
2.59994e-05	0	0	0
2.6002e-05	0	0	0
2.64765e-05	0	0	0
2.7395e-05	0	0	0
2.75387e-05	0	0	0
2.79665e-05	0	0	0
2.83796e-05	0	0	0
2.85946e-05	0	0	0
2.89224e-05	0	0	0
2.96379e-05	0	0	0
2.96973e-05	0	0	0
3.05644e-05	0	0	0
3.07824e-05	0	0	0
3.08182e-05	0	0	0
3.22185e-05	0	0	0
3.23073e-05	0	0	0
3.24531e-05	0	0	0
3.25864e-05	0	0	0
3.26372e-05	0	0	0
3.40072e-05	0	0	0
3.41395e-05	0	0	0
3.48412e-05	0	0	0
3.55453e-05	0	0	0
3.61937e-05	0	0	0
3.71057e-05	0	0	0
3.87222e-05	0	0	0
3.88127e-05	0	0	0
3.92113e-05	0	0	0
3.93953e-05	0	0	0
3.94997e-05	0	0	0
3.99119e-05	0	0	0
4.02241e-05	0	0	0
4.39507e-05	0	0	0
4.4311e-05	0	0	0
4.60075e-05	0	0	0
4.60905e-05	0	0	0
4.62498e-05	0	0	0
4.6451e-05	0	0	0
4.69378e-05	0	0	0
4.78399e-05	0	0	0
4.80874e-05	0	0	0
4.82676e-05	0	0	0
4.95672e-05	0	0	0
5.07155e-05	0	0	0
5.19912e-05	0	0	0
5.27779e-05	0	0	0
5.32989e-05	0	0	0
5.34396e-05	0	0	0
5.38266e-05	0	0	0
5.68939e-05	0	0	0
5.76685e-05	0	0	0
5.77584e-05	0	0	0
5.7906e-05	0	0	0
5.82318e-05	0	0	0
6.01963e-05	0	0	0
6.1426e-05	0	0	0
6.16327e-05	0	0	0
6.22953e-05	0	0	0
6.45386e-05	0	0	0
6.51361e-05	0	0	0
6.52624e-05	0	0	0
6.53503e-05	0	0	0
6.55619e-05	0	0	0
6.59686e-05	0	0	0
6.71627e-05	0	0	0
6.85323e-05	0	0	0
6.87853e-05	0	0	0
7.0588e-05	0	0	0
7.38487e-05	0	0	0
7.56587e-05	0	0	0
7.59972e-05	0	0	0
7.82892e-05	0	0	0
7.91151e-05	0	0	0
7.94397e-05	0	0	0
8.00865e-05	0	0	0
8.23923e-05	0	0	0
8.24067e-05	0	0	0
8.33262e-05	0	0	0
8.9329e-05	0	0	0
9.24581e-05	0	0	0
9.33288e-05	0	0	0
9.70986e-05	0	0	0
0.000101298	0	0	0
0.000103091	0	0	0
0.000103346	0	0	0
0.000109011	0	0	0
0.000111888	0	0	0
0.000117854	0	0	0
0.000119682	0	0	0
0.00012808	0	0	0
0.000131686	0	0	0
0.00013885	0	0	0
0.000140803	0	0	0
0.000144112	0	0	0
0.000156346	0	0	0
0.000216441	0	0	0
0.000621542	0	0	0
0.00598133	0	0	0
0.00693643	0	0	0
0.00758264	0	0.0276396	0
0.00759371	0.0138198	0.0552792	0
0.00759405	0.0138198	0.0552792	0
0.00761745	0.0414594	0.0276396	0
0.0097787	0.0690989	0	0
0.00994629	0.0690989	0	0
0.00994766	0.0829187	0.0276396	0
0.0187768	0.110558	0	0
0.0432079	0.110558	0	0
0.0679096	0.110558	0	0
0.0679117	0.110558	0	0
0.0745327	0.110558	0	0
0.0745841	0.110558	0	0
0.0745894	0.110558	0	0
0.0746436	0.110558	0	0
0.107109	0.110558	0	0
0.118575	0.110558	0	0
0.12311	0.110558	0	0
0.123211	0.110558	0	0
0.123619	0.110558	0	0
0.12362	0.110558	0	0
0.139404	0.110558	0	0
0.150239	0.110558	0	0
0.150314	0.110558	0	0
0.177324	0.110558	0	0
0.182623	0.110558	0	0
0.1827	0.110558	0	0
0.182706	0.124378	0.0276396	0
0.182733	0.152018	0	0
0.217851	0.152018	0	0
0.218379	0.152018	0	0
0.218425	0.165837	0.0276396	0
0.234593	0.193477	0	0
0.236551	0.193477	0	0
0.252364	0.193477	0	0.0909918
0.279249	0.193477	0	0.0909918
0.279318	0.193477	0	0.0909918
0.279395	0.207297	0.0276396	0.0909918
0.332521	0.234936	0	0.0909918
0.347918	0.234936	0	0.0909918
0.393647	0.234936	0	0.0909918
0.393751	0.234936	0	0.0909918
0.39376	0.248756	0.0276396	0.0909918
0.39387	0.276396	0	0.0909918
0.408937	0.276396	0	0.181984
0.423942	0.276396	0	0.272975
0.461161	0.276396	0	0.272975
0.465412	0.276396	0	0.272975
0.465415	0.276396	0	0.272975
0.468118	0.276396	0	0.272975
0.468151	0.276396	0	0.272975
0.471733	0.276396	0	0.272975
0.484593	0.276396	0	0.272975
0.493399	0.276396	0	0.363967
0.518794	0.276396	0	0.363967
0.519829	0.276396	0	0.363967
0.519888	0.290216	0.0276396	0.363967
0.613628	0.317855	0	0.363967
0.647959	0.317855	0	0.363967
0.677122	0.317855	0	0.363967
0.677829	0.317855	0	0.363967
0.677832	0.331675	0.0276396	0.363967
0.704056	0.359315	0	0.363967
0.705289	0.359315	0	0.363967
0.705897	0.359315	0.0276396	0.363967
0.706721	0.359315	0.0552792	0.363967
0.706731	0.373134	0.0829187	0.363967
0.706733	0.400774	0.0552792	0.363967
0.706793	0.428413	0.0276396	0.363967
0.73224	0.456053	0	0.363967
0.732501	0.456053	0	0.363967
0.736743	0.456053	0	0.454959
0.762725	0.456053	0	0.545951
0.763477	0.456053	0	0.545951
0.764061	0.456053	0	0.545951
0.764062	0.469873	0.0276396	0.545951
0.773229	0.497512	0	0.545951
0.794792	0.497512	0	0.545951
0.796631	0.497512	0	0.545951
0.796642	0.497512	0.0552792	0.545951
0.796688	0.497512	0.0552792	0.545951
0.796702	0.525152	0.0276396	0.545951
0.798484	0.552792	0	0.545951
0.807983	0.552792	0	0.545951
0.831831	0.552792	0	0.545951
0.831959	0.552792	0	0.545951
0.832343	0.552792	0.0276396	0.545951
0.832972	0.552792	0.0552792	0.545951
0.834604	0.552792	0.0829187	0.545951
0.834857	0.552792	0.110558	0.545951
0.835111	0.552792	0.138198	0.545951
0.836874	0.552792	0.165837	0.545951
0.836875	0.552792	0.193477	0.545951
0.8378	0.552792	0.221117	0.545951
0.837824	0.552792	0.248756	0.545951
0.837974	0.580431	0.221117	0.545951
0.838031	0.580431	0.248756	0.545951
0.838046	0.608071	0.221117	0.545951
0.844816	0.608071	0.221117	0.545951
0.844817	0.608071	0.221117	0.545951
0.844823	0.63571	0.193477	0.545951
0.844831	0.63571	0.193477	0.545951
0.844834	0.66335	0.165837	0.545951
0.844838	0.690989	0.138198	0.545951
0.844847	0.718629	0.110558	0.545951
0.844849	0.718629	0.110558	0.545951
0.844861	0.746269	0.0829187	0.545951
0.84487	0.773908	0.0552792	0.545951
0.84487	0.801548	0.0276396	0.545951
0.844891	0.829187	0	0.545951
0.845062	0.829187	0	0.545951
0.845669	0.829187	0.0276396	0.545951
0.845861	0.829187	0.0552792	0.545951
0.846703	0.829187	0.0829187	0.545951
0.847599	0.829187	0.110558	0.545951
0.848371	0.829187	0.138198	0.545951
0.849183	0.829187	0.165837	0.545951
0.849255	0.829187	0.193477	0.545951
0.865733	0.829187	0.221117	0.545951
0.904998	0.829187	0.221117	0.545951
0.905	0.829187	0.221117	0.636943
0.905002	0.856827	0.193477	0.636943
0.905005	0.856827	0.193477	0.636943
0.905006	0.884467	0.165837	0.636943
0.905009	0.912106	0.138198	0.636943
0.905012	0.939746	0.110558	0.636943
0.905024	0.967385	0.0829187	0.636943
0.905025	0.995025	0.0552792	0.636943
0.905033	0.995025	0.0552792	0.636943
0.905033	1.02266	0.0276396	0.636943
0.905058	1.0503	0	0.636943
0.905091	1.0503	0	0.636943
0.905101	1.0503	0	0.636943
0.905105	1.0503	0	0.636943
0.905139	1.0503	0	0.636943
0.917929	1.0503	0	0.636943
0.962656	1.0503	0	0.818926
0.963014	1.0503	0	0.818926
0.963029	1.06412	0.0276396	0.818926
0.999513	1.09176	0	0.818926
1.01727	1.09176	0	0.818926
1.01729	1.09176	0	0.818926
1.04083	1.09176	0	0.818926
1.04184	1.09176	0	0.818926
1.04184	1.09176	0.0276396	0.818926
1.09323	1.1194	0	0.818926
1.09344	1.1194	0	0.818926
1.09348	1.13322	0.0276396	0.818926
1.11367	1.16086	0	0.818926
1.11547	1.16086	0	0.909918
1.11549	1.16086	0	0.909918
1.11762	1.16086	0	0.909918
1.11773	1.16086	0	0.909918
1.11774	1.17468	0.0276396	0.909918
1.1193	1.20232	0	0.909918
1.12073	1.20232	0	0.909918
1.12076	1.21614	0.0276396	0.909918
1.15588	1.24378	0	0.909918
1.18897	1.24378	0	1.00091
1.1909	1.24378	0	1.00091
1.19094	1.24378	0	1.00091
1.19179	1.24378	0.0276396	1.00091
1.1918	1.2576	0.0552792	1.00091
1.19181	1.28524	0.0276396	1.00091
1.22562	1.31288	0	1.00091
1.22638	1.31288	0	1.00091
1.22639	1.3267	0.0276396	1.00091
1.23772	1.35434	0	1.00091
1.23783	1.35434	0	1.0919
1.25139	1.35434	0	1.0919
1.2516	1.35434	0	1.0919
1.25162	1.36816	0.0276396	1.0919
1.25162	1.3958	0	1.0919
1.25166	1.3958	0	1.0919
1.2517	1.3958	0	1.0919
1.25172	1.3958	0	1.0919
1.26396	1.3958	0	1.0919
1.36449	1.3958	0	1.27389
1.36563	1.3958	0	1.27389
1.36566	1.3958	0.0552792	1.27389
1.36567	1.42344	0.0276396	1.27389
1.37183	1.45108	0	1.27389
1.37516	1.45108	0	1.27389
1.39988	1.45108	0	1.27389
1.40634	1.45108	0	1.36488
1.41105	1.45108	0	1.36488
1.43754	1.45108	0	1.36488
1.45129	1.45108	0	1.45587
1.45201	1.45108	0	1.45587
1.45214	1.45108	0.0276396	1.45587
1.45396	1.45108	0.0552792	1.45587
1.45405	1.45108	0.0829187	1.45587
1.45405	1.4649	0.110558	1.45587
1.45408	1.49254	0.0829187	1.45587
1.45409	1.52018	0.0552792	1.45587
1.45409	1.54782	0.0276396	1.45587
1.4541	1.57546	0	1.45587
1.45429	1.57546	0	1.45587
1.50585	1.57546	0	1.45587
1.55132	1.57546	0	1.54686
1.6186	1.57546	0	1.63785
1.61873	1.57546	0	1.63785
1.61874	1.57546	0.0552792	1.63785
1.61875	1.6031	0.0276396	1.63785
1.63032	1.63074	0	1.63785
1.63101	1.63074	0	1.63785
1.63186	1.63074	0.0276396	1.63785
1.63187	1.64456	0.0552792	1.63785
1.63188	1.67219	0.0276396	1.63785
1.63777	1.69983	0	1.63785
1.69049	1.69983	0	1.72884
1.69745	1.69983	0	1.81984
1.69749	1.69983	0	1.91083
1.71436	1.69983	0	1.91083
1.73151	1.69983	0	1.91083
1.73189	1.69983	0	1.91083
1.73191	1.69983	0.0552792	1.91083
1.73194	1.72747	0.0276396	1.91083
1.7352	1.75511	0	1.91083
1.73533	1.75511	0	2.00182
1.73866	1.75511	0	2.00182
1.7388	1.75511	0	2.00182
1.7388	1.76893	0.0276396	2.00182
1.74945	1.79657	0	2.00182
1.77362	1.79657	0	2.09281
1.77364	1.79657	0	2.2748
1.81839	1.79657	0	2.2748
1.82494	1.79657	0	2.2748
1.83054	1.79657	0	2.36579
1.83099	1.79657	0	2.45678
1.8339	1.79657	0	2.54777
1.83392	1.79657	0	2.54777
1.83421	1.79657	0.0276396	2.54777
1.83421	1.81039	0.0552792	2.54777
1.83423	1.83803	0.0276396	2.54777
1.84844	1.86567	0	2.54777
1.86031	1.86567	0	2.63876
1.86042	1.86567	0	2.63876
1.86046	1.87949	0.0276396	2.63876
1.8606	1.87949	0.0276396	2.63876
1.87682	1.90713	0	2.63876
1.87729	1.90713	0	2.63876
1.87731	1.92095	0.0276396	2.63876
1.93393	1.94859	0	2.63876
1.94007	1.94859	0	2.63876
1.94127	1.94859	0	2.63876
1.94128	1.96241	0.0276396	2.63876
2.01049	1.99005	0	2.63876
2.01056	1.99005	0	2.63876
2.01063	2.00387	0.0276396	2.63876
2.03238	2.03151	0	2.63876
2.03435	2.03151	0	2.72975
2.03468	2.03151	0	2.72975
2.03477	2.04533	0.0276396	2.72975
2.06284	2.07297	0	2.72975
2.06286	2.07297	0	2.82075
2.09708	2.07297	0	2.82075
2.0971	2.07297	0	2.82075
2.13393	2.07297	0	2.82075
2.14898	2.07297	0	2.82075
2.2448	2.07297	0	2.91174
2.2453	2.07297	0	2.91174
2.2453	2.07297	0.0552792	2.91174
2.24533	2.10061	0.0276396	2.91174
2.24533	2.12825	0	2.91174
2.24534	2.12825	0	2.91174
2.27717	2.12825	0	2.91174
2.2787	2.12825	0	2.91174
2.27898	2.12825	0.0276396	2.91174
2.27899	2.14207	0.0552792	2.91174
2.27902	2.16971	0.0276396	2.91174
2.34537	2.19735	0	2.91174
2.34577	2.19735	0	2.91174
2.34579	2.19735	0.0552792	2.91174
2.34581	2.22499	0.0276396	2.91174
2.35833	2.25263	0	2.91174
2.36351	2.25263	0	3.00273
2.4032	2.25263	0	3.09372
2.40358	2.25263	0	3.09372
2.40358	2.25263	0.0276396	3.09372
2.40358	2.26645	0.0552792	3.09372
2.40363	2.26645	0.0552792	3.09372
2.40366	2.29409	0.0276396	3.09372
2.40366	2.32172	0	3.09372
2.49022	2.32172	0	3.09372
2.49032	2.32172	0	3.09372
2.4907	2.32172	0.0276396	3.09372
2.49071	2.33554	0.0552792	3.09372
2.4908	2.36318	0.0276396	3.09372
2.51035	2.39082	0	3.09372
2.51123	2.39082	0	3.09372
2.51142	2.39082	0.0276396	3.09372
2.51142	2.40464	0.0552792	3.09372
2.51148	2.43228	0.0276396	3.09372
2.51499	2.45992	0	3.09372
2.5153	2.45992	0	3.09372
2.51542	2.47374	0.0276396	3.09372
2.52152	2.50138	0	3.09372
2.53939	2.50138	0	3.09372
2.54195	2.50138	0	3.09372
2.55517	2.50138	0	3.27571
2.56931	2.50138	0	3.27571
2.58623	2.50138	0	3.3667
2.59279	2.50138	0	3.45769
2.59363	2.50138	0	3.63967
2.59387	2.50138	0	3.63967
2.59482	2.50138	0.0276396	3.63967
2.59483	2.5152	0.0552792	3.63967
2.59487	2.54284	0.0276396	3.63967
2.59976	2.57048	0	3.63967
2.72698	2.57048	0	3.73066
2.74336	2.57048	0	3.82166
2.77926	2.57048	0	3.91265
2.78064	2.57048	0	3.91265
2.78067	2.5843	0.0276396	3.91265
2.7833	2.61194	0	3.91265
2.78444	2.61194	0	3.91265
2.78452	2.62576	0.0276396	3.91265
2.83504	2.6534	0	3.91265
2.83848	2.6534	0	4.00364
2.88557	2.6534	0	4.09463
2.90564	2.6534	0	4.09463
2.90655	2.6534	0	4.09463
2.90665	2.6534	0.0552792	4.09463
2.90667	2.68104	0.0276396	4.09463
2.9104	2.70868	0	4.09463
2.91041	2.70868	0	4.18562
2.91191	2.70868	0	4.18562
2.9335	2.70868	0	4.27662
2.93775	2.70868	0	4.27662
2.97895	2.70868	0	4.27662
2.98397	2.70868	0	4.27662
2.9845	2.70868	0	4.27662
2.98451	2.7225	0.0276396	4.27662
2.98651	2.75014	0	4.27662
2.99283	2.75014	0	4.36761
2.99291	2.75014	0	4.36761
2.99296	2.76396	0.0276396	4.36761
3.05572	2.7916	0	4.36761
3.05614	2.7916	0	4.36761
3.05619	2.7916	0	4.36761
3.05635	2.7916	0.0276396	4.36761
3.05715	2.7916	0.0552792	4.36761
3.05721	2.80542	0.0829187	4.36761
3.05721	2.83306	0.0552792	4.36761
3.05724	2.8607	0.0276396	4.36761
3.05726	2.8607	0.0276396	4.36761
3.05729	2.8607	0.0276396	4.36761
3.06514	2.88834	0	4.36761
3.18066	2.88834	0	4.54959
3.18139	2.88834	0	4.54959
3.18142	2.90216	0.0276396	4.54959
3.22332	2.9298	0	4.54959
3.22339	2.9298	0	4.54959
3.22342	2.94362	0.0276396	4.54959
3.25498	2.97125	0	4.54959
3.26244	2.97125	0	4.64058
3.26297	2.97125	0	4.64058
3.26299	2.98507	0.0276396	4.64058
3.27158	3.01271	0	4.64058
3.27178	3.01271	0	4.64058
3.27732	3.01271	0	4.82257
3.27743	3.01271	0	4.82257
3.27747	3.01271	0.0552792	4.82257
3.27749	3.04035	0.0276396	4.82257
3.29134	3.06799	0	4.82257
3.37881	3.06799	0	5.00455
3.40011	3.06799	0	5.09554
3.41997	3.06799	0	5.18653
3.4991	3.06799	0	5.36852
3.49927	3.06799	0	5.36852
3.49962	3.06799	0.0276396	5.36852
3.49964	3.06799	0.0552792	5.36852
3.49964	3.08181	0.0829187	5.36852
3.49966	3.10945	0.0552792	5.36852
3.49972	3.13709	0.0276396	5.36852
3.50443	3.16473	0	5.36852
3.50458	3.16473	0	5.36852
3.50459	3.17855	0.0276396	5.36852
3.52626	3.20619	0	5.36852
3.54716	3.20619	0	5.45951
3.5874	3.20619	0	5.64149
3.58804	3.20619	0	5.64149
3.58813	3.22001	0.0276396	5.64149
3.62536	3.24765	0	5.64149
3.62824	3.24765	0	5.64149
3.62847	3.24765	0	5.64149
3.62852	3.24765	0.0552792	5.64149
3.62862	3.27529	0.0276396	5.64149
3.6355	3.30293	0	5.64149
3.63607	3.30293	0	5.64149
3.63689	3.30293	0.0276396	5.64149
3.63836	3.30293	0.0552792	5.64149
3.6385	3.30293	0.0829187	5.64149
3.64069	3.30293	0.110558	5.64149
3.64097	3.30293	0.138198	5.64149
3.64112	3.30293	0.165837	5.64149
3.64113	3.30293	0.193477	5.64149
3.64113	3.33057	0.165837	5.64149
3.64114	3.33057	0.165837	5.64149
3.64115	3.35821	0.138198	5.64149
3.64115	3.38585	0.110558	5.64149
3.64116	3.41349	0.0829187	5.64149
3.64117	3.41349	0.0829187	5.64149
3.64117	3.41349	0.0829187	5.64149
3.64118	3.44113	0.0552792	5.64149
3.6412	3.44113	0.0552792	5.64149
3.6412	3.46877	0.0276396	5.64149
3.64124	3.49641	0	5.64149
3.68282	3.49641	0	5.64149
3.68396	3.49641	0	5.64149
3.68454	3.49641	0.0276396	5.64149
3.68454	3.51023	0.0552792	5.64149
3.68455	3.51023	0.0552792	5.64149
3.68456	3.53787	0.0276396	5.64149
3.6846	3.56551	0	5.64149
3.68462	3.56551	0	5.64149
3.77567	3.56551	0	5.64149
3.78116	3.56551	0	5.82348
3.79282	3.56551	0	5.91447
3.88306	3.56551	0	6.09645
3.88317	3.56551	0	6.09645
3.88586	3.56551	0.0276396	6.09645
3.88586	3.57933	0.0552792	6.09645
3.8859	3.57933	0.0552792	6.09645
3.886	3.60697	0.0276396	6.09645
3.91204	3.6346	0	6.09645
3.93278	3.6346	0	6.18744
3.93289	3.6346	0	6.18744
3.96865	3.6346	0.0276396	6.18744
3.96867	3.6346	0.0276396	6.18744
3.96946	3.66224	0	6.18744
3.96947	3.67606	0.0276396	6.18744
4.02193	3.7037	0	6.18744
4.02198	3.7037	0	6.18744
4.022	3.71752	0.0276396	6.18744
4.04618	3.74516	0	6.18744
4.1325	3.74516	0	6.27843
4.15278	3.74516	0	6.27843
4.17053	3.74516	0	6.27843
4.21571	3.74516	0	6.36943
4.24073	3.74516	0	6.55141
4.24133	3.74516	0	6.55141
4.24137	3.75898	0.0276396	6.55141
4.2454	3.78662	0	6.55141
4.24562	3.78662	0	6.55141
4.24562	3.80044	0.0276396	6.55141
4.25194	3.82808	0	6.55141
4.26002	3.82808	0	6.6424
4.28209	3.82808	0	6.73339
4.30378	3.82808	0	6.82439
4.32094	3.82808	0	6.91538
4.37786	3.82808	0	7.00637
4.41572	3.82808	0	7.09736
4.41613	3.82808	0	7.09736
4.41616	3.8419	0.0276396	7.09736
4.47143	3.86954	0	7.09736
4.48129	3.86954	0	7.18835
4.48134	3.86954	0	7.18835
4.48134	3.86954	0.0552792	7.18835
4.48138	3.89718	0.0276396	7.18835
4.49496	3.92482	0	7.18835
4.49922	3.92482	0	7.37034
4.51095	3.92482	0	7.55232
4.65259	3.92482	0	7.64331
4.65427	3.92482	0	7.64331
4.65497	3.92482	0.0276396	7.64331
4.69044	3.92482	0.0552792	7.64331
4.69046	3.92482	0.0552792	7.7343
4.69056	3.95246	0.0276396	7.7343
4.73397	3.9801	0	7.7343
4.73879	3.9801	0	7.7343
4.73882	3.9801	0	7.7343
4.77477	3.9801	0.0276396	7.7343
4.77481	3.9801	0.0276396	7.7343
4.77482	3.9801	0.0829187	7.7343
4.78769	4.00774	0.0552792	7.7343
4.78769	4.00774	0.0552792	7.7343
4.78773	4.03538	0.0276396	7.7343
4.78774	4.06302	0	7.7343
4.7885	4.06302	0.0276396	7.7343
4.79038	4.06302	0.0552792	7.7343
4.79038	4.06302	0.110558	7.7343
4.7904	4.09066	0.0829187	7.7343
4.79044	4.09066	0.0829187	7.7343
4.79044	4.1183	0.0552792	7.7343
4.79049	4.14594	0.0276396	7.7343
4.82287	4.17358	0	7.7343
4.8233	4.17358	0	7.7343
4.8233	4.17358	0.0552792	7.7343
4.82331	4.20122	0.0276396	7.7343
4.8714	4.22886	0	7.7343
4.90466	4.22886	0	7.8253
4.90577	4.22886	0	7.91629
4.93619	4.22886	0	8.00728
5.02423	4.22886	0	8.18926
5.02438	4.22886	0	8.18926
5.02445	4.22886	0.0552792	8.18926
5.02446	4.2565	0.0276396	8.18926
5.09324	4.28413	0	8.18926
5.09349	4.28413	0	8.18926
5.09355	4.28413	0.0276396	8.18926
5.09355	4.29795	0.0552792	8.18926
5.0936	4.32559	0.0276396	8.18926
5.12943	4.35323	0	8.18926
5.12989	4.35323	0	8.18926
5.1299	4.36705	0.0276396	8.18926
5.14892	4.39469	0	8.18926
5.14911	4.39469	0	8.18926
5.14912	4.40851	0.0276396	8.18926
5.19076	4.43615	0	8.18926
5.20493	4.43615	0	8.28025
5.35742	4.43615	0	8.37125
5.35782	4.43615	0	8.37125
5.42053	4.43615	0.0276396	8.37125
5.42059	4.43615	0.0276396	8.37125
5.60056	4.46379	0	8.37125
5.60721	4.46379	0	8.55323
5.75627	4.46379	0	8.73521
5.75651	4.46379	0	8.9172
5.7712	4.46379	0	9.09918
5.79122	4.46379	0	9.19017
5.79206	4.46379	0	9.19017
5.79209	4.47761	0.0276396	9.19017
5.82889	4.50525	0	9.19017
5.829	4.50525	0	9.19017
5.82949	4.50525	0.0276396	9.19017
5.83037	4.50525	0.0552792	9.19017
5.83037	4.50525	0.0829187	9.19017
5.83039	4.53289	0.0552792	9.19017
5.83047	4.56053	0.0276396	9.19017
5.87858	4.58817	0	9.19017
5.887	4.58817	0	9.37216
5.88723	4.58817	0	9.37216
5.88732	4.60199	0.0276396	9.37216
5.90829	4.62963	0	9.37216
5.98952	4.62963	0	9.46315
5.99042	4.62963	0	9.46315
5.99101	4.62963	0.0276396	9.46315
5.99101	4.64345	0.0552792	9.46315
5.99104	4.67109	0.0276396	9.46315
5.99111	4.67109	0.0276396	9.46315
6.02295	4.69873	0	9.46315
6.10763	4.69873	0	9.55414
6.1078	4.69873	0	9.55414
6.10785	4.71255	0.0276396	9.55414
6.15067	4.74019	0	9.55414
6.15135	4.74019	0	9.55414
6.15236	4.74019	0.0276396	9.55414
6.15237	4.75401	0.0552792	9.55414
6.15242	4.78165	0.0276396	9.55414
6.1867	4.80929	0	9.55414
6.187	4.80929	0	9.55414
6.18735	4.80929	0.0276396	9.55414
6.18773	4.80929	0.0276396	9.55414
6.18776	4.80929	0.0829187	9.55414
6.30351	4.83693	0.0552792	9.55414
6.30354	4.83693	0.0552792	9.73612
6.30357	4.86457	0.0276396	9.73612
6.30442	4.89221	0	9.73612
6.42181	4.89221	0	9.91811
6.48719	4.89221	0	10.1001
6.50266	4.89221	0	10.1911
6.50358	4.89221	0	10.1911
6.5045	4.89221	0.0276396	10.1911
6.5047	4.89221	0.0552792	10.1911
6.50489	4.89221	0.0829187	10.1911
6.50489	4.90603	0.110558	10.1911
6.5049	4.93367	0.0829187	10.1911
6.50491	4.9613	0.0552792	10.1911
6.50492	4.98894	0.0276396	10.1911
6.50824	5.01658	0	10.1911
6.63896	5.01658	0	10.3731
6.63973	5.01658	0	10.3731
6.63975	5.0304	0.0276396	10.3731
6.63978	5.05804	0	10.3731
6.66004	5.05804	0	10.3731
6.66092	5.05804	0	10.3731
6.66094	5.07186	0.0276396	10.3731
6.70939	5.0995	0	10.3731
6.75288	5.0995	0	10.5551
6.76493	5.0995	0	10.737
6.8576	5.0995	0	10.828
6.85853	5.0995	0	10.828
6.85861	5.11332	0.0276396	10.828
6.86922	5.14096	0	10.828
6.88843	5.14096	0	10.919
6.88884	5.14096	0	10.919
6.88889	5.15478	0.0276396	10.919
6.92098	5.18242	0	10.919
6.9211	5.18242	0	10.919
6.92111	5.19624	0.0276396	10.919
6.93188	5.22388	0	10.919
6.93305	5.22388	0	10.919
6.93306	5.2377	0.0276396	10.919
6.97785	5.26534	0	10.919
7.00898	5.26534	0	11.01
7.04302	5.26534	0	11.192
7.11806	5.26534	0	11.374
7.11832	5.26534	0	11.374
7.11833	5.27916	0.0276396	11.374
7.13995	5.3068	0	11.374
7.14016	5.3068	0	11.374
7.14019	5.3068	0.0552792	11.374
7.14022	5.33444	0.0276396	11.374
7.18901	5.36208	0	11.374
7.18913	5.36208	0	11.374
7.18926	5.3759	0.0276396	11.374
7.24533	5.40354	0	11.374
7.24536	5.40354	0	11.374
7.24537	5.41736	0.0276396	11.374
7.2715	5.445	0	11.374
7.37099	5.445	0	11.556
7.43371	5.445	0	11.7379
7.56283	5.445	0	11.8289
7.59519	5.445	0	12.0109
7.59557	5.445	0	12.0109
7.59557	5.445	0.0552792	12.0109
7.59559	5.47264	0.0276396	12.0109
7.59567	5.47264	0.0276396	12.0109
7.59757	5.50028	0	12.0109
7.59784	5.50028	0	12.0109
7.5979	5.50028	0.0276396	12.0109
7.75005	5.52792	0	12.0109
7.76648	5.52792	0	12.1019
7.79843	5.52792	0	12.1929
7.79888	5.52792	0	12.1929
7.79896	5.52792	0.0276396	12.1929
7.79896	5.54174	0.0552792	12.1929
7.79898	5.56938	0.0276396	12.1929
7.96974	5.59701	0	12.1929
7.98959	5.59701	0	12.3749
8.04208	5.59701	0	12.5569
8.04213	5.59701	0	12.5569
8.04216	5.61083	0.0276396	12.5569
8.15903	5.63847	0	12.5569
8.1751	5.63847	0	12.7389
8.20009	5.63847	0	12.8298
8.2088	5.63847	0	12.9208
8.20934	5.63847	0	12.9208
8.20939	5.65229	0.0276396	12.9208
8.23654	5.67993	0	12.9208
8.23754	5.67993	0	12.9208
8.23755	5.67993	0.0552792	12.9208
8.23772	5.70757	0.0276396	12.9208
8.34286	5.73521	0	12.9208
8.34288	5.73521	0	12.9208
8.34301	5.73521	0.0276396	12.9208
8.34303	5.74903	0.0552792	12.9208
8.34304	5.77667	0.0276396	12.9208
8.36189	5.80431	0	12.9208
8.37336	5.80431	0	13.1028
8.43844	5.80431	0	13.1938
8.43885	5.80431	0	13.1938
8.43885	5.81813	0.0276396	13.1938
8.62845	5.84577	0	13.1938
8.62895	5.84577	0	13.1938
8.62896	5.84577	0.0552792	13.1938
8.62897	5.87341	0.0276396	13.1938
8.66729	5.90105	0	13.1938
8.66747	5.90105	0	13.1938
8.66861	5.90105	0.0276396	13.1938
8.66862	5.91487	0.0552792	13.1938
8.66868	5.94251	0.0276396	13.1938
8.69645	5.97015	0	13.1938
8.6967	5.97015	0	13.1938
8.69677	5.98397	0.0276396	13.1938
8.71726	6.01161	0	13.1938
8.71811	6.01161	0	13.1938
8.71816	6.01161	0.0276396	13.1938
8.71817	6.02543	0.0552792	13.1938
8.71817	6.05307	0.0276396	13.1938
8.82154	6.08071	0	13.1938
8.82422	6.08071	0	13.1938
8.82434	6.09453	0.0276396	13.1938
8.86029	6.12217	0	13.1938
8.86077	6.12217	0	13.1938
9.01279	6.12217	0.0276396	13.1938
9.01288	6.12217	0.0276396	13.1938
9.0132	6.14981	0	13.1938
9.01323	6.14981	0.0276396	13.1938
9.01326	6.16363	0.0552792	13.1938
9.01327	6.19127	0.0276396	13.1938
9.02274	6.21891	0	13.1938
9.0235	6.21891	0	13.1938
9.02351	6.21891	0.0552792	13.1938
9.02353	6.24655	0.0276396	13.1938
9.02867	6.27418	0	13.1938
9.03837	6.27418	0	13.3758
9.04406	6.27418	0	13.3758
9.04417	6.27418	0	13.3758
9.04422	6.27418	0.0552792	13.3758
9.04425	6.30182	0.0276396	13.3758
9.22126	6.32946	0	13.3758
9.24213	6.32946	0	13.5578
9.2425	6.32946	0	13.5578
9.24255	6.34328	0.0276396	13.5578
9.3288	6.37092	0	13.5578
9.45666	6.37092	0	13.7398
9.45685	6.37092	0	13.7398
9.45705	6.38474	0.0276396	13.7398
9.47475	6.41238	0	13.7398
9.4753	6.41238	0	13.7398
9.47676	6.41238	0.0276396	13.7398
9.47677	6.4262	0.0552792	13.7398
9.47677	6.45384	0.0276396	13.7398
9.48479	6.48148	0	13.7398
9.4851	6.48148	0	13.7398
9.48511	6.4953	0.0276396	13.7398
9.51881	6.52294	0	13.7398
9.60842	6.52294	0	13.8308
9.60924	6.52294	0	13.8308
9.60926	6.53676	0.0276396	13.8308
9.62624	6.5644	0	13.8308
9.62641	6.5644	0	13.8308
9.62688	6.5644	0.0276396	13.8308
9.67282	6.5644	0.0552792	13.8308
9.67286	6.5644	0.0552792	13.8308
9.67288	6.5644	0.0552792	13.8308
9.67288	6.5644	0.0552792	13.8308
9.67292	6.59204	0.0276396	13.8308
9.67341	6.61968	0	13.8308
9.67355	6.6335	0.0276396	13.8308
9.80498	6.66114	0	13.8308
9.80604	6.66114	0	13.8308
9.8061	6.67496	0.0276396	13.8308
9.80765	6.7026	0	13.8308
9.80855	6.7026	0	13.8308
9.80856	6.71642	0.0276396	13.8308
9.90296	6.74406	0	13.8308
9.90323	6.74406	0	13.8308
9.90323	6.75788	0.0276396	13.8308
9.95469	6.78552	0	13.8308
9.95472	6.78552	0	13.8308
9.95477	6.78552	0.0552792	13.8308
9.95478	6.81316	0.0276396	13.8308
9.95595	6.8408	0	13.8308
9.97481	6.8408	0	14.0127
9.97482	6.8408	0	14.0127
9.97485	6.85462	0.0276396	14.0127
10.039	6.88226	0	14.0127
10.0398	6.88226	0	14.0127
10.0403	6.88226	0.0276396	14.0127
10.0403	6.88226	0.0552792	14.0127
10.0403	6.90989	0.0276396	14.0127
10.098	6.93753	0	14.0127
10.0981	6.93753	0	14.0127
10.0981	6.95135	0.0276396	14.0127
10.1041	6.97899	0	14.0127
10.1515	6.97899	0	14.1947
10.1517	6.97899	0	14.1947
10.1517	6.97899	0.0552792	14.1947
10.1518	7.00663	0.0276396	14.1947
10.1851	7.03427	0	14.1947
10.1852	7.03427	0	14.1947
10.1855	7.03427	0.0276396	14.1947
10.1856	7.04809	0.0552792	14.1947
10.1856	7.07573	0.0276396	14.1947
10.2564	7.10337	0	14.1947
10.2565	7.10337	0	14.1947
10.2565	7.11719	0.0276396	14.1947
10.2565	7.14483	0	14.1947
10.3012	7.14483	0	14.1947
10.3013	7.14483	0	14.1947
10.3015	7.14483	0.0276396	14.1947
10.3017	7.14483	0.0552792	14.1947
10.3018	7.14483	0.0829187	14.1947
10.302	7.14483	0.110558	14.1947
10.3023	7.14483	0.138198	14.1947
10.3027	7.14483	0.165837	14.1947
10.3027	7.14483	0.193477	14.1947
10.3029	7.14483	0.221117	14.1947
10.3029	7.14483	0.248756	14.1947
10.4851	7.17247	0.221117	14.1947
10.4851	7.17247	0.221117	14.1947
10.4851	7.20011	0.193477	14.1947
10.4851	7.22775	0.165837	14.1947
10.4851	7.25539	0.138198	14.1947
10.4851	7.28303	0.110558	14.1947
10.4851	7.31067	0.0829187	14.1947
10.4851	7.33831	0.0552792	14.1947
10.4851	7.36595	0.0276396	14.1947
10.4855	7.39359	0	14.1947
10.4855	7.39359	0.0552792	14.1947
10.4855	7.42123	0.0276396	14.1947
10.505	7.44887	0	14.1947
10.5051	7.44887	0	14.1947
10.5051	7.46269	0.0276396	14.1947
10.6104	7.49033	0	14.1947
10.658	7.49033	0	14.3767
10.6586	7.49033	0	14.3767
10.6587	7.49033	0.0276396	14.3767
10.7362	7.51797	0	14.3767
10.9744	7.51797	0	14.4677
10.9746	7.51797	0	14.4677
10.9758	7.51797	0.0276396	14.4677
10.9758	7.53179	0.0552792	14.4677
10.9758	7.55943	0.0276396	14.4677
10.9759	7.55943	0.0276396	14.4677
11.0317	7.58706	0	14.4677
11.1009	7.58706	0	14.6497
11.1011	7.58706	0	14.6497
11.1012	7.60088	0.0276396	14.6497
11.1255	7.62852	0	14.6497
11.1262	7.62852	0	14.6497
11.1265	7.62852	0.0276396	14.6497
11.1265	7.64234	0.0552792	14.6497
11.1265	7.66998	0.0276396	14.6497
11.2695	7.69762	0	14.6497
11.2697	7.69762	0	14.6497
11.2702	7.69762	0.0276396	14.6497
11.2708	7.69762	0.0552792	14.6497
11.2708	7.71144	0.0829187	14.6497
11.2708	7.73908	0.0552792	14.6497
11.2709	7.76672	0.0276396	14.6497
11.2776	7.79436	0	14.6497
11.2785	7.79436	0	14.6497
11.2786	7.79436	0.0276396	14.6497
11.2786	7.80818	0.0552792	14.6497
11.2786	7.83582	0.0276396	14.6497
11.2846	7.86346	0	14.6497
11.2849	7.86346	0	14.6497
11.2859	7.86346	0.0276396	14.6497
11.2859	7.87728	0.0552792	14.6497
11.286	7.90492	0.0276396	14.6497
11.3351	7.93256	0	14.6497
11.4179	7.93256	0	14.8317
11.4186	7.93256	0	14.8317
11.42	7.93256	0.0276396	14.8317
11.42	7.94638	0.0552792	14.8317
11.42	7.97402	0.0276396	14.8317
11.4576	8.00166	0	14.8317
11.4577	8.00166	0	14.8317
11.4577	8.01548	0.0276396	14.8317
11.5141	8.04312	0	14.8317
11.5144	8.04312	0	14.8317
11.5144	8.04312	0.0552792	14.8317
11.5145	8.07076	0.0276396	14.8317
11.5326	8.0984	0	14.8317
11.5334	8.0984	0	14.8317
11.5334	8.11222	0.0276396	14.8317
11.6459	8.13986	0	14.8317
11.6466	8.13986	0	14.8317
11.6466	8.13986	0.0552792	14.8317
11.6466	8.1675	0.0276396	14.8317
11.8741	8.19514	0	14.8317
11.875	8.19514	0	14.8317
11.8752	8.19514	0.0276396	14.8317
11.8752	8.20896	0.0552792	14.8317
11.8752	8.23659	0.0276396	14.8317
11.8847	8.26423	0	14.8317
11.9017	8.26423	0	15.0136
11.9028	8.26423	0	15.0136
11.9028	8.27805	0.0276396	15.0136
11.9043	8.30569	0	15.0136
11.9044	8.30569	0	15.0136
11.9044	8.31951	0.0276396	15.0136
11.9795	8.34715	0	15.0136
12.0292	8.34715	0	15.1956
12.0294	8.34715	0	15.1956
12.0295	8.36097	0.0276396	15.1956
12.0331	8.38861	0	15.1956
12.0336	8.38861	0	15.1956
12.0336	8.38861	0.0276396	15.1956
12.0337	8.40243	0.0552792	15.1956
12.0337	8.43007	0.0276396	15.1956
12.4478	8.45771	0	15.1956
12.4484	8.45771	0	15.1956
12.4484	8.47153	0.0276396	15.1956
12.6625	8.49917	0	15.1956
12.6635	8.49917	0	15.1956
12.664	8.49917	0.0276396	15.1956
12.664	8.51299	0.0552792	15.1956
12.6641	8.54063	0.0276396	15.1956
12.7771	8.56827	0	15.1956
12.8487	8.56827	0	15.2866
12.85	8.56827	0	15.2866
12.9708	8.56827	0.0276396	15.2866
12.9709	8.56827	0.0276396	15.2866
12.9713	8.59591	0	15.2866
12.9713	8.60973	0.0276396	15.2866
13.1192	8.63737	0	15.2866
13.1204	8.63737	0	15.2866
13.1204	8.63737	0.0552792	15.2866
13.1204	8.66501	0.0276396	15.2866
13.3252	8.69265	0	15.2866
13.3255	8.69265	0	15.2866
13.3255	8.70647	0.0276396	15.2866
13.5073	8.73411	0	15.2866
13.5234	8.73411	0	15.4686
13.5237	8.73411	0	15.4686
13.5238	8.74793	0.0276396	15.4686
13.5481	8.77557	0	15.4686
13.5481	8.77557	0	15.4686
13.5481	8.78939	0.0276396	15.4686
13.5918	8.81703	0	15.4686
13.8496	8.81703	0	15.6506
13.8498	8.81703	0	15.6506
13.8498	8.83085	0.0276396	15.6506
13.9261	8.85849	0	15.6506
13.9262	8.85849	0	15.6506
13.9263	8.87231	0.0276396	15.6506
14.0966	8.89994	0	15.6506
14.1444	8.89994	0	15.8326
14.1445	8.89994	0	15.8326
14.1445	8.91376	0.0276396	15.8326
14.17	8.9414	0	15.8326
14.1705	8.9414	0	15.8326
14.1706	8.9414	0.0552792	15.8326
14.1706	8.96904	0.0276396	15.8326
14.2279	8.99668	0	15.8326
14.2387	8.99668	0	16.0146
14.4175	8.99668	0	16.1965
14.4178	8.99668	0	16.1965
14.418	9.0105	0.0276396	16.1965
14.8256	9.03814	0	16.1965
14.826	9.03814	0	16.1965
14.8262	9.03814	0.0276396	16.1965
14.8262	9.05196	0.0552792	16.1965
14.8262	9.0796	0.0276396	16.1965
14.9087	9.10724	0	16.1965
14.9096	9.10724	0	16.1965
14.9096	9.12106	0.0276396	16.1965
15.024	9.1487	0	16.1965
15.0247	9.1487	0	16.1965
15.0247	9.16252	0.0276396	16.1965
15.0332	9.19016	0	16.1965
15.0335	9.19016	0	16.1965
15.0335	9.19016	0.0552792	16.1965
15.0335	9.2178	0.0276396	16.1965
15.0392	9.24544	0	16.1965
15.0396	9.24544	0	16.1965
15.0397	9.25926	0.0276396	16.1965
15.1277	9.2869	0	16.1965
15.1282	9.2869	0	16.1965
15.1286	9.2869	0.0276396	16.1965
15.1286	9.30072	0.0552792	16.1965
15.1287	9.32836	0.0276396	16.1965
15.2236	9.356	0	16.1965
15.2249	9.356	0	16.1965
15.225	9.36982	0.0276396	16.1965
15.2615	9.39746	0	16.1965
15.2624	9.39746	0	16.1965
15.2625	9.41128	0.0276396	16.1965
15.3318	9.43892	0	16.1965
15.388	9.43892	0	16.3785
15.3947	9.43892	0	16.5605
15.5089	9.43892	0	16.7425
15.5092	9.43892	0	16.7425
15.9042	9.43892	0.0276396	16.7425
15.9043	9.43892	0.0276396	16.7425
15.9046	9.46656	0	16.7425
15.9047	9.48038	0.0276396	16.7425
15.9127	9.50802	0	16.7425
15.9131	9.50802	0	16.7425
15.9135	9.50802	0.0276396	16.7425
15.9135	9.52184	0.0552792	16.7425
15.9135	9.54947	0.0276396	16.7425
16.0074	9.57711	0	16.7425
16.0077	9.57711	0	16.7425
16.0079	9.57711	0.0276396	16.7425
16.0079	9.59093	0.0552792	16.7425
16.0079	9.61857	0.0276396	16.7425
16.0087	9.64621	0	16.7425
16.0095	9.64621	0	16.7425
16.0096	9.66003	0.0276396	16.7425
16.0541	9.68767	0	16.7425
16.0543	9.68767	0	16.7425
16.0543	9.68767	0.0552792	16.7425
16.0543	9.71531	0.0276396	16.7425
16.1977	9.74295	0	16.7425
16.1977	9.74295	0	16.7425
16.1978	9.75677	0.0276396	16.7425
16.2196	9.78441	0	16.7425
16.2199	9.78441	0	16.7425
16.2204	9.78441	0.0276396	16.7425
16.2204	9.79823	0.0552792	16.7425
16.2205	9.82587	0.0276396	16.7425
16.2502	9.85351	0	16.7425
16.2507	9.85351	0	16.7425
16.251	9.85351	0.0276396	16.7425
16.251	9.86733	0.0552792	16.7425
16.2511	9.89497	0.0276396	16.7425
16.3212	9.92261	0	16.7425
16.3213	9.92261	0	16.7425
16.3213	9.93643	0.0276396	16.7425
16.5347	9.96407	0	16.7425
16.5357	9.96407	0	16.7425
16.5357	9.97789	0.0276396	16.7425
16.5571	10.0055	0	16.7425
16.558	10.0055	0	16.7425
16.5584	10.0055	0.0276396	16.7425
16.5584	10.0193	0.0552792	16.7425
16.5584	10.047	0.0276396	16.7425
16.6055	10.0746	0	16.7425
16.6199	10.0746	0	16.8335
16.6782	10.0746	0	17.0155
16.6784	10.0746	0	17.0155
16.6784	10.0884	0.0276396	17.0155
16.7078	10.1161	0	17.0155
16.7079	10.1161	0	17.0155
16.7079	10.1299	0.0276396	17.0155
16.812	10.1575	0	17.0155
16.8129	10.1575	0	17.1975
16.8139	10.1575	0	17.1975
16.8139	10.1714	0.0276396	17.1975
16.8454	10.199	0	17.1975
16.8463	10.199	0	17.1975
16.8464	10.199	0.0552792	17.1975
16.8464	10.2266	0.0276396	17.1975
16.9628	10.2543	0	17.1975
16.9632	10.2543	0	17.1975
16.9633	10.2543	0.0552792	17.1975
16.9633	10.2819	0.0276396	17.1975
17.0947	10.3096	0	17.1975
17.0948	10.3096	0	17.1975
17.0948	10.3234	0.0276396	17.1975
17.1336	10.351	0	17.1975
17.1338	10.351	0	17.1975
17.1339	10.3648	0.0276396	17.1975
17.1521	10.3925	0	17.1975
17.1527	10.3925	0	17.1975
17.1527	10.4063	0.0276396	17.1975
17.1587	10.4339	0	17.1975
17.1588	10.4339	0	17.1975
17.1588	10.4478	0.0276396	17.1975
17.1812	10.4754	0	17.1975
17.1816	10.4754	0	17.1975
17.1816	10.4754	0.0552792	17.1975
17.1816	10.503	0.0276396	17.1975
17.2366	10.5307	0	17.1975
17.2366	10.5307	0	17.1975
17.2366	10.5307	0.0552792	17.1975
17.2366	10.5583	0.0276396	17.1975
17.2516	10.586	0	17.1975
17.2517	10.586	0	17.1975
17.2517	10.5998	0.0276396	17.1975
17.3026	10.6274	0	17.1975
17.3032	10.6274	0	17.1975
17.3032	10.6412	0.0276396	17.1975
17.3595	10.6689	0	17.1975
17.5245	10.6689	0	17.3794
17.5247	10.6689	0	17.3794
17.5247	10.6827	0.0276396	17.3794
17.6779	10.7103	0	17.3794
17.6779	10.7103	0	17.3794
17.6779	10.7103	0.0276396	17.3794
17.6779	10.7242	0.0552792	17.3794
17.6781	10.7518	0.0276396	17.3794
17.7619	10.7794	0	17.3794
17.7623	10.7794	0	17.3794
17.7623	10.7933	0.0276396	17.3794
17.7787	10.8209	0	17.3794
17.7791	10.8209	0	17.3794
17.7792	10.8209	0.0552792	17.3794
17.7792	10.8485	0.0276396	17.3794
17.8572	10.8762	0	17.3794
17.9052	10.8762	0	17.5614
17.9052	10.8762	0	17.5614
17.9052	10.89	0.0276396	17.5614
17.9115	10.9176	0	17.5614
17.912	10.9176	0	17.5614
17.912	10.9315	0.0276396	17.5614
18.0014	10.9591	0	17.5614
18.0023	10.9591	0	17.5614
18.0024	10.9729	0.0276396	17.5614
18.1751	11.0006	0	17.5614
18.176	11.0006	0	17.5614
18.1765	11.0006	0.0276396	17.5614
18.1765	11.0144	0.0552792	17.5614
18.1765	11.042	0.0276396	17.5614
18.1969	11.0697	0	17.5614
18.197	11.0697	0	17.5614
18.1971	11.0835	0.0276396	17.5614
18.2638	11.1111	0	17.5614
18.466	11.1111	0	17.7434
18.4665	11.1111	0	17.7434
18.4665	11.1249	0.0276396	17.7434
18.4709	11.1526	0	17.7434
18.471	11.1526	0	17.7434
18.471	11.1526	0.0552792	17.7434
18.471	11.1802	0.0276396	17.7434
18.6672	11.2078	0	17.7434
18.6674	11.2078	0	17.7434
18.6675	11.2078	0.0276396	17.7434
18.6675	11.2217	0.0552792	17.7434
18.6675	11.2493	0.0276396	17.7434
18.7163	11.2769	0	17.7434
18.7163	11.2769	0	17.7434
18.7173	11.2769	0.0276396	17.7434
18.7173	11.2908	0.0552792	17.7434
18.7173	11.3184	0.0276396	17.7434
18.7926	11.346	0	17.7434
19.1416	11.346	0	17.8344
19.1425	11.346	0	17.8344
19.1426	11.3599	0.0276396	17.8344
19.2625	11.3875	0	17.8344
19.2637	11.3875	0	17.8344
19.2643	11.3875	0.0276396	17.8344
19.2643	11.4013	0.0552792	17.8344
19.2645	11.429	0.0276396	17.8344
19.3213	11.4566	0	17.8344
19.3227	11.4566	0	17.8344
19.3227	11.4566	0.0552792	17.8344
19.3227	11.4842	0.0276396	17.8344
19.3501	11.5119	0	17.8344
19.3506	11.5119	0	17.8344
19.3506	11.5257	0.0276396	17.8344
19.3889	11.5533	0	17.8344
19.3897	11.5533	0	17.8344
19.3897	11.5533	0.0552792	17.8344
19.3898	11.581	0.0276396	17.8344
19.67	11.6086	0	17.8344
19.6703	11.6086	0	17.8344
19.6703	11.6224	0.0276396	17.8344
19.8029	11.6501	0	17.8344
19.803	11.6501	0	17.8344
19.803	11.6639	0.0276396	17.8344
20.1033	11.6915	0	17.8344
20.1034	11.6915	0	17.8344
20.1717	11.6915	0.0276396	17.8344
20.1717	11.6915	0.0276396	17.8344
20.1718	11.7192	0	17.8344
20.1723	11.7192	0.0276396	17.8344
20.1725	11.7192	0.0552792	17.8344
20.1726	11.7192	0.0829187	17.8344
20.1726	11.733	0.110558	17.8344
20.1726	11.7606	0.0829187	17.8344
20.1726	11.7883	0.0552792	17.8344
20.1727	11.8159	0.0276396	17.8344
20.1784	11.8436	0	17.8344
20.1785	11.8436	0	17.8344
20.1785	11.8436	0.0552792	17.8344
20.1786	11.8712	0.0276396	17.8344
20.1888	11.8988	0	17.8344
20.189	11.8988	0	17.8344
20.189	11.8988	0.0552792	17.8344
20.1891	11.9265	0.0276396	17.8344
20.2723	11.9541	0	17.8344
20.2729	11.9541	0	17.8344
20.273	11.9541	0.0276396	17.8344
20.273	11.9679	0.0552792	17.8344
20.273	11.9956	0.0276396	17.8344
20.4487	12.0232	0	17.8344
20.4491	12.0232	0	17.8344
20.4491	12.037	0.0276396	17.8344
20.6987	12.0647	0	17.8344
20.6988	12.0647	0	17.8344
20.6988	12.0647	0.0552792	17.8344
20.6988	12.0923	0.0276396	17.8344
20.7707	12.12	0	17.8344
20.7711	12.12	0	17.8344
20.7756	12.12	0.0276396	17.8344
20.7765	12.12	0.0276396	17.8344
20.7766	12.1338	0.0552792	17.8344
21.2907	12.1614	0.0276396	17.8344
21.2908	12.1614	0.0276396	18.0164
21.3102	12.1891	0	18.0164
21.3105	12.1891	0	18.0164
21.3105	12.2029	0.0276396	18.0164
21.3485	12.2305	0	18.0164
21.4978	12.2305	0	18.1984
21.4978	12.2305	0	18.1984
21.4979	12.2305	0.0552792	18.1984
21.498	12.2582	0.0276396	18.1984
21.5471	12.2858	0	18.1984
21.5473	12.2858	0	18.1984
21.5473	12.2858	0.0552792	18.1984
21.5473	12.3134	0.0276396	18.1984
21.7806	12.3411	0	18.1984
21.7807	12.3411	0	18.1984
21.7808	12.3411	0.0552792	18.1984
21.7808	12.3687	0.0276396	18.1984
21.9321	12.3964	0	18.1984
21.9325	12.3964	0	18.1984
21.9325	12.3964	0.0552792	18.1984
21.9325	12.424	0.0276396	18.1984
22.1094	12.4516	0	18.1984
22.1097	12.4516	0	18.1984
22.1097	12.4516	0.0552792	18.1984
22.1097	12.4793	0.0276396	18.1984
22.3357	12.5069	0	18.1984
22.3362	12.5069	0	18.1984
22.3362	12.5069	0.0552792	18.1984
22.3362	12.5345	0.0276396	18.1984
22.4091	12.5622	0	18.1984
22.4093	12.5622	0	18.1984
22.4495	12.5622	0.0276396	18.1984
22.4498	12.5622	0.0276396	18.1984
22.4498	12.5622	0.0829187	18.1984
22.45	12.5898	0.0552792	18.1984
22.4685	12.6175	0.0276396	18.1984
22.4702	12.6175	0.0276396	18.1984
22.4702	12.6175	0.0829187	18.1984
22.4702	12.6451	0.0552792	18.1984
22.4702	12.6727	0.0276396	18.1984
23.2521	12.7004	0	18.1984
23.2522	12.7004	0	18.1984
23.2525	12.7004	0.0276396	18.1984
23.2526	12.7142	0.0552792	18.1984
23.2526	12.7418	0.0276396	18.1984
23.3461	12.7695	0	18.1984
23.5282	12.7695	0	18.3803
23.5297	12.7695	0	18.3803
23.5297	12.7695	0.0552792	18.3803
23.5297	12.7971	0.0276396	18.3803
24.1991	12.8248	0	18.3803
24.2	12.8248	0	18.3803
24.2	12.8386	0.0276396	18.3803
24.4157	12.8662	0	18.3803
24.4163	12.8662	0	18.3803
24.4163	12.88	0.0276396	18.3803
24.6613	12.9077	0	18.3803
24.6614	12.9077	0	18.3803
24.6614	12.9215	0.0276396	18.3803
25.1804	12.9491	0	18.3803
25.1804	12.9491	0	18.3803
25.1804	12.9491	0.0276396	18.3803
25.1805	12.9491	0.0552792	18.3803
25.1806	12.9491	0.0829187	18.3803
25.1813	12.9491	0.110558	18.3803
25.1828	12.9491	0.138198	18.3803
25.1837	12.9491	0.165837	18.3803
25.1843	12.9491	0.193477	18.3803
25.1863	12.9491	0.221117	18.3803
25.1863	12.9491	0.248756	18.3803
25.2322	12.9768	0.221117	18.3803
25.2322	12.9768	0.221117	18.3803
25.2322	13.0044	0.193477	18.3803
25.2322	13.0321	0.165837	18.3803
25.2322	13.0597	0.138198	18.3803
25.2322	13.0873	0.110558	18.3803
25.2322	13.0873	0.110558	18.3803
25.2322	13.115	0.0829187	18.3803
25.2323	13.1426	0.0552792	18.3803
25.2323	13.1703	0.0276396	18.3803
25.2325	13.1979	0	18.3803
25.2325	13.2117	0.0276396	18.3803
25.3005	13.2394	0	18.3803
25.3208	13.2394	0	18.5623
25.3211	13.2394	0	18.5623
25.3212	13.2394	0.0552792	18.5623
25.3213	13.267	0.0276396	18.5623
25.4266	13.2946	0	18.5623
25.4268	13.2946	0	18.5623
25.4268	13.2946	0.0552792	18.5623
25.4268	13.3223	0.0276396	18.5623
25.6413	13.3499	0	18.5623
25.6416	13.3499	0	18.5623
25.6417	13.3637	0.0276396	18.5623
27.2278	13.3914	0	18.5623
27.2283	13.3914	0	18.5623
27.2283	13.3914	0.0552792	18.5623
27.2283	13.419	0.0276396	18.5623
27.2568	13.4467	0	18.5623
27.2568	13.4467	0	18.5623
27.2568	13.4467	0.0552792	18.5623
27.2569	13.4743	0.0276396	18.5623
27.3962	13.5019	0	18.5623
27.3966	13.5019	0	18.5623
27.3967	13.5019	0.0552792	18.5623
27.3967	13.5296	0.0276396	18.5623
28.0015	13.5572	0	18.5623
28.0015	13.5572	0	18.5623
28.0019	13.5572	0.0276396	18.5623
28.0019	13.571	0.0552792	18.5623
28.002	13.5987	0.0276396	18.5623
28.0186	13.6263	0	18.5623
28.0189	13.6263	0	18.5623
28.0193	13.6263	0.0276396	18.5623
28.0193	13.6401	0.0552792	18.5623
28.0194	13.6678	0.0276396	18.5623
28.3945	13.6954	0	18.5623
28.3947	13.6954	0	18.5623
28.3948	13.7092	0.0276396	18.5623
28.9352	13.7369	0	18.5623
28.9361	13.7369	0	18.5623
28.9361	13.7369	0.0552792	18.5623
28.9363	13.7645	0.0276396	18.5623
29.4126	13.7922	0	18.5623
29.4129	13.7922	0	18.5623
29.4129	13.806	0.0276396	18.5623
29.668	13.8336	0	18.5623
29.6696	13.8336	0	18.5623
29.6697	13.8474	0.0276396	18.5623
29.8302	13.8751	0	18.5623
29.8303	13.8751	0	18.5623
29.8304	13.8751	0.0276396	18.5623
29.8304	13.8889	0.0552792	18.5623
29.8304	13.9165	0.0276396	18.5623
29.8304	13.9442	0	18.5623
29.9436	13.9442	0	18.5623
29.9446	13.9442	0	18.5623
29.9447	13.958	0.0276396	18.5623
30.228	13.9856	0	18.5623
30.2283	13.9856	0	18.5623
30.2289	13.9856	0.0276396	18.5623
30.2291	13.9856	0.0552792	18.5623
30.2308	13.9856	0.0829187	18.5623
30.2308	13.9856	0.110558	18.5623
30.233	13.9856	0.138198	18.5623
30.2334	13.9856	0.165837	18.5623
30.2335	13.9856	0.193477	18.5623
30.234	13.9856	0.221117	18.5623
30.234	13.9856	0.248756	18.5623
30.3922	14.0133	0.221117	18.5623
30.3922	14.0133	0.221117	18.5623
30.3922	14.0409	0.193477	18.5623
30.3922	14.0409	0.193477	18.5623
30.3922	14.0685	0.165837	18.5623
30.3922	14.0685	0.165837	18.5623
30.3922	14.0962	0.138198	18.5623
30.3922	14.1238	0.110558	18.5623
30.3922	14.1515	0.0829187	18.5623
30.3922	14.1791	0.0552792	18.5623
30.3923	14.2067	0.0276396	18.5623
30.3923	14.2067	0.0276396	18.5623
30.3924	14.2344	0	18.5623
30.3924	14.2344	0.0552792	18.5623
30.3925	14.262	0.0276396	18.5623
31.0031	14.2897	0	18.5623
31.0032	14.2897	0	18.5623
31.0033	14.3035	0.0276396	18.5623
31.3284	14.3311	0	18.5623
31.3293	14.3311	0	18.5623
31.3293	14.3311	0.0552792	18.5623
31.3294	14.3588	0.0276396	18.5623
31.3423	14.3864	0	18.5623
31.3424	14.3864	0	18.5623
31.3429	14.3864	0.0276396	18.5623
31.3429	14.4002	0.0552792	18.5623
31.3429	14.4279	0.0276396	18.5623
31.5086	14.4555	0	18.5623
31.509	14.4555	0	18.5623
31.509	14.4693	0.0276396	18.5623
32.1455	14.497	0	18.5623
32.1461	14.497	0	18.5623
32.1461	14.497	0.0552792	18.5623
32.1461	14.5246	0.0276396	18.5623
32.4241	14.5522	0	18.5623
32.4251	14.5522	0	18.5623
32.4251	14.5522	0.0552792	18.5623
32.4251	14.5799	0.0276396	18.5623
33.0256	14.6075	0	18.5623
33.0261	14.6075	0	18.5623
33.0261	14.6075	0.0276396	18.5623
33.0261	14.6213	0.0552792	18.5623
33.0262	14.649	0.0276396	18.5623
33.4671	14.6766	0	18.5623
33.4679	14.6766	0	18.5623
33.7031	14.6766	0.0276396	18.5623
33.7032	14.6766	0.0276396	18.5623
33.7045	14.7043	0	18.5623
33.7045	14.7043	0.0552792	18.5623
33.7045	14.7319	0.0276396	18.5623
33.9271	14.7595	0	18.5623
33.9274	14.7595	0	18.5623
33.928	14.7595	0.0276396	18.5623
33.9281	14.7595	0.0552792	18.5623
33.9284	14.7595	0.0829187	18.5623
33.9284	14.7734	0.110558	18.5623
33.9284	14.801	0.0829187	18.5623
33.9284	14.8286	0.0552792	18.5623
33.9285	14.8563	0.0276396	18.5623
34.0798	14.8839	0	18.5623
34.08	14.8839	0	18.5623
34.4271	14.8839	0.0276396	18.5623
34.4273	14.8839	0.0276396	18.5623
34.4276	14.8839	0.0276396	18.5623
34.4276	14.8977	0.0552792	18.5623
34.4277	14.8977	0.110558	18.5623
34.4277	14.9254	0.0829187	18.5623
34.4277	14.953	0.0552792	18.5623
34.4277	14.9807	0.0276396	18.5623
34.4504	15.0083	0	18.5623
34.4511	15.0083	0	18.5623
34.4512	15.0221	0.0276396	18.5623
34.4551	15.0498	0	18.5623
34.4577	15.0498	0	18.5623
34.4577	15.0636	0.0276396	18.5623
35.1682	15.0912	0	18.5623
35.1684	15.0912	0	18.5623
35.1684	15.105	0.0276396	18.5623
35.2831	15.1327	0	18.5623
35.2832	15.1327	0	18.5623
35.2832	15.1327	0.0552792	18.5623
35.2832	15.1603	0.0276396	18.5623
35.4458	15.1879	0	18.5623
35.4458	15.1879	0	18.5623
35.4465	15.1879	0.0276396	18.5623
35.4465	15.2018	0.0552792	18.5623
35.4465	15.2294	0.0276396	18.5623
35.4591	15.257	0	18.5623
35.4595	15.257	0	18.5623
35.4609	15.257	0.0276396	18.5623
35.4609	15.2709	0.0552792	18.5623
35.4609	15.2985	0.0276396	18.5623
35.5752	15.3261	0	18.5623
35.5754	15.3261	0	18.5623
35.5755	15.3261	0.0552792	18.5623
35.5755	15.3538	0.0276396	18.5623
35.7066	15.3814	0	18.5623
35.7069	15.3814	0	18.5623
35.7069	15.3952	0.0276396	18.5623
35.9657	15.4229	0	18.5623
35.9684	15.4229	0	18.5623
35.9684	15.4229	0.0552792	18.5623
35.9685	15.4505	0.0276396	18.5623
36.4751	15.4782	0	18.5623
36.4758	15.4782	0	18.5623
36.4758	15.492	0.0276396	18.5623
36.8711	15.5196	0	18.5623
36.8717	15.5196	0	18.5623
36.8717	15.5196	0.0552792	18.5623
36.8718	15.5473	0.0276396	18.5623
37.1773	15.5749	0	18.5623
37.1782	15.5749	0	18.5623
37.1782	15.5749	0.0552792	18.5623
37.1783	15.6025	0.0276396	18.5623
37.2976	15.6302	0	18.5623
37.2989	15.6302	0	18.5623
37.2989	15.644	0.0276396	18.5623
37.4986	15.6716	0	18.5623
37.5002	15.6716	0	18.5623
37.5002	15.6716	0.0552792	18.5623
37.5003	15.6993	0.0276396	18.5623
37.5328	15.7269	0	18.5623
37.5331	15.7269	0	18.5623
37.5331	15.7269	0.0276396	18.5623
37.7237	15.7546	0	18.5623
37.7256	15.7546	0	18.5623
37.7256	15.7546	0.0552792	18.5623
37.7256	15.7822	0.0276396	18.5623
38.7883	15.8098	0	18.5623
38.7897	15.8098	0	18.5623
38.7897	15.8098	0.0552792	18.5623
38.7898	15.8375	0.0276396	18.5623
38.8842	15.8651	0	18.5623
38.886	15.8651	0	18.5623
38.8863	15.8651	0.0276396	18.5623
38.8864	15.8651	0.0552792	18.5623
39.0506	15.8651	0.0829187	18.5623
39.0507	15.8651	0.0829187	18.5623
39.0507	15.8928	0.0552792	18.5623
39.0508	15.9204	0.0276396	18.5623
39.0508	15.948	0	18.5623
39.0509	15.948	0.0552792	18.5623
39.0509	15.9757	0.0276396	18.5623
39.4743	16.0033	0	18.5623
39.4748	16.0033	0	18.5623
39.4748	16.0033	0.0552792	18.5623
39.4749	16.031	0.0276396	18.5623
39.6648	16.0586	0	18.5623
39.665	16.0586	0	18.5623
39.6651	16.0724	0.0276396	18.5623
40.8333	16.1001	0	18.5623
40.8342	16.1001	0	18.5623
40.8342	16.1139	0.0276396	18.5623
41.0089	16.1415	0	18.5623
41.0099	16.1415	0	18.5623
41.0099	16.1415	0.0552792	18.5623
41.0099	16.1692	0.0276396	18.5623
41.2441	16.1968	0	18.5623
41.2443	16.1968	0	18.5623
41.2444	16.1968	0.0276396	18.5623
41.2445	16.2106	0.0552792	18.5623
41.2445	16.2383	0.0276396	18.5623
41.2615	16.2659	0	18.5623
41.2615	16.2659	0	18.5623
41.2615	16.2659	0.0552792	18.5623
41.2616	16.2935	0.0276396	18.5623
41.8482	16.3212	0	18.5623
41.8511	16.3212	0	18.5623
41.8512	16.335	0.0276396	18.5623
41.899	16.3626	0	18.5623
41.8998	16.3626	0	18.5623
41.9001	16.3626	0.0276396	18.5623
41.9001	16.3765	0.0552792	18.5623
41.9001	16.4041	0.0276396	18.5623
42.4438	16.4317	0	18.5623
42.4447	16.4317	0	18.5623
42.4447	16.4317	0.0552792	18.5623
42.4447	16.4594	0.0276396	18.5623
42.8047	16.487	0	18.5623
42.8051	16.487	0	18.5623
42.8056	16.487	0.0276396	18.5623
42.8057	16.5008	0.0552792	18.5623
42.8058	16.5285	0.0276396	18.5623
43.3867	16.5561	0	18.5623
43.3871	16.5561	0	18.5623
43.3871	16.5699	0.0276396	18.5623
43.4678	16.5976	0	18.5623
43.468	16.5976	0	18.5623
43.468	16.5976	0.0552792	18.5623
43.468	16.6252	0.0276396	18.5623
43.7236	16.6528	0	18.5623
43.7239	16.6528	0	18.5623
43.7239	16.6528	0.0552792	18.5623
43.7239	16.6805	0.0276396	18.5623
43.7471	16.7081	0	18.5623
43.7472	16.7081	0	18.5623
43.7472	16.7219	0.0276396	18.5623
45.3077	16.7496	0	18.5623
45.3081	16.7496	0	18.5623
45.3082	16.7634	0.0276396	18.5623
45.8862	16.791	0	18.5623
45.8866	16.791	0	18.5623
45.8866	16.791	0.0552792	18.5623
45.8867	16.8187	0.0276396	18.5623
46.4826	16.8463	0	18.5623
46.4828	16.8463	0	18.5623
46.4828	16.8463	0.0552792	18.5623
46.4828	16.874	0.0276396	18.5623
47.0563	16.9016	0	18.5623
47.0568	16.9016	0	18.5623
47.617	16.9016	0.0276396	18.5623
47.6178	16.9016	0.0276396	18.5623
47.6178	16.9016	0.0829187	18.5623
47.6178	16.9292	0.0552792	18.5623
47.6179	16.9569	0.0276396	18.5623
47.8601	16.9845	0	18.5623
47.8621	16.9845	0	18.5623
47.8622	16.9983	0.0276396	18.5623
47.9844	17.026	0	18.5623
47.9846	17.026	0	18.5623
47.9846	17.0398	0.0276396	18.5623
48.2592	17.0674	0	18.5623
48.2596	17.0674	0	18.5623
48.2599	17.0674	0.0276396	18.5623
48.2602	17.0674	0.0552792	18.5623
48.2609	17.0674	0.0829187	18.5623
48.2612	17.0674	0.110558	18.5623
48.2616	17.0674	0.138198	18.5623
48.2652	17.0674	0.165837	18.5623
48.2656	17.0674	0.193477	18.5623
48.266	17.0674	0.221117	18.5623
48.2662	17.0674	0.248756	18.5623
50.4459	17.0951	0.221117	18.5623
50.4459	17.0951	0.221117	18.5623
50.4459	17.1227	0.193477	18.5623
50.4459	17.1504	0.165837	18.5623
50.4459	17.178	0.138198	18.5623
50.4459	17.2056	0.110558	18.5623
50.4459	17.2333	0.0829187	18.5623
50.4459	17.2609	0.0552792	18.5623
50.446	17.2886	0.0276396	18.5623
50.446	17.2886	0.0829187	18.5623
50.4461	17.3162	0.0552792	18.5623
50.4461	17.3438	0.0276396	18.5623
51.2705	17.3715	0	18.5623
51.2705	17.3715	0	18.5623
51.2706	17.3853	0.0276396	18.5623
51.6388	17.4129	0	18.5623
51.639	17.4129	0	18.5623
51.6391	17.4129	0.0552792	18.5623
51.6391	17.4406	0.0276396	18.5623
51.719	17.4682	0	18.5623
51.7192	17.4682	0	18.5623
51.7193	17.4682	0.0552792	18.5623
51.7193	17.4959	0.0276396	18.5623
51.9284	17.5235	0	18.5623
51.9287	17.5235	0	18.5623
54.5207	17.5235	0.0276396	18.5623
54.5208	17.5235	0.0276396	18.5623
54.5208	17.5511	0	18.5623
54.5208	17.5511	0.0552792	18.5623
54.521	17.5788	0.0276396	18.5623
54.817	17.6064	0	18.5623
54.8176	17.6064	0	18.5623
54.8176	17.6202	0.0276396	18.5623
54.8427	17.6479	0	18.5623
54.8434	17.6479	0	18.5623
54.8434	17.6617	0.0276396	18.5623
55.0999	17.6893	0	18.5623
55.1009	17.6893	0	18.5623
55.1009	17.6893	0.0552792	18.5623
55.101	17.717	0.0276396	18.5623
55.1256	17.7446	0	18.5623
55.1259	17.7446	0	18.5623
55.1259	17.7446	0.0552792	18.5623
55.1259	17.7722	0.0276396	18.5623
55.1511	17.7999	0	18.5623
55.1515	17.7999	0	18.5623
55.1518	17.7999	0.0276396	18.5623
55.152	17.7999	0.0552792	18.5623
55.152	17.8137	0.0829187	18.5623
55.152	17.8413	0.0552792	18.5623
55.152	17.869	0.0276396	18.5623
55.2693	17.8966	0	18.5623
55.2696	17.8966	0	18.5623
55.2696	17.8966	0.0552792	18.5623
55.2697	17.9243	0.0276396	18.5623
55.603	17.9519	0	18.5623
55.6032	17.9519	0	18.5623
55.6032	17.9519	0.0552792	18.5623
55.6032	17.9795	0.0276396	18.5623
57.496	18.0072	0	18.5623
57.4968	18.0072	0	18.5623
57.4969	18.0072	0.0552792	18.5623
57.4969	18.0348	0.0276396	18.5623
59.3342	18.0625	0	18.5623
59.3345	18.0625	0	18.5623
59.3346	18.0625	0.0552792	18.5623
59.3346	18.0901	0.0276396	18.5623
60.9438	18.1177	0	18.5623
60.9441	18.1177	0	18.5623
60.9441	18.1177	0.0552792	18.5623
60.9441	18.1454	0.0276396	18.5623
61.0815	18.173	0	18.5623
61.0815	18.173	0	18.5623
61.0815	18.1868	0.0276396	18.5623
61.7102	18.2145	0	18.5623
61.7108	18.2145	0	18.5623
61.7108	18.2145	0.0552792	18.5623
61.7109	18.2421	0.0276396	18.5623
63.2777	18.2698	0	18.5623
63.2778	18.2698	0	18.5623
63.2778	18.2836	0.0276396	18.5623
66.0585	18.3112	0	18.5623
66.059	18.3112	0	18.5623
66.0591	18.3112	0.0276396	18.5623
66.0592	18.325	0.0552792	18.5623
66.0592	18.3527	0.0276396	18.5623
66.288	18.3803	0	18.5623
66.2885	18.3803	0	18.5623
66.2885	18.3803	0.0552792	18.5623
66.2885	18.408	0.0276396	18.5623
66.6943	18.4356	0	18.5623
66.6953	18.4356	0	18.5623
66.6953	18.4356	0.0552792	18.5623
66.6953	18.4632	0.0276396	18.5623
67.8367	18.4909	0	18.5623
67.8373	18.4909	0	18.5623
67.8373	18.4909	0.0552792	18.5623
67.8373	18.5185	0.0276396	18.5623
71.5845	18.5462	0	18.5623
71.5845	18.5462	0	18.5623
71.5845	18.5462	0.0552792	18.5623
71.5845	18.5738	0.0276396	18.5623
71.6277	18.6014	0	18.5623
71.628	18.6014	0	18.5623
71.628	18.6153	0.0276396	18.5623
79.1266	18.6429	0	18.5623
79.1266	18.6429	0	18.5623
79.1268	18.6429	0.0552792	18.5623
79.1269	18.6705	0.0276396	18.5623
89.632	18.6982	0	18.5623
89.632	18.6982	0	18.5623
89.632	18.6982	0.0552792	18.5623
89.6321	18.7258	0.0276396	18.5623
92.3342	18.7535	0	18.5623
92.3366	18.7535	0	18.5623
92.3366	18.7535	0.0552792	18.5623
92.3367	18.7811	0.0276396	18.5623
94.6149	18.8087	0	18.5623
94.6149	18.8087	0	18.5623
96.592	18.8087	0.0276396	18.5623
96.592	18.8087	0.0276396	18.5623
96.5923	18.8364	0	18.5623
