1.23216e-09	0	0	0
1.37462e-09	0	0	0
1.56653e-09	0	0	0
1.59098e-09	0	0	0
2.00332e-09	0	0	0
3.01636e-09	0	0	0
3.53306e-09	0	0	0
3.54601e-09	0	0	0
3.82526e-09	0	0	0
4.44163e-09	0	0	0
4.823e-09	0	0	0
5.14718e-09	0	0	0
5.38342e-09	0	0	0
6.33029e-09	0	0	0
6.40355e-09	0	0	0
6.53538e-09	0	0	0
7.09176e-09	0	0	0
8.88984e-09	0	0	0
8.91912e-09	0	0	0
9.29488e-09	0	0	0
9.35961e-09	0	0	0
1.25556e-08	0	0	0
1.3096e-08	0	0	0
1.44561e-08	0	0	0
1.4732e-08	0	0	0
1.52552e-08	0	0	0
1.57198e-08	0	0	0
1.7947e-08	0	0	0
2.24115e-08	0	0	0
2.39718e-08	0	0	0
2.69752e-08	0	0	0
2.78946e-08	0	0	0
2.96027e-08	0	0	0
3.03522e-08	0	0	0
3.12112e-08	0	0	0
3.2699e-08	0	0	0
3.36307e-08	0	0	0
3.63611e-08	0	0	0
3.67471e-08	0	0	0
3.74644e-08	0	0	0
3.9833e-08	0	0	0
4.34149e-08	0	0	0
4.34879e-08	0	0	0
4.9265e-08	0	0	0
5.37024e-08	0	0	0
5.44096e-08	0	0	0
5.51039e-08	0	0	0
5.9521e-08	0	0	0
6.02464e-08	0	0	0
6.22943e-08	0	0	0
6.47402e-08	0	0	0
6.82946e-08	0	0	0
6.99257e-08	0	0	0
7.31287e-08	0	0	0
8.58332e-08	0	0	0
8.64433e-08	0	0	0
9.56961e-08	0	0	0
1.2312e-07	0	0	0
2.60765e-07	0	0	0
3.11121e-07	0	0	0
3.84054e-07	0	0	0
6.53888e-07	0	0	0
6.73172e-07	0	0	0
6.96989e-07	0	0	0
7.71442e-07	0	0	0
8.80753e-07	0	0	0
1.04357e-06	0	0	0
1.07449e-06	0	0	0
1.19431e-06	0	0	0
1.22898e-06	0	0	0
1.42762e-06	0	0	0
1.51955e-06	0	0	0
1.5623e-06	0	0	0
1.63651e-06	0	0	0
1.70401e-06	0	0	0
1.7377e-06	0	0	0
1.81726e-06	0	0	0
1.88131e-06	0	0	0
1.94145e-06	0	0	0
1.9503e-06	0	0	0
1.97577e-06	0	0	0
2.00245e-06	0	0	0
2.11823e-06	0	0	0
2.1356e-06	0	0	0
2.22943e-06	0	0	0
2.40964e-06	0	0	0
2.41604e-06	0	0	0
2.51428e-06	0	0	0
2.5794e-06	0	0	0
2.61242e-06	0	0	0
2.71471e-06	0	0	0
2.82496e-06	0	0	0
2.97155e-06	0	0	0
3.10835e-06	0	0	0
3.15996e-06	0	0	0
3.24959e-06	0	0	0
3.25528e-06	0	0	0
3.40275e-06	0	0	0
3.75435e-06	0	0	0
3.78026e-06	0	0	0
3.88984e-06	0	0	0
3.96028e-06	0	0	0
3.98737e-06	0	0	0
4.06314e-06	0	0	0
4.20372e-06	0	0	0
4.38245e-06	0	0	0
4.46545e-06	0	0	0
4.76734e-06	0	0	0
4.83902e-06	0	0	0
4.86362e-06	0	0	0
4.95334e-06	0	0	0
5.20234e-06	0	0	0
5.27174e-06	0	0	0
5.35225e-06	0	0	0
5.74073e-06	0	0	0
5.78216e-06	0	0	0
6.05361e-06	0	0	0
6.15002e-06	0	0	0
6.22706e-06	0	0	0
6.25949e-06	0	0	0
6.48394e-06	0	0	0
6.60862e-06	0	0	0
6.83726e-06	0	0	0
6.90755e-06	0	0	0
6.91896e-06	0	0	0
6.92977e-06	0	0	0
7.15612e-06	0	0	0
7.49378e-06	0	0	0
7.50777e-06	0	0	0
7.55568e-06	0	0	0
7.73416e-06	0	0	0
7.84807e-06	0	0	0
7.89417e-06	0	0	0
7.94096e-06	0	0	0
8.29854e-06	0	0	0
8.36092e-06	0	0	0
8.50075e-06	0	0	0
8.56839e-06	0	0	0
8.65157e-06	0	0	0
8.87151e-06	0	0	0
8.98948e-06	0	0	0
9.06742e-06	0	0	0
9.16365e-06	0	0	0
9.57566e-06	0	0	0
9.68351e-06	0	0	0
9.77542e-06	0	0	0
9.95645e-06	0	0	0
1.01383e-05	0	0	0
1.01521e-05	0	0	0
1.01784e-05	0	0	0
1.02337e-05	0	0	0
1.05659e-05	0	0	0
1.06883e-05	0	0	0
1.08311e-05	0	0	0
1.12217e-05	0	0	0
1.15373e-05	0	0	0
1.16409e-05	0	0	0
1.17963e-05	0	0	0
1.18485e-05	0	0	0
1.18948e-05	0	0	0
1.22419e-05	0	0	0
1.22498e-05	0	0	0
1.22689e-05	0	0	0
1.22737e-05	0	0	0
1.23422e-05	0	0	0
1.27335e-05	0	0	0
1.30784e-05	0	0	0
1.31399e-05	0	0	0
1.32356e-05	0	0	0
1.35085e-05	0	0	0
1.35982e-05	0	0	0
1.37085e-05	0	0	0
1.37802e-05	0	0	0
1.38501e-05	0	0	0
1.39119e-05	0	0	0
1.39398e-05	0	0	0
1.40008e-05	0	0	0
1.42745e-05	0	0	0
1.45425e-05	0	0	0
1.4573e-05	0	0	0
1.49587e-05	0	0	0
1.52052e-05	0	0	0
1.54311e-05	0	0	0
1.56203e-05	0	0	0
1.56421e-05	0	0	0
1.59257e-05	0	0	0
1.61088e-05	0	0	0
1.61826e-05	0	0	0
1.62668e-05	0	0	0
1.63143e-05	0	0	0
1.63884e-05	0	0	0
1.64776e-05	0	0	0
1.80269e-05	0	0	0
1.81411e-05	0	0	0
1.83678e-05	0	0	0
1.86221e-05	0	0	0
1.86328e-05	0	0	0
1.86581e-05	0	0	0
1.87426e-05	0	0	0
1.90994e-05	0	0	0
1.92816e-05	0	0	0
1.93329e-05	0	0	0
1.93835e-05	0	0	0
1.96673e-05	0	0	0
2.0064e-05	0	0	0
2.01548e-05	0	0	0
2.08237e-05	0	0	0
2.10664e-05	0	0	0
2.13767e-05	0	0	0
2.18528e-05	0	0	0
2.20836e-05	0	0	0
2.21355e-05	0	0	0
2.22062e-05	0	0	0
2.29125e-05	0	0	0
2.35963e-05	0	0	0
2.40551e-05	0	0	0
2.41908e-05	0	0	0
2.45707e-05	0	0	0
2.47076e-05	0	0	0
2.48644e-05	0	0	0
2.53508e-05	0	0	0
2.54098e-05	0	0	0
2.5532e-05	0	0	0
2.66297e-05	0	0	0
2.66497e-05	0	0	0
2.6816e-05	0	0	0
2.74892e-05	0	0	0
2.76953e-05	0	0	0
2.8521e-05	0	0	0
3.01501e-05	0	0	0
3.05551e-05	0	0	0
3.07124e-05	0	0	0
3.08255e-05	0	0	0
3.18371e-05	0	0	0
3.23303e-05	0	0	0
3.25208e-05	0	0	0
3.27016e-05	0	0	0
3.29179e-05	0	0	0
3.31608e-05	0	0	0
3.61136e-05	0	0	0
3.68102e-05	0	0	0
3.6843e-05	0	0	0
3.81537e-05	0	0	0
3.9078e-05	0	0	0
3.93791e-05	0	0	0
3.94169e-05	0	0	0
3.99661e-05	0	0	0
4.01021e-05	0	0	0
4.07419e-05	0	0	0
4.07993e-05	0	0	0
4.10077e-05	0	0	0
4.14965e-05	0	0	0
4.15799e-05	0	0	0
4.17496e-05	0	0	0
4.1834e-05	0	0	0
4.26199e-05	0	0	0
4.47144e-05	0	0	0
4.47501e-05	0	0	0
4.48687e-05	0	0	0
4.49971e-05	0	0	0
4.75574e-05	0	0	0
4.77892e-05	0	0	0
4.79098e-05	0	0	0
4.80083e-05	0	0	0
4.83354e-05	0	0	0
4.93917e-05	0	0	0
4.9535e-05	0	0	0
5.01053e-05	0	0	0
5.05138e-05	0	0	0
5.09016e-05	0	0	0
5.16748e-05	0	0	0
5.25892e-05	0	0	0
5.30092e-05	0	0	0
5.43571e-05	0	0	0
5.47181e-05	0	0	0
5.50362e-05	0	0	0
5.50868e-05	0	0	0
5.71046e-05	0	0	0
5.71805e-05	0	0	0
5.7315e-05	0	0	0
5.73798e-05	0	0	0
5.7469e-05	0	0	0
5.85323e-05	0	0	0
5.87805e-05	0	0	0
5.97508e-05	0	0	0
6.20357e-05	0	0	0
6.46459e-05	0	0	0
6.53028e-05	0	0	0
6.53046e-05	0	0	0
6.74589e-05	0	0	0
6.85121e-05	0	0	0
6.92789e-05	0	0	0
6.9433e-05	0	0	0
7.03795e-05	0	0	0
7.0497e-05	0	0	0
7.34624e-05	0	0	0
7.37396e-05	0	0	0
7.63499e-05	0	0	0
7.88095e-05	0	0	0
7.99534e-05	0	0	0
8.09976e-05	0	0	0
8.18258e-05	0	0	0
8.28437e-05	0	0	0
8.40403e-05	0	0	0
8.48868e-05	0	0	0
8.90516e-05	0	0	0
8.91709e-05	0	0	0
9.15611e-05	0	0	0
9.53028e-05	0	0	0
9.53053e-05	0	0	0
9.54391e-05	0	0	0
9.63074e-05	0	0	0
9.65881e-05	0	0	0
9.88255e-05	0	0	0
9.90638e-05	0	0	0
0.000100262	0	0	0
0.000101245	0	0	0
0.000102899	0	0	0
0.000103284	0	0	0
0.000105495	0	0	0
0.00010694	0	0	0
0.00010974	0	0	0
0.000110859	0	0	0
0.000112024	0	0	0
0.000116709	0	0	0
0.000130053	0	0	0
0.000134751	0	0	0
0.000134956	0	0	0
0.000138409	0	0	0
0.000140966	0	0	0
0.000153333	0	0	0
0.00016275	0	0	0
0.000175152	0	0	0
0.000197364	0	0	0
0.000215065	0	0	0
0.000253741	0	0	0
0.00211139	0	0	0
0.00451402	0	0	0
0.0250173	0	0	0
0.0389363	0	0	0
0.0667152	0	0	0
0.11252	0	0	0
0.113804	0	0	0
0.113804	0	0.0552792	0
0.113821	0.0276396	0.0276396	0
0.113831	0.0276396	0.0276396	0
0.113894	0.0276396	0.0276396	0
0.119233	0.0552792	0	0
0.119249	0.0552792	0	0
0.119878	0.0552792	0.0276396	0
0.119892	0.0690989	0.0552792	0
0.119922	0.0967385	0.0276396	0
0.131789	0.124378	0	0
0.132151	0.124378	0	0.0909918
0.145202	0.124378	0	0.0909918
0.175903	0.124378	0	0.0909918
0.182836	0.124378	0	0.0909918
0.184062	0.124378	0	0.0909918
0.186272	0.124378	0	0.0909918
0.186301	0.138198	0.0276396	0.0909918
0.212525	0.165837	0	0.0909918
0.291695	0.165837	0	0.0909918
0.292525	0.165837	0	0.0909918
0.292551	0.179657	0.0276396	0.0909918
0.309378	0.207297	0	0.0909918
0.309445	0.207297	0	0.0909918
0.309527	0.221117	0.0276396	0.0909918
0.316215	0.248756	0	0.0909918
0.317089	0.248756	0	0.0909918
0.317178	0.262576	0.0276396	0.0909918
0.319032	0.290216	0	0.0909918
0.322495	0.290216	0	0.0909918
0.322534	0.290216	0	0.0909918
0.322577	0.290216	0.0552792	0.0909918
0.322644	0.317855	0.0276396	0.0909918
0.323525	0.345495	0	0.0909918
0.348015	0.345495	0	0.181984
0.348457	0.345495	0	0.181984
0.348513	0.359315	0.0276396	0.181984
0.368146	0.386954	0	0.181984
0.368235	0.386954	0	0.181984
0.368242	0.386954	0.0552792	0.181984
0.368245	0.386954	0.0552792	0.181984
0.368296	0.386954	0.0552792	0.181984
0.368297	0.414594	0.0276396	0.181984
0.400353	0.442233	0	0.181984
0.401704	0.442233	0	0.181984
0.401709	0.456053	0.0276396	0.181984
0.404016	0.483693	0	0.181984
0.41912	0.483693	0	0.181984
0.4199	0.483693	0	0.181984
0.420338	0.483693	0.0276396	0.181984
0.420355	0.497512	0.0552792	0.181984
0.420384	0.497512	0.0552792	0.181984
0.420389	0.525152	0.0276396	0.181984
0.457309	0.552792	0	0.181984
0.492575	0.552792	0	0.181984
0.493506	0.552792	0	0.181984
0.493517	0.552792	0.0552792	0.181984
0.493633	0.580431	0.0276396	0.181984
0.502213	0.608071	0	0.181984
0.502237	0.608071	0	0.181984
0.502475	0.608071	0	0.181984
0.508518	0.608071	0	0.272975
0.510542	0.608071	0	0.272975
0.510616	0.621891	0.0276396	0.272975
0.510678	0.621891	0.0276396	0.272975
0.52035	0.64953	0	0.272975
0.520485	0.64953	0	0.272975
0.520874	0.64953	0.0276396	0.272975
0.521034	0.66335	0.0552792	0.272975
0.521038	0.690989	0.0276396	0.272975
0.526524	0.718629	0	0.272975
0.568229	0.718629	0	0.272975
0.569099	0.718629	0	0.272975
0.569129	0.732449	0.0276396	0.272975
0.575682	0.760088	0	0.272975
0.576604	0.760088	0	0.272975
0.576664	0.773908	0.0276396	0.272975
0.598053	0.801548	0	0.272975
0.598535	0.801548	0	0.272975
0.598581	0.815368	0.0276396	0.272975
0.602952	0.843007	0	0.272975
0.603659	0.843007	0	0.272975
0.603677	0.843007	0.0552792	0.272975
0.603804	0.870647	0.0276396	0.272975
0.624015	0.898286	0	0.272975
0.624044	0.898286	0	0.272975
0.624071	0.898286	0	0.272975
0.62983	0.898286	0	0.272975
0.629856	0.898286	0	0.272975
0.629874	0.912106	0.0276396	0.272975
0.629882	0.939746	0	0.272975
0.648116	0.939746	0	0.272975
0.656505	0.939746	0	0.272975
0.656646	0.939746	0	0.272975
0.656662	0.953566	0.0276396	0.272975
0.679569	0.981205	0	0.272975
0.679573	0.981205	0	0.272975
0.679605	0.995025	0.0276396	0.272975
0.679628	1.02266	0	0.272975
0.679631	1.02266	0	0.272975
0.681421	1.02266	0	0.272975
0.682245	1.02266	0	0.272975
0.692911	1.02266	0	0.272975
0.693167	1.02266	0	0.272975
0.693404	1.03648	0.0276396	0.272975
0.697202	1.06412	0	0.272975
0.697953	1.06412	0	0.272975
0.697988	1.07794	0.0276396	0.272975
0.715864	1.10558	0	0.272975
0.720119	1.10558	0	0.272975
0.728031	1.10558	0	0.272975
0.731524	1.10558	0	0.272975
0.73381	1.10558	0	0.272975
0.788537	1.10558	0	0.363967
0.812016	1.10558	0	0.454959
0.817011	1.10558	0	0.545951
0.817243	1.10558	0	0.545951
0.817348	1.1194	0.0276396	0.545951
0.849834	1.14704	0	0.545951
0.862223	1.14704	0	0.636943
0.884897	1.14704	0	0.636943
0.885214	1.14704	0	0.636943
0.885344	1.16086	0.0276396	0.636943
0.895832	1.1885	0	0.636943
0.912467	1.1885	0	0.818926
0.913885	1.1885	0	0.909918
0.914221	1.1885	0	0.909918
0.914231	1.1885	0.0552792	0.909918
0.914326	1.21614	0.0276396	0.909918
0.919778	1.24378	0	0.909918
0.92038	1.24378	0	0.909918
0.921159	1.24378	0.0276396	0.909918
0.921206	1.2576	0.0552792	0.909918
0.921262	1.28524	0.0276396	0.909918
0.923023	1.31288	0	0.909918
0.923054	1.31288	0	0.909918
0.934695	1.31288	0	0.909918
0.934928	1.31288	0	0.909918
0.935277	1.31288	0	0.909918
0.936481	1.31288	0.0276396	0.909918
0.936502	1.31288	0.0276396	0.909918
0.936502	1.31288	0.0276396	0.909918
0.961038	1.31288	0.0276396	0.909918
0.997005	1.31288	0.0276396	0.909918
0.997044	1.31288	0.0276396	0.909918
0.998383	1.34052	0	0.909918
1.04515	1.34052	0.0276396	0.909918
1.04536	1.34052	0.0276396	0.909918
1.04536	1.36816	0	0.909918
1.06154	1.36816	0	0.909918
1.06264	1.36816	0	0.909918
1.06264	1.36816	0.0552792	0.909918
1.06296	1.3958	0.0276396	0.909918
1.06953	1.42344	0	0.909918
1.06981	1.42344	0	1.00091
1.08769	1.42344	0	1.00091
1.13603	1.42344	0	1.18289
1.13603	1.42344	0	1.18289
1.13603	1.42344	0.0552792	1.18289
1.13606	1.45108	0.0276396	1.18289
1.14432	1.47872	0	1.18289
1.15155	1.47872	0	1.18289
1.1634	1.47872	0	1.18289
1.17071	1.47872	0	1.18289
1.17262	1.47872	0	1.27389
1.17262	1.47872	0	1.27389
1.17273	1.47872	0	1.27389
1.17275	1.47872	0	1.27389
1.18167	1.47872	0	1.27389
1.18177	1.47872	0	1.36488
1.18186	1.47872	0	1.36488
1.18188	1.47872	0	1.36488
1.20138	1.47872	0	1.36488
1.21089	1.47872	0	1.54686
1.22345	1.47872	0	1.63785
1.24844	1.47872	0	1.81984
1.24846	1.47872	0	1.81984
1.2496	1.47872	0.0276396	1.81984
1.24969	1.49254	0.0552792	1.81984
1.24976	1.52018	0.0276396	1.81984
1.2626	1.54782	0	1.81984
1.26306	1.54782	0	1.81984
1.26316	1.56164	0.0276396	1.81984
1.28901	1.58928	0	1.81984
1.28979	1.58928	0	1.81984
1.28981	1.58928	0.0276396	1.81984
1.29044	1.58928	0.0552792	1.81984
1.29053	1.58928	0.0829187	1.81984
1.29065	1.6031	0.110558	1.81984
1.29067	1.63074	0.0829187	1.81984
1.29071	1.65837	0.0552792	1.81984
1.29078	1.68601	0.0276396	1.81984
1.29986	1.71365	0	1.81984
1.3006	1.71365	0	1.81984
1.30079	1.71365	0.0276396	1.81984
1.30079	1.72747	0.0552792	1.81984
1.30081	1.75511	0.0276396	1.81984
1.34063	1.78275	0	1.81984
1.34189	1.78275	0	1.81984
1.34195	1.79657	0.0276396	1.81984
1.35516	1.82421	0	1.81984
1.36093	1.82421	0	1.81984
1.3624	1.82421	0	1.81984
1.36248	1.83803	0.0276396	1.81984
1.37912	1.86567	0	1.81984
1.37947	1.86567	0	1.81984
1.37948	1.86567	0.0552792	1.81984
1.37949	1.89331	0.0276396	1.81984
1.39865	1.92095	0	1.81984
1.44503	1.92095	0	1.81984
1.45058	1.92095	0	1.81984
1.45742	1.92095	0	1.91083
1.45789	1.92095	0	1.91083
1.45793	1.93477	0.0276396	1.91083
1.46817	1.96241	0	1.91083
1.47226	1.96241	0	2.00182
1.47528	1.96241	0	2.00182
1.53953	1.96241	0	2.00182
1.59127	1.96241	0	2.00182
1.59138	1.96241	0	2.00182
1.59141	1.97623	0.0276396	2.00182
1.60432	2.00387	0	2.00182
1.606	2.00387	0	2.00182
1.60602	2.01769	0.0276396	2.00182
1.63805	2.04533	0	2.00182
1.65104	2.04533	0	2.09281
1.67791	2.04533	0	2.1838
1.69148	2.04533	0	2.1838
1.69166	2.04533	0	2.1838
1.73945	2.04533	0.0276396	2.1838
1.73958	2.04533	0.0276396	2.1838
1.73959	2.07297	0	2.1838
1.77022	2.07297	0	2.1838
1.80391	2.07297	0	2.1838
1.81294	2.07297	0	2.1838
1.82653	2.07297	0	2.2748
1.82753	2.07297	0	2.2748
1.82758	2.08679	0.0276396	2.2748
1.85332	2.11443	0	2.2748
1.85332	2.11443	0	2.45678
1.86885	2.11443	0	2.45678
1.86944	2.11443	0	2.45678
1.86957	2.12825	0.0276396	2.45678
1.87827	2.15589	0	2.45678
1.89943	2.15589	0	2.54777
1.94567	2.15589	0	2.63876
1.96069	2.15589	0	2.63876
1.97241	2.15589	0	2.63876
1.97247	2.15589	0	2.63876
1.97247	2.15589	0	2.63876
1.98417	2.15589	0	2.63876
1.98424	2.15589	0	2.63876
1.98437	2.16971	0.0276396	2.63876
1.9933	2.19735	0	2.63876
1.99384	2.19735	0	2.63876
1.99416	2.19735	0	2.82075
1.99418	2.21117	0.0276396	2.82075
2.00205	2.23881	0	2.82075
2.00255	2.23881	0	2.82075
2.00255	2.23881	0.0552792	2.82075
2.00256	2.26645	0.0276396	2.82075
2.0175	2.29409	0	2.82075
2.01757	2.29409	0	2.82075
2.01762	2.29409	0.0276396	2.82075
2.01762	2.3079	0.0552792	2.82075
2.01762	2.33554	0.0276396	2.82075
2.02175	2.36318	0	2.82075
2.02275	2.36318	0	2.82075
2.02275	2.377	0.0276396	2.82075
2.0331	2.40464	0	2.82075
2.0363	2.40464	0	3.00273
2.09187	2.40464	0	3.00273
2.09228	2.40464	0	3.00273
2.09233	2.40464	0.0552792	3.00273
2.09257	2.43228	0.0276396	3.00273
2.09556	2.45992	0	3.00273
2.09616	2.45992	0	3.00273
2.09726	2.45992	0.0276396	3.00273
2.09819	2.45992	0.0552792	3.00273
2.09819	2.47374	0.0829187	3.00273
2.09822	2.50138	0.0552792	3.00273
2.09824	2.52902	0.0276396	3.00273
2.09868	2.55666	0	3.00273
2.09871	2.55666	0	3.00273
2.09878	2.57048	0.0276396	3.00273
2.12321	2.59812	0	3.00273
2.14776	2.59812	0	3.18471
2.14813	2.59812	0	3.18471
2.14862	2.59812	0	3.27571
2.14936	2.59812	0.0276396	3.27571
2.14936	2.61194	0.0552792	3.27571
2.14937	2.61194	0.0552792	3.27571
2.14938	2.63958	0.0276396	3.27571
2.14939	2.63958	0.0276396	3.27571
2.14942	2.66722	0	3.27571
2.15701	2.66722	0	3.27571
2.15812	2.66722	0	3.27571
2.15835	2.66722	0.0276396	3.27571
2.15838	2.68104	0.0552792	3.27571
2.1584	2.70868	0.0276396	3.27571
2.18989	2.73632	0	3.27571
2.19175	2.73632	0	3.3667
2.20448	2.73632	0	3.3667
2.22557	2.73632	0	3.45769
2.22562	2.73632	0	3.45769
2.22564	2.75014	0.0276396	3.45769
2.24678	2.77778	0	3.45769
2.2738	2.77778	0	3.45769
2.27404	2.77778	0	3.45769
2.27406	2.7916	0.0276396	3.45769
2.30561	2.81924	0	3.45769
2.31115	2.81924	0	3.54868
2.34609	2.81924	0	3.63967
2.39604	2.81924	0	3.63967
2.39616	2.81924	0	3.63967
2.39624	2.83306	0.0276396	3.63967
2.40349	2.8607	0	3.63967
2.41323	2.8607	0	3.73066
2.41673	2.8607	0	3.91265
2.41775	2.8607	0	4.00364
2.41785	2.8607	0	4.00364
2.41814	2.8607	0.0276396	4.00364
2.41818	2.87452	0.0552792	4.00364
2.4182	2.90216	0.0276396	4.00364
2.43948	2.9298	0	4.00364
2.4411	2.9298	0	4.00364
2.4412	2.94362	0.0276396	4.00364
2.50363	2.97125	0	4.00364
2.52622	2.97125	0	4.09463
2.53396	2.97125	0	4.09463
2.53564	2.97125	0	4.18562
2.53657	2.97125	0	4.18562
2.5366	2.98507	0.0276396	4.18562
2.53753	3.01271	0	4.18562
2.56066	3.01271	0	4.18562
2.5687	3.01271	0	4.27662
2.59468	3.01271	0	4.27662
2.59487	3.01271	0	4.27662
2.59488	3.02653	0.0276396	4.27662
2.62539	3.05417	0	4.27662
2.62546	3.05417	0	4.27662
2.62547	3.06799	0.0276396	4.27662
2.62841	3.09563	0	4.27662
2.63514	3.09563	0	4.36761
2.65238	3.09563	0	4.4586
2.65251	3.09563	0	4.4586
2.6526	3.10945	0.0276396	4.4586
2.65298	3.13709	0	4.4586
2.66056	3.13709	0	4.54959
2.66058	3.13709	0	4.54959
2.66062	3.13709	0.0552792	4.54959
2.66069	3.16473	0.0276396	4.54959
2.66146	3.19237	0	4.54959
2.66341	3.19237	0	4.54959
2.73846	3.19237	0	4.64058
2.73879	3.19237	0	4.64058
2.73895	3.19237	0.0276396	4.64058
2.73896	3.19237	0.0829187	4.64058
2.73897	3.22001	0.0552792	4.64058
2.73909	3.24765	0.0276396	4.64058
2.73914	3.27529	0	4.64058
2.7491	3.27529	0	4.64058
2.74918	3.27529	0	4.64058
2.74926	3.27529	0.0276396	4.64058
2.74995	3.27529	0.0552792	4.64058
2.75	3.28911	0.0829187	4.64058
2.75013	3.31675	0.0552792	4.64058
2.75021	3.34439	0.0276396	4.64058
2.75023	3.37203	0	4.64058
2.76464	3.37203	0	4.64058
2.7759	3.37203	0	4.64058
2.77659	3.37203	0	4.64058
2.77752	3.37203	0.0276396	4.64058
2.77755	3.38585	0.0552792	4.64058
2.7776	3.41349	0.0276396	4.64058
2.77768	3.44113	0	4.64058
2.84619	3.44113	0	4.64058
2.85022	3.44113	0	4.64058
2.8526	3.44113	0	4.64058
2.85268	3.45495	0.0276396	4.64058
2.90497	3.48259	0	4.64058
2.90506	3.48259	0	4.73157
2.90506	3.48259	0	4.73157
2.93527	3.48259	0	4.73157
2.93545	3.48259	0	4.73157
2.93547	3.48259	0.0552792	4.73157
2.9355	3.51023	0.0276396	4.73157
2.98858	3.53787	0	4.73157
2.99266	3.53787	0	4.91356
3.05209	3.53787	0	5.00455
3.05846	3.53787	0	5.09554
3.05943	3.53787	0	5.09554
3.05954	3.53787	0.0276396	5.09554
3.05957	3.55169	0.0552792	5.09554
3.05958	3.57933	0.0276396	5.09554
3.11627	3.60697	0	5.09554
3.16217	3.60697	0	5.09554
3.17998	3.60697	0	5.27753
3.18001	3.60697	0	5.27753
3.18165	3.60697	0.0276396	5.27753
3.182	3.60697	0.0552792	5.27753
3.18212	3.60697	0.0829187	5.27753
3.18222	3.60697	0.110558	5.27753
3.18249	3.60697	0.138198	5.27753
3.18268	3.60697	0.165837	5.27753
3.18329	3.60697	0.193477	5.27753
3.2184	3.60697	0.221117	5.27753
3.21841	3.60697	0.221117	5.36852
3.21841	3.6346	0.193477	5.36852
3.21841	3.66224	0.165837	5.36852
3.21842	3.68988	0.138198	5.36852
3.21843	3.68988	0.138198	5.36852
3.21845	3.71752	0.110558	5.36852
3.21847	3.74516	0.0829187	5.36852
3.21848	3.7728	0.0552792	5.36852
3.21851	3.80044	0.0276396	5.36852
3.26333	3.82808	0	5.36852
3.26646	3.82808	0	5.45951
3.29632	3.82808	0	5.5505
3.29715	3.82808	0	5.5505
3.29718	3.8419	0.0276396	5.5505
3.32806	3.86954	0	5.5505
3.35871	3.86954	0	5.64149
3.35933	3.86954	0	5.64149
3.35936	3.86954	0.0552792	5.64149
3.35938	3.89718	0.0276396	5.64149
3.36648	3.92482	0	5.64149
3.36802	3.92482	0	5.64149
3.36803	3.93864	0.0276396	5.64149
3.42991	3.96628	0	5.64149
3.4757	3.96628	0	5.73248
3.48195	3.96628	0	5.91447
3.53737	3.96628	0	6.00546
3.53737	3.96628	0	6.00546
3.53769	3.96628	0	6.09645
3.53774	3.9801	0.0276396	6.09645
3.55475	4.00774	0	6.09645
3.55539	4.00774	0	6.09645
3.55542	4.00774	0.0552792	6.09645
3.55558	4.03538	0.0276396	6.09645
3.61	4.06302	0	6.09645
3.6134	4.06302	0	6.18744
3.6137	4.06302	0	6.18744
3.61374	4.07684	0.0276396	6.18744
3.66529	4.10448	0	6.18744
3.66605	4.10448	0	6.18744
3.66605	4.1183	0.0276396	6.18744
3.66711	4.14594	0	6.18744
3.68378	4.14594	0	6.18744
3.78587	4.14594	0	6.27843
3.83365	4.14594	0	6.36943
3.87455	4.14594	0	6.55141
3.87469	4.14594	0	6.55141
3.87471	4.14594	0.0552792	6.55141
3.87481	4.17358	0.0276396	6.55141
3.88094	4.20122	0	6.55141
3.88102	4.20122	0	6.55141
3.88107	4.20122	0.0552792	6.55141
3.88107	4.22886	0.0276396	6.55141
3.92599	4.2565	0	6.55141
3.9408	4.2565	0	6.73339
3.94137	4.2565	0	6.73339
3.9419	4.2565	0.0276396	6.73339
3.94191	4.27032	0.0552792	6.73339
3.94192	4.29795	0.0276396	6.73339
3.95267	4.32559	0	6.73339
3.95337	4.32559	0	6.73339
3.95338	4.33941	0.0276396	6.73339
3.97958	4.36705	0	6.73339
3.99997	4.36705	0	6.91538
4.00026	4.36705	0	6.91538
4.0003	4.38087	0.0276396	6.91538
4.01675	4.40851	0	6.91538
4.0168	4.40851	0	6.91538
4.01689	4.42233	0.0276396	6.91538
4.04705	4.44997	0	6.91538
4.05636	4.44997	0	6.91538
4.05639	4.44997	0	7.00637
4.07418	4.44997	0	7.00637
4.0742	4.44997	0	7.00637
4.07424	4.46379	0.0276396	7.00637
4.10051	4.49143	0	7.00637
4.101	4.49143	0	7.00637
4.10104	4.50525	0.0276396	7.00637
4.11864	4.53289	0	7.00637
4.13576	4.53289	0	7.09736
4.21496	4.53289	0	7.18835
4.21753	4.53289	0	7.27934
4.21817	4.53289	0	7.27934
4.21819	4.53289	0.0552792	7.27934
4.21819	4.56053	0.0276396	7.27934
4.22184	4.58817	0	7.27934
4.25433	4.58817	0	7.37034
4.27512	4.58817	0	7.37034
4.27527	4.58817	0	7.37034
4.27532	4.60199	0.0276396	7.37034
4.28184	4.62963	0	7.37034
4.28259	4.62963	0	7.37034
4.2826	4.64345	0.0276396	7.37034
4.31108	4.67109	0	7.37034
4.32937	4.67109	0	7.55232
4.36844	4.67109	0	7.64331
4.40959	4.67109	0	7.7343
4.43497	4.67109	0	7.7343
4.49388	4.67109	0	7.8253
4.4939	4.67109	0	7.8253
4.49394	4.67109	0.0552792	7.8253
4.49395	4.69873	0.0276396	7.8253
4.51695	4.72637	0	7.8253
4.51714	4.72637	0	7.8253
4.59027	4.72637	0.0276396	7.8253
4.59034	4.72637	0.0276396	7.8253
4.59065	4.75401	0	7.8253
4.59066	4.75401	0.0552792	7.8253
4.59067	4.78165	0.0276396	7.8253
4.59071	4.80929	0	7.8253
4.59072	4.80929	0	7.8253
4.60067	4.80929	0	7.8253
4.64544	4.80929	0	8.00728
4.65095	4.80929	0	8.09827
4.65105	4.80929	0	8.09827
4.65114	4.80929	0.0552792	8.09827
4.65116	4.83693	0.0276396	8.09827
4.65135	4.86457	0	8.09827
4.65144	4.86457	0	8.09827
4.65145	4.86457	0.0552792	8.09827
4.65147	4.89221	0.0276396	8.09827
4.66568	4.91985	0	8.09827
4.66631	4.91985	0	8.09827
4.66632	4.91985	0.0552792	8.09827
4.66634	4.94748	0.0276396	8.09827
4.68006	4.97512	0	8.09827
4.68141	4.97512	0	8.09827
4.68149	4.98894	0.0276396	8.09827
4.68154	4.98894	0.0276396	8.09827
4.68698	5.01658	0	8.09827
4.703	5.01658	0	8.09827
4.70433	5.01658	0	8.09827
4.70478	5.01658	0.0276396	8.09827
4.70479	5.0304	0.0552792	8.09827
4.7048	5.05804	0.0276396	8.09827
4.74667	5.08568	0	8.09827
4.74725	5.08568	0	8.09827
4.74726	5.0995	0.0276396	8.09827
4.83143	5.12714	0	8.09827
4.83156	5.12714	0	8.09827
4.83166	5.14096	0.0276396	8.09827
4.8635	5.1686	0	8.09827
4.86378	5.1686	0	8.09827
4.86389	5.1686	0.0552792	8.09827
4.864	5.19624	0.0276396	8.09827
4.87577	5.22388	0	8.09827
4.87649	5.22388	0	8.09827
4.87655	5.2377	0.0276396	8.09827
4.87661	5.26534	0	8.09827
4.87669	5.26534	0	8.09827
4.91926	5.26534	0	8.18926
4.96816	5.26534	0	8.37125
4.96851	5.26534	0	8.37125
4.96856	5.27916	0.0276396	8.37125
5.00219	5.3068	0	8.37125
5.00379	5.3068	0	8.37125
5.0038	5.3068	0.0276396	8.37125
5.02558	5.33444	0	8.37125
5.1384	5.33444	0	8.46224
5.1886	5.33444	0	8.64422
5.18867	5.33444	0	8.64422
5.18881	5.33444	0.0552792	8.64422
5.18887	5.36208	0.0276396	8.64422
5.19416	5.38972	0	8.64422
5.23507	5.38972	0	8.82621
5.23624	5.38972	0	8.82621
5.23625	5.40354	0.0276396	8.82621
5.24314	5.43118	0	8.82621
5.25633	5.43118	0	8.9172
5.25638	5.43118	0	8.9172
5.2564	5.43118	0.0552792	8.9172
5.25643	5.45882	0.0276396	8.9172
5.26099	5.48646	0	8.9172
5.2613	5.48646	0	8.9172
5.26135	5.50028	0.0276396	8.9172
5.28632	5.52792	0	8.9172
5.28648	5.52792	0	8.9172
5.28648	5.54174	0.0276396	8.9172
5.28742	5.56938	0	8.9172
5.28751	5.56938	0	8.9172
5.28753	5.56938	0.0552792	8.9172
5.28754	5.59701	0.0276396	8.9172
5.31909	5.62465	0	8.9172
5.32265	5.62465	0	9.09918
5.32291	5.62465	0	9.09918
5.32326	5.62465	0.0276396	9.09918
5.32339	5.62465	0.0552792	9.09918
5.32417	5.62465	0.0829187	9.09918
5.32421	5.62465	0.110558	9.09918
5.32497	5.62465	0.138198	9.09918
5.32576	5.62465	0.165837	9.09918
5.3273	5.62465	0.193477	9.09918
5.32778	5.62465	0.221117	9.09918
5.3279	5.62465	0.248756	9.09918
5.32807	5.65229	0.221117	9.09918
5.32808	5.65229	0.248756	9.09918
5.54563	5.67993	0.221117	9.09918
5.54564	5.67993	0.221117	9.19017
5.54564	5.70757	0.193477	9.19017
5.54564	5.73521	0.165837	9.19017
5.54565	5.76285	0.138198	9.19017
5.54567	5.79049	0.110558	9.19017
5.54568	5.81813	0.0829187	9.19017
5.54575	5.84577	0.0552792	9.19017
5.54576	5.87341	0.0276396	9.19017
5.55618	5.90105	0	9.19017
5.55647	5.90105	0	9.19017
5.55652	5.91487	0.0276396	9.19017
5.56379	5.94251	0	9.19017
5.56452	5.94251	0	9.19017
5.56566	5.94251	0.0276396	9.19017
5.56571	5.94251	0.0552792	9.19017
5.56575	5.95633	0.0829187	9.19017
5.56577	5.98397	0.0552792	9.19017
5.56577	6.01161	0.0276396	9.19017
5.59332	6.03925	0	9.19017
5.65215	6.03925	0	9.37216
5.65894	6.03925	0	9.55414
5.69652	6.03925	0	9.64513
5.69676	6.03925	0	9.64513
5.69679	6.03925	0.0552792	9.64513
5.69679	6.06689	0.0276396	9.64513
5.74525	6.09453	0	9.64513
5.78993	6.09453	0	9.82712
5.79007	6.09453	0	9.82712
5.79012	6.10835	0.0276396	9.82712
5.79541	6.13599	0	9.82712
5.79553	6.13599	0	9.82712
5.79556	6.13599	0.0552792	9.82712
5.79577	6.16363	0.0276396	9.82712
5.82647	6.19127	0	9.82712
5.85117	6.19127	0	9.91811
5.85228	6.19127	0	9.91811
5.85237	6.19127	0.0276396	9.91811
5.85394	6.19127	0.0552792	9.91811
5.85395	6.19127	0.110558	9.91811
5.85397	6.21891	0.0829187	9.91811
5.854	6.24655	0.0552792	9.91811
5.85409	6.27418	0.0276396	9.91811
5.85908	6.30182	0	9.91811
5.88999	6.30182	0	10.1001
5.89017	6.30182	0	10.1001
5.89024	6.31564	0.0276396	10.1001
5.8943	6.34328	0	10.1001
5.89467	6.34328	0	10.1001
5.89487	6.34328	0.0276396	10.1001
5.89594	6.34328	0.0552792	10.1001
5.89677	6.34328	0.0829187	10.1001
5.89685	6.34328	0.110558	10.1001
5.89754	6.34328	0.138198	10.1001
5.89755	6.34328	0.193477	10.1001
5.89755	6.37092	0.165837	10.1001
5.89755	6.39856	0.138198	10.1001
5.89758	6.4262	0.110558	10.1001
5.89761	6.45384	0.0829187	10.1001
5.89762	6.48148	0.0552792	10.1001
5.89769	6.50912	0.0276396	10.1001
5.90666	6.53676	0	10.1001
5.91406	6.53676	0	10.2821
5.91533	6.53676	0	10.2821
5.91538	6.55058	0.0276396	10.2821
5.91539	6.57822	0	10.2821
5.92927	6.57822	0	10.2821
5.92932	6.57822	0	10.2821
5.92935	6.59204	0.0276396	10.2821
5.95184	6.61968	0	10.2821
5.96926	6.61968	0	10.4641
5.98111	6.61968	0	10.4641
6.01372	6.61968	0	10.646
6.01412	6.61968	0	10.646
6.01426	6.6335	0.0276396	10.646
6.07601	6.66114	0	10.646
6.07796	6.66114	0	10.646
6.07796	6.66114	0.0552792	10.646
6.07801	6.68878	0.0276396	10.646
6.09131	6.71642	0	10.646
6.09229	6.71642	0	10.646
6.09231	6.73024	0.0276396	10.646
6.11586	6.75788	0	10.646
6.11692	6.75788	0	10.646
6.11754	6.75788	0	10.646
6.11826	6.75788	0.0276396	10.646
6.11836	6.75788	0.0552792	10.646
6.11841	6.7717	0.0829187	10.646
6.11844	6.79934	0.0552792	10.646
6.1188	6.82698	0.0276396	10.646
6.12102	6.82698	0.0552792	10.646
6.12105	6.82698	0.0829187	10.646
6.12113	6.85462	0.0552792	10.646
6.12117	6.88226	0.0276396	10.646
6.13547	6.90989	0	10.646
6.15418	6.90989	0	10.737
6.23079	6.90989	0	10.919
6.23101	6.90989	0	10.919
6.23101	6.92371	0.0276396	10.919
6.26559	6.95135	0	10.919
6.26611	6.95135	0	10.919
6.26618	6.96517	0.0276396	10.919
6.31059	6.99281	0	10.919
6.31512	6.99281	0	11.01
6.31529	6.99281	0	11.01
6.3154	7.00663	0.0276396	11.01
6.37113	7.03427	0	11.01
6.37141	7.03427	0	11.01
6.37184	7.03427	0.0276396	11.01
6.37192	7.04809	0.0552792	11.01
6.37198	7.07573	0.0276396	11.01
6.4123	7.10337	0	11.01
6.41248	7.10337	0	11.01
6.41248	7.10337	0.0552792	11.01
6.41259	7.13101	0.0276396	11.01
6.46573	7.15865	0	11.01
6.46688	7.15865	0	11.01
6.46692	7.17247	0.0276396	11.01
6.51617	7.20011	0	11.01
6.51654	7.20011	0	11.01
6.51658	7.21393	0.0276396	11.01
6.53022	7.24157	0	11.01
6.53077	7.24157	0	11.01
6.53255	7.24157	0.0276396	11.01
6.53255	7.25539	0.0552792	11.01
6.53265	7.28303	0.0276396	11.01
6.55722	7.31067	0	11.01
6.55905	7.31067	0	11.101
6.55927	7.31067	0	11.101
6.5593	7.31067	0.0552792	11.101
6.55931	7.33831	0.0276396	11.101
6.59672	7.36595	0	11.101
6.63207	7.36595	0	11.101
6.63316	7.36595	0	11.101
6.63319	7.37977	0.0276396	11.101
6.64426	7.40741	0	11.101
6.64438	7.40741	0	11.101
6.64444	7.42123	0.0276396	11.101
6.67264	7.44887	0	11.101
6.67286	7.44887	0	11.101
6.67288	7.46269	0.0276396	11.101
6.68754	7.49033	0	11.101
6.71176	7.49033	0	11.192
6.71187	7.49033	0	11.192
6.71188	7.50415	0.0276396	11.192
6.7673	7.53179	0	11.192
6.84865	7.53179	0	11.374
6.84888	7.53179	0	11.374
6.851	7.53179	0.0276396	11.374
6.85118	7.53179	0.0552792	11.374
6.85282	7.53179	0.0829187	11.374
6.85306	7.53179	0.110558	11.374
6.85306	7.54561	0.138198	11.374
6.85308	7.57324	0.110558	11.374
6.85313	7.60088	0.0829187	11.374
6.85314	7.62852	0.0552792	11.374
6.85315	7.65616	0.0276396	11.374
6.85441	7.6838	0	11.374
6.85486	7.6838	0	11.556
6.8767	7.6838	0	11.647
6.88644	7.6838	0	11.7379
6.8876	7.6838	0	11.7379
6.88761	7.69762	0.0276396	11.7379
6.89575	7.72526	0	11.7379
6.92997	7.72526	0	11.8289
6.93033	7.72526	0	11.8289
6.9304	7.72526	0.0276396	11.8289
6.93042	7.73908	0.0552792	11.8289
6.93055	7.76672	0.0276396	11.8289
6.95488	7.79436	0	11.8289
6.95505	7.79436	0	11.8289
6.95509	7.79436	0.0552792	11.8289
6.95515	7.822	0.0276396	11.8289
6.96611	7.84964	0	11.8289
6.96938	7.84964	0	11.9199
6.97285	7.84964	0	12.0109
6.97318	7.84964	0	12.0109
6.97335	7.86346	0.0276396	12.0109
7.11803	7.8911	0	12.0109
7.1181	7.8911	0	12.0109
7.11811	7.90492	0.0276396	12.0109
7.13653	7.93256	0	12.0109
7.13664	7.93256	0	12.0109
7.13668	7.93256	0.0552792	12.0109
7.13669	7.9602	0.0276396	12.0109
7.15486	7.98784	0	12.0109
7.15993	7.98784	0	12.1929
7.15996	7.98784	0	12.1929
7.16004	8.00166	0.0276396	12.1929
7.19676	8.0293	0	12.1929
7.19688	8.0293	0	12.1929
7.19696	8.0293	0.0552792	12.1929
7.19705	8.05694	0.0276396	12.1929
7.21847	8.08458	0	12.1929
7.24873	8.08458	0	12.2839
7.25606	8.08458	0	12.4659
7.29581	8.08458	0	12.6479
7.33954	8.08458	0	12.8298
7.34018	8.08458	0	12.8298
7.34022	8.0984	0.0276396	12.8298
7.36921	8.12604	0	12.8298
7.37129	8.12604	0	12.8298
7.37135	8.13986	0.0276396	12.8298
7.39238	8.1675	0	12.8298
7.39252	8.1675	0	12.8298
7.39291	8.1675	0.0276396	12.8298
7.39297	8.18132	0.0552792	12.8298
7.39298	8.20896	0.0276396	12.8298
7.42775	8.23659	0	12.8298
7.428	8.23659	0	12.8298
7.428	8.23659	0.0552792	12.8298
7.42804	8.26423	0.0276396	12.8298
7.4722	8.29187	0	12.8298
7.47235	8.29187	0	12.8298
7.47241	8.30569	0.0276396	12.8298
7.49408	8.33333	0	12.8298
7.49451	8.33333	0	12.8298
7.4949	8.33333	0.0276396	12.8298
7.49492	8.33333	0.0829187	12.8298
7.49493	8.36097	0.0552792	12.8298
7.49497	8.38861	0.0276396	12.8298
7.51115	8.41625	0	12.8298
7.51214	8.41625	0	12.8298
7.51221	8.43007	0.0276396	12.8298
7.51639	8.45771	0	12.8298
7.52472	8.45771	0	12.8298
7.52486	8.45771	0	12.8298
7.52492	8.47153	0.0276396	12.8298
7.56283	8.49917	0	12.8298
7.5719	8.49917	0	12.8298
7.5806	8.49917	0	13.0118
7.58078	8.49917	0	13.0118
7.58083	8.51299	0.0276396	13.0118
7.5815	8.54063	0	13.0118
7.58215	8.54063	0	13.0118
7.58215	8.55445	0.0276396	13.0118
7.58217	8.58209	0	13.0118
7.64235	8.58209	0	13.0118
7.66063	8.58209	0	13.1938
7.67809	8.58209	0	13.2848
7.67809	8.58209	0	13.2848
7.67811	8.59591	0.0276396	13.2848
7.70112	8.62355	0	13.2848
7.74519	8.62355	0	13.3758
7.75907	8.62355	0	13.5578
7.75925	8.62355	0	13.5578
7.75931	8.63737	0.0276396	13.5578
7.84756	8.66501	0	13.5578
7.84838	8.66501	0	13.5578
7.84843	8.67883	0.0276396	13.5578
7.89264	8.70647	0	13.5578
7.89287	8.70647	0	13.5578
7.8929	8.72029	0.0276396	13.5578
7.96858	8.74793	0	13.5578
8.01857	8.74793	0	13.7398
8.01939	8.74793	0	13.7398
8.02047	8.74793	0.0276396	13.7398
8.0205	8.76175	0.0552792	13.7398
8.02062	8.78939	0.0276396	13.7398
8.15112	8.81703	0	13.7398
8.15175	8.81703	0	13.7398
8.15195	8.81703	0.0276396	13.7398
8.152	8.83085	0.0552792	13.7398
8.15205	8.85849	0.0276396	13.7398
8.17364	8.88612	0	13.7398
8.17451	8.88612	0	13.7398
8.17462	8.88612	0.0276396	13.7398
8.17462	8.89994	0.0552792	13.7398
8.17477	8.92758	0.0276396	13.7398
8.19385	8.95522	0	13.7398
8.25072	8.95522	0	13.9217
8.25091	8.95522	0	13.9217
8.25093	8.96904	0.0276396	13.9217
8.27166	8.99668	0	13.9217
8.27175	8.99668	0	13.9217
8.27184	9.0105	0.0276396	13.9217
8.44463	9.03814	0	13.9217
8.50599	9.03814	0	14.1037
8.50765	9.03814	0	14.1037
8.50766	9.03814	0.0552792	14.1037
8.50772	9.06578	0.0276396	14.1037
8.50773	9.09342	0	14.1037
8.53294	9.09342	0	14.1037
8.59209	9.09342	0	14.2857
8.59247	9.09342	0	14.2857
8.59249	9.10724	0.0276396	14.2857
8.59504	9.13488	0	14.2857
8.65486	9.13488	0	14.4677
8.68029	9.13488	0	14.6497
8.70397	9.13488	0	14.7407
8.70484	9.13488	0	14.7407
8.70489	9.1487	0.0276396	14.7407
8.70841	9.17634	0	14.7407
8.73057	9.17634	0	14.9227
8.73067	9.17634	0	14.9227
8.73068	9.17634	0.0552792	14.9227
8.73075	9.20398	0.0276396	14.9227
8.73202	9.23162	0	14.9227
8.73298	9.23162	0	14.9227
8.73302	9.24544	0.0276396	14.9227
8.80765	9.27308	0	14.9227
8.80779	9.27308	0	14.9227
8.84077	9.27308	0.0276396	14.9227
8.84079	9.27308	0.0276396	14.9227
8.84081	9.2869	0.0552792	14.9227
8.84083	9.2869	0.0552792	14.9227
8.84086	9.31454	0.0276396	14.9227
8.84096	9.31454	0.0276396	14.9227
8.84286	9.34218	0	14.9227
8.87875	9.34218	0	15.1046
8.87903	9.34218	0	15.1046
8.87905	9.356	0.0276396	15.1046
8.93702	9.38364	0	15.1046
8.93713	9.38364	0	15.1046
8.93715	9.38364	0.0552792	15.1046
8.93715	9.41128	0.0276396	15.1046
8.94011	9.43892	0	15.1046
8.94061	9.43892	0	15.1046
8.94062	9.43892	0.0276396	15.1046
8.94067	9.45274	0.0552792	15.1046
8.94067	9.48038	0.0276396	15.1046
9.06615	9.50802	0	15.1046
9.09486	9.50802	0	15.1956
9.09516	9.50802	0	15.1956
9.0952	9.52184	0.0276396	15.1956
9.09596	9.54947	0	15.1956
9.16025	9.54947	0	15.3776
9.16065	9.54947	0	15.3776
9.16165	9.54947	0.0276396	15.3776
9.16169	9.56329	0.0552792	15.3776
9.16173	9.59093	0.0276396	15.3776
9.20655	9.61857	0	15.3776
9.20849	9.61857	0	15.3776
9.20856	9.61857	0.0276396	15.3776
9.20858	9.61857	0.0552792	15.3776
9.21463	9.61857	0.0829187	15.3776
9.21687	9.61857	0.0829187	15.4686
9.27386	9.61857	0.0829187	15.6506
9.2739	9.61857	0.0829187	15.6506
9.27393	9.64621	0.0552792	15.6506
9.27394	9.67385	0.0276396	15.6506
9.27404	9.70149	0	15.6506
9.27415	9.70149	0.0276396	15.6506
9.27416	9.71531	0.0552792	15.6506
9.2742	9.74295	0.0276396	15.6506
9.48976	9.77059	0	15.6506
9.49097	9.77059	0	15.6506
9.49098	9.78441	0.0276396	15.6506
9.50466	9.81205	0	15.6506
9.50475	9.81205	0	15.6506
9.50476	9.81205	0.0552792	15.6506
9.50491	9.83969	0.0276396	15.6506
9.65377	9.86733	0	15.6506
9.65441	9.86733	0	15.6506
9.65464	9.88115	0.0276396	15.6506
9.6953	9.90879	0	15.6506
9.69599	9.90879	0	15.6506
9.69611	9.92261	0.0276396	15.6506
9.73104	9.95025	0	15.6506
9.73247	9.95025	0	15.6506
9.73248	9.96407	0.0276396	15.6506
9.73674	9.99171	0	15.6506
9.73796	9.99171	0	15.6506
9.73862	9.99171	0.0276396	15.6506
9.73914	9.99171	0.0552792	15.6506
9.73915	10.0055	0.0829187	15.6506
9.73918	10.0332	0.0552792	15.6506
9.73929	10.0608	0.0276396	15.6506
9.76026	10.0884	0	15.6506
9.76218	10.0884	0	15.8326
9.76271	10.0884	0	15.8326
9.76275	10.1023	0.0276396	15.8326
9.76596	10.1299	0	15.8326
9.76801	10.1299	0	15.8326
9.76806	10.1299	0.0552792	15.8326
9.76807	10.1575	0.0276396	15.8326
9.80199	10.1852	0	15.8326
9.80206	10.1852	0	15.8326
9.8021	10.199	0.0276396	15.8326
10.0097	10.2266	0	15.8326
10.0109	10.2266	0	15.8326
10.0109	10.2266	0.0552792	15.8326
10.011	10.2543	0.0276396	15.8326
10.0201	10.2819	0	15.8326
10.0208	10.2819	0	15.8326
10.0208	10.2819	0.0552792	15.8326
10.0208	10.3096	0.0276396	15.8326
10.0309	10.3372	0	15.8326
10.1107	10.3372	0	16.0146
10.1107	10.3372	0	16.0146
10.1107	10.351	0.0276396	16.0146
10.3207	10.3787	0	16.0146
10.321	10.3787	0	16.0146
10.321	10.3925	0.0276396	16.0146
10.3624	10.4201	0	16.0146
10.3626	10.4201	0	16.0146
10.3627	10.4201	0.0552792	16.0146
10.3627	10.4478	0.0276396	16.0146
10.3984	10.4754	0	16.0146
10.3986	10.4754	0	16.0146
10.3987	10.4892	0.0276396	16.0146
10.4379	10.5169	0	16.0146
10.4389	10.5169	0	16.0146
10.4389	10.5169	0.0276396	16.0146
10.4766	10.5445	0	16.0146
10.4768	10.5445	0	16.0146
10.4768	10.5445	0.0552792	16.0146
10.4768	10.5721	0.0276396	16.0146
10.4877	10.5998	0	16.0146
10.4972	10.5998	0	16.1056
10.7691	10.5998	0	16.2875
10.7949	10.5998	0	16.3785
10.8467	10.5998	0	16.5605
10.8468	10.5998	0	16.5605
10.8468	10.6136	0.0276396	16.5605
10.8618	10.6412	0	16.5605
10.8624	10.6412	0	16.5605
10.8624	10.6551	0.0276396	16.5605
10.9221	10.6827	0	16.5605
10.9221	10.6827	0	16.5605
10.9222	10.6965	0.0276396	16.5605
11.0337	10.7242	0	16.5605
11.0349	10.7242	0	16.5605
11.035	10.738	0.0276396	16.5605
11.0932	10.7656	0	16.5605
11.1906	10.7656	0	16.7425
11.1909	10.7656	0	16.7425
11.1909	10.7794	0.0276396	16.7425
11.2022	10.8071	0	16.7425
11.2023	10.8071	0	16.7425
11.2024	10.8209	0.0276396	16.7425
11.3545	10.8485	0	16.7425
11.3546	10.8485	0	16.7425
11.3546	10.8485	0.0552792	16.7425
11.3547	10.8762	0.0276396	16.7425
11.377	10.9038	0	16.7425
11.3934	10.9038	0	16.9245
11.3938	10.9038	0	16.9245
11.3938	10.9176	0.0276396	16.9245
11.4137	10.9453	0	16.9245
11.4139	10.9453	0	16.9245
11.414	10.9591	0.0276396	16.9245
11.5017	10.9867	0	16.9245
11.504	10.9867	0	16.9245
11.504	10.9867	0.0552792	16.9245
11.5041	11.0144	0.0276396	16.9245
11.6532	11.042	0	16.9245
11.686	11.042	0	17.1065
11.7044	11.042	0	17.1975
11.7128	11.042	0	17.3794
11.8036	11.042	0	17.5614
11.8041	11.042	0	17.5614
11.8042	11.0558	0.0276396	17.5614
12.0912	11.0835	0	17.5614
12.0914	11.0835	0	17.5614
12.0914	11.0973	0.0276396	17.5614
12.1949	11.1249	0	17.5614
12.2039	11.1249	0	17.7434
12.2047	11.1249	0	17.7434
12.2047	11.1249	0.0552792	17.7434
12.2048	11.1526	0.0276396	17.7434
12.376	11.1802	0	17.7434
12.376	11.1802	0	17.7434
12.3761	11.194	0.0276396	17.7434
12.4304	11.2217	0	17.7434
12.4307	11.2217	0	17.7434
12.4307	11.2355	0.0276396	17.7434
12.6072	11.2631	0	17.7434
12.6074	11.2631	0	17.7434
12.6074	11.2769	0.0276396	17.7434
12.6639	11.3046	0	17.7434
12.6644	11.3046	0	17.7434
12.6644	11.3184	0.0276396	17.7434
12.8028	11.346	0	17.7434
12.8981	11.346	0	17.9254
12.8988	11.346	0	17.9254
12.8989	11.3599	0.0276396	17.9254
13.1921	11.3875	0	17.9254
13.2841	11.3875	0	18.1074
13.2846	11.3875	0	18.1074
13.2853	11.3875	0.0276396	18.1074
13.2854	11.4013	0.0552792	18.1074
13.2854	11.429	0.0276396	18.1074
13.3084	11.4566	0	18.1074
13.3087	11.4566	0	18.1074
13.3088	11.4566	0.0552792	18.1074
13.3088	11.4842	0.0276396	18.1074
13.3872	11.5119	0	18.1074
13.3885	11.5119	0	18.1074
13.3885	11.5119	0.0552792	18.1074
13.3885	11.5395	0.0276396	18.1074
13.4326	11.5672	0	18.1074
13.4329	11.5672	0	18.1074
13.4329	11.5672	0.0552792	18.1074
13.433	11.5948	0.0276396	18.1074
13.5018	11.6224	0	18.1074
13.5024	11.6224	0	18.1074
13.5024	11.6363	0.0276396	18.1074
13.5125	11.6639	0	18.1074
13.5127	11.6639	0	18.1074
13.763	11.6639	0.0276396	18.1074
13.763	11.6639	0.0276396	18.1074
13.7631	11.6915	0	18.1074
13.7632	11.6915	0.0552792	18.1074
13.7632	11.7192	0.0276396	18.1074
13.8115	11.7468	0	18.1074
13.812	11.7468	0	18.1074
13.812	11.7606	0.0276396	18.1074
13.8605	11.7883	0	18.1074
13.8606	11.7883	0	18.1074
13.8607	11.8021	0.0276396	18.1074
14.0343	11.8297	0	18.1074
14.0351	11.8297	0	18.1074
14.0351	11.8297	0.0552792	18.1074
14.0351	11.8574	0.0276396	18.1074
14.1238	11.885	0	18.1074
14.248	11.885	0	18.2894
14.2806	11.885	0	18.3803
14.2815	11.885	0	18.3803
14.2815	11.8988	0.0276396	18.3803
14.3462	11.9265	0	18.3803
14.3463	11.9265	0	18.3803
14.3464	11.9403	0.0276396	18.3803
14.3927	11.9679	0	18.3803
14.4128	11.9679	0	18.5623
14.413	11.9679	0	18.5623
14.413	11.9679	0.0552792	18.5623
14.4131	11.9956	0.0276396	18.5623
14.4395	12.0232	0	18.5623
14.4399	12.0232	0	18.5623
14.6791	12.0232	0.0276396	18.5623
14.6791	12.0232	0.0276396	18.5623
14.6795	12.0509	0	18.5623
14.6796	12.0647	0.0276396	18.5623
14.6835	12.0923	0	18.5623
14.684	12.0923	0	18.5623
14.6841	12.1061	0.0276396	18.5623
14.6841	12.1061	0.0276396	18.5623
14.8317	12.1338	0	18.5623
14.8324	12.1338	0	18.5623
14.8324	12.1338	0.0552792	18.5623
14.8325	12.1614	0.0276396	18.5623
14.8869	12.1891	0	18.5623
14.8869	12.1891	0	18.5623
14.8869	12.2029	0.0276396	18.5623
14.9037	12.2305	0	18.5623
15.0781	12.2305	0	18.7443
15.0791	12.2305	0	18.7443
15.1341	12.2305	0.0276396	18.7443
15.1341	12.2305	0.0276396	18.7443
15.1341	12.2305	0.0276396	18.7443
15.1345	12.2582	0	18.7443
15.1346	12.272	0.0276396	18.7443
15.1486	12.2996	0	18.7443
15.149	12.2996	0	18.7443
15.1491	12.3134	0.0276396	18.7443
15.2328	12.3411	0	18.7443
15.233	12.3411	0	18.7443
15.2342	12.3411	0.0276396	18.7443
15.2342	12.3549	0.0552792	18.7443
15.2342	12.3825	0.0276396	18.7443
15.2853	12.4102	0	18.7443
15.2855	12.4102	0	18.7443
15.2855	12.424	0.0276396	18.7443
15.296	12.4516	0	18.7443
15.3258	12.4516	0	18.8353
15.326	12.4516	0	18.8353
15.4699	12.4516	0.0276396	18.8353
15.4699	12.4516	0.0276396	18.8353
15.4709	12.4793	0	18.8353
15.4709	12.4793	0.0552792	18.8353
15.471	12.5069	0.0276396	18.8353
15.5017	12.5345	0	18.8353
15.5437	12.5345	0	18.9263
15.5445	12.5345	0	18.9263
15.5446	12.5345	0.0276396	18.9263
15.5446	12.5345	0.0552792	18.9263
15.5447	12.5345	0.0829187	18.9263
15.545	12.5345	0.110558	18.9263
15.5458	12.5345	0.138198	18.9263
15.5463	12.5345	0.165837	18.9263
15.5468	12.5345	0.193477	18.9263
15.5468	12.5345	0.248756	18.9263
15.5468	12.5622	0.221117	18.9263
15.5468	12.5898	0.193477	18.9263
15.5468	12.6175	0.165837	18.9263
15.5468	12.6451	0.138198	18.9263
15.5468	12.6727	0.110558	18.9263
15.5469	12.7004	0.0829187	18.9263
15.5469	12.728	0.0552792	18.9263
15.5469	12.7557	0.0276396	18.9263
15.5495	12.7833	0	18.9263
15.5496	12.7833	0	18.9263
15.5496	12.7971	0.0276396	18.9263
15.6164	12.8248	0	18.9263
15.6174	12.8248	0	18.9263
15.6176	12.8386	0.0276396	18.9263
15.6501	12.8662	0	18.9263
15.6508	12.8662	0	18.9263
15.6509	12.8662	0.0276396	18.9263
15.6509	12.8662	0.0552792	18.9263
15.6514	12.8662	0.0829187	18.9263
15.6514	12.8662	0.138198	18.9263
15.6514	12.8939	0.110558	18.9263
15.6514	12.9215	0.0829187	18.9263
15.6515	12.9491	0.0552792	18.9263
15.6515	12.9768	0.0276396	18.9263
15.7305	13.0044	0	18.9263
15.7315	13.0044	0	18.9263
15.7315	13.0182	0.0276396	18.9263
15.773	13.0459	0	18.9263
15.7739	13.0459	0	18.9263
15.7739	13.0597	0.0276396	18.9263
15.7766	13.0873	0	18.9263
15.7773	13.0873	0	18.9263
15.7773	13.0873	0.0552792	18.9263
15.7773	13.115	0.0276396	18.9263
16.0858	13.1426	0	18.9263
16.0868	13.1426	0	18.9263
16.0868	13.1564	0.0276396	18.9263
16.7208	13.1841	0	18.9263
16.7208	13.1841	0	18.9263
16.7208	13.1979	0.0276396	18.9263
16.93	13.2255	0	18.9263
17.0786	13.2255	0	19.1083
17.0787	13.2255	0	19.1083
17.0788	13.2255	0.0552792	19.1083
17.0788	13.2532	0.0276396	19.1083
17.1609	13.2808	0	19.1083
17.1615	13.2808	0	19.1083
17.1616	13.2808	0.0552792	19.1083
17.1616	13.3085	0.0276396	19.1083
17.2074	13.3361	0	19.1083
17.2079	13.3361	0	19.1083
17.2079	13.3499	0.0276396	19.1083
17.382	13.3776	0	19.1083
17.3962	13.3776	0	19.2903
17.3968	13.3776	0	19.2903
17.3968	13.3914	0.0276396	19.2903
17.5478	13.419	0	19.2903
17.5479	13.419	0	19.2903
17.5479	13.419	0.0276396	19.2903
17.5481	13.419	0.0552792	19.2903
17.5482	13.419	0.0829187	19.2903
17.5485	13.419	0.110558	19.2903
17.5489	13.419	0.138198	19.2903
17.5492	13.419	0.165837	19.2903
17.5497	13.419	0.193477	19.2903
17.5499	13.419	0.221117	19.2903
17.55	13.419	0.248756	19.2903
17.55	13.4467	0.221117	19.2903
17.5501	13.4467	0.248756	19.2903
17.9012	13.4743	0.221117	19.2903
17.9012	13.4743	0.221117	19.2903
17.9012	13.5019	0.193477	19.2903
17.9012	13.5296	0.165837	19.2903
17.9012	13.5572	0.138198	19.2903
17.9013	13.5849	0.110558	19.2903
17.9013	13.6125	0.0829187	19.2903
17.9014	13.6401	0.0552792	19.2903
17.9014	13.6678	0.0276396	19.2903
17.9015	13.6954	0	19.2903
17.9015	13.7092	0.0276396	19.2903
17.9979	13.7369	0	19.2903
17.998	13.7369	0	19.2903
17.998	13.7369	0.0552792	19.2903
17.998	13.7645	0.0276396	19.2903
18.2364	13.7922	0	19.2903
18.5039	13.7922	0	19.4722
18.5041	13.7922	0	19.4722
18.5043	13.806	0.0276396	19.4722
18.5575	13.8336	0	19.4722
18.5575	13.8336	0	19.4722
18.5576	13.8474	0.0276396	19.4722
19.0529	13.8751	0	19.4722
19.0543	13.8751	0	19.4722
19.0544	13.8889	0.0276396	19.4722
19.2103	13.9165	0	19.4722
19.2103	13.9165	0	19.4722
19.2104	13.9303	0.0276396	19.4722
19.2732	13.958	0	19.4722
19.2754	13.958	0	19.4722
19.2754	13.958	0.0552792	19.4722
19.2755	13.9856	0.0276396	19.4722
19.4146	14.0133	0	19.4722
19.4147	14.0133	0	19.4722
19.4889	14.0133	0.0276396	19.4722
19.489	14.0133	0.0276396	19.4722
19.489	14.0409	0	19.4722
19.4892	14.0409	0	19.4722
19.4892	14.0409	0.0552792	19.4722
19.4893	14.0685	0.0276396	19.4722
19.5664	14.0962	0	19.4722
19.5668	14.0962	0	19.4722
19.5668	14.11	0.0276396	19.4722
19.5668	14.1376	0	19.4722
19.6751	14.1376	0	19.4722
19.6766	14.1376	0	19.4722
19.6766	14.1376	0.0552792	19.4722
19.6766	14.1653	0.0276396	19.4722
19.6932	14.1929	0	19.4722
19.6941	14.1929	0	19.4722
19.6945	14.1929	0.0276396	19.4722
19.6945	14.2067	0.0552792	19.4722
19.6945	14.2344	0.0276396	19.4722
19.9332	14.262	0	19.4722
19.9344	14.262	0	19.4722
19.9344	14.262	0.0552792	19.4722
19.9345	14.2897	0.0276396	19.4722
19.9772	14.3173	0	19.4722
19.9772	14.3173	0	19.4722
19.9774	14.3311	0.0276396	19.4722
20.2365	14.3588	0	19.4722
20.2365	14.3588	0	19.4722
20.2368	14.3588	0.0276396	19.4722
20.2368	14.3726	0.0552792	19.4722
20.2368	14.4002	0.0276396	19.4722
20.2514	14.4279	0	19.4722
20.2523	14.4279	0	19.4722
20.2523	14.4279	0.0552792	19.4722
20.2524	14.4555	0.0276396	19.4722
20.4127	14.4831	0	19.4722
20.4128	14.4831	0	19.4722
20.4128	14.497	0.0276396	19.4722
20.4476	14.5246	0	19.4722
20.4478	14.5246	0	19.4722
20.4481	14.5246	0.0276396	19.4722
20.4481	14.5384	0.0552792	19.4722
20.4483	14.5661	0.0276396	19.4722
20.6191	14.5937	0	19.4722
20.6213	14.5937	0	19.4722
20.6221	14.5937	0.0276396	19.4722
20.623	14.5937	0.0552792	19.4722
20.6236	14.5937	0.0829187	19.4722
20.6236	14.5937	0.110558	19.4722
20.6236	14.6213	0.0829187	19.4722
20.6237	14.649	0.0552792	19.4722
20.6237	14.6766	0.0276396	19.4722
20.6944	14.7043	0	19.4722
20.6944	14.7043	0	19.4722
20.6944	14.7043	0.0552792	19.4722
20.6945	14.7319	0.0276396	19.4722
20.738	14.7595	0	19.4722
20.7386	14.7595	0	19.4722
20.7386	14.7734	0.0276396	19.4722
20.7797	14.801	0	19.4722
20.78	14.801	0	19.4722
20.7801	14.801	0.0552792	19.4722
20.7801	14.8286	0.0276396	19.4722
21.0483	14.8563	0	19.4722
21.052	14.8563	0	19.4722
21.052	14.8563	0.0552792	19.4722
21.052	14.8839	0.0276396	19.4722
21.0703	14.9116	0	19.4722
21.0714	14.9116	0	19.4722
21.0715	14.9116	0.0552792	19.4722
21.0715	14.9392	0.0276396	19.4722
21.2047	14.9668	0	19.4722
21.2117	14.9668	0	19.6542
21.2119	14.9668	0	19.6542
21.2121	14.9668	0.0276396	19.6542
21.2146	14.9668	0.0552792	19.6542
21.6974	14.9668	0.0829187	19.6542
21.6974	14.9668	0.0829187	19.6542
21.6974	14.9945	0.0552792	19.6542
21.6975	15.0221	0.0276396	19.6542
21.6981	15.0498	0	19.6542
21.6981	15.0636	0.0276396	19.6542
21.7457	15.0912	0	19.6542
21.748	15.0912	0	19.6542
21.7482	15.0912	0.0276396	19.6542
21.7482	15.105	0.0552792	19.6542
21.7483	15.1327	0.0276396	19.6542
21.7936	15.1603	0	19.6542
21.7937	15.1603	0	19.6542
21.7937	15.1741	0.0276396	19.6542
21.7938	15.2018	0	19.6542
22.3034	15.2018	0	19.6542
22.3036	15.2018	0	19.6542
22.3037	15.2156	0.0276396	19.6542
22.5922	15.2432	0	19.6542
22.5924	15.2432	0	19.6542
22.5933	15.2432	0.0276396	19.6542
22.5933	15.257	0.0552792	19.6542
22.5934	15.2847	0.0276396	19.6542
22.6279	15.3123	0	19.6542
22.6285	15.3123	0	19.6542
22.6286	15.3123	0.0276396	19.6542
22.8205	15.34	0	19.6542
22.8205	15.34	0	19.6542
22.8206	15.34	0.0552792	19.6542
22.8207	15.3676	0.0276396	19.6542
23.1466	15.3952	0	19.6542
23.1703	15.3952	0	19.8362
23.1713	15.3952	0	19.8362
23.1713	15.3952	0.0552792	19.8362
23.1713	15.4229	0.0276396	19.8362
23.4356	15.4505	0	19.8362
23.4361	15.4505	0	19.8362
23.4361	15.4505	0.0552792	19.8362
23.4361	15.4782	0.0276396	19.8362
23.4426	15.5058	0	19.8362
23.4427	15.5058	0	19.8362
23.4427	15.5196	0.0276396	19.8362
23.5587	15.5473	0	19.8362
23.5589	15.5473	0	19.8362
23.5589	15.5473	0.0552792	19.8362
23.559	15.5749	0.0276396	19.8362
23.9663	15.6025	0	19.8362
23.97	15.6025	0	19.8362
23.97	15.6025	0.0552792	19.8362
23.9701	15.6302	0.0276396	19.8362
24.5762	15.6578	0	19.8362
25.1209	15.6578	0	20.0182
25.1217	15.6578	0	20.0182
25.1217	15.6578	0.0552792	20.0182
25.1218	15.6855	0.0276396	20.0182
25.2727	15.7131	0	20.0182
25.2729	15.7131	0	20.0182
25.2729	15.7131	0.0552792	20.0182
25.273	15.7407	0.0276396	20.0182
25.3226	15.7684	0	20.0182
25.3238	15.7684	0	20.0182
25.3238	15.7684	0.0552792	20.0182
25.3239	15.796	0.0276396	20.0182
25.9175	15.8237	0	20.0182
25.9183	15.8237	0	20.0182
25.9183	15.8375	0.0276396	20.0182
25.9519	15.8651	0	20.0182
25.9521	15.8651	0	20.0182
25.9521	15.8651	0.0552792	20.0182
25.9521	15.8928	0.0276396	20.0182
26.3249	15.9204	0	20.0182
26.3251	15.9204	0	20.0182
26.3252	15.9342	0.0276396	20.0182
26.5647	15.9619	0	20.0182
26.565	15.9619	0	20.0182
26.565	15.9757	0.0276396	20.0182
26.9079	16.0033	0	20.0182
26.9082	16.0033	0	20.0182
26.9082	16.0033	0.0552792	20.0182
26.9082	16.031	0.0276396	20.0182
27.6201	16.0586	0	20.0182
27.6201	16.0586	0	20.0182
27.7588	16.0586	0.0276396	20.0182
27.7588	16.0586	0.0276396	20.0182
27.7588	16.0862	0	20.0182
27.7589	16.1001	0.0276396	20.0182
27.8371	16.1277	0	20.0182
27.8372	16.1277	0	20.0182
27.8372	16.1415	0.0276396	20.0182
27.8598	16.1692	0	20.0182
27.86	16.1692	0	20.0182
27.8601	16.1692	0.0552792	20.0182
27.8601	16.1968	0.0276396	20.0182
28.6972	16.2244	0	20.0182
28.6977	16.2244	0	20.0182
28.6977	16.2383	0.0276396	20.0182
28.7571	16.2659	0	20.0182
28.7571	16.2659	0	20.0182
28.7571	16.2659	0.0552792	20.0182
28.7573	16.2935	0.0276396	20.0182
28.8312	16.3212	0	20.0182
28.8313	16.3212	0	20.0182
28.8313	16.3212	0.0552792	20.0182
28.8313	16.3488	0.0276396	20.0182
28.9729	16.3765	0	20.0182
28.9734	16.3765	0	20.0182
28.9735	16.3903	0.0276396	20.0182
29.0717	16.4179	0	20.0182
29.0727	16.4179	0	20.0182
29.0727	16.4317	0.0276396	20.0182
29.4949	16.4594	0	20.0182
29.4955	16.4594	0	20.0182
29.4955	16.4594	0.0552792	20.0182
29.4956	16.487	0.0276396	20.0182
29.9157	16.5146	0	20.0182
29.9162	16.5146	0	20.0182
29.9162	16.5146	0.0552792	20.0182
29.9162	16.5423	0.0276396	20.0182
29.9477	16.5699	0	20.0182
29.9478	16.5699	0	20.0182
29.9479	16.5699	0.0276396	20.0182
29.9479	16.5837	0.0552792	20.0182
29.9479	16.6114	0.0276396	20.0182
30.0445	16.639	0	20.0182
30.045	16.639	0	20.0182
30.045	16.639	0.0552792	20.0182
30.045	16.6667	0.0276396	20.0182
30.2307	16.6943	0	20.0182
30.2309	16.6943	0	20.0182
30.231	16.6943	0.0552792	20.0182
30.231	16.7219	0.0276396	20.0182
30.4159	16.7496	0	20.0182
30.4173	16.7496	0	20.0182
30.4174	16.7496	0.0552792	20.0182
30.4174	16.7772	0.0276396	20.0182
31.0162	16.8049	0	20.0182
31.017	16.8049	0	20.0182
31.017	16.8049	0.0552792	20.0182
31.017	16.8325	0.0276396	20.0182
31.7351	16.8601	0	20.0182
31.7354	16.8601	0	20.0182
31.7354	16.874	0.0276396	20.0182
31.7561	16.9016	0	20.0182
31.7562	16.9016	0	20.0182
31.7563	16.9154	0.0276396	20.0182
31.9991	16.9431	0	20.0182
31.9996	16.9431	0	20.0182
31.9996	16.9569	0.0276396	20.0182
32.2405	16.9845	0	20.0182
32.2419	16.9845	0	20.0182
32.242	16.9983	0.0276396	20.0182
33.0196	17.026	0	20.0182
33.02	17.026	0	20.0182
33.02	17.0398	0.0276396	20.0182
33.2111	17.0674	0	20.0182
33.2111	17.0674	0	20.0182
33.2112	17.0674	0.0552792	20.0182
33.2112	17.0951	0.0276396	20.0182
33.2512	17.1227	0	20.0182
33.2545	17.1227	0	20.0182
33.2547	17.1227	0.0276396	20.0182
33.2547	17.1365	0.0552792	20.0182
33.2548	17.1642	0.0276396	20.0182
33.5035	17.1918	0	20.0182
33.5058	17.1918	0	20.0182
33.5059	17.1918	0.0276396	20.0182
33.5065	17.1918	0.0552792	20.0182
33.5065	17.2056	0.0829187	20.0182
33.5065	17.2333	0.0552792	20.0182
33.5065	17.2609	0.0276396	20.0182
33.9616	17.2886	0	20.0182
34.3667	17.2886	0	20.2002
34.3681	17.2886	0	20.2002
34.3682	17.2886	0.0552792	20.2002
34.3682	17.3162	0.0276396	20.2002
34.6511	17.3438	0	20.2002
34.6514	17.3438	0	20.2002
34.6517	17.3438	0.0276396	20.2002
34.6521	17.3438	0.0552792	20.2002
34.6521	17.3438	0.0829187	20.2002
34.6528	17.3438	0.110558	20.2002
34.6538	17.3438	0.138198	20.2002
34.6546	17.3438	0.165837	20.2002
34.6546	17.3577	0.193477	20.2002
34.6546	17.3853	0.165837	20.2002
34.6546	17.4129	0.138198	20.2002
34.6547	17.4406	0.110558	20.2002
34.6547	17.4682	0.0829187	20.2002
34.6548	17.4959	0.0552792	20.2002
34.6548	17.5235	0.0276396	20.2002
34.8794	17.5511	0	20.2002
34.8795	17.5511	0	20.2002
34.8795	17.5511	0.0276396	20.2002
34.8796	17.565	0.0552792	20.2002
34.8796	17.5926	0.0276396	20.2002
35.4324	17.6202	0	20.2002
35.4333	17.6202	0	20.2002
35.4333	17.6202	0.0552792	20.2002
35.4333	17.6479	0.0276396	20.2002
35.5177	17.6755	0	20.2002
35.5181	17.6755	0	20.2002
35.5185	17.6755	0.0276396	20.2002
35.5186	17.6893	0.0552792	20.2002
35.5186	17.717	0.0276396	20.2002
35.8458	17.7446	0	20.2002
35.8463	17.7446	0	20.2002
35.8463	17.7584	0.0276396	20.2002
36.3122	17.7861	0	20.2002
36.3123	17.7861	0	20.2002
36.3123	17.7861	0.0276396	20.2002
36.3123	17.7999	0.0552792	20.2002
36.3123	17.8275	0.0276396	20.2002
38.3205	17.8552	0	20.2002
38.3206	17.8552	0	20.2002
38.3206	17.8552	0.0552792	20.2002
38.3207	17.8828	0.0276396	20.2002
38.7955	17.9104	0	20.2002
38.7959	17.9104	0	20.2002
38.7959	17.9243	0.0276396	20.2002
39.1709	17.9519	0	20.2002
39.1711	17.9519	0	20.2002
39.1713	17.9657	0.0276396	20.2002
39.4288	17.9934	0	20.2002
39.4293	17.9934	0	20.2002
43.4093	17.9934	0.0276396	20.2002
43.4093	17.9934	0.0276396	20.2002
43.4094	18.021	0	20.2002
43.4094	18.021	0.0552792	20.2002
43.4095	18.0486	0.0276396	20.2002
45.2726	18.0763	0	20.2002
45.2727	18.0763	0	20.2002
45.3104	18.0763	0.0276396	20.2002
45.3104	18.0763	0.0276396	20.2002
45.3105	18.0763	0.0829187	20.2002
45.3105	18.1039	0.0552792	20.2002
45.3105	18.1316	0.0276396	20.2002
46.0937	18.1592	0	20.2002
46.0938	18.1592	0	20.2002
46.094	18.173	0.0276396	20.2002
47.5136	18.2007	0	20.2002
47.5137	18.2007	0	20.2002
47.5138	18.2007	0.0552792	20.2002
47.5139	18.2283	0.0276396	20.2002
48.8059	18.2559	0	20.2002
48.8079	18.2559	0	20.2002
48.8081	18.2698	0.0276396	20.2002
50.7821	18.2974	0	20.2002
50.7833	18.2974	0	20.2002
50.7834	18.3112	0.0276396	20.2002
54.212	18.3389	0	20.2002
54.2133	18.3389	0	20.2002
54.2133	18.3389	0.0552792	20.2002
54.2133	18.3665	0.0276396	20.2002
58.6356	18.3941	0	20.2002
58.6362	18.3941	0	20.2002
58.6363	18.3941	0.0552792	20.2002
58.6363	18.4218	0.0276396	20.2002
58.8651	18.4494	0	20.2002
58.8652	18.4494	0	20.2002
58.8652	18.4632	0.0276396	20.2002
61.522	18.4909	0	20.2002
61.5246	18.4909	0	20.2002
61.5246	18.4909	0.0552792	20.2002
61.5246	18.5185	0.0276396	20.2002
63.7251	18.5462	0	20.2002
63.7255	18.5462	0	20.2002
63.7255	18.5462	0.0552792	20.2002
63.7256	18.5738	0.0276396	20.2002
65.1629	18.6014	0	20.2002
65.164	18.6014	0	20.2002
65.164	18.6014	0.0552792	20.2002
65.1641	18.6291	0.0276396	20.2002
75.1249	18.6567	0	20.2002
75.1252	18.6567	0	20.2002
79.3336	18.6567	0.0276396	20.2002
79.3336	18.6567	0.0276396	20.2002
79.3343	18.6844	0	20.2002
79.3343	18.6844	0.0552792	20.2002
79.3343	18.712	0.0276396	20.2002
79.5512	18.7396	0	20.2002
79.5514	18.7396	0	20.2002
79.5514	18.7396	0.0552792	20.2002
79.5514	18.7673	0.0276396	20.2002
83.2219	18.7949	0	20.2002
83.2233	18.7949	0	20.2002
83.2233	18.7949	0.0552792	20.2002
83.2233	18.8226	0.0276396	20.2002
89.4609	18.8502	0	20.2002
89.4626	18.8502	0	20.2002
89.4627	18.8502	0.0552792	20.2002
89.4627	18.8778	0.0276396	20.2002
