3.57124e-10	0	0	0
9.80398e-10	0	0	0
1.02318e-09	0	0	0
1.24316e-09	0	0	0
1.58763e-09	0	0	0
1.93252e-09	0	0	0
1.9376e-09	0	0	0
2.6908e-09	0	0	0
2.77563e-09	0	0	0
3.49035e-09	0	0	0
4.18802e-09	0	0	0
5.55001e-09	0	0	0
7.03417e-09	0	0	0
7.55191e-09	0	0	0
7.64458e-09	0	0	0
8.67931e-09	0	0	0
8.84546e-09	0	0	0
9.18795e-09	0	0	0
9.29566e-09	0	0	0
1.04544e-08	0	0	0
1.05077e-08	0	0	0
1.1025e-08	0	0	0
1.26065e-08	0	0	0
1.42742e-08	0	0	0
1.45458e-08	0	0	0
1.54134e-08	0	0	0
1.56341e-08	0	0	0
1.59519e-08	0	0	0
1.64103e-08	0	0	0
1.81683e-08	0	0	0
1.89889e-08	0	0	0
1.98054e-08	0	0	0
2.00296e-08	0	0	0
2.07708e-08	0	0	0
2.10245e-08	0	0	0
2.15709e-08	0	0	0
2.25219e-08	0	0	0
2.26699e-08	0	0	0
2.31148e-08	0	0	0
2.35056e-08	0	0	0
2.45711e-08	0	0	0
2.59594e-08	0	0	0
2.60861e-08	0	0	0
2.62489e-08	0	0	0
2.74535e-08	0	0	0
2.81095e-08	0	0	0
3.59693e-08	0	0	0
3.69994e-08	0	0	0
3.80659e-08	0	0	0
3.86702e-08	0	0	0
4.44347e-08	0	0	0
4.60681e-08	0	0	0
6.03838e-08	0	0	0
6.38323e-08	0	0	0
6.51113e-08	0	0	0
7.45853e-08	0	0	0
8.79596e-08	0	0	0
8.91243e-08	0	0	0
9.70709e-08	0	0	0
1.14344e-07	0	0	0
1.40054e-07	0	0	0
1.40549e-07	0	0	0
1.42231e-07	0	0	0
1.44215e-07	0	0	0
1.9079e-07	0	0	0
2.15471e-07	0	0	0
2.2558e-07	0	0	0
2.56444e-07	0	0	0
3.03759e-07	0	0	0
3.71359e-07	0	0	0
6.14255e-07	0	0	0
6.22307e-07	0	0	0
6.92297e-07	0	0	0
7.74858e-07	0	0	0
8.05448e-07	0	0	0
8.17624e-07	0	0	0
1.03529e-06	0	0	0
1.11794e-06	0	0	0
1.15987e-06	0	0	0
1.21716e-06	0	0	0
1.25593e-06	0	0	0
1.36259e-06	0	0	0
1.42729e-06	0	0	0
1.60201e-06	0	0	0
1.73615e-06	0	0	0
1.74175e-06	0	0	0
1.74687e-06	0	0	0
1.74747e-06	0	0	0
2.10714e-06	0	0	0
2.13444e-06	0	0	0
2.19171e-06	0	0	0
2.20523e-06	0	0	0
2.28992e-06	0	0	0
2.65431e-06	0	0	0
2.7525e-06	0	0	0
2.86015e-06	0	0	0
2.90197e-06	0	0	0
3.01193e-06	0	0	0
3.16232e-06	0	0	0
3.47549e-06	0	0	0
3.54369e-06	0	0	0
3.62703e-06	0	0	0
3.6361e-06	0	0	0
3.78238e-06	0	0	0
3.7928e-06	0	0	0
3.88158e-06	0	0	0
3.94189e-06	0	0	0
4.01175e-06	0	0	0
4.15298e-06	0	0	0
4.16749e-06	0	0	0
4.23983e-06	0	0	0
4.44419e-06	0	0	0
4.74702e-06	0	0	0
4.92885e-06	0	0	0
5.33868e-06	0	0	0
5.41889e-06	0	0	0
5.50456e-06	0	0	0
5.53936e-06	0	0	0
5.66833e-06	0	0	0
5.71403e-06	0	0	0
5.82601e-06	0	0	0
5.84459e-06	0	0	0
6.20735e-06	0	0	0
6.38337e-06	0	0	0
6.5154e-06	0	0	0
6.5582e-06	0	0	0
6.71647e-06	0	0	0
7.00239e-06	0	0	0
7.02891e-06	0	0	0
7.10372e-06	0	0	0
7.3207e-06	0	0	0
7.33099e-06	0	0	0
7.3681e-06	0	0	0
8.58937e-06	0	0	0
8.60731e-06	0	0	0
8.79588e-06	0	0	0
9.0378e-06	0	0	0
9.07308e-06	0	0	0
9.14334e-06	0	0	0
9.42767e-06	0	0	0
9.54821e-06	0	0	0
9.60472e-06	0	0	0
9.83361e-06	0	0	0
1.03105e-05	0	0	0
1.04972e-05	0	0	0
1.05091e-05	0	0	0
1.09441e-05	0	0	0
1.11888e-05	0	0	0
1.1787e-05	0	0	0
1.18191e-05	0	0	0
1.19716e-05	0	0	0
1.20708e-05	0	0	0
1.20996e-05	0	0	0
1.21495e-05	0	0	0
1.21677e-05	0	0	0
1.22856e-05	0	0	0
1.23191e-05	0	0	0
1.23201e-05	0	0	0
1.23593e-05	0	0	0
1.28247e-05	0	0	0
1.28412e-05	0	0	0
1.29666e-05	0	0	0
1.30899e-05	0	0	0
1.32234e-05	0	0	0
1.3356e-05	0	0	0
1.34059e-05	0	0	0
1.36005e-05	0	0	0
1.39612e-05	0	0	0
1.40046e-05	0	0	0
1.42548e-05	0	0	0
1.46818e-05	0	0	0
1.46919e-05	0	0	0
1.47085e-05	0	0	0
1.4804e-05	0	0	0
1.48129e-05	0	0	0
1.48407e-05	0	0	0
1.51412e-05	0	0	0
1.51941e-05	0	0	0
1.54305e-05	0	0	0
1.54385e-05	0	0	0
1.5538e-05	0	0	0
1.59881e-05	0	0	0
1.61581e-05	0	0	0
1.64933e-05	0	0	0
1.66678e-05	0	0	0
1.6951e-05	0	0	0
1.71685e-05	0	0	0
1.77432e-05	0	0	0
1.79233e-05	0	0	0
1.79305e-05	0	0	0
1.80662e-05	0	0	0
1.82496e-05	0	0	0
1.84258e-05	0	0	0
1.84554e-05	0	0	0
1.92352e-05	0	0	0
1.95755e-05	0	0	0
2.01889e-05	0	0	0
2.1488e-05	0	0	0
2.17809e-05	0	0	0
2.19961e-05	0	0	0
2.21688e-05	0	0	0
2.27844e-05	0	0	0
2.28058e-05	0	0	0
2.30489e-05	0	0	0
2.31161e-05	0	0	0
2.32031e-05	0	0	0
2.33214e-05	0	0	0
2.34317e-05	0	0	0
2.35704e-05	0	0	0
2.37892e-05	0	0	0
2.40966e-05	0	0	0
2.43537e-05	0	0	0
2.44704e-05	0	0	0
2.45776e-05	0	0	0
2.48602e-05	0	0	0
2.52352e-05	0	0	0
2.52992e-05	0	0	0
2.54211e-05	0	0	0
2.59647e-05	0	0	0
2.69595e-05	0	0	0
2.77755e-05	0	0	0
2.78381e-05	0	0	0
2.83296e-05	0	0	0
2.86759e-05	0	0	0
2.91913e-05	0	0	0
2.95232e-05	0	0	0
3.01454e-05	0	0	0
3.11804e-05	0	0	0
3.1411e-05	0	0	0
3.16732e-05	0	0	0
3.20047e-05	0	0	0
3.30376e-05	0	0	0
3.36345e-05	0	0	0
3.38011e-05	0	0	0
3.39472e-05	0	0	0
3.40333e-05	0	0	0
3.43938e-05	0	0	0
3.51632e-05	0	0	0
3.57579e-05	0	0	0
3.70741e-05	0	0	0
3.74904e-05	0	0	0
3.87893e-05	0	0	0
3.9427e-05	0	0	0
3.95454e-05	0	0	0
3.98552e-05	0	0	0
4.01352e-05	0	0	0
4.04791e-05	0	0	0
4.07934e-05	0	0	0
4.27392e-05	0	0	0
4.33393e-05	0	0	0
4.34186e-05	0	0	0
4.35735e-05	0	0	0
4.37327e-05	0	0	0
4.37632e-05	0	0	0
4.44765e-05	0	0	0
4.52898e-05	0	0	0
4.53752e-05	0	0	0
4.58244e-05	0	0	0
4.61557e-05	0	0	0
4.63026e-05	0	0	0
4.6475e-05	0	0	0
4.6846e-05	0	0	0
4.79647e-05	0	0	0
5.14886e-05	0	0	0
5.23429e-05	0	0	0
5.26219e-05	0	0	0
5.31987e-05	0	0	0
5.39763e-05	0	0	0
5.41732e-05	0	0	0
5.51067e-05	0	0	0
5.54342e-05	0	0	0
5.57579e-05	0	0	0
5.59969e-05	0	0	0
5.80318e-05	0	0	0
6.16714e-05	0	0	0
6.16814e-05	0	0	0
6.34179e-05	0	0	0
6.70017e-05	0	0	0
6.70244e-05	0	0	0
6.77649e-05	0	0	0
7.05581e-05	0	0	0
7.28458e-05	0	0	0
7.42096e-05	0	0	0
7.70843e-05	0	0	0
7.73827e-05	0	0	0
8.10494e-05	0	0	0
8.1215e-05	0	0	0
8.20499e-05	0	0	0
8.2128e-05	0	0	0
8.21748e-05	0	0	0
8.28377e-05	0	0	0
8.34072e-05	0	0	0
8.51127e-05	0	0	0
8.65398e-05	0	0	0
8.77105e-05	0	0	0
8.81241e-05	0	0	0
9.20354e-05	0	0	0
9.34058e-05	0	0	0
9.57458e-05	0	0	0
9.75788e-05	0	0	0
9.98587e-05	0	0	0
0.000104045	0	0	0
0.000104915	0	0	0
0.000110944	0	0	0
0.000111155	0	0	0
0.000123423	0	0	0
0.000129361	0	0	0
0.000130042	0	0	0
0.000130826	0	0	0
0.000132546	0	0	0
0.000170579	0	0	0
0.0188732	0	0	0
0.0260283	0	0	0
0.0281469	0	0	0
0.0281474	0	0	0
0.0281491	0	0	0
0.0281682	0	0	0
0.0281687	0	0	0
0.029366	0	0	0
0.0303916	0	0	0
0.0304259	0.0138198	0.0276396	0
0.0304368	0.0138198	0.0276396	0
0.0319412	0.0414594	0	0
0.0339333	0.0414594	0	0
0.0339663	0.0552792	0.0276396	0
0.0339733	0.0829187	0	0
0.0374106	0.0829187	0	0
0.0375334	0.0829187	0	0
0.0376108	0.0967385	0.0276396	0
0.0527448	0.124378	0	0
0.0528838	0.124378	0	0
0.0529752	0.138198	0.0276396	0
0.0560512	0.165837	0	0
0.0568903	0.165837	0	0
0.0570376	0.165837	0.0276396	0
0.0570575	0.179657	0.0552792	0
0.0570902	0.207297	0.0276396	0
0.114698	0.234936	0	0
0.115617	0.234936	0	0
0.115639	0.248756	0.0276396	0
0.135265	0.276396	0	0
0.138041	0.276396	0	0
0.138167	0.276396	0	0
0.138179	0.290216	0.0276396	0
0.138194	0.317855	0	0
0.161401	0.317855	0	0
0.161463	0.317855	0	0
0.161792	0.317855	0.0276396	0
0.162521	0.317855	0.0276396	0
0.162545	0.331675	0.0552792	0
0.162638	0.359315	0.0276396	0
0.187242	0.386954	0	0
0.187596	0.386954	0	0
0.187635	0.386954	0.0552792	0
0.187642	0.414594	0.0276396	0
0.21705	0.442233	0	0
0.223107	0.442233	0	0
0.234151	0.442233	0	0
0.246948	0.442233	0	0.0909918
0.247025	0.442233	0	0.0909918
0.279185	0.442233	0	0.0909918
0.279192	0.442233	0	0.0909918
0.290751	0.442233	0	0.0909918
0.30021	0.442233	0	0.0909918
0.321649	0.442233	0	0.0909918
0.321662	0.442233	0	0.0909918
0.336859	0.442233	0	0.0909918
0.361374	0.442233	0	0.0909918
0.361807	0.442233	0	0.0909918
0.362221	0.442233	0.0276396	0.0909918
0.36226	0.442233	0.0552792	0.0909918
0.362383	0.442233	0.0829187	0.0909918
0.363396	0.442233	0.110558	0.0909918
0.363429	0.456053	0.138198	0.0909918
0.36343	0.483693	0.110558	0.0909918
0.363478	0.511332	0.0829187	0.0909918
0.36349	0.538972	0.0552792	0.0909918
0.363594	0.566611	0.0276396	0.0909918
0.368873	0.594251	0	0.0909918
0.369048	0.594251	0	0.0909918
0.369093	0.608071	0.0276396	0.0909918
0.379764	0.63571	0	0.0909918
0.396709	0.63571	0	0.181984
0.397603	0.63571	0	0.181984
0.397609	0.64953	0.0276396	0.181984
0.408713	0.67717	0	0.181984
0.4095	0.67717	0	0.272975
0.4095	0.67717	0	0.272975
0.4262	0.67717	0	0.272975
0.426644	0.67717	0	0.272975
0.426734	0.67717	0.0276396	0.272975
0.427066	0.67717	0.0552792	0.272975
0.429153	0.67717	0.0829187	0.272975
0.429998	0.67717	0.110558	0.272975
0.430005	0.690989	0.138198	0.272975
0.430008	0.718629	0.110558	0.272975
0.430011	0.746269	0.0829187	0.272975
0.430018	0.746269	0.0829187	0.272975
0.430024	0.746269	0.0829187	0.272975
0.43003	0.773908	0.0552792	0.272975
0.430063	0.773908	0.0552792	0.272975
0.430082	0.801548	0.0276396	0.272975
0.458281	0.829187	0	0.272975
0.458675	0.829187	0	0.363967
0.473992	0.829187	0	0.363967
0.473998	0.829187	0	0.363967
0.474178	0.843007	0.0276396	0.363967
0.484004	0.870647	0	0.363967
0.485256	0.870647	0	0.363967
0.485331	0.870647	0.0552792	0.363967
0.485404	0.898286	0.0276396	0.363967
0.533104	0.925926	0	0.363967
0.533652	0.925926	0	0.363967
0.533678	0.925926	0.0276396	0.363967
0.533786	0.925926	0.0552792	0.363967
0.533801	0.939746	0.0829187	0.363967
0.533803	0.967385	0.0552792	0.363967
0.534184	0.995025	0.0276396	0.363967
0.549593	1.02266	0	0.363967
0.560175	1.02266	0	0.363967
0.560353	1.02266	0	0.363967
0.560522	1.03648	0.0276396	0.363967
0.560616	1.06412	0	0.363967
0.654483	1.06412	0	0.363967
0.656536	1.06412	0	0.363967
0.656539	1.07794	0.0276396	0.363967
0.672105	1.10558	0	0.363967
0.672502	1.10558	0	0.363967
0.672517	1.10558	0.0552792	0.363967
0.672777	1.13322	0.0276396	0.363967
0.676516	1.16086	0	0.363967
0.700327	1.16086	0	0.363967
0.700875	1.16086	0	0.363967
0.70252	1.16086	0	0.363967
0.7036	1.16086	0	0.363967
0.703708	1.16086	0.0276396	0.363967
0.703717	1.17468	0.0552792	0.363967
0.70372	1.20232	0.0276396	0.363967
0.70779	1.22996	0	0.363967
0.710797	1.22996	0	0.363967
0.717285	1.22996	0	0.363967
0.754273	1.22996	0	0.363967
0.754709	1.22996	0	0.363967
0.75497	1.24378	0.0276396	0.363967
0.757188	1.27142	0	0.363967
0.780001	1.27142	0	0.454959
0.780074	1.27142	0	0.454959
0.78032	1.27142	0.0276396	0.454959
0.780328	1.28524	0.0552792	0.454959
0.780356	1.31288	0.0276396	0.454959
0.807289	1.34052	0	0.454959
0.807391	1.34052	0	0.454959
0.807568	1.34052	0.0276396	0.454959
0.807675	1.35434	0.0552792	0.454959
0.807722	1.38198	0.0276396	0.454959
0.89775	1.40962	0	0.454959
0.897891	1.40962	0	0.454959
0.897991	1.40962	0.0276396	0.454959
0.898029	1.40962	0.0552792	0.454959
0.898223	1.40962	0.0829187	0.454959
1.02334	1.40962	0.110558	0.454959
1.02511	1.40962	0.110558	0.454959
1.02512	1.42344	0.138198	0.454959
1.02513	1.45108	0.110558	0.454959
1.02515	1.47872	0.0829187	0.454959
1.02523	1.50636	0.0552792	0.454959
1.0253	1.534	0.0276396	0.454959
1.04223	1.56164	0	0.454959
1.09242	1.56164	0	0.454959
1.09637	1.56164	0	0.545951
1.09668	1.56164	0	0.545951
1.09862	1.56164	0.0276396	0.545951
1.09891	1.56164	0.0552792	0.545951
1.09919	1.56164	0.0829187	0.545951
1.09943	1.56164	0.110558	0.545951
1.10017	1.56164	0.138198	0.545951
1.1004	1.56164	0.165837	0.545951
1.10046	1.56164	0.193477	0.545951
1.1007	1.56164	0.221117	0.545951
1.10076	1.56164	0.248756	0.545951
1.1476	1.58928	0.221117	0.545951
1.14761	1.58928	0.221117	0.636943
1.14761	1.61692	0.193477	0.636943
1.14761	1.64456	0.165837	0.636943
1.14761	1.67219	0.138198	0.636943
1.14762	1.67219	0.138198	0.636943
1.14762	1.69983	0.110558	0.636943
1.14762	1.72747	0.0829187	0.636943
1.14763	1.72747	0.0829187	0.636943
1.14763	1.75511	0.0552792	0.636943
1.14769	1.78275	0.0276396	0.636943
1.14772	1.78275	0.0276396	0.636943
1.14772	1.78275	0.0276396	0.636943
1.14772	1.81039	0	0.636943
1.14775	1.81039	0	0.636943
1.14888	1.81039	0	0.636943
1.14889	1.81039	0	0.636943
1.14899	1.82421	0.0276396	0.636943
1.17855	1.85185	0	0.636943
1.18095	1.85185	0	0.636943
1.18695	1.85185	0	0.727934
1.1873	1.85185	0	0.727934
1.1873	1.85185	0.0552792	0.727934
1.18733	1.85185	0.0552792	0.727934
1.18762	1.87949	0.0276396	0.727934
1.24652	1.90713	0	0.727934
1.25135	1.90713	0	0.909918
1.25678	1.90713	0	0.909918
1.26544	1.90713	0	0.909918
1.26553	1.90713	0	0.909918
1.26571	1.92095	0.0276396	0.909918
1.26995	1.94859	0	0.909918
1.27013	1.94859	0	0.909918
1.27044	1.94859	0.0276396	0.909918
1.27051	1.96241	0.0552792	0.909918
1.27053	1.99005	0.0276396	0.909918
1.29814	2.01769	0	0.909918
1.32242	2.01769	0	1.00091
1.32336	2.01769	0	1.00091
1.32341	2.03151	0.0276396	1.00091
1.32438	2.05915	0	1.00091
1.32526	2.05915	0	1.00091
1.32545	2.07297	0.0276396	1.00091
1.35055	2.10061	0	1.00091
1.35645	2.10061	0	1.00091
1.35646	2.10061	0	1.0919
1.35651	2.10061	0	1.0919
1.3689	2.10061	0	1.0919
1.39775	2.10061	0	1.0919
1.39822	2.10061	0	1.0919
1.39824	2.11443	0.0276396	1.0919
1.40313	2.14207	0	1.0919
1.40371	2.14207	0	1.0919
1.40378	2.15589	0.0276396	1.0919
1.45013	2.18353	0	1.0919
1.45025	2.18353	0	1.0919
1.45025	2.18353	0.0552792	1.0919
1.45028	2.21117	0.0276396	1.0919
1.45155	2.23881	0	1.0919
1.45237	2.23881	0	1.0919
1.45244	2.25263	0.0276396	1.0919
1.45588	2.28027	0	1.0919
1.45601	2.28027	0	1.0919
1.45612	2.29409	0.0276396	1.0919
1.46077	2.32172	0	1.0919
1.46091	2.32172	0	1.0919
1.46093	2.33554	0.0276396	1.0919
1.46312	2.36318	0	1.0919
1.46314	2.36318	0	1.0919
1.46315	2.36318	0	1.0919
1.47299	2.36318	0	1.0919
1.48038	2.36318	0	1.18289
1.50434	2.36318	0	1.18289
1.57379	2.36318	0	1.18289
1.59028	2.36318	0	1.36488
1.59846	2.36318	0	1.36488
1.59929	2.36318	0	1.36488
1.60043	2.36318	0.0276396	1.36488
1.60054	2.377	0.0552792	1.36488
1.60061	2.40464	0.0276396	1.36488
1.60979	2.43228	0	1.36488
1.6203	2.43228	0	1.36488
1.62033	2.43228	0	1.36488
1.63162	2.43228	0	1.36488
1.63216	2.43228	0	1.36488
1.63221	2.4461	0.0276396	1.36488
1.63395	2.47374	0	1.36488
1.63396	2.47374	0	1.45587
1.64241	2.47374	0	1.45587
1.64692	2.47374	0	1.45587
1.64785	2.47374	0	1.45587
1.64797	2.47374	0	1.45587
1.648	2.48756	0.0276396	1.45587
1.67186	2.5152	0	1.45587
1.67323	2.5152	0	1.45587
1.67323	2.52902	0.0276396	1.45587
1.69288	2.55666	0	1.45587
1.69326	2.55666	0	1.45587
1.6948	2.55666	0.0276396	1.45587
1.69498	2.55666	0.0276396	1.45587
1.69499	2.57048	0.0552792	1.45587
1.69502	2.59812	0.0276396	1.45587
1.71596	2.62576	0	1.45587
1.7318	2.62576	0	1.45587
1.73197	2.62576	0	1.45587
1.73199	2.62576	0.0552792	1.45587
1.73206	2.6534	0.0276396	1.45587
1.77103	2.68104	0	1.45587
1.78604	2.68104	0	1.54686
1.79651	2.68104	0	1.63785
1.83584	2.68104	0	1.63785
1.83589	2.68104	0	1.72884
1.88968	2.68104	0	1.72884
1.8967	2.68104	0	1.72884
1.89722	2.68104	0	1.72884
1.89723	2.69486	0.0276396	1.72884
1.89916	2.7225	0	1.72884
1.91321	2.7225	0	1.81984
1.91344	2.7225	0	1.81984
1.91344	2.73632	0.0276396	1.81984
1.93183	2.76396	0	1.81984
1.93204	2.76396	0	1.81984
1.93218	2.77778	0.0276396	1.81984
1.93366	2.80542	0	1.81984
1.93378	2.80542	0	1.81984
1.934	2.80542	0.0276396	1.81984
1.93405	2.81924	0.0552792	1.81984
1.93415	2.84688	0.0276396	1.81984
1.97076	2.87452	0	1.81984
1.97111	2.87452	0	1.81984
1.97111	2.88834	0.0276396	1.81984
1.99172	2.91598	0	1.81984
1.99243	2.91598	0	1.81984
1.99246	2.9298	0.0276396	1.81984
2.04325	2.95744	0	1.81984
2.06074	2.95744	0	1.91083
2.10791	2.95744	0	2.09281
2.10801	2.95744	0	2.09281
2.10807	2.97125	0.0276396	2.09281
2.13824	2.99889	0	2.09281
2.13875	2.99889	0	2.09281
2.13889	2.99889	0.0276396	2.09281
2.13889	3.01271	0.0552792	2.09281
2.13891	3.04035	0.0276396	2.09281
2.13892	3.06799	0	2.09281
2.15109	3.06799	0	2.09281
2.15118	3.06799	0	2.09281
2.15124	3.08181	0.0276396	2.09281
2.15648	3.10945	0	2.09281
2.15687	3.10945	0	2.09281
2.15743	3.10945	0.0276396	2.09281
2.15757	3.12327	0.0552792	2.09281
2.15761	3.15091	0.0276396	2.09281
2.2159	3.17855	0	2.09281
2.21594	3.17855	0	2.09281
2.21902	3.17855	0	2.09281
2.21985	3.17855	0	2.09281
2.21986	3.19237	0.0276396	2.09281
2.23882	3.22001	0	2.09281
2.30369	3.22001	0	2.09281
2.3063	3.22001	0	2.1838
2.31677	3.22001	0	2.2748
2.31686	3.22001	0	2.36579
2.33074	3.22001	0	2.36579
2.33161	3.22001	0	2.36579
2.33168	3.23383	0.0276396	2.36579
2.3347	3.26147	0	2.36579
2.33507	3.26147	0	2.36579
2.33512	3.26147	0.0276396	2.36579
2.33514	3.27529	0.0552792	2.36579
2.33521	3.27529	0.0552792	2.36579
2.33523	3.30293	0.0276396	2.36579
2.33553	3.30293	0.0276396	2.36579
2.33554	3.33057	0	2.36579
2.42814	3.33057	0	2.36579
2.43392	3.33057	0	2.45678
2.44015	3.33057	0	2.63876
2.44444	3.33057	0	2.63876
2.44557	3.33057	0	2.63876
2.44598	3.33057	0.0276396	2.63876
2.44602	3.34439	0.0552792	2.63876
2.44602	3.37203	0.0276396	2.63876
2.47868	3.39967	0	2.63876
2.57292	3.39967	0	2.72975
2.57393	3.39967	0	2.72975
2.57509	3.39967	0.0276396	2.72975
2.5751	3.41349	0.0552792	2.72975
2.57516	3.44113	0.0276396	2.72975
2.57915	3.46877	0	2.72975
2.57919	3.46877	0	2.72975
2.57923	3.48259	0.0276396	2.72975
2.58163	3.51023	0	2.72975
2.58186	3.51023	0	2.72975
2.58272	3.51023	0.0276396	2.72975
2.58407	3.51023	0.0552792	2.72975
2.58408	3.51023	0.110558	2.72975
2.58408	3.53787	0.0829187	2.72975
2.5841	3.56551	0.0552792	2.72975
2.58422	3.59315	0.0276396	2.72975
2.5895	3.62078	0	2.72975
2.63408	3.62078	0	2.82075
2.6345	3.62078	0	2.82075
2.6346	3.62078	0.0276396	2.82075
2.6346	3.6346	0.0552792	2.82075
2.63462	3.66224	0.0276396	2.82075
2.63462	3.68988	0	2.82075
2.67573	3.68988	0	2.82075
2.67613	3.68988	0	2.82075
2.67622	3.68988	0.0276396	2.82075
2.7188	3.71752	0	2.82075
2.72123	3.71752	0	2.91174
2.76294	3.71752	0	2.91174
2.82326	3.71752	0	2.91174
2.851	3.71752	0	3.09372
2.86335	3.71752	0	3.18471
2.86718	3.71752	0	3.27571
2.9	3.71752	0	3.27571
2.90211	3.71752	0	3.3667
2.90246	3.71752	0	3.3667
2.90247	3.73134	0.0276396	3.3667
2.91634	3.75898	0	3.3667
2.91676	3.75898	0	3.3667
2.91733	3.75898	0.0276396	3.3667
2.91764	3.75898	0.0552792	3.3667
2.91818	3.75898	0.0829187	3.3667
2.91825	3.75898	0.110558	3.3667
2.91825	3.7728	0.138198	3.3667
2.91826	3.7728	0.138198	3.3667
2.91828	3.80044	0.110558	3.3667
2.91829	3.80044	0.110558	3.3667
2.91831	3.82808	0.0829187	3.3667
2.91834	3.85572	0.0552792	3.3667
2.91836	3.85572	0.0552792	3.3667
2.91837	3.88336	0.0276396	3.3667
2.91837	3.88336	0.0276396	3.3667
2.91843	3.911	0	3.3667
2.91901	3.911	0	3.3667
2.9196	3.911	0	3.3667
2.92163	3.911	0.0276396	3.3667
2.95877	3.911	0.0276396	3.45769
2.95888	3.911	0.0276396	3.63967
2.95888	3.93864	0	3.63967
3.02283	3.93864	0	3.63967
3.08165	3.93864	0	3.73066
3.13269	3.93864	0	3.91265
3.13271	3.93864	0	3.91265
3.13311	3.93864	0.0276396	3.91265
3.13312	3.95246	0.0552792	3.91265
3.13313	3.9801	0.0276396	3.91265
3.13319	3.9801	0.0276396	3.91265
3.18654	4.00774	0	3.91265
3.18672	4.00774	0	3.91265
3.18674	4.02156	0.0276396	3.91265
3.19642	4.0492	0	3.91265
3.20558	4.0492	0	3.91265
3.25397	4.0492	0	4.00364
3.25446	4.0492	0	4.00364
3.25463	4.0492	0.0276396	4.00364
3.28313	4.07684	0	4.00364
3.31409	4.07684	0	4.09463
3.35074	4.07684	0	4.09463
3.35339	4.07684	0	4.18562
3.35351	4.07684	0	4.18562
3.35488	4.07684	0.0276396	4.18562
3.35497	4.09066	0.0552792	4.18562
3.35499	4.1183	0.0276396	4.18562
3.41856	4.14594	0	4.18562
3.42052	4.14594	0	4.27662
3.44454	4.14594	0	4.27662
3.44465	4.14594	0	4.27662
3.44531	4.14594	0.0276396	4.27662
3.44531	4.15976	0.0552792	4.27662
3.44532	4.1874	0.0276396	4.27662
3.46438	4.21504	0	4.27662
3.47819	4.21504	0	4.4586
3.47841	4.21504	0	4.4586
3.47842	4.21504	0.0552792	4.4586
3.47847	4.24268	0.0276396	4.4586
3.53277	4.27032	0	4.4586
3.53403	4.27032	0	4.54959
3.56288	4.27032	0	4.54959
3.60463	4.27032	0	4.64058
3.60589	4.27032	0	4.64058
3.60592	4.28413	0.0276396	4.64058
3.6752	4.31177	0	4.64058
3.68358	4.31177	0	4.82257
3.74137	4.31177	0	4.91356
3.74178	4.31177	0	4.91356
3.7418	4.31177	0.0552792	4.91356
3.74182	4.33941	0.0276396	4.91356
3.86851	4.36705	0	4.91356
3.89115	4.36705	0	5.00455
3.89226	4.36705	0	5.09554
3.92655	4.36705	0	5.27753
3.92673	4.36705	0	5.27753
3.92674	4.38087	0.0276396	5.27753
3.96944	4.40851	0	5.27753
4.00221	4.40851	0	5.45951
4.00582	4.40851	0	5.5505
4.00642	4.40851	0	5.5505
4.00642	4.42233	0.0276396	5.5505
4.00642	4.44997	0	5.5505
4.03937	4.44997	0	5.5505
4.06327	4.44997	0	5.64149
4.07221	4.44997	0	5.73248
4.07296	4.44997	0	5.73248
4.0731	4.46379	0.0276396	5.73248
4.07315	4.49143	0	5.73248
4.09618	4.49143	0	5.73248
4.09667	4.49143	0	5.73248
4.09675	4.50525	0.0276396	5.73248
4.10903	4.53289	0	5.73248
4.10992	4.53289	0	5.73248
4.11071	4.53289	0.0276396	5.73248
4.11074	4.54671	0.0552792	5.73248
4.11076	4.57435	0.0276396	5.73248
4.16606	4.60199	0	5.73248
4.18237	4.60199	0	5.91447
4.18364	4.60199	0	5.91447
4.18448	4.60199	0.0276396	5.91447
4.18449	4.60199	0.0829187	5.91447
4.18453	4.62963	0.0552792	5.91447
4.18454	4.65727	0.0276396	5.91447
4.27778	4.68491	0	5.91447
4.27826	4.68491	0	5.91447
4.27829	4.69873	0.0276396	5.91447
4.27829	4.72637	0	5.91447
4.29512	4.72637	0	5.91447
4.34778	4.72637	0	5.91447
4.34778	4.72637	0	5.91447
4.34802	4.74019	0.0276396	5.91447
4.38703	4.76783	0	5.91447
4.46261	4.76783	0	6.00546
4.46295	4.76783	0	6.00546
4.46355	4.76783	0.0276396	6.00546
4.46386	4.76783	0.0552792	6.00546
4.46387	4.76783	0.110558	6.00546
4.46388	4.79547	0.0829187	6.00546
4.46391	4.82311	0.0552792	6.00546
4.46397	4.85075	0.0276396	6.00546
4.50676	4.87839	0	6.00546
4.5068	4.87839	0	6.00546
4.50705	4.89221	0.0276396	6.00546
4.50858	4.91985	0	6.00546
4.51976	4.91985	0	6.09645
4.51992	4.91985	0	6.09645
4.51994	4.93367	0.0276396	6.09645
4.51995	4.9613	0	6.09645
4.65413	4.9613	0	6.09645
4.66976	4.9613	0	6.27843
4.66988	4.9613	0	6.27843
4.66991	4.97512	0.0276396	6.27843
4.70426	5.00276	0	6.27843
4.70489	5.00276	0	6.27843
4.70492	5.01658	0.0276396	6.27843
4.71839	5.04422	0	6.27843
4.71843	5.04422	0	6.27843
4.71853	5.05804	0.0276396	6.27843
4.72694	5.08568	0	6.27843
4.72983	5.08568	0	6.36943
4.74055	5.08568	0	6.46042
4.74076	5.08568	0	6.46042
4.74077	5.0995	0.0276396	6.46042
4.76761	5.12714	0	6.46042
4.76831	5.12714	0	6.46042
4.76833	5.14096	0.0276396	6.46042
4.78801	5.1686	0	6.46042
4.80389	5.1686	0	6.55141
4.8107	5.1686	0	6.6424
4.82761	5.1686	0	6.73339
4.82762	5.1686	0	6.73339
4.90182	5.1686	0.0276396	6.73339
4.90188	5.1686	0.0276396	6.73339
4.90223	5.19624	0	6.73339
4.90224	5.19624	0.0552792	6.73339
4.90226	5.22388	0.0276396	6.73339
4.95282	5.25152	0	6.73339
4.95285	5.25152	0	6.73339
4.95479	5.25152	0.0276396	6.73339
4.95481	5.26534	0.0552792	6.73339
4.95481	5.29298	0.0276396	6.73339
4.96423	5.32062	0	6.73339
4.96427	5.32062	0	6.73339
4.96433	5.33444	0.0276396	6.73339
5.06156	5.36208	0	6.73339
5.0631	5.36208	0	6.73339
5.06699	5.36208	0.0276396	6.73339
5.06718	5.36208	0.0276396	6.73339
5.0672	5.3759	0.0552792	6.73339
5.07732	5.40354	0.0276396	6.73339
5.07808	5.40354	0.0276396	6.73339
5.0781	5.41736	0.0552792	6.73339
5.09066	5.445	0.0276396	6.73339
5.09066	5.445	0.0276396	6.73339
5.0914	5.47264	0	6.73339
5.09142	5.47264	0.0276396	6.73339
5.09143	5.47264	0.0552792	6.73339
5.09144	5.47264	0.0552792	6.73339
5.0915	5.50028	0.0276396	6.73339
5.13021	5.52792	0	6.73339
5.13029	5.52792	0	6.73339
5.1303	5.54174	0.0276396	6.73339
5.16693	5.56938	0	6.73339
5.16705	5.56938	0	6.73339
5.1671	5.56938	0.0552792	6.73339
5.16713	5.59701	0.0276396	6.73339
5.19729	5.62465	0	6.73339
5.20003	5.62465	0	6.73339
5.20005	5.63847	0.0276396	6.73339
5.30396	5.66611	0	6.73339
5.30434	5.66611	0	6.73339
5.30436	5.67993	0.0276396	6.73339
5.32911	5.70757	0	6.73339
5.3495	5.70757	0	6.82439
5.36499	5.70757	0	7.00637
5.36645	5.70757	0	7.00637
5.36648	5.72139	0.0276396	7.00637
5.37751	5.74903	0	7.00637
5.40899	5.74903	0	7.00637
5.41063	5.74903	0	7.00637
5.41064	5.74903	0.0276396	7.00637
5.41074	5.76285	0.0552792	7.00637
5.41094	5.79049	0.0276396	7.00637
5.43279	5.81813	0	7.00637
5.43879	5.81813	0	7.00637
5.44261	5.81813	0	7.09736
5.44319	5.81813	0	7.09736
5.44335	5.81813	0.0276396	7.09736
5.44342	5.83195	0.0552792	7.09736
5.44353	5.85959	0.0276396	7.09736
5.45317	5.88723	0	7.09736
5.45401	5.88723	0	7.09736
5.45403	5.88723	0.0552792	7.09736
5.45408	5.91487	0.0276396	7.09736
5.59182	5.94251	0	7.09736
5.59293	5.94251	0	7.09736
5.59301	5.94251	0.0552792	7.09736
5.59309	5.97015	0.0276396	7.09736
5.63767	5.99779	0	7.09736
5.64226	5.99779	0	7.18835
5.64247	5.99779	0	7.18835
5.6425	5.99779	0.0552792	7.18835
5.64251	6.02543	0.0276396	7.18835
5.6508	6.05307	0	7.18835
5.67154	6.05307	0	7.18835
5.67193	6.05307	0	7.18835
5.67195	6.06689	0.0276396	7.18835
5.6949	6.09453	0	7.18835
5.73147	6.09453	0	7.27934
5.75494	6.09453	0	7.37034
5.76845	6.09453	0	7.46133
5.77061	6.09453	0	7.46133
5.77063	6.09453	0.0552792	7.46133
5.77066	6.12217	0.0276396	7.46133
5.77073	6.14981	0	7.46133
5.79399	6.14981	0	7.46133
5.85729	6.14981	0	7.55232
5.87023	6.14981	0	7.55232
5.87024	6.14981	0	7.55232
5.87109	6.14981	0.0276396	7.55232
5.87114	6.16363	0.0552792	7.55232
5.87118	6.19127	0.0276396	7.55232
5.89388	6.21891	0	7.55232
5.89454	6.21891	0	7.55232
5.89512	6.21891	0.0276396	7.55232
5.89515	6.23273	0.0552792	7.55232
5.89525	6.26036	0.0276396	7.55232
5.96908	6.288	0	7.55232
6.0649	6.288	0	7.7343
6.10186	6.288	0	7.8253
6.12903	6.288	0	7.8253
6.13045	6.288	0	7.91629
6.13782	6.288	0	8.00728
6.13833	6.288	0	8.00728
6.13837	6.30182	0.0276396	8.00728
6.17347	6.32946	0	8.00728
6.17364	6.32946	0	8.00728
6.17388	6.32946	0.0276396	8.00728
6.17389	6.34328	0.0552792	8.00728
6.17391	6.37092	0.0276396	8.00728
6.17393	6.37092	0.0276396	8.00728
6.17959	6.39856	0	8.00728
6.1806	6.39856	0	8.00728
6.18071	6.41238	0.0276396	8.00728
6.18755	6.44002	0	8.00728
6.1876	6.44002	0	8.00728
6.18803	6.44002	0.0276396	8.00728
6.18804	6.45384	0.0552792	8.00728
6.18805	6.48148	0.0276396	8.00728
6.20843	6.50912	0	8.00728
6.20881	6.50912	0	8.00728
6.20911	6.50912	0.0276396	8.00728
6.20914	6.52294	0.0552792	8.00728
6.20927	6.55058	0.0276396	8.00728
6.21022	6.57822	0	8.00728
6.21215	6.57822	0	8.09827
6.23191	6.57822	0	8.18926
6.2321	6.57822	0	8.18926
6.23213	6.57822	0.0552792	8.18926
6.23219	6.60586	0.0276396	8.18926
6.2905	6.6335	0	8.18926
6.29302	6.6335	0	8.18926
6.31236	6.6335	0	8.37125
6.3124	6.6335	0	8.37125
6.3124	6.64732	0.0276396	8.37125
6.3124	6.67496	0	8.37125
6.34247	6.67496	0	8.37125
6.39416	6.67496	0	8.46224
6.39435	6.67496	0	8.46224
6.39436	6.68878	0.0276396	8.46224
6.42382	6.71642	0	8.46224
6.60537	6.71642	0	8.64422
6.60558	6.71642	0	8.64422
6.60563	6.73024	0.0276396	8.64422
6.72823	6.75788	0	8.64422
6.72936	6.75788	0	8.64422
6.72937	6.7717	0.0276396	8.64422
6.73774	6.79934	0	8.64422
6.73778	6.79934	0	8.64422
6.73784	6.81316	0.0276396	8.64422
6.75517	6.8408	0	8.64422
6.75576	6.8408	0	8.64422
6.75581	6.85462	0.0276396	8.64422
6.80325	6.88226	0	8.64422
6.8338	6.88226	0	8.64422
6.83388	6.88226	0	8.64422
6.83391	6.89608	0.0276396	8.64422
6.85199	6.92371	0	8.64422
6.85254	6.92371	0	8.64422
6.85267	6.92371	0.0276396	8.64422
6.85267	6.93753	0.0552792	8.64422
6.8527	6.96517	0.0276396	8.64422
6.9139	6.99281	0	8.64422
6.91471	6.99281	0	8.64422
6.91492	6.99281	0.0276396	8.64422
6.91502	6.99281	0.0552792	8.64422
6.91536	6.99281	0.0829187	8.64422
6.91544	6.99281	0.110558	8.64422
6.91545	7.00663	0.138198	8.64422
6.91545	7.03427	0.110558	8.64422
6.91547	7.06191	0.0829187	8.64422
6.91553	7.08955	0.0552792	8.64422
6.91556	7.11719	0.0276396	8.64422
6.94368	7.14483	0	8.64422
6.94437	7.14483	0	8.64422
6.94445	7.14483	0.0276396	8.64422
6.9452	7.14483	0.0552792	8.64422
6.94556	7.14483	0.0829187	8.64422
6.94559	7.15865	0.110558	8.64422
6.94561	7.18629	0.0829187	8.64422
6.94572	7.21393	0.0552792	8.64422
6.94573	7.24157	0.0276396	8.64422
6.98236	7.26921	0	8.64422
6.98236	7.26921	0	8.64422
6.98238	7.28303	0.0276396	8.64422
6.9991	7.31067	0	8.64422
7.0739	7.31067	0	8.73521
7.07528	7.31067	0	8.73521
7.07536	7.32449	0.0276396	8.73521
7.07536	7.35213	0	8.73521
7.10598	7.35213	0	8.73521
7.10644	7.35213	0	8.73521
7.10653	7.35213	0.0552792	8.73521
7.10654	7.37977	0.0276396	8.73521
7.13402	7.40741	0	8.73521
7.14384	7.40741	0	8.9172
7.14407	7.40741	0	8.9172
7.14425	7.42123	0.0276396	8.9172
7.17562	7.44887	0	8.9172
7.1765	7.44887	0	8.9172
7.1765	7.44887	0.0552792	8.9172
7.17672	7.47651	0.0276396	8.9172
7.21494	7.50415	0	8.9172
7.23263	7.50415	0	9.09918
7.23338	7.50415	0	9.09918
7.23561	7.50415	0.0276396	9.09918
7.23631	7.50415	0.0276396	9.09918
7.23667	7.50415	0.0552792	9.09918
7.23668	7.50415	0.110558	9.09918
7.23672	7.53179	0.0829187	9.09918
7.23674	7.55943	0.0552792	9.09918
7.23723	7.58706	0.0276396	9.09918
7.23736	7.58706	0.0276396	9.09918
7.23737	7.60088	0.0552792	9.09918
7.29333	7.62852	0.0276396	9.09918
7.29335	7.62852	0.0276396	9.19017
7.37196	7.65616	0	9.19017
7.37198	7.65616	0	9.19017
7.37203	7.66998	0.0276396	9.19017
7.41525	7.69762	0	9.19017
7.41527	7.69762	0	9.19017
7.41529	7.69762	0	9.19017
7.44665	7.69762	0	9.19017
7.44671	7.69762	0	9.19017
7.44687	7.69762	0.0552792	9.19017
7.44689	7.72526	0.0276396	9.19017
7.44689	7.7529	0	9.19017
7.49059	7.7529	0	9.19017
7.49136	7.7529	0	9.19017
7.49142	7.76672	0.0276396	9.19017
7.49348	7.79436	0	9.19017
7.52255	7.79436	0	9.28116
7.52883	7.79436	0	9.28116
7.53076	7.79436	0	9.28116
7.53082	7.80818	0.0276396	9.28116
7.53401	7.83582	0	9.28116
7.62437	7.83582	0	9.37216
7.62523	7.83582	0	9.37216
7.62563	7.83582	0.0276396	9.37216
7.62566	7.84964	0.0552792	9.37216
7.62568	7.87728	0.0276396	9.37216
7.62568	7.90492	0	9.37216
7.64232	7.90492	0	9.37216
7.64246	7.90492	0	9.37216
7.6425	7.91874	0.0276396	9.37216
7.67542	7.94638	0	9.37216
7.68387	7.94638	0	9.46315
7.79938	7.94638	0	9.64513
8.03465	7.94638	0	9.82712
8.071	7.94638	0	10.0091
8.07149	7.94638	0	10.0091
8.07156	7.9602	0.0276396	10.0091
8.13159	7.98784	0	10.0091
8.13246	7.98784	0	10.0091
8.13298	7.98784	0.0276396	10.0091
8.13395	7.98784	0.0552792	10.0091
8.13397	8.00166	0.0829187	10.0091
8.13397	8.0293	0.0552792	10.0091
8.13429	8.05694	0.0276396	10.0091
8.13962	8.08458	0	10.0091
8.13963	8.08458	0	10.0091
8.13972	8.08458	0.0276396	10.0091
8.13973	8.08458	0.0829187	10.0091
8.13975	8.11222	0.0552792	10.0091
8.13976	8.13986	0.0276396	10.0091
8.13977	8.1675	0	10.0091
8.16606	8.1675	0	10.0091
8.16761	8.1675	0	10.0091
8.19276	8.1675	0.0276396	10.0091
8.23582	8.1675	0.0276396	10.1001
8.23589	8.1675	0.0276396	10.1911
8.2402	8.19514	0	10.1911
8.24039	8.19514	0	10.1911
8.24047	8.20896	0.0276396	10.1911
8.26023	8.23659	0	10.1911
8.26395	8.23659	0	10.3731
8.26413	8.23659	0	10.3731
8.34519	8.23659	0.0276396	10.3731
8.3452	8.23659	0.0276396	10.3731
8.36041	8.26423	0	10.3731
8.36059	8.26423	0	10.3731
8.36162	8.26423	0.0276396	10.3731
8.36163	8.27805	0.0552792	10.3731
8.36171	8.30569	0.0276396	10.3731
8.36176	8.33333	0	10.3731
8.43349	8.33333	0	10.3731
8.43392	8.33333	0	10.3731
8.43405	8.34715	0.0276396	10.3731
8.4712	8.37479	0	10.3731
8.47171	8.37479	0	10.3731
8.47201	8.37479	0.0276396	10.3731
8.47202	8.38861	0.0552792	10.3731
8.47203	8.41625	0.0276396	10.3731
8.49238	8.44389	0	10.3731
8.49281	8.44389	0	10.3731
8.4932	8.44389	0.0276396	10.3731
8.49323	8.45771	0.0552792	10.3731
8.49328	8.48535	0.0276396	10.3731
8.55627	8.51299	0	10.3731
8.55661	8.51299	0	10.3731
8.55697	8.51299	0.0276396	10.3731
8.55697	8.52681	0.0552792	10.3731
8.55706	8.55445	0.0276396	10.3731
8.57894	8.58209	0	10.3731
8.63262	8.58209	0	10.4641
8.63386	8.58209	0	10.4641
8.63401	8.59591	0.0276396	10.4641
8.73327	8.62355	0	10.4641
8.7338	8.62355	0	10.4641
8.73385	8.63737	0.0276396	10.4641
8.74225	8.66501	0	10.4641
8.7426	8.66501	0	10.4641
8.74289	8.66501	0.0276396	10.4641
8.74295	8.66501	0.0552792	10.4641
8.74296	8.69265	0.0276396	10.4641
8.75734	8.72029	0	10.4641
8.75788	8.72029	0	10.4641
8.75806	8.72029	0.0276396	10.4641
8.75834	8.72029	0.0552792	10.4641
8.75836	8.72029	0.0829187	10.4641
8.75837	8.72029	0.138198	10.4641
8.75838	8.74793	0.110558	10.4641
8.75839	8.77557	0.0829187	10.4641
8.75839	8.80321	0.0552792	10.4641
8.75842	8.83085	0.0276396	10.4641
8.75844	8.83085	0.0276396	10.4641
8.77315	8.85849	0	10.4641
8.78475	8.85849	0	10.5551
8.85178	8.85849	0	10.646
8.8519	8.85849	0	10.646
8.85193	8.87231	0.0276396	10.646
8.862	8.89994	0	10.646
8.87101	8.89994	0	10.737
8.87122	8.89994	0	10.737
8.87134	8.91376	0.0276396	10.737
8.88404	8.9414	0	10.737
8.88461	8.9414	0	10.737
8.88469	8.95522	0.0276396	10.737
8.90762	8.98286	0	10.737
8.90829	8.98286	0	10.737
8.9083	8.98286	0.0552792	10.737
8.90832	9.0105	0.0276396	10.737
9.06363	9.03814	0	10.737
9.065	9.03814	0	10.737
9.06516	9.05196	0.0276396	10.737
9.0747	9.0796	0	10.737
9.07535	9.0796	0	10.737
9.07536	9.09342	0.0276396	10.737
9.07537	9.12106	0	10.737
9.15436	9.12106	0	10.737
9.15485	9.12106	0	10.737
9.15502	9.13488	0.0276396	10.737
9.16708	9.16252	0	10.737
9.24786	9.16252	0	10.919
9.3008	9.16252	0	11.101
9.30386	9.16252	0	11.283
9.30418	9.16252	0	11.283
9.30428	9.17634	0.0276396	11.283
9.30429	9.20398	0	11.283
9.33282	9.20398	0	11.283
9.33592	9.20398	0	11.283
9.33593	9.20398	0.0276396	11.283
9.33595	9.20398	0.0829187	11.283
9.33596	9.23162	0.0552792	11.283
9.33599	9.25926	0.0276396	11.283
9.33702	9.2869	0	11.283
9.35512	9.2869	0	11.283
9.62907	9.2869	0	11.465
9.64274	9.2869	0	11.647
9.64349	9.2869	0	11.647
9.64365	9.30072	0.0276396	11.647
9.65361	9.32836	0	11.647
9.65366	9.32836	0	11.647
9.6539	9.34218	0.0276396	11.647
9.67562	9.36982	0	11.647
9.67579	9.36982	0	11.647
9.73956	9.36982	0.0276396	11.647
9.73956	9.36982	0.0276396	11.7379
9.79509	9.39746	0	11.7379
9.79567	9.39746	0	11.7379
9.79569	9.41128	0.0276396	11.7379
9.85801	9.43892	0	11.7379
9.85806	9.43892	0	11.7379
9.85806	9.45274	0.0276396	11.7379
9.86889	9.48038	0	11.7379
9.86894	9.48038	0	11.7379
9.86897	9.4942	0.0276396	11.7379
9.89255	9.52184	0	11.7379
9.89352	9.52184	0	11.7379
9.89383	9.52184	0.0276396	11.7379
9.89387	9.53566	0.0552792	11.7379
9.89391	9.56329	0.0276396	11.7379
10.009	9.59093	0	11.7379
10.0656	9.59093	0	11.8289
10.1815	9.59093	0	12.0109
10.1964	9.59093	0	12.1929
10.1972	9.59093	0	12.1929
10.1983	9.59093	0.0276396	12.1929
10.1983	9.60475	0.0552792	12.1929
10.1986	9.63239	0.0276396	12.1929
10.2068	9.66003	0	12.1929
10.2077	9.66003	0	12.1929
10.2077	9.66003	0.0276396	12.1929
10.2077	9.67385	0.0552792	12.1929
10.2077	9.70149	0.0276396	12.1929
10.2211	9.72913	0	12.1929
10.2757	9.72913	0	12.2839
10.2758	9.72913	0	12.2839
10.2772	9.72913	0.0276396	12.2839
10.2772	9.74295	0.0552792	12.2839
10.2773	9.77059	0.0276396	12.2839
10.3284	9.79823	0	12.2839
10.3285	9.79823	0	12.2839
10.3291	9.79823	0.0276396	12.2839
10.3291	9.81205	0.0552792	12.2839
10.3294	9.83969	0.0276396	12.2839
10.5883	9.86733	0	12.2839
10.6367	9.86733	0	12.4659
10.6496	9.86733	0	12.6479
10.6501	9.86733	0	12.6479
10.6501	9.86733	0.0552792	12.6479
10.6502	9.89497	0.0276396	12.6479
10.6646	9.92261	0	12.6479
10.6939	9.92261	0	12.8298
10.6948	9.92261	0	12.8298
10.695	9.93643	0.0276396	12.8298
10.7484	9.96407	0	12.8298
10.7484	9.96407	0	12.8298
10.7484	9.96407	0.0552792	12.8298
10.7484	9.99171	0.0276396	12.8298
10.7582	10.0193	0	12.8298
10.7839	10.0193	0	13.0118
10.792	10.0193	0	13.1938
10.8032	10.0193	0	13.2848
10.804	10.0193	0	13.2848
10.804	10.0332	0.0276396	13.2848
10.8444	10.0608	0	13.2848
10.8449	10.0608	0	13.2848
10.845	10.0746	0.0276396	13.2848
10.8487	10.1023	0	13.2848
10.8488	10.1023	0	13.2848
10.8488	10.1023	0.0276396	13.2848
10.8675	10.1299	0	13.2848
10.8816	10.1299	0	13.3758
10.8817	10.1299	0	13.3758
10.8817	10.1299	0.0552792	13.3758
10.8817	10.1575	0.0276396	13.3758
10.9391	10.1852	0	13.3758
10.9402	10.1852	0	13.3758
10.9415	10.1852	0.0276396	13.3758
10.9415	10.199	0.0552792	13.3758
10.9416	10.2266	0.0276396	13.3758
10.9794	10.2543	0	13.3758
10.98	10.2543	0	13.3758
10.9801	10.2681	0.0276396	13.3758
11.0556	10.2957	0	13.3758
11.0585	10.2957	0	13.5578
11.0586	10.2957	0	13.5578
11.0587	10.3096	0.0276396	13.5578
11.0858	10.3372	0	13.5578
11.0955	10.3372	0	13.7398
11.1303	10.3372	0	13.9217
11.2483	10.3372	0	14.1037
11.2487	10.3372	0	14.1037
11.2487	10.3372	0.0552792	14.1037
11.2488	10.3648	0.0276396	14.1037
11.2835	10.3925	0	14.1037
11.2841	10.3925	0	14.1037
11.2841	10.3925	0.0552792	14.1037
11.2841	10.4201	0.0276396	14.1037
11.4036	10.4478	0	14.1037
11.4365	10.4478	0	14.2857
11.4366	10.4478	0	14.2857
11.4366	10.4478	0.0552792	14.2857
11.4366	10.4754	0.0276396	14.2857
11.4366	10.4754	0.0276396	14.2857
11.452	10.503	0	14.2857
11.5039	10.503	0	14.4677
11.5051	10.503	0	14.4677
11.5051	10.503	0.0276396	14.4677
11.5059	10.503	0.0552792	14.4677
11.5063	10.503	0.0829187	14.4677
11.5074	10.503	0.110558	14.4677
11.6451	10.503	0.138198	14.4677
11.6451	10.503	0.138198	14.5587
11.6452	10.5307	0.110558	14.5587
11.6452	10.5583	0.0829187	14.5587
11.6452	10.586	0.0552792	14.5587
11.6452	10.6136	0.0276396	14.5587
11.7471	10.6412	0	14.5587
11.821	10.6412	0	14.7407
11.8213	10.6412	0	14.7407
11.8214	10.6551	0.0276396	14.7407
11.8606	10.6827	0	14.7407
11.865	10.6827	0	14.9227
11.8652	10.6827	0	14.9227
11.8652	10.6965	0.0276396	14.9227
11.9678	10.7242	0	14.9227
11.9886	10.7242	0	15.1046
11.9892	10.7242	0	15.1046
11.9901	10.7242	0.0276396	15.1046
11.9901	10.738	0.0552792	15.1046
11.9901	10.7656	0.0276396	15.1046
12.0533	10.7933	0	15.1046
12.0535	10.7933	0	15.1046
12.0536	10.8071	0.0276396	15.1046
12.0703	10.8347	0	15.1046
12.0705	10.8347	0	15.1046
12.0707	10.8485	0.0276396	15.1046
12.0855	10.8762	0	15.1046
12.0857	10.8762	0	15.1046
12.0858	10.89	0.0276396	15.1046
12.0902	10.9176	0	15.1046
12.0905	10.9176	0	15.1046
12.0905	10.9315	0.0276396	15.1046
12.0905	10.9591	0	15.1046
12.204	10.9591	0	15.1046
12.2042	10.9591	0	15.1046
12.2043	10.9729	0.0276396	15.1046
12.2043	11.0006	0	15.1046
12.3037	11.0006	0	15.1046
12.3395	11.0006	0	15.2866
12.3398	11.0006	0	15.2866
12.5029	11.0006	0.0276396	15.2866
12.5029	11.0006	0.0276396	15.2866
12.503	11.0282	0	15.2866
12.5031	11.042	0.0276396	15.2866
12.5513	11.0697	0	15.2866
12.5521	11.0697	0	15.2866
12.5527	11.0697	0.0276396	15.2866
12.5527	11.0835	0.0552792	15.2866
12.5528	11.1111	0.0276396	15.2866
12.5771	11.1388	0	15.2866
12.5941	11.1388	0	15.3776
12.5953	11.1388	0	15.3776
12.5954	11.1526	0.0276396	15.3776
12.7789	11.1802	0	15.3776
12.7791	11.1802	0	15.3776
12.7793	11.194	0.0276396	15.3776
12.8098	11.2217	0	15.3776
12.8099	11.2217	0	15.3776
12.8117	11.2217	0.0276396	15.3776
12.8119	11.2217	0.0552792	15.3776
12.812	11.2217	0.0829187	15.3776
12.8122	11.2217	0.110558	15.3776
12.8125	11.2217	0.138198	15.3776
12.8955	11.2217	0.165837	15.3776
12.8955	11.2217	0.165837	15.3776
12.8955	11.2493	0.138198	15.3776
12.8955	11.2769	0.110558	15.3776
12.8956	11.3046	0.0829187	15.3776
12.8956	11.3322	0.0552792	15.3776
12.8956	11.3599	0.0276396	15.3776
12.8956	11.3737	0.0552792	15.3776
12.8957	11.4013	0.0276396	15.3776
12.9367	11.429	0	15.3776
12.9374	11.429	0	15.3776
12.9375	11.4428	0.0276396	15.3776
12.9417	11.4704	0	15.3776
13.0389	11.4704	0	15.5596
13.0394	11.4704	0	15.5596
13.0395	11.4842	0.0276396	15.5596
13.1643	11.5119	0	15.5596
13.1643	11.5119	0	15.5596
13.1643	11.5119	0.0552792	15.5596
13.1644	11.5395	0.0276396	15.5596
13.1968	11.5672	0	15.5596
13.197	11.5672	0	15.5596
13.197	11.581	0.0276396	15.5596
13.225	11.6086	0	15.5596
13.225	11.6086	0	15.5596
13.2251	11.6086	0.0552792	15.5596
13.2252	11.6363	0.0276396	15.5596
13.2447	11.6639	0	15.5596
13.2448	11.6639	0	15.5596
13.2448	11.6777	0.0276396	15.5596
13.4378	11.7054	0	15.5596
13.4379	11.7054	0	15.5596
13.438	11.7192	0.0276396	15.5596
13.499	11.7468	0	15.5596
13.4996	11.7468	0	15.5596
13.4997	11.7468	0.0552792	15.5596
13.4998	11.7745	0.0276396	15.5596
13.507	11.8021	0	15.5596
13.5246	11.8021	0	15.7416
13.5247	11.8021	0	15.7416
13.5247	11.8159	0.0276396	15.7416
13.5762	11.8436	0	15.7416
13.5771	11.8436	0	15.7416
13.5772	11.8574	0.0276396	15.7416
13.5891	11.885	0	15.7416
13.5895	11.885	0	15.7416
13.5895	11.8988	0.0276396	15.7416
13.5944	11.9265	0	15.7416
13.596	11.9265	0	15.7416
13.5962	11.9265	0.0276396	15.7416
13.5962	11.9403	0.0552792	15.7416
13.5962	11.9679	0.0276396	15.7416
13.6007	11.9956	0	15.7416
13.6585	11.9956	0	15.9236
13.7232	11.9956	0	16.1056
13.7242	11.9956	0	16.1056
13.7243	11.9956	0.0552792	16.1056
13.7244	12.0232	0.0276396	16.1056
13.8239	12.0509	0	16.1056
13.8247	12.0509	0	16.1056
13.8247	12.0647	0.0276396	16.1056
13.8354	12.0923	0	16.1056
13.8355	12.0923	0	16.1056
13.8358	12.0923	0.0276396	16.1056
13.8359	12.1061	0.0552792	16.1056
13.836	12.1338	0.0276396	16.1056
13.9123	12.1614	0	16.1056
13.9127	12.1614	0	16.1056
14.122	12.1614	0.0276396	16.1056
14.1223	12.1614	0.0276396	16.2875
14.1371	12.1891	0	16.2875
14.1404	12.1891	0	16.2875
14.1404	12.2029	0.0276396	16.2875
14.3932	12.2305	0	16.2875
14.3932	12.2305	0	16.2875
14.3932	12.2305	0.0552792	16.2875
14.3932	12.2582	0.0276396	16.2875
14.4134	12.2858	0	16.2875
14.4386	12.2858	0	16.4695
14.4395	12.2858	0	16.4695
14.4401	12.2858	0.0276396	16.4695
14.4401	12.2996	0.0552792	16.4695
14.4401	12.3273	0.0276396	16.4695
14.4601	12.3549	0	16.4695
14.4619	12.3549	0	16.4695
14.4619	12.3687	0.0276396	16.4695
14.4736	12.3964	0	16.4695
14.4739	12.3964	0	16.4695
14.4748	12.3964	0.0276396	16.4695
14.4748	12.4102	0.0552792	16.4695
14.4749	12.4378	0.0276396	16.4695
14.4893	12.4655	0	16.4695
14.4907	12.4655	0	16.4695
14.4907	12.4793	0.0276396	16.4695
14.5246	12.5069	0	16.4695
14.6061	12.5069	0	16.6515
14.6064	12.5069	0	16.6515
14.6068	12.5069	0.0276396	16.6515
14.6068	12.5207	0.0552792	16.6515
14.6069	12.5484	0.0276396	16.6515
14.6069	12.5484	0.0276396	16.6515
14.9259	12.576	0	16.6515
14.9262	12.576	0	16.6515
14.9265	12.5898	0.0276396	16.6515
14.938	12.6175	0	16.6515
15.0817	12.6175	0	16.8335
15.0817	12.6175	0	16.8335
15.0817	12.6175	0.0552792	16.8335
15.0818	12.6451	0.0276396	16.8335
15.103	12.6727	0	16.8335
15.1032	12.6727	0	16.8335
15.1033	12.6866	0.0276396	16.8335
15.1242	12.7142	0	16.8335
15.1245	12.7142	0	16.8335
15.1246	12.728	0.0276396	16.8335
15.6045	12.7557	0	16.8335
15.7059	12.7557	0	17.0155
15.7062	12.7557	0	17.0155
15.7062	12.7695	0.0276396	17.0155
15.7586	12.7971	0	17.0155
15.759	12.7971	0	17.0155
15.759	12.8109	0.0276396	17.0155
15.7979	12.8386	0	17.0155
15.7982	12.8386	0	17.0155
15.8	12.8386	0.0276396	17.0155
15.8004	12.8386	0.0552792	17.0155
15.8007	12.8386	0.0829187	17.0155
15.9947	12.8386	0.110558	17.0155
15.9948	12.8386	0.110558	17.1065
15.9948	12.8662	0.0829187	17.1065
15.9948	12.8662	0.0829187	17.1065
15.9948	12.8939	0.0552792	17.1065
15.9948	12.9215	0.0276396	17.1065
16.1146	12.9491	0	17.1065
16.1495	12.9491	0	17.2884
16.1502	12.9491	0	17.2884
16.1502	12.9491	0.0552792	17.2884
16.1503	12.9768	0.0276396	17.2884
16.3244	13.0044	0	17.2884
16.407	13.0044	0	17.4704
16.4073	13.0044	0	17.4704
16.4073	13.0044	0.0552792	17.4704
16.4074	13.0321	0.0276396	17.4704
16.4212	13.0597	0	17.4704
16.4214	13.0597	0	17.4704
16.4215	13.0735	0.0276396	17.4704
16.5272	13.1012	0	17.4704
16.5272	13.1012	0	17.4704
16.5274	13.1012	0.0276396	17.4704
16.5275	13.115	0.0552792	17.4704
16.5276	13.1426	0.0276396	17.4704
16.6054	13.1703	0	17.4704
16.6062	13.1703	0	17.4704
16.6062	13.1703	0.0552792	17.4704
16.6062	13.1979	0.0276396	17.4704
16.6548	13.2255	0	17.4704
16.6558	13.2255	0	17.4704
16.6559	13.2394	0.0276396	17.4704
16.6922	13.267	0	17.4704
16.6926	13.267	0	17.4704
16.6926	13.2808	0.0276396	17.4704
16.7108	13.3085	0	17.4704
16.7109	13.3085	0	17.4704
16.7109	13.3223	0.0276396	17.4704
17.0668	13.3499	0	17.4704
17.0676	13.3499	0	17.4704
17.0676	13.3637	0.0276396	17.4704
17.283	13.3914	0	17.4704
17.2834	13.3914	0	17.4704
17.2834	13.4052	0.0276396	17.4704
17.3935	13.4328	0	17.4704
17.4603	13.4328	0	17.6524
17.4613	13.4328	0	17.6524
17.4614	13.4467	0.0276396	17.6524
17.5197	13.4743	0	17.6524
17.52	13.4743	0	17.6524
17.5202	13.4743	0.0276396	17.6524
17.5202	13.4881	0.0552792	17.6524
17.5202	13.5158	0.0276396	17.6524
17.5582	13.5434	0	17.6524
17.5587	13.5434	0	17.6524
17.5587	13.5572	0.0276396	17.6524
17.7331	13.5849	0	17.6524
17.7339	13.5849	0	17.6524
17.7339	13.5849	0.0552792	17.6524
17.734	13.6125	0.0276396	17.6524
18.4629	13.6401	0	17.6524
18.4633	13.6401	0	17.6524
18.4634	13.654	0.0276396	17.6524
18.5051	13.6816	0	17.6524
18.5056	13.6816	0	17.6524
18.5058	13.6954	0.0276396	17.6524
18.5299	13.7231	0	17.6524
18.5307	13.7231	0	17.6524
18.5309	13.7369	0.0276396	17.6524
18.8671	13.7645	0	17.6524
18.9199	13.7645	0	17.8344
18.9202	13.7645	0	17.8344
18.9202	13.7645	0.0552792	17.8344
18.9202	13.7922	0.0276396	17.8344
19.0988	13.8198	0	17.8344
19.0995	13.8198	0	17.8344
19.0996	13.8336	0.0276396	17.8344
19.3491	13.8612	0	17.8344
19.3497	13.8612	0	17.8344
19.35	13.8612	0.0276396	17.8344
19.35	13.8751	0.0552792	17.8344
19.35	13.9027	0.0276396	17.8344
19.479	13.9303	0	17.8344
19.4792	13.9303	0	17.8344
19.4793	13.9442	0.0276396	17.8344
19.5477	13.9718	0	17.8344
19.5483	13.9718	0	17.8344
19.5483	13.9718	0.0552792	17.8344
19.5484	13.9994	0.0276396	17.8344
19.5751	14.0271	0	17.8344
19.5751	14.0271	0	17.8344
19.5752	14.0409	0.0276396	17.8344
19.7094	14.0685	0	17.8344
19.7104	14.0685	0	17.8344
19.7107	14.0685	0.0276396	17.8344
19.7112	14.0685	0.0552792	17.8344
19.7112	14.0824	0.0829187	17.8344
19.7113	14.11	0.0552792	17.8344
19.7113	14.1376	0.0276396	17.8344
19.8299	14.1653	0	17.8344
19.8304	14.1653	0	17.8344
19.8304	14.1791	0.0276396	17.8344
19.9214	14.2067	0	17.8344
19.9217	14.2067	0	17.8344
19.9217	14.2067	0.0552792	17.8344
19.9217	14.2344	0.0276396	17.8344
19.9593	14.262	0	17.8344
19.9594	14.262	0	17.8344
19.9594	14.2758	0.0276396	17.8344
20.1615	14.3035	0	17.8344
20.1616	14.3035	0	17.8344
20.1618	14.3035	0.0276396	17.8344
20.1618	14.3173	0.0552792	17.8344
20.1618	14.3449	0.0276396	17.8344
20.2483	14.3726	0	17.8344
20.2483	14.3726	0	17.8344
20.2483	14.3864	0.0276396	17.8344
20.5717	14.414	0	17.8344
20.5732	14.414	0	17.8344
20.5733	14.4279	0.0276396	17.8344
20.7016	14.4555	0	17.8344
20.703	14.4555	0	17.8344
21.0671	14.4555	0.0276396	17.8344
21.0671	14.4555	0.0276396	17.8344
21.0671	14.4831	0	17.8344
21.0671	14.4831	0.0552792	17.8344
21.0671	14.5108	0.0276396	17.8344
21.0865	14.5384	0	17.8344
21.0867	14.5384	0	17.8344
21.0867	14.5522	0.0276396	17.8344
21.1418	14.5799	0	17.8344
21.1423	14.5799	0	17.8344
21.1424	14.5799	0.0552792	17.8344
21.1424	14.6075	0.0276396	17.8344
21.3278	14.6352	0	17.8344
21.3281	14.6352	0	17.8344
21.3282	14.649	0.0276396	17.8344
21.8817	14.6766	0	17.8344
21.8819	14.6766	0	17.8344
21.8819	14.6766	0.0276396	17.8344
21.8819	14.6904	0.0552792	17.8344
21.8822	14.7181	0.0276396	17.8344
22.0274	14.7457	0	17.8344
22.0277	14.7457	0	17.8344
22.0278	14.7457	0.0552792	17.8344
22.0279	14.7734	0.0276396	17.8344
22.1145	14.801	0	17.8344
22.3676	14.801	0	18.0164
22.3689	14.801	0	18.0164
22.369	14.8148	0.0276396	18.0164
22.4178	14.8425	0	18.0164
22.4183	14.8425	0	18.0164
22.4184	14.8563	0.0276396	18.0164
22.4436	14.8839	0	18.0164
22.4445	14.8839	0	18.0164
22.5065	14.8839	0.0276396	18.0164
22.5066	14.8839	0.0276396	18.0164
22.5069	14.9116	0	18.0164
22.5069	14.9116	0.0552792	18.0164
22.5069	14.9392	0.0276396	18.0164
22.5342	14.9668	0	18.0164
22.5346	14.9668	0	18.0164
22.5357	14.9668	0.0276396	18.0164
22.5366	14.9668	0.0552792	18.0164
22.5367	14.9668	0.0829187	18.0164
22.5368	14.9668	0.110558	18.0164
22.5368	14.9807	0.138198	18.0164
22.5368	15.0083	0.110558	18.0164
22.5369	15.0359	0.0829187	18.0164
22.5369	15.0636	0.0552792	18.0164
22.5369	15.0912	0.0276396	18.0164
22.6101	15.1189	0	18.0164
22.6102	15.1189	0	18.0164
22.6103	15.1189	0.0552792	18.0164
22.6103	15.1465	0.0276396	18.0164
23.0696	15.1741	0	18.0164
23.0704	15.1741	0	18.0164
23.0705	15.1879	0.0276396	18.0164
23.1853	15.2156	0	18.0164
23.1855	15.2156	0	18.0164
23.1856	15.2156	0.0276396	18.0164
23.1857	15.2294	0.0552792	18.0164
23.1857	15.257	0.0276396	18.0164
23.2129	15.2847	0	18.0164
23.2133	15.2847	0	18.0164
23.2138	15.2847	0.0276396	18.0164
23.2154	15.2847	0.0552792	18.0164
23.216	15.2847	0.0829187	18.0164
23.2164	15.2847	0.110558	18.0164
23.3659	15.2847	0.138198	18.0164
23.3659	15.2847	0.138198	18.1984
23.3659	15.3123	0.110558	18.1984
23.366	15.34	0.0829187	18.1984
23.366	15.3676	0.0552792	18.1984
23.3662	15.3952	0.0276396	18.1984
23.448	15.4229	0	18.1984
23.5402	15.4229	0	18.3803
23.5406	15.4229	0	18.3803
23.5766	15.4229	0.0276396	18.3803
23.5766	15.4229	0.0276396	18.3803
23.5767	15.4505	0	18.3803
23.5767	15.4505	0.0552792	18.3803
23.5767	15.4782	0.0276396	18.3803
23.9323	15.5058	0	18.3803
23.9698	15.5058	0	18.5623
23.97	15.5058	0	18.5623
23.9702	15.5196	0.0276396	18.5623
24.3583	15.5473	0	18.5623
24.359	15.5473	0	18.5623
24.359	15.5611	0.0276396	18.5623
24.3979	15.5887	0	18.5623
24.3981	15.5887	0	18.5623
24.3982	15.6025	0.0276396	18.5623
24.5985	15.6302	0	18.5623
24.5995	15.6302	0	18.5623
24.5995	15.6302	0.0552792	18.5623
24.5995	15.6578	0.0276396	18.5623
24.6112	15.6855	0	18.5623
24.6114	15.6855	0	18.5623
24.6114	15.6993	0.0276396	18.5623
24.7935	15.7269	0	18.5623
24.7943	15.7269	0	18.5623
24.7943	15.7269	0.0552792	18.5623
24.7945	15.7546	0.0276396	18.5623
24.9203	15.7822	0	18.5623
25.1709	15.7822	0	18.7443
25.1716	15.7822	0	18.7443
25.1716	15.7822	0.0552792	18.7443
25.1716	15.8098	0.0276396	18.7443
25.7762	15.8375	0	18.7443
25.7771	15.8375	0	18.7443
25.7774	15.8375	0.0276396	18.7443
25.7775	15.8513	0.0552792	18.7443
25.7775	15.8789	0.0276396	18.7443
26.7254	15.9066	0	18.7443
27.4422	15.9066	0	18.9263
27.4428	15.9066	0	18.9263
27.4431	15.9066	0.0276396	18.9263
27.84	15.9066	0.0552792	18.9263
27.8401	15.9066	0.0552792	18.9263
27.8401	15.9342	0.0276396	18.9263
27.8404	15.9619	0	18.9263
27.9336	15.9619	0.0276396	18.9263
27.9336	15.9619	0.0276396	18.9263
27.9337	15.9619	0.0276396	18.9263
27.9337	15.9619	0.0276396	18.9263
27.934	15.9895	0	18.9263
27.9344	15.9895	0.0276396	18.9263
27.9346	15.9895	0.0552792	18.9263
27.9348	15.9895	0.0829187	18.9263
27.9348	16.0033	0.110558	18.9263
27.9348	16.031	0.0829187	18.9263
27.9348	16.031	0.0829187	18.9263
27.9348	16.0586	0.0552792	18.9263
27.9348	16.0586	0.0552792	18.9263
27.9348	16.0862	0.0276396	18.9263
28.2455	16.1139	0	18.9263
28.2459	16.1139	0	18.9263
28.2465	16.1139	0.0276396	18.9263
28.2465	16.1277	0.0552792	18.9263
28.2465	16.1553	0.0276396	18.9263
28.3203	16.183	0	18.9263
28.3208	16.183	0	18.9263
28.3208	16.1968	0.0276396	18.9263
28.5823	16.2244	0	18.9263
28.5826	16.2244	0	18.9263
28.5826	16.2244	0.0552792	18.9263
28.5827	16.2521	0.0276396	18.9263
28.6146	16.2797	0	18.9263
28.6148	16.2797	0	18.9263
28.6152	16.2797	0.0276396	18.9263
28.6161	16.2797	0.0552792	18.9263
28.6173	16.2797	0.0829187	18.9263
29.8548	16.2797	0.110558	18.9263
29.8548	16.2797	0.110558	18.9263
29.8549	16.3074	0.0829187	18.9263
29.8549	16.335	0.0552792	18.9263
29.8549	16.3626	0.0276396	18.9263
29.8551	16.3903	0	18.9263
29.8551	16.3903	0.0552792	18.9263
29.8551	16.4179	0.0276396	18.9263
29.866	16.4456	0	18.9263
29.8671	16.4456	0	18.9263
29.8671	16.4456	0.0552792	18.9263
29.8672	16.4732	0.0276396	18.9263
30.1433	16.5008	0	18.9263
30.1434	16.5008	0	18.9263
30.1435	16.5146	0.0276396	18.9263
30.4014	16.5423	0	18.9263
30.4018	16.5423	0	18.9263
30.4024	16.5423	0.0276396	18.9263
30.4024	16.5561	0.0552792	18.9263
30.4025	16.5837	0.0276396	18.9263
30.6911	16.6114	0	18.9263
31.4328	16.6114	0	19.1083
31.4331	16.6114	0	19.1083
31.4332	16.6252	0.0276396	19.1083
31.6477	16.6528	0	19.1083
31.6477	16.6528	0	19.1083
31.6477	16.6667	0.0276396	19.1083
31.7788	16.6943	0	19.1083
31.7793	16.6943	0	19.1083
31.7793	16.7081	0.0276396	19.1083
31.8724	16.7358	0	19.1083
31.8739	16.7358	0	19.1083
31.8742	16.7358	0.0276396	19.1083
31.8742	16.7496	0.0552792	19.1083
31.8743	16.7772	0.0276396	19.1083
32.6883	16.8049	0	19.1083
32.6892	16.8049	0	19.1083
32.6892	16.8049	0.0552792	19.1083
32.6892	16.8325	0.0276396	19.1083
32.6892	16.8325	0.0276396	19.1083
33.3596	16.8601	0	19.1083
33.3597	16.8601	0	19.1083
33.3597	16.8601	0.0552792	19.1083
33.3598	16.8878	0.0276396	19.1083
33.4597	16.9154	0	19.1083
33.4597	16.9154	0	19.1083
33.4598	16.9154	0.0552792	19.1083
33.4598	16.9431	0.0276396	19.1083
33.5241	16.9707	0	19.1083
33.5247	16.9707	0	19.1083
33.5252	16.9707	0.0276396	19.1083
33.5252	16.9845	0.0552792	19.1083
33.5253	17.0122	0.0276396	19.1083
34.5295	17.0398	0	19.1083
34.5305	17.0398	0	19.1083
34.5306	17.0398	0.0552792	19.1083
34.5307	17.0674	0.0276396	19.1083
34.9486	17.0951	0	19.1083
34.9499	17.0951	0	19.1083
34.9499	17.1089	0.0276396	19.1083
35.0393	17.1365	0	19.1083
35.0397	17.1365	0	19.1083
35.0397	17.1365	0.0552792	19.1083
35.0398	17.1642	0.0276396	19.1083
36.0578	17.1918	0	19.1083
36.2226	17.1918	0	19.2903
36.2237	17.1918	0	19.2903
36.2238	17.1918	0.0552792	19.2903
36.2238	17.2195	0.0276396	19.2903
36.4305	17.2471	0	19.2903
36.4306	17.2471	0	19.2903
36.4306	17.2471	0.0552792	19.2903
36.4307	17.2747	0.0276396	19.2903
36.7488	17.3024	0	19.2903
36.7489	17.3024	0	19.2903
36.7489	17.3024	0.0276396	19.2903
36.7496	17.3024	0.0552792	19.2903
36.7498	17.3024	0.0829187	19.2903
37.0723	17.3024	0.110558	19.2903
37.0723	17.3024	0.110558	19.2903
37.0723	17.33	0.0829187	19.2903
37.0723	17.3577	0.0552792	19.2903
37.0723	17.3577	0.110558	19.2903
37.0723	17.3853	0.0829187	19.2903
37.0723	17.4129	0.0552792	19.2903
37.0723	17.4406	0.0276396	19.2903
38.0216	17.4682	0	19.2903
38.0219	17.4682	0	19.2903
38.0219	17.4682	0.0552792	19.2903
38.022	17.4959	0.0276396	19.2903
38.1719	17.5235	0	19.2903
38.1722	17.5235	0	19.2903
38.1723	17.5235	0.0552792	19.2903
38.1723	17.5511	0.0276396	19.2903
38.7683	17.5788	0	19.2903
38.7686	17.5788	0	19.2903
38.7686	17.5926	0.0276396	19.2903
38.8219	17.6202	0	19.2903
38.8226	17.6202	0	19.2903
38.8227	17.6202	0.0552792	19.2903
38.8227	17.6479	0.0276396	19.2903
38.9951	17.6755	0	19.2903
38.9957	17.6755	0	19.2903
38.9957	17.6893	0.0276396	19.2903
39.0897	17.717	0	19.2903
39.0897	17.717	0	19.2903
39.0897	17.717	0.0552792	19.2903
39.0898	17.7446	0.0276396	19.2903
39.4756	17.7722	0	19.2903
39.4759	17.7722	0	19.2903
39.476	17.7861	0.0276396	19.2903
39.6379	17.8137	0	19.2903
39.638	17.8137	0	19.2903
39.6381	17.8275	0.0276396	19.2903
39.9748	17.8552	0	19.2903
39.9749	17.8552	0	19.2903
39.9749	17.8552	0.0552792	19.2903
39.9749	17.8828	0.0276396	19.2903
40.4993	17.9104	0	19.2903
40.4994	17.9104	0	19.2903
44.6611	17.9104	0.0276396	19.2903
44.6612	17.9104	0.0276396	19.2903
44.6613	17.9381	0	19.2903
44.6613	17.9519	0.0276396	19.2903
44.6614	17.9795	0	19.2903
45.5644	17.9795	0	19.2903
45.5644	17.9795	0	19.2903
45.5644	17.9934	0.0276396	19.2903
45.9259	18.021	0	19.2903
45.9259	18.021	0	19.2903
45.926	18.0348	0.0276396	19.2903
47.6725	18.0625	0	19.2903
47.6728	18.0625	0	19.2903
47.6728	18.0625	0.0552792	19.2903
47.6729	18.0901	0.0276396	19.2903
48.048	18.1177	0	19.2903
48.0486	18.1177	0	19.2903
48.0486	18.1177	0.0552792	19.2903
48.0487	18.1454	0.0276396	19.2903
48.2404	18.173	0	19.2903
48.2405	18.173	0	19.2903
50.069	18.173	0.0276396	19.2903
50.0709	18.173	0.0276396	19.2903
50.0709	18.173	0.0829187	19.2903
50.071	18.2007	0.0552792	19.2903
50.071	18.2283	0.0276396	19.2903
51.004	18.2559	0	19.2903
51.0041	18.2559	0	19.2903
51.4195	18.2559	0.0276396	19.2903
51.4196	18.2559	0.0276396	19.2903
51.4201	18.2836	0	19.2903
51.4201	18.2836	0.0552792	19.2903
51.4202	18.3112	0.0276396	19.2903
51.4919	18.3389	0	19.2903
51.4921	18.3389	0	19.2903
51.4922	18.3389	0.0276396	19.2903
51.4929	18.3389	0.0552792	19.2903
51.4929	18.3389	0.110558	19.2903
51.493	18.3665	0.0829187	19.2903
51.493	18.3941	0.0552792	19.2903
51.493	18.4218	0.0276396	19.2903
54.3192	18.4494	0	19.2903
54.3195	18.4494	0	19.2903
54.3196	18.4494	0.0552792	19.2903
54.3197	18.4771	0.0276396	19.2903
55.6736	18.5047	0	19.2903
55.6748	18.5047	0	19.2903
55.6748	18.5047	0.0552792	19.2903
55.6748	18.5323	0.0276396	19.2903
57.3423	18.56	0	19.2903
57.3427	18.56	0	19.2903
57.3428	18.56	0.0552792	19.2903
57.3429	18.5876	0.0276396	19.2903
59.4631	18.6153	0	19.2903
59.4632	18.6153	0	19.2903
59.4632	18.6291	0.0276396	19.2903
59.5671	18.6567	0	19.2903
59.5672	18.6567	0	19.2903
59.5672	18.6567	0.0552792	19.2903
59.5673	18.6844	0.0276396	19.2903
64.4686	18.712	0	19.2903
64.469	18.712	0	19.2903
64.469	18.712	0.0552792	19.2903
64.4691	18.7396	0.0276396	19.2903
70.1624	18.7673	0	19.2903
70.1635	18.7673	0	19.2903
70.1635	18.7673	0.0552792	19.2903
70.1635	18.7949	0.0276396	19.2903
72.7405	18.8226	0	19.2903
72.7408	18.8226	0	19.2903
72.7408	18.8226	0.0552792	19.2903
72.7411	18.8502	0.0276396	19.2903
77.6157	18.8778	0	19.2903
77.6159	18.8778	0	19.2903
77.616	18.8917	0.0276396	19.2903
79.5642	18.9193	0	19.2903
79.5648	18.9193	0	19.2903
79.5649	18.9193	0.0552792	19.2903
79.5649	18.9469	0.0276396	19.2903
80.89	18.9746	0	19.2903
80.8901	18.9746	0	19.2903
80.8902	18.9746	0.0552792	19.2903
80.8902	19.0022	0.0276396	19.2903
81.6427	19.0299	0	19.2903
81.6428	19.0299	0	19.2903
