3.23855e-10	0	0	0
3.41207e-10	0	0	0
4.76281e-10	0	0	0
6.44019e-10	0	0	0
1.02183e-09	0	0	0
2.80429e-09	0	0	0
2.9632e-09	0	0	0
3.43698e-09	0	0	0
3.80536e-09	0	0	0
3.85382e-09	0	0	0
5.59149e-09	0	0	0
5.6096e-09	0	0	0
6.81584e-09	0	0	0
7.1735e-09	0	0	0
7.28207e-09	0	0	0
8.34077e-09	0	0	0
8.37572e-09	0	0	0
9.30566e-09	0	0	0
9.75687e-09	0	0	0
1.01982e-08	0	0	0
1.02638e-08	0	0	0
1.2282e-08	0	0	0
1.32799e-08	0	0	0
1.4148e-08	0	0	0
1.43825e-08	0	0	0
1.49479e-08	0	0	0
1.49659e-08	0	0	0
1.51946e-08	0	0	0
1.55489e-08	0	0	0
1.56149e-08	0	0	0
1.81495e-08	0	0	0
1.82773e-08	0	0	0
2.16929e-08	0	0	0
2.18265e-08	0	0	0
2.30423e-08	0	0	0
2.41765e-08	0	0	0
2.44636e-08	0	0	0
2.70142e-08	0	0	0
2.70702e-08	0	0	0
2.73593e-08	0	0	0
2.84932e-08	0	0	0
2.86327e-08	0	0	0
3.17204e-08	0	0	0
3.19349e-08	0	0	0
3.53763e-08	0	0	0
3.64809e-08	0	0	0
3.69651e-08	0	0	0
3.7512e-08	0	0	0
3.90631e-08	0	0	0
4.05263e-08	0	0	0
4.45023e-08	0	0	0
4.68575e-08	0	0	0
4.69935e-08	0	0	0
6.21681e-08	0	0	0
6.60049e-08	0	0	0
7.36679e-08	0	0	0
7.50191e-08	0	0	0
7.56949e-08	0	0	0
7.68494e-08	0	0	0
7.74706e-08	0	0	0
9.36357e-08	0	0	0
1.48906e-07	0	0	0
1.80511e-07	0	0	0
3.09784e-07	0	0	0
3.15269e-07	0	0	0
3.19215e-07	0	0	0
3.32703e-07	0	0	0
4.30847e-07	0	0	0
5.56524e-07	0	0	0
1.21723e-06	0	0	0
1.27766e-06	0	0	0
1.29021e-06	0	0	0
1.38716e-06	0	0	0
1.42432e-06	0	0	0
1.61652e-06	0	0	0
1.66851e-06	0	0	0
1.68321e-06	0	0	0
1.70616e-06	0	0	0
2.02165e-06	0	0	0
2.02213e-06	0	0	0
2.1047e-06	0	0	0
2.11621e-06	0	0	0
2.1231e-06	0	0	0
2.13199e-06	0	0	0
2.1521e-06	0	0	0
2.23894e-06	0	0	0
2.28739e-06	0	0	0
2.29253e-06	0	0	0
2.29903e-06	0	0	0
2.36323e-06	0	0	0
2.53056e-06	0	0	0
2.6811e-06	0	0	0
2.71018e-06	0	0	0
2.72362e-06	0	0	0
2.77294e-06	0	0	0
2.79127e-06	0	0	0
2.82113e-06	0	0	0
3.07573e-06	0	0	0
3.20588e-06	0	0	0
3.32351e-06	0	0	0
3.35426e-06	0	0	0
3.4422e-06	0	0	0
3.46983e-06	0	0	0
3.47476e-06	0	0	0
3.52386e-06	0	0	0
3.74051e-06	0	0	0
3.85113e-06	0	0	0
3.86497e-06	0	0	0
3.98678e-06	0	0	0
4.12714e-06	0	0	0
4.19961e-06	0	0	0
4.20713e-06	0	0	0
4.31096e-06	0	0	0
4.40444e-06	0	0	0
4.45309e-06	0	0	0
4.63419e-06	0	0	0
4.65818e-06	0	0	0
4.87338e-06	0	0	0
4.89194e-06	0	0	0
5.17153e-06	0	0	0
5.35732e-06	0	0	0
5.41423e-06	0	0	0
5.41668e-06	0	0	0
5.62584e-06	0	0	0
6.02841e-06	0	0	0
6.13576e-06	0	0	0
6.58778e-06	0	0	0
6.61051e-06	0	0	0
7.09454e-06	0	0	0
7.10055e-06	0	0	0
7.19262e-06	0	0	0
7.33318e-06	0	0	0
7.35106e-06	0	0	0
7.41124e-06	0	0	0
7.69792e-06	0	0	0
7.7931e-06	0	0	0
7.8568e-06	0	0	0
8.10154e-06	0	0	0
8.16157e-06	0	0	0
8.55012e-06	0	0	0
8.5819e-06	0	0	0
8.69911e-06	0	0	0
8.80983e-06	0	0	0
8.81639e-06	0	0	0
9.03539e-06	0	0	0
9.205e-06	0	0	0
9.25766e-06	0	0	0
9.47898e-06	0	0	0
9.69871e-06	0	0	0
9.7408e-06	0	0	0
9.7559e-06	0	0	0
9.84907e-06	0	0	0
9.9166e-06	0	0	0
9.96228e-06	0	0	0
1.02133e-05	0	0	0
1.05203e-05	0	0	0
1.0993e-05	0	0	0
1.10079e-05	0	0	0
1.11357e-05	0	0	0
1.11653e-05	0	0	0
1.12214e-05	0	0	0
1.16446e-05	0	0	0
1.16561e-05	0	0	0
1.25055e-05	0	0	0
1.27761e-05	0	0	0
1.28566e-05	0	0	0
1.30225e-05	0	0	0
1.31693e-05	0	0	0
1.33044e-05	0	0	0
1.35244e-05	0	0	0
1.35609e-05	0	0	0
1.40891e-05	0	0	0
1.43161e-05	0	0	0
1.43579e-05	0	0	0
1.46171e-05	0	0	0
1.49383e-05	0	0	0
1.52197e-05	0	0	0
1.55143e-05	0	0	0
1.55233e-05	0	0	0
1.59168e-05	0	0	0
1.66651e-05	0	0	0
1.7074e-05	0	0	0
1.71248e-05	0	0	0
1.7308e-05	0	0	0
1.74073e-05	0	0	0
1.74812e-05	0	0	0
1.77166e-05	0	0	0
1.78193e-05	0	0	0
1.80278e-05	0	0	0
1.80829e-05	0	0	0
1.84468e-05	0	0	0
1.85396e-05	0	0	0
1.87359e-05	0	0	0
1.87808e-05	0	0	0
2.01708e-05	0	0	0
2.02381e-05	0	0	0
2.16569e-05	0	0	0
2.27975e-05	0	0	0
2.29312e-05	0	0	0
2.33891e-05	0	0	0
2.35781e-05	0	0	0
2.37309e-05	0	0	0
2.37723e-05	0	0	0
2.40628e-05	0	0	0
2.43048e-05	0	0	0
2.46474e-05	0	0	0
2.55767e-05	0	0	0
2.57101e-05	0	0	0
2.57788e-05	0	0	0
2.64893e-05	0	0	0
2.65522e-05	0	0	0
2.69446e-05	0	0	0
2.69467e-05	0	0	0
2.70525e-05	0	0	0
2.81584e-05	0	0	0
2.9566e-05	0	0	0
2.9731e-05	0	0	0
3.0205e-05	0	0	0
3.05261e-05	0	0	0
3.12685e-05	0	0	0
3.15216e-05	0	0	0
3.25165e-05	0	0	0
3.27928e-05	0	0	0
3.28969e-05	0	0	0
3.34282e-05	0	0	0
3.3491e-05	0	0	0
3.36749e-05	0	0	0
3.39672e-05	0	0	0
3.52268e-05	0	0	0
3.84732e-05	0	0	0
3.87858e-05	0	0	0
3.90179e-05	0	0	0
3.99594e-05	0	0	0
4.11984e-05	0	0	0
4.18857e-05	0	0	0
4.33423e-05	0	0	0
4.49914e-05	0	0	0
4.66029e-05	0	0	0
4.7117e-05	0	0	0
4.96949e-05	0	0	0
5.18102e-05	0	0	0
5.25145e-05	0	0	0
5.39846e-05	0	0	0
5.91162e-05	0	0	0
6.07124e-05	0	0	0
6.11061e-05	0	0	0
6.14598e-05	0	0	0
6.18606e-05	0	0	0
6.28376e-05	0	0	0
6.39204e-05	0	0	0
6.60322e-05	0	0	0
6.66584e-05	0	0	0
6.68149e-05	0	0	0
6.80154e-05	0	0	0
7.57002e-05	0	0	0
7.66902e-05	0	0	0
8.11198e-05	0	0	0
8.12117e-05	0	0	0
8.41773e-05	0	0	0
8.45684e-05	0	0	0
8.67637e-05	0	0	0
8.92401e-05	0	0	0
9.4115e-05	0	0	0
9.88079e-05	0	0	0
0.000101575	0	0	0
0.000108359	0	0	0
0.000111477	0	0	0
0.000115855	0	0	0
0.000117443	0	0	0
0.000119339	0	0	0
0.000124954	0	0	0
0.000126663	0	0	0
0.000127652	0	0	0
0.000130639	0	0	0
0.000132245	0	0	0
0.000133994	0	0	0
0.000138308	0	0	0
0.00014351	0	0	0
0.000163372	0	0	0
0.000181198	0	0	0
0.000182178	0	0	0
0.000182695	0	0	0
0.0078014	0	0	0
0.0641499	0	0	0.0909918
0.0734095	0	0	0.0909918
0.0743481	0	0	0.0909918
0.0744766	0	0.0276396	0.0909918
0.0745273	0	0.0552792	0.0909918
0.0745498	0.0138198	0.0829187	0.0909918
0.0745512	0.0414594	0.0552792	0.0909918
0.0745561	0.0414594	0.0552792	0.0909918
0.0745601	0.0414594	0.0552792	0.0909918
0.0745649	0.0414594	0.0552792	0.0909918
0.0745651	0.0690989	0.0276396	0.0909918
0.074593	0.0690989	0.0276396	0.0909918
0.0745974	0.0690989	0.0276396	0.0909918
0.104336	0.0967385	0	0.0909918
0.10581	0.0967385	0	0.0909918
0.105965	0.0967385	0	0.0909918
0.106006	0.110558	0.0276396	0.0909918
0.106053	0.138198	0	0.0909918
0.107147	0.138198	0.0276396	0.0909918
0.107418	0.138198	0.0276396	0.0909918
0.107424	0.152018	0.0552792	0.0909918
0.107435	0.152018	0.0552792	0.0909918
0.107462	0.179657	0.0276396	0.0909918
0.12205	0.207297	0	0.0909918
0.122105	0.207297	0	0.0909918
0.154355	0.207297	0	0.0909918
0.181628	0.207297	0	0.0909918
0.196315	0.207297	0	0.0909918
0.220929	0.207297	0	0.0909918
0.252389	0.207297	0	0.181984
0.27057	0.207297	0	0.181984
0.270942	0.207297	0	0.181984
0.271048	0.221117	0.0276396	0.181984
0.287037	0.248756	0	0.181984
0.327906	0.248756	0	0.181984
0.332004	0.248756	0	0.181984
0.332762	0.248756	0	0.181984
0.332763	0.262576	0.0276396	0.181984
0.332784	0.290216	0	0.181984
0.336922	0.290216	0	0.181984
0.379429	0.290216	0	0.272975
0.401824	0.290216	0	0.272975
0.402131	0.290216	0	0.272975
0.402191	0.304035	0.0276396	0.272975
0.413263	0.331675	0	0.272975
0.435345	0.331675	0	0.272975
0.473403	0.331675	0	0.272975
0.473584	0.331675	0	0.272975
0.47359	0.345495	0.0276396	0.272975
0.473609	0.373134	0	0.272975
0.474611	0.373134	0	0.272975
0.475314	0.373134	0	0.272975
0.475362	0.386954	0.0276396	0.272975
0.475372	0.386954	0.0276396	0.272975
0.535564	0.414594	0	0.272975
0.551153	0.414594	0	0.272975
0.566626	0.414594	0	0.272975
0.597557	0.414594	0	0.363967
0.598011	0.414594	0	0.363967
0.598012	0.428413	0.0276396	0.363967
0.608396	0.456053	0	0.363967
0.608429	0.456053	0	0.454959
0.618905	0.456053	0	0.454959
0.619325	0.456053	0	0.454959
0.61941	0.469873	0.0276396	0.454959
0.674542	0.497512	0	0.454959
0.772361	0.497512	0	0.454959
0.773331	0.497512	0	0.454959
0.773337	0.511332	0.0276396	0.454959
0.784157	0.538972	0	0.454959
0.787333	0.538972	0	0.454959
0.78737	0.538972	0.0552792	0.454959
0.787391	0.566611	0.0276396	0.454959
0.788092	0.594251	0	0.454959
0.813588	0.594251	0	0.545951
0.816627	0.594251	0	0.545951
0.823432	0.594251	0	0.545951
0.82345	0.594251	0	0.545951
0.82346	0.594251	0	0.545951
0.823512	0.594251	0	0.545951
0.866406	0.594251	0	0.545951
0.866836	0.594251	0	0.545951
0.868091	0.594251	0.0276396	0.545951
0.868092	0.608071	0.0552792	0.545951
0.868107	0.63571	0.0276396	0.545951
0.870605	0.66335	0	0.545951
0.874336	0.66335	0	0.545951
0.874821	0.66335	0	0.545951
0.874875	0.67717	0.0276396	0.545951
0.879738	0.704809	0	0.545951
0.879806	0.704809	0	0.545951
0.879888	0.718629	0.0276396	0.545951
0.889279	0.746269	0	0.545951
0.890801	0.746269	0	0.545951
0.890862	0.760088	0.0276396	0.545951
0.890896	0.787728	0	0.545951
0.901974	0.787728	0	0.545951
0.902017	0.787728	0	0.545951
0.902036	0.801548	0.0276396	0.545951
0.902045	0.829187	0	0.545951
0.910768	0.829187	0	0.545951
0.911494	0.829187	0	0.545951
0.911553	0.843007	0.0276396	0.545951
0.921904	0.870647	0	0.545951
0.936007	0.870647	0	0.545951
0.937387	0.870647	0	0.545951
0.984714	0.870647	0	0.545951
0.984831	0.870647	0	0.545951
0.984834	0.870647	0.0552792	0.545951
0.98489	0.898286	0.0276396	0.545951
0.998972	0.925926	0	0.545951
0.999519	0.925926	0	0.545951
0.999939	0.925926	0.0276396	0.545951
0.99995	0.939746	0.0552792	0.545951
0.999968	0.967385	0.0276396	0.545951
1.00157	0.995025	0	0.545951
1.00158	0.995025	0	0.545951
1.00158	0.995025	0	0.545951
1.00161	0.995025	0	0.545951
1.00165	0.995025	0	0.545951
1.02073	0.995025	0	0.545951
1.02077	0.995025	0	0.545951
1.02144	0.995025	0.0276396	0.545951
1.02148	1.00884	0.0552792	0.545951
1.02152	1.03648	0.0276396	0.545951
1.02152	1.06412	0	0.545951
1.02155	1.06412	0	0.545951
1.02157	1.06412	0	0.545951
1.02158	1.06412	0	0.545951
1.02161	1.06412	0	0.545951
1.03903	1.06412	0	0.545951
1.03908	1.06412	0	0.545951
1.03909	1.07794	0.0276396	0.545951
1.05628	1.10558	0	0.545951
1.08003	1.10558	0	0.545951
1.10217	1.10558	0	0.636943
1.11562	1.10558	0	0.636943
1.1821	1.10558	0	0.727934
1.20755	1.10558	0	0.727934
1.24777	1.10558	0	0.727934
1.24799	1.10558	0	0.727934
1.248	1.1194	0.0276396	0.727934
1.248	1.14704	0	0.727934
1.24802	1.14704	0	0.727934
1.24912	1.14704	0	0.727934
1.24912	1.14704	0	0.727934
1.24914	1.16086	0.0276396	0.727934
1.24917	1.1885	0	0.727934
1.26501	1.1885	0	0.727934
1.26542	1.1885	0	0.727934
1.26552	1.20232	0.0276396	0.727934
1.27315	1.22996	0	0.727934
1.27319	1.22996	0	0.727934
1.27676	1.22996	0	0.727934
1.27677	1.22996	0	0.727934
1.30855	1.22996	0	0.727934
1.32185	1.22996	0	0.818926
1.32206	1.22996	0	0.818926
1.32409	1.22996	0.0276396	0.818926
1.32414	1.24378	0.0552792	0.818926
1.32419	1.27142	0.0276396	0.818926
1.3242	1.29906	0	0.818926
1.33774	1.29906	0	0.818926
1.33775	1.29906	0	0.818926
1.33778	1.29906	0	0.818926
1.34089	1.29906	0	0.818926
1.34844	1.29906	0	0.818926
1.38381	1.29906	0	0.909918
1.42388	1.29906	0	0.909918
1.42398	1.29906	0	1.00091
1.44738	1.29906	0	1.0919
1.44771	1.29906	0	1.0919
1.44777	1.31288	0.0276396	1.0919
1.44802	1.34052	0	1.0919
1.4667	1.34052	0	1.0919
1.47451	1.34052	0	1.18289
1.47557	1.34052	0	1.18289
1.47563	1.35434	0.0276396	1.18289
1.47895	1.38198	0	1.18289
1.50246	1.38198	0	1.18289
1.50839	1.38198	0	1.27389
1.52922	1.38198	0	1.27389
1.56722	1.38198	0	1.27389
1.56743	1.38198	0	1.27389
1.56743	1.38198	0.0552792	1.27389
1.56743	1.40962	0.0276396	1.27389
1.56746	1.40962	0.0276396	1.27389
1.57446	1.43726	0	1.27389
1.57487	1.43726	0	1.27389
1.57489	1.43726	0.0276396	1.27389
1.57494	1.43726	0.0552792	1.27389
1.57512	1.43726	0.0829187	1.27389
1.5759	1.43726	0.110558	1.27389
1.57642	1.43726	0.138198	1.27389
1.57672	1.43726	0.165837	1.27389
1.57683	1.43726	0.193477	1.27389
1.57701	1.43726	0.221117	1.27389
1.57702	1.43726	0.248756	1.27389
1.5775	1.4649	0.221117	1.27389
1.5775	1.4649	0.248756	1.27389
1.58045	1.49254	0.221117	1.27389
1.58076	1.49254	0.221117	1.27389
1.58079	1.50636	0.248756	1.27389
1.60191	1.534	0.221117	1.27389
1.60191	1.534	0.221117	1.27389
1.60191	1.56164	0.193477	1.27389
1.60192	1.58928	0.165837	1.27389
1.60192	1.61692	0.138198	1.27389
1.60192	1.64456	0.110558	1.27389
1.60193	1.67219	0.0829187	1.27389
1.60196	1.69983	0.0552792	1.27389
1.60199	1.72747	0.0276396	1.27389
1.6027	1.75511	0	1.27389
1.60279	1.76893	0.0276396	1.27389
1.68576	1.79657	0	1.27389
1.68595	1.79657	0	1.27389
1.68595	1.81039	0.0276396	1.27389
1.68597	1.83803	0	1.27389
1.70014	1.83803	0	1.27389
1.70058	1.83803	0	1.27389
1.7006	1.85185	0.0276396	1.27389
1.70296	1.87949	0	1.27389
1.70298	1.87949	0	1.45587
1.70299	1.87949	0	1.45587
1.71119	1.87949	0	1.45587
1.7112	1.87949	0	1.45587
1.71154	1.87949	0.0276396	1.45587
1.71156	1.89331	0.0552792	1.45587
1.71167	1.92095	0.0276396	1.45587
1.79606	1.94859	0	1.45587
1.83117	1.94859	0	1.54686
1.83135	1.94859	0	1.54686
1.83135	1.96241	0.0276396	1.54686
1.83137	1.99005	0	1.54686
1.83143	1.99005	0	1.54686
1.83419	1.99005	0	1.54686
1.8342	1.99005	0	1.63785
1.83423	1.99005	0	1.63785
1.83424	1.99005	0	1.63785
1.86324	1.99005	0	1.63785
1.8633	1.99005	0	1.63785
1.94994	1.99005	0	1.63785
1.97802	1.99005	0	1.63785
1.97833	1.99005	0	1.63785
1.97885	1.99005	0.0276396	1.63785
1.97886	1.99005	0.0552792	1.63785
1.97891	2.01769	0.0276396	1.63785
1.98558	2.04533	0	1.63785
1.98599	2.04533	0	1.63785
1.986	2.05915	0.0276396	1.63785
1.99027	2.08679	0	1.63785
1.99613	2.08679	0	1.81984
2.02306	2.08679	0	1.91083
2.02393	2.08679	0	1.91083
2.02394	2.10061	0.0276396	1.91083
2.07002	2.12825	0	1.91083
2.07092	2.12825	0	1.91083
2.07093	2.14207	0.0276396	1.91083
2.08255	2.16971	0	1.91083
2.08309	2.16971	0	1.91083
2.0831	2.18353	0.0276396	1.91083
2.11826	2.21117	0	1.91083
2.11836	2.21117	0	1.91083
2.11843	2.22499	0.0276396	1.91083
2.11843	2.22499	0.0276396	1.91083
2.11844	2.25263	0	1.91083
2.15118	2.25263	0	1.91083
2.17372	2.25263	0	2.00182
2.18821	2.25263	0	2.00182
2.19424	2.25263	0	2.00182
2.26543	2.25263	0	2.09281
2.29209	2.25263	0	2.1838
2.29261	2.25263	0	2.1838
2.3118	2.25263	0.0276396	2.1838
2.32858	2.25263	0.0276396	2.2748
2.32859	2.25263	0.0276396	2.2748
2.32873	2.28027	0	2.2748
2.32874	2.28027	0.0552792	2.2748
2.32874	2.3079	0.0276396	2.2748
2.32877	2.3079	0.0276396	2.2748
2.3288	2.33554	0	2.2748
2.34097	2.33554	0	2.2748
2.34137	2.33554	0	2.2748
2.3423	2.33554	0.0276396	2.2748
2.34231	2.34936	0.0552792	2.2748
2.34232	2.377	0.0276396	2.2748
2.34237	2.40464	0	2.2748
2.34239	2.40464	0	2.2748
2.36416	2.40464	0	2.2748
2.3961	2.40464	0	2.36579
2.43118	2.40464	0	2.54777
2.45908	2.40464	0	2.54777
2.57717	2.40464	0	2.72975
2.58205	2.40464	0	2.82075
2.58249	2.40464	0	2.82075
2.58249	2.41846	0.0276396	2.82075
2.58249	2.4461	0	2.82075
2.58267	2.4461	0	2.82075
2.5843	2.4461	0	2.82075
2.58647	2.4461	0	2.91174
2.61261	2.4461	0	3.00273
2.65617	2.4461	0	3.09372
2.65634	2.4461	0	3.09372
2.65637	2.45992	0.0276396	3.09372
2.69432	2.48756	0	3.09372
2.6946	2.48756	0	3.09372
2.69461	2.48756	0.0276396	3.09372
2.69464	2.48756	0.0552792	3.09372
2.69467	2.48756	0.0829187	3.09372
2.69478	2.48756	0.110558	3.09372
2.69481	2.48756	0.138198	3.09372
2.69482	2.50138	0.165837	3.09372
2.69483	2.52902	0.138198	3.09372
2.69483	2.55666	0.110558	3.09372
2.69484	2.5843	0.0829187	3.09372
2.69486	2.5843	0.0829187	3.09372
2.69487	2.61194	0.0552792	3.09372
2.6949	2.63958	0.0276396	3.09372
2.69491	2.66722	0	3.09372
2.69758	2.66722	0	3.09372
2.73099	2.66722	0	3.09372
2.73115	2.66722	0	3.09372
2.73116	2.68104	0.0276396	3.09372
2.73591	2.70868	0	3.09372
2.73605	2.70868	0	3.09372
2.74946	2.70868	0	3.09372
2.74986	2.70868	0	3.09372
2.74988	2.7225	0.0276396	3.09372
2.76933	2.75014	0	3.09372
2.77095	2.75014	0	3.09372
2.7711	2.75014	0.0276396	3.09372
2.77112	2.76396	0.0552792	3.09372
2.77118	2.7916	0.0276396	3.09372
2.77838	2.81924	0	3.09372
2.7786	2.81924	0	3.09372
2.7786	2.81924	0.0552792	3.09372
2.7786	2.84688	0.0276396	3.09372
2.77861	2.84688	0.0276396	3.09372
2.79884	2.87452	0	3.09372
2.79971	2.87452	0	3.09372
2.79974	2.88834	0.0276396	3.09372
2.81524	2.91598	0	3.09372
2.82282	2.91598	0	3.18471
2.83958	2.91598	0	3.3667
2.85993	2.91598	0	3.3667
2.88868	2.91598	0	3.45769
2.89093	2.91598	0	3.45769
2.90435	2.91598	0	3.45769
2.93377	2.91598	0	3.45769
3.00198	2.91598	0	3.54868
3.00229	2.91598	0	3.54868
3.0024	2.91598	0.0276396	3.54868
3.00241	2.9298	0.0552792	3.54868
3.00252	2.95744	0.0276396	3.54868
3.02411	2.98507	0	3.54868
3.04219	2.98507	0	3.54868
3.04295	2.98507	0	3.54868
3.04309	2.98507	0.0276396	3.54868
3.04312	2.99889	0.0552792	3.54868
3.04312	3.02653	0.0276396	3.54868
3.05942	3.05417	0	3.54868
3.06949	3.05417	0	3.54868
3.09779	3.05417	0	3.54868
3.11188	3.05417	0	3.54868
3.11263	3.05417	0	3.54868
3.13024	3.05417	0.0276396	3.54868
3.13051	3.05417	0.0276396	3.54868
3.13377	3.05417	0.0552792	3.54868
3.16461	3.05417	0.0552792	3.63967
3.16463	3.05417	0.0552792	3.73066
3.16466	3.05417	0.0552792	3.73066
3.16466	3.08181	0.0276396	3.73066
3.1951	3.10945	0	3.73066
3.20615	3.10945	0	3.91265
3.20617	3.10945	0	3.91265
3.20632	3.12327	0.0276396	3.91265
3.22222	3.15091	0	3.91265
3.22223	3.15091	0	3.91265
3.24672	3.15091	0	3.91265
3.24697	3.15091	0	4.09463
3.24825	3.15091	0	4.09463
3.24827	3.15091	0.0276396	4.09463
3.3374	3.17855	0	4.09463
3.33752	3.17855	0	4.09463
3.33754	3.19237	0.0276396	4.09463
3.34519	3.22001	0	4.09463
3.34575	3.22001	0	4.09463
3.34583	3.22001	0	4.09463
3.34589	3.23383	0.0276396	4.09463
3.35687	3.26147	0	4.09463
3.35702	3.26147	0	4.09463
3.3575	3.26147	0.0276396	4.09463
3.35789	3.26147	0.0552792	4.09463
3.35886	3.26147	0.0829187	4.09463
3.35886	3.27529	0.110558	4.09463
3.35886	3.30293	0.0829187	4.09463
3.35887	3.30293	0.0829187	4.09463
3.35891	3.30293	0.0829187	4.09463
3.35892	3.33057	0.0552792	4.09463
3.35892	3.35821	0.0276396	4.09463
3.38309	3.38585	0	4.09463
3.38311	3.38585	0	4.09463
3.38312	3.39967	0.0276396	4.09463
3.40806	3.42731	0	4.09463
3.41748	3.42731	0	4.09463
3.43404	3.42731	0	4.09463
3.43429	3.42731	0	4.09463
3.43429	3.44113	0.0276396	4.09463
3.45897	3.46877	0	4.09463
3.45913	3.46877	0	4.09463
3.45916	3.48259	0.0276396	4.09463
3.49166	3.51023	0	4.09463
3.50406	3.51023	0	4.18562
3.51117	3.51023	0	4.27662
3.52037	3.51023	0	4.36761
3.56146	3.51023	0	4.4586
3.56409	3.51023	0	4.54959
3.57903	3.51023	0	4.64058
3.57905	3.51023	0	4.64058
3.57906	3.52405	0.0276396	4.64058
3.58267	3.55169	0	4.64058
3.58661	3.55169	0	4.82257
3.58715	3.55169	0	4.82257
3.58766	3.55169	0	4.82257
3.58767	3.55169	0.0552792	4.82257
3.58768	3.57933	0.0276396	4.82257
3.60377	3.60697	0	4.82257
3.61522	3.60697	0	4.91356
3.61565	3.60697	0	4.91356
3.61566	3.60697	0.0552792	4.91356
3.61567	3.6346	0.0276396	4.91356
3.61571	3.6346	0.0276396	4.91356
3.61575	3.66224	0	4.91356
3.63435	3.66224	0	4.91356
3.63461	3.66224	0	4.91356
3.63603	3.66224	0.0276396	4.91356
3.63641	3.66224	0.0552792	4.91356
3.63641	3.67606	0.0829187	4.91356
3.63644	3.67606	0.0829187	4.91356
3.63646	3.7037	0.0552792	4.91356
3.63647	3.73134	0.0276396	4.91356
3.64886	3.75898	0	4.91356
3.64908	3.75898	0	4.91356
3.64908	3.7728	0.0276396	4.91356
3.66776	3.80044	0	4.91356
3.66783	3.80044	0	4.91356
3.66783	3.81426	0.0276396	4.91356
3.84413	3.8419	0	4.91356
3.84546	3.8419	0	4.91356
3.84549	3.85572	0.0276396	4.91356
3.89463	3.88336	0	4.91356
3.89719	3.88336	0	4.91356
3.8972	3.88336	0	4.91356
3.89724	3.89718	0.0276396	4.91356
3.94669	3.92482	0	4.91356
3.948	3.92482	0	4.91356
3.948	3.93864	0.0276396	4.91356
3.98239	3.96628	0	4.91356
3.98335	3.96628	0	4.91356
3.98338	3.9801	0.0276396	4.91356
3.99902	4.00774	0	4.91356
3.99922	4.00774	0	5.09554
4.02325	4.00774	0	5.18653
4.02488	4.00774	0	5.27753
4.03233	4.00774	0	5.27753
4.10873	4.00774	0	5.27753
4.10893	4.00774	0	5.27753
4.10897	4.02156	0.0276396	5.27753
4.11895	4.0492	0	5.27753
4.11995	4.0492	0	5.27753
4.11998	4.06302	0.0276396	5.27753
4.17589	4.09066	0	5.27753
4.176	4.09066	0	5.27753
4.17724	4.09066	0.0276396	5.27753
4.17725	4.10448	0.0552792	5.27753
4.17726	4.13212	0.0276396	5.27753
4.20441	4.15976	0	5.27753
4.21033	4.15976	0	5.45951
4.24684	4.15976	0	5.5505
4.24774	4.15976	0	5.5505
4.2481	4.15976	0.0276396	5.5505
4.35905	4.15976	0.0552792	5.5505
4.35905	4.15976	0.0552792	5.64149
4.35906	4.1874	0.0276396	5.64149
4.36073	4.21504	0	5.64149
4.3661	4.21504	0	5.82348
4.36846	4.21504	0	5.91447
4.41264	4.21504	0	5.91447
4.41285	4.21504	0	5.91447
4.41319	4.21504	0.0276396	5.91447
4.4132	4.22886	0.0552792	5.91447
4.41321	4.2565	0.0276396	5.91447
4.42137	4.28413	0	5.91447
4.42375	4.28413	0	5.91447
4.4241	4.28413	0.0276396	5.91447
4.4241	4.29795	0.0552792	5.91447
4.42412	4.32559	0.0276396	5.91447
4.42413	4.35323	0	5.91447
4.43608	4.35323	0	5.91447
4.48392	4.35323	0	6.09645
4.5515	4.35323	0	6.27843
4.5522	4.35323	0	6.27843
4.55224	4.36705	0.0276396	6.27843
4.55239	4.39469	0	6.27843
4.55318	4.39469	0	6.27843
4.55319	4.40851	0.0276396	6.27843
4.55503	4.43615	0	6.27843
4.55535	4.43615	0	6.27843
4.55541	4.43615	0.0552792	6.27843
4.55542	4.46379	0.0276396	6.27843
4.55711	4.49143	0	6.27843
4.55722	4.49143	0	6.27843
4.55728	4.50525	0.0276396	6.27843
4.55863	4.53289	0	6.27843
4.5607	4.53289	0	6.36943
4.5777	4.53289	0	6.46042
4.58491	4.53289	0	6.55141
4.60064	4.53289	0	6.6424
4.60088	4.53289	0	6.6424
4.60089	4.54671	0.0276396	6.6424
4.67847	4.57435	0	6.6424
4.6785	4.57435	0	6.6424
4.67856	4.57435	0.0276396	6.6424
4.68066	4.57435	0.0552792	6.6424
4.68066	4.58817	0.0829187	6.6424
4.68066	4.61581	0.0552792	6.6424
4.68066	4.64345	0.0276396	6.6424
4.68563	4.67109	0	6.6424
4.68567	4.67109	0	6.6424
4.76334	4.67109	0	6.6424
4.76387	4.67109	0	6.6424
4.76392	4.68491	0.0276396	6.6424
4.82784	4.71255	0	6.6424
4.82784	4.71255	0	6.6424
4.82966	4.71255	0.0276396	6.6424
4.82966	4.72637	0.0552792	6.6424
4.82978	4.75401	0.0276396	6.6424
4.84695	4.78165	0	6.6424
4.84737	4.78165	0	6.6424
4.84743	4.78165	0.0276396	6.6424
4.84784	4.78165	0.0552792	6.6424
4.84954	4.78165	0.0829187	6.6424
4.84962	4.78165	0.110558	6.6424
4.85154	4.78165	0.138198	6.6424
4.85154	4.79547	0.165837	6.6424
4.85155	4.82311	0.138198	6.6424
4.85155	4.85075	0.110558	6.6424
4.85155	4.87839	0.0829187	6.6424
4.85156	4.90603	0.0552792	6.6424
4.85156	4.90603	0.0552792	6.6424
4.85157	4.93367	0.0276396	6.6424
4.85162	4.93367	0.0276396	6.6424
4.95574	4.9613	0	6.6424
4.9559	4.9613	0	6.6424
4.95594	4.97512	0.0276396	6.6424
4.97514	5.00276	0	6.6424
4.98649	5.00276	0	6.73339
5.01883	5.00276	0	6.82439
5.01907	5.00276	0	6.82439
5.01912	5.01658	0.0276396	6.82439
5.02253	5.04422	0	6.82439
5.04948	5.04422	0	7.00637
5.05128	5.04422	0	7.00637
5.05131	5.05804	0.0276396	7.00637
5.05134	5.08568	0	7.00637
5.0603	5.08568	0	7.00637
5.08015	5.08568	0	7.18835
5.11419	5.08568	0	7.27934
5.11596	5.08568	0	7.27934
5.11626	5.08568	0.0276396	7.27934
5.11626	5.0995	0.0552792	7.27934
5.11635	5.12714	0.0276396	7.27934
5.12851	5.15478	0	7.27934
5.12915	5.15478	0	7.27934
5.12916	5.1686	0.0276396	7.27934
5.12916	5.19624	0	7.27934
5.24998	5.19624	0	7.27934
5.25606	5.19624	0	7.37034
5.25616	5.19624	0	7.37034
5.25617	5.19624	0.0552792	7.37034
5.25619	5.22388	0.0276396	7.37034
5.30811	5.25152	0	7.37034
5.30812	5.25152	0	7.37034
5.3088	5.25152	0.0276396	7.37034
5.30886	5.26534	0.0552792	7.37034
5.30888	5.29298	0.0276396	7.37034
5.32598	5.32062	0	7.37034
5.32627	5.32062	0	7.37034
5.32631	5.32062	0.0276396	7.37034
5.35639	5.34826	0	7.37034
5.43569	5.34826	0	7.55232
5.43619	5.34826	0	7.55232
5.4362	5.36208	0.0276396	7.55232
5.45414	5.38972	0	7.55232
5.46871	5.38972	0	7.64331
5.46907	5.38972	0	7.64331
5.46911	5.40354	0.0276396	7.64331
5.48629	5.43118	0	7.64331
5.54549	5.43118	0	7.7343
5.5455	5.43118	0	7.7343
5.54563	5.43118	0.0276396	7.7343
5.54576	5.43118	0.0552792	7.7343
5.58943	5.43118	0.0829187	7.7343
5.58944	5.43118	0.0829187	7.8253
5.58944	5.45882	0.0552792	7.8253
5.58945	5.48646	0.0276396	7.8253
5.59506	5.5141	0	7.8253
5.59706	5.5141	0	7.91629
5.64515	5.5141	0	8.09827
5.64564	5.5141	0	8.09827
5.64575	5.52792	0.0276396	8.09827
5.67364	5.55556	0	8.09827
5.69646	5.55556	0	8.18926
5.69679	5.55556	0	8.18926
5.69682	5.56938	0.0276396	8.18926
5.79016	5.59701	0	8.18926
5.7904	5.59701	0	8.18926
5.7906	5.59701	0.0276396	8.18926
5.79061	5.61083	0.0552792	8.18926
5.79061	5.63847	0.0276396	8.18926
5.79062	5.66611	0	8.18926
5.8254	5.66611	0	8.18926
5.93027	5.66611	0	8.37125
5.93075	5.66611	0	8.37125
5.9308	5.67993	0.0276396	8.37125
5.94176	5.70757	0	8.37125
5.94227	5.70757	0	8.37125
5.94228	5.72139	0.0276396	8.37125
5.96177	5.74903	0	8.37125
5.9673	5.74903	0	8.55323
5.96901	5.74903	0	8.64422
5.96993	5.74903	0	8.64422
5.96995	5.76285	0.0276396	8.64422
5.97259	5.79049	0	8.64422
6.05749	5.79049	0	8.73521
6.06938	5.79049	0	8.82621
6.27635	5.79049	0	8.9172
6.3929	5.79049	0	8.9172
6.39296	5.79049	0	8.9172
6.39301	5.80431	0.0276396	8.9172
6.41322	5.83195	0	8.9172
6.4135	5.83195	0	8.9172
6.4135	5.83195	0.0552792	8.9172
6.41352	5.85959	0.0276396	8.9172
6.42922	5.88723	0	8.9172
6.4299	5.88723	0	8.9172
6.43002	5.88723	0.0276396	8.9172
6.43002	5.90105	0.0552792	8.9172
6.43005	5.90105	0.0552792	8.9172
6.43007	5.92869	0.0276396	8.9172
6.50162	5.95633	0	8.9172
6.52805	5.95633	0	9.00819
6.62515	5.95633	0	9.09918
6.62515	5.95633	0	9.19017
6.62515	5.95633	0	9.19017
6.64485	5.95633	0	9.19017
6.73903	5.95633	0	9.19017
6.73958	5.95633	0	9.19017
6.73979	5.95633	0.0276396	9.19017
6.7398	5.97015	0.0552792	9.19017
6.73983	5.99779	0.0276396	9.19017
6.73983	6.02543	0	9.19017
6.75661	6.02543	0	9.19017
6.90361	6.02543	0	9.37216
6.90528	6.02543	0	9.37216
6.90549	6.02543	0.0276396	9.37216
6.90552	6.03925	0.0552792	9.37216
6.90558	6.06689	0.0276396	9.37216
6.92755	6.09453	0	9.37216
6.92898	6.09453	0	9.37216
6.92899	6.10835	0.0276396	9.37216
6.98031	6.13599	0	9.37216
6.98054	6.13599	0	9.37216
6.98058	6.14981	0.0276396	9.37216
7.03365	6.17745	0	9.37216
7.03368	6.17745	0	9.37216
7.03369	6.17745	0.0552792	9.37216
7.0337	6.17745	0.0552792	9.37216
7.03372	6.20509	0.0276396	9.37216
7.07797	6.23273	0	9.37216
7.09701	6.23273	0	9.46315
7.09762	6.23273	0	9.46315
7.09766	6.24655	0.0276396	9.46315
7.12847	6.27418	0	9.46315
7.13006	6.27418	0	9.46315
7.13047	6.27418	0.0276396	9.46315
7.1305	6.288	0.0552792	9.46315
7.13052	6.31564	0.0276396	9.46315
7.13058	6.34328	0	9.46315
7.13058	6.34328	0	9.46315
7.19849	6.34328	0	9.46315
7.20473	6.34328	0	9.55414
7.20513	6.34328	0	9.55414
7.20514	6.3571	0.0276396	9.55414
7.2265	6.38474	0	9.55414
7.23341	6.38474	0	9.73612
7.23448	6.38474	0	9.73612
7.23448	6.39856	0.0276396	9.73612
7.36765	6.4262	0	9.73612
7.38905	6.4262	0	9.73612
7.45192	6.4262	0	9.82712
7.45195	6.4262	0	9.82712
7.45203	6.44002	0.0276396	9.82712
7.48959	6.46766	0	9.82712
7.5059	6.46766	0	10.0091
7.50701	6.46766	0	10.0091
7.50721	6.46766	0.0276396	10.0091
7.50724	6.48148	0.0552792	10.0091
7.50735	6.50912	0.0276396	10.0091
7.5632	6.53676	0	10.0091
7.63846	6.53676	0	10.1911
7.73439	6.53676	0	10.3731
7.75038	6.53676	0	10.4641
7.81122	6.53676	0	10.646
7.8732	6.53676	0	10.828
7.87662	6.53676	0	10.919
7.87824	6.53676	0	10.919
7.87825	6.55058	0.0276396	10.919
7.89187	6.57822	0	10.919
7.89324	6.57822	0	10.919
7.91104	6.57822	0.0276396	10.919
7.91111	6.57822	0.0276396	10.919
7.91113	6.60586	0	10.919
7.91207	6.60586	0	10.919
7.91213	6.60586	0.0552792	10.919
7.91216	6.6335	0.0276396	10.919
7.97341	6.66114	0	10.919
8.01148	6.66114	0	10.919
8.01177	6.66114	0	10.919
8.01182	6.67496	0.0276396	10.919
8.08377	6.7026	0	10.919
8.10111	6.7026	0	11.101
8.10131	6.7026	0	11.101
8.10132	6.71642	0.0276396	11.101
8.10161	6.74406	0	11.101
8.10184	6.74406	0	11.101
8.10187	6.74406	0.0276396	11.101
8.1019	6.75788	0.0552792	11.101
8.10198	6.78552	0.0276396	11.101
8.14061	6.81316	0	11.101
8.14138	6.81316	0	11.101
8.14145	6.81316	0.0276396	11.101
8.14154	6.81316	0.0276396	11.192
8.14156	6.82698	0.0552792	11.192
8.14162	6.85462	0.0276396	11.192
8.27219	6.88226	0	11.192
8.33135	6.88226	0	11.374
8.33166	6.88226	0	11.374
8.33324	6.88226	0.0276396	11.374
8.33434	6.88226	0.0552792	11.374
8.33434	6.88226	0.0829187	11.374
8.33437	6.90989	0.0552792	11.374
8.33444	6.93753	0.0276396	11.374
8.33765	6.96517	0	11.374
8.37612	6.96517	0	11.556
8.37613	6.96517	0	11.556
8.37617	6.97899	0.0276396	11.556
8.37618	7.00663	0	11.556
8.41833	7.00663	0	11.556
8.41834	7.00663	0	11.556
8.41894	7.00663	0.0276396	11.556
8.41895	7.02045	0.0552792	11.556
8.419	7.04809	0.0276396	11.556
8.43227	7.07573	0	11.556
8.49008	7.07573	0	11.7379
8.55825	7.07573	0	11.8289
8.55879	7.07573	0	11.8289
8.5588	7.07573	0.0552792	11.8289
8.55886	7.10337	0.0276396	11.8289
8.58208	7.13101	0	11.8289
8.66459	7.13101	0	11.9199
8.66513	7.13101	0	11.9199
8.66517	7.13101	0.0276396	11.9199
8.66754	7.13101	0.0552792	11.9199
8.66771	7.13101	0.0552792	11.9199
8.66774	7.14483	0.0829187	11.9199
8.87418	7.17247	0.0552792	11.9199
8.8742	7.17247	0.0552792	11.9199
8.87423	7.20011	0.0276396	11.9199
8.87473	7.22775	0	11.9199
8.87478	7.24157	0.0276396	11.9199
8.89243	7.26921	0	11.9199
8.8928	7.26921	0	11.9199
8.89284	7.26921	0.0552792	11.9199
8.89295	7.29685	0.0276396	11.9199
8.89299	7.32449	0	11.9199
8.96145	7.32449	0	11.9199
9.01445	7.32449	0	12.1019
9.02934	7.32449	0	12.2839
9.02968	7.32449	0	12.2839
9.03014	7.32449	0.0276396	12.2839
9.03022	7.32449	0.0552792	12.2839
9.03022	7.32449	0.110558	12.2839
9.03024	7.35213	0.0829187	12.2839
9.03026	7.37977	0.0552792	12.2839
9.03033	7.40741	0.0276396	12.2839
9.0331	7.43505	0	12.2839
9.03367	7.43505	0	12.2839
9.03371	7.43505	0.0552792	12.2839
9.03373	7.46269	0.0276396	12.2839
9.14948	7.49033	0	12.2839
9.16276	7.49033	0	12.4659
9.25029	7.49033	0	12.6479
9.25099	7.49033	0	12.6479
9.25112	7.50415	0.0276396	12.6479
9.27216	7.53179	0	12.6479
9.27216	7.53179	0	12.8298
9.27638	7.53179	0	12.8298
9.27646	7.53179	0	12.8298
9.27657	7.53179	0.0276396	12.8298
9.27659	7.53179	0.0552792	12.8298
9.2766	7.55943	0.0276396	12.8298
9.30155	7.58706	0	12.8298
9.32504	7.58706	0	12.9208
9.4574	7.58706	0	13.1028
9.51298	7.58706	0	13.2848
9.5131	7.58706	0	13.2848
9.51469	7.58706	0.0276396	13.2848
9.5147	7.60088	0.0552792	13.2848
9.51472	7.62852	0.0276396	13.2848
9.60438	7.65616	0	13.2848
9.60449	7.65616	0	13.2848
9.60487	7.65616	0.0276396	13.2848
9.60501	7.65616	0.0552792	13.2848
9.60502	7.66998	0.0829187	13.2848
9.60505	7.69762	0.0552792	13.2848
9.6051	7.72526	0.0276396	13.2848
9.69291	7.7529	0	13.2848
9.81619	7.7529	0	13.4668
9.8727	7.7529	0	13.6488
9.87296	7.7529	0	13.6488
9.87324	7.7529	0.0276396	13.6488
9.87327	7.76672	0.0552792	13.6488
9.87327	7.79436	0.0276396	13.6488
9.90078	7.822	0	13.6488
9.901	7.822	0	13.6488
9.90103	7.83582	0.0276396	13.6488
9.99358	7.86346	0	13.6488
10.0086	7.86346	0	13.8308
10.0092	7.86346	0	13.8308
10.0093	7.86346	0.0552792	13.8308
10.0093	7.8911	0.0276396	13.8308
10.0293	7.91874	0	13.8308
10.0303	7.91874	0	13.8308
10.0309	7.91874	0.0276396	13.8308
10.0309	7.93256	0.0552792	13.8308
10.0309	7.9602	0.0276396	13.8308
10.031	7.9602	0.0276396	13.8308
10.031	7.9602	0.0276396	13.8308
10.0551	7.98784	0	13.8308
10.0555	7.98784	0	13.8308
10.0556	8.00166	0.0276396	13.8308
10.1056	8.0293	0	13.8308
10.3015	8.0293	0	13.9217
10.3015	8.0293	0	13.9217
10.3015	8.0293	0.0276396	13.9217
10.3016	8.04312	0.0552792	13.9217
10.3016	8.07076	0.0276396	13.9217
10.351	8.0984	0	13.9217
10.3512	8.0984	0	13.9217
10.3517	8.0984	0.0276396	13.9217
10.3517	8.0984	0.0829187	13.9217
10.3517	8.12604	0.0552792	13.9217
10.3517	8.15368	0.0276396	13.9217
10.4187	8.18132	0	13.9217
10.4196	8.18132	0	13.9217
10.4196	8.18132	0.0552792	13.9217
10.4196	8.20896	0.0276396	13.9217
10.4601	8.23659	0	13.9217
10.4617	8.23659	0	13.9217
10.4617	8.23659	0.0276396	13.9217
10.4617	8.25041	0.0552792	13.9217
10.4618	8.27805	0.0276396	13.9217
10.4618	8.30569	0	13.9217
10.4944	8.30569	0	13.9217
10.5634	8.30569	0	14.0127
10.5644	8.30569	0	14.0127
10.5644	8.31951	0.0276396	14.0127
10.5681	8.34715	0	14.0127
10.5703	8.34715	0	14.0127
10.5703	8.34715	0.0552792	14.0127
10.5704	8.37479	0.0276396	14.0127
10.5704	8.40243	0	14.0127
10.6242	8.40243	0	14.0127
10.6244	8.40243	0	14.0127
10.6244	8.40243	0.0276396	14.0127
10.6757	8.43007	0	14.0127
10.6764	8.43007	0	14.0127
10.6764	8.44389	0.0276396	14.0127
10.7481	8.47153	0	14.0127
10.7963	8.47153	0	14.1947
10.8146	8.47153	0	14.3767
10.8148	8.47153	0	14.3767
10.8148	8.48535	0.0276396	14.3767
10.8214	8.51299	0	14.3767
10.8227	8.51299	0	14.3767
10.8227	8.52681	0.0276396	14.3767
10.8277	8.55445	0	14.3767
10.8303	8.55445	0	14.5587
10.8311	8.55445	0	14.5587
10.8311	8.56827	0.0276396	14.5587
10.9157	8.59591	0	14.5587
11.1863	8.59591	0	14.6497
11.1866	8.59591	0	14.6497
11.1866	8.60973	0.0276396	14.6497
11.2024	8.63737	0	14.6497
11.2024	8.63737	0	14.6497
11.2025	8.65119	0.0276396	14.6497
11.2279	8.67883	0	14.6497
11.2281	8.67883	0	14.6497
11.324	8.67883	0.0276396	14.6497
11.3249	8.67883	0.0276396	14.6497
11.3249	8.69265	0.0552792	14.6497
11.3249	8.72029	0.0276396	14.6497
11.4496	8.74793	0	14.6497
11.4498	8.74793	0	14.6497
11.4499	8.74793	0.0552792	14.6497
11.4499	8.77557	0.0276396	14.6497
11.6167	8.80321	0	14.6497
11.6172	8.80321	0	14.6497
11.6172	8.80321	0.0552792	14.6497
11.6173	8.83085	0.0276396	14.6497
11.634	8.85849	0	14.6497
11.8671	8.85849	0	14.8317
11.8673	8.85849	0	14.8317
11.8675	8.85849	0.0276396	14.8317
11.8675	8.87231	0.0552792	14.8317
11.8675	8.89994	0.0276396	14.8317
11.9323	8.92758	0	14.8317
11.9336	8.92758	0	14.8317
11.9336	8.92758	0.0552792	14.8317
11.9337	8.95522	0.0276396	14.8317
11.9623	8.98286	0	14.8317
11.9625	8.98286	0	14.8317
11.9629	8.98286	0.0276396	14.8317
11.963	8.99668	0.0552792	14.8317
11.963	9.02432	0.0276396	14.8317
11.9699	9.05196	0	14.8317
11.97	9.05196	0	14.8317
11.97	9.06578	0.0276396	14.8317
12.0252	9.09342	0	14.8317
12.0261	9.09342	0	14.8317
12.0261	9.10724	0.0276396	14.8317
12.0825	9.13488	0	14.8317
12.1239	9.13488	0	15.0136
12.1241	9.13488	0	15.0136
12.1243	9.13488	0.0276396	15.0136
12.1243	9.1487	0.0552792	15.0136
12.1243	9.17634	0.0276396	15.0136
12.1268	9.20398	0	15.0136
12.1273	9.20398	0	15.0136
12.1273	9.2178	0.0276396	15.0136
12.1347	9.24544	0	15.0136
12.2074	9.24544	0	15.1956
12.3172	9.24544	0	15.2866
12.3187	9.24544	0	15.2866
12.3187	9.25926	0.0276396	15.2866
12.4072	9.2869	0	15.2866
12.4075	9.2869	0	15.2866
12.4076	9.30072	0.0276396	15.2866
12.4742	9.32836	0	15.2866
12.4749	9.32836	0	15.2866
12.4752	9.32836	0.0276396	15.2866
12.4762	9.32836	0.0552792	15.2866
12.4769	9.32836	0.0829187	15.2866
12.5909	9.32836	0.110558	15.2866
12.5909	9.32836	0.110558	15.2866
12.591	9.356	0.0829187	15.2866
12.591	9.38364	0.0552792	15.2866
12.591	9.41128	0.0276396	15.2866
12.5911	9.43892	0	15.2866
12.5911	9.45274	0.0276396	15.2866
12.6342	9.48038	0	15.2866
12.65	9.48038	0	15.3776
12.6512	9.48038	0	15.3776
12.6513	9.48038	0.0276396	15.3776
12.6513	9.4942	0.0552792	15.3776
12.6513	9.52184	0.0276396	15.3776
12.7044	9.54947	0	15.3776
12.7561	9.54947	0	15.4686
12.7564	9.54947	0	15.4686
12.7564	9.54947	0.0552792	15.4686
12.7564	9.57711	0.0276396	15.4686
12.8066	9.60475	0	15.4686
12.8076	9.60475	0	15.4686
12.8077	9.61857	0.0276396	15.4686
12.8396	9.64621	0	15.4686
12.8397	9.64621	0	15.4686
12.8398	9.66003	0.0276396	15.4686
12.848	9.68767	0	15.4686
12.9272	9.68767	0	15.5596
12.9273	9.68767	0	15.5596
12.9274	9.68767	0.0276396	15.5596
12.9274	9.68767	0.0829187	15.5596
12.9274	9.71531	0.0552792	15.5596
12.9274	9.74295	0.0276396	15.5596
12.9344	9.77059	0	15.5596
12.9537	9.77059	0	15.7416
12.9971	9.77059	0	15.9236
12.9972	9.77059	0	15.9236
12.9972	9.78441	0.0276396	15.9236
13.0358	9.81205	0	15.9236
13.0358	9.81205	0	15.9236
13.0358	9.81205	0.0552792	15.9236
13.0359	9.83969	0.0276396	15.9236
13.0967	9.86733	0	15.9236
13.2005	9.86733	0	16.0146
13.2007	9.86733	0	16.0146
13.2007	9.88115	0.0276396	16.0146
13.3003	9.90879	0	16.0146
13.3189	9.90879	0	16.1056
13.4387	9.90879	0	16.2875
13.439	9.90879	0	16.2875
13.439	9.92261	0.0276396	16.2875
13.4508	9.95025	0	16.2875
13.4526	9.95025	0	16.2875
13.4526	9.95025	0.0552792	16.2875
13.4527	9.97789	0.0276396	16.2875
13.5071	10.0055	0	16.2875
13.5078	10.0055	0	16.2875
13.5618	10.0055	0.0276396	16.2875
13.5626	10.0055	0.0276396	16.2875
13.5626	10.0055	0.0829187	16.2875
13.5626	10.0332	0.0552792	16.2875
13.5627	10.0608	0.0276396	16.2875
13.6955	10.0884	0	16.2875
13.6958	10.0884	0	16.2875
13.6958	10.0884	0.0552792	16.2875
13.6958	10.1161	0.0276396	16.2875
13.85	10.1437	0	16.2875
13.8503	10.1437	0	16.2875
14.1423	10.1437	0.0276396	16.2875
14.1424	10.1437	0.0276396	16.2875
14.143	10.1714	0	16.2875
14.143	10.1714	0.0552792	16.2875
14.143	10.199	0.0276396	16.2875
14.234	10.2266	0	16.2875
14.2738	10.2266	0	16.4695
14.2744	10.2266	0	16.4695
14.2745	10.2266	0.0276396	16.4695
14.2746	10.2405	0.0552792	16.4695
14.2747	10.2681	0.0276396	16.4695
14.3541	10.2957	0	16.4695
14.5365	10.2957	0	16.5605
14.5366	10.2957	0	16.5605
14.5366	10.3096	0.0276396	16.5605
14.6092	10.3372	0	16.5605
14.6097	10.3372	0	16.5605
14.6097	10.3372	0.0276396	16.5605
14.6097	10.3372	0.0829187	16.5605
14.6097	10.3648	0.0552792	16.5605
14.6098	10.3925	0.0276396	16.5605
14.8028	10.4201	0	16.5605
14.8032	10.4201	0	16.5605
14.8033	10.4201	0.0276396	16.5605
14.8033	10.4339	0.0552792	16.5605
14.8033	10.4616	0.0276396	16.5605
14.8179	10.4892	0	16.5605
15.0375	10.4892	0	16.7425
15.0954	10.4892	0	16.8335
15.0955	10.4892	0	16.8335
15.0955	10.503	0.0276396	16.8335
15.4991	10.5307	0	16.8335
15.5015	10.5307	0	16.8335
15.5015	10.5445	0.0276396	16.8335
15.6339	10.5721	0	16.8335
15.6786	10.5721	0	17.0155
15.7733	10.5721	0	17.1975
15.7735	10.5721	0	17.1975
15.7735	10.5721	0.0552792	17.1975
15.7735	10.5998	0.0276396	17.1975
15.8057	10.6274	0	17.1975
15.8066	10.6274	0	17.1975
15.8075	10.6274	0.0276396	17.1975
15.8075	10.6412	0.0552792	17.1975
15.8075	10.6689	0.0276396	17.1975
15.8257	10.6965	0	17.1975
15.826	10.6965	0	17.1975
15.8261	10.7103	0.0276396	17.1975
15.94	10.738	0	17.1975
15.9957	10.738	0	17.3794
16.1281	10.738	0	17.5614
16.1282	10.738	0	17.5614
16.1282	10.738	0.0552792	17.5614
16.1283	10.7656	0.0276396	17.5614
16.2113	10.7933	0	17.5614
16.2122	10.7933	0	17.5614
16.213	10.7933	0.0276396	17.5614
16.2131	10.7933	0.0552792	17.5614
16.2131	10.8071	0.0829187	17.5614
16.2131	10.8347	0.0552792	17.5614
16.2131	10.8624	0.0276396	17.5614
16.2255	10.89	0	17.5614
16.2262	10.89	0	17.5614
16.2262	10.89	0.0552792	17.5614
16.2262	10.9176	0.0276396	17.5614
16.2323	10.9453	0	17.5614
16.2327	10.9453	0	17.5614
16.7756	10.9453	0.0276396	17.5614
16.7756	10.9453	0.0276396	17.5614
16.7762	10.9729	0	17.5614
16.7762	10.9729	0.0552792	17.5614
16.7763	11.0006	0.0276396	17.5614
16.8734	11.0282	0	17.5614
16.8908	11.0282	0	17.7434
16.891	11.0282	0	17.7434
16.8913	11.0282	0.0276396	17.7434
16.8919	11.0282	0.0552792	17.7434
16.8919	11.0282	0.110558	17.7434
16.8919	11.0558	0.0829187	17.7434
16.8919	11.0835	0.0552792	17.7434
16.892	11.1111	0.0276396	17.7434
16.905	11.1388	0	17.7434
16.9051	11.1388	0	17.7434
16.9051	11.1526	0.0276396	17.7434
17.1408	11.1802	0	17.7434
17.1409	11.1802	0	17.7434
17.1409	11.1802	0.0552792	17.7434
17.141	11.2078	0.0276396	17.7434
17.1519	11.2355	0	17.7434
17.1521	11.2355	0	17.7434
17.1523	11.2355	0.0276396	17.7434
17.1523	11.2493	0.0552792	17.7434
17.1525	11.2769	0.0276396	17.7434
17.6654	11.3046	0	17.7434
17.7731	11.3046	0	17.9254
17.7735	11.3046	0	17.9254
17.7736	11.3046	0	17.9254
17.7741	11.3046	0.0276396	17.9254
17.7741	11.3046	0.0552792	17.9254
17.7741	11.3184	0.0829187	17.9254
17.7741	11.346	0.0552792	17.9254
17.9495	11.3737	0.0276396	17.9254
17.9495	11.3737	0.0276396	18.1074
18.0056	11.4013	0	18.1074
18.0061	11.4013	0	18.1074
18.0077	11.4013	0.0276396	18.1074
18.0077	11.4013	0.0552792	18.1074
18.0084	11.4013	0.0829187	18.1074
18.0085	11.4013	0.110558	18.1074
18.0086	11.4013	0.138198	18.1074
18.0088	11.4013	0.165837	18.1074
18.0088	11.4013	0.193477	18.1074
18.0108	11.4013	0.221117	18.1074
18.0109	11.4013	0.248756	18.1074
18.0113	11.429	0.221117	18.1074
18.0114	11.429	0.248756	18.1074
18.0527	11.4566	0.221117	18.1074
18.0527	11.4566	0.221117	18.1074
18.0527	11.4842	0.193477	18.1074
18.0527	11.5119	0.165837	18.1074
18.0527	11.5395	0.138198	18.1074
18.0527	11.5395	0.138198	18.1074
18.0527	11.5672	0.110558	18.1074
18.0527	11.5948	0.0829187	18.1074
18.0527	11.6224	0.0552792	18.1074
18.0527	11.6501	0.0276396	18.1074
18.0534	11.6777	0	18.1074
18.0534	11.6777	0.0552792	18.1074
18.0534	11.7054	0.0276396	18.1074
18.0537	11.733	0	18.1074
18.0541	11.733	0	18.1074
18.0541	11.7468	0.0276396	18.1074
18.1871	11.7745	0	18.1074
18.1871	11.7745	0	18.1074
18.1871	11.7883	0.0276396	18.1074
18.2429	11.8159	0	18.1074
18.5094	11.8159	0	18.2894
18.5097	11.8159	0	18.2894
18.5097	11.8297	0.0276396	18.2894
18.5609	11.8574	0	18.2894
18.5609	11.8574	0	18.2894
18.5609	11.8574	0.0552792	18.2894
18.5609	11.885	0.0276396	18.2894
18.5917	11.9127	0	18.2894
18.6416	11.9127	0	18.4713
18.6418	11.9127	0	18.4713
18.6418	11.9127	0.0276396	18.4713
18.6426	11.9127	0.0552792	18.4713
18.6426	11.9265	0.0829187	18.4713
18.6426	11.9541	0.0552792	18.4713
18.6427	11.9818	0.0276396	18.4713
18.696	12.0094	0	18.4713
18.6965	12.0094	0	18.4713
18.6965	12.0094	0.0552792	18.4713
18.6965	12.037	0.0276396	18.4713
18.7593	12.0647	0	18.4713
18.7594	12.0647	0	18.4713
18.7594	12.0647	0.0552792	18.4713
18.7594	12.0923	0.0276396	18.4713
18.9077	12.12	0	18.4713
18.9079	12.12	0	18.4713
18.908	12.1338	0.0276396	18.4713
19.0807	12.1614	0	18.4713
19.0814	12.1614	0	18.4713
19.0815	12.1752	0.0276396	18.4713
19.1813	12.2029	0	18.4713
19.1822	12.2029	0	18.4713
19.2305	12.2029	0.0276396	18.4713
19.2306	12.2029	0.0276396	18.4713
19.2313	12.2305	0	18.4713
19.2314	12.2443	0.0276396	18.4713
19.2993	12.272	0	18.4713
19.2995	12.272	0	18.6533
19.3006	12.272	0	18.6533
19.3015	12.272	0.0276396	18.6533
19.3016	12.2858	0.0552792	18.6533
19.3016	12.3134	0.0276396	18.6533
19.3128	12.3411	0	18.6533
19.3137	12.3411	0	18.6533
19.3138	12.3549	0.0276396	18.6533
19.3975	12.3825	0	18.6533
19.3987	12.3825	0	18.6533
19.3988	12.3825	0	18.6533
19.3988	12.3825	0.0552792	18.6533
19.3989	12.4102	0.0276396	18.6533
19.3989	12.424	0.0552792	18.6533
19.3989	12.424	0.0552792	18.6533
19.3989	12.4516	0.0276396	18.6533
19.7405	12.4793	0	18.6533
19.7405	12.4793	0	18.6533
19.7414	12.4793	0.0276396	18.6533
19.7414	12.4931	0.0552792	18.6533
19.7414	12.5207	0.0276396	18.6533
19.7626	12.5484	0	18.6533
19.7638	12.5484	0	18.6533
19.7638	12.5484	0.0552792	18.6533
19.7639	12.576	0.0276396	18.6533
19.7772	12.6036	0	18.6533
19.7774	12.6036	0	18.6533
19.7774	12.6175	0.0276396	18.6533
19.9032	12.6451	0	18.6533
19.9034	12.6451	0	18.6533
19.9034	12.6589	0.0276396	18.6533
20.1393	12.6866	0	18.6533
20.3513	12.6866	0	18.8353
20.352	12.6866	0	18.8353
20.352	12.6866	0.0552792	18.8353
20.352	12.7142	0.0276396	18.8353
20.352	12.7418	0	18.8353
20.4443	12.7418	0	18.8353
20.4445	12.7418	0	18.8353
20.4445	12.7418	0.0552792	18.8353
20.4447	12.7695	0.0276396	18.8353
20.5309	12.7971	0	18.8353
20.5314	12.7971	0	18.8353
20.5314	12.8109	0.0276396	18.8353
20.6285	12.8386	0	18.8353
20.6301	12.8386	0	18.8353
20.6301	12.8386	0.0552792	18.8353
20.6301	12.8662	0.0276396	18.8353
20.7172	12.8939	0	18.8353
20.7174	12.8939	0	18.8353
20.7174	12.9077	0.0276396	18.8353
21.1676	12.9353	0	18.8353
21.1677	12.9353	0	18.8353
21.1677	12.9353	0.0552792	18.8353
21.1678	12.963	0.0276396	18.8353
21.43	12.9906	0	18.8353
21.4305	12.9906	0	18.8353
21.4306	13.0044	0.0276396	18.8353
21.5984	13.0321	0	18.8353
21.5984	13.0321	0	18.8353
21.5985	13.0459	0.0276396	18.8353
21.6018	13.0735	0	18.8353
21.6025	13.0735	0	18.8353
21.6025	13.0873	0.0276396	18.8353
21.6229	13.115	0	18.8353
21.6231	13.115	0	18.8353
21.6232	13.115	0.0552792	18.8353
21.6232	13.1426	0.0276396	18.8353
21.787	13.1703	0	18.8353
21.7873	13.1703	0	18.8353
21.7873	13.1703	0.0552792	18.8353
21.7874	13.1979	0.0276396	18.8353
22.108	13.2255	0	18.8353
22.1082	13.2255	0	18.8353
22.1085	13.2255	0.0276396	18.8353
22.1089	13.2255	0.0552792	18.8353
22.1092	13.2255	0.0829187	18.8353
22.1093	13.2394	0.110558	18.8353
22.1093	13.267	0.0829187	18.8353
22.1093	13.2946	0.0552792	18.8353
22.1093	13.3223	0.0276396	18.8353
22.2063	13.3499	0	18.8353
22.2064	13.3499	0	18.8353
22.2064	13.3499	0.0552792	18.8353
22.2064	13.3776	0.0276396	18.8353
22.3467	13.4052	0	18.8353
22.3469	13.4052	0	18.8353
22.3469	13.4052	0.0552792	18.8353
22.3469	13.4328	0.0276396	18.8353
22.4001	13.4605	0	18.8353
22.4002	13.4605	0	18.8353
22.4003	13.4605	0.0276396	18.8353
22.4005	13.4605	0.0552792	18.8353
22.4022	13.4605	0.0829187	18.8353
22.4023	13.4605	0.0829187	18.8353
22.4023	13.4605	0.138198	18.8353
22.4024	13.4881	0.110558	18.8353
22.6094	13.5158	0.0829187	18.8353
22.6094	13.5158	0.0829187	19.0173
22.6095	13.5434	0.0552792	19.0173
22.6095	13.571	0.0276396	19.0173
22.7299	13.5987	0	19.0173
22.7307	13.5987	0	19.0173
22.7307	13.5987	0.0552792	19.0173
22.7308	13.6263	0.0276396	19.0173
22.8997	13.654	0	19.0173
22.9	13.654	0	19.0173
22.9001	13.6678	0.0276396	19.0173
22.9644	13.6954	0	19.0173
23.28	13.6954	0	19.1993
23.2806	13.6954	0	19.1993
23.2807	13.7092	0.0276396	19.1993
23.2889	13.7369	0	19.1993
23.2893	13.7369	0	19.1993
23.2893	13.7369	0.0552792	19.1993
23.2893	13.7645	0.0276396	19.1993
23.3112	13.7922	0	19.1993
23.3113	13.7922	0	19.1993
23.3113	13.7922	0.0552792	19.1993
23.3113	13.8198	0.0276396	19.1993
23.3283	13.8474	0	19.1993
23.3286	13.8474	0	19.1993
23.3287	13.8474	0.0552792	19.1993
23.3287	13.8751	0.0276396	19.1993
23.5097	13.9027	0	19.1993
23.5113	13.9027	0	19.1993
23.5113	13.9027	0.0552792	19.1993
23.5114	13.9303	0.0276396	19.1993
23.5786	13.958	0	19.1993
23.5787	13.958	0	19.1993
23.5787	13.958	0.0552792	19.1993
23.5788	13.9856	0.0276396	19.1993
23.6535	14.0133	0	19.1993
23.6547	14.0133	0	19.1993
23.6547	14.0133	0.0552792	19.1993
23.6548	14.0409	0.0276396	19.1993
23.6881	14.0685	0	19.1993
24.5785	14.0685	0	19.3813
24.5793	14.0685	0	19.3813
24.5793	14.0824	0.0276396	19.3813
24.6146	14.11	0	19.3813
24.6146	14.11	0	19.3813
24.6148	14.11	0.0276396	19.3813
24.6148	14.1238	0.0552792	19.3813
24.6148	14.1515	0.0276396	19.3813
25.1168	14.1791	0	19.3813
25.1175	14.1791	0	19.3813
25.1184	14.1791	0.0276396	19.3813
25.1184	14.1929	0.0552792	19.3813
25.1184	14.2206	0.0276396	19.3813
25.4122	14.2482	0	19.3813
25.4144	14.2482	0	19.3813
25.4144	14.262	0.0276396	19.3813
25.4697	14.2897	0	19.3813
25.4701	14.2897	0	19.3813
25.4703	14.2897	0.0276396	19.3813
25.4703	14.3035	0.0552792	19.3813
25.4704	14.3311	0.0276396	19.3813
25.6218	14.3588	0	19.3813
25.6219	14.3588	0	19.3813
25.6219	14.3726	0.0276396	19.3813
25.707	14.4002	0	19.3813
25.7077	14.4002	0	19.3813
25.7078	14.414	0.0276396	19.3813
25.74	14.4417	0	19.3813
26.2619	14.4417	0	19.5632
26.262	14.4417	0	19.5632
26.2962	14.4417	0.0276396	19.5632
26.2962	14.4417	0.0276396	19.5632
26.2966	14.4417	0.0276396	19.5632
26.2972	14.4693	0	19.5632
26.2973	14.4693	0.0552792	19.5632
26.2974	14.497	0.0276396	19.5632
26.6611	14.5246	0	19.5632
26.6619	14.5246	0	19.5632
26.6619	14.5384	0.0276396	19.5632
26.7672	14.5661	0	19.5632
26.7672	14.5661	0	19.5632
26.7672	14.5661	0.0552792	19.5632
26.7672	14.5937	0.0276396	19.5632
26.8903	14.6213	0	19.5632
26.8904	14.6213	0	19.5632
26.8914	14.6213	0.0276396	19.5632
26.8914	14.6213	0.0552792	19.5632
26.8915	14.649	0.0276396	19.5632
27.2266	14.6766	0	19.5632
27.2266	14.6766	0	19.5632
27.2266	14.6904	0.0276396	19.5632
28.0147	14.7181	0	19.5632
28.0163	14.7181	0	19.5632
28.0163	14.7181	0.0552792	19.5632
28.0164	14.7457	0.0276396	19.5632
28.0652	14.7734	0	19.5632
28.0653	14.7734	0	19.5632
28.0668	14.7734	0.0276396	19.5632
28.0672	14.7734	0.0552792	19.5632
28.4985	14.7734	0.0829187	19.5632
28.4985	14.7734	0.0829187	19.5632
28.4985	14.7872	0.110558	19.5632
28.4985	14.8148	0.0829187	19.5632
28.4985	14.8425	0.0552792	19.5632
28.4987	14.8701	0.0276396	19.5632
29.6019	14.8977	0	19.5632
29.602	14.8977	0	19.5632
29.602	14.9116	0.0276396	19.5632
29.8159	14.9392	0	19.5632
29.8169	14.9392	0	19.5632
29.817	14.9392	0.0552792	19.5632
29.817	14.9668	0.0276396	19.5632
29.9509	14.9945	0	19.5632
29.9517	14.9945	0	19.5632
29.9517	14.9945	0.0552792	19.5632
29.9517	15.0221	0.0276396	19.5632
30.0151	15.0498	0	19.5632
30.0156	15.0498	0	19.5632
30.0156	15.0498	0.0552792	19.5632
30.0156	15.0774	0.0276396	19.5632
30.2522	15.105	0	19.5632
30.2531	15.105	0	19.5632
30.2531	15.105	0.0552792	19.5632
30.2531	15.1327	0.0276396	19.5632
30.5355	15.1603	0	19.5632
30.5981	15.1603	0	19.7452
30.5984	15.1603	0	19.7452
30.5986	15.1603	0.0276396	19.7452
30.5986	15.1741	0.0552792	19.7452
30.5986	15.2018	0.0276396	19.7452
30.848	15.2294	0	19.7452
30.8486	15.2294	0	19.7452
30.8486	15.2432	0.0276396	19.7452
30.9893	15.2709	0	19.7452
30.9907	15.2709	0	19.7452
30.9907	15.2709	0.0552792	19.7452
30.9907	15.2985	0.0276396	19.7452
31.3065	15.3261	0	19.7452
31.3066	15.3261	0	19.7452
31.3066	15.34	0.0276396	19.7452
31.571	15.3676	0	19.7452
31.5711	15.3676	0	19.7452
31.5711	15.3676	0.0552792	19.7452
31.5712	15.3952	0.0276396	19.7452
32.1069	15.4229	0	19.7452
32.1077	15.4229	0	19.7452
32.1077	15.4229	0.0552792	19.7452
32.1079	15.4505	0.0276396	19.7452
32.2511	15.4782	0	19.7452
32.2519	15.4782	0	19.7452
32.252	15.4782	0.0276396	19.7452
32.252	15.4782	0.0829187	19.7452
32.252	15.5058	0.0552792	19.7452
32.2521	15.5334	0.0276396	19.7452
32.6704	15.5611	0	19.7452
32.6711	15.5611	0	19.7452
32.6713	15.5611	0.0276396	19.7452
32.6713	15.5749	0.0552792	19.7452
32.6713	15.6025	0.0276396	19.7452
32.6919	15.6302	0	19.7452
32.692	15.6302	0	19.7452
32.6921	15.644	0.0276396	19.7452
32.8285	15.6716	0	19.7452
32.8291	15.6716	0	19.7452
32.8295	15.6716	0.0276396	19.7452
32.8302	15.6716	0.0552792	19.7452
33.4296	15.6716	0.0829187	19.7452
33.4296	15.6716	0.0829187	19.9272
33.4296	15.6993	0.0552792	19.9272
33.4296	15.7269	0.0276396	19.9272
33.6123	15.7546	0	19.9272
33.6143	15.7546	0	19.9272
33.6144	15.7546	0.0276396	19.9272
33.6146	15.7546	0.0552792	19.9272
33.615	15.7546	0.0829187	19.9272
33.615	15.7684	0.110558	19.9272
33.615	15.796	0.0829187	19.9272
33.615	15.8237	0.0552792	19.9272
33.615	15.8513	0.0276396	19.9272
34.1099	15.8789	0	19.9272
34.1106	15.8789	0	19.9272
34.1118	15.8789	0.0276396	19.9272
34.1118	15.8928	0.0552792	19.9272
34.1119	15.9204	0.0276396	19.9272
34.7225	15.948	0	19.9272
34.7226	15.948	0	19.9272
34.7226	15.948	0.0552792	19.9272
34.7227	15.9757	0.0276396	19.9272
34.7604	16.0033	0	19.9272
34.7615	16.0033	0	19.9272
34.7615	16.0033	0.0552792	19.9272
34.7616	16.031	0.0276396	19.9272
35.2087	16.0586	0	19.9272
35.2088	16.0586	0	19.9272
35.2088	16.0586	0.0552792	19.9272
35.2088	16.0862	0.0276396	19.9272
35.4371	16.1139	0	19.9272
35.4379	16.1139	0	19.9272
35.4379	16.1277	0.0276396	19.9272
37.1028	16.1553	0	19.9272
37.1041	16.1553	0	19.9272
37.1042	16.1553	0.0276396	19.9272
37.1042	16.1692	0.0552792	19.9272
37.1042	16.1968	0.0276396	19.9272
37.6692	16.2244	0	19.9272
37.6693	16.2244	0	19.9272
37.6693	16.2244	0.0276396	19.9272
37.6693	16.2244	0.0829187	19.9272
37.6693	16.2521	0.0552792	19.9272
37.6694	16.2797	0.0276396	19.9272
38.0553	16.3074	0	19.9272
38.056	16.3074	0	19.9272
38.549	16.3074	0.0276396	19.9272
38.5495	16.3074	0.0276396	19.9272
38.5495	16.3074	0.0829187	19.9272
38.5495	16.335	0.0552792	19.9272
38.5496	16.3626	0.0276396	19.9272
38.8548	16.3903	0	19.9272
38.8551	16.3903	0	19.9272
38.8552	16.3903	0.0552792	19.9272
38.8552	16.4179	0.0276396	19.9272
39.8013	16.4456	0	19.9272
39.8014	16.4456	0	19.9272
39.8018	16.4456	0.0276396	19.9272
39.802	16.4456	0.0552792	19.9272
39.802	16.4456	0.0829187	19.9272
39.8022	16.4456	0.110558	19.9272
39.8022	16.4594	0.138198	19.9272
39.8023	16.487	0.110558	19.9272
39.8023	16.5146	0.0829187	19.9272
39.8023	16.5423	0.0552792	19.9272
39.8024	16.5699	0.0276396	19.9272
40.6892	16.5976	0	19.9272
40.6898	16.5976	0	19.9272
40.6899	16.5976	0.0552792	19.9272
40.69	16.6252	0.0276396	19.9272
40.9072	16.6528	0	19.9272
42.0484	16.6528	0	20.1092
42.0487	16.6528	0	20.1092
42.0487	16.6667	0.0276396	20.1092
42.1984	16.6943	0	20.1092
42.1984	16.6943	0	20.1092
42.1985	16.7081	0.0276396	20.1092
43.049	16.7358	0	20.1092
43.0495	16.7358	0	20.1092
43.0496	16.7358	0.0552792	20.1092
43.0496	16.7634	0.0276396	20.1092
43.4298	16.791	0	20.1092
43.43	16.791	0	20.1092
43.4302	16.791	0.0276396	20.1092
43.4302	16.8049	0.0552792	20.1092
43.4302	16.8325	0.0276396	20.1092
43.7151	16.8601	0	20.1092
43.716	16.8601	0	20.1092
43.7161	16.874	0.0276396	20.1092
43.9635	16.9016	0	20.1092
43.9638	16.9016	0	20.1092
43.9638	16.9016	0.0552792	20.1092
43.9638	16.9292	0.0276396	20.1092
44.7685	16.9569	0	20.1092
44.7693	16.9569	0	20.1092
44.7693	16.9707	0.0276396	20.1092
45.1711	16.9983	0	20.1092
45.1717	16.9983	0	20.1092
45.1721	16.9983	0.0276396	20.1092
45.1721	17.0122	0.0552792	20.1092
45.1722	17.0398	0.0276396	20.1092
45.3581	17.0674	0	20.1092
45.3598	17.0674	0	20.1092
45.3599	17.0674	0.0552792	20.1092
45.3599	17.0951	0.0276396	20.1092
46.4694	17.1227	0	20.1092
46.4696	17.1227	0	20.1092
46.4696	17.1227	0.0552792	20.1092
46.4696	17.1504	0.0276396	20.1092
46.5649	17.178	0	20.1092
46.5652	17.178	0	20.1092
46.5653	17.178	0.0276396	20.1092
46.5653	17.1918	0.0552792	20.1092
46.5653	17.2195	0.0276396	20.1092
46.5803	17.2471	0	20.1092
46.5804	17.2471	0	20.1092
46.5804	17.2471	0.0552792	20.1092
46.5805	17.2747	0.0276396	20.1092
47.4263	17.3024	0	20.1092
47.4266	17.3024	0	20.1092
47.4267	17.3162	0.0276396	20.1092
47.5893	17.3438	0	20.1092
47.5893	17.3438	0	20.1092
47.5894	17.3577	0.0276396	20.1092
49.0967	17.3853	0	20.1092
49.0968	17.3853	0	20.1092
49.0968	17.3991	0.0276396	20.1092
49.9437	17.4268	0	20.1092
49.9437	17.4268	0	20.1092
49.9438	17.4268	0.0552792	20.1092
49.9438	17.4544	0.0276396	20.1092
50.4764	17.482	0	20.1092
50.4766	17.482	0	20.1092
50.4767	17.482	0.0552792	20.1092
50.4767	17.5097	0.0276396	20.1092
51.2822	17.5373	0	20.1092
51.2822	17.5373	0	20.1092
51.2823	17.5511	0.0276396	20.1092
51.4537	17.5788	0	20.1092
51.454	17.5788	0	20.1092
51.454	17.5788	0.0552792	20.1092
51.454	17.6064	0.0276396	20.1092
53.6325	17.6341	0	20.1092
53.6328	17.6341	0	20.1092
53.6328	17.6341	0.0552792	20.1092
53.6329	17.6617	0.0276396	20.1092
55.0943	17.6893	0	20.1092
55.0978	17.6893	0	20.1092
55.0978	17.6893	0.0552792	20.1092
55.0978	17.717	0.0276396	20.1092
55.234	17.7446	0	20.1092
55.2343	17.7446	0	20.1092
59.7107	17.7446	0.0276396	20.1092
59.7108	17.7446	0.0276396	20.1092
59.7112	17.7722	0	20.1092
59.7112	17.7722	0.0552792	20.1092
59.7112	17.7999	0.0276396	20.1092
60.0026	17.8275	0	20.1092
60.0029	17.8275	0	20.1092
60.0029	17.8275	0.0552792	20.1092
60.003	17.8552	0.0276396	20.1092
62.9804	17.8828	0	20.1092
62.9811	17.8828	0	20.1092
62.9811	17.8828	0.0552792	20.1092
62.9811	17.9104	0.0276396	20.1092
63.3671	17.9381	0	20.1092
63.3673	17.9381	0	20.1092
69.4564	17.9381	0.0276396	20.1092
69.4565	17.9381	0.0276396	20.1092
69.4579	17.9657	0	20.1092
69.4579	17.9795	0.0276396	20.1092
71.2692	18.0072	0	20.1092
71.2696	18.0072	0	20.1092
71.27	18.0072	0.0276396	20.1092
71.2705	18.0072	0.0552792	20.1092
80.6725	18.0072	0.0829187	20.1092
80.6729	18.0072	0.0829187	20.1092
80.6729	18.0072	0.110558	20.1092
80.6729	18.0348	0.0829187	20.1092
80.6729	18.0625	0.0552792	20.1092
80.673	18.0901	0.0276396	20.1092
80.9193	18.1177	0	20.1092
80.9199	18.1177	0	20.1092
80.9199	18.1177	0.0552792	20.1092
80.9199	18.1454	0.0276396	20.1092
81.283	18.173	0	20.1092
81.2832	18.173	0	20.1092
81.2832	18.173	0.0552792	20.1092
81.2834	18.2007	0.0276396	20.1092
82.5681	18.2283	0	20.1092
82.5685	18.2283	0	20.1092
82.5685	18.2283	0.0552792	20.1092
82.5685	18.2559	0.0276396	20.1092
86.5515	18.2836	0	20.1092
86.5517	18.2836	0	20.1092
86.5517	18.2836	0.0552792	20.1092
86.5518	18.3112	0.0276396	20.1092
91.0588	18.3389	0	20.1092
91.059	18.3389	0	20.1092
91.059	18.3389	0.0552792	20.1092
91.0591	18.3665	0.0276396	20.1092
93.7568	18.3941	0	20.1092
93.7569	18.3941	0	20.1092
93.757	18.3941	0.0552792	20.1092
93.7571	18.4218	0.0276396	20.1092
94.653	18.4494	0	20.1092
94.6534	18.4494	0	20.1092
94.6534	18.4494	0.0552792	20.1092
94.6535	18.4771	0.0276396	20.1092
97.4571	18.5047	0	20.1092
97.4573	18.5047	0	20.1092
97.4589	18.5047	0.0276396	20.1092
97.4589	18.5047	0.0552792	20.1092
107.282	18.5047	0.0829187	20.1092
107.282	18.5047	0.0829187	20.1092
107.282	18.5323	0.0552792	20.1092
107.282	18.5323	0.110558	20.1092
107.282	18.56	0.0829187	20.1092
107.282	18.5876	0.0552792	20.1092
107.282	18.6153	0.0276396	20.1092
116.967	18.6429	0	20.1092
116.967	18.6429	0	20.1092
116.967	18.6429	0.0276396	20.1092
116.967	18.6429	0.0552792	20.1092
116.968	18.6429	0.0829187	20.1092
116.969	18.6429	0.110558	20.1092
116.971	18.6429	0.138198	20.1092
116.971	18.6429	0.165837	20.1092
116.972	18.6429	0.193477	20.1092
116.975	18.6429	0.221117	20.1092
116.975	18.6429	0.248756	20.1092
116.976	18.6705	0.221117	20.1092
116.976	18.6705	0.248756	20.1092
