1.11358e-09	0	0	0
1.16755e-09	0	0	0
2.13294e-09	0	0	0
2.34108e-09	0	0	0
2.74907e-09	0	0	0
2.91493e-09	0	0	0
3.22528e-09	0	0	0
4.48744e-09	0	0	0
5.02948e-09	0	0	0
5.12802e-09	0	0	0
6.3876e-09	0	0	0
6.43866e-09	0	0	0
7.5106e-09	0	0	0
8.88743e-09	0	0	0
9.69485e-09	0	0	0
1.035e-08	0	0	0
1.10977e-08	0	0	0
1.15505e-08	0	0	0
1.15767e-08	0	0	0
1.20982e-08	0	0	0
1.33741e-08	0	0	0
1.5353e-08	0	0	0
1.5534e-08	0	0	0
1.57923e-08	0	0	0
1.60873e-08	0	0	0
1.66503e-08	0	0	0
1.80884e-08	0	0	0
1.82324e-08	0	0	0
1.92086e-08	0	0	0
1.96619e-08	0	0	0
2.06967e-08	0	0	0
2.09046e-08	0	0	0
2.22894e-08	0	0	0
2.28693e-08	0	0	0
2.54421e-08	0	0	0
2.68494e-08	0	0	0
2.7072e-08	0	0	0
2.75922e-08	0	0	0
3.13689e-08	0	0	0
3.14665e-08	0	0	0
3.56013e-08	0	0	0
3.70382e-08	0	0	0
3.86062e-08	0	0	0
3.88257e-08	0	0	0
3.90839e-08	0	0	0
4.21085e-08	0	0	0
5.92547e-08	0	0	0
6.01371e-08	0	0	0
6.02135e-08	0	0	0
6.37329e-08	0	0	0
6.64396e-08	0	0	0
7.28403e-08	0	0	0
7.34184e-08	0	0	0
7.3626e-08	0	0	0
8.09023e-08	0	0	0
8.67271e-08	0	0	0
1.04388e-07	0	0	0
1.09014e-07	0	0	0
1.29783e-07	0	0	0
2.53485e-07	0	0	0
3.22255e-07	0	0	0
4.36688e-07	0	0	0
4.63384e-07	0	0	0
6.64248e-07	0	0	0
6.65604e-07	0	0	0
6.68141e-07	0	0	0
7.0914e-07	0	0	0
7.81001e-07	0	0	0
8.04598e-07	0	0	0
8.17827e-07	0	0	0
8.38733e-07	0	0	0
9.9446e-07	0	0	0
9.98319e-07	0	0	0
1.00267e-06	0	0	0
1.10626e-06	0	0	0
1.21637e-06	0	0	0
1.2798e-06	0	0	0
1.41301e-06	0	0	0
1.47065e-06	0	0	0
1.50091e-06	0	0	0
1.51695e-06	0	0	0
1.55742e-06	0	0	0
1.94646e-06	0	0	0
1.99535e-06	0	0	0
2.18117e-06	0	0	0
2.26917e-06	0	0	0
2.66231e-06	0	0	0
2.73246e-06	0	0	0
2.73947e-06	0	0	0
2.75798e-06	0	0	0
2.79471e-06	0	0	0
2.79674e-06	0	0	0
3.06959e-06	0	0	0
3.11445e-06	0	0	0
3.1145e-06	0	0	0
3.14707e-06	0	0	0
3.24789e-06	0	0	0
3.24877e-06	0	0	0
3.26319e-06	0	0	0
3.30026e-06	0	0	0
3.49e-06	0	0	0
3.56757e-06	0	0	0
4.00009e-06	0	0	0
4.11985e-06	0	0	0
4.29867e-06	0	0	0
4.3312e-06	0	0	0
4.44347e-06	0	0	0
4.45671e-06	0	0	0
4.71321e-06	0	0	0
4.78164e-06	0	0	0
4.97545e-06	0	0	0
4.98391e-06	0	0	0
5.05004e-06	0	0	0
5.14577e-06	0	0	0
5.21073e-06	0	0	0
5.22736e-06	0	0	0
5.70759e-06	0	0	0
5.86086e-06	0	0	0
5.98773e-06	0	0	0
6.1562e-06	0	0	0
6.16016e-06	0	0	0
6.20606e-06	0	0	0
6.2616e-06	0	0	0
6.57163e-06	0	0	0
6.72827e-06	0	0	0
6.97383e-06	0	0	0
7.18774e-06	0	0	0
7.47772e-06	0	0	0
7.6616e-06	0	0	0
7.66544e-06	0	0	0
7.77195e-06	0	0	0
7.79059e-06	0	0	0
7.95156e-06	0	0	0
7.98785e-06	0	0	0
8.17118e-06	0	0	0
9.01608e-06	0	0	0
9.25599e-06	0	0	0
9.35214e-06	0	0	0
9.38731e-06	0	0	0
9.67772e-06	0	0	0
9.94661e-06	0	0	0
1.03142e-05	0	0	0
1.04486e-05	0	0	0
1.06341e-05	0	0	0
1.08149e-05	0	0	0
1.08808e-05	0	0	0
1.11768e-05	0	0	0
1.14999e-05	0	0	0
1.1572e-05	0	0	0
1.15917e-05	0	0	0
1.16851e-05	0	0	0
1.22529e-05	0	0	0
1.23559e-05	0	0	0
1.23579e-05	0	0	0
1.25643e-05	0	0	0
1.2648e-05	0	0	0
1.3271e-05	0	0	0
1.34333e-05	0	0	0
1.4196e-05	0	0	0
1.42284e-05	0	0	0
1.44351e-05	0	0	0
1.44685e-05	0	0	0
1.46042e-05	0	0	0
1.47382e-05	0	0	0
1.48207e-05	0	0	0
1.55307e-05	0	0	0
1.55673e-05	0	0	0
1.61005e-05	0	0	0
1.62659e-05	0	0	0
1.68383e-05	0	0	0
1.71969e-05	0	0	0
1.73353e-05	0	0	0
1.75231e-05	0	0	0
1.81565e-05	0	0	0
1.85923e-05	0	0	0
1.86073e-05	0	0	0
1.88438e-05	0	0	0
1.88623e-05	0	0	0
1.90919e-05	0	0	0
1.96522e-05	0	0	0
1.97703e-05	0	0	0
2.08185e-05	0	0	0
2.15708e-05	0	0	0
2.15971e-05	0	0	0
2.20268e-05	0	0	0
2.23212e-05	0	0	0
2.35844e-05	0	0	0
2.37977e-05	0	0	0
2.43796e-05	0	0	0
2.4467e-05	0	0	0
2.54927e-05	0	0	0
2.55703e-05	0	0	0
2.58223e-05	0	0	0
2.60373e-05	0	0	0
2.69138e-05	0	0	0
2.69531e-05	0	0	0
2.70689e-05	0	0	0
2.71476e-05	0	0	0
2.73932e-05	0	0	0
2.76672e-05	0	0	0
2.79958e-05	0	0	0
2.94451e-05	0	0	0
2.96746e-05	0	0	0
3.00837e-05	0	0	0
3.03032e-05	0	0	0
3.05958e-05	0	0	0
3.06415e-05	0	0	0
3.06654e-05	0	0	0
3.2148e-05	0	0	0
3.28729e-05	0	0	0
3.28756e-05	0	0	0
3.32103e-05	0	0	0
3.39226e-05	0	0	0
3.50625e-05	0	0	0
3.51221e-05	0	0	0
3.55715e-05	0	0	0
3.71795e-05	0	0	0
3.76943e-05	0	0	0
3.82431e-05	0	0	0
3.8435e-05	0	0	0
3.93979e-05	0	0	0
3.96527e-05	0	0	0
3.96849e-05	0	0	0
3.99505e-05	0	0	0
4.12577e-05	0	0	0
4.22274e-05	0	0	0
4.23624e-05	0	0	0
4.24849e-05	0	0	0
4.58673e-05	0	0	0
4.6135e-05	0	0	0
4.64274e-05	0	0	0
4.76197e-05	0	0	0
4.81154e-05	0	0	0
4.87259e-05	0	0	0
5.0249e-05	0	0	0
5.11588e-05	0	0	0
5.13082e-05	0	0	0
5.21181e-05	0	0	0
5.42918e-05	0	0	0
5.43152e-05	0	0	0
5.46694e-05	0	0	0
5.48342e-05	0	0	0
5.52087e-05	0	0	0
5.5325e-05	0	0	0
5.54951e-05	0	0	0
5.62149e-05	0	0	0
5.62342e-05	0	0	0
5.6695e-05	0	0	0
5.71163e-05	0	0	0
5.71843e-05	0	0	0
5.75439e-05	0	0	0
5.81158e-05	0	0	0
5.93826e-05	0	0	0
5.98602e-05	0	0	0
6.12004e-05	0	0	0
6.33092e-05	0	0	0
6.48427e-05	0	0	0
6.54715e-05	0	0	0
6.86288e-05	0	0	0
6.86413e-05	0	0	0
6.9482e-05	0	0	0
7.05584e-05	0	0	0
7.09982e-05	0	0	0
7.21554e-05	0	0	0
7.48501e-05	0	0	0
7.54963e-05	0	0	0
7.59935e-05	0	0	0
7.64383e-05	0	0	0
7.83523e-05	0	0	0
8.31945e-05	0	0	0
8.3271e-05	0	0	0
8.74216e-05	0	0	0
8.91582e-05	0	0	0
9.02207e-05	0	0	0
9.50151e-05	0	0	0
9.60904e-05	0	0	0
9.84725e-05	0	0	0
0.000101037	0	0	0
0.000101511	0	0	0
0.000101984	0	0	0
0.00010243	0	0	0
0.000105509	0	0	0
0.000108841	0	0	0
0.00010996	0	0	0
0.000112713	0	0	0
0.000114881	0	0	0
0.000134259	0	0	0
0.000140774	0	0	0
0.000141584	0	0	0
0.000166639	0	0	0
0.00018108	0	0	0
0.000186908	0	0	0
0.000227601	0	0	0
0.00375609	0	0	0
0.00490055	0	0	0
0.00678445	0	0.0276396	0
0.00678829	0.0138198	0.0552792	0
0.00679296	0.0414594	0.0276396	0
0.0255496	0.0690989	0	0
0.0257592	0.0690989	0	0
0.025986	0.0690989	0.0276396	0
0.0262294	0.0690989	0.0552792	0
0.0266771	0.0690989	0.0829187	0
0.0271116	0.0690989	0.110558	0
0.0271378	0.0690989	0.138198	0
0.0281868	0.0690989	0.165837	0
0.0281939	0.0690989	0.221117	0
0.0281942	0.0967385	0.193477	0
0.0282085	0.124378	0.165837	0
0.028215	0.152018	0.138198	0
0.0282295	0.179657	0.110558	0
0.0282503	0.207297	0.0829187	0
0.0282562	0.234936	0.0552792	0
0.0282574	0.262576	0.0276396	0
0.036885	0.290216	0	0
0.0378751	0.290216	0	0
0.0378799	0.304035	0.0276396	0
0.037936	0.304035	0.0276396	0
0.0380638	0.304035	0.0276396	0
0.110377	0.331675	0	0
0.110403	0.331675	0	0
0.110459	0.331675	0	0
0.114646	0.331675	0	0
0.11465	0.331675	0	0
0.114672	0.331675	0	0
0.126113	0.331675	0	0
0.151095	0.331675	0	0.181984
0.151116	0.331675	0	0.181984
0.151144	0.345495	0.0276396	0.181984
0.151234	0.373134	0	0.181984
0.15293	0.373134	0	0.181984
0.19414	0.373134	0	0.181984
0.199842	0.373134	0	0.272975
0.217999	0.373134	0	0.272975
0.218027	0.373134	0	0.272975
0.22769	0.373134	0	0.272975
0.247646	0.373134	0	0.272975
0.259354	0.373134	0	0.272975
0.259378	0.373134	0	0.272975
0.29507	0.373134	0	0.272975
0.295108	0.373134	0	0.272975
0.330641	0.373134	0	0.272975
0.330654	0.373134	0	0.272975
0.330656	0.386954	0.0276396	0.272975
0.330699	0.386954	0.0276396	0.272975
0.33178	0.414594	0	0.272975
0.351791	0.414594	0	0.272975
0.351906	0.414594	0	0.272975
0.351968	0.428413	0.0276396	0.272975
0.360847	0.456053	0	0.272975
0.384618	0.456053	0	0.272975
0.391712	0.456053	0	0.272975
0.391987	0.456053	0	0.272975
0.392006	0.456053	0.0276396	0.272975
0.392765	0.456053	0.0552792	0.272975
0.392814	0.456053	0.0829187	0.272975
0.402528	0.456053	0.110558	0.272975
0.454686	0.456053	0.110558	0.363967
0.454687	0.456053	0.110558	0.454959
0.454713	0.483693	0.0829187	0.454959
0.454734	0.511332	0.0552792	0.454959
0.454739	0.538972	0.0276396	0.454959
0.454772	0.538972	0.0276396	0.454959
0.519887	0.566611	0	0.454959
0.534624	0.566611	0	0.454959
0.539725	0.566611	0	0.454959
0.539758	0.566611	0	0.454959
0.560678	0.566611	0	0.454959
0.560809	0.566611	0	0.454959
0.560814	0.566611	0.0276396	0.454959
0.560839	0.594251	0	0.454959
0.560856	0.594251	0	0.454959
0.560895	0.594251	0	0.454959
0.560942	0.594251	0	0.454959
0.564493	0.594251	0	0.454959
0.583904	0.594251	0	0.454959
0.584061	0.594251	0	0.454959
0.584074	0.594251	0.0552792	0.454959
0.584076	0.621891	0.0276396	0.454959
0.584082	0.621891	0.0276396	0.454959
0.603028	0.64953	0	0.454959
0.610267	0.64953	0	0.636943
0.610297	0.64953	0	0.636943
0.618422	0.64953	0	0.636943
0.618645	0.64953	0	0.636943
0.618704	0.66335	0.0276396	0.636943
0.618706	0.690989	0	0.636943
0.618711	0.690989	0	0.636943
0.6521	0.690989	0	0.636943
0.655522	0.690989	0	0.636943
0.655526	0.690989	0	0.636943
0.655546	0.690989	0	0.636943
0.721495	0.690989	0	0.636943
0.721722	0.690989	0	0.636943
0.721805	0.704809	0.0276396	0.636943
0.723226	0.732449	0	0.636943
0.727049	0.732449	0	0.636943
0.732743	0.732449	0	0.636943
0.805506	0.732449	0	0.636943
0.823641	0.732449	0	0.636943
0.824157	0.732449	0	0.727934
0.824167	0.732449	0	0.727934
0.841578	0.732449	0	0.727934
0.874791	0.732449	0	0.727934
0.875069	0.732449	0	0.727934
0.876034	0.732449	0.0276396	0.727934
0.878072	0.732449	0.0552792	0.727934
0.878077	0.746269	0.0829187	0.727934
0.878078	0.773908	0.0552792	0.727934
0.87808	0.801548	0.0276396	0.727934
0.878096	0.829187	0	0.727934
0.88967	0.829187	0	0.727934
0.8897	0.829187	0	0.727934
0.912147	0.829187	0	0.727934
0.948461	0.829187	0	0.818926
0.948552	0.829187	0	0.818926
0.948598	0.843007	0.0276396	0.818926
0.958944	0.870647	0	0.818926
0.959005	0.870647	0	0.818926
0.959022	0.884467	0.0276396	0.818926
0.959035	0.912106	0	0.818926
0.95905	0.912106	0	0.818926
0.962992	0.912106	0	0.818926
0.964084	0.912106	0	0.818926
0.964147	0.925926	0.0276396	0.818926
0.964247	0.953566	0	0.818926
0.964602	0.953566	0	0.818926
0.967347	0.953566	0.0276396	0.818926
1.0022	0.953566	0.0276396	0.909918
1.00222	0.953566	0.0276396	0.909918
1.05908	0.981205	0	0.909918
1.05974	0.981205	0	0.909918
1.05976	0.995025	0.0276396	0.909918
1.06342	1.02266	0	0.909918
1.08233	1.02266	0	1.00091
1.10211	1.02266	0	1.0919
1.15037	1.02266	0	1.18289
1.15076	1.02266	0	1.18289
1.15078	1.02266	0.0552792	1.18289
1.15085	1.0503	0.0276396	1.18289
1.16804	1.07794	0	1.18289
1.16824	1.07794	0	1.18289
1.1683	1.09176	0.0276396	1.18289
1.17898	1.1194	0	1.18289
1.17927	1.1194	0	1.18289
1.18819	1.1194	0.0276396	1.18289
1.20915	1.1194	0.0276396	1.27389
1.20918	1.1194	0.0276396	1.27389
1.20919	1.14704	0	1.27389
1.2095	1.14704	0	1.27389
1.23069	1.14704	0.0276396	1.27389
1.23071	1.14704	0.0276396	1.36488
1.23598	1.17468	0	1.36488
1.24838	1.17468	0	1.45587
1.24903	1.17468	0	1.45587
1.2497	1.17468	0.0276396	1.45587
1.2497	1.1885	0.0552792	1.45587
1.2497	1.21614	0.0276396	1.45587
1.2497	1.24378	0	1.45587
1.25331	1.24378	0	1.45587
1.28102	1.24378	0	1.45587
1.28126	1.24378	0	1.45587
1.28156	1.24378	0.0276396	1.45587
1.28163	1.24378	0.0552792	1.45587
1.28198	1.24378	0.0829187	1.45587
1.28249	1.24378	0.110558	1.45587
1.28308	1.24378	0.138198	1.45587
1.28308	1.24378	0.193477	1.45587
1.28311	1.27142	0.165837	1.45587
1.28311	1.29906	0.138198	1.45587
1.28312	1.3267	0.110558	1.45587
1.28313	1.35434	0.0829187	1.45587
1.28316	1.38198	0.0552792	1.45587
1.28321	1.40962	0.0276396	1.45587
1.32785	1.43726	0	1.45587
1.33991	1.43726	0	1.45587
1.34	1.43726	0	1.45587
1.34026	1.43726	0.0276396	1.45587
1.34058	1.43726	0.0552792	1.45587
1.34075	1.43726	0.0829187	1.45587
1.34086	1.43726	0.110558	1.45587
1.34086	1.45108	0.138198	1.45587
1.34086	1.47872	0.110558	1.45587
1.34087	1.50636	0.0829187	1.45587
1.34087	1.534	0.0552792	1.45587
1.34089	1.56164	0.0276396	1.45587
1.34544	1.58928	0	1.45587
1.34628	1.58928	0	1.45587
1.34636	1.6031	0.0276396	1.45587
1.34976	1.63074	0	1.45587
1.41872	1.63074	0	1.54686
1.42125	1.63074	0	1.54686
1.42209	1.63074	0	1.63785
1.43176	1.63074	0	1.81984
1.43235	1.63074	0	1.81984
1.43282	1.63074	0.0276396	1.81984
1.43285	1.64456	0.0552792	1.81984
1.43286	1.67219	0.0276396	1.81984
1.45076	1.69983	0	1.81984
1.50944	1.69983	0	1.81984
1.51608	1.69983	0	1.81984
1.57235	1.69983	0	1.81984
1.57279	1.69983	0	1.81984
1.57281	1.71365	0.0276396	1.81984
1.58187	1.74129	0	1.81984
1.64839	1.74129	0	1.91083
1.64913	1.74129	0	1.91083
1.64914	1.74129	0.0552792	1.91083
1.64915	1.76893	0.0276396	1.91083
1.68032	1.79657	0	1.91083
1.7225	1.79657	0	2.00182
1.75302	1.79657	0	2.00182
1.75662	1.79657	0	2.00182
1.75664	1.79657	0	2.00182
1.7568	1.79657	0.0276396	2.00182
1.75795	1.79657	0.0276396	2.00182
1.75812	1.79657	0.0276396	2.00182
1.75813	1.81039	0.0552792	2.00182
1.75816	1.83803	0.0276396	2.00182
1.76437	1.86567	0	2.00182
1.7658	1.86567	0	2.00182
1.76581	1.87949	0.0276396	2.00182
1.77163	1.90713	0	2.00182
1.77191	1.90713	0	2.00182
1.77202	1.90713	0.0276396	2.00182
1.77597	1.90713	0.0552792	2.00182
1.77627	1.90713	0.0552792	2.00182
1.77627	1.90713	0.110558	2.00182
1.77634	1.93477	0.0829187	2.00182
1.77637	1.93477	0.0829187	2.00182
1.77656	1.96241	0.0552792	2.00182
1.77823	1.96241	0.0829187	2.00182
1.77854	1.96241	0.110558	2.00182
1.77868	1.96241	0.138198	2.00182
1.77874	1.96241	0.165837	2.00182
1.77897	1.96241	0.193477	2.00182
1.77914	1.96241	0.221117	2.00182
1.77919	1.96241	0.248756	2.00182
1.78022	1.99005	0.221117	2.00182
1.78024	1.99005	0.248756	2.00182
1.78031	2.01769	0.221117	2.00182
1.79374	2.01769	0.221117	2.00182
1.80187	2.01769	0.221117	2.09281
1.82343	2.01769	0.221117	2.09281
1.82343	2.01769	0.221117	2.09281
1.82343	2.04533	0.193477	2.09281
1.82343	2.04533	0.193477	2.09281
1.82344	2.04533	0.193477	2.09281
1.82344	2.07297	0.165837	2.09281
1.82344	2.07297	0.165837	2.09281
1.82344	2.07297	0.165837	2.09281
1.82344	2.07297	0.165837	2.09281
1.82345	2.10061	0.138198	2.09281
1.82345	2.12825	0.110558	2.09281
1.82345	2.12825	0.110558	2.09281
1.82346	2.12825	0.110558	2.09281
1.82346	2.15589	0.0829187	2.09281
1.82347	2.18353	0.0552792	2.09281
1.82347	2.18353	0.0552792	2.09281
1.82348	2.21117	0.0276396	2.09281
1.82349	2.21117	0.0276396	2.09281
1.82349	2.21117	0.0276396	2.09281
1.82349	2.21117	0.0276396	2.09281
1.82351	2.21117	0.0276396	2.09281
1.82829	2.23881	0	2.09281
1.82831	2.23881	0	2.09281
1.82831	2.23881	0	2.09281
1.82835	2.23881	0	2.09281
1.86379	2.23881	0	2.09281
1.86379	2.23881	0	2.09281
1.8638	2.23881	0.0552792	2.09281
1.86384	2.26645	0.0276396	2.09281
1.89229	2.29409	0	2.09281
1.90412	2.29409	0	2.09281
1.90432	2.29409	0	2.09281
1.90433	2.29409	0.0552792	2.09281
1.90433	2.32172	0.0276396	2.09281
1.95715	2.34936	0	2.09281
1.95735	2.34936	0	2.09281
1.95806	2.34936	0.0276396	2.09281
1.95894	2.34936	0.0552792	2.09281
1.95996	2.34936	0.0829187	2.09281
1.96051	2.34936	0.110558	2.09281
1.96062	2.34936	0.138198	2.09281
1.96081	2.34936	0.165837	2.09281
1.96082	2.36318	0.193477	2.09281
1.96083	2.39082	0.165837	2.09281
1.96083	2.41846	0.138198	2.09281
1.96083	2.4461	0.110558	2.09281
1.96083	2.47374	0.0829187	2.09281
1.96087	2.50138	0.0552792	2.09281
1.96087	2.52902	0.0276396	2.09281
1.96088	2.55666	0	2.09281
1.963	2.55666	0	2.09281
1.96405	2.55666	0	2.09281
1.96438	2.55666	0.0276396	2.09281
1.96439	2.57048	0.0552792	2.09281
1.96439	2.59812	0.0276396	2.09281
2.00621	2.62576	0	2.09281
2.03198	2.62576	0	2.09281
2.06885	2.62576	0	2.09281
2.06903	2.62576	0	2.09281
2.06904	2.63958	0.0276396	2.09281
2.0932	2.66722	0	2.09281
2.09335	2.66722	0	2.09281
2.09335	2.66722	0.0552792	2.09281
2.09335	2.69486	0.0276396	2.09281
2.0956	2.7225	0	2.09281
2.10629	2.7225	0	2.2748
2.10748	2.7225	0	2.2748
2.10749	2.73632	0.0276396	2.2748
2.14622	2.76396	0	2.2748
2.14951	2.76396	0	2.36579
2.15004	2.76396	0	2.36579
2.15005	2.77778	0.0276396	2.36579
2.17113	2.80542	0	2.36579
2.17466	2.80542	0	2.45678
2.17495	2.80542	0	2.45678
2.17496	2.80542	0.0552792	2.45678
2.17496	2.83306	0.0276396	2.45678
2.252	2.8607	0	2.45678
2.25242	2.8607	0	2.45678
2.25243	2.87452	0.0276396	2.45678
2.28569	2.90216	0	2.45678
2.28594	2.90216	0	2.63876
2.3128	2.90216	0	2.72975
2.32042	2.90216	0	2.72975
2.32114	2.90216	0	2.72975
2.32118	2.91598	0.0276396	2.72975
2.36006	2.94362	0	2.72975
2.38207	2.94362	0	2.82075
2.38333	2.94362	0	2.82075
2.38365	2.94362	0.0276396	2.82075
2.38368	2.95744	0.0552792	2.82075
2.3837	2.98507	0.0276396	2.82075
2.41267	3.01271	0	2.82075
2.41289	3.01271	0	2.82075
2.41302	3.02653	0.0276396	2.82075
2.4202	3.05417	0	2.82075
2.44077	3.05417	0	2.91174
2.44091	3.05417	0	2.91174
2.44101	3.06799	0.0276396	2.91174
2.49551	3.09563	0	2.91174
2.57151	3.09563	0	3.09372
2.59255	3.09563	0	3.18471
2.60318	3.09563	0	3.27571
2.60373	3.09563	0	3.27571
2.60373	3.09563	0.0552792	3.27571
2.60382	3.12327	0.0276396	3.27571
2.63969	3.15091	0	3.27571
2.64025	3.15091	0	3.27571
2.64027	3.16473	0.0276396	3.27571
2.67307	3.19237	0	3.27571
2.68228	3.19237	0	3.27571
2.68231	3.19237	0	3.27571
2.68235	3.20619	0.0276396	3.27571
2.70572	3.23383	0	3.27571
2.70583	3.23383	0	3.27571
2.70593	3.23383	0.0276396	3.27571
2.70593	3.24765	0.0552792	3.27571
2.70594	3.27529	0.0276396	3.27571
2.72884	3.30293	0	3.27571
2.73179	3.30293	0	3.3667
2.73278	3.30293	0	3.3667
2.73278	3.31675	0.0276396	3.3667
2.80185	3.34439	0	3.3667
2.82229	3.34439	0	3.45769
2.82255	3.34439	0	3.45769
2.82263	3.34439	0.0276396	3.45769
2.82264	3.35821	0.0552792	3.45769
2.82266	3.38585	0.0276396	3.45769
2.85951	3.41349	0	3.45769
2.85999	3.41349	0	3.45769
2.86	3.42731	0.0276396	3.45769
2.8698	3.45495	0	3.45769
2.86997	3.45495	0	3.45769
2.89965	3.45495	0.0276396	3.45769
3.03856	3.45495	0.0276396	3.54868
3.03857	3.45495	0.0276396	3.63967
3.03862	3.48259	0	3.63967
3.05305	3.48259	0	3.63967
3.05342	3.48259	0	3.63967
3.05346	3.48259	0.0276396	3.63967
3.06877	3.51023	0	3.63967
3.06879	3.51023	0	3.63967
3.06967	3.51023	0	3.63967
3.06997	3.51023	0	3.63967
3.06998	3.52405	0.0276396	3.63967
3.08293	3.55169	0	3.63967
3.08337	3.55169	0	3.63967
3.08351	3.55169	0.0276396	3.63967
3.08354	3.56551	0.0552792	3.63967
3.08356	3.59315	0.0276396	3.63967
3.11878	3.62078	0	3.63967
3.12275	3.62078	0	3.63967
3.12289	3.62078	0	3.63967
3.1229	3.6346	0.0276396	3.63967
3.16975	3.66224	0	3.63967
3.1703	3.66224	0	3.63967
3.17033	3.66224	0.0552792	3.63967
3.17035	3.68988	0.0276396	3.63967
3.17547	3.71752	0	3.63967
3.1755	3.71752	0	3.63967
3.17573	3.71752	0.0276396	3.63967
3.17573	3.73134	0.0552792	3.63967
3.17578	3.75898	0.0276396	3.63967
3.18374	3.78662	0	3.63967
3.18566	3.78662	0	3.63967
3.18569	3.80044	0.0276396	3.63967
3.19778	3.82808	0	3.63967
3.19854	3.82808	0	3.63967
3.19855	3.8419	0.0276396	3.63967
3.20075	3.86954	0	3.63967
3.20077	3.86954	0	3.63967
3.20078	3.88336	0.0276396	3.63967
3.2302	3.911	0	3.63967
3.27661	3.911	0	3.63967
3.27732	3.911	0	3.63967
3.27732	3.92482	0.0276396	3.63967
3.36744	3.95246	0	3.63967
3.41573	3.95246	0	3.63967
3.41993	3.95246	0	3.73066
3.44048	3.95246	0	3.73066
3.4405	3.95246	0	3.73066
3.44051	3.95246	0	3.73066
3.44162	3.95246	0	3.73066
3.47749	3.95246	0	3.82166
3.51971	3.95246	0	3.91265
3.52614	3.95246	0	3.91265
3.5466	3.95246	0	4.00364
3.54668	3.95246	0	4.00364
3.54672	3.96628	0.0276396	4.00364
3.55774	3.99392	0	4.00364
3.57899	3.99392	0	4.18562
3.57907	3.99392	0	4.18562
3.57909	4.00774	0.0276396	4.18562
3.58654	4.03538	0	4.18562
3.58655	4.03538	0	4.18562
3.60346	4.03538	0.0276396	4.18562
3.60348	4.03538	0.0276396	4.18562
3.60409	4.06302	0	4.18562
3.6041	4.06302	0.0552792	4.18562
3.60418	4.09066	0.0276396	4.18562
3.65319	4.1183	0	4.18562
3.6857	4.1183	0	4.36761
3.68584	4.1183	0	4.36761
3.68629	4.1183	0.0276396	4.36761
3.68692	4.1183	0.0552792	4.36761
3.68693	4.13212	0.0829187	4.36761
3.68694	4.15976	0.0552792	4.36761
3.68694	4.1874	0.0276396	4.36761
3.68695	4.21504	0	4.36761
3.76404	4.21504	0	4.36761
3.76464	4.21504	0	4.4586
3.76475	4.21504	0	4.4586
3.76478	4.22886	0.0276396	4.4586
3.77151	4.2565	0	4.4586
3.77647	4.2565	0	4.4586
3.77966	4.2565	0	4.54959
3.79337	4.2565	0	4.73157
3.79426	4.2565	0	4.73157
3.79428	4.27032	0.0276396	4.73157
3.79845	4.29795	0	4.73157
3.79892	4.29795	0	4.73157
3.79897	4.31177	0.0276396	4.73157
3.80772	4.33941	0	4.73157
3.82949	4.33941	0	4.91356
3.82958	4.33941	0	4.91356
3.8296	4.35323	0.0276396	4.91356
3.84927	4.38087	0	4.91356
3.8495	4.38087	0	4.91356
3.84951	4.38087	0.0552792	4.91356
3.84951	4.40851	0.0276396	4.91356
3.8504	4.43615	0	4.91356
3.85068	4.43615	0	4.91356
3.85069	4.44997	0.0276396	4.91356
3.86806	4.47761	0	4.91356
3.90235	4.47761	0	5.00455
3.90306	4.47761	0	5.00455
3.90312	4.49143	0.0276396	5.00455
3.90313	4.51907	0	5.00455
3.92079	4.51907	0	5.00455
3.92946	4.51907	0	5.00455
3.93734	4.51907	0	5.00455
3.96053	4.51907	0	5.18653
3.99389	4.51907	0	5.27753
4.03706	4.51907	0	5.36852
4.0377	4.51907	0	5.36852
4.03813	4.51907	0.0276396	5.36852
4.03814	4.51907	0.0552792	5.36852
4.03815	4.54671	0.0276396	5.36852
4.0562	4.57435	0	5.36852
4.05673	4.57435	0	5.36852
4.05678	4.57435	0.0552792	5.36852
4.0568	4.60199	0.0276396	5.36852
4.09996	4.62963	0	5.36852
4.10054	4.62963	0	5.36852
4.10054	4.64345	0.0276396	5.36852
4.10202	4.67109	0	5.36852
4.16232	4.67109	0	5.45951
4.2243	4.67109	0	5.64149
4.2565	4.67109	0	5.73248
4.26097	4.67109	0	5.82348
4.26186	4.67109	0	5.82348
4.26191	4.67109	0.0552792	5.82348
4.26192	4.69873	0.0276396	5.82348
4.27814	4.72637	0	5.82348
4.27853	4.72637	0	5.82348
4.27854	4.74019	0.0276396	5.82348
4.27857	4.74019	0.0276396	6.00546
4.29389	4.76783	0	6.00546
4.30178	4.76783	0	6.09645
4.30181	4.76783	0	6.09645
4.30237	4.76783	0.0276396	6.09645
4.30254	4.76783	0.0552792	6.09645
4.30256	4.76783	0.110558	6.09645
4.30256	4.79547	0.0829187	6.09645
4.30257	4.82311	0.0552792	6.09645
4.30264	4.85075	0.0276396	6.09645
4.31038	4.87839	0	6.09645
4.35855	4.87839	0	6.18744
4.36253	4.87839	0	6.36943
4.36334	4.87839	0	6.36943
4.36365	4.87839	0.0276396	6.36943
4.36366	4.89221	0.0552792	6.36943
4.36366	4.91985	0.0276396	6.36943
4.3637	4.94748	0	6.36943
4.38486	4.94748	0	6.36943
4.44304	4.94748	0	6.36943
4.45062	4.94748	0	6.55141
4.48432	4.94748	0	6.55141
4.48483	4.94748	0	6.55141
4.48484	4.94748	0.0552792	6.55141
4.48487	4.97512	0.0276396	6.55141
4.50695	5.00276	0	6.55141
4.51105	5.00276	0	6.6424
4.53885	5.00276	0	6.73339
4.53914	5.00276	0	6.73339
4.53916	5.00276	0.0552792	6.73339
4.53918	5.0304	0.0276396	6.73339
4.53985	5.05804	0	6.73339
4.5406	5.05804	0	6.73339
4.54082	5.05804	0.0276396	6.73339
4.54237	5.05804	0.0552792	6.73339
4.54422	5.05804	0.0829187	6.73339
4.63558	5.05804	0.110558	6.73339
4.6356	5.05804	0.110558	6.91538
4.63561	5.08568	0.0829187	6.91538
4.63561	5.11332	0.0552792	6.91538
4.63563	5.14096	0.0276396	6.91538
4.63784	5.1686	0	6.91538
4.63803	5.1686	0	6.91538
4.63835	5.1686	0.0276396	6.91538
4.63836	5.18242	0.0552792	6.91538
4.63839	5.21006	0.0276396	6.91538
4.66665	5.2377	0	6.91538
4.67009	5.2377	0	7.00637
4.67095	5.2377	0	7.00637
4.67108	5.2377	0.0276396	7.00637
4.67125	5.2377	0.0552792	7.00637
4.67131	5.2377	0.0829187	7.00637
4.67131	5.25152	0.110558	7.00637
4.67132	5.27916	0.0829187	7.00637
4.67135	5.3068	0.0552792	7.00637
4.67142	5.33444	0.0276396	7.00637
4.74758	5.36208	0	7.00637
4.74845	5.36208	0	7.00637
4.74847	5.3759	0.0276396	7.00637
4.75918	5.40354	0	7.00637
4.77814	5.40354	0	7.00637
4.77934	5.40354	0	7.00637
4.77935	5.41736	0.0276396	7.00637
4.77936	5.445	0	7.00637
4.78906	5.445	0	7.00637
4.78915	5.445	0	7.00637
4.78971	5.445	0.0276396	7.00637
4.78972	5.45882	0.0552792	7.00637
4.78973	5.48646	0.0276396	7.00637
4.79686	5.5141	0	7.00637
4.79692	5.5141	0	7.00637
4.79693	5.52792	0.0276396	7.00637
4.8014	5.55556	0	7.00637
4.80144	5.55556	0	7.00637
4.80147	5.55556	0.0276396	7.00637
4.82528	5.5832	0	7.00637
4.82616	5.5832	0	7.00637
4.8262	5.5832	0.0276396	7.00637
4.83798	5.61083	0	7.00637
4.85299	5.61083	0	7.18835
4.85311	5.61083	0	7.18835
4.85311	5.62465	0.0276396	7.18835
4.87622	5.65229	0	7.18835
4.888	5.65229	0	7.18835
4.88805	5.65229	0	7.18835
4.88806	5.65229	0.0552792	7.18835
4.88807	5.67993	0.0276396	7.18835
4.95285	5.70757	0	7.18835
4.95288	5.70757	0	7.18835
4.95288	5.72139	0.0276396	7.18835
4.96948	5.74903	0	7.18835
4.97022	5.74903	0	7.18835
4.97023	5.74903	0.0552792	7.18835
4.97023	5.77667	0.0276396	7.18835
4.98647	5.80431	0	7.18835
4.98671	5.80431	0	7.18835
4.98673	5.81813	0.0276396	7.18835
5.104	5.84577	0	7.18835
5.10418	5.84577	0	7.18835
5.10419	5.84577	0.0276396	7.18835
5.13548	5.87341	0	7.18835
5.13564	5.87341	0	7.18835
5.13567	5.88723	0.0276396	7.18835
5.13569	5.88723	0.0276396	7.18835
5.13575	5.88723	0.0829187	7.18835
5.13576	5.91487	0.0552792	7.18835
5.13586	5.94251	0.0276396	7.18835
5.14162	5.97015	0	7.18835
5.14283	5.97015	0	7.18835
5.14498	5.97015	0.0276396	7.18835
5.14562	5.97015	0.0552792	7.18835
5.14629	5.97015	0.0829187	7.18835
5.14717	5.97015	0.110558	7.18835
5.14747	5.97015	0.138198	7.18835
5.14769	5.97015	0.165837	7.18835
5.14816	5.97015	0.193477	7.18835
5.14846	5.97015	0.221117	7.18835
5.14846	5.97015	0.248756	7.18835
5.14918	5.99779	0.221117	7.18835
5.14923	5.99779	0.248756	7.18835
5.15478	6.02543	0.221117	7.18835
5.18565	6.02543	0.221117	7.37034
5.18565	6.02543	0.221117	7.37034
5.18566	6.05307	0.193477	7.37034
5.18566	6.08071	0.165837	7.37034
5.18567	6.10835	0.138198	7.37034
5.18567	6.13599	0.110558	7.37034
5.18567	6.16363	0.0829187	7.37034
5.18568	6.19127	0.0552792	7.37034
5.18571	6.21891	0.0276396	7.37034
5.18635	6.24655	0	7.37034
5.18635	6.24655	0.0552792	7.37034
5.18639	6.27418	0.0276396	7.37034
5.2409	6.30182	0	7.37034
5.26458	6.30182	0	7.55232
5.26467	6.30182	0	7.55232
5.26519	6.30182	0.0276396	7.55232
5.26519	6.31564	0.0552792	7.55232
5.26529	6.34328	0.0276396	7.55232
5.28173	6.37092	0	7.55232
5.28208	6.37092	0	7.55232
5.28213	6.37092	0.0276396	7.55232
5.28224	6.38474	0.0552792	7.55232
5.28224	6.41238	0.0276396	7.55232
5.28232	6.41238	0.0276396	7.64331
5.30251	6.44002	0	7.64331
5.30337	6.44002	0	7.64331
5.30347	6.45384	0.0276396	7.64331
5.34648	6.48148	0	7.64331
5.34831	6.48148	0	7.64331
5.34831	6.4953	0.0276396	7.64331
5.36377	6.52294	0	7.64331
5.36452	6.52294	0	7.64331
5.36452	6.52294	0.0552792	7.64331
5.36454	6.55058	0.0276396	7.64331
5.37509	6.57822	0	7.64331
5.37509	6.57822	0	7.7343
5.39445	6.57822	0	7.7343
5.3946	6.57822	0	7.7343
5.39462	6.59204	0.0276396	7.7343
5.42892	6.61968	0	7.7343
5.42979	6.61968	0	7.7343
5.42981	6.6335	0.0276396	7.7343
5.44813	6.66114	0	7.7343
5.44841	6.66114	0	7.7343
5.44842	6.67496	0.0276396	7.7343
5.46586	6.7026	0	7.7343
5.46629	6.7026	0	7.7343
5.46721	6.7026	0.0276396	7.7343
5.46778	6.7026	0.0552792	7.7343
5.4685	6.7026	0.0829187	7.7343
5.46853	6.7026	0.110558	7.7343
5.46876	6.7026	0.138198	7.7343
5.46993	6.7026	0.165837	7.7343
5.47031	6.7026	0.193477	7.7343
5.47031	6.71642	0.221117	7.7343
5.47031	6.74406	0.193477	7.7343
5.47032	6.7717	0.165837	7.7343
5.47032	6.79934	0.138198	7.7343
5.47033	6.82698	0.110558	7.7343
5.47034	6.85462	0.0829187	7.7343
5.47037	6.88226	0.0552792	7.7343
5.4704	6.90989	0.0276396	7.7343
5.49839	6.93753	0	7.7343
5.54238	6.93753	0	7.91629
5.54247	6.93753	0	7.91629
5.54247	6.95135	0.0276396	7.91629
5.55442	6.97899	0	7.91629
5.56215	6.97899	0	8.09827
5.56474	6.97899	0	8.28025
5.56955	6.97899	0	8.37125
5.57073	6.97899	0	8.37125
5.57083	6.99281	0.0276396	8.37125
5.58296	7.02045	0	8.37125
5.59212	7.02045	0	8.46224
5.5927	7.02045	0	8.46224
5.59273	7.03427	0.0276396	8.46224
5.59322	7.06191	0	8.46224
5.59334	7.06191	0	8.46224
5.59341	7.07573	0.0276396	8.46224
5.62114	7.10337	0	8.46224
5.62218	7.10337	0	8.46224
5.62218	7.11719	0.0276396	8.46224
5.63981	7.14483	0	8.46224
5.65924	7.14483	0	8.64422
5.66098	7.14483	0	8.64422
5.666	7.14483	0.0276396	8.64422
5.66646	7.14483	0.0276396	8.64422
5.66649	7.14483	0.0829187	8.64422
5.66651	7.17247	0.0552792	8.64422
5.69766	7.20011	0.0276396	8.64422
5.69767	7.20011	0.0276396	8.82621
5.71466	7.22775	0	8.82621
5.7622	7.22775	0	9.00819
5.76372	7.22775	0	9.00819
5.76376	7.24157	0.0276396	9.00819
5.89627	7.26921	0	9.00819
5.89655	7.26921	0	9.00819
5.8983	7.26921	0.0276396	9.00819
5.89856	7.26921	0.0552792	9.00819
5.94365	7.26921	0.0829187	9.00819
5.94366	7.26921	0.0829187	9.00819
5.94366	7.29685	0.0552792	9.00819
5.94367	7.32449	0.0276396	9.00819
5.94456	7.35213	0	9.00819
5.94456	7.36595	0.0276396	9.00819
6.00031	7.39359	0	9.00819
6.00034	7.39359	0	9.00819
6.00035	7.39359	0.0552792	9.00819
6.00036	7.42123	0.0276396	9.00819
6.00036	7.44887	0	9.00819
6.0224	7.44887	0	9.00819
6.02282	7.44887	0	9.19017
6.02315	7.44887	0	9.19017
6.0232	7.46269	0.0276396	9.19017
6.02777	7.49033	0	9.19017
6.06112	7.49033	0	9.28116
6.06254	7.49033	0	9.28116
6.06256	7.49033	0.0552792	9.28116
6.06264	7.51797	0.0276396	9.28116
6.13535	7.54561	0	9.28116
6.13758	7.54561	0	9.37216
6.21429	7.54561	0	9.55414
6.27822	7.54561	0	9.64513
6.27827	7.54561	0	9.64513
6.27832	7.54561	0.0276396	9.64513
6.27866	7.54561	0.0552792	9.64513
6.28014	7.54561	0.0829187	9.64513
6.28151	7.54561	0.110558	9.64513
6.28152	7.55943	0.138198	9.64513
6.28153	7.58706	0.110558	9.64513
6.28153	7.6147	0.0829187	9.64513
6.28157	7.64234	0.0552792	9.64513
6.2816	7.66998	0.0276396	9.64513
6.31762	7.69762	0	9.64513
6.33324	7.69762	0	9.82712
6.42153	7.69762	0	9.91811
6.44406	7.69762	0	10.0091
6.44422	7.69762	0	10.0091
6.44426	7.71144	0.0276396	10.0091
6.47669	7.73908	0	10.0091
6.4772	7.73908	0	10.0091
6.47726	7.7529	0.0276396	10.0091
6.48542	7.78054	0	10.0091
6.49668	7.78054	0	10.0091
6.58791	7.78054	0	10.1911
6.5896	7.78054	0	10.3731
6.60826	7.78054	0	10.4641
6.60903	7.78054	0	10.4641
6.60951	7.78054	0.0276396	10.4641
6.60951	7.79436	0.0552792	10.4641
6.60952	7.822	0.0276396	10.4641
6.60956	7.84964	0	10.4641
6.70838	7.84964	0	10.4641
6.73375	7.84964	0	10.646
6.73398	7.84964	0	10.646
6.734	7.84964	0.0552792	10.646
6.734	7.87728	0.0276396	10.646
6.82277	7.90492	0	10.646
6.85822	7.90492	0	10.828
6.883	7.90492	0	11.01
6.88329	7.90492	0	11.01
6.88374	7.90492	0.0276396	11.01
6.88374	7.91874	0.0552792	11.01
6.88374	7.94638	0.0276396	11.01
6.88376	7.94638	0.0276396	11.01
6.8856	7.97402	0	11.01
6.88564	7.97402	0	11.01
6.88567	7.98784	0.0276396	11.01
6.8858	8.01548	0	11.01
6.88583	8.01548	0	11.01
6.88584	8.01548	0.0552792	11.01
6.8859	8.04312	0.0276396	11.01
6.8908	8.07076	0	11.01
6.89141	8.07076	0	11.01
6.89152	8.08458	0.0276396	11.01
6.93651	8.11222	0	11.01
6.93751	8.11222	0	11.01
6.93769	8.11222	0.0276396	11.01
6.93772	8.11222	0.0829187	11.01
6.93774	8.13986	0.0552792	11.01
6.9378	8.1675	0.0276396	11.01
7.01985	8.19514	0	11.01
7.02006	8.19514	0	11.01
7.09781	8.19514	0.0276396	11.01
7.09783	8.19514	0.0276396	11.101
7.13705	8.22278	0	11.101
7.13706	8.22278	0	11.101
7.13712	8.23659	0.0276396	11.101
7.18207	8.26423	0	11.101
7.18258	8.26423	0	11.101
7.18263	8.26423	0.0552792	11.101
7.1827	8.29187	0.0276396	11.101
7.22427	8.31951	0	11.101
7.27569	8.31951	0	11.283
7.27572	8.31951	0	11.283
7.27572	8.31951	0.0552792	11.283
7.27574	8.34715	0.0276396	11.283
7.38702	8.37479	0	11.283
7.38708	8.37479	0	11.283
7.38713	8.38861	0.0276396	11.283
7.43283	8.41625	0	11.283
7.43328	8.41625	0	11.283
7.43328	8.41625	0.0552792	11.283
7.4333	8.44389	0.0276396	11.283
7.46028	8.47153	0	11.283
7.46044	8.47153	0	11.283
7.46047	8.48535	0.0276396	11.283
7.50716	8.51299	0	11.283
7.5085	8.51299	0	11.283
7.5085	8.52681	0.0276396	11.283
7.52176	8.55445	0	11.283
7.5222	8.55445	0	11.283
7.52221	8.56827	0.0276396	11.283
7.53129	8.59591	0	11.283
7.53152	8.59591	0	11.283
7.53157	8.60973	0.0276396	11.283
7.54509	8.63737	0	11.283
7.54555	8.63737	0	11.283
7.54555	8.63737	0.0552792	11.283
7.54561	8.66501	0.0276396	11.283
7.56337	8.69265	0	11.283
7.56393	8.69265	0	11.283
7.56398	8.70647	0.0276396	11.283
7.59295	8.73411	0	11.283
7.59386	8.73411	0	11.283
7.59458	8.73411	0.0276396	11.283
7.59458	8.74793	0.0552792	11.283
7.59461	8.77557	0.0276396	11.283
7.67897	8.80321	0	11.283
7.81543	8.80321	0	11.374
7.81586	8.80321	0	11.374
7.81664	8.80321	0.0276396	11.374
7.81691	8.80321	0.0552792	11.374
7.81756	8.80321	0.0829187	11.374
7.88084	8.80321	0.110558	11.374
7.88084	8.80321	0.110558	11.465
7.88085	8.83085	0.0829187	11.465
7.88087	8.83085	0.0829187	11.465
7.88089	8.85849	0.0552792	11.465
7.88093	8.88612	0.0276396	11.465
7.95731	8.91376	0	11.465
7.95786	8.91376	0	11.465
7.95936	8.91376	0.0276396	11.465
7.95938	8.92758	0.0552792	11.465
7.95942	8.95522	0.0276396	11.465
8.02753	8.98286	0	11.465
8.02772	8.98286	0	11.465
8.0279	8.98286	0	11.465
8.0279	8.99668	0.0276396	11.465
8.02792	8.99668	0.0552792	11.465
8.02815	9.02432	0.0276396	11.465
8.02816	9.03814	0.0552792	11.465
8.02817	9.06578	0.0276396	11.465
8.02883	9.09342	0	11.465
8.12462	9.09342	0	11.556
8.12495	9.09342	0	11.556
8.12497	9.09342	0.0552792	11.556
8.12499	9.12106	0.0276396	11.556
8.14945	9.1487	0	11.556
8.14996	9.1487	0	11.556
8.14996	9.16252	0.0276396	11.556
8.17012	9.19016	0	11.556
8.17118	9.19016	0	11.556
8.17119	9.20398	0.0276396	11.556
8.33401	9.23162	0	11.556
8.44801	9.23162	0	11.7379
8.44818	9.23162	0	11.7379
8.44824	9.24544	0.0276396	11.7379
8.52226	9.27308	0	11.7379
8.52233	9.27308	0	11.7379
8.52384	9.27308	0.0276396	11.7379
8.52387	9.2869	0.0552792	11.7379
8.52389	9.31454	0.0276396	11.7379
8.55204	9.34218	0	11.7379
8.58193	9.34218	0	11.9199
8.60647	9.34218	0	12.0109
8.60684	9.34218	0	12.0109
8.60688	9.356	0.0276396	12.0109
8.62344	9.38364	0	12.0109
8.62388	9.38364	0	12.0109
8.62391	9.39746	0.0276396	12.0109
8.71048	9.4251	0	12.0109
8.71064	9.4251	0	12.0109
8.71067	9.43892	0.0276396	12.0109
8.75103	9.46656	0	12.0109
8.76871	9.46656	0	12.1019
8.82596	9.46656	0	12.1929
8.82653	9.46656	0	12.1929
8.82658	9.48038	0.0276396	12.1929
8.86982	9.50802	0	12.1929
8.87067	9.50802	0	12.1929
8.87218	9.50802	0.0276396	12.1929
8.87219	9.52184	0.0552792	12.1929
8.8722	9.54947	0.0276396	12.1929
8.87664	9.57711	0	12.1929
8.87825	9.57711	0	12.1929
8.87826	9.59093	0.0276396	12.1929
8.89667	9.61857	0	12.1929
8.93288	9.61857	0	12.3749
8.933	9.61857	0	12.3749
8.93304	9.63239	0.0276396	12.3749
8.99662	9.66003	0	12.3749
8.9971	9.66003	0	12.3749
9.00007	9.66003	0.0276396	12.3749
9.00013	9.67385	0.0552792	12.3749
9.00015	9.70149	0.0276396	12.3749
9.05158	9.72913	0	12.3749
9.13123	9.72913	0	12.5569
9.13214	9.72913	0	12.5569
9.13216	9.74295	0.0276396	12.5569
9.13221	9.77059	0	12.5569
9.13441	9.77059	0	12.5569
9.13443	9.77059	0.0552792	12.5569
9.13444	9.79823	0.0276396	12.5569
9.24044	9.82587	0	12.5569
9.24141	9.82587	0	12.5569
9.24202	9.82587	0.0276396	12.5569
9.24206	9.83969	0.0552792	12.5569
9.24207	9.86733	0.0276396	12.5569
9.27099	9.89497	0	12.5569
9.2711	9.89497	0	12.5569
9.27114	9.89497	0.0552792	12.5569
9.27117	9.92261	0.0276396	12.5569
9.3775	9.95025	0	12.5569
9.41539	9.95025	0	12.7389
9.41558	9.95025	0	12.9208
9.41582	9.95025	0	12.9208
9.41583	9.96407	0.0276396	12.9208
9.45578	9.99171	0	12.9208
9.45705	9.99171	0	12.9208
9.45706	9.99171	0.0552792	12.9208
9.45706	10.0193	0.0276396	12.9208
9.48062	10.047	0	12.9208
9.57115	10.047	0	13.1028
9.57152	10.047	0	13.1028
9.57157	10.0608	0.0276396	13.1028
9.71521	10.0884	0	13.1028
9.71576	10.0884	0	13.1028
9.71581	10.1023	0.0276396	13.1028
9.71847	10.1299	0	13.1028
9.71904	10.1299	0	13.1028
9.71916	10.1299	0.0276396	13.1028
9.71917	10.1437	0.0552792	13.1028
9.71923	10.1714	0.0276396	13.1028
9.85722	10.199	0	13.1028
9.85793	10.199	0	13.1028
9.85798	10.2128	0.0276396	13.1028
9.85858	10.2405	0	13.1028
9.85861	10.2405	0	13.1938
9.90328	10.2405	0	13.1938
9.90379	10.2405	0	13.1938
9.9038	10.2543	0.0276396	13.1938
9.93669	10.2819	0	13.1938
9.93777	10.2819	0	13.1938
9.93782	10.2957	0.0276396	13.1938
10.0555	10.3234	0	13.1938
10.0561	10.3234	0	13.1938
10.0563	10.3372	0.0276396	13.1938
10.112	10.3648	0	13.1938
10.1121	10.3648	0	13.1938
10.1121	10.3787	0.0276396	13.1938
10.14	10.4063	0	13.1938
10.1401	10.4063	0	13.1938
10.1401	10.4201	0.0276396	13.1938
10.2432	10.4478	0	13.1938
10.2449	10.4478	0	13.1938
10.2449	10.4616	0.0276396	13.1938
10.2525	10.4892	0	13.1938
10.2527	10.4892	0	13.1938
10.2527	10.503	0.0276396	13.1938
10.2528	10.5307	0	13.1938
10.2563	10.5307	0	13.1938
10.2576	10.5307	0.0276396	13.1938
10.2577	10.5307	0.0552792	13.1938
10.2584	10.5307	0.0829187	13.1938
10.2585	10.5307	0.110558	13.1938
10.2588	10.5307	0.138198	13.1938
10.2588	10.5307	0.165837	13.1938
10.2589	10.5307	0.193477	13.1938
10.2598	10.5307	0.221117	13.1938
10.2598	10.5307	0.248756	13.1938
10.2598	10.5307	0.276396	13.1938
10.26	10.5583	0.248756	13.1938
10.3547	10.586	0.221117	13.1938
10.3547	10.586	0.221117	13.1938
10.3547	10.6136	0.193477	13.1938
10.3547	10.6412	0.165837	13.1938
10.3548	10.6689	0.138198	13.1938
10.3548	10.6965	0.110558	13.1938
10.3548	10.7242	0.0829187	13.1938
10.3548	10.7518	0.0552792	13.1938
10.3548	10.7794	0.0276396	13.1938
10.355	10.8071	0	13.1938
10.355	10.8209	0.0276396	13.1938
10.51	10.8485	0	13.1938
10.5101	10.8485	0	13.1938
10.5101	10.8624	0.0276396	13.1938
10.5246	10.89	0	13.1938
10.5247	10.89	0	13.1938
10.5247	10.9038	0.0276396	13.1938
10.5784	10.9315	0	13.1938
10.5787	10.9315	0	13.1938
10.5787	10.9453	0.0276396	13.1938
10.7545	10.9729	0	13.1938
10.7555	10.9729	0	13.1938
10.7555	10.9867	0.0276396	13.1938
10.8882	11.0144	0	13.1938
10.8886	11.0144	0	13.1938
10.8886	11.0282	0.0276396	13.1938
10.9484	11.0558	0	13.1938
11.1381	11.0558	0	13.3758
11.1383	11.0558	0	13.3758
11.1386	11.0558	0.0276396	13.3758
11.1386	11.0697	0.0552792	13.3758
11.1386	11.0973	0.0276396	13.3758
11.2708	11.1249	0	13.3758
11.3838	11.1249	0	13.4668
11.384	11.1249	0	13.4668
11.384	11.1249	0.0552792	13.4668
11.384	11.1526	0.0276396	13.4668
11.3922	11.1802	0	13.4668
11.3927	11.1802	0	13.4668
11.3927	11.1802	0.0276396	13.4668
11.3928	11.194	0.0552792	13.4668
11.3929	11.2217	0.0276396	13.4668
11.4605	11.2493	0	13.4668
11.4608	11.2493	0	13.4668
11.4608	11.2631	0.0276396	13.4668
11.4993	11.2908	0	13.4668
11.4994	11.2908	0	13.4668
11.4994	11.3046	0.0276396	13.4668
11.5241	11.3322	0	13.4668
11.5477	11.3322	0	13.6488
11.5486	11.3322	0	13.6488
11.5493	11.3322	0.0276396	13.6488
11.5494	11.3322	0.0552792	13.6488
11.5494	11.3322	0.0829187	13.6488
11.5496	11.3322	0.110558	13.6488
11.5496	11.3322	0.165837	13.6488
11.5496	11.3599	0.138198	13.6488
11.5496	11.3875	0.110558	13.6488
11.5496	11.4151	0.0829187	13.6488
11.5496	11.4428	0.0552792	13.6488
11.5497	11.4704	0.0276396	13.6488
11.5517	11.4981	0	13.6488
11.5525	11.4981	0	13.6488
11.5525	11.5119	0.0276396	13.6488
11.6029	11.5395	0	13.6488
11.603	11.5395	0	13.6488
11.6031	11.5533	0.0276396	13.6488
11.6697	11.581	0	13.6488
11.6697	11.581	0	13.6488
11.6697	11.5948	0.0276396	13.6488
11.858	11.6224	0	13.6488
11.8584	11.6224	0	13.6488
11.8584	11.6363	0.0276396	13.6488
11.8717	11.6639	0	13.6488
11.8717	11.6639	0	13.6488
11.8718	11.6639	0.0276396	13.6488
11.8732	11.6639	0.0552792	13.6488
11.8733	11.6639	0.0829187	13.6488
12.0296	11.6639	0.110558	13.6488
12.0297	11.6639	0.110558	13.8308
12.0297	11.6915	0.0829187	13.8308
12.0297	11.7192	0.0552792	13.8308
12.0297	11.7468	0.0276396	13.8308
12.0997	11.7745	0	13.8308
12.1	11.7745	0	13.8308
12.1	11.7883	0.0276396	13.8308
12.2895	11.8159	0	13.8308
12.2898	11.8159	0	13.8308
12.2899	11.8297	0.0276396	13.8308
12.5458	11.8574	0	13.8308
12.555	11.8574	0	14.0127
12.5556	11.8574	0	14.0127
12.5561	11.8574	0.0276396	14.0127
12.5561	11.8574	0.0552792	14.0127
12.5569	11.8574	0.0829187	14.0127
12.5575	11.8574	0.110558	14.0127
12.5575	11.8574	0.138198	14.0127
12.5576	11.8574	0.165837	14.0127
12.5576	11.8574	0.221117	14.0127
12.5576	11.885	0.193477	14.0127
12.5576	11.9127	0.165837	14.0127
12.5576	11.9403	0.138198	14.0127
12.5576	11.9679	0.110558	14.0127
12.5576	11.9956	0.0829187	14.0127
12.5576	12.0232	0.0552792	14.0127
12.5576	12.0509	0.0276396	14.0127
12.9218	12.0785	0	14.0127
12.9225	12.0785	0	14.0127
12.9225	12.0923	0.0276396	14.0127
13.0253	12.12	0	14.0127
13.0261	12.12	0	14.0127
13.0267	12.12	0.0276396	14.0127
13.2082	12.12	0.0552792	14.0127
13.2096	12.12	0.0552792	14.0127
13.2098	12.12	0.0829187	14.0127
13.2098	12.1338	0.110558	14.0127
13.2099	12.1614	0.0829187	14.0127
13.2099	12.1891	0.0552792	14.0127
13.2099	12.2167	0.0276396	14.0127
13.3811	12.2443	0	14.0127
13.3818	12.2443	0	14.0127
13.3818	12.2443	0.0552792	14.0127
13.3818	12.272	0.0276396	14.0127
13.3935	12.2996	0	14.0127
13.3935	12.2996	0	14.0127
13.3936	12.3134	0.0276396	14.0127
13.4109	12.3411	0	14.0127
13.4112	12.3411	0	14.0127
13.4112	12.3549	0.0276396	14.0127
13.5385	12.3825	0	14.0127
13.5389	12.3825	0	14.0127
13.5394	12.3825	0.0276396	14.0127
13.5395	12.3964	0.0552792	14.0127
13.5396	12.424	0.0276396	14.0127
13.6096	12.4516	0	14.0127
13.6098	12.4516	0	14.0127
13.61	12.4516	0.0276396	14.0127
13.61	12.4655	0.0552792	14.0127
13.61	12.4931	0.0276396	14.0127
13.6438	12.5207	0	14.0127
13.6447	12.5207	0	14.0127
13.6447	12.5345	0.0276396	14.0127
13.6946	12.5622	0	14.0127
13.6966	12.5622	0	14.0127
13.6966	12.576	0.0276396	14.0127
13.8631	12.6036	0	14.0127
13.8634	12.6036	0	14.0127
13.8635	12.6175	0.0276396	14.0127
13.8834	12.6451	0	14.0127
14.0273	12.6451	0	14.1947
14.0274	12.6451	0	14.1947
14.0274	12.6589	0.0276396	14.1947
14.1528	12.6866	0	14.1947
14.1529	12.6866	0	14.1947
14.1529	12.7004	0.0276396	14.1947
14.1696	12.728	0	14.1947
14.1706	12.728	0	14.1947
14.1709	12.728	0.0276396	14.1947
14.1709	12.7418	0.0552792	14.1947
14.1709	12.7695	0.0276396	14.1947
14.3693	12.7971	0	14.1947
14.3697	12.7971	0	14.1947
14.3697	12.7971	0.0552792	14.1947
14.3697	12.8248	0.0276396	14.1947
14.5109	12.8524	0	14.1947
14.6225	12.8524	0	14.3767
14.6356	12.8524	0	14.5587
14.6363	12.8524	0	14.5587
14.6363	12.8524	0.0552792	14.5587
14.6363	12.88	0.0276396	14.5587
14.7051	12.9077	0	14.5587
14.7132	12.9077	0	14.7407
14.7137	12.9077	0	14.7407
14.7137	12.9215	0.0276396	14.7407
14.7471	12.9491	0	14.7407
14.9097	12.9491	0	14.8317
14.9102	12.9491	0	14.8317
14.9111	12.9491	0.0276396	14.8317
14.9116	12.9491	0.0552792	14.8317
14.9116	12.963	0.0829187	14.8317
14.9116	12.9906	0.0552792	14.8317
14.9117	13.0182	0.0276396	14.8317
15.0514	13.0459	0	14.8317
15.0514	13.0459	0	14.8317
15.0518	13.0459	0.0276396	14.8317
15.0518	13.0597	0.0552792	14.8317
15.0519	13.0873	0.0276396	14.8317
15.1646	13.115	0	14.8317
15.1655	13.115	0	14.8317
15.1655	13.1288	0.0276396	14.8317
15.3434	13.1564	0	14.8317
15.3435	13.1564	0	14.8317
15.3436	13.1703	0.0276396	14.8317
15.5091	13.1979	0	14.8317
15.8037	13.1979	0	15.0136
15.8039	13.1979	0	15.0136
15.8039	13.1979	0.0552792	15.0136
15.804	13.2255	0.0276396	15.0136
15.893	13.2532	0	15.0136
16.1466	13.2532	0	15.1046
16.1529	13.2532	0	15.2866
16.1671	13.2532	0	15.4686
16.1673	13.2532	0	15.4686
16.1673	13.267	0.0276396	15.4686
16.206	13.2946	0	15.4686
16.2061	13.2946	0	15.4686
16.2062	13.3085	0.0276396	15.4686
16.2062	13.3361	0	15.4686
16.3656	13.3361	0	15.4686
16.4696	13.3361	0	15.6506
16.6933	13.3361	0	15.8326
16.6942	13.3361	0	15.8326
16.6953	13.3361	0.0276396	15.8326
16.6954	13.3361	0.0552792	15.8326
16.6959	13.3361	0.0829187	15.8326
16.6963	13.3361	0.110558	15.8326
16.6964	13.3361	0.110558	15.8326
16.6964	13.3361	0.138198	15.8326
16.6964	13.3361	0.165837	15.8326
16.6964	13.3499	0.193477	15.8326
16.9094	13.3776	0.165837	15.8326
16.9094	13.3776	0.165837	16.0146
16.9094	13.4052	0.138198	16.0146
16.9095	13.4328	0.110558	16.0146
16.9095	13.4605	0.0829187	16.0146
16.9095	13.4881	0.0552792	16.0146
16.9095	13.5158	0.0276396	16.0146
17.0376	13.5434	0	16.0146
17.038	13.5434	0	16.0146
17.038	13.5572	0.0276396	16.0146
17.2221	13.5849	0	16.0146
17.2222	13.5849	0	16.0146
17.2223	13.5849	0.0276396	16.0146
17.2223	13.5987	0.0552792	16.0146
17.2224	13.6263	0.0276396	16.0146
17.2269	13.654	0	16.0146
17.2274	13.654	0	16.0146
17.2274	13.6678	0.0276396	16.0146
17.2434	13.6954	0	16.0146
17.2434	13.6954	0	16.0146
17.2441	13.6954	0.0276396	16.0146
17.2441	13.7092	0.0552792	16.0146
17.2442	13.7369	0.0276396	16.0146
17.2449	13.7645	0	16.0146
17.2925	13.7645	0	16.1965
17.4553	13.7645	0	16.2875
17.5857	13.7645	0	16.4695
17.5876	13.7645	0	16.4695
17.5876	13.7783	0.0276396	16.4695
17.6656	13.806	0	16.4695
17.6662	13.806	0	16.4695
17.6662	13.806	0.0552792	16.4695
17.6663	13.8336	0.0276396	16.4695
17.7761	13.8612	0	16.4695
17.7774	13.8612	0	16.4695
17.7775	13.8751	0.0276396	16.4695
17.8051	13.9027	0	16.4695
17.8057	13.9027	0	16.4695
17.8066	13.9027	0.0276396	16.4695
17.8066	13.9165	0.0552792	16.4695
17.8066	13.9442	0.0276396	16.4695
17.8314	13.9718	0	16.4695
17.8319	13.9718	0	16.4695
17.8338	13.9718	0.0276396	16.4695
17.8338	13.9856	0.0552792	16.4695
17.8338	14.0133	0.0276396	16.4695
17.8338	14.0133	0.0276396	16.4695
17.8406	14.0409	0	16.4695
17.8407	14.0409	0	16.4695
17.8407	14.0409	0.0552792	16.4695
17.8407	14.0685	0.0276396	16.4695
17.906	14.0962	0	16.4695
17.9061	14.0962	0	16.4695
17.9061	14.11	0.0276396	16.4695
18.0634	14.1376	0	16.4695
18.1268	14.1376	0	16.6515
18.1533	14.1376	0	16.8335
18.4362	14.1376	0	17.0155
18.4371	14.1376	0	17.0155
18.4371	14.1376	0.0552792	17.0155
18.4371	14.1653	0.0276396	17.0155
18.8407	14.1929	0	17.0155
18.8414	14.1929	0	17.0155
18.8414	14.2067	0.0276396	17.0155
19.0489	14.2344	0	17.0155
19.0493	14.2344	0	17.0155
19.0493	14.2344	0.0552792	17.0155
19.0493	14.262	0.0276396	17.0155
19.1476	14.2897	0	17.0155
19.1476	14.2897	0	17.0155
19.1476	14.3035	0.0276396	17.0155
19.3026	14.3311	0	17.0155
19.3027	14.3311	0	17.0155
19.3027	14.3311	0.0552792	17.0155
19.3027	14.3588	0.0276396	17.0155
19.3779	14.3864	0	17.0155
19.3782	14.3864	0	17.0155
19.3782	14.3864	0.0552792	17.0155
19.3782	14.414	0.0276396	17.0155
19.4034	14.4417	0	17.0155
19.4035	14.4417	0	17.0155
19.4035	14.4417	0.0552792	17.0155
19.4035	14.4693	0.0276396	17.0155
19.7726	14.497	0	17.0155
19.773	14.497	0	17.0155
19.7731	14.5108	0.0276396	17.0155
19.8319	14.5384	0	17.0155
19.832	14.5384	0	17.0155
19.8332	14.5384	0.0276396	17.0155
19.922	14.5384	0.0552792	17.0155
19.922	14.5384	0.0552792	17.0155
19.9221	14.5661	0.0276396	17.0155
19.9221	14.5799	0.0552792	17.0155
19.9222	14.6075	0.0276396	17.0155
20.0986	14.6352	0	17.0155
20.0993	14.6352	0	17.0155
21.0391	14.6352	0.0276396	17.0155
21.0391	14.6352	0.0276396	17.1975
21.2755	14.6628	0	17.1975
21.2774	14.6628	0	17.1975
21.2774	14.6766	0.0276396	17.1975
21.3759	14.7043	0	17.1975
21.4452	14.7043	0	17.3794
21.4452	14.7043	0	17.3794
21.6601	14.7043	0.0276396	17.3794
21.6601	14.7043	0.0276396	17.5614
21.6874	14.7319	0	17.5614
21.6897	14.7319	0	17.5614
21.6897	14.7457	0.0276396	17.5614
21.7173	14.7734	0	17.5614
21.7174	14.7734	0	17.5614
21.7174	14.7872	0.0276396	17.5614
21.7245	14.8148	0	17.5614
21.7248	14.8148	0	17.5614
21.7249	14.8148	0.0552792	17.5614
21.7249	14.8425	0.0276396	17.5614
21.8098	14.8701	0	17.5614
21.8222	14.8701	0	17.6524
21.8225	14.8701	0	17.6524
21.8225	14.8839	0.0276396	17.6524
21.9381	14.9116	0	17.6524
21.9386	14.9116	0	17.6524
21.9386	14.9254	0.0276396	17.6524
21.97	14.953	0	17.6524
21.9719	14.953	0	17.6524
21.9719	14.953	0.0552792	17.6524
21.9719	14.9807	0.0276396	17.6524
22.0434	15.0083	0	17.6524
22.0458	15.0083	0	17.6524
22.0458	15.0221	0.0276396	17.6524
22.0555	15.0498	0	17.6524
22.1538	15.0498	0	17.8344
22.6186	15.0498	0	18.0164
22.8354	15.0498	0	18.1984
22.836	15.0498	0	18.1984
22.836	15.0498	0.0552792	18.1984
22.836	15.0774	0.0276396	18.1984
23.011	15.105	0	18.1984
23.0115	15.105	0	18.1984
23.0121	15.105	0.0276396	18.1984
23.0121	15.1189	0.0552792	18.1984
23.0121	15.1465	0.0276396	18.1984
23.0294	15.1741	0	18.1984
23.0828	15.1741	0	18.3803
23.0841	15.1741	0	18.3803
23.0842	15.1879	0.0276396	18.3803
23.2229	15.2156	0	18.3803
23.224	15.2156	0	18.3803
23.224	15.2156	0.0552792	18.3803
23.2241	15.2432	0.0276396	18.3803
23.2888	15.2709	0	18.3803
23.2894	15.2709	0	18.3803
23.2894	15.2709	0.0552792	18.3803
23.2895	15.2985	0.0276396	18.3803
23.3555	15.3261	0	18.3803
23.3559	15.3261	0	18.3803
23.3559	15.3261	0.0552792	18.3803
23.3559	15.3538	0.0276396	18.3803
23.7587	15.3814	0	18.3803
23.7595	15.3814	0	18.3803
23.7595	15.3814	0.0276396	18.3803
23.9066	15.3814	0.0552792	18.3803
23.9066	15.3814	0.0552792	18.3803
23.9066	15.4091	0.0276396	18.3803
23.9068	15.4367	0	18.3803
23.9068	15.4505	0.0276396	18.3803
24.2695	15.4782	0	18.3803
24.2699	15.4782	0	18.3803
24.2703	15.4782	0.0276396	18.3803
24.2703	15.492	0.0552792	18.3803
24.2704	15.5196	0.0276396	18.3803
24.5213	15.5473	0	18.3803
24.5224	15.5473	0	18.3803
24.5224	15.5473	0.0552792	18.3803
24.5224	15.5749	0.0276396	18.3803
24.7707	15.6025	0	18.3803
24.7707	15.6025	0	18.3803
24.7708	15.6025	0.0276396	18.3803
24.7709	15.6164	0.0552792	18.3803
24.7709	15.644	0.0276396	18.3803
24.9609	15.6716	0	18.3803
24.9611	15.6716	0	18.3803
24.9611	15.6855	0.0276396	18.3803
25.0289	15.7131	0	18.3803
25.0294	15.7131	0	18.3803
25.0294	15.7269	0.0276396	18.3803
25.0414	15.7546	0	18.3803
25.0422	15.7546	0	18.3803
25.0422	15.7684	0.0276396	18.3803
25.3183	15.796	0	18.3803
25.3186	15.796	0	18.3803
25.3187	15.8098	0.0276396	18.3803
25.3196	15.8375	0	18.3803
25.3197	15.8375	0	18.3803
25.3197	15.8375	0.0552792	18.3803
25.3197	15.8651	0.0276396	18.3803
25.4772	15.8928	0	18.3803
25.4775	15.8928	0	18.3803
25.4775	15.9066	0.0276396	18.3803
25.7567	15.9342	0	18.3803
26.064	15.9342	0	18.5623
26.0644	15.9342	0	18.5623
26.0651	15.9342	0.0276396	18.5623
26.0651	15.948	0.0552792	18.5623
26.0651	15.9757	0.0276396	18.5623
26.0978	16.0033	0	18.5623
26.5539	16.0033	0	18.7443
26.5542	16.0033	0	18.7443
26.5542	16.0171	0.0276396	18.7443
26.5688	16.0448	0	18.7443
26.569	16.0448	0	18.7443
26.569	16.0586	0.0276396	18.7443
26.7634	16.0862	0	18.7443
26.7641	16.0862	0	18.7443
26.7641	16.0862	0.0552792	18.7443
26.7641	16.1139	0.0276396	18.7443
26.8663	16.1415	0	18.7443
26.8668	16.1415	0	18.7443
26.8668	16.1415	0.0552792	18.7443
26.8669	16.1692	0.0276396	18.7443
27.8685	16.1968	0	18.7443
27.8686	16.1968	0	18.7443
27.8686	16.1968	0.0276396	18.7443
27.8686	16.1968	0.0829187	18.7443
27.8686	16.2244	0.0552792	18.7443
27.8686	16.2521	0.0276396	18.7443
27.9694	16.2797	0	18.7443
27.9699	16.2797	0	18.7443
28.927	16.2797	0.0276396	18.7443
28.927	16.2797	0.0276396	18.8353
29.2174	16.3074	0	18.8353
29.2179	16.3074	0	18.8353
29.2187	16.3074	0.0276396	18.8353
29.2187	16.3212	0.0552792	18.8353
29.2187	16.3488	0.0276396	18.8353
29.2504	16.3765	0	18.8353
29.251	16.3765	0	18.8353
29.2511	16.3765	0.0552792	18.8353
29.2511	16.4041	0.0276396	18.8353
29.7482	16.4317	0	18.8353
29.7482	16.4317	0	18.8353
29.7482	16.4317	0.0552792	18.8353
29.7483	16.4594	0.0276396	18.8353
29.8702	16.487	0	18.8353
29.8702	16.487	0	18.8353
29.8703	16.487	0.0552792	18.8353
29.8703	16.5146	0.0276396	18.8353
30.143	16.5423	0	18.8353
30.1434	16.5423	0	18.8353
30.1434	16.5423	0.0552792	18.8353
30.1435	16.5699	0.0276396	18.8353
30.1487	16.5976	0	18.8353
30.4098	16.5976	0	19.0173
30.8535	16.5976	0	19.1083
30.8537	16.5976	0	19.1083
30.8537	16.5976	0.0552792	19.1083
30.8538	16.6252	0.0276396	19.1083
30.8661	16.6528	0	19.1083
30.8666	16.6528	0	19.1083
30.8673	16.6528	0.0276396	19.1083
30.8673	16.6667	0.0552792	19.1083
30.8674	16.6943	0.0276396	19.1083
31.0659	16.7219	0	19.1083
31.527	16.7219	0	19.2903
31.5272	16.7219	0	19.2903
32.5125	16.7219	0.0276396	19.2903
32.5125	16.7219	0.0276396	19.2903
32.514	16.7496	0	19.2903
32.5149	16.7496	0.0276396	19.2903
32.5153	16.7496	0.0276396	19.2903
32.5153	16.7496	0.0829187	19.2903
32.5153	16.7772	0.0552792	19.2903
33.0448	16.8049	0.0276396	19.2903
33.0448	16.8049	0.0276396	19.2903
33.0451	16.8325	0	19.2903
33.0451	16.8325	0.0276396	19.2903
34.0702	16.8601	0	19.2903
34.0725	16.8601	0	19.2903
34.0737	16.8601	0.0276396	19.2903
34.0737	16.874	0.0552792	19.2903
34.0738	16.9016	0.0276396	19.2903
34.4153	16.9292	0	19.2903
34.4169	16.9292	0	19.2903
34.4169	16.9431	0.0276396	19.2903
34.8053	16.9707	0	19.2903
34.806	16.9707	0	19.2903
34.8068	16.9707	0.0276396	19.2903
34.8068	16.9845	0.0552792	19.2903
34.8068	17.0122	0.0276396	19.2903
35.267	17.0398	0	19.2903
35.2673	17.0398	0	19.2903
35.2673	17.0398	0.0552792	19.2903
35.2673	17.0674	0.0276396	19.2903
35.6445	17.0951	0	19.2903
35.6458	17.0951	0	19.2903
35.6466	17.0951	0.0276396	19.2903
35.6468	17.0951	0.0552792	19.2903
35.6471	17.0951	0.0829187	19.2903
35.6475	17.0951	0.110558	19.2903
35.6478	17.0951	0.138198	19.2903
35.6495	17.0951	0.165837	19.2903
35.6505	17.0951	0.193477	19.2903
35.6506	17.0951	0.221117	19.2903
35.6506	17.0951	0.248756	19.2903
35.6529	17.1227	0.221117	19.2903
35.6529	17.1227	0.248756	19.2903
36.1422	17.1504	0.221117	19.2903
36.1422	17.1504	0.221117	19.2903
36.1422	17.178	0.193477	19.2903
36.1422	17.2056	0.165837	19.2903
36.1422	17.2333	0.138198	19.2903
36.1422	17.2609	0.110558	19.2903
36.1422	17.2886	0.0829187	19.2903
36.1422	17.3162	0.0552792	19.2903
36.1422	17.3162	0.110558	19.2903
36.1423	17.3438	0.0829187	19.2903
36.1423	17.3715	0.0552792	19.2903
36.1423	17.3991	0.0276396	19.2903
36.2882	17.4268	0	19.2903
36.2888	17.4268	0	19.2903
36.2888	17.4268	0.0552792	19.2903
36.2888	17.4544	0.0276396	19.2903
36.5807	17.482	0	19.2903
36.5809	17.482	0	19.2903
36.5809	17.4959	0.0276396	19.2903
37.4397	17.5235	0	19.2903
37.4397	17.5235	0	19.2903
37.4557	17.5235	0.0276396	19.2903
37.4564	17.5235	0.0276396	19.2903
37.4564	17.5235	0.0829187	19.2903
37.4564	17.5511	0.0552792	19.2903
37.8818	17.5788	0.0276396	19.2903
37.8818	17.5788	0.0276396	19.2903
37.882	17.6064	0	19.2903
37.8821	17.6064	0.0552792	19.2903
37.8821	17.6341	0.0276396	19.2903
38.6353	17.6617	0	19.2903
38.6356	17.6617	0	19.2903
38.6356	17.6617	0.0552792	19.2903
38.6356	17.6893	0.0276396	19.2903
39.0223	17.717	0	19.2903
39.0235	17.717	0	19.2903
39.0236	17.7308	0.0276396	19.2903
41.4281	17.7584	0	19.2903
41.4282	17.7584	0	19.2903
41.4282	17.7722	0.0276396	19.2903
41.7556	17.7999	0	19.2903
41.7559	17.7999	0	19.2903
43.3913	17.7999	0.0276396	19.2903
43.3913	17.7999	0.0276396	19.2903
43.3913	17.7999	0.0829187	19.2903
43.3913	17.8275	0.0552792	19.2903
43.3914	17.8552	0.0276396	19.2903
43.7984	17.8828	0	19.2903
43.7993	17.8828	0	19.2903
43.7993	17.8828	0.0552792	19.2903
43.7994	17.9104	0.0276396	19.2903
44.1539	17.9381	0	19.2903
44.154	17.9381	0	19.2903
44.154	17.9381	0.0552792	19.2903
44.1541	17.9657	0.0276396	19.2903
45.2121	17.9934	0	19.2903
45.2123	17.9934	0	19.2903
45.2123	18.0072	0.0276396	19.2903
46.9659	18.0348	0	19.2903
46.9668	18.0348	0	19.2903
46.9673	18.0348	0.0276396	19.2903
46.9673	18.0486	0.0552792	19.2903
46.9674	18.0763	0.0276396	19.2903
47.6647	18.1039	0	19.2903
47.6656	18.1039	0	19.2903
47.6656	18.1039	0.0552792	19.2903
47.6657	18.1316	0.0276396	19.2903
47.9914	18.1592	0	19.2903
47.9917	18.1592	0	19.2903
48.666	18.1592	0.0276396	19.2903
48.6661	18.1592	0.0276396	19.2903
48.6661	18.1868	0	19.2903
48.6661	18.1868	0.0552792	19.2903
48.6661	18.2145	0.0276396	19.2903
49.8283	18.2421	0	19.2903
49.8294	18.2421	0	19.2903
49.8294	18.2421	0.0552792	19.2903
49.8295	18.2698	0.0276396	19.2903
51.1017	18.2974	0	19.2903
51.102	18.2974	0	19.2903
51.102	18.2974	0.0552792	19.2903
51.102	18.325	0.0276396	19.2903
53.6429	18.3527	0	19.2903
53.6436	18.3527	0	19.2903
53.6436	18.3665	0.0276396	19.2903
53.9637	18.3941	0	19.2903
53.965	18.3941	0	19.2903
54.1203	18.3941	0.0276396	19.2903
54.1203	18.3941	0.0276396	19.2903
54.1204	18.4218	0	19.2903
54.1204	18.4218	0.0552792	19.2903
54.1205	18.4494	0.0276396	19.2903
54.9244	18.4771	0	19.2903
54.9249	18.4771	0	19.2903
63.4036	18.4771	0.0276396	19.2903
63.4037	18.4771	0.0276396	19.2903
63.4052	18.5047	0	19.2903
63.4052	18.5185	0.0276396	19.2903
63.6396	18.5462	0	19.2903
63.64	18.5462	0	19.2903
63.64	18.56	0.0276396	19.2903
64.7534	18.5876	0	19.2903
64.7541	18.5876	0	19.2903
64.7541	18.5876	0.0552792	19.2903
64.7542	18.6153	0.0276396	19.2903
66.0926	18.6429	0	19.2903
66.0929	18.6429	0	19.2903
82.7424	18.6429	0.0276396	19.2903
82.7424	18.6429	0.0276396	19.2903
82.7425	18.6705	0	19.2903
82.7425	18.6705	0.0552792	19.2903
82.7425	18.6982	0.0276396	19.2903
83.0456	18.7258	0	19.2903
83.0467	18.7258	0	19.2903
83.0467	18.7258	0.0552792	19.2903
83.0468	18.7535	0.0276396	19.2903
84.8409	18.7811	0	19.2903
84.8423	18.7811	0	19.2903
130.271	18.7811	0.0276396	19.2903
130.271	18.7811	0.0276396	19.2903
130.272	18.8087	0	19.2903
130.272	18.8087	0.0552792	19.2903
130.273	18.8364	0.0276396	19.2903
130.431	18.864	0	19.2903
130.431	18.864	0	19.2903
130.431	18.8778	0.0276396	19.2903
133.437	18.9055	0	19.2903
133.438	18.9055	0	19.2903
133.438	18.9055	0.0552792	19.2903
133.438	18.9331	0.0276396	19.2903
134.707	18.9608	0	19.2903
134.707	18.9608	0	19.2903
134.707	18.9608	0.0552792	19.2903
134.707	18.9884	0.0276396	19.2903
136.09	19.016	0	19.2903
136.091	19.016	0	19.2903
136.091	19.0299	0.0276396	19.2903
143.979	19.0575	0	19.2903
143.98	19.0575	0	19.2903
143.98	19.0575	0.0552792	19.2903
143.98	19.0851	0.0276396	19.2903
