1.46159e-09	0	0	0
4.60609e-09	0	0	0
9.14054e-09	0	0	0
1.40817e-08	0	0	0
1.4313e-08	0	0	0
1.90749e-08	0	0	0
2.76937e-08	0	0	0
2.79349e-08	0	0	0
3.25236e-08	0	0	0
3.38266e-08	0	0	0
4.01128e-08	0	0	0
4.54185e-08	0	0	0
4.55315e-08	0	0	0
4.61116e-08	0	0	0
4.8882e-08	0	0	0
5.84659e-08	0	0	0
5.93927e-08	0	0	0
6.55379e-08	0	0	0
7.11041e-08	0	0	0
7.21415e-08	0	0	0
7.29475e-08	0	0	0
7.97662e-08	0	0	0
9.97797e-08	0	0	0
1.0846e-07	0	0	0
1.11035e-07	0	0	0
1.16113e-07	0	0	0
1.57434e-07	0	0	0
1.69676e-07	0	0	0
2.0868e-07	0	0	0
2.88654e-07	0	0	0
3.17438e-07	0	0	0
4.24153e-07	0	0	0
5.31244e-07	0	0	0
9.48475e-07	0	0	0
1.03231e-06	0	0	0
1.99825e-06	0	0	0
3.23721e-06	0	0	0
3.68183e-06	0	0	0
7.48571e-06	0	0	0
7.74609e-06	0	0	0
1.08109e-05	0	0	0
1.5332e-05	0	0	0
1.69607e-05	0	0	0
0.000104342	0	0	0
0.000150907	0	0	0
