1.49609e-11	0	0	0
1.88306e-09	0	0	0
2.9591e-09	0	0	0
3.59066e-09	0	0	0
7.33223e-09	0	0	0
9.92425e-09	0	0	0
1.10365e-08	0	0	0
1.17057e-08	0	0	0
1.66532e-08	0	0	0
2.44081e-08	0	0	0
3.64833e-08	0	0	0
3.70994e-08	0	0	0
3.74325e-08	0	0	0
4.72018e-08	0	0	0
5.04187e-08	0	0	0
5.10086e-08	0	0	0
5.26228e-08	0	0	0
6.9442e-08	0	0	0
7.7939e-08	0	0	0
8.12222e-08	0	0	0
8.75248e-08	0	0	0
9.50755e-08	0	0	0
1.07899e-07	0	0	0
1.19164e-07	0	0	0
1.25001e-07	0	0	0
1.61885e-07	0	0	0
1.89958e-07	0	0	0
3.61606e-07	0	0	0
3.82828e-07	0	0	0
8.00435e-07	0	0	0
1.27744e-06	0	0	0
1.31885e-06	0	0	0
2.17336e-06	0	0	0
3.81005e-06	0	0	0
5.04018e-06	0	0	0
8.39213e-06	0	0	0
1.01044e-05	0	0	0
2.71576e-05	0	0	0
6.52135e-05	0	0	0
