3.56911e-10	0	0	0
7.35132e-10	0	0	0
2.67914e-09	0	0	0
5.55724e-09	0	0	0
6.47044e-09	0	0	0
1.44976e-08	0	0	0
1.49466e-08	0	0	0
1.91928e-08	0	0	0
1.96919e-08	0	0	0
2.08749e-08	0	0	0
2.47018e-08	0	0	0
2.4811e-08	0	0	0
3.07208e-08	0	0	0
3.94245e-08	0	0	0
4.55508e-08	0	0	0
4.98261e-08	0	0	0
6.012e-08	0	0	0
7.44133e-08	0	0	0
8.11638e-08	0	0	0
1.12216e-07	0	0	0
1.37716e-07	0	0	0
1.61175e-07	0	0	0
1.70646e-07	0	0	0
2.06389e-07	0	0	0
2.76038e-07	0	0	0
4.31173e-07	0	0	0
6.89117e-07	0	0	0
1.08111e-06	0	0	0
1.10024e-06	0	0	0
1.21716e-06	0	0	0
1.3053e-06	0	0	0
1.38401e-06	0	0	0
1.38495e-06	0	0	0
1.76143e-06	0	0	0
2.65702e-06	0	0	0
7.11436e-06	0	0	0
1.0199e-05	0	0	0
1.06443e-05	0	0	0
1.36567e-05	0	0	0
2.19785e-05	0	0	0
