8.92701e-11	0	0	0
1.36449e-09	0	0	0
1.81853e-09	0	0	0
2.91827e-09	0	0	0
3.07084e-09	0	0	0
7.22406e-09	0	0	0
1.18534e-08	0	0	0
1.24532e-08	0	0	0
1.51135e-08	0	0	0
2.46721e-08	0	0	0
2.55685e-08	0	0	0
2.60759e-08	0	0	0
3.26994e-08	0	0	0
3.40951e-08	0	0	0
3.99251e-08	0	0	0
4.08253e-08	0	0	0
4.16923e-08	0	0	0
5.4322e-08	0	0	0
7.82096e-08	0	0	0
7.88147e-08	0	0	0
1.09916e-07	0	0	0
1.12416e-07	0	0	0
1.6826e-07	0	0	0
2.03755e-07	0	0	0
2.17867e-07	0	0	0
2.64911e-07	0	0	0
2.71811e-07	0	0	0
3.2698e-07	0	0	0
4.16012e-07	0	0	0
5.59805e-07	0	0	0
7.06038e-07	0	0	0
7.51618e-07	0	0	0
7.69181e-07	0	0	0
8.28308e-07	0	0	0
1.33605e-06	0	0	0
1.5841e-06	0	0	0
1.87913e-06	0	0	0
2.40469e-06	0	0	0
2.51125e-06	0	0	0
2.80368e-06	0	0	0
3.5496e-06	0	0	0
3.69004e-06	0	0	0
5.70857e-06	0	0	0
5.76531e-06	0	0	0
6.38085e-06	0	0	0
9.29912e-06	0	0	0
1.86858e-05	0	0	0
1.93235e-05	0	0	0
