2.06013e-09	0	0	0
3.90375e-09	0	0	0
7.63961e-09	0	0	0
1.16946e-08	0	0	0
1.42791e-08	0	0	0
1.64066e-08	0	0	0
2.0248e-08	0	0	0
2.18031e-08	0	0	0
2.88343e-08	0	0	0
3.87392e-08	0	0	0
3.88913e-08	0	0	0
4.14503e-08	0	0	0
4.30116e-08	0	0	0
4.34241e-08	0	0	0
4.55455e-08	0	0	0
5.06014e-08	0	0	0
5.0999e-08	0	0	0
5.29668e-08	0	0	0
5.36192e-08	0	0	0
5.43617e-08	0	0	0
7.02251e-08	0	0	0
8.30955e-08	0	0	0
1.04594e-07	0	0	0
1.47394e-07	0	0	0
1.75236e-07	0	0	0
1.91801e-07	0	0	0
1.97188e-07	0	0	0
7.34e-07	0	0	0
7.58819e-07	0	0	0
7.82466e-07	0	0	0
1.11582e-06	0	0	0
1.89005e-06	0	0	0
1.98162e-06	0	0	0
2.49447e-06	0	0	0
3.21669e-06	0	0	0
3.70845e-06	0	0	0
4.12598e-06	0	0	0
5.43505e-06	0	0	0
6.33224e-06	0	0	0
7.28863e-06	0	0	0
1.24654e-05	0	0	0
