1.64864e-09	0	0	0
3.54378e-09	0	0	0
7.07735e-09	0	0	0
1.25161e-08	0	0	0
1.5044e-08	0	0	0
1.66283e-08	0	0	0
2.3999e-08	0	0	0
3.76401e-08	0	0	0
4.2762e-08	0	0	0
4.53138e-08	0	0	0
5.63855e-08	0	0	0
5.68545e-08	0	0	0
6.30035e-08	0	0	0
6.5475e-08	0	0	0
6.85285e-08	0	0	0
7.51322e-08	0	0	0
7.52028e-08	0	0	0
7.92208e-08	0	0	0
9.60663e-08	0	0	0
9.76676e-08	0	0	0
9.85476e-08	0	0	0
1.04744e-07	0	0	0
1.16195e-07	0	0	0
1.24354e-07	0	0	0
1.53532e-07	0	0	0
2.41858e-07	0	0	0
3.00158e-07	0	0	0
5.44444e-07	0	0	0
6.86732e-07	0	0	0
1.54188e-06	0	0	0
2.8595e-06	0	0	0
2.88127e-06	0	0	0
4.30384e-06	0	0	0
6.53872e-06	0	0	0
9.09065e-06	0	0	0
9.50097e-06	0	0	0
2.71696e-05	0	0	0
5.00609e-05	0	0	0
6.60676e-05	0	0	0
