9.19958e-10	0	0	0
1.0045e-08	0	0	0
1.10635e-08	0	0	0
1.49816e-08	0	0	0
2.09164e-08	0	0	0
2.29796e-08	0	0	0
2.58597e-08	0	0	0
2.71667e-08	0	0	0
2.84434e-08	0	0	0
2.96184e-08	0	0	0
3.10616e-08	0	0	0
4.09179e-08	0	0	0
4.1197e-08	0	0	0
4.26566e-08	0	0	0
4.79248e-08	0	0	0
5.51095e-08	0	0	0
5.63789e-08	0	0	0
5.64525e-08	0	0	0
6.43557e-08	0	0	0
6.69957e-08	0	0	0
1.02657e-07	0	0	0
2.00243e-07	0	0	0
2.12766e-07	0	0	0
2.19899e-07	0	0	0
2.22252e-07	0	0	0
2.8479e-07	0	0	0
3.12449e-07	0	0	0
4.43123e-07	0	0	0
8.42268e-07	0	0	0
1.7967e-06	0	0	0
1.80772e-06	0	0	0
4.00669e-06	0	0	0
4.51185e-06	0	0	0
4.80591e-06	0	0	0
5.53273e-06	0	0	0
7.78383e-06	0	0	0
8.37785e-06	0	0	0
9.00239e-06	0	0	0
1.55807e-05	0	0	0
1.80291e-05	0	0	0
2.06319e-05	0	0	0
3.27946e-05	0	0	0
0.000741255	0	0	0
