9.12845e-10	0	0	0
1.13782e-09	0	0	0
2.36182e-09	0	0	0
5.25012e-09	0	0	0
5.544e-09	0	0	0
5.88646e-09	0	0	0
7.62984e-09	0	0	0
9.18582e-09	0	0	0
1.07424e-08	0	0	0
1.0968e-08	0	0	0
1.89197e-08	0	0	0
1.96808e-08	0	0	0
1.97393e-08	0	0	0
2.4409e-08	0	0	0
4.32877e-08	0	0	0
5.32117e-08	0	0	0
7.07335e-08	0	0	0
7.94273e-08	0	0	0
8.083e-08	0	0	0
8.28352e-08	0	0	0
8.60455e-08	0	0	0
1.06702e-07	0	0	0
1.27962e-07	0	0	0
1.37873e-07	0	0	0
2.02668e-07	0	0	0
2.73672e-07	0	0	0
7.64089e-07	0	0	0
8.97811e-07	0	0	0
9.46244e-07	0	0	0
1.28625e-06	0	0	0
1.52519e-06	0	0	0
2.03066e-06	0	0	0
2.32553e-06	0	0	0
4.4764e-06	0	0	0
4.54485e-06	0	0	0
8.02266e-06	0	0	0
9.46978e-06	0	0	0
1.13221e-05	0	0	0
2.33209e-05	0	0	0
2.44395e-05	0	0	0
2.57776e-05	0	0	0
6.20092e-05	0	0	0
