1.29861e-09	0	0	0
1.41888e-09	0	0	0
3.74702e-09	0	0	0
5.66053e-09	0	0	0
6.54182e-09	0	0	0
1.07269e-08	0	0	0
1.21187e-08	0	0	0
1.40835e-08	0	0	0
1.42052e-08	0	0	0
1.48519e-08	0	0	0
1.87148e-08	0	0	0
1.94263e-08	0	0	0
2.05576e-08	0	0	0
2.22983e-08	0	0	0
2.33942e-08	0	0	0
2.45078e-08	0	0	0
2.54169e-08	0	0	0
2.85662e-08	0	0	0
2.92637e-08	0	0	0
3.53615e-08	0	0	0
3.61958e-08	0	0	0
3.66524e-08	0	0	0
4.37953e-08	0	0	0
4.71997e-08	0	0	0
4.89902e-08	0	0	0
5.19515e-08	0	0	0
5.28096e-08	0	0	0
6.50812e-08	0	0	0
6.8234e-08	0	0	0
7.32231e-08	0	0	0
1.1971e-07	0	0	0
3.88623e-07	0	0	0
4.03777e-07	0	0	0
4.5024e-07	0	0	0
5.0413e-07	0	0	0
7.06312e-07	0	0	0
9.39285e-07	0	0	0
1.08971e-06	0	0	0
1.3068e-06	0	0	0
1.33742e-06	0	0	0
1.49223e-06	0	0	0
2.30934e-06	0	0	0
2.51816e-06	0	0	0
3.23663e-06	0	0	0
3.64124e-06	0	0	0
4.2375e-06	0	0	0
4.5166e-06	0	0	0
4.92486e-06	0	0	0
7.13986e-06	0	0	0
2.10184e-05	0	0	0
2.57013e-05	0	0	0
3.71331e-05	0	0	0
