7.0653e-10	0	0	0
9.42351e-10	0	0	0
2.22608e-09	0	0	0
5.22586e-09	0	0	0
7.63213e-09	0	0	0
8.45786e-09	0	0	0
9.19511e-09	0	0	0
9.60309e-09	0	0	0
1.00201e-08	0	0	0
1.27765e-08	0	0	0
1.49034e-08	0	0	0
1.96353e-08	0	0	0
2.05212e-08	0	0	0
2.43957e-08	0	0	0
2.62851e-08	0	0	0
2.68189e-08	0	0	0
3.2061e-08	0	0	0
3.61542e-08	0	0	0
3.70925e-08	0	0	0
3.77358e-08	0	0	0
4.3146e-08	0	0	0
5.12775e-08	0	0	0
6.03612e-08	0	0	0
1.0564e-07	0	0	0
1.15164e-07	0	0	0
1.21067e-07	0	0	0
2.27213e-07	0	0	0
4.27281e-07	0	0	0
5.59357e-07	0	0	0
5.87189e-07	0	0	0
9.44328e-07	0	0	0
9.60588e-07	0	0	0
1.24658e-06	0	0	0
1.30284e-06	0	0	0
1.67174e-06	0	0	0
2.25505e-06	0	0	0
2.26015e-06	0	0	0
2.31102e-06	0	0	0
2.99907e-06	0	0	0
3.24967e-06	0	0	0
3.59254e-06	0	0	0
4.09385e-06	0	0	0
4.10581e-06	0	0	0
6.35188e-06	0	0	0
1.2865e-05	0	0	0
2.78592e-05	0	0	0
