9.5551e-10	0	0	0
2.19379e-09	0	0	0
2.43672e-09	0	0	0
3.13392e-09	0	0	0
4.25847e-09	0	0	0
6.65103e-09	0	0	0
7.62366e-09	0	0	0
8.43632e-09	0	0	0
9.18483e-09	0	0	0
1.00466e-08	0	0	0
1.0712e-08	0	0	0
1.32616e-08	0	0	0
1.63166e-08	0	0	0
1.94701e-08	0	0	0
2.26073e-08	0	0	0
2.30761e-08	0	0	0
2.49602e-08	0	0	0
2.83521e-08	0	0	0
3.83411e-08	0	0	0
3.92289e-08	0	0	0
4.08104e-08	0	0	0
4.1749e-08	0	0	0
4.49072e-08	0	0	0
4.61234e-08	0	0	0
4.74889e-08	0	0	0
5.31946e-08	0	0	0
5.48076e-08	0	0	0
1.09395e-07	0	0	0
1.31207e-07	0	0	0
2.50973e-07	0	0	0
2.84974e-07	0	0	0
7.62787e-07	0	0	0
1.52853e-06	0	0	0
1.78641e-06	0	0	0
1.84834e-06	0	0	0
2.0766e-06	0	0	0
2.34049e-06	0	0	0
2.62673e-06	0	0	0
2.66345e-06	0	0	0
2.68365e-06	0	0	0
2.81529e-06	0	0	0
3.40301e-06	0	0	0
4.06183e-06	0	0	0
4.1404e-06	0	0	0
4.23424e-06	0	0	0
4.62041e-06	0	0	0
5.4029e-06	0	0	0
5.64564e-06	0	0	0
5.24928e-05	0	0	0
