1.76991e-10	0	0	0
3.22213e-09	0	0	0
3.34312e-09	0	0	0
3.98026e-09	0	0	0
4.98331e-09	0	0	0
5.32819e-09	0	0	0
7.4642e-09	0	0	0
1.10352e-08	0	0	0
1.32894e-08	0	0	0
1.64175e-08	0	0	0
1.69154e-08	0	0	0
1.72572e-08	0	0	0
2.01874e-08	0	0	0
2.14252e-08	0	0	0
2.24275e-08	0	0	0
2.38686e-08	0	0	0
2.4256e-08	0	0	0
2.69175e-08	0	0	0
2.86838e-08	0	0	0
4.08575e-08	0	0	0
4.34548e-08	0	0	0
4.50273e-08	0	0	0
5.21495e-08	0	0	0
5.37156e-08	0	0	0
7.4676e-08	0	0	0
8.87069e-08	0	0	0
1.02301e-07	0	0	0
1.2084e-07	0	0	0
1.81899e-07	0	0	0
3.4557e-07	0	0	0
5.12395e-07	0	0	0
5.48457e-07	0	0	0
7.27463e-07	0	0	0
8.40123e-07	0	0	0
1.13908e-06	0	0	0
1.8149e-06	0	0	0
1.89221e-06	0	0	0
2.02823e-06	0	0	0
2.31391e-06	0	0	0
2.70909e-06	0	0	0
3.01643e-06	0	0	0
4.01094e-06	0	0	0
6.82864e-06	0	0	0
8.39706e-06	0	0	0
1.63177e-05	0	0	0
4.16358e-05	0	0	0
