1.86655e-10	0	0	0
5.18261e-10	0	0	0
2.47792e-09	0	0	0
3.04808e-09	0	0	0
5.80163e-09	0	0	0
6.4372e-09	0	0	0
7.33636e-09	0	0	0
8.82383e-09	0	0	0
9.23608e-09	0	0	0
1.11251e-08	0	0	0
1.21572e-08	0	0	0
1.24937e-08	0	0	0
1.69531e-08	0	0	0
1.7491e-08	0	0	0
1.966e-08	0	0	0
2.3223e-08	0	0	0
2.47033e-08	0	0	0
2.48468e-08	0	0	0
2.87273e-08	0	0	0
3.69487e-08	0	0	0
4.0834e-08	0	0	0
4.96899e-08	0	0	0
5.41994e-08	0	0	0
5.42845e-08	0	0	0
6.40175e-08	0	0	0
9.01556e-08	0	0	0
1.3315e-07	0	0	0
1.36661e-07	0	0	0
2.30465e-07	0	0	0
3.92959e-07	0	0	0
4.12631e-07	0	0	0
4.50977e-07	0	0	0
7.08548e-07	0	0	0
7.31092e-07	0	0	0
8.9413e-07	0	0	0
8.94816e-07	0	0	0
9.10472e-07	0	0	0
1.07051e-06	0	0	0
1.07832e-06	0	0	0
1.10128e-06	0	0	0
1.29015e-06	0	0	0
1.92643e-06	0	0	0
2.1408e-06	0	0	0
2.83459e-06	0	0	0
5.31522e-06	0	0	0
