3.37716e-09	0	0	0
4.11785e-09	0	0	0
4.18657e-09	0	0	0
6.90403e-09	0	0	0
8.60916e-09	0	0	0
9.09066e-09	0	0	0
9.40499e-09	0	0	0
1.05107e-08	0	0	0
1.25589e-08	0	0	0
1.9283e-08	0	0	0
2.01639e-08	0	0	0
2.42599e-08	0	0	0
2.60073e-08	0	0	0
2.65286e-08	0	0	0
2.69805e-08	0	0	0
2.98972e-08	0	0	0
3.02586e-08	0	0	0
3.50022e-08	0	0	0
3.81457e-08	0	0	0
3.96237e-08	0	0	0
4.67947e-08	0	0	0
4.85905e-08	0	0	0
4.98395e-08	0	0	0
5.14807e-08	0	0	0
5.17756e-08	0	0	0
5.33152e-08	0	0	0
5.71557e-08	0	0	0
6.40295e-08	0	0	0
7.49589e-08	0	0	0
7.81359e-08	0	0	0
8.4329e-08	0	0	0
8.57197e-08	0	0	0
9.68465e-08	0	0	0
9.79806e-08	0	0	0
1.05641e-07	0	0	0
1.12688e-07	0	0	0
1.17797e-07	0	0	0
1.21109e-07	0	0	0
1.37749e-07	0	0	0
1.44328e-07	0	0	0
1.45987e-07	0	0	0
1.47302e-07	0	0	0
1.50686e-07	0	0	0
2.03203e-07	0	0	0
2.10537e-07	0	0	0
2.32559e-07	0	0	0
2.71799e-07	0	0	0
2.95347e-07	0	0	0
3.89136e-07	0	0	0
4.57455e-07	0	0	0
4.60942e-07	0	0	0
5.09158e-07	0	0	0
6.09555e-07	0	0	0
6.98186e-07	0	0	0
9.27408e-07	0	0	0
1.07354e-06	0	0	0
1.29167e-06	0	0	0
1.31374e-06	0	0	0
1.54333e-06	0	0	0
1.98445e-06	0	0	0
1.98852e-06	0	0	0
2.40816e-05	0	0	0
0.000122999	0	0	0
