1.2884e-09	0	0	0
3.05764e-09	0	0	0
3.53239e-09	0	0	0
3.63138e-09	0	0	0
3.82038e-09	0	0	0
4.04839e-09	0	0	0
5.56547e-09	0	0	0
6.07941e-09	0	0	0
7.04793e-09	0	0	0
7.82534e-09	0	0	0
1.07487e-08	0	0	0
1.11904e-08	0	0	0
1.30295e-08	0	0	0
2.08619e-08	0	0	0
2.08935e-08	0	0	0
2.12591e-08	0	0	0
2.27753e-08	0	0	0
2.47232e-08	0	0	0
2.61799e-08	0	0	0
3.07553e-08	0	0	0
3.6421e-08	0	0	0
3.97919e-08	0	0	0
4.7463e-08	0	0	0
4.75294e-08	0	0	0
4.8823e-08	0	0	0
5.39015e-08	0	0	0
5.42899e-08	0	0	0
5.53504e-08	0	0	0
5.88663e-08	0	0	0
7.13739e-08	0	0	0
7.22153e-08	0	0	0
7.30092e-08	0	0	0
8.38872e-08	0	0	0
8.89443e-08	0	0	0
9.42217e-08	0	0	0
1.08767e-07	0	0	0
1.09817e-07	0	0	0
1.13035e-07	0	0	0
1.14678e-07	0	0	0
1.16917e-07	0	0	0
1.17316e-07	0	0	0
1.23224e-07	0	0	0
1.39775e-07	0	0	0
1.40129e-07	0	0	0
1.47332e-07	0	0	0
1.95211e-07	0	0	0
2.02084e-07	0	0	0
2.18198e-07	0	0	0
2.41634e-07	0	0	0
2.43015e-07	0	0	0
2.48996e-07	0	0	0
3.27717e-07	0	0	0
3.60362e-07	0	0	0
3.91419e-07	0	0	0
4.93127e-07	0	0	0
5.26839e-07	0	0	0
5.50362e-07	0	0	0
6.20644e-07	0	0	0
7.43099e-07	0	0	0
1.05348e-06	0	0	0
1.06994e-06	0	0	0
1.10922e-06	0	0	0
1.15313e-06	0	0	0
1.3863e-06	0	0	0
1.59432e-06	0	0	0
1.87901e-06	0	0	0
2.0348e-06	0	0	0
2.30256e-06	0	0	0
2.71264e-06	0	0	0
2.7416e-06	0	0	0
3.18518e-06	0	0	0
3.48172e-06	0	0	0
7.26406e-06	0	0	0
2.57996e-05	0	0	0
