7.22941e-10	0	0	0
1.9144e-09	0	0	0
3.80875e-09	0	0	0
4.34265e-09	0	0	0
4.46894e-09	0	0	0
5.15929e-09	0	0	0
6.03089e-09	0	0	0
6.55285e-09	0	0	0
1.09308e-08	0	0	0
1.13788e-08	0	0	0
1.13836e-08	0	0	0
1.14042e-08	0	0	0
1.58864e-08	0	0	0
1.61231e-08	0	0	0
1.68284e-08	0	0	0
2.0286e-08	0	0	0
2.28415e-08	0	0	0
2.36901e-08	0	0	0
3.00838e-08	0	0	0
3.05702e-08	0	0	0
3.31534e-08	0	0	0
3.77816e-08	0	0	0
4.33238e-08	0	0	0
5.29895e-08	0	0	0
5.33148e-08	0	0	0
5.39655e-08	0	0	0
6.51231e-08	0	0	0
7.25187e-08	0	0	0
7.38485e-08	0	0	0
8.06795e-08	0	0	0
9.12822e-08	0	0	0
9.2991e-08	0	0	0
9.74938e-08	0	0	0
1.03179e-07	0	0	0
1.06684e-07	0	0	0
1.20644e-07	0	0	0
1.25653e-07	0	0	0
1.45647e-07	0	0	0
1.49021e-07	0	0	0
1.80572e-07	0	0	0
1.8676e-07	0	0	0
2.24611e-07	0	0	0
2.25784e-07	0	0	0
2.29349e-07	0	0	0
2.37962e-07	0	0	0
2.40447e-07	0	0	0
2.7421e-07	0	0	0
2.84633e-07	0	0	0
3.17732e-07	0	0	0
3.63344e-07	0	0	0
3.87451e-07	0	0	0
4.34706e-07	0	0	0
4.60252e-07	0	0	0
4.65464e-07	0	0	0
4.80722e-07	0	0	0
4.85055e-07	0	0	0
4.87111e-07	0	0	0
7.31108e-07	0	0	0
7.80165e-07	0	0	0
7.90889e-07	0	0	0
8.26551e-07	0	0	0
8.4884e-07	0	0	0
8.73705e-07	0	0	0
1.05392e-06	0	0	0
1.12528e-06	0	0	0
1.16131e-06	0	0	0
1.24328e-06	0	0	0
1.26682e-06	0	0	0
1.29834e-06	0	0	0
1.47004e-06	0	0	0
2.10004e-06	0	0	0
2.52545e-06	0	0	0
2.753e-06	0	0	0
2.84349e-06	0	0	0
3.25636e-06	0	0	0
4.42778e-06	0	0	0
4.70417e-06	0	0	0
6.65655e-06	0	0	0
7.27981e-06	0	0	0
8.01574e-06	0	0	0
1.07764e-05	0	0	0
1.21535e-05	0	0	0
1.26109e-05	0	0	0
3.2337e-05	0	0	0
3.47562e-05	0	0	0
3.58219e-05	0	0	0
4.23076e-05	0	0	0
5.26892e-05	0	0	0
0.000149814	0	0	0
0.000202691	0	0	0
0.0341543	0	0	0
0.162291	0	0	0
0.184082	0	0	0
0.246898	0	0	0
0.287349	0	0	0
0.301115	0	0	0
0.36245	0	0	0
0.365303	0	0	0
0.427096	0	0	0
0.43687	0	0	0
0.438928	0	0	0
0.49084	0	0	0
0.54926	0	0	0
0.611956	0	0	0
0.617052	0	0	0
0.620715	0	0	0.0230362
0.835521	0	0	0.0230362
0.856863	0	0	0.0230362
0.883657	0	0	0.0230362
0.972253	0	0	0.0230362
1.07327	0	0	0.0230362
1.16645	0	0	0.0230362
1.19372	0	0	0.0230362
1.22446	0	0	0.0230362
1.22454	0	0	0.0230362
1.25552	0	0	0.0230362
1.26954	0	0	0.0230362
1.2715	0	0	0.0230362
1.28333	0	0	0.0230362
1.3164	0	0	0.0230362
1.37649	0	0	0.0230362
1.38619	0	0	0.0230362
1.47234	0	0	0.0230362
1.48731	0	0	0.0230362
1.51611	0	0	0.0230362
1.55848	0	0	0.0230362
1.57223	0	0	0.0230362
1.58833	0	0	0.0230362
1.61147	0	0	0.0230362
1.61499	0	0	0.0230362
1.68094	0	0	0.0230362
1.74359	0	0	0.0230362
1.78562	0	0	0.0230362
1.85826	0	0	0.0230362
1.89134	0	0	0.0230362
1.90307	0	0	0.0230362
1.92988	0	0	0.0230362
1.93232	0	0	0.0230362
2.06248	0	0	0.0230362
2.13522	0	0	0.0230362
2.19323	0	0	0.0230362
2.22849	0	0	0.0230362
2.24189	0	0	0.0230362
2.2635	0	0	0.0230362
2.36507	0	0	0.0230362
2.40083	0	0	0.0230362
2.43853	0	0	0.0230362
2.44824	0	0	0.0230362
2.48436	0	0	0.0230362
2.51251	0	0	0.0460723
2.53919	0	0	0.0460723
2.58264	0	0	0.0460723
2.61273	0	0	0.0460723
2.61667	0	0	0.0460723
2.69986	0	0	0.0460723
2.86341	0	0	0.0460723
2.88117	0	0	0.0460723
2.91672	0	0	0.0460723
2.94571	0	0	0.0460723
2.97811	0	0	0.0460723
3.03199	0	0	0.0460723
3.13926	0	0	0.0460723
3.14412	0	0	0.0460723
3.19272	0	0	0.0460723
3.21738	0	0	0.0460723
3.23454	0	0	0.0460723
3.2363	0	0	0.0460723
3.25465	0	0	0.0460723
3.26997	0	0	0.0460723
3.28694	0	0	0.0460723
3.33604	0	0	0.0460723
3.36672	0	0	0.0460723
3.44156	0	0	0.0460723
3.52028	0	0	0.0460723
3.52213	0	0	0.0460723
3.57036	0	0	0.0691085
3.69396	0	0	0.0691085
3.74798	0	0	0.0691085
3.76444	0	0	0.0691085
3.79041	0	0	0.0691085
3.87524	0	0	0.0691085
3.92423	0	0	0.0691085
4.05345	0	0	0.0691085
4.19045	0	0	0.0691085
4.29139	0	0	0.0691085
4.31215	0	0	0.0691085
4.38048	0	0	0.0691085
4.38112	0	0	0.0691085
4.5356	0	0	0.0691085
4.60606	0	0	0.0691085
4.62966	0	0	0.0691085
4.63249	0	0	0.0691085
4.6617	0	0	0.0691085
4.66696	0	0	0.0691085
4.68771	0	0	0.0691085
4.69022	0	0	0.0691085
4.70697	0	0	0.0691085
4.80106	0	0	0.0691085
4.81662	0	0	0.0691085
4.86585	0	0	0.0691085
4.97321	0	0	0.0921447
5.01632	0	0	0.0921447
5.0294	0	0	0.0921447
5.13955	0	0	0.0921447
5.16254	0	0	0.0921447
5.19691	0	0	0.0921447
5.22713	0	0	0.0921447
5.23396	0	0	0.0921447
5.30133	0	0	0.0921447
5.34719	0	0	0.0921447
5.47359	0	0	0.0921447
5.53796	0	0	0.0921447
5.55135	0	0	0.0921447
5.59399	0	0	0.0921447
5.60004	0	0	0.0921447
5.77598	0	0	0.0921447
5.79479	0	0	0.0921447
5.79815	0	0	0.0921447
5.82012	0	0	0.0921447
5.9118	0	0	0.0921447
5.95343	0	0	0.0921447
5.97129	0	0	0.0921447
6.1177	0	0	0.0921447
6.13173	0	0	0.0921447
6.14054	0	0	0.0921447
6.17266	0	0	0.0921447
6.19067	0	0	0.0921447
6.20378	0	0	0.0921447
6.21889	0	0	0.0921447
6.4608	0	0	0.0921447
6.46864	0	0	0.0921447
6.51779	0	0	0.115181
6.65844	0	0	0.115181
6.67702	0	0	0.115181
6.85645	0	0	0.138217
6.98172	0	0	0.138217
7.03042	0	0	0.138217
7.07762	0	0	0.138217
7.14083	0	0	0.138217
7.18206	0	0	0.138217
7.21682	0	0	0.138217
7.27181	0	0	0.138217
7.27935	0	0	0.138217
7.33473	0	0	0.138217
7.44763	0	0	0.138217
7.53943	0	0	0.138217
7.56006	0	0	0.138217
7.56146	0	0	0.138217
7.59052	0	0	0.138217
7.61496	0	0	0.138217
7.65287	0	0	0.138217
7.65994	0	0	0.138217
7.68266	0	0	0.138217
7.70021	0	0	0.138217
7.70628	0	0	0.138217
7.76853	0	0	0.161253
7.80899	0	0	0.161253
7.85217	0	0	0.161253
7.90813	0	0	0.184289
7.91926	0	0	0.184289
7.94422	0	0	0.184289
7.95076	0	0	0.184289
8.01572	0	0	0.207326
8.03164	0	0	0.207326
8.05399	0	0	0.207326
8.08258	0	0	0.207326
8.115	0	0	0.207326
8.23275	0	0	0.207326
8.24908	0	0	0.207326
8.2537	0	0	0.207326
8.28582	0	0	0.207326
8.33001	0	0	0.207326
8.35203	0	0	0.207326
8.38659	0	0	0.207326
8.50798	0	0	0.207326
8.55026	0	0	0.207326
8.56435	0	0	0.207326
8.56767	0	0	0.207326
8.703	0	0	0.207326
8.72021	0	0	0.207326
8.75504	0	0	0.207326
8.77577	0	0	0.207326
8.77636	0	0	0.207326
8.87945	0	0	0.207326
8.95559	0	0	0.207326
8.97434	0	0	0.207326
8.98224	0	0	0.207326
8.98572	0	0	0.207326
9.01735	0	0	0.207326
9.05571	0	0	0.207326
9.05686	0	0	0.207326
9.09128	0	0	0.207326
9.12611	0	0	0.207326
9.17543	0	0	0.230362
9.29111	0	0	0.230362
9.32092	0	0	0.230362
9.33537	0	0	0.230362
9.35794	0	0	0.230362
9.44506	0	0	0.230362
9.47442	0	0	0.230362
9.49691	0	0	0.253398
9.51279	0	0	0.253398
9.54754	0	0	0.253398
9.59417	0	0	0.253398
9.62413	0	0	0.253398
9.65548	0	0	0.253398
9.70253	0	0	0.253398
9.70476	0	0	0.253398
9.70846	0	0	0.253398
9.71809	0	0	0.253398
9.77181	0	0	0.253398
9.84336	0	0	0.253398
9.8742	0	0	0.253398
9.91517	0	0	0.253398
9.93701	0	0	0.253398
10.0369	0	0	0.253398
10.155	0	0	0.253398
10.1705	0	0	0.253398
10.1966	0	0	0.253398
10.2095	0	0	0.253398
10.3174	0	0	0.253398
10.3181	0	0	0.253398
10.4672	0	0	0.253398
10.4845	0	0	0.253398
10.5195	0	0	0.253398
10.5482	0	0	0.276434
10.5546	0	0	0.276434
10.572	0	0	0.276434
10.5821	0	0	0.276434
10.6001	0	0	0.276434
10.7221	0	0	0.276434
10.9214	0	0	0.276434
11.091	0	0	0.276434
11.1286	0	0	0.276434
11.2946	0	0	0.276434
11.3813	0	0	0.276434
11.4339	0	0	0.276434
11.5273	0	0	0.276434
11.6537	0	0	0.276434
11.6558	0	0	0.276434
11.6658	0	0	0.276434
11.7071	0	0	0.29947
11.7386	0	0	0.29947
11.7893	0	0	0.29947
11.8959	0	0	0.29947
11.9209	0	0	0.29947
11.952	0	0	0.29947
11.9787	0	0	0.29947
11.9962	0	0	0.29947
12.0029	0	0	0.29947
12.0086	0	0	0.322506
12.0116	0	0	0.322506
12.0169	0	0	0.322506
12.0544	0	0	0.322506
12.1117	0	0	0.322506
12.1807	0	0	0.345543
12.2247	0	0	0.345543
12.2427	0	0	0.345543
12.2686	0	0	0.345543
12.4693	0	0	0.368579
12.5092	0	0	0.391615
12.5491	0	0	0.391615
12.5525	0	0	0.391615
12.6451	0	0	0.391615
12.6665	0	0	0.391615
12.6737	0	0	0.391615
12.6898	0	0	0.391615
12.7701	0	0	0.391615
12.9284	0	0	0.391615
12.9913	0	0	0.391615
13.0055	0	0	0.414651
13.01	0	0	0.414651
13.0164	0	0	0.414651
13.0884	0	0	0.414651
13.1178	0	0	0.414651
13.1857	0	0	0.414651
13.2207	0	0	0.414651
13.2443	0	0	0.437687
13.2448	0	0	0.437687
13.2514	0	0	0.437687
13.3394	0	0	0.437687
13.3585	0	0	0.437687
13.3868	0	0	0.437687
13.6373	0	0	0.437687
13.6708	0	0	0.437687
13.6824	0	0	0.437687
13.7964	0	0	0.460723
13.8382	0	0	0.48376
13.8452	0	0	0.48376
13.8486	0	0	0.48376
13.8495	0	0	0.48376
13.8748	0	0	0.48376
13.9226	0	0	0.48376
13.9587	0	0	0.506796
13.9655	0	0	0.506796
14.0157	0	0	0.506796
14.0336	0	0	0.529832
14.0353	0	0	0.529832
14.0424	0	0	0.552868
14.1554	0	0	0.575904
14.1926	0	0	0.575904
14.2523	0	0	0.575904
14.27	0	0	0.575904
14.3478	0	0	0.575904
14.3614	0	0	0.575904
14.477	0	0	0.59894
14.5865	0	0	0.59894
14.6241	0	0	0.59894
14.687	0	0	0.621977
14.7399	0	0	0.621977
14.8968	0	0	0.621977
14.9045	0	0	0.621977
14.909	0	0	0.621977
14.9141	0	0	0.621977
14.9175	0	0	0.621977
14.9188	0	0	0.621977
14.9314	0	0	0.621977
14.9487	0	0	0.621977
14.9666	0	0	0.621977
14.967	0	0	0.621977
14.9825	0	0	0.621977
15.0112	0	0	0.621977
15.0379	0	0	0.621977
15.1354	0	0	0.621977
15.1459	0	0	0.621977
15.1731	0	0	0.621977
15.2023	0	0	0.621977
15.2847	0	0	0.621977
15.3564	0	0	0.621977
15.3959	0	0	0.621977
15.4594	0	0	0.621977
15.4795	0	0	0.621977
15.4802	0	0	0.621977
15.5017	0	0	0.621977
15.508	0	0	0.621977
15.5418	0	0	0.621977
15.6639	0	0	0.621977
15.6672	0	0	0.621977
15.8814	0	0	0.621977
15.8832	0	0	0.621977
15.9282	0	0	0.645013
15.9374	0	0	0.645013
15.9458	0	0	0.645013
15.9795	0	0	0.668049
16.0128	0	0	0.668049
16.0276	0	0	0.668049
16.0771	0	0	0.668049
16.0829	0	0	0.691085
16.1021	0	0	0.691085
16.1235	0	0	0.714121
16.1464	0	0	0.714121
16.1879	0	0	0.714121
16.2172	0	0	0.737157
16.3414	0	0	0.737157
16.4328	0	0	0.737157
16.562	0	0	0.760194
16.5642	0	0	0.760194
16.6329	0	0	0.760194
16.6717	0	0	0.78323
16.6812	0	0	0.78323
16.7174	0	0	0.78323
16.8051	0	0	0.78323
16.8211	0	0	0.806266
16.8294	0	0	0.829302
16.8801	0	0	0.829302
16.8968	0	0	0.829302
16.9754	0	0	0.829302
16.9935	0	0	0.829302
17.0019	0	0	0.829302
17.0142	0	0	0.829302
17.0238	0	0	0.829302
17.0311	0	0	0.829302
17.1062	0	0	0.829302
17.1224	0	0	0.829302
17.1291	0	0	0.829302
17.1291	0	0	0.829302
17.165	0	0	0.829302
17.1703	0	0	0.829302
17.25	0	0	0.829302
17.2795	0	0	0.829302
17.402	0	0	0.829302
17.4478	0	0	0.829302
17.4731	0	0	0.852338
17.4754	0	0	0.852338
17.5062	0	0	0.852338
17.577	0	0	0.852338
17.631	0	0	0.852338
17.6685	0	0	0.852338
17.6831	0	0	0.875374
17.7228	0	0	0.875374
17.75	0	0	0.875374
17.7633	0	0	0.875374
17.797	0	0	0.875374
17.8421	0	0	0.898411
17.9162	0	0	0.898411
17.9747	0	0	0.898411
17.9934	0	0	0.898411
18.0028	0	0	0.898411
18.0238	0	0	0.898411
18.0327	0	0	0.921447
18.0449	0	0	0.921447
18.0536	0	0	0.921447
18.0901	0	0	0.921447
18.1052	0	0	0.921447
18.1112	0	0	0.921447
18.1652	0	0	0.944483
18.2867	0	0	0.967519
18.3325	0	0	0.967519
18.3404	0	0	0.967519
18.3885	0	0	0.990555
18.4037	0	0	0.990555
18.4414	0	0	1.01359
18.5702	0	0	1.03663
18.5904	0	0	1.03663
18.6298	0	0	1.03663
18.6443	0	0	1.03663
18.6677	0	0	1.03663
18.7028	0	0	1.03663
18.7186	0	0	1.03663
18.7884	0	0	1.03663
18.8057	0	0	1.03663
18.8317	0	0	1.03663
18.9167	0	0	1.05966
18.9334	0	0	1.0827
19.0344	0	0	1.0827
19.0515	0	0	1.0827
19.0522	0	0	1.10574
19.0644	0	0	1.10574
19.0782	0	0	1.10574
19.1	0	0	1.10574
19.1795	0	0	1.10574
19.2172	0	0	1.10574
19.3271	0	0	1.10574
19.4082	0	0	1.10574
19.4476	0	0	1.10574
19.4593	0	0	1.10574
19.6165	0	0	1.10574
19.6539	0	0	1.10574
19.7088	0	0	1.10574
19.7287	0	0	1.12877
19.7527	0	0	1.12877
19.7548	0	0	1.12877
19.7602	0	0	1.12877
19.8362	0	0	1.12877
19.8934	0	0	1.12877
19.9867	0	0	1.12877
20.0289	0	0	1.12877
20.0833	0	0	1.12877
20.0933	0	0	1.12877
20.1455	0	0	1.15181
20.1572	0	0	1.15181
20.1625	0	0	1.15181
20.2036	0	0	1.15181
20.2123	0	0	1.15181
20.2191	0	0	1.15181
20.2262	0	0	1.15181
20.3343	0	0	1.15181
20.3625	0	0	1.15181
20.4346	0	0	1.15181
20.5	0	0	1.15181
20.5097	0	0	1.15181
20.5322	0	0	1.15181
20.5629	0	0	1.15181
20.5642	0	0	1.15181
20.5962	0	0	1.15181
20.6481	0	0	1.17484
20.7773	0	0	1.17484
20.7776	0	0	1.19788
20.8033	0	0	1.19788
20.8656	0	0	1.19788
21.0598	0	0	1.19788
21.2196	0	0	1.19788
21.2691	0	0	1.19788
21.2896	0	0	1.19788
21.3295	0	0	1.19788
21.3377	0	0	1.19788
21.3554	0	0	1.19788
21.377	0	0	1.19788
21.3942	0	0	1.19788
21.3951	0	0	1.19788
21.4053	0	0	1.22092
21.4281	0	0	1.26699
21.4495	0	0	1.26699
21.5057	0	0	1.26699
21.5096	0	0	1.26699
21.531	0	0	1.29003
21.5312	0	0	1.29003
21.5723	0	0	1.29003
21.6043	0	0	1.31306
21.6121	0	0	1.3361
21.6443	0	0	1.3361
21.6535	0	0	1.3361
21.654	0	0	1.35913
21.6548	0	0	1.35913
21.7185	0	0	1.35913
21.7349	0	0	1.35913
21.7825	0	0	1.38217
21.837	0	0	1.38217
21.9518	0	0	1.38217
21.9779	0	0	1.38217
21.9866	0	0	1.38217
22.0319	0	0	1.38217
22.0868	0	0	1.38217
22.0944	0	0	1.38217
22.1275	0	0	1.38217
22.1534	0	0	1.38217
22.2414	0	0	1.38217
22.258	0	0	1.40521
22.2967	0	0	1.40521
22.3284	0	0	1.40521
22.4048	0	0	1.40521
22.4757	0	0	1.42824
22.487	0	0	1.42824
22.5926	0	0	1.45128
22.6545	0	0	1.45128
22.6782	0	0	1.47431
22.7089	0	0	1.47431
22.7537	0	0	1.47431
22.8363	0	0	1.47431
22.9221	0	0	1.47431
22.9679	0	0	1.47431
22.9703	0	0	1.47431
23.0891	0	0	1.47431
23.154	0	0	1.49735
23.1626	0	0	1.49735
23.1772	0	0	1.52039
23.2295	0	0	1.52039
23.2512	0	0	1.52039
23.3248	0	0	1.52039
23.3322	0	0	1.52039
23.3774	0	0	1.52039
23.4079	0	0	1.52039
23.732	0	0	1.54342
23.7924	0	0	1.56646
23.7929	0	0	1.56646
23.7975	0	0	1.56646
23.8319	0	0	1.56646
23.8434	0	0	1.56646
23.8587	0	0	1.56646
23.9121	0	0	1.56646
24.0026	0	0	1.56646
24.0433	0	0	1.56646
24.0734	0	0	1.56646
24.153	0	0	1.56646
24.1798	0	0	1.56646
24.2256	0	0	1.56646
24.2273	0	0	1.5895
24.2439	0	0	1.5895
24.2626	0	0	1.63557
24.2919	0	0	1.63557
24.4144	0	0	1.63557
24.4412	0	0	1.6586
24.46	0	0	1.6586
24.4714	0	0	1.6586
24.4733	0	0	1.6586
24.5106	0	0	1.6586
24.6152	0	0	1.68164
24.6198	0	0	1.68164
24.6432	0	0	1.70468
24.6511	0	0	1.75075
24.6867	0	0	1.79682
24.6914	0	0	1.81986
24.8263	0	0	1.81986
24.8421	0	0	1.81986
24.8571	0	0	1.81986
24.8605	0	0	1.81986
24.9358	0	0	1.81986
25.0423	0	0	1.84289
25.0961	0	0	1.86593
25.0988	0	0	1.88897
25.1429	0	0	1.88897
25.1574	0	0	1.88897
25.2145	0	0	1.912
25.2797	0	0	1.912
25.3358	0	0	1.93504
25.349	0	0	1.95807
25.3538	0	0	1.95807
25.3597	0	0	1.95807
25.527	0	0	1.95807
25.5417	0	0	1.95807
25.587	0	0	1.95807
25.5961	0	0	1.98111
25.6172	0	0	1.98111
25.6214	0	0	1.98111
25.6634	0	0	1.98111
25.7259	0	0	1.98111
25.7641	0	0	2.00415
25.801	0	0	2.00415
25.8056	0	0	2.00415
25.8676	0	0	2.00415
25.8762	0	0	2.00415
26.0164	0	0	2.00415
26.057	0	0	2.00415
26.1119	0	0	2.02718
26.1229	0	0	2.02718
26.3281	0	0	2.02718
26.3305	0	0	2.02718
26.3453	0	0	2.02718
26.3467	0	0	2.02718
26.4122	0	0	2.02718
26.458	0	0	2.02718
26.4989	0	0	2.02718
26.5866	0	0	2.02718
26.5874	0	0	2.02718
26.5915	0	0	2.02718
26.6459	0	0	2.02718
26.6658	0	0	2.02718
26.6869	0	0	2.02718
26.7726	0	0	2.02718
26.8179	0	0	2.05022
26.84	0	0	2.05022
26.8458	0	0	2.05022
26.8682	0	0	2.07326
26.8791	0	0	2.07326
26.9353	0	0	2.09629
26.9441	0	0	2.09629
27.0689	0	0	2.09629
27.0699	0	0	2.09629
27.0798	0	0	2.09629
27.1127	0	0	2.09629
27.1148	0	0	2.11933
27.2621	0	0	2.11933
27.2767	0	0	2.11933
27.3323	0	0	2.11933
27.3723	0	0	2.11933
27.3812	0	0	2.14236
27.4346	0	0	2.1654
27.4501	0	0	2.18844
27.5473	0	0	2.18844
27.5752	0	0	2.18844
27.6328	0	0	2.18844
27.7165	0	0	2.21147
27.7566	0	0	2.25754
27.7882	0	0	2.25754
27.8849	0	0	2.25754
27.8924	0	0	2.28058
27.9195	0	0	2.28058
27.9298	0	0	2.28058
28.1579	0	0	2.30362
28.1707	0	0	2.30362
28.2917	0	0	2.30362
28.3285	0	0	2.32665
28.5415	0	0	2.32665
28.5764	0	0	2.32665
28.6749	0	0	2.32665
28.7042	0	0	2.32665
28.7266	0	0	2.32665
28.7297	0	0	2.32665
28.7891	0	0	2.32665
28.8858	0	0	2.37273
28.9294	0	0	2.37273
28.9745	0	0	2.39576
29.0581	0	0	2.39576
29.1857	0	0	2.39576
29.2258	0	0	2.39576
29.3548	0	0	2.39576
29.3973	0	0	2.39576
29.444	0	0	2.39576
29.504	0	0	2.39576
29.5728	0	0	2.39576
29.6041	0	0	2.4188
29.6781	0	0	2.4188
29.7423	0	0	2.4188
29.8828	0	0	2.44183
29.8871	0	0	2.44183
30.0155	0	0	2.44183
30.1075	0	0	2.44183
30.1163	0	0	2.46487
30.1529	0	0	2.48791
30.1861	0	0	2.48791
30.2968	0	0	2.51094
30.2999	0	0	2.51094
30.3039	0	0	2.51094
30.3424	0	0	2.51094
30.3442	0	0	2.53398
30.4109	0	0	2.55701
30.4584	0	0	2.58005
30.4734	0	0	2.60309
30.5797	0	0	2.62612
30.5866	0	0	2.62612
30.6033	0	0	2.64916
30.6238	0	0	2.64916
30.6371	0	0	2.64916
30.7339	0	0	2.64916
30.7702	0	0	2.64916
30.9144	0	0	2.64916
31.041	0	0	2.64916
31.0762	0	0	2.6722
31.1041	0	0	2.6722
31.1409	0	0	2.6722
31.2076	0	0	2.6722
31.3986	0	0	2.6722
31.4054	0	0	2.6722
31.5432	0	0	2.6722
31.5721	0	0	2.6722
31.7534	0	0	2.6722
31.7852	0	0	2.69523
31.8526	0	0	2.71827
31.8757	0	0	2.71827
31.9176	0	0	2.7413
31.9181	0	0	2.7413
31.9356	0	0	2.7413
32.0068	0	0	2.7413
32.0194	0	0	2.76434
32.0292	0	0	2.76434
32.0625	0	0	2.78738
32.102	0	0	2.78738
32.106	0	0	2.78738
32.1145	0	0	2.78738
32.1206	0	0	2.78738
32.1802	0	0	2.78738
32.2182	0	0	2.78738
32.2939	0	0	2.81041
32.3136	0	0	2.83345
32.3922	0	0	2.83345
32.4016	0	0	2.85648
32.4096	0	0	2.85648
32.4918	0	0	2.85648
32.5053	0	0	2.85648
32.5111	0	0	2.85648
32.5646	0	0	2.87952
32.5659	0	0	2.90256
32.7305	0	0	2.92559
32.7426	0	0	2.97167
32.8024	0	0	2.97167
32.8081	0	0	2.97167
32.9071	0	0	2.9947
32.9075	0	0	2.9947
32.9135	0	0	2.9947
32.943	0	0	2.9947
32.9628	0	0	2.9947
32.9906	0	0	3.01774
33.0393	0	0	3.01774
33.0805	0	0	3.01774
33.0914	0	0	3.01774
33.1026	0	0	3.04077
33.1541	0	0	3.04077
33.1563	0	0	3.04077
33.1902	0	0	3.04077
33.3626	0	0	3.04077
33.393	0	0	3.04077
33.4005	0	0	3.04077
33.5405	0	0	3.04077
33.6182	0	0	3.06381
33.6818	0	0	3.06381
33.7778	0	0	3.06381
33.8131	0	0	3.06381
33.8278	0	0	3.06381
33.844	0	0	3.06381
33.8468	0	0	3.08685
33.8677	0	0	3.10988
33.8901	0	0	3.10988
33.9114	0	0	3.10988
34.0118	0	0	3.13292
34.078	0	0	3.13292
34.0845	0	0	3.13292
34.1345	0	0	3.13292
34.2578	0	0	3.13292
34.3312	0	0	3.13292
34.3454	0	0	3.15595
34.3595	0	0	3.17899
34.4623	0	0	3.17899
34.4992	0	0	3.17899
34.5365	0	0	3.17899
34.5652	0	0	3.17899
34.5701	0	0	3.17899
34.6826	0	0	3.17899
34.6879	0	0	3.17899
34.7334	0	0	3.17899
34.7351	0	0	3.17899
34.7698	0	0	3.17899
34.7721	0	0	3.20203
34.7884	0	0	3.20203
34.8108	0	0	3.20203
34.877	0	0	3.20203
35.1064	0	0	3.20203
35.1273	0	0	3.22506
35.138	0	0	3.22506
35.1454	0	0	3.22506
35.1612	0	0	3.22506
35.2025	0	0	3.2481
35.2777	0	0	3.2481
35.323	0	0	3.27114
35.4693	0	0	3.29417
35.5158	0	0	3.29417
35.5342	0	0	3.29417
35.6416	0	0	3.31721
35.7998	0	0	3.34024
35.8319	0	0	3.38632
35.8341	0	0	3.38632
35.8686	0	0	3.38632
35.9295	0	0	3.38632
36.0264	0	0	3.38632
36.0804	0	0	3.40935
36.0864	0	0	3.40935
36.1173	0	0	3.40935
36.1502	0	0	3.40935
36.2219	0	0	3.40935
36.2818	0	0	3.40935
36.2838	0	0	3.43239
36.35	0	0	3.43239
36.4077	0	0	3.43239
36.4421	0	0	3.45543
36.5099	0	0	3.47846
36.5139	0	0	3.5015
36.5724	0	0	3.5015
36.6058	0	0	3.52453
36.7016	0	0	3.52453
36.7595	0	0	3.52453
36.8139	0	0	3.52453
36.8762	0	0	3.52453
36.886	0	0	3.52453
36.9871	0	0	3.52453
37.017	0	0	3.52453
37.031	0	0	3.52453
37.0423	0	0	3.54757
37.1562	0	0	3.54757
37.192	0	0	3.57061
37.2301	0	0	3.57061
37.2915	0	0	3.57061
37.308	0	0	3.57061
37.3461	0	0	3.57061
37.3768	0	0	3.57061
37.4188	0	0	3.57061
37.4211	0	0	3.57061
37.4542	0	0	3.59364
37.5088	0	0	3.61668
37.5305	0	0	3.61668
37.5567	0	0	3.63971
37.612	0	0	3.66275
37.6288	0	0	3.66275
37.6416	0	0	3.66275
37.6421	0	0	3.66275
37.6742	0	0	3.66275
37.6756	0	0	3.66275
37.7581	0	0	3.66275
37.8329	0	0	3.68579
37.8826	0	0	3.68579
37.9447	0	0	3.70882
37.9877	0	0	3.70882
38.0188	0	0	3.70882
38.0341	0	0	3.73186
38.0404	0	0	3.73186
38.1447	0	0	3.73186
38.1554	0	0	3.7549
38.1681	0	0	3.7549
38.2021	0	0	3.7549
38.2575	0	0	3.7549
38.2582	0	0	3.77793
38.3655	0	0	3.80097
38.4784	0	0	3.80097
38.5909	0	0	3.80097
38.657	0	0	3.824
38.8847	0	0	3.824
38.914	0	0	3.824
38.9375	0	0	3.824
38.9516	0	0	3.84704
39.1299	0	0	3.87008
39.1377	0	0	3.87008
39.1589	0	0	3.89311
39.229	0	0	3.91615
39.3252	0	0	3.91615
39.3753	0	0	3.93918
39.4656	0	0	3.93918
39.4658	0	0	3.93918
39.5312	0	0	3.96222
39.5487	0	0	3.96222
39.5755	0	0	3.98526
39.5933	0	0	4.00829
39.6712	0	0	4.03133
39.7367	0	0	4.03133
39.7543	0	0	4.05437
39.8009	0	0	4.05437
39.9398	0	0	4.05437
39.9552	0	0	4.05437
39.9598	0	0	4.05437
39.9833	0	0	4.0774
39.9919	0	0	4.0774
40.019	0	0	4.0774
40.0366	0	0	4.0774
40.1429	0	0	4.10044
40.1458	0	0	4.10044
40.1991	0	0	4.14651
40.2048	0	0	4.14651
40.2062	0	0	4.14651
40.2268	0	0	4.14651
40.2811	0	0	4.16955
40.4119	0	0	4.19258
40.4255	0	0	4.19258
40.4526	0	0	4.19258
40.4827	0	0	4.19258
40.5912	0	0	4.19258
40.5925	0	0	4.21562
40.6961	0	0	4.21562
40.7129	0	0	4.21562
40.7554	0	0	4.21562
40.7619	0	0	4.21562
40.7662	0	0	4.23865
40.7681	0	0	4.23865
40.7766	0	0	4.26169
40.8473	0	0	4.26169
40.8532	0	0	4.28473
40.8581	0	0	4.30776
40.8824	0	0	4.35384
40.9334	0	0	4.37687
40.9946	0	0	4.39991
41.0034	0	0	4.39991
41.1779	0	0	4.39991
41.2165	0	0	4.39991
41.224	0	0	4.39991
41.2608	0	0	4.39991
41.2853	0	0	4.42294
41.2901	0	0	4.42294
41.3465	0	0	4.42294
41.3585	0	0	4.42294
41.3803	0	0	4.42294
41.4107	0	0	4.42294
41.4481	0	0	4.42294
41.4872	0	0	4.42294
41.6304	0	0	4.42294
41.7136	0	0	4.42294
41.7295	0	0	4.44598
41.8334	0	0	4.49205
41.8936	0	0	4.49205
41.9269	0	0	4.49205
41.9327	0	0	4.51509
41.9507	0	0	4.53812
41.9523	0	0	4.56116
41.983	0	0	4.56116
42.026	0	0	4.56116
42.0284	0	0	4.56116
42.0917	0	0	4.5842
42.1242	0	0	4.5842
42.2228	0	0	4.60723
42.2889	0	0	4.65331
42.3247	0	0	4.67634
42.3928	0	0	4.67634
42.4253	0	0	4.67634
42.4778	0	0	4.67634
42.5135	0	0	4.67634
42.527	0	0	4.67634
42.5678	0	0	4.67634
42.5732	0	0	4.67634
42.5945	0	0	4.69938
42.6033	0	0	4.72241
42.7306	0	0	4.72241
42.7773	0	0	4.74545
42.7831	0	0	4.76849
42.8665	0	0	4.79152
42.9566	0	0	4.81456
42.9717	0	0	4.81456
43.0042	0	0	4.8376
43.0186	0	0	4.88367
43.0364	0	0	4.88367
43.0469	0	0	4.88367
43.0883	0	0	4.88367
43.1532	0	0	4.9067
43.2384	0	0	4.9067
43.2386	0	0	4.92974
43.3177	0	0	4.92974
43.3488	0	0	4.92974
43.3926	0	0	4.92974
43.4311	0	0	4.95278
43.4506	0	0	4.95278
43.5188	0	0	4.95278
43.5419	0	0	4.95278
43.6561	0	0	4.95278
43.6819	0	0	4.97581
43.7296	0	0	4.97581
43.7791	0	0	4.99885
43.905	0	0	5.02188
43.9567	0	0	5.02188
43.9836	0	0	5.02188
44.0482	0	0	5.02188
44.0722	0	0	5.02188
44.08	0	0	5.02188
44.1219	0	0	5.02188
44.1946	0	0	5.02188
44.2068	0	0	5.02188
44.2146	0	0	5.02188
44.2486	0	0	5.04492
44.2487	0	0	5.06796
44.2508	0	0	5.09099
44.2542	0	0	5.11403
44.2947	0	0	5.11403
44.337	0	0	5.11403
44.3793	0	0	5.13707
44.457	0	0	5.13707
44.6176	0	0	5.13707
44.7371	0	0	5.13707
44.768	0	0	5.1601
44.7841	0	0	5.1601
44.8038	0	0	5.1601
44.832	0	0	5.1601
44.8413	0	0	5.18314
44.9678	0	0	5.20617
44.9844	0	0	5.20617
45.0204	0	0	5.20617
45.1028	0	0	5.20617
45.1274	0	0	5.20617
45.1288	0	0	5.25225
45.1493	0	0	5.27528
45.224	0	0	5.27528
45.2308	0	0	5.27528
45.2347	0	0	5.29832
45.237	0	0	5.29832
45.2557	0	0	5.29832
45.2955	0	0	5.32135
45.3315	0	0	5.34439
45.5394	0	0	5.34439
45.5519	0	0	5.36743
45.5555	0	0	5.36743
45.5789	0	0	5.4135
45.5846	0	0	5.43654
45.5962	0	0	5.43654
45.6499	0	0	5.45957
45.674	0	0	5.48261
45.6815	0	0	5.50564
45.6921	0	0	5.52868
45.7262	0	0	5.55172
45.7313	0	0	5.55172
45.7686	0	0	5.57475
45.8265	0	0	5.59779
45.8458	0	0	5.64386
45.8539	0	0	5.64386
45.9358	0	0	5.64386
46.0683	0	0	5.6669
46.0747	0	0	5.68993
46.1122	0	0	5.71297
46.2565	0	0	5.73601
46.2594	0	0	5.78208
46.3164	0	0	5.80511
46.3291	0	0	5.80511
46.3849	0	0	5.82815
46.4351	0	0	5.82815
46.4456	0	0	5.85119
46.5136	0	0	5.87422
46.6831	0	0	5.87422
46.696	0	0	5.89726
46.6988	0	0	5.89726
46.7306	0	0	5.89726
46.8921	0	0	5.89726
46.9702	0	0	5.89726
47.0281	0	0	5.92029
47.0562	0	0	5.92029
47.064	0	0	5.92029
47.2072	0	0	5.94333
47.2202	0	0	5.94333
47.2972	0	0	5.94333
47.3369	0	0	5.94333
47.3917	0	0	5.94333
47.4373	0	0	5.96637
47.4773	0	0	6.01244
47.4958	0	0	6.01244
47.5483	0	0	6.01244
47.5888	0	0	6.03548
47.6841	0	0	6.05851
47.7922	0	0	6.08155
47.8469	0	0	6.10458
47.9655	0	0	6.10458
48.0092	0	0	6.15066
48.0147	0	0	6.15066
48.1058	0	0	6.15066
48.1315	0	0	6.15066
48.2651	0	0	6.15066
48.2908	0	0	6.17369
48.308	0	0	6.17369
48.4144	0	0	6.19673
48.4582	0	0	6.21977
48.5075	0	0	6.2428
48.5166	0	0	6.2428
48.5767	0	0	6.26584
48.6063	0	0	6.26584
48.6148	0	0	6.26584
48.6149	0	0	6.31191
48.8021	0	0	6.31191
48.8066	0	0	6.33495
48.834	0	0	6.35798
48.9377	0	0	6.35798
48.9522	0	0	6.35798
49.0064	0	0	6.35798
49.1509	0	0	6.40405
49.1561	0	0	6.42709
49.1982	0	0	6.45013
49.2682	0	0	6.45013
49.3026	0	0	6.47316
49.5068	0	0	6.47316
49.5379	0	0	6.47316
49.6146	0	0	6.47316
49.6288	0	0	6.47316
49.6541	0	0	6.4962
49.6553	0	0	6.4962
49.8629	0	0	6.4962
50.0057	0	0	6.4962
50.0792	0	0	6.54227
50.1039	0	0	6.56531
50.1188	0	0	6.58834
50.166	0	0	6.58834
50.1965	0	0	6.63442
50.2082	0	0	6.65745
50.2333	0	0	6.68049
50.2482	0	0	6.68049
50.5345	0	0	6.68049
50.5596	0	0	6.70352
50.8084	0	0	6.72656
50.836	0	0	6.7496
50.8892	0	0	6.77263
50.8911	0	0	6.79567
50.9174	0	0	6.81871
50.968	0	0	6.86478
50.9873	0	0	6.88781
51.0719	0	0	6.88781
51.2246	0	0	6.91085
51.2327	0	0	6.91085
51.2375	0	0	6.91085
51.3673	0	0	6.93389
51.4048	0	0	6.95692
51.4601	0	0	7.00299
51.4978	0	0	7.02603
51.5127	0	0	7.02603
51.5212	0	0	7.0721
51.5575	0	0	7.09514
51.587	0	0	7.09514
51.6023	0	0	7.11818
51.6165	0	0	7.14121
51.6417	0	0	7.16425
51.6926	0	0	7.18728
51.7552	0	0	7.18728
51.77	0	0	7.21032
51.9465	0	0	7.21032
52.0997	0	0	7.23336
52.101	0	0	7.23336
52.1173	0	0	7.25639
52.1466	0	0	7.27943
52.163	0	0	7.27943
52.1796	0	0	7.30246
52.1823	0	0	7.30246
52.3455	0	0	7.34854
52.382	0	0	7.37157
52.4236	0	0	7.37157
52.5186	0	0	7.39461
52.5917	0	0	7.39461
52.6156	0	0	7.44068
52.6533	0	0	7.44068
52.7111	0	0	7.44068
52.7281	0	0	7.46372
52.7436	0	0	7.48675
52.782	0	0	7.48675
52.7865	0	0	7.48675
52.8059	0	0	7.50979
52.8337	0	0	7.50979
52.8674	0	0	7.53283
52.8803	0	0	7.55586
52.9425	0	0	7.55586
52.953	0	0	7.55586
52.9694	0	0	7.55586
53.176	0	0	7.5789
53.2262	0	0	7.62497
53.3025	0	0	7.62497
53.4427	0	0	7.62497
53.4588	0	0	7.64801
53.591	0	0	7.67104
53.679	0	0	7.67104
53.7386	0	0	7.67104
53.7408	0	0	7.69408
53.8803	0	0	7.69408
53.9639	0	0	7.69408
54.0158	0	0	7.74015
54.0417	0	0	7.76319
54.0523	0	0	7.78622
54.1164	0	0	7.80926
54.1221	0	0	7.80926
54.3043	0	0	7.80926
54.3629	0	0	7.80926
54.4205	0	0	7.8323
54.4314	0	0	7.8323
54.4706	0	0	7.85533
54.4843	0	0	7.85533
54.545	0	0	7.90141
54.582	0	0	7.90141
54.7178	0	0	7.90141
54.7281	0	0	7.92444
54.7411	0	0	7.94748
54.7606	0	0	7.97051
54.7665	0	0	8.01659
54.7966	0	0	8.01659
54.8615	0	0	8.01659
54.8862	0	0	8.01659
54.8882	0	0	8.03962
54.8892	0	0	8.03962
54.9044	0	0	8.06266
54.918	0	0	8.08569
54.9187	0	0	8.10873
54.9453	0	0	8.13177
55.1149	0	0	8.1548
55.1345	0	0	8.17784
55.1666	0	0	8.20088
55.1971	0	0	8.24695
55.1982	0	0	8.24695
55.2443	0	0	8.24695
55.372	0	0	8.24695
55.3805	0	0	8.26998
55.4273	0	0	8.26998
55.448	0	0	8.29302
55.5392	0	0	8.31606
55.5745	0	0	8.31606
55.7125	0	0	8.31606
55.7275	0	0	8.36213
55.7592	0	0	8.4082
55.8766	0	0	8.4082
55.8776	0	0	8.4082
55.8822	0	0	8.4082
55.8985	0	0	8.4082
55.9138	0	0	8.4082
55.9608	0	0	8.43124
56.0283	0	0	8.45427
56.0684	0	0	8.47731
56.1543	0	0	8.47731
56.1561	0	0	8.52338
56.2927	0	0	8.52338
56.3014	0	0	8.52338
56.4878	0	0	8.54642
56.5715	0	0	8.54642
56.5748	0	0	8.54642
56.607	0	0	8.56945
56.6395	0	0	8.56945
56.7195	0	0	8.56945
56.7233	0	0	8.56945
56.7262	0	0	8.59249
56.8758	0	0	8.59249
56.8851	0	0	8.59249
56.9363	0	0	8.59249
57.0037	0	0	8.59249
57.1115	0	0	8.61553
57.1404	0	0	8.61553
57.1918	0	0	8.63856
57.3577	0	0	8.63856
57.4174	0	0	8.6616
57.4342	0	0	8.70767
57.5421	0	0	8.73071
57.6257	0	0	8.73071
57.6302	0	0	8.73071
57.6604	0	0	8.75374
57.6637	0	0	8.75374
57.6949	0	0	8.77678
57.7424	0	0	8.79982
57.8096	0	0	8.82285
57.8248	0	0	8.84589
57.8324	0	0	8.84589
58.035	0	0	8.86892
58.0536	0	0	8.86892
58.0954	0	0	8.86892
58.1288	0	0	8.86892
58.145	0	0	8.915
58.1725	0	0	8.93803
58.258	0	0	8.93803
58.2777	0	0	8.93803
58.3295	0	0	8.93803
58.3494	0	0	8.96107
58.5216	0	0	9.00714
58.7026	0	0	9.03018
58.8606	0	0	9.03018
59.0826	0	0	9.05321
59.1617	0	0	9.07625
59.2565	0	0	9.09929
59.2757	0	0	9.12232
59.3773	0	0	9.14536
59.4571	0	0	9.16839
59.486	0	0	9.19143
59.6177	0	0	9.21447
59.631	0	0	9.2375
59.7521	0	0	9.2375
59.7691	0	0	9.26054
59.7874	0	0	9.26054
59.7951	0	0	9.28358
59.7969	0	0	9.30661
59.937	0	0	9.32965
60.0392	0	0	9.35268
60.0919	0	0	9.35268
60.1525	0	0	9.39876
60.2217	0	0	9.39876
60.2833	0	0	9.42179
60.3168	0	0	9.42179
60.317	0	0	9.42179
60.3961	0	0	9.44483
60.4214	0	0	9.46786
60.516	0	0	9.46786
60.655	0	0	9.46786
60.6903	0	0	9.4909
60.8278	0	0	9.4909
60.8504	0	0	9.4909
60.8831	0	0	9.53697
60.8982	0	0	9.58305
60.9244	0	0	9.62912
60.9616	0	0	9.62912
61.0136	0	0	9.62912
61.0906	0	0	9.65215
61.0992	0	0	9.67519
61.1048	0	0	9.69823
61.1219	0	0	9.69823
61.1385	0	0	9.7443
61.2136	0	0	9.76733
61.255	0	0	9.79037
61.2942	0	0	9.81341
61.3641	0	0	9.83644
61.368	0	0	9.83644
61.486	0	0	9.83644
61.5186	0	0	9.85948
61.5282	0	0	9.85948
61.5833	0	0	9.85948
61.5887	0	0	9.88252
61.6076	0	0	9.90555
61.6111	0	0	9.90555
61.6244	0	0	9.90555
61.8273	0	0	9.90555
61.8282	0	0	9.92859
61.8688	0	0	9.95162
61.9029	0	0	9.97466
61.9695	0	0	9.9977
61.9787	0	0	9.9977
61.9827	0	0	9.9977
62.0681	0	0	9.9977
62.0738	0	0	10.0207
62.1831	0	0	10.0207
62.1876	0	0	10.0207
62.2036	0	0	10.0438
62.2163	0	0	10.0438
62.4061	0	0	10.0668
62.4824	0	0	10.0668
62.5084	0	0	10.0668
62.6539	0	0	10.0898
62.6784	0	0	10.0898
62.6789	0	0	10.1129
62.7967	0	0	10.1359
62.8638	0	0	10.1359
62.9194	0	0	10.182
62.9597	0	0	10.2281
62.9822	0	0	10.2281
62.9841	0	0	10.2281
63.0032	0	0	10.2281
63.0089	0	0	10.2281
63.0465	0	0	10.2511
63.081	0	0	10.2511
63.0849	0	0	10.2741
63.144	0	0	10.3202
63.1816	0	0	10.3432
63.1862	0	0	10.3432
63.235	0	0	10.3893
63.2825	0	0	10.3893
63.2876	0	0	10.3893
63.3238	0	0	10.3893
63.334	0	0	10.3893
63.3545	0	0	10.4123
63.4005	0	0	10.4354
63.4952	0	0	10.4584
63.5364	0	0	10.4815
63.6181	0	0	10.4815
63.6241	0	0	10.4815
63.6468	0	0	10.4815
63.6757	0	0	10.4815
63.7759	0	0	10.5275
63.8084	0	0	10.5506
63.8287	0	0	10.5506
63.9319	0	0	10.5736
64.0068	0	0	10.5966
64.0313	0	0	10.6197
64.0505	0	0	10.6427
64.0546	0	0	10.6427
64.149	0	0	10.6888
64.1624	0	0	10.6888
64.1999	0	0	10.6888
64.2628	0	0	10.6888
64.3036	0	0	10.6888
64.381	0	0	10.6888
64.6608	0	0	10.6888
64.6963	0	0	10.6888
64.985	0	0	10.7118
65.0309	0	0	10.7118
65.1395	0	0	10.7349
65.1514	0	0	10.7579
65.2124	0	0	10.7809
65.286	0	0	10.804
65.2904	0	0	10.804
65.2991	0	0	10.804
65.3003	0	0	10.804
65.4149	0	0	10.804
65.565	0	0	10.827
65.6173	0	0	10.827
65.6391	0	0	10.827
65.6504	0	0	10.85
65.6989	0	0	10.8961
65.7282	0	0	10.8961
65.7786	0	0	10.8961
65.8034	0	0	10.9191
65.9173	0	0	10.9422
65.9805	0	0	10.9883
66.1075	0	0	10.9883
66.1329	0	0	11.0113
66.304	0	0	11.0113
66.3402	0	0	11.0113
66.3806	0	0	11.0113
66.4858	0	0	11.0343
66.5021	0	0	11.0574
66.9905	0	0	11.0804
66.9928	0	0	11.0804
66.9944	0	0	11.1034
67.0094	0	0	11.1034
67.0096	0	0	11.1034
67.1249	0	0	11.1034
67.1281	0	0	11.1265
67.1301	0	0	11.1265
67.229	0	0	11.1495
67.29	0	0	11.1495
67.4649	0	0	11.1956
67.488	0	0	11.2186
67.4916	0	0	11.2647
67.4966	0	0	11.2647
67.5655	0	0	11.2647
67.5751	0	0	11.2647
67.6612	0	0	11.2647
67.8517	0	0	11.2647
67.8756	0	0	11.2647
67.9553	0	0	11.2647
67.9838	0	0	11.2647
68.0469	0	0	11.2647
68.0794	0	0	11.2877
68.087	0	0	11.2877
68.103	0	0	11.2877
68.1033	0	0	11.2877
68.2278	0	0	11.2877
68.2419	0	0	11.2877
68.3752	0	0	11.3108
68.5361	0	0	11.3108
68.6203	0	0	11.3338
68.7537	0	0	11.3799
68.757	0	0	11.3799
68.7588	0	0	11.4029
68.813	0	0	11.449
68.9339	0	0	11.449
69.0009	0	0	11.449
69.0084	0	0	11.449
69.0348	0	0	11.472
69.0963	0	0	11.472
69.1462	0	0	11.495
69.194	0	0	11.5181
69.2335	0	0	11.5411
69.2403	0	0	11.5411
69.318	0	0	11.5642
69.3518	0	0	11.5642
69.3658	0	0	11.5872
69.3788	0	0	11.6102
69.4303	0	0	11.6563
69.451	0	0	11.6793
69.5286	0	0	11.7024
69.5382	0	0	11.7024
69.5706	0	0	11.7484
69.5747	0	0	11.7484
69.6713	0	0	11.7484
69.7031	0	0	11.7484
69.742	0	0	11.7715
69.7424	0	0	11.7715
69.7454	0	0	11.7945
69.748	0	0	11.8176
69.7725	0	0	11.8406
69.7997	0	0	11.8636
69.8106	0	0	11.9097
69.8775	0	0	11.9097
69.9453	0	0	11.9327
69.9489	0	0	11.9788
69.9772	0	0	12.0249
70.0277	0	0	12.071
70.3159	0	0	12.071
70.3483	0	0	12.071
70.3836	0	0	12.094
70.4018	0	0	12.117
70.4104	0	0	12.1401
70.4278	0	0	12.1401
70.5669	0	0	12.1401
70.5865	0	0	12.1401
70.6372	0	0	12.1401
70.8147	0	0	12.1631
70.8413	0	0	12.1861
70.8629	0	0	12.2092
70.9124	0	0	12.2322
70.9265	0	0	12.2783
70.9429	0	0	12.2783
71.0064	0	0	12.2783
71.0746	0	0	12.3013
71.0874	0	0	12.3243
71.1625	0	0	12.3474
71.215	0	0	12.3704
71.2767	0	0	12.3704
71.3027	0	0	12.3704
71.3198	0	0	12.3704
71.3271	0	0	12.3704
71.4212	0	0	12.3704
71.4332	0	0	12.3704
71.54	0	0	12.3704
71.5683	0	0	12.3935
71.5911	0	0	12.4165
71.6093	0	0	12.4165
71.6902	0	0	12.4165
71.719	0	0	12.4165
71.8285	0	0	12.4626
71.8805	0	0	12.4626
71.9287	0	0	12.4626
71.9354	0	0	12.5086
72.153	0	0	12.5317
72.4445	0	0	12.5317
72.4515	0	0	12.5317
72.4773	0	0	12.5317
72.4867	0	0	12.5317
72.4876	0	0	12.5317
72.4991	0	0	12.5547
72.5388	0	0	12.6008
72.547	0	0	12.6008
72.6012	0	0	12.6469
72.663	0	0	12.6699
72.7114	0	0	12.6699
72.7778	0	0	12.6929
72.8303	0	0	12.739
72.872	0	0	12.762
72.9067	0	0	12.7851
73.0336	0	0	12.8081
73.1686	0	0	12.8081
73.3978	0	0	12.8081
73.5197	0	0	12.8311
73.5334	0	0	12.8542
73.6519	0	0	12.9003
73.7562	0	0	12.9233
74.0161	0	0	12.9463
74.0337	0	0	12.9463
74.0626	0	0	12.9463
74.0677	0	0	12.9694
74.3392	0	0	12.9694
74.3442	0	0	12.9924
74.4272	0	0	12.9924
74.4773	0	0	13.0385
74.6008	0	0	13.0845
74.6189	0	0	13.0845
74.6814	0	0	13.1306
74.7381	0	0	13.1767
74.8672	0	0	13.1997
74.9035	0	0	13.2458
75.0339	0	0	13.2919
75.1582	0	0	13.3149
75.2059	0	0	13.361
75.2188	0	0	13.407
75.3012	0	0	13.407
75.3466	0	0	13.4531
75.358	0	0	13.4531
75.3712	0	0	13.4531
75.4079	0	0	13.4762
75.4368	0	0	13.4762
75.6136	0	0	13.4992
75.6628	0	0	13.5222
75.7059	0	0	13.5222
75.7457	0	0	13.5683
75.7663	0	0	13.5913
75.7744	0	0	13.5913
75.8448	0	0	13.5913
76.0378	0	0	13.6144
76.0428	0	0	13.6144
76.103	0	0	13.6374
76.1545	0	0	13.6604
76.1621	0	0	13.6835
76.2379	0	0	13.7065
76.385	0	0	13.7296
76.406	0	0	13.7526
76.4168	0	0	13.7526
76.4378	0	0	13.7756
76.4892	0	0	13.7987
76.5582	0	0	13.7987
76.5956	0	0	13.8217
76.6646	0	0	13.8447
76.8379	0	0	13.8447
76.9204	0	0	13.8678
76.99	0	0	13.8678
77.1056	0	0	13.8678
77.1549	0	0	13.8908
77.2058	0	0	13.9369
77.4538	0	0	13.983
77.4704	0	0	13.983
77.4772	0	0	14.029
77.7738	0	0	14.029
77.99	0	0	14.0521
78.0032	0	0	14.0751
78.0264	0	0	14.1212
78.064	0	0	14.1442
78.0687	0	0	14.1442
78.1069	0	0	14.1442
78.1149	0	0	14.1672
78.1293	0	0	14.1672
78.1307	0	0	14.1672
78.2982	0	0	14.1903
78.3098	0	0	14.2133
78.5124	0	0	14.2364
78.6708	0	0	14.2824
78.6838	0	0	14.2824
78.8538	0	0	14.3055
78.893	0	0	14.3055
78.9742	0	0	14.3515
79.0135	0	0	14.3746
79.0373	0	0	14.3746
79.1972	0	0	14.3976
79.199	0	0	14.3976
79.2686	0	0	14.3976
79.2936	0	0	14.4206
79.3441	0	0	14.4437
79.3773	0	0	14.4897
79.4847	0	0	14.5128
79.4849	0	0	14.5589
79.5275	0	0	14.5589
79.5292	0	0	14.5589
79.7241	0	0	14.5819
79.808	0	0	14.5819
79.8375	0	0	14.628
79.8902	0	0	14.651
79.8944	0	0	14.674
80.0419	0	0	14.7201
80.0876	0	0	14.7201
80.1106	0	0	14.7201
80.2329	0	0	14.7431
80.3986	0	0	14.7431
80.4391	0	0	14.7662
80.5169	0	0	14.7662
80.5527	0	0	14.7892
80.6356	0	0	14.7892
80.8784	0	0	14.8123
80.9627	0	0	14.8583
81.1206	0	0	14.8814
81.1228	0	0	14.9044
81.2271	0	0	14.9044
81.4361	0	0	14.9274
81.6203	0	0	14.9274
81.8407	0	0	14.9274
81.8457	0	0	14.9505
81.8894	0	0	14.9505
81.9531	0	0	14.9505
81.9603	0	0	14.9505
82.0323	0	0	14.9735
82.1418	0	0	15.0196
82.157	0	0	15.0196
82.1755	0	0	15.0426
82.1891	0	0	15.0887
82.2823	0	0	15.0887
82.4226	0	0	15.1117
82.4333	0	0	15.1348
82.481	0	0	15.1578
82.4908	0	0	15.1808
82.5709	0	0	15.1808
82.6545	0	0	15.1808
82.774	0	0	15.1808
82.8707	0	0	15.2039
82.9009	0	0	15.2039
82.9298	0	0	15.2269
83.154	0	0	15.2269
83.1796	0	0	15.2499
83.2562	0	0	15.2499
83.3014	0	0	15.2499
83.3314	0	0	15.273
83.378	0	0	15.273
83.4141	0	0	15.3191
83.6034	0	0	15.3191
83.624	0	0	15.3651
83.6472	0	0	15.3882
83.6954	0	0	15.4112
83.8924	0	0	15.4342
84.0498	0	0	15.4573
84.0536	0	0	15.4573
84.1044	0	0	15.4803
84.2196	0	0	15.5033
84.2315	0	0	15.5033
84.2999	0	0	15.5264
84.3075	0	0	15.5494
84.3516	0	0	15.5494
84.5739	0	0	15.5724
84.5998	0	0	15.5724
84.6513	0	0	15.5955
84.659	0	0	15.6416
84.7305	0	0	15.6416
84.7388	0	0	15.6646
84.8269	0	0	15.6876
84.839	0	0	15.6876
84.8984	0	0	15.7107
84.9966	0	0	15.7337
85.0064	0	0	15.7337
85.2788	0	0	15.7567
85.3061	0	0	15.7798
85.327	0	0	15.7798
85.3684	0	0	15.7798
85.3719	0	0	15.8028
85.3753	0	0	15.8258
85.3923	0	0	15.8489
85.4155	0	0	15.8719
85.4791	0	0	15.8719
85.4908	0	0	15.895
85.494	0	0	15.918
85.6187	0	0	15.941
85.6482	0	0	15.9641
85.6723	0	0	16.0101
85.8404	0	0	16.0332
85.9443	0	0	16.0332
85.9561	0	0	16.0332
86.0953	0	0	16.0792
86.1395	0	0	16.1023
86.2177	0	0	16.1253
86.3354	0	0	16.1484
86.5431	0	0	16.1714
86.5933	0	0	16.1944
86.6849	0	0	16.2175
86.7831	0	0	16.2405
86.8409	0	0	16.2635
86.9953	0	0	16.2866
87.0064	0	0	16.3096
87.0748	0	0	16.3096
87.0988	0	0	16.3326
87.1656	0	0	16.3557
87.1674	0	0	16.3557
87.213	0	0	16.3787
87.347	0	0	16.3787
87.3632	0	0	16.4018
87.3822	0	0	16.4478
87.3852	0	0	16.4709
87.4482	0	0	16.4709
87.6069	0	0	16.4939
87.739	0	0	16.54
87.7644	0	0	16.54
87.8566	0	0	16.563
87.877	0	0	16.586
87.9603	0	0	16.6091
87.9947	0	0	16.6321
88.2296	0	0	16.6551
88.2344	0	0	16.6782
88.2402	0	0	16.7012
88.3097	0	0	16.7243
88.3345	0	0	16.7473
88.3614	0	0	16.7934
88.4556	0	0	16.8394
88.4882	0	0	16.8855
88.4929	0	0	16.8855
88.5191	0	0	16.8855
88.6056	0	0	16.9085
88.6208	0	0	16.9316
88.6909	0	0	16.9316
88.7006	0	0	16.9546
88.7049	0	0	16.9546
88.7435	0	0	16.9777
89.0015	0	0	17.0007
89.1235	0	0	17.0237
89.3624	0	0	17.0468
89.5362	0	0	17.0698
89.6084	0	0	17.0928
89.6131	0	0	17.0928
89.6263	0	0	17.0928
89.7231	0	0	17.0928
89.8017	0	0	17.1159
89.8418	0	0	17.1159
89.924	0	0	17.1619
89.9632	0	0	17.185
90.0452	0	0	17.185
90.0822	0	0	17.185
90.0932	0	0	17.208
90.1504	0	0	17.2311
90.341	0	0	17.2311
90.4236	0	0	17.2771
90.4299	0	0	17.2771
90.4494	0	0	17.3002
90.4631	0	0	17.3462
90.6397	0	0	17.3693
90.8427	0	0	17.3923
90.8558	0	0	17.4153
90.9254	0	0	17.4384
91.1162	0	0	17.4845
91.3515	0	0	17.5075
91.4066	0	0	17.5075
91.4696	0	0	17.5075
91.5536	0	0	17.5536
91.5619	0	0	17.5766
91.5814	0	0	17.5996
91.9675	0	0	17.6227
92.1157	0	0	17.6687
92.1163	0	0	17.6918
92.1625	0	0	17.7378
92.2311	0	0	17.7609
92.3074	0	0	17.807
92.3839	0	0	17.807
92.4155	0	0	17.807
92.6559	0	0	17.807
92.668	0	0	17.83
92.8146	0	0	17.8761
92.826	0	0	17.8991
92.8434	0	0	17.9221
92.9529	0	0	17.9221
92.9715	0	0	17.9221
93.0345	0	0	17.9221
93.1582	0	0	17.9452
93.2106	0	0	17.9452
93.3613	0	0	17.9682
93.4307	0	0	18.0143
93.5359	0	0	18.0373
93.664	0	0	18.0604
93.7759	0	0	18.0834
93.8676	0	0	18.0834
94.0472	0	0	18.1064
94.1695	0	0	18.1064
94.2937	0	0	18.1064
94.2996	0	0	18.1295
94.306	0	0	18.1295
94.3632	0	0	18.1295
94.4511	0	0	18.1755
94.5012	0	0	18.1986
94.5868	0	0	18.2446
94.7586	0	0	18.2677
94.7623	0	0	18.2907
94.7889	0	0	18.2907
94.807	0	0	18.3368
94.8316	0	0	18.3598
94.9543	0	0	18.3829
95.1088	0	0	18.4059
95.1103	0	0	18.4059
95.1152	0	0	18.4059
95.2769	0	0	18.4289
95.3619	0	0	18.4289
95.5642	0	0	18.452
95.6289	0	0	18.498
95.7108	0	0	18.5211
95.7228	0	0	18.5211
95.8544	0	0	18.5441
95.9421	0	0	18.5672
95.9522	0	0	18.6132
95.9693	0	0	18.6593
95.9742	0	0	18.6823
96.0018	0	0	18.7284
96.0498	0	0	18.7514
96.1019	0	0	18.7514
96.1181	0	0	18.7745
96.1486	0	0	18.7975
96.3276	0	0	18.8205
96.4445	0	0	18.8436
96.6029	0	0	18.8666
96.6165	0	0	18.8897
96.9512	0	0	18.9357
96.9977	0	0	18.9357
97.1272	0	0	18.9357
97.1313	0	0	18.9588
97.1735	0	0	18.9818
97.2852	0	0	19.0048
97.4221	0	0	19.0509
97.5344	0	0	19.0509
97.5872	0	0	19.0739
97.8704	0	0	19.097
97.9995	0	0	19.12
98.2126	0	0	19.12
98.2554	0	0	19.1431
98.3123	0	0	19.1431
98.3758	0	0	19.1661
98.541	0	0	19.1891
98.5555	0	0	19.2352
98.5772	0	0	19.2582
98.6242	0	0	19.2813
98.6924	0	0	19.3273
98.9043	0	0	19.3273
99.0807	0	0	19.3273
99.1241	0	0	19.3273
99.2563	0	0	19.3504
99.2871	0	0	19.3504
99.2891	0	0	19.3504
99.3946	0	0	19.3734
99.4085	0	0	19.3965
99.4195	0	0	19.3965
99.4253	0	0	19.4195
99.4282	0	0	19.4425
99.5545	0	0	19.4656
99.5915	0	0	19.4886
99.5933	0	0	19.4886
99.6521	0	0	19.5116
99.7058	0	0	19.5347
99.73	0	0	19.5577
99.835	0	0	19.6038
99.8452	0	0	19.6268
99.9097	0	0	19.6268
99.94	0	0	19.6499
99.9776	0	0	19.6729
99.9927	0	0	19.6959
100.005	0	0	19.6959
100.172	0	0	19.719
100.187	0	0	19.765
100.223	0	0	19.8111
100.241	0	0	19.8341
100.277	0	0	19.8572
100.328	0	0	19.8802
100.334	0	0	19.9263
100.36	0	0	19.9724
100.427	0	0	19.9724
100.518	0	0	19.9954
100.567	0	0	20.0184
100.61	0	0	20.0645
100.618	0	0	20.0645
100.686	0	0	20.0875
100.752	0	0	20.1336
100.797	0	0	20.1566
100.861	0	0	20.1797
100.942	0	0	20.2027
100.989	0	0	20.2488
101.066	0	0	20.2949
101.094	0	0	20.3179
101.107	0	0	20.3179
101.144	0	0	20.364
101.201	0	0	20.364
101.236	0	0	20.364
101.278	0	0	20.387
101.401	0	0	20.387
101.436	0	0	20.387
101.451	0	0	20.41
101.481	0	0	20.4331
101.549	0	0	20.4792
101.561	0	0	20.5022
101.609	0	0	20.5252
101.702	0	0	20.5252
101.719	0	0	20.5483
101.988	0	0	20.5713
102.136	0	0	20.5943
102.466	0	0	20.5943
102.74	0	0	20.6174
102.845	0	0	20.6404
103.085	0	0	20.6634
103.32	0	0	20.6865
103.329	0	0	20.7326
103.46	0	0	20.7556
103.626	0	0	20.7786
103.646	0	0	20.8247
103.754	0	0	20.8247
103.868	0	0	20.8247
103.881	0	0	20.8477
104.046	0	0	20.8708
104.133	0	0	20.9168
104.17	0	0	20.9399
104.178	0	0	20.9629
104.224	0	0	20.9629
104.351	0	0	20.9629
104.509	0	0	21.009
104.521	0	0	21.032
104.523	0	0	21.032
104.583	0	0	21.032
104.646	0	0	21.0551
104.717	0	0	21.1011
104.747	0	0	21.1011
104.769	0	0	21.1011
104.891	0	0	21.1472
104.919	0	0	21.1702
104.943	0	0	21.1933
104.984	0	0	21.2163
105.048	0	0	21.2393
105.109	0	0	21.2624
105.347	0	0	21.2624
105.419	0	0	21.3085
105.594	0	0	21.3315
105.657	0	0	21.3545
105.686	0	0	21.3545
105.794	0	0	21.3545
105.81	0	0	21.3776
105.816	0	0	21.4006
105.912	0	0	21.4006
105.99	0	0	21.4467
106.127	0	0	21.4467
106.291	0	0	21.4927
106.308	0	0	21.5388
106.523	0	0	21.5849
106.68	0	0	21.631
106.691	0	0	21.677
106.694	0	0	21.7231
106.774	0	0	21.7231
106.796	0	0	21.7231
106.801	0	0	21.7461
106.812	0	0	21.7922
106.843	0	0	21.8383
106.898	0	0	21.8613
106.909	0	0	21.8613
106.913	0	0	21.8844
106.959	0	0	21.9074
107.004	0	0	21.9074
107.015	0	0	21.9304
107.018	0	0	21.9765
107.099	0	0	21.9995
107.136	0	0	22.0456
107.151	0	0	22.0917
107.182	0	0	22.1378
107.204	0	0	22.1838
107.229	0	0	22.1838
107.316	0	0	22.1838
107.401	0	0	22.1838
107.425	0	0	22.1838
107.531	0	0	22.1838
107.614	0	0	22.2299
107.96	0	0	22.2299
108.1	0	0	22.276
108.224	0	0	22.299
108.227	0	0	22.322
108.317	0	0	22.3681
108.339	0	0	22.3912
108.373	0	0	22.4142
108.419	0	0	22.4372
108.454	0	0	22.4603
108.468	0	0	22.4833
108.512	0	0	22.5294
108.512	0	0	22.5294
108.513	0	0	22.5524
108.599	0	0	22.5754
108.645	0	0	22.5985
108.808	0	0	22.6446
108.928	0	0	22.6906
108.93	0	0	22.7137
109.02	0	0	22.7137
109.113	0	0	22.7367
109.123	0	0	22.7597
109.131	0	0	22.7828
109.158	0	0	22.8288
109.181	0	0	22.8749
109.317	0	0	22.921
109.354	0	0	22.921
109.426	0	0	22.9671
109.562	0	0	22.9671
109.627	0	0	22.9901
109.661	0	0	23.0131
109.677	0	0	23.0592
109.759	0	0	23.0822
109.885	0	0	23.1053
110.034	0	0	23.1283
110.1	0	0	23.1513
110.1	0	0	23.1744
110.141	0	0	23.1974
110.165	0	0	23.2205
110.215	0	0	23.2665
110.241	0	0	23.2896
110.416	0	0	23.2896
110.629	0	0	23.2896
110.64	0	0	23.3356
110.665	0	0	23.3817
110.697	0	0	23.3817
110.773	0	0	23.4047
110.79	0	0	23.4278
110.832	0	0	23.4739
110.958	0	0	23.4739
110.98	0	0	23.4969
111.198	0	0	23.5199
111.212	0	0	23.543
111.226	0	0	23.589
111.314	0	0	23.6121
111.326	0	0	23.6121
111.537	0	0	23.6351
111.765	0	0	23.6581
111.771	0	0	23.7042
112.041	0	0	23.7273
112.068	0	0	23.7273
112.129	0	0	23.7273
112.134	0	0	23.7733
112.204	0	0	23.8194
112.637	0	0	23.8424
112.703	0	0	23.8655
112.763	0	0	23.8885
112.844	0	0	23.9346
112.989	0	0	23.9576
113.007	0	0	24.0037
113.106	0	0	24.0037
113.111	0	0	24.0267
113.123	0	0	24.0498
113.154	0	0	24.0498
113.205	0	0	24.0498
113.266	0	0	24.0728
113.311	0	0	24.0958
113.312	0	0	24.1189
113.36	0	0	24.1419
113.436	0	0	24.1419
113.438	0	0	24.1649
113.454	0	0	24.188
113.588	0	0	24.234
113.681	0	0	24.2801
113.867	0	0	24.2801
113.953	0	0	24.3032
113.954	0	0	24.3262
114.108	0	0	24.3492
114.18	0	0	24.3953
114.25	0	0	24.4183
114.436	0	0	24.4183
114.56	0	0	24.4414
114.583	0	0	24.4874
114.594	0	0	24.5105
114.704	0	0	24.5105
114.747	0	0	24.5105
114.779	0	0	24.5105
114.842	0	0	24.5566
114.867	0	0	24.6026
115.006	0	0	24.6026
115.108	0	0	24.6257
115.161	0	0	24.6257
115.26	0	0	24.6257
115.339	0	0	24.6257
115.468	0	0	24.6487
115.559	0	0	24.6487
115.645	0	0	24.6717
115.77	0	0	24.6717
115.888	0	0	24.6948
115.929	0	0	24.7178
115.941	0	0	24.7408
116.102	0	0	24.7639
116.267	0	0	24.7869
116.355	0	0	24.81
116.383	0	0	24.833
116.468	0	0	24.833
116.501	0	0	24.856
116.511	0	0	24.8791
116.775	0	0	24.9021
116.813	0	0	24.9251
116.828	0	0	24.9482
116.904	0	0	24.9712
117.015	0	0	24.9942
117.098	0	0	25.0173
117.194	0	0	25.0633
117.278	0	0	25.0633
117.282	0	0	25.1094
117.579	0	0	25.1325
117.652	0	0	25.1785
117.661	0	0	25.2016
117.825	0	0	25.2246
117.904	0	0	25.2246
118.15	0	0	25.2476
118.267	0	0	25.2707
118.385	0	0	25.2937
118.475	0	0	25.3398
118.484	0	0	25.3628
118.497	0	0	25.3859
118.606	0	0	25.3859
118.606	0	0	25.4089
118.691	0	0	25.455
118.784	0	0	25.478
118.843	0	0	25.501
118.867	0	0	25.5241
119.089	0	0	25.5701
119.106	0	0	25.6162
119.155	0	0	25.6393
119.205	0	0	25.6623
119.243	0	0	25.6623
119.379	0	0	25.6623
119.39	0	0	25.6623
119.413	0	0	25.6853
119.43	0	0	25.7084
119.626	0	0	25.7084
119.65	0	0	25.7314
119.741	0	0	25.7544
119.753	0	0	25.7544
119.881	0	0	25.7775
119.911	0	0	25.8235
120.035	0	0	25.8696
120.053	0	0	25.8696
120.108	0	0	25.8696
120.139	0	0	25.8696
120.188	0	0	25.9157
120.338	0	0	25.9387
120.461	0	0	25.9848
120.534	0	0	26.0078
120.621	0	0	26.0309
120.644	0	0	26.0539
120.712	0	0	26.0769
120.741	0	0	26.123
120.752	0	0	26.146
120.814	0	0	26.1691
120.892	0	0	26.1691
120.928	0	0	26.2152
120.934	0	0	26.2382
121	0	0	26.2843
121.002	0	0	26.2843
121.035	0	0	26.3073
121.06	0	0	26.3303
121.15	0	0	26.3534
121.197	0	0	26.3994
121.495	0	0	26.4225
121.498	0	0	26.4225
121.569	0	0	26.4455
121.611	0	0	26.4686
121.618	0	0	26.4916
121.772	0	0	26.5146
121.98	0	0	26.5377
122.126	0	0	26.5607
122.133	0	0	26.5607
122.233	0	0	26.5607
122.235	0	0	26.5607
122.305	0	0	26.5837
122.318	0	0	26.6068
122.381	0	0	26.6298
122.418	0	0	26.6298
122.476	0	0	26.6759
122.55	0	0	26.6759
122.684	0	0	26.6989
122.689	0	0	26.6989
122.862	0	0	26.722
123	0	0	26.745
123.084	0	0	26.768
123.206	0	0	26.7911
123.229	0	0	26.8371
123.523	0	0	26.8832
123.732	0	0	26.9062
123.916	0	0	26.9062
124.115	0	0	26.9293
124.116	0	0	26.9754
124.118	0	0	26.9754
124.186	0	0	26.9754
124.237	0	0	26.9754
124.328	0	0	26.9984
124.383	0	0	27.0445
124.418	0	0	27.0675
124.528	0	0	27.1136
124.716	0	0	27.1596
124.957	0	0	27.1827
125.019	0	0	27.2287
125.115	0	0	27.2518
125.122	0	0	27.2518
125.223	0	0	27.2518
125.249	0	0	27.2748
125.259	0	0	27.2979
125.348	0	0	27.2979
125.421	0	0	27.2979
125.467	0	0	27.3209
125.666	0	0	27.367
125.683	0	0	27.39
125.757	0	0	27.413
126.188	0	0	27.413
126.192	0	0	27.4361
126.2	0	0	27.4361
126.356	0	0	27.4591
126.37	0	0	27.4821
126.402	0	0	27.4821
126.509	0	0	27.4821
126.511	0	0	27.4821
126.513	0	0	27.4821
126.617	0	0	27.5052
126.635	0	0	27.5282
126.707	0	0	27.5743
126.862	0	0	27.5973
126.878	0	0	27.6204
127.035	0	0	27.6434
127.079	0	0	27.6434
127.199	0	0	27.6664
127.301	0	0	27.6895
127.313	0	0	27.7125
127.344	0	0	27.7355
127.385	0	0	27.7586
127.494	0	0	27.7816
127.505	0	0	27.8277
127.558	0	0	27.8277
127.734	0	0	27.8507
128.041	0	0	27.8738
128.191	0	0	27.8738
128.213	0	0	27.8738
128.219	0	0	27.8968
128.256	0	0	27.8968
128.372	0	0	27.9429
128.376	0	0	27.9429
128.483	0	0	27.9889
128.786	0	0	28.012
128.818	0	0	28.035
129.242	0	0	28.0581
129.259	0	0	28.0811
129.308	0	0	28.1041
129.334	0	0	28.1041
129.343	0	0	28.1502
129.505	0	0	28.1732
129.832	0	0	28.1732
129.905	0	0	28.2193
129.949	0	0	28.2193
129.969	0	0	28.2423
130.046	0	0	28.2884
130.245	0	0	28.3345
130.275	0	0	28.3575
130.342	0	0	28.3806
130.391	0	0	28.3806
130.446	0	0	28.3806
130.478	0	0	28.3806
130.558	0	0	28.4036
130.585	0	0	28.4266
130.676	0	0	28.4497
130.783	0	0	28.4957
130.95	0	0	28.5188
131.173	0	0	28.5188
131.175	0	0	28.5418
131.195	0	0	28.5648
131.216	0	0	28.6109
131.405	0	0	28.634
131.465	0	0	28.68
131.586	0	0	28.7261
131.68	0	0	28.7491
131.681	0	0	28.7722
132.09	0	0	28.8182
132.103	0	0	28.8643
132.116	0	0	28.9104
132.612	0	0	28.9565
132.659	0	0	28.9795
132.675	0	0	29.0025
132.785	0	0	29.0256
132.799	0	0	29.0486
132.941	0	0	29.0947
132.959	0	0	29.0947
133.023	0	0	29.1177
133.026	0	0	29.1408
133.047	0	0	29.1868
133.172	0	0	29.1868
133.254	0	0	29.2099
133.292	0	0	29.2329
133.304	0	0	29.2329
133.388	0	0	29.279
133.424	0	0	29.325
133.629	0	0	29.3481
133.641	0	0	29.3711
133.673	0	0	29.3941
133.699	0	0	29.4172
133.736	0	0	29.4402
133.777	0	0	29.4863
133.803	0	0	29.5093
133.842	0	0	29.5324
133.859	0	0	29.5784
134.198	0	0	29.6015
134.284	0	0	29.6015
134.3	0	0	29.6245
134.334	0	0	29.6475
134.391	0	0	29.6936
134.521	0	0	29.7167
134.701	0	0	29.7397
134.823	0	0	29.7397
134.825	0	0	29.7858
135.021	0	0	29.8088
135.171	0	0	29.8549
135.25	0	0	29.8549
135.286	0	0	29.8779
135.3	0	0	29.9009
135.418	0	0	29.924
135.469	0	0	29.947
135.47	0	0	29.947
135.561	0	0	29.9931
135.67	0	0	30.0392
135.84	0	0	30.0622
135.959	0	0	30.0852
135.973	0	0	30.1083
135.974	0	0	30.1083
136.032	0	0	30.1313
136.037	0	0	30.1543
136.043	0	0	30.1774
136.272	0	0	30.1774
136.343	0	0	30.2004
136.348	0	0	30.2465
136.488	0	0	30.2695
136.703	0	0	30.3156
136.725	0	0	30.3617
136.751	0	0	30.3847
136.798	0	0	30.4308
136.848	0	0	30.4538
137.049	0	0	30.4538
137.103	0	0	30.4999
137.123	0	0	30.546
137.158	0	0	30.569
137.197	0	0	30.592
137.223	0	0	30.6151
137.397	0	0	30.6611
137.43	0	0	30.6842
137.472	0	0	30.7072
137.762	0	0	30.7072
137.767	0	0	30.7072
137.874	0	0	30.7302
137.935	0	0	30.7533
137.938	0	0	30.7533
138.174	0	0	30.7994
138.277	0	0	30.8454
138.397	0	0	30.8685
138.423	0	0	30.8915
138.578	0	0	30.9145
138.59	0	0	30.9376
138.848	0	0	30.9606
139.028	0	0	30.9606
139.061	0	0	31.0067
139.066	0	0	31.0528
139.319	0	0	31.0758
139.327	0	0	31.0988
139.371	0	0	31.0988
139.396	0	0	31.1219
139.568	0	0	31.1449
139.575	0	0	31.1679
139.946	0	0	31.191
139.969	0	0	31.214
140.014	0	0	31.2601
140.336	0	0	31.2601
140.414	0	0	31.2601
140.574	0	0	31.2831
140.623	0	0	31.3062
140.852	0	0	31.3522
140.917	0	0	31.3983
140.937	0	0	31.4444
141.045	0	0	31.4674
141.061	0	0	31.5135
141.063	0	0	31.5135
141.138	0	0	31.5365
141.199	0	0	31.5595
141.429	0	0	31.5595
141.469	0	0	31.6056
141.548	0	0	31.6517
141.598	0	0	31.6747
141.631	0	0	31.6978
141.636	0	0	31.7208
141.647	0	0	31.7669
141.799	0	0	31.7899
141.862	0	0	31.836
141.893	0	0	31.859
141.937	0	0	31.8821
142.114	0	0	31.9051
142.127	0	0	31.9512
142.312	0	0	31.9972
142.395	0	0	32.0203
142.678	0	0	32.0663
142.752	0	0	32.1124
142.787	0	0	32.1124
142.823	0	0	32.1585
142.942	0	0	32.1585
142.978	0	0	32.1815
143.176	0	0	32.2046
143.192	0	0	32.2276
143.251	0	0	32.2506
143.302	0	0	32.2737
143.488	0	0	32.3197
144.004	0	0	32.3658
144.026	0	0	32.3658
144.04	0	0	32.3889
144.048	0	0	32.4119
144.053	0	0	32.458
144.246	0	0	32.481
144.295	0	0	32.504
144.48	0	0	32.5271
144.54	0	0	32.5501
144.725	0	0	32.5731
144.794	0	0	32.5962
145.199	0	0	32.5962
145.276	0	0	32.6422
145.343	0	0	32.6883
145.469	0	0	32.6883
145.484	0	0	32.7114
145.515	0	0	32.7344
145.541	0	0	32.7805
145.756	0	0	32.8035
145.788	0	0	32.8496
145.894	0	0	32.8956
145.942	0	0	32.8956
146.067	0	0	32.9417
146.103	0	0	32.9648
146.231	0	0	33.0108
146.268	0	0	33.0339
146.39	0	0	33.0569
146.441	0	0	33.103
146.476	0	0	33.126
146.557	0	0	33.1721
146.618	0	0	33.2182
146.9	0	0	33.2642
146.909	0	0	33.2642
147.286	0	0	33.2873
147.378	0	0	33.3103
147.439	0	0	33.3333
147.493	0	0	33.3333
147.59	0	0	33.3794
147.609	0	0	33.4024
147.719	0	0	33.4024
147.723	0	0	33.4255
147.751	0	0	33.4485
147.822	0	0	33.4946
147.879	0	0	33.5407
147.945	0	0	33.5407
147.994	0	0	33.5867
148.029	0	0	33.6098
148.203	0	0	33.6328
148.262	0	0	33.6558
148.263	0	0	33.7019
148.295	0	0	33.7019
148.38	0	0	33.748
148.382	0	0	33.7941
148.543	0	0	33.8171
148.73	0	0	33.8401
148.765	0	0	33.8401
148.863	0	0	33.8632
148.889	0	0	33.9092
148.983	0	0	33.9323
149.012	0	0	33.9553
149.02	0	0	33.9783
149.175	0	0	33.9783
149.242	0	0	33.9783
149.244	0	0	34.0014
149.464	0	0	34.0475
149.494	0	0	34.0705
149.548	0	0	34.0705
149.67	0	0	34.0935
149.7	0	0	34.1166
149.751	0	0	34.1396
149.824	0	0	34.1857
149.857	0	0	34.2087
150.027	0	0	34.2548
150.086	0	0	34.3009
150.184	0	0	34.3469
150.331	0	0	34.37
150.362	0	0	34.393
150.432	0	0	34.4391
150.542	0	0	34.4851
150.651	0	0	34.4851
150.717	0	0	34.5082
150.73	0	0	34.5082
150.77	0	0	34.5312
150.776	0	0	34.5543
150.779	0	0	34.5773
150.783	0	0	34.6003
150.829	0	0	34.6003
150.861	0	0	34.6464
150.865	0	0	34.6694
151.159	0	0	34.6925
151.342	0	0	34.7155
151.379	0	0	34.7616
151.408	0	0	34.7846
151.446	0	0	34.8307
151.717	0	0	34.8537
151.786	0	0	34.8537
151.91	0	0	34.8768
151.913	0	0	34.8998
152.054	0	0	34.9459
152.099	0	0	34.9919
152.271	0	0	35.015
152.302	0	0	35.061
152.452	0	0	35.0841
152.783	0	0	35.1071
152.84	0	0	35.1532
152.864	0	0	35.1993
152.914	0	0	35.2223
152.936	0	0	35.2453
152.961	0	0	35.2684
152.976	0	0	35.3144
153.1	0	0	35.3375
153.205	0	0	35.3605
153.214	0	0	35.4066
153.294	0	0	35.4066
153.593	0	0	35.4066
153.644	0	0	35.4066
153.929	0	0	35.4527
153.963	0	0	35.4987
154.104	0	0	35.4987
154.368	0	0	35.5218
154.396	0	0	35.5678
154.677	0	0	35.5678
154.737	0	0	35.6139
154.762	0	0	35.637
154.924	0	0	35.683
154.968	0	0	35.683
154.982	0	0	35.683
155.124	0	0	35.683
155.175	0	0	35.7291
155.189	0	0	35.7521
155.224	0	0	35.7521
155.313	0	0	35.7521
155.364	0	0	35.7521
155.412	0	0	35.7752
155.466	0	0	35.8212
155.496	0	0	35.8673
155.524	0	0	35.8903
155.532	0	0	35.9364
155.691	0	0	35.9595
155.706	0	0	35.9825
155.713	0	0	36.0055
155.724	0	0	36.0286
156.054	0	0	36.0286
156.135	0	0	36.0746
156.14	0	0	36.0977
156.356	0	0	36.1207
156.387	0	0	36.1437
156.557	0	0	36.1668
156.597	0	0	36.1668
156.627	0	0	36.2129
156.627	0	0	36.2359
156.686	0	0	36.2589
156.699	0	0	36.282
157.213	0	0	36.328
157.26	0	0	36.3741
157.523	0	0	36.3971
157.604	0	0	36.4202
157.778	0	0	36.4202
157.788	0	0	36.4202
157.849	0	0	36.4663
157.97	0	0	36.5123
158.023	0	0	36.5584
158.315	0	0	36.6045
158.38	0	0	36.6045
158.405	0	0	36.6505
158.446	0	0	36.6966
159.152	0	0	36.6966
159.164	0	0	36.7427
159.167	0	0	36.7657
159.174	0	0	36.7888
159.209	0	0	36.8348
159.228	0	0	36.8809
159.241	0	0	36.9039
159.385	0	0	36.927
159.521	0	0	36.973
159.663	0	0	36.9961
159.677	0	0	37.0191
159.774	0	0	37.0652
159.977	0	0	37.1113
160.057	0	0	37.1343
160.131	0	0	37.1573
160.256	0	0	37.1573
160.462	0	0	37.2034
160.462	0	0	37.2495
160.73	0	0	37.2725
160.76	0	0	37.3186
160.914	0	0	37.3416
160.922	0	0	37.3647
161.074	0	0	37.3877
161.21	0	0	37.4107
161.531	0	0	37.4568
161.701	0	0	37.4568
161.762	0	0	37.5029
161.811	0	0	37.549
161.873	0	0	37.595
161.878	0	0	37.6181
161.902	0	0	37.6641
161.925	0	0	37.6872
162.085	0	0	37.6872
162.227	0	0	37.7332
162.254	0	0	37.7563
162.273	0	0	37.7793
162.355	0	0	37.8023
162.501	0	0	37.8023
162.525	0	0	37.8484
162.709	0	0	37.8945
162.712	0	0	37.9406
162.885	0	0	37.9636
162.948	0	0	37.9866
163	0	0	38.0327
163.136	0	0	38.0557
163.183	0	0	38.0788
163.294	0	0	38.1249
163.296	0	0	38.1709
163.296	0	0	38.217
163.298	0	0	38.217
163.311	0	0	38.2631
163.32	0	0	38.2861
163.341	0	0	38.3091
163.353	0	0	38.3552
163.417	0	0	38.3552
163.469	0	0	38.3783
163.486	0	0	38.4013
163.573	0	0	38.4013
163.628	0	0	38.4243
163.779	0	0	38.4474
163.903	0	0	38.4474
163.914	0	0	38.4934
163.98	0	0	38.5395
164.041	0	0	38.5856
164.066	0	0	38.6086
164.105	0	0	38.6317
164.124	0	0	38.6317
164.193	0	0	38.6317
164.438	0	0	38.6317
164.607	0	0	38.6317
164.638	0	0	38.6777
164.893	0	0	38.7238
165.387	0	0	38.7238
165.568	0	0	38.7699
165.769	0	0	38.7929
165.957	0	0	38.8159
166.198	0	0	38.839
166.333	0	0	38.885
166.43	0	0	38.885
166.473	0	0	38.9081
166.573	0	0	38.9081
166.598	0	0	38.9311
166.736	0	0	38.9542
166.824	0	0	38.9542
166.866	0	0	39.0002
166.88	0	0	39.0463
166.932	0	0	39.0924
166.963	0	0	39.1154
167.024	0	0	39.1384
167.142	0	0	39.1615
167.443	0	0	39.1845
167.581	0	0	39.1845
167.717	0	0	39.2076
167.86	0	0	39.2306
167.932	0	0	39.2767
168	0	0	39.2997
168.285	0	0	39.3227
168.319	0	0	39.3458
168.433	0	0	39.3918
168.456	0	0	39.4379
168.567	0	0	39.461
168.727	0	0	39.484
168.911	0	0	39.5301
169.057	0	0	39.5301
169.106	0	0	39.5301
169.171	0	0	39.5531
169.34	0	0	39.5761
169.358	0	0	39.5761
169.589	0	0	39.6222
169.718	0	0	39.6222
169.789	0	0	39.6452
169.91	0	0	39.6452
169.917	0	0	39.6913
169.962	0	0	39.7374
170.062	0	0	39.7604
170.295	0	0	39.8065
170.465	0	0	39.8065
170.541	0	0	39.8295
170.786	0	0	39.8756
170.888	0	0	39.8986
170.975	0	0	39.9217
171.123	0	0	39.9447
171.169	0	0	39.9677
171.412	0	0	39.9908
171.506	0	0	40.0369
171.629	0	0	40.0599
171.649	0	0	40.0599
172.757	0	0	40.106
172.935	0	0	40.129
173.024	0	0	40.1751
173.187	0	0	40.1981
173.216	0	0	40.2442
173.217	0	0	40.2672
173.39	0	0	40.3133
173.411	0	0	40.3594
173.447	0	0	40.3824
173.53	0	0	40.4054
173.724	0	0	40.4515
173.75	0	0	40.4976
173.841	0	0	40.5437
174.088	0	0	40.5667
174.202	0	0	40.6128
174.215	0	0	40.6358
174.289	0	0	40.6358
174.304	0	0	40.6358
174.449	0	0	40.6819
174.493	0	0	40.7279
174.539	0	0	40.774
174.593	0	0	40.774
174.629	0	0	40.8201
174.689	0	0	40.8201
174.692	0	0	40.8431
174.829	0	0	40.8662
174.866	0	0	40.9122
174.872	0	0	40.9353
174.883	0	0	40.9583
175.1	0	0	40.9813
175.136	0	0	41.0274
175.207	0	0	41.0735
175.222	0	0	41.1196
175.303	0	0	41.1656
175.371	0	0	41.2117
175.38	0	0	41.2347
175.523	0	0	41.2578
175.77	0	0	41.3038
175.812	0	0	41.3269
175.843	0	0	41.3499
175.908	0	0	41.373
175.956	0	0	41.419
175.964	0	0	41.4421
176.363	0	0	41.4651
176.419	0	0	41.5112
176.569	0	0	41.5342
176.686	0	0	41.5342
176.688	0	0	41.5342
176.721	0	0	41.5803
177.203	0	0	41.6033
177.292	0	0	41.6494
177.593	0	0	41.6724
177.618	0	0	41.6955
177.65	0	0	41.7415
177.676	0	0	41.7876
177.859	0	0	41.8337
177.918	0	0	41.8337
178.111	0	0	41.8567
178.22	0	0	41.8798
178.285	0	0	41.9258
178.503	0	0	41.9258
178.505	0	0	41.9258
178.557	0	0	41.9489
178.984	0	0	41.9719
179.014	0	0	42.018
179.489	0	0	42.041
179.523	0	0	42.064
179.645	0	0	42.0871
179.671	0	0	42.1331
179.725	0	0	42.1331
179.835	0	0	42.1562
179.872	0	0	42.2023
180	0	0	42.2253
180.156	0	0	42.2483
180.263	0	0	42.2944
180.285	0	0	42.3174
180.648	0	0	42.3635
180.732	0	0	42.4096
180.856	0	0	42.4326
180.906	0	0	42.4787
181.015	0	0	42.5248
181.023	0	0	42.5708
181.206	0	0	42.6169
181.253	0	0	42.6169
181.281	0	0	42.663
181.42	0	0	42.686
181.544	0	0	42.686
181.589	0	0	42.7091
181.594	0	0	42.7551
181.657	0	0	42.8012
181.764	0	0	42.8473
181.858	0	0	42.8933
181.992	0	0	42.9164
182.051	0	0	42.9394
182.228	0	0	42.9394
182.237	0	0	42.9625
182.318	0	0	43.0085
182.394	0	0	43.0085
182.512	0	0	43.0316
182.522	0	0	43.0546
182.605	0	0	43.0776
182.997	0	0	43.1237
183.008	0	0	43.1467
183.049	0	0	43.1928
183.076	0	0	43.2158
183.085	0	0	43.2619
183.137	0	0	43.308
183.152	0	0	43.331
183.176	0	0	43.3541
183.185	0	0	43.4001
183.257	0	0	43.4001
183.339	0	0	43.4001
183.402	0	0	43.4462
183.481	0	0	43.4692
183.497	0	0	43.4923
183.594	0	0	43.5153
183.596	0	0	43.5384
183.897	0	0	43.5844
183.931	0	0	43.5844
184.013	0	0	43.6075
184.03	0	0	43.6305
184.095	0	0	43.6535
184.109	0	0	43.6996
184.175	0	0	43.7226
184.183	0	0	43.7687
184.196	0	0	43.7918
184.324	0	0	43.8148
184.675	0	0	43.8378
184.725	0	0	43.8839
184.831	0	0	43.9069
185.039	0	0	43.953
185.237	0	0	43.953
185.326	0	0	43.976
185.427	0	0	43.9991
185.445	0	0	44.0221
185.471	0	0	44.0682
185.485	0	0	44.0912
185.505	0	0	44.1143
185.576	0	0	44.1143
185.589	0	0	44.1373
185.592	0	0	44.1603
185.607	0	0	44.2064
185.653	0	0	44.2294
185.715	0	0	44.2525
185.772	0	0	44.2985
185.842	0	0	44.3446
185.884	0	0	44.3677
186.018	0	0	44.4137
186.029	0	0	44.4368
186.065	0	0	44.4598
186.086	0	0	44.4828
186.2	0	0	44.5289
186.243	0	0	44.575
186.341	0	0	44.598
186.368	0	0	44.6441
186.4	0	0	44.6671
186.421	0	0	44.6902
186.502	0	0	44.7362
186.584	0	0	44.7362
186.63	0	0	44.7823
186.699	0	0	44.8053
186.905	0	0	44.8514
186.982	0	0	44.8745
187.111	0	0	44.8975
187.221	0	0	44.9205
187.261	0	0	44.9436
187.262	0	0	44.9896
187.413	0	0	45.0357
187.423	0	0	45.0818
187.446	0	0	45.1048
187.675	0	0	45.1509
187.975	0	0	45.1739
188.063	0	0	45.22
188.095	0	0	45.243
188.158	0	0	45.2661
188.289	0	0	45.2661
188.401	0	0	45.2661
188.417	0	0	45.3121
188.502	0	0	45.3582
188.577	0	0	45.4043
188.705	0	0	45.4504
188.766	0	0	45.4964
188.806	0	0	45.5425
188.808	0	0	45.5425
188.952	0	0	45.5655
189.063	0	0	45.5655
189.073	0	0	45.6116
189.098	0	0	45.6577
189.156	0	0	45.6807
189.246	0	0	45.7268
189.579	0	0	45.7729
189.867	0	0	45.8189
189.976	0	0	45.842
189.977	0	0	45.865
190.02	0	0	45.888
190.206	0	0	45.9111
190.351	0	0	45.9341
190.564	0	0	45.9341
190.591	0	0	45.9572
190.602	0	0	45.9802
190.911	0	0	46.0032
190.945	0	0	46.0493
191.091	0	0	46.0723
191.103	0	0	46.0723
191.27	0	0	46.0954
191.359	0	0	46.1184
191.918	0	0	46.1414
191.983	0	0	46.1875
192.165	0	0	46.2336
192.26	0	0	46.2566
192.316	0	0	46.3027
192.606	0	0	46.3488
192.635	0	0	46.3948
192.659	0	0	46.4409
192.667	0	0	46.4639
192.689	0	0	46.51
192.965	0	0	46.5561
193.013	0	0	46.6022
193.222	0	0	46.6482
193.243	0	0	46.6713
193.358	0	0	46.6943
193.548	0	0	46.7173
193.6	0	0	46.7404
193.735	0	0	46.7634
193.789	0	0	46.8095
193.867	0	0	46.8095
193.952	0	0	46.8556
194.047	0	0	46.8556
194.11	0	0	46.8786
194.334	0	0	46.9016
194.513	0	0	46.9477
194.585	0	0	46.9707
194.904	0	0	46.9938
195.067	0	0	47.0168
195.125	0	0	47.0629
195.482	0	0	47.0859
195.544	0	0	47.109
195.545	0	0	47.155
195.597	0	0	47.1781
195.92	0	0	47.2011
195.936	0	0	47.2472
195.942	0	0	47.2933
196.087	0	0	47.3393
196.146	0	0	47.3854
196.37	0	0	47.4315
196.41	0	0	47.4775
196.426	0	0	47.5236
196.494	0	0	47.5466
196.611	0	0	47.5697
196.641	0	0	47.5927
196.859	0	0	47.6388
196.868	0	0	47.6849
196.895	0	0	47.7079
196.944	0	0	47.7309
196.954	0	0	47.754
197.135	0	0	47.8
197.188	0	0	47.8461
197.52	0	0	47.8922
197.784	0	0	47.9152
197.787	0	0	47.9383
197.894	0	0	47.9613
198.132	0	0	48.0074
198.165	0	0	48.0304
198.743	0	0	48.0765
198.961	0	0	48.1226
199.017	0	0	48.1226
199.068	0	0	48.1686
199.112	0	0	48.1917
199.136	0	0	48.2147
199.433	0	0	48.2608
199.505	0	0	48.2838
199.898	0	0	48.3299
199.924	0	0	48.3529
200.054	0	0	48.399
200.621	0	0	48.422
200.729	0	0	48.4451
200.77	0	0	48.4911
200.864	0	0	48.5142
200.984	0	0	48.5602
201.096	0	0	48.5833
201.102	0	0	48.6063
201.453	0	0	48.6293
201.454	0	0	48.6754
201.459	0	0	48.6985
201.63	0	0	48.7215
201.659	0	0	48.7215
201.767	0	0	48.7445
201.815	0	0	48.7906
201.872	0	0	48.8136
201.89	0	0	48.8597
202.069	0	0	48.8597
202.151	0	0	48.9058
202.361	0	0	48.9288
202.364	0	0	48.9519
202.431	0	0	48.9979
202.831	0	0	49.044
202.949	0	0	49.067
202.955	0	0	49.0901
203.112	0	0	49.1131
203.113	0	0	49.1592
203.446	0	0	49.1822
203.525	0	0	49.2283
203.577	0	0	49.2513
203.824	0	0	49.2974
203.86	0	0	49.3435
204.19	0	0	49.3665
204.395	0	0	49.4126
204.427	0	0	49.4126
204.614	0	0	49.4356
204.619	0	0	49.4817
204.674	0	0	49.5047
204.701	0	0	49.5278
204.717	0	0	49.5508
204.827	0	0	49.5969
205.032	0	0	49.6199
205.07	0	0	49.666
205.173	0	0	49.689
205.384	0	0	49.712
205.394	0	0	49.7581
205.656	0	0	49.8042
205.688	0	0	49.8503
205.729	0	0	49.8963
205.843	0	0	49.9424
205.878	0	0	49.9885
205.994	0	0	50.0346
206.151	0	0	50.0806
206.376	0	0	50.1267
206.405	0	0	50.1728
206.41	0	0	50.2188
206.499	0	0	50.2188
206.617	0	0	50.2419
206.658	0	0	50.2649
206.752	0	0	50.311
206.9	0	0	50.334
206.97	0	0	50.3801
207.038	0	0	50.4031
207.14	0	0	50.4492
207.539	0	0	50.4722
207.661	0	0	50.5183
207.763	0	0	50.5413
207.868	0	0	50.5874
207.889	0	0	50.5874
208.025	0	0	50.6105
208.129	0	0	50.6565
208.175	0	0	50.7026
208.275	0	0	50.7487
208.455	0	0	50.7717
208.579	0	0	50.8178
208.931	0	0	50.8408
209.191	0	0	50.8639
209.239	0	0	50.9099
209.363	0	0	50.933
209.42	0	0	50.979
209.437	0	0	51.0021
209.498	0	0	51.0251
209.649	0	0	51.0481
209.691	0	0	51.0712
209.795	0	0	51.0942
210.249	0	0	51.1403
210.403	0	0	51.1864
210.888	0	0	51.2324
210.989	0	0	51.2785
211.013	0	0	51.3015
211.113	0	0	51.3476
211.19	0	0	51.3937
211.377	0	0	51.4398
211.412	0	0	51.4858
211.491	0	0	51.5319
211.535	0	0	51.5319
211.71	0	0	51.5549
211.871	0	0	51.5549
211.943	0	0	51.578
211.981	0	0	51.624
212.31	0	0	51.6701
212.66	0	0	51.7162
212.764	0	0	51.7392
212.81	0	0	51.7853
212.859	0	0	51.8083
212.871	0	0	51.8083
212.881	0	0	51.8544
212.909	0	0	51.9005
212.96	0	0	51.9005
213.093	0	0	51.9005
213.152	0	0	51.9235
213.174	0	0	51.9466
213.64	0	0	51.9926
213.859	0	0	52.0387
214.023	0	0	52.0617
214.22	0	0	52.1078
214.352	0	0	52.1308
214.407	0	0	52.1539
214.526	0	0	52.2
214.591	0	0	52.223
214.617	0	0	52.2691
214.721	0	0	52.2921
214.775	0	0	52.2921
214.807	0	0	52.3151
214.845	0	0	52.3612
214.888	0	0	52.4073
214.922	0	0	52.4534
214.977	0	0	52.4764
215.06	0	0	52.5225
215.205	0	0	52.5685
215.266	0	0	52.6146
215.576	0	0	52.6607
215.698	0	0	52.6837
215.717	0	0	52.7298
215.736	0	0	52.7759
215.832	0	0	52.7989
216.197	0	0	52.8219
216.537	0	0	52.845
216.87	0	0	52.868
216.93	0	0	52.9141
217.183	0	0	52.9601
217.208	0	0	53.0062
217.26	0	0	53.0293
217.271	0	0	53.0753
217.307	0	0	53.0984
217.328	0	0	53.1214
217.342	0	0	53.1675
217.706	0	0	53.2135
217.723	0	0	53.2366
217.729	0	0	53.2827
217.77	0	0	53.2827
217.78	0	0	53.2827
217.886	0	0	53.3057
217.921	0	0	53.3518
218.146	0	0	53.3978
218.252	0	0	53.4439
218.254	0	0	53.4669
218.301	0	0	53.513
218.399	0	0	53.5591
218.568	0	0	53.6052
218.7	0	0	53.6512
218.826	0	0	53.6743
218.86	0	0	53.7203
219.068	0	0	53.7664
219.224	0	0	53.8125
219.44	0	0	53.8586
219.643	0	0	53.9046
219.655	0	0	53.9277
219.684	0	0	53.9507
219.699	0	0	53.9737
219.777	0	0	54.0198
219.951	0	0	54.0659
219.973	0	0	54.112
220.129	0	0	54.158
220.227	0	0	54.2041
220.332	0	0	54.2502
220.614	0	0	54.2962
220.945	0	0	54.3423
221.087	0	0	54.3884
221.345	0	0	54.4114
221.64	0	0	54.4345
221.735	0	0	54.4805
222.065	0	0	54.5036
222.123	0	0	54.5266
222.173	0	0	54.5496
222.319	0	0	54.5957
222.642	0	0	54.6418
222.652	0	0	54.6648
223.03	0	0	54.6879
223.144	0	0	54.7109
223.212	0	0	54.7339
223.418	0	0	54.78
223.582	0	0	54.8261
223.617	0	0	54.8721
223.751	0	0	54.8952
224.147	0	0	54.9413
224.397	0	0	54.9873
224.668	0	0	55.0334
224.703	0	0	55.0564
225.304	0	0	55.1025
225.43	0	0	55.1255
225.435	0	0	55.1716
225.615	0	0	55.2177
225.616	0	0	55.2638
225.628	0	0	55.3098
225.938	0	0	55.3559
225.938	0	0	55.3789
225.992	0	0	55.402
226.102	0	0	55.4481
226.13	0	0	55.4481
226.371	0	0	55.4711
226.525	0	0	55.5172
226.635	0	0	55.5402
226.708	0	0	55.5632
227.111	0	0	55.5863
227.131	0	0	55.6093
227.158	0	0	55.6554
227.161	0	0	55.7015
227.246	0	0	55.7245
227.281	0	0	55.7475
227.318	0	0	55.7706
227.506	0	0	55.8166
227.916	0	0	55.8627
227.95	0	0	55.9088
228.141	0	0	55.9548
228.276	0	0	56.0009
228.287	0	0	56.024
228.424	0	0	56.047
228.522	0	0	56.07
228.593	0	0	56.1161
228.729	0	0	56.1391
228.83	0	0	56.1852
229.607	0	0	56.2313
229.62	0	0	56.2543
230.184	0	0	56.3004
230.316	0	0	56.3004
230.387	0	0	56.3465
230.392	0	0	56.3695
230.394	0	0	56.4156
230.423	0	0	56.4616
230.523	0	0	56.4616
230.802	0	0	56.5077
230.91	0	0	56.5308
230.973	0	0	56.5538
231.117	0	0	56.5999
231.549	0	0	56.6459
231.585	0	0	56.692
231.613	0	0	56.7381
232.015	0	0	56.7611
232.098	0	0	56.7611
232.372	0	0	56.8072
232.435	0	0	56.8302
232.657	0	0	56.8533
232.78	0	0	56.8993
232.922	0	0	56.9224
233.18	0	0	56.9684
233.329	0	0	56.9915
233.478	0	0	57.0375
233.507	0	0	57.0375
233.524	0	0	57.0375
233.557	0	0	57.0606
233.866	0	0	57.0836
234.068	0	0	57.1297
234.24	0	0	57.1297
234.293	0	0	57.1758
234.539	0	0	57.2218
234.763	0	0	57.2449
235.15	0	0	57.2909
235.191	0	0	57.314
235.444	0	0	57.3601
235.538	0	0	57.4061
235.794	0	0	57.4292
235.836	0	0	57.4752
235.92	0	0	57.5213
235.974	0	0	57.5443
235.996	0	0	57.5904
236.04	0	0	57.5904
236.144	0	0	57.6135
236.512	0	0	57.6595
236.709	0	0	57.6826
236.75	0	0	57.7056
236.764	0	0	57.7517
236.926	0	0	57.7977
237.63	0	0	57.8438
238.053	0	0	57.8899
238.112	0	0	57.936
238.144	0	0	57.959
238.45	0	0	58.0051
238.465	0	0	58.0511
238.531	0	0	58.0972
239.215	0	0	58.1202
239.536	0	0	58.1202
239.792	0	0	58.1663
239.858	0	0	58.2124
239.982	0	0	58.2354
240.113	0	0	58.2354
240.183	0	0	58.2815
240.44	0	0	58.3276
240.629	0	0	58.3506
240.693	0	0	58.3967
240.862	0	0	58.4428
240.874	0	0	58.4888
240.984	0	0	58.5119
241.148	0	0	58.5349
241.64	0	0	58.5579
241.847	0	0	58.604
241.945	0	0	58.627
242.149	0	0	58.6501
242.332	0	0	58.6731
242.8	0	0	58.6962
242.831	0	0	58.7192
242.836	0	0	58.7653
242.878	0	0	58.7883
243.926	0	0	58.8344
244.176	0	0	58.8804
244.423	0	0	58.9265
244.492	0	0	58.9726
245.012	0	0	59.0187
245.284	0	0	59.0417
245.359	0	0	59.0878
245.489	0	0	59.0878
246.001	0	0	59.0878
246.215	0	0	59.1108
246.471	0	0	59.1569
246.511	0	0	59.2029
246.556	0	0	59.226
246.565	0	0	59.226
246.57	0	0	59.2721
246.602	0	0	59.3181
246.756	0	0	59.3642
246.798	0	0	59.4103
246.814	0	0	59.4563
246.912	0	0	59.5024
247.06	0	0	59.5485
247.359	0	0	59.5946
247.484	0	0	59.6176
247.637	0	0	59.6637
247.688	0	0	59.7097
248.022	0	0	59.7328
248.036	0	0	59.7789
248.138	0	0	59.8249
248.169	0	0	59.871
248.335	0	0	59.871
248.609	0	0	59.894
249.038	0	0	59.9401
249.328	0	0	59.9862
249.479	0	0	60.0092
249.937	0	0	60.0092
249.984	0	0	60.0323
249.992	0	0	60.0783
250.099	0	0	60.1244
250.117	0	0	60.1705
250.226	0	0	60.2165
250.379	0	0	60.2396
250.666	0	0	60.2626
250.865	0	0	60.3087
250.894	0	0	60.3548
250.897	0	0	60.4008
250.939	0	0	60.4469
251.075	0	0	60.493
251.208	0	0	60.539
251.925	0	0	60.5851
252.771	0	0	60.6312
252.909	0	0	60.6773
252.923	0	0	60.7003
252.951	0	0	60.7464
253.119	0	0	60.7694
253.129	0	0	60.8155
253.424	0	0	60.8616
253.515	0	0	60.9076
253.649	0	0	60.9537
253.73	0	0	60.9537
253.848	0	0	60.9998
254.176	0	0	61.0228
254.266	0	0	61.0689
254.269	0	0	61.0919
254.312	0	0	61.138
254.55	0	0	61.161
254.682	0	0	61.1841
254.948	0	0	61.2071
255.164	0	0	61.2301
255.265	0	0	61.2762
255.355	0	0	61.3223
255.41	0	0	61.3453
255.739	0	0	61.3683
256.008	0	0	61.4144
256.448	0	0	61.4605
256.516	0	0	61.5066
256.615	0	0	61.5526
256.759	0	0	61.5987
256.849	0	0	61.6448
256.937	0	0	61.6448
257.04	0	0	61.6678
257.093	0	0	61.6909
257.669	0	0	61.7369
257.918	0	0	61.783
257.97	0	0	61.8291
258.219	0	0	61.8751
258.259	0	0	61.9212
258.46	0	0	61.9673
258.646	0	0	61.9903
258.688	0	0	62.0364
259.205	0	0	62.0825
259.24	0	0	62.1285
259.511	0	0	62.1746
259.562	0	0	62.1977
259.597	0	0	62.2207
260.006	0	0	62.2668
260.3	0	0	62.2898
260.321	0	0	62.3359
260.571	0	0	62.3589
260.848	0	0	62.3819
261.002	0	0	62.428
261.2	0	0	62.4741
261.237	0	0	62.5202
261.826	0	0	62.5432
261.843	0	0	62.5662
262.132	0	0	62.6123
262.308	0	0	62.6353
262.351	0	0	62.6814
262.361	0	0	62.6814
262.39	0	0	62.7044
262.62	0	0	62.7505
263.575	0	0	62.7966
263.659	0	0	62.8427
263.683	0	0	62.8657
263.741	0	0	62.9118
263.748	0	0	62.9578
263.769	0	0	63.0039
263.837	0	0	63.05
264.016	0	0	63.073
264.128	0	0	63.0961
264.479	0	0	63.1191
264.504	0	0	63.1652
264.527	0	0	63.1652
264.86	0	0	63.1882
265.245	0	0	63.2343
265.498	0	0	63.2804
265.79	0	0	63.3034
265.856	0	0	63.3495
266.072	0	0	63.3955
266.335	0	0	63.4416
266.405	0	0	63.4877
266.524	0	0	63.5107
266.546	0	0	63.5568
266.58	0	0	63.6029
266.761	0	0	63.6489
266.87	0	0	63.6489
267.271	0	0	63.695
267.449	0	0	63.718
267.787	0	0	63.7641
267.828	0	0	63.7871
267.871	0	0	63.8332
268.012	0	0	63.8332
268.021	0	0	63.8793
268.33	0	0	63.9254
268.375	0	0	63.9714
268.511	0	0	64.0175
268.956	0	0	64.0636
269.026	0	0	64.0866
269.129	0	0	64.1327
269.186	0	0	64.1557
269.488	0	0	64.1788
269.784	0	0	64.2248
269.806	0	0	64.2709
269.897	0	0	64.317
270.014	0	0	64.34
270.072	0	0	64.3861
270.108	0	0	64.4322
271.24	0	0	64.4552
271.438	0	0	64.4782
271.456	0	0	64.5013
271.62	0	0	64.5243
272.461	0	0	64.5473
272.512	0	0	64.5704
272.518	0	0	64.6164
272.657	0	0	64.6625
272.703	0	0	64.6856
272.762	0	0	64.7316
272.767	0	0	64.7777
272.965	0	0	64.8238
273.204	0	0	64.8468
273.212	0	0	64.8929
273.5	0	0	64.939
273.774	0	0	64.985
273.853	0	0	65.0311
274.305	0	0	65.0772
274.682	0	0	65.1232
274.686	0	0	65.1693
275.139	0	0	65.2154
275.153	0	0	65.2615
275.635	0	0	65.3075
275.7	0	0	65.3306
276.06	0	0	65.3536
276.22	0	0	65.3766
276.443	0	0	65.3997
276.987	0	0	65.4457
276.998	0	0	65.4918
277.055	0	0	65.5379
277.345	0	0	65.584
277.781	0	0	65.63
277.788	0	0	65.6761
278.218	0	0	65.7222
278.253	0	0	65.7683
278.838	0	0	65.8143
279.011	0	0	65.8143
279.059	0	0	65.8604
279.352	0	0	65.9065
279.983	0	0	65.9295
280.134	0	0	65.9525
280.552	0	0	65.9986
281.117	0	0	66.0447
281.466	0	0	66.0908
281.636	0	0	66.1368
281.697	0	0	66.1599
281.716	0	0	66.2059
281.938	0	0	66.252
282.118	0	0	66.2751
282.476	0	0	66.3211
282.547	0	0	66.3672
282.669	0	0	66.3902
282.88	0	0	66.4363
282.974	0	0	66.4824
283.135	0	0	66.5054
283.427	0	0	66.5515
283.454	0	0	66.5976
283.537	0	0	66.6206
283.914	0	0	66.6667
283.978	0	0	66.7127
284.002	0	0	66.7358
284.024	0	0	66.7818
284.123	0	0	66.8049
284.44	0	0	66.851
284.896	0	0	66.897
284.988	0	0	66.9431
285.031	0	0	66.9661
285.568	0	0	66.9892
285.604	0	0	67.0352
285.639	0	0	67.0583
285.654	0	0	67.1044
285.9	0	0	67.1504
286.188	0	0	67.1735
286.317	0	0	67.2195
286.533	0	0	67.2656
287.258	0	0	67.2886
287.904	0	0	67.3347
288.137	0	0	67.3578
288.635	0	0	67.3808
288.662	0	0	67.4269
288.936	0	0	67.4729
289.298	0	0	67.519
289.438	0	0	67.5651
289.991	0	0	67.6111
290.374	0	0	67.6342
290.563	0	0	67.6803
290.774	0	0	67.7033
290.802	0	0	67.7494
291.255	0	0	67.7954
291.494	0	0	67.8415
291.681	0	0	67.8645
292.206	0	0	67.9106
292.715	0	0	67.9567
293.287	0	0	68.0028
293.313	0	0	68.0258
293.564	0	0	68.0488
293.587	0	0	68.0719
293.638	0	0	68.1179
293.681	0	0	68.141
294.037	0	0	68.164
294.322	0	0	68.1871
294.456	0	0	68.2101
294.61	0	0	68.2562
294.794	0	0	68.3022
294.996	0	0	68.3483
295.023	0	0	68.3944
295.049	0	0	68.4405
295.194	0	0	68.4865
295.863	0	0	68.5326
295.883	0	0	68.5787
296.722	0	0	68.6017
296.849	0	0	68.6478
297.003	0	0	68.6938
297.085	0	0	68.7399
297.596	0	0	68.763
297.873	0	0	68.809
297.888	0	0	68.8551
298.012	0	0	68.9012
298.246	0	0	68.9242
299.145	0	0	68.9703
299.148	0	0	69.0164
299.272	0	0	69.0624
299.366	0	0	69.1085
299.648	0	0	69.1546
299.882	0	0	69.2006
300.251	0	0	69.2467
300.763	0	0	69.2928
301.06	0	0	69.3389
301.067	0	0	69.3849
301.17	0	0	69.408
301.51	0	0	69.454
301.638	0	0	69.4771
301.85	0	0	69.5001
302.54	0	0	69.5232
302.598	0	0	69.5692
302.803	0	0	69.5923
303.2	0	0	69.6383
303.501	0	0	69.6844
304.006	0	0	69.7305
304.024	0	0	69.7765
304.3	0	0	69.8226
304.367	0	0	69.8457
304.546	0	0	69.8917
304.74	0	0	69.9378
304.946	0	0	69.9608
305.773	0	0	70.0069
306.202	0	0	70.0299
306.373	0	0	70.053
306.895	0	0	70.076
307.346	0	0	70.1221
307.375	0	0	70.1682
307.379	0	0	70.2142
307.38	0	0	70.2373
307.719	0	0	70.2603
307.74	0	0	70.3064
307.859	0	0	70.3525
308.029	0	0	70.3985
308.205	0	0	70.4216
308.261	0	0	70.4676
308.362	0	0	70.5137
308.732	0	0	70.5598
308.971	0	0	70.6059
309.036	0	0	70.6519
309.114	0	0	70.698
309.205	0	0	70.7441
309.559	0	0	70.7901
309.739	0	0	70.8362
309.745	0	0	70.8823
310.176	0	0	70.9284
310.223	0	0	70.9744
310.483	0	0	71.0205
310.531	0	0	71.0666
311.06	0	0	71.1126
311.307	0	0	71.1587
311.366	0	0	71.1818
311.578	0	0	71.2278
312.243	0	0	71.2739
312.323	0	0	71.32
312.692	0	0	71.366
312.701	0	0	71.3891
313.516	0	0	71.4352
313.583	0	0	71.4812
313.69	0	0	71.5273
313.917	0	0	71.5734
314.386	0	0	71.6194
314.904	0	0	71.6655
315.04	0	0	71.7116
315.118	0	0	71.7577
315.336	0	0	71.7807
316.038	0	0	71.8268
316.271	0	0	71.8728
316.271	0	0	71.8959
316.932	0	0	71.9419
317.217	0	0	71.988
317.31	0	0	71.988
317.403	0	0	72.0341
317.453	0	0	72.0571
317.798	0	0	72.1032
318.284	0	0	72.1493
318.419	0	0	72.1953
318.461	0	0	72.2414
318.69	0	0	72.2645
319.12	0	0	72.3105
319.602	0	0	72.3566
319.632	0	0	72.3796
319.696	0	0	72.4257
320.69	0	0	72.4487
321.037	0	0	72.4948
321.637	0	0	72.5409
321.993	0	0	72.587
322.201	0	0	72.633
322.243	0	0	72.6561
322.262	0	0	72.7021
322.331	0	0	72.7252
323.03	0	0	72.7713
323.032	0	0	72.8173
323.563	0	0	72.8634
323.74	0	0	72.9095
323.847	0	0	72.9555
324.107	0	0	73.0016
324.26	0	0	73.0477
324.273	0	0	73.0938
324.726	0	0	73.1398
325.085	0	0	73.1629
325.095	0	0	73.2089
325.385	0	0	73.255
325.679	0	0	73.278
325.881	0	0	73.3241
326.148	0	0	73.3702
326.511	0	0	73.4163
326.888	0	0	73.4623
326.922	0	0	73.5084
327.172	0	0	73.5545
327.193	0	0	73.6006
327.497	0	0	73.6466
327.743	0	0	73.6927
328.22	0	0	73.7388
329.039	0	0	73.7848
329.315	0	0	73.8309
329.443	0	0	73.877
329.466	0	0	73.9231
329.469	0	0	73.9691
329.555	0	0	74.0152
330.054	0	0	74.0613
330.512	0	0	74.0843
330.661	0	0	74.1304
332.284	0	0	74.1534
332.571	0	0	74.1765
332.681	0	0	74.2225
332.694	0	0	74.2686
333.401	0	0	74.3147
333.909	0	0	74.3607
334.162	0	0	74.4068
334.595	0	0	74.4529
335.023	0	0	74.4759
335.134	0	0	74.522
335.861	0	0	74.5681
336.17	0	0	74.5911
336.252	0	0	74.6372
336.373	0	0	74.6833
336.459	0	0	74.7293
336.759	0	0	74.7524
336.938	0	0	74.7754
337.646	0	0	74.8215
337.704	0	0	74.8445
337.869	0	0	74.8906
338.025	0	0	74.9367
338.73	0	0	74.9827
338.762	0	0	75.0058
339.436	0	0	75.0518
339.474	0	0	75.0749
339.675	0	0	75.0979
340.598	0	0	75.1209
340.907	0	0	75.167
341.94	0	0	75.19
342.751	0	0	75.2361
342.752	0	0	75.2822
343.077	0	0	75.3283
343.161	0	0	75.3743
343.478	0	0	75.4204
343.815	0	0	75.4665
344.22	0	0	75.4895
344.541	0	0	75.5356
344.658	0	0	75.5817
344.931	0	0	75.6277
345.2	0	0	75.6738
345.289	0	0	75.7199
345.419	0	0	75.766
345.669	0	0	75.812
346.234	0	0	75.8581
346.344	0	0	75.9042
346.673	0	0	75.9502
347.058	0	0	75.9733
347.104	0	0	76.0194
347.217	0	0	76.0654
347.233	0	0	76.1115
347.741	0	0	76.1345
347.906	0	0	76.1806
348.471	0	0	76.2036
348.723	0	0	76.2497
348.798	0	0	76.2727
348.881	0	0	76.3188
349.208	0	0	76.3419
349.272	0	0	76.3879
349.353	0	0	76.434
349.681	0	0	76.4801
349.692	0	0	76.5261
349.997	0	0	76.5722
351.592	0	0	76.6183
351.716	0	0	76.6644
352.052	0	0	76.7104
352.371	0	0	76.7565
352.681	0	0	76.8026
352.751	0	0	76.8487
352.979	0	0	76.8947
353.041	0	0	76.9408
354.067	0	0	76.9869
354.551	0	0	77.0329
354.672	0	0	77.056
355.45	0	0	77.1021
356.184	0	0	77.1481
356.337	0	0	77.1942
356.382	0	0	77.2172
356.766	0	0	77.2633
356.855	0	0	77.3094
356.922	0	0	77.3554
357.469	0	0	77.4015
357.566	0	0	77.4476
357.938	0	0	77.4937
358.658	0	0	77.5167
359.193	0	0	77.5628
359.452	0	0	77.6088
360.033	0	0	77.6549
360.843	0	0	77.701
361.037	0	0	77.7471
361.433	0	0	77.7701
362.361	0	0	77.8162
362.836	0	0	77.8392
362.971	0	0	77.8853
363.251	0	0	77.9083
363.497	0	0	77.9544
363.515	0	0	78.0005
363.518	0	0	78.0465
364.182	0	0	78.0926
365.027	0	0	78.1387
366.324	0	0	78.1848
366.861	0	0	78.2308
367.132	0	0	78.2769
367.667	0	0	78.323
367.955	0	0	78.369
368.195	0	0	78.4151
368.244	0	0	78.4612
368.368	0	0	78.5073
368.4	0	0	78.5533
368.753	0	0	78.5994
369.058	0	0	78.6455
369.06	0	0	78.6915
369.182	0	0	78.7376
369.497	0	0	78.7837
369.662	0	0	78.8067
369.892	0	0	78.8298
370.287	0	0	78.8758
370.505	0	0	78.9219
371.6	0	0	78.9449
371.625	0	0	78.991
371.672	0	0	79.0141
371.825	0	0	79.0371
371.962	0	0	79.0832
372.113	0	0	79.1292
372.365	0	0	79.1523
372.415	0	0	79.1753
373.498	0	0	79.2214
373.714	0	0	79.2674
373.949	0	0	79.3135
374.015	0	0	79.3596
374.18	0	0	79.4057
375.077	0	0	79.4287
375.684	0	0	79.4748
376.192	0	0	79.5208
376.813	0	0	79.5669
376.885	0	0	79.59
377.827	0	0	79.636
378.402	0	0	79.6821
378.588	0	0	79.7282
379.21	0	0	79.7742
380.079	0	0	79.8203
380.455	0	0	79.8664
380.936	0	0	79.9125
381.02	0	0	79.9585
381.326	0	0	80.0046
382.765	0	0	80.0507
383.436	0	0	80.0968
383.579	0	0	80.1428
383.639	0	0	80.1659
383.744	0	0	80.2119
383.97	0	0	80.258
384.097	0	0	80.3041
384.362	0	0	80.3271
384.421	0	0	80.3732
384.431	0	0	80.4193
384.708	0	0	80.4653
386.734	0	0	80.5114
387.312	0	0	80.5575
387.378	0	0	80.6035
387.493	0	0	80.6496
387.832	0	0	80.6727
387.842	0	0	80.7187
388.387	0	0	80.7648
389.191	0	0	80.7878
389.513	0	0	80.8339
390.499	0	0	80.88
390.766	0	0	80.9261
390.932	0	0	80.9721
390.985	0	0	80.9952
391.107	0	0	81.0182
391.275	0	0	81.0412
391.329	0	0	81.0873
393.339	0	0	81.1334
394.101	0	0	81.1795
394.86	0	0	81.2255
395.685	0	0	81.2716
395.883	0	0	81.3177
396.08	0	0	81.3637
396.725	0	0	81.3868
396.904	0	0	81.4328
397.275	0	0	81.4789
397.608	0	0	81.525
397.926	0	0	81.5711
398.252	0	0	81.6171
398.275	0	0	81.6632
398.632	0	0	81.7093
399.357	0	0	81.7554
399.856	0	0	81.8014
400.102	0	0	81.8475
400.138	0	0	81.8936
400.249	0	0	81.9396
400.341	0	0	81.9857
401.099	0	0	82.0318
401.249	0	0	82.0779
401.828	0	0	82.1239
403.978	0	0	82.17
405.354	0	0	82.2161
405.452	0	0	82.2622
406.272	0	0	82.3082
406.603	0	0	82.3313
406.645	0	0	82.3773
407.001	0	0	82.4234
407.431	0	0	82.4695
407.599	0	0	82.5155
408.12	0	0	82.5616
408.674	0	0	82.6077
409.578	0	0	82.6538
409.86	0	0	82.6998
409.875	0	0	82.7459
410.143	0	0	82.792
410.201	0	0	82.8381
410.35	0	0	82.8841
410.526	0	0	82.9302
410.672	0	0	82.9763
411.114	0	0	83.0223
412.398	0	0	83.0684
413.339	0	0	83.0915
413.457	0	0	83.1375
414.418	0	0	83.1606
414.683	0	0	83.2066
414.989	0	0	83.2527
415.3	0	0	83.2988
415.353	0	0	83.3449
415.499	0	0	83.3909
415.538	0	0	83.437
415.552	0	0	83.4831
415.87	0	0	83.5291
415.994	0	0	83.5752
416.042	0	0	83.6213
416.694	0	0	83.6443
416.905	0	0	83.6674
417.434	0	0	83.7134
417.719	0	0	83.7595
417.758	0	0	83.8056
417.999	0	0	83.8286
418.218	0	0	83.8747
418.325	0	0	83.8977
419.598	0	0	83.9438
419.916	0	0	83.9899
420.05	0	0	84.0129
420.918	0	0	84.059
422.187	0	0	84.082
422.202	0	0	84.1281
422.513	0	0	84.1742
422.859	0	0	84.2202
424.546	0	0	84.2663
425.278	0	0	84.3124
425.69	0	0	84.3584
426.136	0	0	84.4045
426.156	0	0	84.4506
426.396	0	0	84.4967
426.686	0	0	84.5427
426.806	0	0	84.5888
426.811	0	0	84.6349
427.224	0	0	84.6809
428.777	0	0	84.727
428.873	0	0	84.7731
429.698	0	0	84.8192
430.238	0	0	84.8652
431.205	0	0	84.9113
431.724	0	0	84.9574
432.106	0	0	85.0035
432.971	0	0	85.0495
433.665	0	0	85.0956
433.918	0	0	85.1417
435.007	0	0	85.1877
435.416	0	0	85.2338
435.644	0	0	85.2799
437.09	0	0	85.326
437.701	0	0	85.372
438.05	0	0	85.4181
438.195	0	0	85.4642
438.354	0	0	85.4872
438.516	0	0	85.5333
438.926	0	0	85.5794
440.109	0	0	85.6254
440.965	0	0	85.6715
441.91	0	0	85.7176
442.052	0	0	85.7636
442.26	0	0	85.7867
442.716	0	0	85.8328
443.246	0	0	85.8558
443.356	0	0	85.9019
443.455	0	0	85.9249
445.02	0	0	85.971
445.921	0	0	86.017
447.45	0	0	86.0631
447.974	0	0	86.1092
448.221	0	0	86.1553
449.134	0	0	86.2013
449.232	0	0	86.2474
449.909	0	0	86.2935
450.839	0	0	86.3396
451.451	0	0	86.3856
451.599	0	0	86.4317
453	0	0	86.4778
453.102	0	0	86.5238
453.407	0	0	86.5699
454.107	0	0	86.616
454.463	0	0	86.6621
455.277	0	0	86.7081
456.136	0	0	86.7542
457.313	0	0	86.8003
457.445	0	0	86.8463
458.019	0	0	86.8924
458.037	0	0	86.9385
458.652	0	0	86.9846
459.571	0	0	87.0306
460.231	0	0	87.0767
460.586	0	0	87.0997
461.301	0	0	87.1458
461.604	0	0	87.1919
462.649	0	0	87.238
462.932	0	0	87.284
463.018	0	0	87.3071
463.156	0	0	87.3531
464.088	0	0	87.3992
464.813	0	0	87.4453
465.359	0	0	87.4914
466.202	0	0	87.5374
466.539	0	0	87.5835
466.998	0	0	87.6296
467.99	0	0	87.6757
468.206	0	0	87.7217
468.285	0	0	87.7678
468.804	0	0	87.8139
469.251	0	0	87.8599
469.664	0	0	87.883
470.092	0	0	87.929
472.044	0	0	87.9751
475.572	0	0	88.0212
476.391	0	0	88.0673
477.637	0	0	88.1133
477.869	0	0	88.1594
478.575	0	0	88.2055
478.659	0	0	88.2516
479.328	0	0	88.2976
479.345	0	0	88.3437
479.555	0	0	88.3898
479.646	0	0	88.4358
480.169	0	0	88.4819
480.372	0	0	88.528
480.692	0	0	88.5741
481.269	0	0	88.6201
482.249	0	0	88.6662
482.433	0	0	88.7123
482.613	0	0	88.7584
482.955	0	0	88.8044
484.792	0	0	88.8505
484.986	0	0	88.8966
485.077	0	0	88.9426
486.821	0	0	88.9887
487.382	0	0	89.0348
487.612	0	0	89.0809
488.135	0	0	89.1269
488.735	0	0	89.173
490.06	0	0	89.2191
491.02	0	0	89.2651
492.325	0	0	89.3112
492.772	0	0	89.3573
493.404	0	0	89.4034
494.442	0	0	89.4494
494.961	0	0	89.4725
495.45	0	0	89.5185
495.86	0	0	89.5646
496.091	0	0	89.6107
496.648	0	0	89.6568
497.266	0	0	89.6798
498.047	0	0	89.7259
498.174	0	0	89.7719
500.038	0	0	89.818
501.065	0	0	89.8641
501.797	0	0	89.9102
502.9	0	0	89.9562
503.921	0	0	90.0023
504.124	0	0	90.0484
504.878	0	0	90.0714
505.143	0	0	90.0944
505.676	0	0	90.1405
506.553	0	0	90.1866
507.477	0	0	90.2327
508.44	0	0	90.2787
508.768	0	0	90.3248
509.286	0	0	90.3709
509.292	0	0	90.417
509.807	0	0	90.463
510.391	0	0	90.4861
510.957	0	0	90.5321
511.214	0	0	90.5782
511.67	0	0	90.6243
513.202	0	0	90.6704
513.228	0	0	90.7164
516.967	0	0	90.7625
517.024	0	0	90.8086
517.752	0	0	90.8546
518.744	0	0	90.9007
518.829	0	0	90.9468
520.418	0	0	90.9929
520.503	0	0	91.0389
521.783	0	0	91.085
522.697	0	0	91.1311
522.759	0	0	91.1771
522.871	0	0	91.2232
523.163	0	0	91.2693
523.76	0	0	91.3154
524.377	0	0	91.3614
524.401	0	0	91.4075
524.498	0	0	91.4536
525.44	0	0	91.4997
525.502	0	0	91.5457
526.246	0	0	91.5918
527.359	0	0	91.6379
527.669	0	0	91.6839
528.676	0	0	91.73
531.519	0	0	91.7761
531.529	0	0	91.8222
532.118	0	0	91.8452
532.958	0	0	91.8913
536.181	0	0	91.9373
536.566	0	0	91.9834
537.559	0	0	92.0295
539.853	0	0	92.0756
540.494	0	0	92.1216
541.441	0	0	92.1677
541.598	0	0	92.1907
542.856	0	0	92.2368
544.222	0	0	92.2829
545.869	0	0	92.329
545.935	0	0	92.375
546.438	0	0	92.4211
546.469	0	0	92.4672
547.14	0	0	92.5132
547.202	0	0	92.5593
547.967	0	0	92.6054
549.016	0	0	92.6515
551.146	0	0	92.6975
551.892	0	0	92.7436
553.473	0	0	92.7897
554.379	0	0	92.8358
556.151	0	0	92.8818
556.219	0	0	92.9279
557.247	0	0	92.974
557.312	0	0	92.997
557.58	0	0	93.0431
558.129	0	0	93.0891
558.808	0	0	93.1352
558.882	0	0	93.1813
559.764	0	0	93.2274
560.01	0	0	93.2734
563.345	0	0	93.3195
564.598	0	0	93.3656
565.866	0	0	93.4117
568.95	0	0	93.4577
570.089	0	0	93.5038
571.52	0	0	93.5499
573.805	0	0	93.5959
575.39	0	0	93.642
576.705	0	0	93.6881
577.604	0	0	93.7342
578.748	0	0	93.7802
578.807	0	0	93.8263
579.176	0	0	93.8724
582.214	0	0	93.9185
583.073	0	0	93.9645
583.361	0	0	94.0106
584.306	0	0	94.0567
584.865	0	0	94.1027
585.857	0	0	94.1488
588.437	0	0	94.1949
588.606	0	0	94.241
590.706	0	0	94.287
590.878	0	0	94.3331
592.76	0	0	94.3792
593.246	0	0	94.4252
595.167	0	0	94.4713
595.368	0	0	94.5174
596.138	0	0	94.5635
596.686	0	0	94.6095
597.328	0	0	94.6556
598.308	0	0	94.7017
601.85	0	0	94.7478
602.176	0	0	94.7938
602.651	0	0	94.8399
603.076	0	0	94.886
603.545	0	0	94.932
603.549	0	0	94.9781
606.272	0	0	95.0242
606.535	0	0	95.0703
608.463	0	0	95.1163
608.62	0	0	95.1624
611.886	0	0	95.2085
613.491	0	0	95.2545
617.84	0	0	95.3006
618.424	0	0	95.3467
620.976	0	0	95.3928
621.018	0	0	95.4388
622.564	0	0	95.4619
622.915	0	0	95.5079
630.518	0	0	95.554
631.348	0	0	95.6001
632.405	0	0	95.6462
633.751	0	0	95.6922
640.379	0	0	95.7383
647.653	0	0	95.7844
649.972	0	0	95.8074
650.919	0	0	95.8535
651.824	0	0	95.8996
652.928	0	0	95.9456
654.632	0	0	95.9917
655.377	0	0	96.0378
655.57	0	0	96.0839
656.572	0	0	96.1299
657.728	0	0	96.176
659.597	0	0	96.2221
660.755	0	0	96.2681
662.348	0	0	96.3142
662.886	0	0	96.3603
663.104	0	0	96.4064
666.114	0	0	96.4524
666.547	0	0	96.4985
666.961	0	0	96.5446
668.254	0	0	96.5906
669.736	0	0	96.6367
671.124	0	0	96.6598
671.629	0	0	96.7058
672.132	0	0	96.7519
673.951	0	0	96.798
677.727	0	0	96.844
686.003	0	0	96.8901
687.273	0	0	96.9362
689.199	0	0	96.9823
691.15	0	0	97.0053
692.981	0	0	97.0514
694.479	0	0	97.0974
699.018	0	0	97.1435
699.912	0	0	97.1896
700.857	0	0	97.2357
702.304	0	0	97.2817
703.387	0	0	97.3278
707.867	0	0	97.3739
711.283	0	0	97.4199
723.426	0	0	97.466
728.172	0	0	97.5121
729.497	0	0	97.5582
729.72	0	0	97.6042
745.5	0	0	97.6503
747.902	0	0	97.6964
760.04	0	0	97.7425
764.995	0	0	97.7885
772.764	0	0	97.8346
778.304	0	0	97.8807
787.701	0	0	97.9267
796.588	0	0	97.9728
828.408	0	0	98.0189
833.474	0	0	98.065
837.578	0	0	98.111
837.87	0	0	98.1571
840.299	0	0	98.2032
851.641	0	0	98.2493
858.984	0	0	98.2953
874.615	0	0	98.3414
875.391	0	0	98.3875
877.869	0	0	98.4335
885.4	0	0	98.4796
896.782	0	0	98.5257
899.384	0	0	98.5718
905.441	0	0	98.6178
907.856	0	0	98.6639
908.072	0	0	98.71
908.367	0	0	98.756
921.658	0	0	98.8021
933.314	0	0	98.8482
939.73	0	0	98.8943
949.179	0	0	98.9403
957.815	0	0	98.9864
959.416	0	0	99.0325
970.065	0	0	99.0786
977.433	0	0	99.1246
979.59	0	0	99.1707
980.128	0	0	99.2168
1009.61	0	0	99.2628
1015.15	0	0	99.3089
1019.89	0	0	99.355
1032.42	0	0	99.4011
1049.65	0	0	99.4471
1058.54	0	0	99.4932
1067.5	0	0	99.5393
1079.62	0	0	99.5853
1092.56	0	0	99.6314
1096.07	0	0	99.6775
1115.28	0	0	99.7236
1275.02	0	0	99.7696
1330.86	0	0	99.8157
1398.82	0	0	99.8618
1438.65	0	0	99.9079
1439.28	0	0	99.9539
