1.12264e-09	0	0	0
2.80875e-09	0	0	0
3.84357e-09	0	0	0
4.39007e-09	0	0	0
4.89746e-09	0	0	0
5.03177e-09	0	0	0
7.16037e-09	0	0	0
7.85514e-09	0	0	0
1.02929e-08	0	0	0
1.37769e-08	0	0	0
1.44843e-08	0	0	0
1.60725e-08	0	0	0
1.74897e-08	0	0	0
1.79758e-08	0	0	0
1.81123e-08	0	0	0
1.97062e-08	0	0	0
2.34243e-08	0	0	0
2.81918e-08	0	0	0
2.83219e-08	0	0	0
3.25198e-08	0	0	0
3.46106e-08	0	0	0
3.73316e-08	0	0	0
3.83599e-08	0	0	0
4.24305e-08	0	0	0
4.78766e-08	0	0	0
5.36853e-08	0	0	0
5.49746e-08	0	0	0
5.71333e-08	0	0	0
5.74679e-08	0	0	0
6.21939e-08	0	0	0
6.57643e-08	0	0	0
6.95908e-08	0	0	0
7.93074e-08	0	0	0
8.03449e-08	0	0	0
9.05309e-08	0	0	0
1.06794e-07	0	0	0
1.11257e-07	0	0	0
1.19625e-07	0	0	0
1.73597e-07	0	0	0
1.79845e-07	0	0	0
1.85116e-07	0	0	0
2.02629e-07	0	0	0
2.13628e-07	0	0	0
2.20375e-07	0	0	0
2.39578e-07	0	0	0
3.67435e-07	0	0	0
4.00765e-07	0	0	0
4.43771e-07	0	0	0
4.6102e-07	0	0	0
4.64344e-07	0	0	0
5.4603e-07	0	0	0
6.67159e-07	0	0	0
6.8056e-07	0	0	0
7.56934e-07	0	0	0
8.23641e-07	0	0	0
9.59655e-07	0	0	0
9.85359e-07	0	0	0
1.53886e-06	0	0	0
1.57083e-06	0	0	0
1.87739e-06	0	0	0
2.20484e-06	0	0	0
2.30781e-06	0	0	0
2.60541e-06	0	0	0
3.10075e-06	0	0	0
3.23628e-06	0	0	0
7.6305e-06	0	0	0
8.54796e-06	0	0	0
0.000104246	0	0	0
