4.85594e-10	0	0	0
1.40055e-09	0	0	0
1.52565e-09	0	0	0
2.22345e-09	0	0	0
3.94969e-09	0	0	0
4.72965e-09	0	0	0
6.09229e-09	0	0	0
7.77145e-09	0	0	0
9.34078e-09	0	0	0
9.49876e-09	0	0	0
1.0904e-08	0	0	0
1.68705e-08	0	0	0
2.02516e-08	0	0	0
2.03975e-08	0	0	0
2.24265e-08	0	0	0
2.64793e-08	0	0	0
3.08609e-08	0	0	0
3.607e-08	0	0	0
3.82775e-08	0	0	0
3.91908e-08	0	0	0
4.00922e-08	0	0	0
4.14161e-08	0	0	0
4.51665e-08	0	0	0
4.77836e-08	0	0	0
4.89196e-08	0	0	0
5.85595e-08	0	0	0
6.46371e-08	0	0	0
6.63763e-08	0	0	0
6.93688e-08	0	0	0
6.95302e-08	0	0	0
7.49464e-08	0	0	0
9.26137e-08	0	0	0
9.59112e-08	0	0	0
1.07292e-07	0	0	0
1.20718e-07	0	0	0
1.24442e-07	0	0	0
1.31701e-07	0	0	0
1.32095e-07	0	0	0
1.34197e-07	0	0	0
1.43681e-07	0	0	0
1.47667e-07	0	0	0
1.61857e-07	0	0	0
1.85466e-07	0	0	0
1.87643e-07	0	0	0
1.93657e-07	0	0	0
1.95322e-07	0	0	0
2.12449e-07	0	0	0
2.39867e-07	0	0	0
2.48488e-07	0	0	0
2.67885e-07	0	0	0
3.14802e-07	0	0	0
3.48811e-07	0	0	0
3.5504e-07	0	0	0
4.90388e-07	0	0	0
5.0412e-07	0	0	0
5.5139e-07	0	0	0
5.74048e-07	0	0	0
5.84285e-07	0	0	0
5.91383e-07	0	0	0
6.19194e-07	0	0	0
6.38851e-07	0	0	0
6.40432e-07	0	0	0
8.46634e-07	0	0	0
8.54558e-07	0	0	0
9.96495e-07	0	0	0
1.03328e-06	0	0	0
1.1767e-06	0	0	0
1.69579e-06	0	0	0
2.25802e-06	0	0	0
4.43244e-06	0	0	0
5.39768e-06	0	0	0
5.69398e-06	0	0	0
5.72433e-06	0	0	0
6.61662e-06	0	0	0
7.17816e-06	0	0	0
7.39282e-06	0	0	0
7.65924e-06	0	0	0
8.62492e-06	0	0	0
8.63903e-06	0	0	0
8.70699e-06	0	0	0
1.67659e-05	0	0	0
3.24944e-05	0	0	0
4.64504e-05	0	0	0
