2.42751e-10	0	0	0
7.31356e-10	0	0	0
1.60452e-09	0	0	0
3.25514e-09	0	0	0
6.4857e-09	0	0	0
7.71306e-09	0	0	0
7.79139e-09	0	0	0
8.63661e-09	0	0	0
1.01107e-08	0	0	0
1.15742e-08	0	0	0
1.33968e-08	0	0	0
1.97094e-08	0	0	0
2.16606e-08	0	0	0
2.19365e-08	0	0	0
2.22061e-08	0	0	0
2.66985e-08	0	0	0
2.71748e-08	0	0	0
2.84475e-08	0	0	0
3.9588e-08	0	0	0
3.96515e-08	0	0	0
4.05449e-08	0	0	0
5.66279e-08	0	0	0
6.05925e-08	0	0	0
6.28513e-08	0	0	0
6.63579e-08	0	0	0
7.7065e-08	0	0	0
7.75475e-08	0	0	0
7.95597e-08	0	0	0
8.95014e-08	0	0	0
9.00632e-08	0	0	0
1.02624e-07	0	0	0
1.05004e-07	0	0	0
1.22051e-07	0	0	0
1.32732e-07	0	0	0
1.33392e-07	0	0	0
1.47118e-07	0	0	0
1.76262e-07	0	0	0
1.82682e-07	0	0	0
1.83053e-07	0	0	0
2.37775e-07	0	0	0
2.40044e-07	0	0	0
2.44869e-07	0	0	0
2.57266e-07	0	0	0
2.97616e-07	0	0	0
2.9984e-07	0	0	0
3.31931e-07	0	0	0
3.37444e-07	0	0	0
3.56205e-07	0	0	0
4.14911e-07	0	0	0
5.14566e-07	0	0	0
5.9676e-07	0	0	0
6.51133e-07	0	0	0
7.56381e-07	0	0	0
8.23627e-07	0	0	0
9.27413e-07	0	0	0
1.03404e-06	0	0	0
1.0989e-06	0	0	0
1.14714e-06	0	0	0
1.47609e-06	0	0	0
1.53012e-06	0	0	0
1.60375e-06	0	0	0
1.6893e-06	0	0	0
1.86833e-06	0	0	0
2.9085e-06	0	0	0
1.01593e-05	0	0	0
