4.63327e-10	0	0	0
7.98131e-10	0	0	0
2.50542e-09	0	0	0
2.89203e-09	0	0	0
3.99318e-09	0	0	0
4.15504e-09	0	0	0
6.52107e-09	0	0	0
6.60927e-09	0	0	0
1.01974e-08	0	0	0
1.02337e-08	0	0	0
1.26103e-08	0	0	0
1.67277e-08	0	0	0
1.75199e-08	0	0	0
1.79058e-08	0	0	0
1.80976e-08	0	0	0
2.15157e-08	0	0	0
2.47035e-08	0	0	0
2.74605e-08	0	0	0
3.03787e-08	0	0	0
3.05707e-08	0	0	0
3.5276e-08	0	0	0
3.57959e-08	0	0	0
3.58573e-08	0	0	0
3.58825e-08	0	0	0
3.71294e-08	0	0	0
3.74824e-08	0	0	0
4.29564e-08	0	0	0
4.32751e-08	0	0	0
4.5808e-08	0	0	0
4.86722e-08	0	0	0
5.711e-08	0	0	0
7.7673e-08	0	0	0
7.95744e-08	0	0	0
8.86723e-08	0	0	0
9.33219e-08	0	0	0
9.48075e-08	0	0	0
9.83835e-08	0	0	0
1.00581e-07	0	0	0
1.2773e-07	0	0	0
1.40844e-07	0	0	0
1.53181e-07	0	0	0
1.6779e-07	0	0	0
1.9078e-07	0	0	0
2.03568e-07	0	0	0
2.16404e-07	0	0	0
2.16794e-07	0	0	0
2.56442e-07	0	0	0
2.71315e-07	0	0	0
2.98463e-07	0	0	0
3.03137e-07	0	0	0
3.17132e-07	0	0	0
4.71192e-07	0	0	0
5.33928e-07	0	0	0
6.24796e-07	0	0	0
6.50998e-07	0	0	0
6.61868e-07	0	0	0
6.7082e-07	0	0	0
8.14163e-07	0	0	0
9.37425e-07	0	0	0
1.01096e-06	0	0	0
1.049e-06	0	0	0
1.11308e-06	0	0	0
1.36575e-06	0	0	0
1.593e-06	0	0	0
1.66869e-06	0	0	0
1.68077e-06	0	0	0
2.06196e-06	0	0	0
2.56673e-06	0	0	0
5.46725e-06	0	0	0
1.22505e-05	0	0	0
