2.02842e-11	0	0	0
2.04498e-11	0	0	0
6.40556e-10	0	0	0
1.34579e-09	0	0	0
1.43831e-09	0	0	0
1.85331e-09	0	0	0
3.01866e-09	0	0	0
4.03244e-09	0	0	0
8.28579e-09	0	0	0
1.08991e-08	0	0	0
1.16802e-08	0	0	0
1.99444e-08	0	0	0
2.26233e-08	0	0	0
2.43599e-08	0	0	0
2.55067e-08	0	0	0
2.72752e-08	0	0	0
2.7382e-08	0	0	0
2.77358e-08	0	0	0
3.17468e-08	0	0	0
4.21828e-08	0	0	0
4.55761e-08	0	0	0
4.63272e-08	0	0	0
4.63334e-08	0	0	0
4.82633e-08	0	0	0
4.9538e-08	0	0	0
5.46593e-08	0	0	0
5.72366e-08	0	0	0
5.85904e-08	0	0	0
6.23396e-08	0	0	0
7.34392e-08	0	0	0
7.421e-08	0	0	0
8.36226e-08	0	0	0
8.89482e-08	0	0	0
8.98179e-08	0	0	0
9.37782e-08	0	0	0
9.38557e-08	0	0	0
1.06713e-07	0	0	0
1.18478e-07	0	0	0
1.29757e-07	0	0	0
1.4816e-07	0	0	0
1.72903e-07	0	0	0
1.87093e-07	0	0	0
1.88696e-07	0	0	0
1.90105e-07	0	0	0
1.94032e-07	0	0	0
2.06157e-07	0	0	0
2.1904e-07	0	0	0
2.45232e-07	0	0	0
2.65463e-07	0	0	0
3.34636e-07	0	0	0
3.61241e-07	0	0	0
3.83095e-07	0	0	0
4.07707e-07	0	0	0
4.08118e-07	0	0	0
4.1924e-07	0	0	0
4.98526e-07	0	0	0
5.06373e-07	0	0	0
5.33569e-07	0	0	0
5.61769e-07	0	0	0
5.85562e-07	0	0	0
6.3007e-07	0	0	0
1.0887e-06	0	0	0
1.1002e-06	0	0	0
1.33442e-06	0	0	0
1.56032e-06	0	0	0
1.5669e-06	0	0	0
1.58051e-06	0	0	0
1.69131e-06	0	0	0
2.62924e-06	0	0	0
3.83608e-06	0	0	0
5.45154e-06	0	0	0
7.52017e-06	0	0	0
