2.40779e-10	0	0	0
1.20904e-09	0	0	0
1.55397e-09	0	0	0
1.9036e-09	0	0	0
4.83057e-09	0	0	0
4.94352e-09	0	0	0
7.71201e-09	0	0	0
8.29224e-09	0	0	0
8.49048e-09	0	0	0
9.78681e-09	0	0	0
1.71356e-08	0	0	0
1.79431e-08	0	0	0
2.00027e-08	0	0	0
2.13858e-08	0	0	0
2.15166e-08	0	0	0
2.34791e-08	0	0	0
2.37615e-08	0	0	0
2.39072e-08	0	0	0
2.419e-08	0	0	0
2.81211e-08	0	0	0
3.34099e-08	0	0	0
4.0025e-08	0	0	0
4.03116e-08	0	0	0
4.46046e-08	0	0	0
4.78871e-08	0	0	0
5.18808e-08	0	0	0
5.27679e-08	0	0	0
5.9721e-08	0	0	0
6.25968e-08	0	0	0
7.81956e-08	0	0	0
7.86146e-08	0	0	0
8.4997e-08	0	0	0
8.94225e-08	0	0	0
9.27554e-08	0	0	0
9.57571e-08	0	0	0
9.65606e-08	0	0	0
1.00749e-07	0	0	0
1.08107e-07	0	0	0
1.1564e-07	0	0	0
1.2562e-07	0	0	0
1.30099e-07	0	0	0
1.39205e-07	0	0	0
1.44734e-07	0	0	0
1.89384e-07	0	0	0
1.97423e-07	0	0	0
2.87383e-07	0	0	0
2.87663e-07	0	0	0
2.89118e-07	0	0	0
3.50671e-07	0	0	0
3.55019e-07	0	0	0
3.672e-07	0	0	0
3.75128e-07	0	0	0
3.86798e-07	0	0	0
4.20034e-07	0	0	0
4.42873e-07	0	0	0
6.3214e-07	0	0	0
7.0482e-07	0	0	0
9.64285e-07	0	0	0
1.05322e-06	0	0	0
1.43597e-06	0	0	0
1.78484e-06	0	0	0
2.02489e-06	0	0	0
3.23021e-06	0	0	0
3.53283e-06	0	0	0
3.98405e-06	0	0	0
