0	99.96903399478393
10	89.21685461645957
20	79.34106767222939
30	69.41909989985338
40	59.508591881554615
50	49.638480937257455
60	39.78427034070311
70	29.95031954310796
80	20.067285301376383
90	10.274659626023686
