%!PS-Adobe-2.0 EPSF-2.0
%%Title: final_yield_vs_lignin_enzymes.eps
%%Creator: gnuplot 5.2 patchlevel 2
%%CreationDate: Wed May  5 10:44:53 2021
%%DocumentFonts: (atend)
%%BoundingBox: 50 50 410 302
%%EndComments
%%BeginProlog
/gnudict 256 dict def
gnudict begin
%
% The following true/false flags may be edited by hand if desired.
% The unit line width and grayscale image gamma correction may also be changed.
%
/Color true def
/Blacktext false def
/Solid false def
/Dashlength 1 def
/Landscape false def
/Level1 false def
/Level3 false def
/Rounded false def
/ClipToBoundingBox false def
/SuppressPDFMark false def
/TransparentPatterns false def
/gnulinewidth 5.000 def
/userlinewidth gnulinewidth def
/Gamma 1.0 def
/BackgroundColor {-1.000 -1.000 -1.000} def
%
/vshift -46 def
/dl1 {
  10.0 Dashlength userlinewidth gnulinewidth div mul mul mul
  Rounded { currentlinewidth 0.75 mul sub dup 0 le { pop 0.01 } if } if
} def
/dl2 {
  10.0 Dashlength userlinewidth gnulinewidth div mul mul mul
  Rounded { currentlinewidth 0.75 mul add } if
} def
/hpt_ 31.5 def
/vpt_ 31.5 def
/hpt hpt_ def
/vpt vpt_ def
/doclip {
  ClipToBoundingBox {
    newpath 50 50 moveto 410 50 lineto 410 302 lineto 50 302 lineto closepath
    clip
  } if
} def
%
% Gnuplot Prolog Version 5.1 (Oct 2015)
%
%/SuppressPDFMark true def
%
/M {moveto} bind def
/L {lineto} bind def
/R {rmoveto} bind def
/V {rlineto} bind def
/N {newpath moveto} bind def
/Z {closepath} bind def
/C {setrgbcolor} bind def
/f {rlineto fill} bind def
/g {setgray} bind def
/Gshow {show} def   % May be redefined later in the file to support UTF-8
/vpt2 vpt 2 mul def
/hpt2 hpt 2 mul def
/Lshow {currentpoint stroke M 0 vshift R 
	Blacktext {gsave 0 setgray textshow grestore} {textshow} ifelse} def
/Rshow {currentpoint stroke M dup stringwidth pop neg vshift R
	Blacktext {gsave 0 setgray textshow grestore} {textshow} ifelse} def
/Cshow {currentpoint stroke M dup stringwidth pop -2 div vshift R 
	Blacktext {gsave 0 setgray textshow grestore} {textshow} ifelse} def
/UP {dup vpt_ mul /vpt exch def hpt_ mul /hpt exch def
  /hpt2 hpt 2 mul def /vpt2 vpt 2 mul def} def
/DL {Color {setrgbcolor Solid {pop []} if 0 setdash}
 {pop pop pop 0 setgray Solid {pop []} if 0 setdash} ifelse} def
/BL {stroke userlinewidth 2 mul setlinewidth
	Rounded {1 setlinejoin 1 setlinecap} if} def
/AL {stroke userlinewidth 2 div setlinewidth
	Rounded {1 setlinejoin 1 setlinecap} if} def
/UL {dup gnulinewidth mul /userlinewidth exch def
	dup 1 lt {pop 1} if 10 mul /udl exch def} def
/PL {stroke userlinewidth setlinewidth
	Rounded {1 setlinejoin 1 setlinecap} if} def
3.8 setmiterlimit
% Classic Line colors (version 5.0)
/LCw {1 1 1} def
/LCb {0 0 0} def
/LCa {0 0 0} def
/LC0 {1 0 0} def
/LC1 {0 1 0} def
/LC2 {0 0 1} def
/LC3 {1 0 1} def
/LC4 {0 1 1} def
/LC5 {1 1 0} def
/LC6 {0 0 0} def
/LC7 {1 0.3 0} def
/LC8 {0.5 0.5 0.5} def
% Default dash patterns (version 5.0)
/LTB {BL [] LCb DL} def
/LTw {PL [] 1 setgray} def
/LTb {PL [] LCb DL} def
/LTa {AL [1 udl mul 2 udl mul] 0 setdash LCa setrgbcolor} def
/LT0 {PL [] LC0 DL} def
/LT1 {PL [2 dl1 3 dl2] LC1 DL} def
/LT2 {PL [1 dl1 1.5 dl2] LC2 DL} def
/LT3 {PL [6 dl1 2 dl2 1 dl1 2 dl2] LC3 DL} def
/LT4 {PL [1 dl1 2 dl2 6 dl1 2 dl2 1 dl1 2 dl2] LC4 DL} def
/LT5 {PL [4 dl1 2 dl2] LC5 DL} def
/LT6 {PL [1.5 dl1 1.5 dl2 1.5 dl1 1.5 dl2 1.5 dl1 6 dl2] LC6 DL} def
/LT7 {PL [3 dl1 3 dl2 1 dl1 3 dl2] LC7 DL} def
/LT8 {PL [2 dl1 2 dl2 2 dl1 6 dl2] LC8 DL} def
/SL {[] 0 setdash} def
/Pnt {stroke [] 0 setdash gsave 1 setlinecap M 0 0 V stroke grestore} def
/Dia {stroke [] 0 setdash 2 copy vpt add M
  hpt neg vpt neg V hpt vpt neg V
  hpt vpt V hpt neg vpt V closepath stroke
  Pnt} def
/Pls {stroke [] 0 setdash vpt sub M 0 vpt2 V
  currentpoint stroke M
  hpt neg vpt neg R hpt2 0 V stroke
 } def
/Box {stroke [] 0 setdash 2 copy exch hpt sub exch vpt add M
  0 vpt2 neg V hpt2 0 V 0 vpt2 V
  hpt2 neg 0 V closepath stroke
  Pnt} def
/Crs {stroke [] 0 setdash exch hpt sub exch vpt add M
  hpt2 vpt2 neg V currentpoint stroke M
  hpt2 neg 0 R hpt2 vpt2 V stroke} def
/TriU {stroke [] 0 setdash 2 copy vpt 1.12 mul add M
  hpt neg vpt -1.62 mul V
  hpt 2 mul 0 V
  hpt neg vpt 1.62 mul V closepath stroke
  Pnt} def
/Star {2 copy Pls Crs} def
/BoxF {stroke [] 0 setdash exch hpt sub exch vpt add M
  0 vpt2 neg V hpt2 0 V 0 vpt2 V
  hpt2 neg 0 V closepath fill} def
/TriUF {stroke [] 0 setdash vpt 1.12 mul add M
  hpt neg vpt -1.62 mul V
  hpt 2 mul 0 V
  hpt neg vpt 1.62 mul V closepath fill} def
/TriD {stroke [] 0 setdash 2 copy vpt 1.12 mul sub M
  hpt neg vpt 1.62 mul V
  hpt 2 mul 0 V
  hpt neg vpt -1.62 mul V closepath stroke
  Pnt} def
/TriDF {stroke [] 0 setdash vpt 1.12 mul sub M
  hpt neg vpt 1.62 mul V
  hpt 2 mul 0 V
  hpt neg vpt -1.62 mul V closepath fill} def
/DiaF {stroke [] 0 setdash vpt add M
  hpt neg vpt neg V hpt vpt neg V
  hpt vpt V hpt neg vpt V closepath fill} def
/Pent {stroke [] 0 setdash 2 copy gsave
  translate 0 hpt M 4 {72 rotate 0 hpt L} repeat
  closepath stroke grestore Pnt} def
/PentF {stroke [] 0 setdash gsave
  translate 0 hpt M 4 {72 rotate 0 hpt L} repeat
  closepath fill grestore} def
/Circle {stroke [] 0 setdash 2 copy
  hpt 0 360 arc stroke Pnt} def
/CircleF {stroke [] 0 setdash hpt 0 360 arc fill} def
/C0 {BL [] 0 setdash 2 copy moveto vpt 90 450 arc} bind def
/C1 {BL [] 0 setdash 2 copy moveto
	2 copy vpt 0 90 arc closepath fill
	vpt 0 360 arc closepath} bind def
/C2 {BL [] 0 setdash 2 copy moveto
	2 copy vpt 90 180 arc closepath fill
	vpt 0 360 arc closepath} bind def
/C3 {BL [] 0 setdash 2 copy moveto
	2 copy vpt 0 180 arc closepath fill
	vpt 0 360 arc closepath} bind def
/C4 {BL [] 0 setdash 2 copy moveto
	2 copy vpt 180 270 arc closepath fill
	vpt 0 360 arc closepath} bind def
/C5 {BL [] 0 setdash 2 copy moveto
	2 copy vpt 0 90 arc
	2 copy moveto
	2 copy vpt 180 270 arc closepath fill
	vpt 0 360 arc} bind def
/C6 {BL [] 0 setdash 2 copy moveto
	2 copy vpt 90 270 arc closepath fill
	vpt 0 360 arc closepath} bind def
/C7 {BL [] 0 setdash 2 copy moveto
	2 copy vpt 0 270 arc closepath fill
	vpt 0 360 arc closepath} bind def
/C8 {BL [] 0 setdash 2 copy moveto
	2 copy vpt 270 360 arc closepath fill
	vpt 0 360 arc closepath} bind def
/C9 {BL [] 0 setdash 2 copy moveto
	2 copy vpt 270 450 arc closepath fill
	vpt 0 360 arc closepath} bind def
/C10 {BL [] 0 setdash 2 copy 2 copy moveto vpt 270 360 arc closepath fill
	2 copy moveto
	2 copy vpt 90 180 arc closepath fill
	vpt 0 360 arc closepath} bind def
/C11 {BL [] 0 setdash 2 copy moveto
	2 copy vpt 0 180 arc closepath fill
	2 copy moveto
	2 copy vpt 270 360 arc closepath fill
	vpt 0 360 arc closepath} bind def
/C12 {BL [] 0 setdash 2 copy moveto
	2 copy vpt 180 360 arc closepath fill
	vpt 0 360 arc closepath} bind def
/C13 {BL [] 0 setdash 2 copy moveto
	2 copy vpt 0 90 arc closepath fill
	2 copy moveto
	2 copy vpt 180 360 arc closepath fill
	vpt 0 360 arc closepath} bind def
/C14 {BL [] 0 setdash 2 copy moveto
	2 copy vpt 90 360 arc closepath fill
	vpt 0 360 arc} bind def
/C15 {BL [] 0 setdash 2 copy vpt 0 360 arc closepath fill
	vpt 0 360 arc closepath} bind def
/Rec {newpath 4 2 roll moveto 1 index 0 rlineto 0 exch rlineto
	neg 0 rlineto closepath} bind def
/Square {dup Rec} bind def
/Bsquare {vpt sub exch vpt sub exch vpt2 Square} bind def
/S0 {BL [] 0 setdash 2 copy moveto 0 vpt rlineto BL Bsquare} bind def
/S1 {BL [] 0 setdash 2 copy vpt Square fill Bsquare} bind def
/S2 {BL [] 0 setdash 2 copy exch vpt sub exch vpt Square fill Bsquare} bind def
/S3 {BL [] 0 setdash 2 copy exch vpt sub exch vpt2 vpt Rec fill Bsquare} bind def
/S4 {BL [] 0 setdash 2 copy exch vpt sub exch vpt sub vpt Square fill Bsquare} bind def
/S5 {BL [] 0 setdash 2 copy 2 copy vpt Square fill
	exch vpt sub exch vpt sub vpt Square fill Bsquare} bind def
/S6 {BL [] 0 setdash 2 copy exch vpt sub exch vpt sub vpt vpt2 Rec fill Bsquare} bind def
/S7 {BL [] 0 setdash 2 copy exch vpt sub exch vpt sub vpt vpt2 Rec fill
	2 copy vpt Square fill Bsquare} bind def
/S8 {BL [] 0 setdash 2 copy vpt sub vpt Square fill Bsquare} bind def
/S9 {BL [] 0 setdash 2 copy vpt sub vpt vpt2 Rec fill Bsquare} bind def
/S10 {BL [] 0 setdash 2 copy vpt sub vpt Square fill 2 copy exch vpt sub exch vpt Square fill
	Bsquare} bind def
/S11 {BL [] 0 setdash 2 copy vpt sub vpt Square fill 2 copy exch vpt sub exch vpt2 vpt Rec fill
	Bsquare} bind def
/S12 {BL [] 0 setdash 2 copy exch vpt sub exch vpt sub vpt2 vpt Rec fill Bsquare} bind def
/S13 {BL [] 0 setdash 2 copy exch vpt sub exch vpt sub vpt2 vpt Rec fill
	2 copy vpt Square fill Bsquare} bind def
/S14 {BL [] 0 setdash 2 copy exch vpt sub exch vpt sub vpt2 vpt Rec fill
	2 copy exch vpt sub exch vpt Square fill Bsquare} bind def
/S15 {BL [] 0 setdash 2 copy Bsquare fill Bsquare} bind def
/D0 {gsave translate 45 rotate 0 0 S0 stroke grestore} bind def
/D1 {gsave translate 45 rotate 0 0 S1 stroke grestore} bind def
/D2 {gsave translate 45 rotate 0 0 S2 stroke grestore} bind def
/D3 {gsave translate 45 rotate 0 0 S3 stroke grestore} bind def
/D4 {gsave translate 45 rotate 0 0 S4 stroke grestore} bind def
/D5 {gsave translate 45 rotate 0 0 S5 stroke grestore} bind def
/D6 {gsave translate 45 rotate 0 0 S6 stroke grestore} bind def
/D7 {gsave translate 45 rotate 0 0 S7 stroke grestore} bind def
/D8 {gsave translate 45 rotate 0 0 S8 stroke grestore} bind def
/D9 {gsave translate 45 rotate 0 0 S9 stroke grestore} bind def
/D10 {gsave translate 45 rotate 0 0 S10 stroke grestore} bind def
/D11 {gsave translate 45 rotate 0 0 S11 stroke grestore} bind def
/D12 {gsave translate 45 rotate 0 0 S12 stroke grestore} bind def
/D13 {gsave translate 45 rotate 0 0 S13 stroke grestore} bind def
/D14 {gsave translate 45 rotate 0 0 S14 stroke grestore} bind def
/D15 {gsave translate 45 rotate 0 0 S15 stroke grestore} bind def
/DiaE {stroke [] 0 setdash vpt add M
  hpt neg vpt neg V hpt vpt neg V
  hpt vpt V hpt neg vpt V closepath stroke} def
/BoxE {stroke [] 0 setdash exch hpt sub exch vpt add M
  0 vpt2 neg V hpt2 0 V 0 vpt2 V
  hpt2 neg 0 V closepath stroke} def
/TriUE {stroke [] 0 setdash vpt 1.12 mul add M
  hpt neg vpt -1.62 mul V
  hpt 2 mul 0 V
  hpt neg vpt 1.62 mul V closepath stroke} def
/TriDE {stroke [] 0 setdash vpt 1.12 mul sub M
  hpt neg vpt 1.62 mul V
  hpt 2 mul 0 V
  hpt neg vpt -1.62 mul V closepath stroke} def
/PentE {stroke [] 0 setdash gsave
  translate 0 hpt M 4 {72 rotate 0 hpt L} repeat
  closepath stroke grestore} def
/CircE {stroke [] 0 setdash 
  hpt 0 360 arc stroke} def
/Opaque {gsave closepath 1 setgray fill grestore 0 setgray closepath} def
/DiaW {stroke [] 0 setdash vpt add M
  hpt neg vpt neg V hpt vpt neg V
  hpt vpt V hpt neg vpt V Opaque stroke} def
/BoxW {stroke [] 0 setdash exch hpt sub exch vpt add M
  0 vpt2 neg V hpt2 0 V 0 vpt2 V
  hpt2 neg 0 V Opaque stroke} def
/TriUW {stroke [] 0 setdash vpt 1.12 mul add M
  hpt neg vpt -1.62 mul V
  hpt 2 mul 0 V
  hpt neg vpt 1.62 mul V Opaque stroke} def
/TriDW {stroke [] 0 setdash vpt 1.12 mul sub M
  hpt neg vpt 1.62 mul V
  hpt 2 mul 0 V
  hpt neg vpt -1.62 mul V Opaque stroke} def
/PentW {stroke [] 0 setdash gsave
  translate 0 hpt M 4 {72 rotate 0 hpt L} repeat
  Opaque stroke grestore} def
/CircW {stroke [] 0 setdash 
  hpt 0 360 arc Opaque stroke} def
/BoxFill {gsave Rec 1 setgray fill grestore} def
/Density {
  /Fillden exch def
  currentrgbcolor
  /ColB exch def /ColG exch def /ColR exch def
  /ColR ColR Fillden mul Fillden sub 1 add def
  /ColG ColG Fillden mul Fillden sub 1 add def
  /ColB ColB Fillden mul Fillden sub 1 add def
  ColR ColG ColB setrgbcolor} def
/BoxColFill {gsave Rec PolyFill} def
/PolyFill {gsave Density fill grestore grestore} def
/h {rlineto rlineto rlineto gsave closepath fill grestore} bind def
%
% PostScript Level 1 Pattern Fill routine for rectangles
% Usage: x y w h s a XX PatternFill
%	x,y = lower left corner of box to be filled
%	w,h = width and height of box
%	  a = angle in degrees between lines and x-axis
%	 XX = 0/1 for no/yes cross-hatch
%
/PatternFill {gsave /PFa [ 9 2 roll ] def
  PFa 0 get PFa 2 get 2 div add PFa 1 get PFa 3 get 2 div add translate
  PFa 2 get -2 div PFa 3 get -2 div PFa 2 get PFa 3 get Rec
  TransparentPatterns {} {gsave 1 setgray fill grestore} ifelse
  clip
  currentlinewidth 0.5 mul setlinewidth
  /PFs PFa 2 get dup mul PFa 3 get dup mul add sqrt def
  0 0 M PFa 5 get rotate PFs -2 div dup translate
  0 1 PFs PFa 4 get div 1 add floor cvi
	{PFa 4 get mul 0 M 0 PFs V} for
  0 PFa 6 get ne {
	0 1 PFs PFa 4 get div 1 add floor cvi
	{PFa 4 get mul 0 2 1 roll M PFs 0 V} for
 } if
  stroke grestore} def
%
/languagelevel where
 {pop languagelevel} {1} ifelse
dup 2 lt
	{/InterpretLevel1 true def
	 /InterpretLevel3 false def}
	{/InterpretLevel1 Level1 def
	 2 gt
	    {/InterpretLevel3 Level3 def}
	    {/InterpretLevel3 false def}
	 ifelse }
 ifelse
%
% PostScript level 2 pattern fill definitions
%
/Level2PatternFill {
/Tile8x8 {/PaintType 2 /PatternType 1 /TilingType 1 /BBox [0 0 8 8] /XStep 8 /YStep 8}
	bind def
/KeepColor {currentrgbcolor [/Pattern /DeviceRGB] setcolorspace} bind def
<< Tile8x8
 /PaintProc {0.5 setlinewidth pop 0 0 M 8 8 L 0 8 M 8 0 L stroke} 
>> matrix makepattern
/Pat1 exch def
<< Tile8x8
 /PaintProc {0.5 setlinewidth pop 0 0 M 8 8 L 0 8 M 8 0 L stroke
	0 4 M 4 8 L 8 4 L 4 0 L 0 4 L stroke}
>> matrix makepattern
/Pat2 exch def
<< Tile8x8
 /PaintProc {0.5 setlinewidth pop 0 0 M 0 8 L
	8 8 L 8 0 L 0 0 L fill}
>> matrix makepattern
/Pat3 exch def
<< Tile8x8
 /PaintProc {0.5 setlinewidth pop -4 8 M 8 -4 L
	0 12 M 12 0 L stroke}
>> matrix makepattern
/Pat4 exch def
<< Tile8x8
 /PaintProc {0.5 setlinewidth pop -4 0 M 8 12 L
	0 -4 M 12 8 L stroke}
>> matrix makepattern
/Pat5 exch def
<< Tile8x8
 /PaintProc {0.5 setlinewidth pop -2 8 M 4 -4 L
	0 12 M 8 -4 L 4 12 M 10 0 L stroke}
>> matrix makepattern
/Pat6 exch def
<< Tile8x8
 /PaintProc {0.5 setlinewidth pop -2 0 M 4 12 L
	0 -4 M 8 12 L 4 -4 M 10 8 L stroke}
>> matrix makepattern
/Pat7 exch def
<< Tile8x8
 /PaintProc {0.5 setlinewidth pop 8 -2 M -4 4 L
	12 0 M -4 8 L 12 4 M 0 10 L stroke}
>> matrix makepattern
/Pat8 exch def
<< Tile8x8
 /PaintProc {0.5 setlinewidth pop 0 -2 M 12 4 L
	-4 0 M 12 8 L -4 4 M 8 10 L stroke}
>> matrix makepattern
/Pat9 exch def
/Pattern1 {PatternBgnd KeepColor Pat1 setpattern} bind def
/Pattern2 {PatternBgnd KeepColor Pat2 setpattern} bind def
/Pattern3 {PatternBgnd KeepColor Pat3 setpattern} bind def
/Pattern4 {PatternBgnd KeepColor Landscape {Pat5} {Pat4} ifelse setpattern} bind def
/Pattern5 {PatternBgnd KeepColor Landscape {Pat4} {Pat5} ifelse setpattern} bind def
/Pattern6 {PatternBgnd KeepColor Landscape {Pat9} {Pat6} ifelse setpattern} bind def
/Pattern7 {PatternBgnd KeepColor Landscape {Pat8} {Pat7} ifelse setpattern} bind def
} def
%
%
%End of PostScript Level 2 code
%
/PatternBgnd {
  TransparentPatterns {} {gsave 1 setgray fill grestore} ifelse
} def
%
% Substitute for Level 2 pattern fill codes with
% grayscale if Level 2 support is not selected.
%
/Level1PatternFill {
/Pattern1 {0.250 Density} bind def
/Pattern2 {0.500 Density} bind def
/Pattern3 {0.750 Density} bind def
/Pattern4 {0.125 Density} bind def
/Pattern5 {0.375 Density} bind def
/Pattern6 {0.625 Density} bind def
/Pattern7 {0.875 Density} bind def
} def
%
% Now test for support of Level 2 code
%
Level1 {Level1PatternFill} {Level2PatternFill} ifelse
%
/Symbol-Oblique /Symbol findfont [1 0 .167 1 0 0] makefont
dup length dict begin {1 index /FID eq {pop pop} {def} ifelse} forall
currentdict end definefont pop
%
/Metrics {ExtendTextBox Gswidth} def
/Lwidth {currentpoint stroke M 0 vshift R Metrics} def
/Rwidth {currentpoint stroke M dup stringwidth pop neg vshift R Metrics} def
/Cwidth {currentpoint stroke M dup stringwidth pop -2 div vshift R Metrics} def
/GLwidth {currentpoint stroke M 0 vshift R {ExtendTextBox} forall} def
/GRwidth {currentpoint stroke M dup Gwidth vshift R {ExtendTextBox} forall} def
/GCwidth {currentpoint stroke M dup Gwidth 2 div vshift R {ExtendTextBox} forall} def
/GLwidth2 {0 Gwidth AddGlyphWidth} def
/GRwidth2 {Gwidth -1 mul 0 AddGlyphWidth} def
/GCwidth2 {Gwidth 2 div dup -1 mul AddGlyphWidth} def
/AddGlyphWidth { dup TBx2 gt {userdict /TBx2 3 -1 roll put} {pop} ifelse
                 dup TBx1 lt {userdict /TBx1 3 -1 roll put} {pop} ifelse } def
/MFshow {
   { dup 5 get 3 ge
     { 5 get 3 eq {gsave} {grestore} ifelse }
     {dup dup 0 get findfont exch 1 get scalefont setfont
     [ currentpoint ] exch dup 2 get 0 exch R dup 5 get 2 ne {dup dup 6
     get exch 4 get {textshow} {Metrics pop 0 R} ifelse }if dup 5 get 0 eq
     {dup 3 get {2 get neg 0 exch R pop} {pop aload pop M} ifelse} {dup 5
     get 1 eq {dup 2 get exch dup 3 get exch 6 get Gswidth pop -2 div
     dup 0 R} {dup 6 get Gswidth pop -2 div 0 R 6 get
     textshow 2 index {aload pop M neg 3 -1 roll neg R pop pop} {pop pop pop
     pop aload pop M} ifelse }ifelse }ifelse }
     ifelse }
   forall} def
/Gswidth {dup type /stringtype eq {stringwidth} {pop (n) stringwidth} ifelse} def
/MFwidth {0 exch { dup 5 get 3 ge { 5 get 3 eq { 0 } { pop } ifelse }
 {dup 3 get{dup dup 0 get findfont exch 1 get scalefont setfont
     6 get Gswidth pop add} {pop} ifelse} ifelse} forall} def
/MLshow { currentpoint stroke M
  0 exch R
  Blacktext {gsave 0 setgray MFshow grestore} {MFshow} ifelse } bind def
/MRshow { currentpoint stroke M
  exch dup MFwidth neg 3 -1 roll R
  Blacktext {gsave 0 setgray MFshow grestore} {MFshow} ifelse } bind def
/MCshow { currentpoint stroke M
  exch dup MFwidth -2 div 3 -1 roll R
  Blacktext {gsave 0 setgray MFshow grestore} {MFshow} ifelse } bind def
/XYsave    { [( ) 1 2 true false 3 ()] } bind def
/XYrestore { [( ) 1 2 true false 4 ()] } bind def
Level1 SuppressPDFMark or 
{} {
/SDict 10 dict def
systemdict /pdfmark known not {
  userdict /pdfmark systemdict /cleartomark get put
} if
SDict begin [
  /Title (final_yield_vs_lignin_enzymes.eps)
  /Subject (gnuplot plot)
  /Creator (gnuplot 5.2 patchlevel 2)
%  /Producer (gnuplot)
%  /Keywords ()
  /CreationDate (Wed May  5 10:44:53 2021)
  /DOCINFO pdfmark
end
} ifelse
%
% Support for boxed text - Ethan A Merritt Sep 2016
%
/InitTextBox { userdict /TBy2 3 -1 roll put userdict /TBx2 3 -1 roll put
           userdict /TBy1 3 -1 roll put userdict /TBx1 3 -1 roll put
	   /Boxing true def } def
/ExtendTextBox { dup type /stringtype eq
    { Boxing { gsave dup false charpath pathbbox
      dup TBy2 gt {userdict /TBy2 3 -1 roll put} {pop} ifelse
      dup TBx2 gt {userdict /TBx2 3 -1 roll put} {pop} ifelse
      dup TBy1 lt {userdict /TBy1 3 -1 roll put} {pop} ifelse
      dup TBx1 lt {userdict /TBx1 3 -1 roll put} {pop} ifelse
      grestore } if }
    {} ifelse} def
/PopTextBox { newpath TBx1 TBxmargin sub TBy1 TBymargin sub M
               TBx1 TBxmargin sub TBy2 TBymargin add L
	       TBx2 TBxmargin add TBy2 TBymargin add L
	       TBx2 TBxmargin add TBy1 TBymargin sub L closepath } def
/DrawTextBox { PopTextBox stroke /Boxing false def} def
/FillTextBox { gsave PopTextBox fill grestore /Boxing false def} def
0 0 0 0 InitTextBox
/TBxmargin 20 def
/TBymargin 20 def
/Boxing false def
/textshow { ExtendTextBox Gshow } def
%
end
%%EndProlog
%%Page: 1 1
gnudict begin
gsave
doclip
50 50 translate
0.050 0.050 scale
0 setgray
newpath
(Helvetica) findfont 140 scalefont setfont
BackgroundColor 0 lt 3 1 roll 0 lt exch 0 lt or or not {BackgroundColor C 1.000 0 0 7200.00 5040.00 BoxColFill} if
1.000 UL
LTb
LCb setrgbcolor
826 627 M
63 0 V
6058 0 R
-63 0 V
stroke
742 627 M
[ [(Helvetica) 200.0 0.0 true true 0 ( 0)]
] -66.7 MRshow
1.000 UL
LTb
LCb setrgbcolor
826 1404 M
63 0 V
6058 0 R
-63 0 V
stroke
742 1404 M
[ [(Helvetica) 200.0 0.0 true true 0 ( 20)]
] -66.7 MRshow
1.000 UL
LTb
LCb setrgbcolor
826 2180 M
63 0 V
6058 0 R
-63 0 V
stroke
742 2180 M
[ [(Helvetica) 200.0 0.0 true true 0 ( 40)]
] -66.7 MRshow
1.000 UL
LTb
LCb setrgbcolor
826 2957 M
63 0 V
6058 0 R
-63 0 V
stroke
742 2957 M
[ [(Helvetica) 200.0 0.0 true true 0 ( 60)]
] -66.7 MRshow
1.000 UL
LTb
LCb setrgbcolor
826 3734 M
63 0 V
6058 0 R
-63 0 V
stroke
742 3734 M
[ [(Helvetica) 200.0 0.0 true true 0 ( 80)]
] -66.7 MRshow
1.000 UL
LTb
LCb setrgbcolor
826 4511 M
63 0 V
6058 0 R
-63 0 V
stroke
742 4511 M
[ [(Helvetica) 200.0 0.0 true true 0 ( 100)]
] -66.7 MRshow
1.000 UL
LTb
LCb setrgbcolor
826 588 M
0 63 V
0 4248 R
0 -63 V
stroke
826 448 M
[ [(Helvetica) 200.0 0.0 true true 0 ( 0)]
] -66.7 MCshow
1.000 UL
LTb
LCb setrgbcolor
1846 588 M
0 63 V
0 4248 R
0 -63 V
stroke
1846 448 M
[ [(Helvetica) 200.0 0.0 true true 0 ( 10)]
] -66.7 MCshow
1.000 UL
LTb
LCb setrgbcolor
2866 588 M
0 63 V
0 4248 R
0 -63 V
stroke
2866 448 M
[ [(Helvetica) 200.0 0.0 true true 0 ( 20)]
] -66.7 MCshow
1.000 UL
LTb
LCb setrgbcolor
3887 588 M
0 63 V
0 4248 R
0 -63 V
stroke
3887 448 M
[ [(Helvetica) 200.0 0.0 true true 0 ( 30)]
] -66.7 MCshow
1.000 UL
LTb
LCb setrgbcolor
4907 588 M
0 63 V
0 4248 R
0 -63 V
stroke
4907 448 M
[ [(Helvetica) 200.0 0.0 true true 0 ( 40)]
] -66.7 MCshow
1.000 UL
LTb
LCb setrgbcolor
5927 588 M
0 63 V
0 4248 R
0 -63 V
stroke
5927 448 M
[ [(Helvetica) 200.0 0.0 true true 0 ( 50)]
] -66.7 MCshow
1.000 UL
LTb
LCb setrgbcolor
6947 588 M
0 63 V
0 4248 R
0 -63 V
stroke
6947 448 M
[ [(Helvetica) 200.0 0.0 true true 0 ( 60)]
] -66.7 MCshow
1.000 UL
LTb
LCb setrgbcolor
1.000 UL
LTB
LCb setrgbcolor
826 4899 N
826 588 L
6121 0 V
0 4311 V
-6121 0 V
Z stroke
1.000 UP
LCb setrgbcolor
928 3345 M
[ [(Helvetica) 200.0 0.0 true true 0 (1 )]
[(Symbol) 200.0 0.0 true true 0 (m)]
[(Helvetica) 200.0 0.0 true true 0 (M)]
] -66.7 MLshow
LCb setrgbcolor
1846 3734 M
[ [(Helvetica) 200.0 0.0 true true 0 (2 )]
[(Symbol) 200.0 0.0 true true 0 (m)]
[(Helvetica) 200.0 0.0 true true 0 (M)]
] -66.7 MLshow
LCb setrgbcolor
2764 3928 M
[ [(Helvetica) 200.0 0.0 true true 0 (3 )]
[(Symbol) 200.0 0.0 true true 0 (m)]
[(Helvetica) 200.0 0.0 true true 0 (M)]
] -66.7 MLshow
LCb setrgbcolor
5213 3967 M
[ [(Helvetica) 200.0 0.0 true true 0 (5 )]
[(Symbol) 200.0 0.0 true true 0 (m)]
[(Helvetica) 200.0 0.0 true true 0 (M)]
] -66.7 MLshow
LCb setrgbcolor
6131 4666 M
[ [(Helvetica) 200.0 0.0 true true 0 (10 )]
[(Symbol) 200.0 0.0 true true 0 (m)]
[(Helvetica) 200.0 0.0 true true 0 (M)]
] -66.7 MLshow
1.000 UL
LTb
LCb setrgbcolor
LCb setrgbcolor
126 2743 M
currentpoint gsave translate -270 rotate 0 0 moveto
[ [(Helvetica) 260.0 0.0 true true 0 (Glucan to glucose conversion \(%\))]
] -86.7 MCshow
grestore
LTb
LCb setrgbcolor
3886 238 M
[ [(Helvetica) 240.0 0.0 true true 0 (Lignin content \(%\))]
] -80.0 MCshow
LTb
% Begin plot #1
5.000 UL
LTb
0.87 0.87 0.87 C 826 3246 M
62 -214 V
62 -228 V
61 -234 V
62 -234 V
62 -228 V
62 -215 V
62 -197 V
62 -178 V
61 -155 V
62 -134 V
62 -113 V
62 -95 V
62 -78 V
62 -64 V
61 -51 V
62 -42 V
62 -33 V
62 -26 V
62 -21 V
62 -17 V
61 -13 V
62 -11 V
62 -8 V
62 -6 V
62 -5 V
62 -4 V
61 -4 V
62 -2 V
62 -2 V
62 -2 V
62 -1 V
62 -1 V
61 0 V
62 -1 V
62 -1 V
62 0 V
62 0 V
61 0 V
62 -1 V
62 0 V
62 0 V
62 0 V
62 0 V
61 0 V
62 0 V
62 0 V
62 0 V
62 0 V
62 0 V
61 0 V
62 0 V
62 0 V
62 0 V
62 0 V
62 0 V
61 0 V
62 0 V
62 0 V
62 0 V
62 0 V
62 0 V
61 0 V
62 0 V
62 0 V
62 0 V
62 0 V
61 0 V
62 0 V
62 0 V
62 0 V
62 0 V
62 0 V
61 0 V
62 0 V
62 0 V
62 0 V
62 0 V
62 0 V
61 0 V
62 0 V
62 0 V
62 0 V
62 0 V
62 0 V
61 0 V
62 0 V
62 0 V
62 0 V
62 0 V
62 0 V
61 0 V
62 0 V
62 0 V
62 0 V
62 0 V
62 0 V
61 0 V
62 0 V
62 0 V
% End plot #1
% Begin plot #2
stroke
LTb
0.87 0.87 0.87 C 826 4085 M
62 -8 V
62 -11 V
61 -13 V
62 -16 V
62 -19 V
62 -24 V
62 -29 V
62 -35 V
61 -42 V
62 -51 V
62 -61 V
62 -72 V
62 -85 V
62 -98 V
61 -113 V
62 -128 V
62 -143 V
62 -157 V
62 -169 V
62 -178 V
61 -183 V
62 -185 V
62 -183 V
62 -176 V
62 -167 V
62 -154 V
61 -141 V
62 -125 V
62 -110 V
62 -96 V
62 -82 V
62 -70 V
61 -59 V
62 -49 V
62 -41 V
62 -34 V
62 -28 V
61 -23 V
62 -18 V
62 -16 V
62 -12 V
62 -10 V
62 -9 V
61 -6 V
62 -6 V
62 -4 V
62 -4 V
62 -3 V
62 -2 V
61 -2 V
62 -2 V
62 -1 V
62 -1 V
62 -1 V
62 0 V
61 -1 V
62 0 V
62 -1 V
62 0 V
62 0 V
62 0 V
61 -1 V
62 0 V
62 0 V
62 0 V
62 0 V
61 0 V
62 0 V
62 0 V
62 0 V
62 0 V
62 0 V
61 0 V
62 0 V
62 0 V
62 0 V
62 0 V
62 0 V
61 0 V
62 0 V
62 0 V
62 0 V
62 0 V
62 0 V
61 0 V
62 0 V
62 0 V
62 0 V
62 0 V
62 0 V
61 0 V
62 0 V
62 0 V
62 0 V
62 0 V
62 0 V
61 0 V
62 0 V
62 0 V
% End plot #2
% Begin plot #3
stroke
LTb
0.87 0.87 0.87 C 826 4339 M
62 -3 V
62 -3 V
61 -3 V
62 -5 V
62 -4 V
62 -6 V
62 -6 V
62 -8 V
61 -9 V
62 -10 V
62 -12 V
62 -13 V
62 -16 V
62 -18 V
61 -20 V
62 -24 V
62 -27 V
62 -32 V
62 -35 V
62 -41 V
61 -46 V
62 -52 V
62 -58 V
62 -66 V
62 -73 V
62 -81 V
61 -89 V
62 -97 V
62 -106 V
62 -113 V
62 -120 V
62 -127 V
61 -133 V
62 -137 V
62 -140 V
62 -141 V
62 -141 V
61 -139 V
62 -135 V
62 -131 V
62 -125 V
62 -117 V
62 -111 V
61 -102 V
62 -95 V
62 -86 V
62 -78 V
62 -70 V
62 -63 V
61 -56 V
62 -50 V
62 -44 V
62 -38 V
62 -34 V
62 -30 V
61 -26 V
62 -22 V
62 -20 V
62 -17 V
62 -15 V
62 -13 V
61 -11 V
62 -9 V
62 -9 V
62 -7 V
62 -6 V
61 -5 V
62 -5 V
62 -4 V
62 -3 V
62 -3 V
62 -3 V
61 -2 V
62 -2 V
62 -1 V
62 -2 V
62 -1 V
62 -1 V
61 -1 V
62 -1 V
62 0 V
62 -1 V
62 0 V
62 -1 V
61 0 V
62 0 V
62 -1 V
62 0 V
62 0 V
62 0 V
61 0 V
62 0 V
62 -1 V
62 0 V
62 0 V
62 0 V
61 0 V
62 0 V
62 0 V
% End plot #3
% Begin plot #4
stroke
LTb
0.87 0.87 0.87 C 826 4510 M
62 0 V
62 0 V
61 0 V
62 0 V
62 0 V
62 0 V
62 0 V
62 0 V
61 0 V
62 0 V
62 0 V
62 -1 V
62 0 V
62 0 V
61 0 V
62 0 V
62 -1 V
62 0 V
62 0 V
62 0 V
61 -1 V
62 0 V
62 -1 V
62 0 V
62 -1 V
62 -1 V
61 -1 V
62 -1 V
62 -1 V
62 -1 V
62 -1 V
62 -2 V
61 -1 V
62 -2 V
62 -2 V
62 -3 V
62 -3 V
61 -3 V
62 -3 V
62 -4 V
62 -5 V
62 -5 V
62 -5 V
61 -7 V
62 -7 V
62 -8 V
62 -9 V
62 -10 V
62 -11 V
61 -13 V
62 -14 V
62 -16 V
62 -18 V
62 -20 V
62 -23 V
61 -25 V
62 -27 V
62 -31 V
62 -34 V
62 -38 V
62 -42 V
61 -45 V
62 -51 V
62 -55 V
62 -60 V
62 -65 V
61 -71 V
62 -76 V
62 -81 V
62 -87 V
62 -92 V
62 -98 V
61 -102 V
62 -106 V
62 -110 V
62 -113 V
62 -115 V
62 -117 V
61 -118 V
62 -117 V
62 -117 V
62 -114 V
62 -112 V
62 -109 V
61 -105 V
62 -100 V
62 -95 V
62 -91 V
62 -84 V
62 -80 V
61 -74 V
62 -68 V
62 -63 V
62 -59 V
62 -53 V
62 -48 V
61 -45 V
62 -40 V
62 -36 V
% End plot #4
% Begin plot #5
stroke
LTb
0.87 0.87 0.87 C 826 4510 M
62 0 V
62 0 V
61 0 V
62 0 V
62 0 V
62 0 V
62 0 V
62 0 V
61 0 V
62 0 V
62 0 V
62 0 V
62 0 V
62 0 V
61 0 V
62 0 V
62 0 V
62 0 V
62 0 V
62 0 V
61 0 V
62 -1 V
62 0 V
62 0 V
62 0 V
62 0 V
61 0 V
62 0 V
62 0 V
62 0 V
62 0 V
62 0 V
61 -1 V
62 0 V
62 0 V
62 0 V
62 0 V
61 0 V
62 -1 V
62 0 V
62 0 V
62 0 V
62 0 V
61 -1 V
62 0 V
62 0 V
62 -1 V
62 0 V
62 0 V
61 -1 V
62 0 V
62 0 V
62 -1 V
62 0 V
62 -1 V
61 0 V
62 -1 V
62 0 V
62 -1 V
62 -1 V
62 -1 V
61 0 V
62 -1 V
62 -1 V
62 -1 V
62 -1 V
61 -1 V
62 -1 V
62 -1 V
62 -1 V
62 -2 V
62 -1 V
61 -1 V
62 -2 V
62 -2 V
62 -1 V
62 -2 V
62 -2 V
61 -2 V
62 -2 V
62 -3 V
62 -2 V
62 -3 V
62 -3 V
61 -3 V
62 -3 V
62 -3 V
62 -4 V
62 -4 V
62 -4 V
61 -4 V
62 -4 V
62 -5 V
62 -5 V
62 -6 V
62 -5 V
61 -6 V
62 -7 V
62 -6 V
% End plot #5
% Begin plot #6
1.500 UP
stroke
1.000 UL
LTb
0.00 0.00 0.00 C 826 3269 BoxF
1846 627 BoxF
2866 627 BoxF
3887 627 BoxF
4397 627 BoxF
4907 627 BoxF
5417 627 BoxF
5927 627 BoxF
% End plot #6
% Begin plot #7
1.700 UP
1.000 UL
LTb
0.00 0.00 0.00 C 826 4066 CircleF
1846 3126 CircleF
2356 1944 CircleF
2866 627 CircleF
3887 627 CircleF
4397 627 CircleF
4907 627 CircleF
5417 627 CircleF
5927 627 CircleF
% End plot #7
% Begin plot #8
1.700 UP
1.000 UL
LTb
0.00 0.00 0.00 C 826 4348 TriDF
1846 4070 TriDF
2866 3150 TriDF
3376 1702 TriDF
3887 631 TriDF
4397 627 TriDF
4907 627 TriDF
5417 627 TriDF
5927 627 TriDF
% End plot #8
% Begin plot #9
1.700 UP
1.000 UL
LTb
0.00 0.00 0.00 C 826 4491 DiaF
1846 4467 DiaF
2866 4413 DiaF
3887 4278 DiaF
4397 4112 DiaF
4907 3849 DiaF
5417 3305 DiaF
5927 1972 DiaF
% End plot #9
% Begin plot #10
1.900 UP
1.000 UL
LTb
0.00 0.00 0.00 C 826 4509 TriUF
1846 4508 TriUF
2866 4506 TriUF
3887 4501 TriUF
4397 4498 TriUF
4907 4493 TriUF
5417 4486 TriUF
5927 4467 TriUF
% End plot #10
% Begin plot #11
5.000 UL
LTb
0.00 0.00 0.00 C 826 3269 M
10 -27 V
11 -26 V
10 -27 V
10 -27 V
11 -26 V
10 -27 V
10 -27 V
10 -26 V
11 -27 V
10 -27 V
10 -26 V
11 -27 V
10 -27 V
10 -27 V
11 -26 V
10 -27 V
10 -27 V
10 -26 V
11 -27 V
10 -27 V
10 -26 V
11 -27 V
10 -27 V
10 -26 V
11 -27 V
10 -27 V
10 -27 V
11 -26 V
10 -27 V
10 -27 V
10 -26 V
11 -27 V
10 -27 V
10 -26 V
11 -27 V
10 -27 V
10 -26 V
11 -27 V
10 -27 V
10 -26 V
10 -27 V
11 -27 V
10 -27 V
10 -26 V
11 -27 V
10 -27 V
10 -26 V
11 -27 V
10 -27 V
10 -26 V
11 -27 V
10 -27 V
10 -26 V
10 -27 V
11 -27 V
10 -27 V
10 -26 V
11 -27 V
10 -27 V
10 -26 V
11 -27 V
10 -27 V
10 -26 V
11 -27 V
10 -27 V
10 -26 V
10 -27 V
11 -27 V
10 -26 V
10 -27 V
11 -27 V
10 -27 V
10 -26 V
11 -27 V
10 -27 V
10 -26 V
10 -27 V
11 -27 V
10 -26 V
10 -27 V
11 -27 V
10 -26 V
10 -27 V
11 -27 V
10 -26 V
10 -27 V
11 -27 V
10 -27 V
10 -26 V
10 -27 V
11 -27 V
10 -26 V
10 -27 V
11 -27 V
10 -26 V
10 -27 V
11 -27 V
10 -26 V
10 -27 V
% End plot #11
% Begin plot #12
stroke
LTb
0.00 0.00 0.00 C 1642 3648 M
11 -27 V
12 -28 V
11 -28 V
11 -28 V
12 -27 V
11 -28 V
11 -28 V
12 -28 V
11 -27 V
11 -28 V
12 -28 V
11 -28 V
11 -27 V
12 -28 V
11 -28 V
11 -28 V
12 -28 V
11 -27 V
12 -28 V
11 -28 V
11 -28 V
12 -27 V
11 -28 V
11 -28 V
12 -28 V
11 -27 V
11 -28 V
12 -28 V
11 -28 V
11 -28 V
12 -27 V
11 -28 V
11 -28 V
12 -28 V
11 -27 V
11 -28 V
12 -28 V
11 -28 V
11 -27 V
12 -28 V
11 -28 V
11 -28 V
12 -28 V
11 -27 V
11 -28 V
12 -28 V
11 -28 V
11 -27 V
12 -28 V
11 -28 V
11 -28 V
12 -27 V
11 -28 V
11 -28 V
12 -28 V
11 -28 V
11 -27 V
12 -28 V
11 -28 V
11 -28 V
12 -27 V
11 -28 V
11 -28 V
12 -28 V
11 -27 V
11 -28 V
12 -28 V
11 -28 V
11 -28 V
12 -27 V
11 -28 V
11 -28 V
12 -28 V
11 -27 V
11 -28 V
12 -28 V
11 -28 V
11 -27 V
12 -28 V
11 -28 V
11 -28 V
12 -28 V
11 -27 V
11 -28 V
12 -28 V
11 -28 V
11 -27 V
12 -28 V
11 -28 V
11 -28 V
12 -27 V
11 -28 V
11 -28 V
12 -28 V
11 -28 V
11 -27 V
12 -28 V
11 -28 V
11 -28 V
% End plot #12
% Begin plot #13
stroke
LTb
0.00 0.00 0.00 C 2560 3843 M
13 -31 V
12 -30 V
12 -31 V
13 -31 V
12 -30 V
12 -31 V
13 -30 V
12 -31 V
13 -30 V
12 -31 V
12 -30 V
13 -31 V
12 -30 V
12 -31 V
13 -30 V
12 -31 V
12 -30 V
13 -31 V
12 -31 V
13 -30 V
12 -31 V
12 -30 V
13 -31 V
12 -30 V
12 -31 V
13 -30 V
12 -31 V
13 -30 V
12 -31 V
12 -30 V
13 -31 V
12 -30 V
12 -31 V
13 -30 V
12 -31 V
12 -31 V
13 -30 V
12 -31 V
13 -30 V
12 -31 V
12 -30 V
13 -31 V
12 -30 V
12 -31 V
13 -30 V
12 -31 V
12 -30 V
13 -31 V
12 -30 V
13 -31 V
12 -31 V
12 -30 V
13 -31 V
12 -30 V
12 -31 V
13 -30 V
12 -31 V
12 -30 V
13 -31 V
12 -30 V
13 -31 V
12 -30 V
12 -31 V
13 -30 V
12 -31 V
12 -31 V
13 -30 V
12 -31 V
13 -30 V
12 -31 V
12 -30 V
13 -31 V
12 -30 V
12 -31 V
13 -30 V
12 -31 V
12 -30 V
13 -31 V
12 -30 V
13 -31 V
12 -31 V
12 -30 V
13 -31 V
12 -30 V
12 -31 V
13 -30 V
12 -31 V
12 -30 V
13 -31 V
12 -30 V
13 -31 V
12 -30 V
12 -31 V
13 -30 V
12 -31 V
12 -31 V
13 -30 V
12 -31 V
12 -30 V
% End plot #13
% Begin plot #14
stroke
LTb
0.00 0.00 0.00 C 4805 4168 M
14 -26 V
15 -27 V
14 -26 V
14 -27 V
15 -26 V
14 -27 V
15 -26 V
14 -27 V
14 -27 V
15 -26 V
14 -27 V
15 -26 V
14 -27 V
15 -26 V
14 -27 V
14 -26 V
15 -27 V
14 -26 V
15 -27 V
14 -27 V
15 -26 V
14 -27 V
14 -26 V
15 -27 V
14 -26 V
15 -27 V
14 -26 V
15 -27 V
14 -26 V
14 -27 V
15 -27 V
14 -26 V
15 -27 V
14 -26 V
15 -27 V
14 -26 V
14 -27 V
15 -26 V
14 -27 V
15 -26 V
14 -27 V
15 -27 V
14 -26 V
14 -27 V
15 -26 V
14 -27 V
15 -26 V
14 -27 V
15 -26 V
14 -27 V
14 -26 V
15 -27 V
14 -27 V
15 -26 V
14 -27 V
15 -26 V
14 -27 V
14 -26 V
15 -27 V
14 -26 V
15 -27 V
14 -26 V
15 -27 V
14 -26 V
14 -27 V
15 -27 V
14 -26 V
15 -27 V
14 -26 V
15 -27 V
14 -26 V
14 -27 V
15 -26 V
14 -27 V
15 -26 V
14 -27 V
14 -27 V
15 -26 V
14 -27 V
15 -26 V
14 -27 V
15 -26 V
14 -27 V
14 -26 V
15 -27 V
14 -26 V
15 -27 V
14 -27 V
15 -26 V
14 -27 V
14 -26 V
15 -27 V
14 -26 V
15 -27 V
14 -26 V
15 -27 V
14 -26 V
14 -27 V
15 -27 V
% End plot #14
stroke
2.000 UL
LTb
LCb setrgbcolor
1.000 UL
LTB
LCb setrgbcolor
826 4899 N
826 588 L
6121 0 V
0 4311 V
-6121 0 V
Z stroke
1.000 UP
1.000 UL
LTb
LCb setrgbcolor
3852 1360 1656 1310 BoxFill
1.000 UL
LTb
LCb setrgbcolor
4104 1500 M
63 0 V
1256 0 R
-63 0 V
stroke
4020 1500 M
[ [(Helvetica) 80.0 0.0 true true 0 ( 0)]
] -26.7 MRshow
1.000 UL
LTb
LCb setrgbcolor
4104 1672 M
63 0 V
1256 0 R
-63 0 V
stroke
4020 1672 M
[ [(Helvetica) 80.0 0.0 true true 0 ( 100)]
] -26.7 MRshow
1.000 UL
LTb
LCb setrgbcolor
4104 1844 M
63 0 V
1256 0 R
-63 0 V
stroke
4020 1844 M
[ [(Helvetica) 80.0 0.0 true true 0 ( 200)]
] -26.7 MRshow
1.000 UL
LTb
LCb setrgbcolor
4104 2016 M
63 0 V
1256 0 R
-63 0 V
stroke
4020 2016 M
[ [(Helvetica) 80.0 0.0 true true 0 ( 300)]
] -26.7 MRshow
1.000 UL
LTb
LCb setrgbcolor
4104 2187 M
63 0 V
1256 0 R
-63 0 V
stroke
4020 2187 M
[ [(Helvetica) 80.0 0.0 true true 0 ( 400)]
] -26.7 MRshow
1.000 UL
LTb
LCb setrgbcolor
4104 2359 M
63 0 V
1256 0 R
-63 0 V
stroke
4020 2359 M
[ [(Helvetica) 80.0 0.0 true true 0 ( 500)]
] -26.7 MRshow
1.000 UL
LTb
LCb setrgbcolor
4104 2531 M
63 0 V
1256 0 R
-63 0 V
stroke
4020 2531 M
[ [(Helvetica) 80.0 0.0 true true 0 ( 600)]
] -26.7 MRshow
1.000 UL
LTb
LCb setrgbcolor
4104 1500 M
0 63 V
0 968 R
0 -63 V
stroke
4104 1360 M
[ [(Helvetica) 80.0 0.0 true true 0 ( 0)]
] -26.7 MCshow
1.000 UL
LTb
LCb setrgbcolor
4368 1500 M
0 63 V
0 968 R
0 -63 V
stroke
4368 1360 M
[ [(Helvetica) 80.0 0.0 true true 0 ( 50)]
] -26.7 MCshow
1.000 UL
LTb
LCb setrgbcolor
4632 1500 M
0 63 V
0 968 R
0 -63 V
stroke
4632 1360 M
[ [(Helvetica) 80.0 0.0 true true 0 ( 100)]
] -26.7 MCshow
1.000 UL
LTb
LCb setrgbcolor
4895 1500 M
0 63 V
0 968 R
0 -63 V
stroke
4895 1360 M
[ [(Helvetica) 80.0 0.0 true true 0 ( 150)]
] -26.7 MCshow
1.000 UL
LTb
LCb setrgbcolor
5159 1500 M
0 63 V
0 968 R
0 -63 V
stroke
5159 1360 M
[ [(Helvetica) 80.0 0.0 true true 0 ( 200)]
] -26.7 MCshow
1.000 UL
LTb
LCb setrgbcolor
5423 1500 M
0 63 V
0 968 R
0 -63 V
stroke
5423 1360 M
[ [(Helvetica) 80.0 0.0 true true 0 ( 250)]
] -26.7 MCshow
1.000 UL
LTb
LCb setrgbcolor
1.000 UL
LTB
LCb setrgbcolor
4104 2531 N
0 -1031 V
1319 0 V
0 1031 V
-1319 0 V
Z stroke
1.000 UP
LCb setrgbcolor
4157 1912 M
currentpoint gsave translate -6 rotate 0 0 moveto
[ [(bold) 120.0 0.0 true true 0 (Untreated)]
] -40.0 MLshow
grestore
LCb setrgbcolor
4289 2436 M
currentpoint gsave translate -38 rotate 0 0 moveto
[ [(bold) 120.0 0.0 true true 0 (Pretreated)]
] -40.0 MLshow
grestore
1.000 UL
LTb
LCb setrgbcolor
LCb setrgbcolor
3656 2015 M
currentpoint gsave translate -270 rotate 0 0 moveto
[ [(bold) 120.0 0.0 true true 0 (Total sugar released )]
] -40.0 MCshow
grestore
3776 2015 M
currentpoint gsave translate -270 rotate 0 0 moveto
[ [(bold) 120.0 0.0 true true 0 ( \(mg/g CWR\))]
] -40.0 MCshow
grestore
LTb
LCb setrgbcolor
4763 1150 M
[ [(bold) 120.0 0.0 true true 0 (Lignin content )]
] -40.0 MCshow
4763 1030 M
[ [(bold) 120.0 0.0 true true 0 ( \(mg/g CWR\))]
] -40.0 MCshow
LTb
LCb setrgbcolor
4763 2721 M
[ [(bold) 120.0 0.0 true true 0 (Chen and Dixon \(2007\))]
] -40.0 MCshow
% Begin plot #1
2.000 UL
LTb
0.73 0.73 0.73 C 4104 1859 M
13 -2 V
14 -2 V
13 -1 V
13 -2 V
14 -2 V
13 -2 V
13 -1 V
14 -2 V
13 -2 V
13 -2 V
14 -1 V
13 -2 V
13 -2 V
14 -2 V
13 -2 V
13 -1 V
13 -2 V
14 -2 V
13 -2 V
13 -1 V
14 -2 V
13 -2 V
13 -2 V
14 -1 V
13 -2 V
13 -2 V
14 -2 V
13 -1 V
13 -2 V
14 -2 V
13 -2 V
13 -2 V
14 -1 V
13 -2 V
13 -2 V
14 -2 V
13 -1 V
13 -2 V
14 -2 V
13 -2 V
13 -1 V
14 -2 V
13 -2 V
13 -2 V
14 -1 V
13 -2 V
13 -2 V
14 -2 V
13 -1 V
13 -2 V
13 -2 V
14 -2 V
13 -2 V
13 -1 V
14 -2 V
13 -2 V
13 -2 V
14 -1 V
13 -2 V
13 -2 V
14 -2 V
13 -1 V
13 -2 V
14 -2 V
13 -2 V
13 -1 V
14 -2 V
13 -2 V
13 -2 V
14 -1 V
13 -2 V
13 -2 V
14 -2 V
13 -2 V
13 -1 V
14 -2 V
13 -2 V
13 -2 V
14 -1 V
13 -2 V
13 -2 V
14 -2 V
13 -1 V
13 -2 V
13 -2 V
14 -2 V
13 -1 V
13 -2 V
14 -2 V
13 -2 V
13 -2 V
14 -1 V
13 -2 V
13 -2 V
14 -2 V
13 -1 V
13 -2 V
14 -2 V
13 -2 V
% End plot #1
% Begin plot #2
stroke
LTb
0.73 0.73 0.73 C 4297 2531 M
7 -6 V
13 -11 V
13 -11 V
14 -11 V
13 -12 V
13 -11 V
14 -11 V
13 -12 V
13 -11 V
14 -11 V
13 -12 V
13 -11 V
14 -11 V
13 -11 V
13 -12 V
14 -11 V
13 -11 V
13 -12 V
14 -11 V
13 -11 V
13 -12 V
14 -11 V
13 -11 V
13 -11 V
14 -12 V
13 -11 V
13 -11 V
14 -12 V
13 -11 V
13 -11 V
14 -12 V
13 -11 V
13 -11 V
14 -11 V
13 -12 V
13 -11 V
13 -11 V
14 -12 V
13 -11 V
13 -11 V
14 -12 V
13 -11 V
13 -11 V
14 -11 V
13 -12 V
13 -11 V
14 -11 V
13 -12 V
13 -11 V
14 -11 V
13 -12 V
13 -11 V
14 -11 V
13 -11 V
13 -12 V
14 -11 V
13 -11 V
13 -12 V
14 -11 V
13 -11 V
13 -12 V
14 -11 V
13 -11 V
13 -11 V
14 -12 V
13 -11 V
13 -11 V
14 -12 V
13 -11 V
13 -11 V
13 -12 V
14 -11 V
13 -11 V
13 -11 V
14 -12 V
13 -11 V
13 -11 V
14 -12 V
13 -11 V
13 -11 V
14 -12 V
13 -11 V
13 -11 V
14 -11 V
13 -12 V
% End plot #2
% Begin plot #3
0.800 UP
stroke
1.000 UL
LTb
0.00 0.00 0.00 C 4623 1783 Box
4638 1747 Box
4751 1785 Box
4770 1762 Box
4812 1796 Box
4833 1787 Box
4920 1766 Box
4927 1752 Box
4939 1733 Box
4974 1755 Box
4990 1739 Box
5262 1719 Box
5250 1689 Box
% End plot #3
% Begin plot #4
0.800 UP
1.000 UL
LTb
0.00 0.00 0.00 C 4621 2363 Circle
4637 2342 Circle
4751 2256 Circle
4771 2047 Circle
4813 2089 Circle
4834 2113 Circle
4940 1954 Circle
4928 1879 Circle
4920 1796 Circle
4976 1879 Circle
4993 1845 Circle
5251 1794 Circle
5263 1784 Circle
% End plot #4
2.000 UL
LTb
LCb setrgbcolor
1.000 UL
LTB
LCb setrgbcolor
4104 2531 N
0 -1031 V
1319 0 V
0 1031 V
-1319 0 V
Z stroke
1.000 UP
1.000 UL
LTb
LCb setrgbcolor
stroke
grestore
end
showpage
%%Trailer
%%DocumentFonts: bold Symbol Helvetica
