7.7053e-07	0	0	0
2.31152e-06	0	0	0
2.7254e-06	0	0	0
3.21191e-06	0	0	0
3.30879e-06	0	0	0
3.47974e-06	0	0	0
4.26513e-06	0	0	0
5.24622e-06	0	0	0
5.70269e-06	0	0	0
6.30341e-06	0	0	0
6.64313e-06	0	0	0
6.78783e-06	0	0	0
6.89295e-06	0	0	0
7.92034e-06	0	0	0
8.164e-06	0	0	0
8.28117e-06	0	0	0
8.33893e-06	0	0	0
8.42792e-06	0	0	0
8.71508e-06	0	0	0
8.72281e-06	0	0	0
1.0011e-05	0	0	0
1.02534e-05	0	0	0
1.05764e-05	0	0	0
1.16466e-05	0	0	0
1.18148e-05	0	0	0
1.30348e-05	0	0	0
1.64358e-05	0	0	0
1.68129e-05	0	0	0
1.78964e-05	0	0	0
1.82107e-05	0	0	0
1.85636e-05	0	0	0
1.93214e-05	0	0	0
1.93897e-05	0	0	0
1.94252e-05	0	0	0
2.04201e-05	0	0	0
2.20418e-05	0	0	0
2.22356e-05	0	0	0
2.26374e-05	0	0	0
2.30605e-05	0	0	0
2.4147e-05	0	0	0
2.4691e-05	0	0	0
2.4705e-05	0	0	0
2.53928e-05	0	0	0
2.57887e-05	0	0	0
2.5934e-05	0	0	0
2.61079e-05	0	0	0
2.64073e-05	0	0	0
2.65707e-05	0	0	0
2.75031e-05	0	0	0
2.9176e-05	0	0	0
3.04344e-05	0	0	0
3.0708e-05	0	0	0
3.31468e-05	0	0	0
3.3269e-05	0	0	0
3.35223e-05	0	0	0
3.43026e-05	0	0	0
3.44972e-05	0	0	0
3.52439e-05	0	0	0
3.83495e-05	0	0	0
3.86518e-05	0	0	0
3.87369e-05	0	0	0
3.9198e-05	0	0	0
4.04888e-05	0	0	0
4.05717e-05	0	0	0
4.11032e-05	0	0	0
4.17856e-05	0	0	0
4.26806e-05	0	0	0
4.28828e-05	0	0	0
4.37369e-05	0	0	0
4.45625e-05	0	0	0
4.5171e-05	0	0	0
4.56463e-05	0	0	0
4.59196e-05	0	0	0
4.5962e-05	0	0	0
4.62807e-05	0	0	0
4.93512e-05	0	0	0
4.9619e-05	0	0	0
5.05505e-05	0	0	0
5.17929e-05	0	0	0
5.27506e-05	0	0	0
5.35897e-05	0	0	0
5.36217e-05	0	0	0
5.40304e-05	0	0	0
5.4063e-05	0	0	0
5.41364e-05	0	0	0
5.48723e-05	0	0	0
5.53119e-05	0	0	0
5.57877e-05	0	0	0
5.63471e-05	0	0	0
5.66016e-05	0	0	0
5.71942e-05	0	0	0
5.79022e-05	0	0	0
5.82949e-05	0	0	0
5.91744e-05	0	0	0
5.95389e-05	0	0	0
6.02397e-05	0	0	0
6.02475e-05	0	0	0
6.10898e-05	0	0	0
6.12219e-05	0	0	0
6.15559e-05	0	0	0
6.1656e-05	0	0	0
6.46744e-05	0	0	0
6.54812e-05	0	0	0
6.81989e-05	0	0	0
6.96494e-05	0	0	0
7.06774e-05	0	0	0
7.4606e-05	0	0	0
7.59168e-05	0	0	0
7.83464e-05	0	0	0
7.96107e-05	0	0	0
8.03246e-05	0	0	0
8.23655e-05	0	0	0
8.2664e-05	0	0	0
8.45275e-05	0	0	0
8.48007e-05	0	0	0
8.4973e-05	0	0	0
8.52553e-05	0	0	0
8.8029e-05	0	0	0
8.81723e-05	0	0	0
8.88429e-05	0	0	0
8.97021e-05	0	0	0
8.99645e-05	0	0	0
9.08349e-05	0	0	0
9.14391e-05	0	0	0
9.43094e-05	0	0	0
9.49999e-05	0	0	0
9.52272e-05	0	0	0
9.54006e-05	0	0	0
9.57977e-05	0	0	0
9.69944e-05	0	0	0
9.9024e-05	0	0	0
0.000100281	0	0	0
0.000101539	0	0	0
0.000102955	0	0	0
0.000103548	0	0	0
0.0001036	0	0	0
0.000103835	0	0	0
0.000111165	0	0	0
0.000114387	0	0	0
0.000115067	0	0	0
0.00011529	0	0	0
0.00011709	0	0	0
0.000117907	0	0	0
0.000119327	0	0	0
0.0001216	0	0	0
0.000123536	0	0	0
0.000127993	0	0	0
0.000129251	0	0	0
0.000138763	0	0	0
0.000141099	0	0	0
0.000141426	0	0	0
0.000145477	0	0	0
0.000145751	0	0	0
0.000147348	0	0	0
0.000147975	0	0	0
0.000148095	0	0	0
0.000150004	0	0	0
0.000151147	0	0	0
0.000152211	0	0	0
0.000157098	0	0	0
0.000164926	0	0	0
0.000166527	0	0	0
0.000167949	0	0	0
0.000172173	0	0	0
0.000173547	0	0	0
0.000177217	0	0	0
0.000177844	0	0	0
0.000177877	0	0	0
0.000181664	0	0	0
0.000184596	0	0	0
0.000185333	0	0	0
0.000194014	0	0	0
0.000195814	0	0	0
0.000196746	0	0	0
0.000196869	0	0	0
0.000197777	0	0	0
0.00020781	0	0	0
0.000212232	0	0	0
0.000214861	0	0	0
0.000231759	0	0	0
0.000236922	0	0	0
0.000245873	0	0	0
0.000251932	0	0	0
0.000254731	0	0	0
0.000260023	0	0	0
0.000268387	0	0	0
0.000276562	0	0	0
0.00028735	0	0	0
0.000288632	0	0	0
0.000291393	0	0	0
0.000297998	0	0	0
0.000318306	0	0	0
0.000319268	0	0	0
0.000322671	0	0	0
0.000324057	0	0	0
0.000326737	0	0	0
0.000349735	0	0	0
0.000350751	0	0	0
0.000351	0	0	0
0.000372578	0	0	0
0.000398461	0	0	0
0.000400207	0	0	0
0.000412792	0	0	0
0.000419822	0	0	0
0.00043425	0	0	0
0.000451125	0	0	0
0.000460142	0	0	0
0.000465461	0	0	0
0.0004686	0	0	0
0.00047939	0	0	0
0.00048758	0	0	0
0.000492643	0	0	0
0.000495268	0	0	0
0.000509366	0	0	0
0.000517006	0	0	0
0.000526547	0	0	0
0.000533014	0	0	0
0.0005432	0	0	0
0.000551549	0	0	0
0.000580079	0	0	0
0.000580256	0	0	0
0.000589014	0	0	0
0.000592794	0	0	0
0.000606785	0	0	0
0.000609457	0	0	0
0.000632854	0	0	0
0.000650558	0	0	0
0.000655314	0	0	0
0.000699936	0	0	0
0.000743749	0	0	0
0.000746099	0	0	0
0.000804262	0	0	0
0.000817665	0	0	0
0.000927627	0	0	0
0.000935876	0	0	0
0.00103873	0	0	0
0.00113097	0	0	0
0.0012545	0	0	0
0.00141468	0	0	0
0.0017473	0	0	0
0.00177287	0	0	0
0.00181133	0	0	0
0.00187313	0	0	0
0.00191355	0	0	0
0.00407974	0	0	0
0.00415609	0	0	0
0.0042286	0	0	0
0.00442897	0	0	0
0.00653855	0	0	0
0.0126248	0	0	0
0.0155662	0	0	0
