5.31268e-07	0	0	0
6.17204e-07	0	0	0
1.27068e-06	0	0	0
1.32962e-06	0	0	0
1.47244e-06	0	0	0
1.80089e-06	0	0	0
2.3207e-06	0	0	0
2.36195e-06	0	0	0
4.00085e-06	0	0	0
4.13449e-06	0	0	0
4.5935e-06	0	0	0
4.90774e-06	0	0	0
4.96374e-06	0	0	0
5.25543e-06	0	0	0
5.36523e-06	0	0	0
5.83714e-06	0	0	0
5.83866e-06	0	0	0
5.9708e-06	0	0	0
6.04661e-06	0	0	0
6.30344e-06	0	0	0
6.32105e-06	0	0	0
8.00775e-06	0	0	0
8.74429e-06	0	0	0
8.82873e-06	0	0	0
8.84781e-06	0	0	0
9.56622e-06	0	0	0
1.12244e-05	0	0	0
1.16082e-05	0	0	0
1.17517e-05	0	0	0
1.21516e-05	0	0	0
1.24104e-05	0	0	0
1.35104e-05	0	0	0
1.40284e-05	0	0	0
1.4137e-05	0	0	0
1.50183e-05	0	0	0
1.5564e-05	0	0	0
1.65293e-05	0	0	0
1.65303e-05	0	0	0
1.78806e-05	0	0	0
1.80772e-05	0	0	0
1.93531e-05	0	0	0
2.01051e-05	0	0	0
2.02475e-05	0	0	0
2.06827e-05	0	0	0
2.0767e-05	0	0	0
2.09207e-05	0	0	0
2.15162e-05	0	0	0
2.2046e-05	0	0	0
2.22021e-05	0	0	0
2.28955e-05	0	0	0
2.29049e-05	0	0	0
2.37501e-05	0	0	0
2.39792e-05	0	0	0
2.46221e-05	0	0	0
2.48195e-05	0	0	0
2.48992e-05	0	0	0
2.52731e-05	0	0	0
2.52907e-05	0	0	0
2.64836e-05	0	0	0
2.81549e-05	0	0	0
2.86293e-05	0	0	0
2.89181e-05	0	0	0
2.95284e-05	0	0	0
2.97938e-05	0	0	0
3.05496e-05	0	0	0
3.13155e-05	0	0	0
3.22057e-05	0	0	0
3.22287e-05	0	0	0
3.23326e-05	0	0	0
3.31953e-05	0	0	0
3.4104e-05	0	0	0
3.45077e-05	0	0	0
3.45792e-05	0	0	0
3.76721e-05	0	0	0
3.77022e-05	0	0	0
3.80859e-05	0	0	0
3.91762e-05	0	0	0
3.92743e-05	0	0	0
4.01102e-05	0	0	0
4.17195e-05	0	0	0
4.19849e-05	0	0	0
4.46012e-05	0	0	0
4.4728e-05	0	0	0
4.48867e-05	0	0	0
4.52391e-05	0	0	0
4.55745e-05	0	0	0
4.6162e-05	0	0	0
4.91836e-05	0	0	0
5.45648e-05	0	0	0
5.58722e-05	0	0	0
5.6471e-05	0	0	0
5.71273e-05	0	0	0
5.76819e-05	0	0	0
6.08404e-05	0	0	0
6.10435e-05	0	0	0
6.24456e-05	0	0	0
6.26907e-05	0	0	0
6.42006e-05	0	0	0
6.44055e-05	0	0	0
6.67875e-05	0	0	0
6.74093e-05	0	0	0
6.77573e-05	0	0	0
7.11989e-05	0	0	0
7.15786e-05	0	0	0
7.20824e-05	0	0	0
7.29805e-05	0	0	0
7.42605e-05	0	0	0
7.86994e-05	0	0	0
7.94982e-05	0	0	0
8.3947e-05	0	0	0
8.40906e-05	0	0	0
8.43392e-05	0	0	0
8.47212e-05	0	0	0
8.48167e-05	0	0	0
8.6286e-05	0	0	0
9.15364e-05	0	0	0
9.30086e-05	0	0	0
9.57683e-05	0	0	0
9.65673e-05	0	0	0
0.000100295	0	0	0
0.000101711	0	0	0
0.000102951	0	0	0
0.000103157	0	0	0
0.000104442	0	0	0
0.00010455	0	0	0
0.000106448	0	0	0
0.000107017	0	0	0
0.000110257	0	0	0
0.000110632	0	0	0
0.000116271	0	0	0
0.000119757	0	0	0
0.00012144	0	0	0
0.000124001	0	0	0
0.000132272	0	0	0
0.00013297	0	0	0
0.000134687	0	0	0
0.000137864	0	0	0
0.000139377	0	0	0
0.000139938	0	0	0
0.000144758	0	0	0
0.000178796	0	0	0
0.000179048	0	0	0
0.000186554	0	0	0
0.00018661	0	0	0
0.000206534	0	0	0
0.000207628	0	0	0
0.000209597	0	0	0
0.000210477	0	0	0
0.0002121	0	0	0
0.000229492	0	0	0
0.000251218	0	0	0
0.000254627	0	0	0
0.000267898	0	0	0
0.000272133	0	0	0
0.00027365	0	0	0
0.000274626	0	0	0
0.000311074	0	0	0
0.00032583	0	0	0
0.000339254	0	0	0
0.000347376	0	0	0
0.000368607	0	0	0
0.000376875	0	0	0
0.000383801	0	0	0
0.000395455	0	0	0
0.000433469	0	0	0
0.000447112	0	0	0
0.000457439	0	0	0
0.000461252	0	0	0
0.000475532	0	0	0
0.000485256	0	0	0
0.000488632	0	0	0
0.00051654	0	0	0
0.000522261	0	0	0
0.000545244	0	0	0
0.000551822	0	0	0
0.000570114	0	0	0
0.000639589	0	0	0
0.000697365	0	0	0
0.000709557	0	0	0
0.000710522	0	0	0
0.000712071	0	0	0
0.000764419	0	0	0
0.000910877	0	0	0
0.00111562	0	0	0
0.0011708	0	0	0
0.00161845	0	0	0
0.00211895	0	0	0
0.00231135	0	0	0
0.00387763	0	0	0
0.00394415	0	0	0
0.00400486	0	0	0
0.00413392	0	0	0
0.00458218	0	0	0
0.0058626	0	0	0
0.00786989	0	0	0
0.0080331	0	0	0
