1.20311e-08	0	0	0
2.37029e-07	0	0	0
7.45835e-07	0	0	0
1.72974e-06	0	0	0
1.97232e-06	0	0	0
2.30182e-06	0	0	0
2.73623e-06	0	0	0
2.93884e-06	0	0	0
3.00098e-06	0	0	0
3.30179e-06	0	0	0
3.61285e-06	0	0	0
3.72454e-06	0	0	0
3.90199e-06	0	0	0
3.98816e-06	0	0	0
4.79678e-06	0	0	0
4.93038e-06	0	0	0
5.06408e-06	0	0	0
5.77977e-06	0	0	0
6.13848e-06	0	0	0
6.15602e-06	0	0	0
6.60069e-06	0	0	0
6.90219e-06	0	0	0
7.46039e-06	0	0	0
7.58177e-06	0	0	0
7.74043e-06	0	0	0
7.74838e-06	0	0	0
8.03493e-06	0	0	0
9.14637e-06	0	0	0
9.75185e-06	0	0	0
9.89507e-06	0	0	0
1.0057e-05	0	0	0
1.04641e-05	0	0	0
1.04953e-05	0	0	0
1.09384e-05	0	0	0
1.0951e-05	0	0	0
1.1358e-05	0	0	0
1.14071e-05	0	0	0
1.15747e-05	0	0	0
1.18048e-05	0	0	0
1.19616e-05	0	0	0
1.24628e-05	0	0	0
1.25139e-05	0	0	0
1.30806e-05	0	0	0
1.33723e-05	0	0	0
1.3721e-05	0	0	0
1.40655e-05	0	0	0
1.44057e-05	0	0	0
1.46444e-05	0	0	0
1.49453e-05	0	0	0
1.51726e-05	0	0	0
1.51983e-05	0	0	0
1.55046e-05	0	0	0
1.59841e-05	0	0	0
1.62639e-05	0	0	0
1.62952e-05	0	0	0
1.63252e-05	0	0	0
1.63731e-05	0	0	0
1.66059e-05	0	0	0
1.68351e-05	0	0	0
1.71689e-05	0	0	0
1.73242e-05	0	0	0
1.75102e-05	0	0	0
1.8049e-05	0	0	0
1.86278e-05	0	0	0
1.93241e-05	0	0	0
2.02279e-05	0	0	0
2.05658e-05	0	0	0
2.07338e-05	0	0	0
2.08292e-05	0	0	0
2.0905e-05	0	0	0
2.12269e-05	0	0	0
2.22824e-05	0	0	0
2.30863e-05	0	0	0
2.33047e-05	0	0	0
2.45079e-05	0	0	0
2.46979e-05	0	0	0
2.48083e-05	0	0	0
2.48484e-05	0	0	0
2.49479e-05	0	0	0
2.53003e-05	0	0	0
2.53302e-05	0	0	0
2.77576e-05	0	0	0
2.82423e-05	0	0	0
2.86369e-05	0	0	0
2.8834e-05	0	0	0
2.89567e-05	0	0	0
2.91844e-05	0	0	0
2.92656e-05	0	0	0
2.93956e-05	0	0	0
2.95782e-05	0	0	0
3.0465e-05	0	0	0
3.04874e-05	0	0	0
3.19301e-05	0	0	0
3.31211e-05	0	0	0
3.42751e-05	0	0	0
3.44212e-05	0	0	0
3.57634e-05	0	0	0
3.58013e-05	0	0	0
3.70488e-05	0	0	0
3.7408e-05	0	0	0
3.77085e-05	0	0	0
3.79862e-05	0	0	0
3.81182e-05	0	0	0
3.81314e-05	0	0	0
3.84324e-05	0	0	0
3.94603e-05	0	0	0
3.96623e-05	0	0	0
4.13484e-05	0	0	0
4.13686e-05	0	0	0
4.19691e-05	0	0	0
4.2488e-05	0	0	0
4.31489e-05	0	0	0
4.40422e-05	0	0	0
4.41217e-05	0	0	0
4.41329e-05	0	0	0
4.41759e-05	0	0	0
4.49719e-05	0	0	0
4.52868e-05	0	0	0
4.55759e-05	0	0	0
4.60227e-05	0	0	0
4.60423e-05	0	0	0
4.67327e-05	0	0	0
4.70698e-05	0	0	0
4.71076e-05	0	0	0
4.72252e-05	0	0	0
4.79646e-05	0	0	0
4.83315e-05	0	0	0
4.87969e-05	0	0	0
4.90606e-05	0	0	0
4.99101e-05	0	0	0
5.05965e-05	0	0	0
5.06521e-05	0	0	0
5.11312e-05	0	0	0
5.17617e-05	0	0	0
5.21916e-05	0	0	0
5.27589e-05	0	0	0
5.29128e-05	0	0	0
5.42854e-05	0	0	0
5.52028e-05	0	0	0
5.66339e-05	0	0	0
5.70601e-05	0	0	0
5.75297e-05	0	0	0
5.95244e-05	0	0	0
5.96998e-05	0	0	0
5.97037e-05	0	0	0
6.09147e-05	0	0	0
6.09857e-05	0	0	0
6.1338e-05	0	0	0
6.23491e-05	0	0	0
6.30628e-05	0	0	0
6.4735e-05	0	0	0
6.50919e-05	0	0	0
6.69932e-05	0	0	0
6.73604e-05	0	0	0
6.82068e-05	0	0	0
6.86496e-05	0	0	0
6.86531e-05	0	0	0
6.92957e-05	0	0	0
6.9724e-05	0	0	0
7.0282e-05	0	0	0
7.16661e-05	0	0	0
7.20661e-05	0	0	0
7.28731e-05	0	0	0
7.37736e-05	0	0	0
7.39566e-05	0	0	0
7.41331e-05	0	0	0
7.41495e-05	0	0	0
7.61136e-05	0	0	0
7.68518e-05	0	0	0
7.72803e-05	0	0	0
7.80518e-05	0	0	0
8.14807e-05	0	0	0
8.38448e-05	0	0	0
8.39092e-05	0	0	0
8.42553e-05	0	0	0
8.47788e-05	0	0	0
8.6076e-05	0	0	0
8.62219e-05	0	0	0
8.77229e-05	0	0	0
8.99715e-05	0	0	0
9.05079e-05	0	0	0
9.06121e-05	0	0	0
9.20493e-05	0	0	0
9.22069e-05	0	0	0
9.28823e-05	0	0	0
9.40746e-05	0	0	0
9.43023e-05	0	0	0
9.54131e-05	0	0	0
0.000101204	0	0	0
0.000102427	0	0	0
0.000102707	0	0	0
0.000107262	0	0	0
0.000107663	0	0	0
0.000107868	0	0	0
0.000107976	0	0	0
0.00010947	0	0	0
0.000111253	0	0	0
0.000111714	0	0	0
0.000113795	0	0	0
0.000115173	0	0	0
0.000116343	0	0	0
0.000118961	0	0	0
0.000119718	0	0	0
0.000121269	0	0	0
0.000121623	0	0	0
0.000124196	0	0	0
0.000124375	0	0	0
0.000124385	0	0	0
0.000125884	0	0	0
0.0001281	0	0	0
0.000129219	0	0	0
0.000130118	0	0	0
0.000130178	0	0	0
0.00013039	0	0	0
0.000130416	0	0	0
0.000133684	0	0	0
0.000134978	0	0	0
0.000135488	0	0	0
0.000136187	0	0	0
0.000136245	0	0	0
0.000136827	0	0	0
0.000137538	0	0	0
0.000141493	0	0	0
0.000142223	0	0	0
0.00014233	0	0	0
0.000142491	0	0	0
0.000143269	0	0	0
0.000143827	0	0	0
0.000144182	0	0	0
0.000144513	0	0	0
0.000146975	0	0	0
0.00014754	0	0	0
0.000151006	0	0	0
0.00015203	0	0	0
0.000152727	0	0	0
0.000152885	0	0	0
0.000153751	0	0	0
0.00015728	0	0	0
0.000161378	0	0	0
0.000161633	0	0	0
0.000166228	0	0	0
0.000167036	0	0	0
0.00016892	0	0	0
0.000172623	0	0	0
0.000175341	0	0	0
0.000177386	0	0	0
0.000181525	0	0	0
0.000191365	0	0	0
0.0001942	0	0	0
0.000194843	0	0	0
0.000196427	0	0	0
0.000198464	0	0	0
0.000206183	0	0	0
0.000207103	0	0	0
0.000209019	0	0	0
0.000211444	0	0	0
0.000212808	0	0	0
0.000213181	0	0	0
0.000215016	0	0	0
0.000216025	0	0	0
0.000216399	0	0	0
0.000217233	0	0	0
0.000220491	0	0	0
0.000221542	0	0	0
0.000221951	0	0	0
0.000224014	0	0	0
0.000227777	0	0	0
0.000228495	0	0	0
0.000232152	0	0	0
0.000233127	0	0	0
0.000234479	0	0	0
0.000234532	0	0	0
0.000236616	0	0	0
0.000237204	0	0	0
0.000238483	0	0	0
0.000238583	0	0	0
0.00024056	0	0	0
0.000244378	0	0	0
0.000245804	0	0	0
0.000246979	0	0	0
0.000248389	0	0	0
0.000252401	0	0	0
0.00025414	0	0	0
0.000254203	0	0	0
0.000260388	0	0	0
0.000263164	0	0	0
0.000266173	0	0	0
0.000267629	0	0	0
0.000267825	0	0	0
0.00027125	0	0	0
0.000274786	0	0	0
0.000276147	0	0	0
0.000284077	0	0	0
0.000287125	0	0	0
0.000293043	0	0	0
0.000293765	0	0	0
0.000299504	0	0	0
0.00031159	0	0	0
0.000315613	0	0	0
0.000325698	0	0	0
0.000351352	0	0	0
0.000357874	0	0	0
0.000360501	0	0	0
0.000369492	0	0	0
0.000369942	0	0	0
0.000376108	0	0	0
0.000377576	0	0	0
0.000381178	0	0	0
0.000382126	0	0	0
0.000398547	0	0	0
0.00040158	0	0	0
0.000404313	0	0	0
0.000404853	0	0	0
0.000432353	0	0	0
0.000432459	0	0	0
0.00043995	0	0	0
0.000449331	0	0	0
0.000458404	0	0	0
0.000461312	0	0	0
0.000468703	0	0	0
0.000474671	0	0	0
0.000476648	0	0	0
0.000484432	0	0	0
0.000538621	0	0	0
0.000550002	0	0	0
0.000552533	0	0	0
0.000567143	0	0	0
0.000567407	0	0	0
0.000569928	0	0	0
0.000571745	0	0	0
0.000573054	0	0	0
0.000581616	0	0	0
0.000600008	0	0	0
0.000607595	0	0	0
0.000663681	0	0	0
0.00067077	0	0	0
0.000691373	0	0	0
0.000726296	0	0	0
0.000729066	0	0	0
0.000738563	0	0	0
0.000738835	0	0	0
0.000742942	0	0	0
0.000816152	0	0	0
0.0008282	0	0	0
0.000843713	0	0	0
0.000857048	0	0	0
0.000893332	0	0	0
0.000916955	0	0	0
0.000919602	0	0	0
0.00094961	0	0	0
0.000958798	0	0	0
0.000968703	0	0	0
0.000996571	0	0	0
0.00103466	0	0	0
0.00112265	0	0	0
0.00112475	0	0	0
0.00115587	0	0	0
0.00117222	0	0	0
0.00117458	0	0	0
0.00126912	0	0	0
0.00129255	0	0	0
0.00135587	0	0	0
0.00183176	0	0	0
0.00191933	0	0	0
0.00225387	0	0	0
0.00307075	0	0	0
0.00312739	0	0	0
0.00462245	0	0	0
0.00714988	0	0	0
0.0121045	0	0	0
0.0232528	0	0	0
0.0269031	0	0	0
0.0374626	0	0	0
