4.81939e-07	0	0	0
5.58057e-07	0	0	0
1.01817e-06	0	0	0
1.62976e-06	0	0	0
2.02876e-06	0	0	0
2.15601e-06	0	0	0
2.24279e-06	0	0	0
2.3525e-06	0	0	0
2.45736e-06	0	0	0
2.74372e-06	0	0	0
3.54713e-06	0	0	0
3.71852e-06	0	0	0
4.12916e-06	0	0	0
5.09641e-06	0	0	0
5.14067e-06	0	0	0
5.33919e-06	0	0	0
5.88516e-06	0	0	0
6.47149e-06	0	0	0
7.03225e-06	0	0	0
7.64869e-06	0	0	0
8.15912e-06	0	0	0
9.03801e-06	0	0	0
9.10234e-06	0	0	0
9.1447e-06	0	0	0
1.00595e-05	0	0	0
1.09572e-05	0	0	0
1.10065e-05	0	0	0
1.17665e-05	0	0	0
1.23431e-05	0	0	0
1.50003e-05	0	0	0
1.52277e-05	0	0	0
1.5382e-05	0	0	0
1.6741e-05	0	0	0
1.72583e-05	0	0	0
1.84271e-05	0	0	0
1.90898e-05	0	0	0
1.9396e-05	0	0	0
2.1327e-05	0	0	0
2.23043e-05	0	0	0
2.31182e-05	0	0	0
2.31246e-05	0	0	0
2.49202e-05	0	0	0
2.6284e-05	0	0	0
2.64755e-05	0	0	0
2.70727e-05	0	0	0
3.06653e-05	0	0	0
3.18933e-05	0	0	0
3.26953e-05	0	0	0
3.42595e-05	0	0	0
3.60199e-05	0	0	0
3.81459e-05	0	0	0
3.88631e-05	0	0	0
4.04599e-05	0	0	0
4.05655e-05	0	0	0
4.05932e-05	0	0	0
4.08844e-05	0	0	0
4.22572e-05	0	0	0
4.31621e-05	0	0	0
4.40465e-05	0	0	0
4.41614e-05	0	0	0
4.43568e-05	0	0	0
4.53853e-05	0	0	0
4.59093e-05	0	0	0
4.7665e-05	0	0	0
4.89803e-05	0	0	0
5.05344e-05	0	0	0
5.24977e-05	0	0	0
5.4539e-05	0	0	0
5.54808e-05	0	0	0
5.87029e-05	0	0	0
6.61142e-05	0	0	0
6.6593e-05	0	0	0
6.84213e-05	0	0	0
7.02995e-05	0	0	0
7.26841e-05	0	0	0
7.31553e-05	0	0	0
7.66557e-05	0	0	0
7.69537e-05	0	0	0
7.90924e-05	0	0	0
8.36597e-05	0	0	0
8.672e-05	0	0	0
8.96171e-05	0	0	0
9.12254e-05	0	0	0
9.25355e-05	0	0	0
9.28748e-05	0	0	0
0.000102897	0	0	0
0.00010558	0	0	0
0.000108118	0	0	0
0.000108907	0	0	0
0.000109238	0	0	0
0.000109713	0	0	0
0.00011165	0	0	0
0.000115047	0	0	0
0.000116018	0	0	0
0.000116549	0	0	0
0.000117396	0	0	0
0.000123011	0	0	0
0.000127451	0	0	0
0.000130492	0	0	0
0.000132504	0	0	0
0.00013268	0	0	0
0.000135557	0	0	0
0.000136183	0	0	0
0.000137927	0	0	0
0.000140287	0	0	0
0.000140609	0	0	0
0.000142808	0	0	0
0.000143926	0	0	0
0.000143938	0	0	0
0.000148062	0	0	0
0.000149865	0	0	0
0.000150242	0	0	0
0.000153979	0	0	0
0.00015514	0	0	0
0.000156642	0	0	0
0.000156911	0	0	0
0.000160602	0	0	0
0.00016319	0	0	0
0.000164616	0	0	0
0.000175949	0	0	0
0.00017748	0	0	0
0.000177676	0	0	0
0.000184525	0	0	0
0.000191945	0	0	0
0.00019628	0	0	0
0.000197899	0	0	0
0.000203968	0	0	0
0.000210742	0	0	0
0.000214369	0	0	0
0.000218312	0	0	0
0.000226854	0	0	0
0.000227371	0	0	0
0.000231593	0	0	0
0.000236744	0	0	0
0.000237197	0	0	0
0.000248996	0	0	0
0.000251464	0	0	0
0.000253719	0	0	0
0.000280967	0	0	0
0.000282343	0	0	0
0.000283284	0	0	0
0.000285356	0	0	0
0.000285614	0	0	0
0.000286372	0	0	0
0.000289256	0	0	0
0.000291584	0	0	0
0.000296267	0	0	0
0.000300543	0	0	0
0.000301365	0	0	0
0.000305121	0	0	0
0.0003069	0	0	0
0.000326844	0	0	0
0.000328237	0	0	0
0.000332695	0	0	0
0.000343593	0	0	0
0.000344634	0	0	0
0.000358684	0	0	0
0.000361894	0	0	0
0.000366197	0	0	0
0.000377835	0	0	0
0.000378034	0	0	0
0.000393302	0	0	0
0.000394942	0	0	0
0.000406762	0	0	0
0.000410488	0	0	0
0.00042875	0	0	0
0.000448156	0	0	0
0.00046204	0	0	0
0.00046769	0	0	0
0.000471892	0	0	0
0.000483838	0	0	0
0.000487396	0	0	0
0.000529286	0	0	0
0.000542654	0	0	0
0.000567946	0	0	0
0.000571286	0	0	0
0.000596215	0	0	0
0.00061456	0	0	0
0.000646097	0	0	0
0.000664776	0	0	0
0.000692621	0	0	0
0.000739666	0	0	0
0.000808305	0	0	0
0.000816089	0	0	0
0.00104919	0	0	0
0.00109889	0	0	0
0.00131432	0	0	0
0.00133418	0	0	0
0.00137306	0	0	0
0.00146877	0	0	0
0.00167255	0	0	0
0.00180463	0	0	0
0.00200644	0	0	0
0.00239565	0	0	0
0.00355635	0	0	0
0.00385185	0	0	0
0.00420331	0	0	0
0.0049891	0	0	0
0.00717117	0	0	0
0.0187108	0	0	0
0.0251764	0	0	0
