3.97348e-07	0	0	0
8.25505e-07	0	0	0
8.73266e-07	0	0	0
9.23744e-07	0	0	0
1.66134e-06	0	0	0
2.33589e-06	0	0	0
2.76658e-06	0	0	0
4.2577e-06	0	0	0
4.65925e-06	0	0	0
4.71412e-06	0	0	0
5.04747e-06	0	0	0
5.29381e-06	0	0	0
6.33891e-06	0	0	0
6.61158e-06	0	0	0
6.98921e-06	0	0	0
7.11139e-06	0	0	0
7.37232e-06	0	0	0
7.99751e-06	0	0	0
8.01929e-06	0	0	0
8.35568e-06	0	0	0
8.36952e-06	0	0	0
8.41459e-06	0	0	0
9.14361e-06	0	0	0
9.98676e-06	0	0	0
1.07896e-05	0	0	0
1.08156e-05	0	0	0
1.10529e-05	0	0	0
1.1128e-05	0	0	0
1.1249e-05	0	0	0
1.13365e-05	0	0	0
1.15565e-05	0	0	0
1.23314e-05	0	0	0
1.28135e-05	0	0	0
1.33228e-05	0	0	0
1.36263e-05	0	0	0
1.3999e-05	0	0	0
1.52498e-05	0	0	0
1.57628e-05	0	0	0
1.68942e-05	0	0	0
1.72366e-05	0	0	0
1.78849e-05	0	0	0
1.84592e-05	0	0	0
1.95145e-05	0	0	0
2.01807e-05	0	0	0
2.07649e-05	0	0	0
2.09557e-05	0	0	0
2.09616e-05	0	0	0
2.21694e-05	0	0	0
2.24045e-05	0	0	0
2.37022e-05	0	0	0
2.40857e-05	0	0	0
2.41737e-05	0	0	0
2.45166e-05	0	0	0
2.5442e-05	0	0	0
2.59733e-05	0	0	0
2.66509e-05	0	0	0
2.83644e-05	0	0	0
3.00367e-05	0	0	0
3.06963e-05	0	0	0
3.11526e-05	0	0	0
3.12979e-05	0	0	0
3.17504e-05	0	0	0
3.19576e-05	0	0	0
3.20235e-05	0	0	0
3.26944e-05	0	0	0
3.30673e-05	0	0	0
3.3165e-05	0	0	0
3.35819e-05	0	0	0
3.3623e-05	0	0	0
3.37219e-05	0	0	0
3.48107e-05	0	0	0
3.51407e-05	0	0	0
3.6104e-05	0	0	0
3.67118e-05	0	0	0
3.67536e-05	0	0	0
3.72229e-05	0	0	0
3.99616e-05	0	0	0
4.00339e-05	0	0	0
4.01737e-05	0	0	0
4.02311e-05	0	0	0
4.09041e-05	0	0	0
4.2239e-05	0	0	0
4.37366e-05	0	0	0
4.6001e-05	0	0	0
4.6185e-05	0	0	0
4.74287e-05	0	0	0
4.88254e-05	0	0	0
5.02233e-05	0	0	0
5.14249e-05	0	0	0
5.18618e-05	0	0	0
5.19506e-05	0	0	0
5.21194e-05	0	0	0
5.35216e-05	0	0	0
5.36909e-05	0	0	0
5.44628e-05	0	0	0
5.48936e-05	0	0	0
5.61684e-05	0	0	0
5.61755e-05	0	0	0
5.8094e-05	0	0	0
5.84651e-05	0	0	0
5.93055e-05	0	0	0
6.221e-05	0	0	0
6.41364e-05	0	0	0
6.48612e-05	0	0	0
6.4878e-05	0	0	0
6.54542e-05	0	0	0
6.87153e-05	0	0	0
6.87203e-05	0	0	0
7.10763e-05	0	0	0
8.21043e-05	0	0	0
8.23138e-05	0	0	0
8.39176e-05	0	0	0
8.55299e-05	0	0	0
8.72789e-05	0	0	0
8.73157e-05	0	0	0
8.87447e-05	0	0	0
8.92309e-05	0	0	0
9.01694e-05	0	0	0
9.05378e-05	0	0	0
9.05884e-05	0	0	0
9.28431e-05	0	0	0
9.32028e-05	0	0	0
9.32886e-05	0	0	0
9.44594e-05	0	0	0
9.56807e-05	0	0	0
9.62351e-05	0	0	0
9.9102e-05	0	0	0
0.000102706	0	0	0
0.000103537	0	0	0
0.000105162	0	0	0
0.000105413	0	0	0
0.000106785	0	0	0
0.000112346	0	0	0
0.000114509	0	0	0
0.000114644	0	0	0
0.000121078	0	0	0
0.000123682	0	0	0
0.000127223	0	0	0
0.000129001	0	0	0
0.000129369	0	0	0
0.000132335	0	0	0
0.000132682	0	0	0
0.000135333	0	0	0
0.000135429	0	0	0
0.000136674	0	0	0
0.000142088	0	0	0
0.000146732	0	0	0
0.000152551	0	0	0
0.000154462	0	0	0
0.000160477	0	0	0
0.000162583	0	0	0
0.000169611	0	0	0
0.000170277	0	0	0
0.000170816	0	0	0
0.00017097	0	0	0
0.000171056	0	0	0
0.00017191	0	0	0
0.000171971	0	0	0
0.000173444	0	0	0
0.000179769	0	0	0
0.000180572	0	0	0
0.000180633	0	0	0
0.000186161	0	0	0
0.000186349	0	0	0
0.000191351	0	0	0
0.000192314	0	0	0
0.000200445	0	0	0
0.000203076	0	0	0
0.000208593	0	0	0
0.000214205	0	0	0
0.000215004	0	0	0
0.000220014	0	0	0
0.000221522	0	0	0
0.000222437	0	0	0
0.00022432	0	0	0
0.000224621	0	0	0
0.000230127	0	0	0
0.000245272	0	0	0
0.0002518	0	0	0
0.00026307	0	0	0
0.000263764	0	0	0
0.000264614	0	0	0
0.000264667	0	0	0
0.00026603	0	0	0
0.000266566	0	0	0
0.000268416	0	0	0
0.000269843	0	0	0
0.000270961	0	0	0
0.000273653	0	0	0
0.000275833	0	0	0
0.000278259	0	0	0
0.000288288	0	0	0
0.000290824	0	0	0
0.000295579	0	0	0
0.000302931	0	0	0
0.000316033	0	0	0
0.000321816	0	0	0
0.00032957	0	0	0
0.000329592	0	0	0
0.000335636	0	0	0
0.000337525	0	0	0
0.00033827	0	0	0
0.000341044	0	0	0
0.000345779	0	0	0
0.000352686	0	0	0
0.000354465	0	0	0
0.000364672	0	0	0
0.000375491	0	0	0
0.000392084	0	0	0
0.000404923	0	0	0
0.000407815	0	0	0
0.000408649	0	0	0
0.000417209	0	0	0
0.00041787	0	0	0
0.000420518	0	0	0
0.000429716	0	0	0
0.000433014	0	0	0
0.000441372	0	0	0
0.000471104	0	0	0
0.000500067	0	0	0
0.000528368	0	0	0
0.000549965	0	0	0
0.000553384	0	0	0
0.000580476	0	0	0
0.000616111	0	0	0
0.00062586	0	0	0
0.000635449	0	0	0
0.000674957	0	0	0
0.000708602	0	0	0
0.000709848	0	0	0
0.000720757	0	0	0
0.000723404	0	0	0
0.000765504	0	0	0
0.000765893	0	0	0
0.000784535	0	0	0
0.000838347	0	0	0
0.000844112	0	0	0
0.000880506	0	0	0
0.000896515	0	0	0
0.000920855	0	0	0
0.000945404	0	0	0
0.00100285	0	0	0
0.00101699	0	0	0
0.00113061	0	0	0
0.00116707	0	0	0
0.00125417	0	0	0
0.00130503	0	0	0
0.00133452	0	0	0
0.00134123	0	0	0
0.00136402	0	0	0
0.00140254	0	0	0
0.00182532	0	0	0
0.00193394	0	0	0
0.00231226	0	0	0
0.00332738	0	0	0
0.00389477	0	0	0
0.00417326	0	0	0
0.00432429	0	0	0
0.00515024	0	0	0
0.006277	0	0	0
0.00686061	0	0	0
0.00775386	0	0	0
0.00989223	0	0	0
0.0384565	0	0	0
0.0463559	0	0	0
