4.15925e-07	0	0	0
5.3097e-07	0	0	0
5.32466e-07	0	0	0
9.96503e-07	0	0	0
1.18498e-06	0	0	0
1.26334e-06	0	0	0
1.31148e-06	0	0	0
1.47475e-06	0	0	0
1.83045e-06	0	0	0
2.41888e-06	0	0	0
2.6895e-06	0	0	0
3.04417e-06	0	0	0
3.47169e-06	0	0	0
3.88892e-06	0	0	0
3.91605e-06	0	0	0
4.00309e-06	0	0	0
4.85078e-06	0	0	0
5.31223e-06	0	0	0
5.38589e-06	0	0	0
5.58898e-06	0	0	0
5.7699e-06	0	0	0
6.14436e-06	0	0	0
6.14844e-06	0	0	0
6.19276e-06	0	0	0
6.66515e-06	0	0	0
6.94784e-06	0	0	0
7.52625e-06	0	0	0
7.80343e-06	0	0	0
7.96937e-06	0	0	0
8.06918e-06	0	0	0
8.23931e-06	0	0	0
8.33855e-06	0	0	0
9.43537e-06	0	0	0
9.47413e-06	0	0	0
1.03529e-05	0	0	0
1.09701e-05	0	0	0
1.20253e-05	0	0	0
1.34072e-05	0	0	0
1.38975e-05	0	0	0
1.42444e-05	0	0	0
1.43229e-05	0	0	0
1.47485e-05	0	0	0
1.56023e-05	0	0	0
1.5616e-05	0	0	0
1.58565e-05	0	0	0
1.60692e-05	0	0	0
1.61793e-05	0	0	0
1.67077e-05	0	0	0
1.75088e-05	0	0	0
1.81342e-05	0	0	0
1.85108e-05	0	0	0
1.93892e-05	0	0	0
1.97468e-05	0	0	0
2.00137e-05	0	0	0
2.07667e-05	0	0	0
2.09219e-05	0	0	0
2.31389e-05	0	0	0
2.32932e-05	0	0	0
2.38671e-05	0	0	0
2.38799e-05	0	0	0
2.3941e-05	0	0	0
2.4833e-05	0	0	0
2.51596e-05	0	0	0
2.56099e-05	0	0	0
2.57135e-05	0	0	0
2.62385e-05	0	0	0
2.66443e-05	0	0	0
2.8205e-05	0	0	0
2.85643e-05	0	0	0
2.87648e-05	0	0	0
2.89396e-05	0	0	0
3.053e-05	0	0	0
3.0571e-05	0	0	0
3.16614e-05	0	0	0
3.20656e-05	0	0	0
3.22884e-05	0	0	0
3.23064e-05	0	0	0
3.27221e-05	0	0	0
3.29395e-05	0	0	0
3.41184e-05	0	0	0
3.41226e-05	0	0	0
3.49807e-05	0	0	0
3.56459e-05	0	0	0
3.5775e-05	0	0	0
3.76042e-05	0	0	0
3.76194e-05	0	0	0
3.80304e-05	0	0	0
3.81194e-05	0	0	0
3.90348e-05	0	0	0
3.97737e-05	0	0	0
3.99901e-05	0	0	0
4.0198e-05	0	0	0
4.05149e-05	0	0	0
4.19621e-05	0	0	0
4.25473e-05	0	0	0
4.27053e-05	0	0	0
4.39693e-05	0	0	0
4.57242e-05	0	0	0
4.58101e-05	0	0	0
4.70518e-05	0	0	0
4.71739e-05	0	0	0
4.75293e-05	0	0	0
4.78184e-05	0	0	0
4.88775e-05	0	0	0
4.92883e-05	0	0	0
5.02239e-05	0	0	0
5.17382e-05	0	0	0
5.30893e-05	0	0	0
5.31747e-05	0	0	0
5.32998e-05	0	0	0
5.45849e-05	0	0	0
5.46754e-05	0	0	0
5.54998e-05	0	0	0
5.59141e-05	0	0	0
5.89747e-05	0	0	0
6.14576e-05	0	0	0
6.18816e-05	0	0	0
6.29195e-05	0	0	0
6.30525e-05	0	0	0
6.46805e-05	0	0	0
6.55906e-05	0	0	0
6.56481e-05	0	0	0
6.732e-05	0	0	0
6.85151e-05	0	0	0
6.91826e-05	0	0	0
6.9212e-05	0	0	0
7.01912e-05	0	0	0
7.02353e-05	0	0	0
7.02422e-05	0	0	0
7.03209e-05	0	0	0
7.03354e-05	0	0	0
7.03737e-05	0	0	0
7.04401e-05	0	0	0
7.13596e-05	0	0	0
7.33173e-05	0	0	0
7.37588e-05	0	0	0
7.46241e-05	0	0	0
7.4982e-05	0	0	0
7.53564e-05	0	0	0
7.70111e-05	0	0	0
7.80662e-05	0	0	0
7.84162e-05	0	0	0
7.84949e-05	0	0	0
7.91733e-05	0	0	0
7.93797e-05	0	0	0
8.0486e-05	0	0	0
8.22067e-05	0	0	0
8.2946e-05	0	0	0
8.41251e-05	0	0	0
8.45159e-05	0	0	0
8.51586e-05	0	0	0
8.64206e-05	0	0	0
9.28469e-05	0	0	0
9.88309e-05	0	0	0
9.9124e-05	0	0	0
0.00010163	0	0	0
0.000103016	0	0	0
0.000106512	0	0	0
0.000107035	0	0	0
0.000107533	0	0	0
0.000107799	0	0	0
0.000110744	0	0	0
0.000113446	0	0	0
0.000116417	0	0	0
0.000118906	0	0	0
0.000119528	0	0	0
0.000120771	0	0	0
0.00012197	0	0	0
0.000123149	0	0	0
0.000125425	0	0	0
0.000125457	0	0	0
0.00012613	0	0	0
0.000129494	0	0	0
0.000130914	0	0	0
0.000131037	0	0	0
0.000131629	0	0	0
0.000133079	0	0	0
0.000138436	0	0	0
0.000138452	0	0	0
0.000138661	0	0	0
0.00014096	0	0	0
0.000144912	0	0	0
0.000146031	0	0	0
0.000147356	0	0	0
0.000150497	0	0	0
0.000150965	0	0	0
0.000153201	0	0	0
0.000153275	0	0	0
0.00015718	0	0	0
0.00015955	0	0	0
0.000163361	0	0	0
0.000167355	0	0	0
0.000168521	0	0	0
0.000172089	0	0	0
0.000173079	0	0	0
0.00017425	0	0	0
0.000175007	0	0	0
0.000176378	0	0	0
0.000178894	0	0	0
0.000179008	0	0	0
0.000180161	0	0	0
0.000182919	0	0	0
0.000184426	0	0	0
0.000186641	0	0	0
0.000190354	0	0	0
0.000190867	0	0	0
0.000192018	0	0	0
0.000192047	0	0	0
0.000192256	0	0	0
0.000192578	0	0	0
0.000198122	0	0	0
0.000199035	0	0	0
0.000200291	0	0	0
0.000205583	0	0	0
0.000205842	0	0	0
0.000214256	0	0	0
0.000214997	0	0	0
0.000216043	0	0	0
0.000221322	0	0	0
0.000221376	0	0	0
0.000222838	0	0	0
0.000228021	0	0	0
0.000229761	0	0	0
0.000231549	0	0	0
0.00023683	0	0	0
0.000238406	0	0	0
0.000240243	0	0	0
0.000241885	0	0	0
0.000246694	0	0	0
0.000248495	0	0	0
0.000253022	0	0	0
0.00025551	0	0	0
0.000256324	0	0	0
0.000257817	0	0	0
0.000258656	0	0	0
0.000263441	0	0	0
0.000263868	0	0	0
0.000264603	0	0	0
0.00026515	0	0	0
0.000269927	0	0	0
0.000273556	0	0	0
0.000280352	0	0	0
0.00028097	0	0	0
0.000281175	0	0	0
0.000290081	0	0	0
0.000290097	0	0	0
0.000298173	0	0	0
0.00031093	0	0	0
0.00031519	0	0	0
0.000333322	0	0	0
0.000333614	0	0	0
0.000335523	0	0	0
0.000341531	0	0	0
0.000341819	0	0	0
0.000346666	0	0	0
0.000348252	0	0	0
0.000348332	0	0	0
0.000353798	0	0	0
0.00035468	0	0	0
0.000357047	0	0	0
0.000357732	0	0	0
0.000362772	0	0	0
0.000367551	0	0	0
0.000373791	0	0	0
0.000375401	0	0	0
0.000376159	0	0	0
0.00037952	0	0	0
0.000386442	0	0	0
0.000388284	0	0	0
0.000391976	0	0	0
0.000394186	0	0	0
0.00042407	0	0	0
0.000425844	0	0	0
0.000434698	0	0	0
0.000438225	0	0	0
0.000440866	0	0	0
0.000446256	0	0	0
0.000460034	0	0	0
0.000462594	0	0	0
0.000499027	0	0	0
0.00050926	0	0	0
0.000523594	0	0	0
0.000533494	0	0	0
0.000543428	0	0	0
0.000554096	0	0	0
0.000557645	0	0	0
0.000585074	0	0	0
0.000587906	0	0	0
0.000592418	0	0	0
0.000609815	0	0	0
0.00064652	0	0	0
0.000653691	0	0	0
0.000661136	0	0	0
0.000664212	0	0	0
0.000667166	0	0	0
0.000763167	0	0	0
0.000786579	0	0	0
0.000802226	0	0	0
0.000822475	0	0	0
0.000833126	0	0	0
0.00087069	0	0	0
0.000883203	0	0	0
0.000887358	0	0	0
0.000891474	0	0	0
0.000893771	0	0	0
0.000925198	0	0	0
0.000959914	0	0	0
0.00096695	0	0	0
0.000993732	0	0	0
0.0011656	0	0	0
0.00119668	0	0	0
0.00120368	0	0	0
0.00129399	0	0	0
0.00131817	0	0	0
0.00143041	0	0	0
0.00143133	0	0	0
0.00145619	0	0	0
0.00148119	0	0	0
0.00155887	0	0	0
0.00157234	0	0	0
0.00163383	0	0	0
0.0021995	0	0	0
0.00256785	0	0	0
0.00262879	0	0	0
0.00263676	0	0	0
0.00350353	0	0	0
0.00374344	0	0	0
0.00376755	0	0	0
0.00716872	0	0	0
0.00804974	0	0	0
0.00986961	0	0	0
0.0116117	0	0	0
0.0127557	0	0	0
