1.82793e-07	0	0	0
1.50199e-06	0	0	0
1.58231e-06	0	0	0
2.15471e-06	0	0	0
2.18524e-06	0	0	0
2.41004e-06	0	0	0
2.57915e-06	0	0	0
3.06141e-06	0	0	0
3.14675e-06	0	0	0
3.86342e-06	0	0	0
4.05148e-06	0	0	0
5.49416e-06	0	0	0
5.70034e-06	0	0	0
5.80679e-06	0	0	0
5.86575e-06	0	0	0
5.90828e-06	0	0	0
6.16035e-06	0	0	0
6.43569e-06	0	0	0
6.77471e-06	0	0	0
7.15664e-06	0	0	0
7.46081e-06	0	0	0
8.37858e-06	0	0	0
8.50598e-06	0	0	0
9.85702e-06	0	0	0
9.87992e-06	0	0	0
1.0025e-05	0	0	0
1.01514e-05	0	0	0
1.08726e-05	0	0	0
1.08762e-05	0	0	0
1.09951e-05	0	0	0
1.12473e-05	0	0	0
1.13621e-05	0	0	0
1.30218e-05	0	0	0
1.30477e-05	0	0	0
1.36971e-05	0	0	0
1.50856e-05	0	0	0
1.53912e-05	0	0	0
1.55745e-05	0	0	0
1.58688e-05	0	0	0
1.6605e-05	0	0	0
1.66781e-05	0	0	0
1.79416e-05	0	0	0
1.86857e-05	0	0	0
1.88575e-05	0	0	0
1.94544e-05	0	0	0
1.96332e-05	0	0	0
2.053e-05	0	0	0
2.06244e-05	0	0	0
2.08033e-05	0	0	0
2.12066e-05	0	0	0
2.15051e-05	0	0	0
2.16235e-05	0	0	0
2.26028e-05	0	0	0
2.31893e-05	0	0	0
2.34764e-05	0	0	0
2.35079e-05	0	0	0
2.35109e-05	0	0	0
2.48201e-05	0	0	0
2.48677e-05	0	0	0
2.55059e-05	0	0	0
2.56574e-05	0	0	0
2.56673e-05	0	0	0
2.59585e-05	0	0	0
2.67513e-05	0	0	0
2.73473e-05	0	0	0
2.73868e-05	0	0	0
2.79813e-05	0	0	0
2.88671e-05	0	0	0
2.8899e-05	0	0	0
2.89814e-05	0	0	0
3.00404e-05	0	0	0
3.04525e-05	0	0	0
3.14853e-05	0	0	0
3.17991e-05	0	0	0
3.30371e-05	0	0	0
3.39738e-05	0	0	0
3.4035e-05	0	0	0
3.42314e-05	0	0	0
3.45355e-05	0	0	0
3.47474e-05	0	0	0
3.56351e-05	0	0	0
3.62746e-05	0	0	0
3.63082e-05	0	0	0
3.64329e-05	0	0	0
3.77118e-05	0	0	0
3.77185e-05	0	0	0
3.83548e-05	0	0	0
3.87355e-05	0	0	0
3.91421e-05	0	0	0
3.95217e-05	0	0	0
3.9524e-05	0	0	0
3.97304e-05	0	0	0
3.98428e-05	0	0	0
4.03286e-05	0	0	0
4.11388e-05	0	0	0
4.11801e-05	0	0	0
4.14822e-05	0	0	0
4.16094e-05	0	0	0
4.275e-05	0	0	0
4.41002e-05	0	0	0
4.41835e-05	0	0	0
4.53323e-05	0	0	0
4.57307e-05	0	0	0
4.58399e-05	0	0	0
4.58631e-05	0	0	0
4.76926e-05	0	0	0
4.77497e-05	0	0	0
4.90684e-05	0	0	0
4.99249e-05	0	0	0
4.99373e-05	0	0	0
5.06215e-05	0	0	0
5.10329e-05	0	0	0
5.27498e-05	0	0	0
5.28743e-05	0	0	0
5.30435e-05	0	0	0
5.33289e-05	0	0	0
5.55306e-05	0	0	0
5.56687e-05	0	0	0
5.72187e-05	0	0	0
5.74827e-05	0	0	0
6.1004e-05	0	0	0
6.14851e-05	0	0	0
6.14888e-05	0	0	0
6.18081e-05	0	0	0
6.22021e-05	0	0	0
6.26911e-05	0	0	0
6.27092e-05	0	0	0
6.30747e-05	0	0	0
6.46966e-05	0	0	0
6.53572e-05	0	0	0
6.6751e-05	0	0	0
6.7306e-05	0	0	0
6.8857e-05	0	0	0
7.13867e-05	0	0	0
7.13948e-05	0	0	0
7.27571e-05	0	0	0
7.29937e-05	0	0	0
7.42811e-05	0	0	0
7.56664e-05	0	0	0
7.70178e-05	0	0	0
7.7245e-05	0	0	0
7.78798e-05	0	0	0
8.06872e-05	0	0	0
8.24418e-05	0	0	0
8.28532e-05	0	0	0
8.32054e-05	0	0	0
8.32137e-05	0	0	0
8.41843e-05	0	0	0
8.51001e-05	0	0	0
8.53986e-05	0	0	0
8.59365e-05	0	0	0
8.61981e-05	0	0	0
8.68366e-05	0	0	0
8.70014e-05	0	0	0
8.70332e-05	0	0	0
8.832e-05	0	0	0
9.14502e-05	0	0	0
9.17304e-05	0	0	0
9.25636e-05	0	0	0
9.27333e-05	0	0	0
9.47492e-05	0	0	0
9.54425e-05	0	0	0
9.74102e-05	0	0	0
0.000100018	0	0	0
0.000100371	0	0	0
0.000100841	0	0	0
0.000101228	0	0	0
0.000101278	0	0	0
0.00010221	0	0	0
0.000103768	0	0	0
0.000105049	0	0	0
0.000105452	0	0	0
0.000107251	0	0	0
0.00010901	0	0	0
0.00011169	0	0	0
0.000113355	0	0	0
0.0001156	0	0	0
0.000117499	0	0	0
0.000121629	0	0	0
0.000122092	0	0	0
0.000122358	0	0	0
0.00012457	0	0	0
0.000125082	0	0	0
0.000125546	0	0	0
0.000127113	0	0	0
0.000128257	0	0	0
0.000128977	0	0	0
0.000130111	0	0	0
0.000131602	0	0	0
0.00013368	0	0	0
0.000135771	0	0	0
0.000137167	0	0	0
0.000138064	0	0	0
0.000139841	0	0	0
0.00014051	0	0	0
0.000140892	0	0	0
0.000144969	0	0	0
0.000146568	0	0	0
0.000150911	0	0	0
0.000157536	0	0	0
0.000163049	0	0	0
0.000164519	0	0	0
0.000166409	0	0	0
0.000172604	0	0	0
0.000176236	0	0	0
0.000177244	0	0	0
0.000178388	0	0	0
0.000179587	0	0	0
0.000182483	0	0	0
0.000183698	0	0	0
0.000184303	0	0	0
0.000184801	0	0	0
0.000187323	0	0	0
0.000189981	0	0	0
0.000190574	0	0	0
0.000191425	0	0	0
0.000191976	0	0	0
0.000192838	0	0	0
0.00019307	0	0	0
0.000194297	0	0	0
0.00019491	0	0	0
0.000198701	0	0	0
0.000201024	0	0	0
0.00020237	0	0	0
0.000205967	0	0	0
0.000206244	0	0	0
0.000207436	0	0	0
0.00021009	0	0	0
0.000212952	0	0	0
0.000216469	0	0	0
0.000217106	0	0	0
0.00021903	0	0	0
0.000221526	0	0	0
0.000227693	0	0	0
0.000228816	0	0	0
0.000229395	0	0	0
0.00023278	0	0	0
0.000233596	0	0	0
0.000238363	0	0	0
0.000239588	0	0	0
0.000248042	0	0	0
0.000252501	0	0	0
0.000253269	0	0	0
0.000253816	0	0	0
0.000266538	0	0	0
0.000273769	0	0	0
0.000288373	0	0	0
0.000290472	0	0	0
0.000290481	0	0	0
0.000291995	0	0	0
0.000294307	0	0	0
0.000295124	0	0	0
0.000298201	0	0	0
0.000299893	0	0	0
0.000303463	0	0	0
0.000307126	0	0	0
0.000307295	0	0	0
0.000316467	0	0	0
0.000317372	0	0	0
0.000318437	0	0	0
0.00032227	0	0	0
0.000323593	0	0	0
0.000323607	0	0	0
0.000326244	0	0	0
0.000331777	0	0	0
0.000336529	0	0	0
0.000340751	0	0	0
0.000342793	0	0	0
0.000343343	0	0	0
0.000351802	0	0	0
0.000352474	0	0	0
0.000355006	0	0	0
0.000357567	0	0	0
0.000358055	0	0	0
0.000359762	0	0	0
0.000364709	0	0	0
0.000369428	0	0	0
0.00037614	0	0	0
0.000379944	0	0	0
0.000384774	0	0	0
0.00038723	0	0	0
0.00039195	0	0	0
0.000394787	0	0	0
0.000395535	0	0	0
0.000398829	0	0	0
0.000406364	0	0	0
0.000407688	0	0	0
0.000417614	0	0	0
0.000419664	0	0	0
0.000421961	0	0	0
0.000423797	0	0	0
0.000426107	0	0	0
0.000428268	0	0	0
0.00043225	0	0	0
0.000432344	0	0	0
0.000433094	0	0	0
0.000435454	0	0	0
0.00044318	0	0	0
0.000458842	0	0	0
0.000462738	0	0	0
0.000462818	0	0	0
0.000468398	0	0	0
0.00047825	0	0	0
0.00047909	0	0	0
0.00048354	0	0	0
0.000486654	0	0	0
0.000501565	0	0	0
0.000504372	0	0	0
0.000510893	0	0	0
0.00051716	0	0	0
0.000522746	0	0	0
0.000528223	0	0	0
0.000542041	0	0	0
0.000543078	0	0	0
0.0005444	0	0	0
0.00054869	0	0	0
0.000557209	0	0	0
0.000564681	0	0	0
0.000592754	0	0	0
0.000593769	0	0	0
0.000610889	0	0	0
0.000624829	0	0	0
0.000631034	0	0	0
0.000632547	0	0	0
0.000643273	0	0	0
0.000645659	0	0	0
0.000652155	0	0	0
0.000653511	0	0	0
0.000678504	0	0	0
0.000682584	0	0	0
0.000705672	0	0	0
0.000720961	0	0	0
0.000733115	0	0	0
0.000752412	0	0	0
0.000753479	0	0	0
0.000765442	0	0	0
0.000766111	0	0	0
0.000778382	0	0	0
0.00080436	0	0	0
0.000807752	0	0	0
0.000837299	0	0	0
0.000868874	0	0	0
0.000901321	0	0	0
0.000902414	0	0	0
0.000910559	0	0	0
0.000913201	0	0	0
0.000914082	0	0	0
0.000920789	0	0	0
0.00092188	0	0	0
0.000943213	0	0	0
0.00102286	0	0	0
0.00103825	0	0	0
0.00105997	0	0	0
0.0011194	0	0	0
0.0011809	0	0	0
0.00124791	0	0	0
0.00136619	0	0	0
0.00139847	0	0	0
0.00142372	0	0	0
0.00157703	0	0	0
0.00162288	0	0	0
0.00167947	0	0	0
0.00169618	0	0	0
0.00182871	0	0	0
0.00220801	0	0	0
0.00223668	0	0	0
0.00233901	0	0	0
0.0025461	0	0	0
0.00300265	0	0	0
0.00616887	0	0	0
0.00660082	0	0	0
0.00872902	0	0	0
