4.56504e-08	0	0	0
1.44516e-06	0	0	0
1.52109e-06	0	0	0
1.61151e-06	0	0	0
1.94661e-06	0	0	0
2.02522e-06	0	0	0
2.14804e-06	0	0	0
2.16883e-06	0	0	0
2.2451e-06	0	0	0
2.55444e-06	0	0	0
2.81699e-06	0	0	0
3.41592e-06	0	0	0
3.66772e-06	0	0	0
4.14339e-06	0	0	0
4.50277e-06	0	0	0
4.57515e-06	0	0	0
4.97798e-06	0	0	0
5.60568e-06	0	0	0
6.55795e-06	0	0	0
8.80652e-06	0	0	0
9.8102e-06	0	0	0
9.8683e-06	0	0	0
1.01927e-05	0	0	0
1.06907e-05	0	0	0
1.09035e-05	0	0	0
1.17984e-05	0	0	0
1.18168e-05	0	0	0
1.20236e-05	0	0	0
1.21917e-05	0	0	0
1.31575e-05	0	0	0
1.32763e-05	0	0	0
1.46192e-05	0	0	0
1.60287e-05	0	0	0
1.60456e-05	0	0	0
1.60533e-05	0	0	0
1.7121e-05	0	0	0
1.72586e-05	0	0	0
1.80391e-05	0	0	0
1.82827e-05	0	0	0
1.83764e-05	0	0	0
1.84316e-05	0	0	0
1.85341e-05	0	0	0
1.87915e-05	0	0	0
1.90136e-05	0	0	0
1.92019e-05	0	0	0
1.95172e-05	0	0	0
2.04584e-05	0	0	0
2.099e-05	0	0	0
2.10157e-05	0	0	0
2.17263e-05	0	0	0
2.17274e-05	0	0	0
2.27423e-05	0	0	0
2.43296e-05	0	0	0
2.44762e-05	0	0	0
2.46737e-05	0	0	0
2.48181e-05	0	0	0
2.48734e-05	0	0	0
2.53267e-05	0	0	0
2.54151e-05	0	0	0
2.58372e-05	0	0	0
2.59588e-05	0	0	0
2.61953e-05	0	0	0
2.6357e-05	0	0	0
2.6566e-05	0	0	0
2.67311e-05	0	0	0
2.70738e-05	0	0	0
2.74762e-05	0	0	0
2.80212e-05	0	0	0
2.83646e-05	0	0	0
2.94701e-05	0	0	0
2.94868e-05	0	0	0
3.0029e-05	0	0	0
3.0211e-05	0	0	0
3.02721e-05	0	0	0
3.03044e-05	0	0	0
3.10502e-05	0	0	0
3.18873e-05	0	0	0
3.21692e-05	0	0	0
3.24199e-05	0	0	0
3.46913e-05	0	0	0
3.56801e-05	0	0	0
3.56855e-05	0	0	0
3.59949e-05	0	0	0
3.73158e-05	0	0	0
3.74496e-05	0	0	0
3.75325e-05	0	0	0
3.77272e-05	0	0	0
3.78899e-05	0	0	0
3.79515e-05	0	0	0
4.00599e-05	0	0	0
4.05491e-05	0	0	0
4.18874e-05	0	0	0
4.24031e-05	0	0	0
4.28477e-05	0	0	0
4.41947e-05	0	0	0
4.48392e-05	0	0	0
4.48809e-05	0	0	0
4.69058e-05	0	0	0
4.85445e-05	0	0	0
4.9027e-05	0	0	0
5.24442e-05	0	0	0
5.25238e-05	0	0	0
5.30087e-05	0	0	0
5.35678e-05	0	0	0
5.45393e-05	0	0	0
5.55064e-05	0	0	0
5.6584e-05	0	0	0
5.67774e-05	0	0	0
5.94625e-05	0	0	0
6.01673e-05	0	0	0
6.02413e-05	0	0	0
6.10568e-05	0	0	0
6.14354e-05	0	0	0
6.18557e-05	0	0	0
6.20018e-05	0	0	0
6.21272e-05	0	0	0
6.25472e-05	0	0	0
6.40446e-05	0	0	0
6.42619e-05	0	0	0
6.48572e-05	0	0	0
6.49748e-05	0	0	0
6.54027e-05	0	0	0
6.63054e-05	0	0	0
6.75722e-05	0	0	0
6.82988e-05	0	0	0
7.04191e-05	0	0	0
7.05674e-05	0	0	0
7.9107e-05	0	0	0
7.96128e-05	0	0	0
8.08233e-05	0	0	0
8.23211e-05	0	0	0
8.50238e-05	0	0	0
8.6514e-05	0	0	0
8.67645e-05	0	0	0
8.78496e-05	0	0	0
9.27494e-05	0	0	0
9.72309e-05	0	0	0
9.74535e-05	0	0	0
9.82933e-05	0	0	0
0.000100715	0	0	0
0.000100844	0	0	0
0.000100884	0	0	0
0.000101858	0	0	0
0.000102306	0	0	0
0.000105836	0	0	0
0.000107585	0	0	0
0.00010911	0	0	0
0.000110558	0	0	0
0.000110777	0	0	0
0.000112471	0	0	0
0.000113478	0	0	0
0.000114068	0	0	0
0.000118022	0	0	0
0.000118774	0	0	0
0.000121985	0	0	0
0.000128732	0	0	0
0.000130118	0	0	0
0.000130356	0	0	0
0.000132346	0	0	0
0.000135566	0	0	0
0.000136488	0	0	0
0.000137097	0	0	0
0.00013825	0	0	0
0.000139874	0	0	0
0.000140941	0	0	0
0.000141229	0	0	0
0.000145212	0	0	0
0.000147636	0	0	0
0.00015081	0	0	0
0.000156017	0	0	0
0.00015851	0	0	0
0.00016305	0	0	0
0.000164253	0	0	0
0.000167652	0	0	0
0.000168299	0	0	0
0.00016957	0	0	0
0.000169952	0	0	0
0.000173975	0	0	0
0.000174048	0	0	0
0.00017432	0	0	0
0.000176289	0	0	0
0.000181782	0	0	0
0.000187639	0	0	0
0.000187775	0	0	0
0.000201251	0	0	0
0.00020134	0	0	0
0.000203248	0	0	0
0.000207488	0	0	0
0.000208283	0	0	0
0.000209332	0	0	0
0.000209507	0	0	0
0.0002112	0	0	0
0.000212448	0	0	0
0.000213397	0	0	0
0.000213578	0	0	0
0.000214975	0	0	0
0.000221282	0	0	0
0.000222757	0	0	0
0.000223073	0	0	0
0.000232254	0	0	0
0.000236	0	0	0
0.000236117	0	0	0
0.000236592	0	0	0
0.000236914	0	0	0
0.000243996	0	0	0
0.000249946	0	0	0
0.000250738	0	0	0
0.0002513	0	0	0
0.0002597	0	0	0
0.000262567	0	0	0
0.000263148	0	0	0
0.000267182	0	0	0
0.000291715	0	0	0
0.000292479	0	0	0
0.000292653	0	0	0
0.000301482	0	0	0
0.000302058	0	0	0
0.000309763	0	0	0
0.000313177	0	0	0
0.000315487	0	0	0
0.000324637	0	0	0
0.000337586	0	0	0
0.000341478	0	0	0
0.000351256	0	0	0
0.000360054	0	0	0
0.000360646	0	0	0
0.000363337	0	0	0
0.000368533	0	0	0
0.000373071	0	0	0
0.000384311	0	0	0
0.000410647	0	0	0
0.000412848	0	0	0
0.000421202	0	0	0
0.000424541	0	0	0
0.000429716	0	0	0
0.00044185	0	0	0
0.000450038	0	0	0
0.000462443	0	0	0
0.000472455	0	0	0
0.000491456	0	0	0
0.000496251	0	0	0
0.000499794	0	0	0
0.000509982	0	0	0
0.000566611	0	0	0
0.000594343	0	0	0
0.000598024	0	0	0
0.000660127	0	0	0
0.000674035	0	0	0
0.000681467	0	0	0
0.00069722	0	0	0
0.000717753	0	0	0
0.000745558	0	0	0
0.000756205	0	0	0
0.000756363	0	0	0
0.000767017	0	0	0
0.000768419	0	0	0
0.000823504	0	0	0
0.000875998	0	0	0
0.00090588	0	0	0
0.000941656	0	0	0
0.000957827	0	0	0
0.00106575	0	0	0
0.00111104	0	0	0
0.00123823	0	0	0
0.00156239	0	0	0
0.00157779	0	0	0
0.001585	0	0	0
0.0017038	0	0	0
0.00255831	0	0	0
0.00348898	0	0	0
0.00362499	0	0	0
0.00439072	0	0	0
0.00450366	0	0	0
0.00695102	0	0	0
0.010838	0	0	0
