2.1523e-07	0	0	0
2.15573e-07	0	0	0
8.75794e-07	0	0	0
1.03971e-06	0	0	0
1.14637e-06	0	0	0
1.41942e-06	0	0	0
2.36685e-06	0	0	0
2.50638e-06	0	0	0
3.04013e-06	0	0	0
3.22716e-06	0	0	0
3.70795e-06	0	0	0
4.03292e-06	0	0	0
4.2408e-06	0	0	0
4.37357e-06	0	0	0
5.18574e-06	0	0	0
5.33897e-06	0	0	0
6.08329e-06	0	0	0
6.34485e-06	0	0	0
6.51123e-06	0	0	0
6.59004e-06	0	0	0
7.52273e-06	0	0	0
7.69289e-06	0	0	0
7.92676e-06	0	0	0
8.70076e-06	0	0	0
1.00526e-05	0	0	0
1.01635e-05	0	0	0
1.02775e-05	0	0	0
1.10871e-05	0	0	0
1.12316e-05	0	0	0
1.15002e-05	0	0	0
1.18762e-05	0	0	0
1.22111e-05	0	0	0
1.3787e-05	0	0	0
1.47896e-05	0	0	0
1.56034e-05	0	0	0
1.60448e-05	0	0	0
1.67781e-05	0	0	0
1.70846e-05	0	0	0
1.79474e-05	0	0	0
1.83446e-05	0	0	0
1.98935e-05	0	0	0
2.01553e-05	0	0	0
2.01927e-05	0	0	0
2.02758e-05	0	0	0
2.08666e-05	0	0	0
2.0871e-05	0	0	0
2.19968e-05	0	0	0
2.35889e-05	0	0	0
2.40996e-05	0	0	0
2.42227e-05	0	0	0
2.44011e-05	0	0	0
2.51436e-05	0	0	0
2.51652e-05	0	0	0
2.57297e-05	0	0	0
2.64918e-05	0	0	0
2.67125e-05	0	0	0
2.75122e-05	0	0	0
2.76997e-05	0	0	0
2.7926e-05	0	0	0
2.82868e-05	0	0	0
2.83832e-05	0	0	0
2.87298e-05	0	0	0
2.98086e-05	0	0	0
2.9836e-05	0	0	0
3.01467e-05	0	0	0
3.09571e-05	0	0	0
3.1115e-05	0	0	0
3.119e-05	0	0	0
3.14528e-05	0	0	0
3.16335e-05	0	0	0
3.23408e-05	0	0	0
3.29036e-05	0	0	0
3.35046e-05	0	0	0
3.35643e-05	0	0	0
3.50266e-05	0	0	0
3.51013e-05	0	0	0
3.55413e-05	0	0	0
3.5876e-05	0	0	0
3.59323e-05	0	0	0
3.60028e-05	0	0	0
3.78518e-05	0	0	0
3.83744e-05	0	0	0
3.94769e-05	0	0	0
4.01939e-05	0	0	0
4.05127e-05	0	0	0
4.07376e-05	0	0	0
4.32408e-05	0	0	0
4.474e-05	0	0	0
4.57196e-05	0	0	0
4.78679e-05	0	0	0
4.83517e-05	0	0	0
4.88315e-05	0	0	0
4.91087e-05	0	0	0
4.91564e-05	0	0	0
4.95785e-05	0	0	0
5.06706e-05	0	0	0
5.12122e-05	0	0	0
5.14347e-05	0	0	0
5.17484e-05	0	0	0
5.17815e-05	0	0	0
5.20613e-05	0	0	0
5.20996e-05	0	0	0
5.25936e-05	0	0	0
5.33832e-05	0	0	0
5.35597e-05	0	0	0
5.363e-05	0	0	0
5.36693e-05	0	0	0
5.37613e-05	0	0	0
5.43042e-05	0	0	0
5.47905e-05	0	0	0
5.50679e-05	0	0	0
5.65475e-05	0	0	0
5.71865e-05	0	0	0
5.96087e-05	0	0	0
6.07797e-05	0	0	0
6.10939e-05	0	0	0
6.2932e-05	0	0	0
6.31873e-05	0	0	0
6.4294e-05	0	0	0
6.4564e-05	0	0	0
6.4656e-05	0	0	0
6.55742e-05	0	0	0
6.64804e-05	0	0	0
6.7336e-05	0	0	0
6.86653e-05	0	0	0
7.00662e-05	0	0	0
7.11573e-05	0	0	0
7.22388e-05	0	0	0
7.22703e-05	0	0	0
7.29001e-05	0	0	0
7.36269e-05	0	0	0
7.36657e-05	0	0	0
7.64531e-05	0	0	0
8.0786e-05	0	0	0
8.22823e-05	0	0	0
8.34274e-05	0	0	0
8.34941e-05	0	0	0
8.62189e-05	0	0	0
8.79469e-05	0	0	0
8.80807e-05	0	0	0
8.97847e-05	0	0	0
9.03998e-05	0	0	0
9.10293e-05	0	0	0
9.15556e-05	0	0	0
9.17559e-05	0	0	0
9.47582e-05	0	0	0
9.59325e-05	0	0	0
9.90354e-05	0	0	0
9.9209e-05	0	0	0
0.000103391	0	0	0
0.000104198	0	0	0
0.000106962	0	0	0
0.000112865	0	0	0
0.000113186	0	0	0
0.000113891	0	0	0
0.000115117	0	0	0
0.000117651	0	0	0
0.000120777	0	0	0
0.000123364	0	0	0
0.000123523	0	0	0
0.000125724	0	0	0
0.000126002	0	0	0
0.000128259	0	0	0
0.000129865	0	0	0
0.000130205	0	0	0
0.000132	0	0	0
0.000133019	0	0	0
0.000133124	0	0	0
0.000136263	0	0	0
0.0001398	0	0	0
0.000142064	0	0	0
0.000143541	0	0	0
0.000143723	0	0	0
0.000144754	0	0	0
0.000145625	0	0	0
0.000146095	0	0	0
0.00014622	0	0	0
0.000149845	0	0	0
0.000152166	0	0	0
0.000153453	0	0	0
0.00015468	0	0	0
0.000154986	0	0	0
0.000156883	0	0	0
0.000158749	0	0	0
0.000159407	0	0	0
0.000160009	0	0	0
0.000161055	0	0	0
0.000161071	0	0	0
0.000162804	0	0	0
0.000162959	0	0	0
0.000163593	0	0	0
0.000163852	0	0	0
0.000166398	0	0	0
0.000168348	0	0	0
0.000168494	0	0	0
0.000172383	0	0	0
0.000172728	0	0	0
0.000175614	0	0	0
0.000176084	0	0	0
0.000176843	0	0	0
0.000179519	0	0	0
0.000181989	0	0	0
0.000182438	0	0	0
0.000182898	0	0	0
0.000183026	0	0	0
0.000183258	0	0	0
0.000183962	0	0	0
0.0001859	0	0	0
0.000187619	0	0	0
0.000187742	0	0	0
0.000189566	0	0	0
0.000190067	0	0	0
0.000191077	0	0	0
0.000191529	0	0	0
0.000197454	0	0	0
0.000197575	0	0	0
0.000200403	0	0	0
0.000202416	0	0	0
0.000203305	0	0	0
0.000206889	0	0	0
0.000207658	0	0	0
0.000209575	0	0	0
0.000219943	0	0	0
0.000222156	0	0	0
0.000223706	0	0	0
0.000223725	0	0	0
0.000224345	0	0	0
0.000225893	0	0	0
0.000229048	0	0	0
0.000229682	0	0	0
0.000230201	0	0	0
0.000233062	0	0	0
0.000233785	0	0	0
0.000238245	0	0	0
0.000240345	0	0	0
0.000245914	0	0	0
0.000250368	0	0	0
0.000251565	0	0	0
0.000266927	0	0	0
0.000270673	0	0	0
0.000271686	0	0	0
0.000281019	0	0	0
0.000286079	0	0	0
0.000288817	0	0	0
0.000292616	0	0	0
0.000293612	0	0	0
0.00029408	0	0	0
0.000306523	0	0	0
0.000312387	0	0	0
0.000313791	0	0	0
0.000314191	0	0	0
0.000317812	0	0	0
0.00032757	0	0	0
0.000328592	0	0	0
0.000330204	0	0	0
0.00033798	0	0	0
0.00034323	0	0	0
0.00034991	0	0	0
0.000350507	0	0	0
0.000357552	0	0	0
0.000374757	0	0	0
0.000389785	0	0	0
0.000390776	0	0	0
0.000391408	0	0	0
0.000396111	0	0	0
0.000401725	0	0	0
0.000402158	0	0	0
0.000406204	0	0	0
0.000412971	0	0	0
0.000414732	0	0	0
0.000419939	0	0	0
0.000431342	0	0	0
0.000433103	0	0	0
0.000434613	0	0	0
0.00044031	0	0	0
0.000449705	0	0	0
0.00046474	0	0	0
0.000475095	0	0	0
0.00047556	0	0	0
0.000475967	0	0	0
0.000480093	0	0	0
0.000484351	0	0	0
0.000492789	0	0	0
0.000495026	0	0	0
0.00050503	0	0	0
0.000518807	0	0	0
0.000522892	0	0	0
0.000539326	0	0	0
0.000549044	0	0	0
0.000555822	0	0	0
0.000566447	0	0	0
0.000580112	0	0	0
0.000580492	0	0	0
0.000629824	0	0	0
0.000632031	0	0	0
0.000657423	0	0	0
0.000658426	0	0	0
0.000669019	0	0	0
0.000686848	0	0	0
0.000687378	0	0	0
0.000702	0	0	0
0.000757665	0	0	0
0.00075897	0	0	0
0.000772779	0	0	0
0.000783776	0	0	0
0.000807905	0	0	0
0.000891372	0	0	0
0.00092621	0	0	0
0.00092904	0	0	0
0.000944254	0	0	0
0.00106007	0	0	0
0.00106449	0	0	0
0.00109692	0	0	0
0.00126193	0	0	0
0.00126385	0	0	0
0.00135864	0	0	0
0.0019392	0	0	0
0.00203804	0	0	0
0.00205214	0	0	0
0.00263891	0	0	0
0.00289425	0	0	0
0.00419598	0	0	0
0.00420674	0	0	0
0.00466705	0	0	0
0.00515121	0	0	0
0.00566252	0	0	0
0.00568205	0	0	0
0.0072769	0	0	0
0.0073651	0	0	0
0.00916896	0	0	0
