1.34024e-07	0	0	0
3.39982e-07	0	0	0
1.91316e-06	0	0	0
2.35346e-06	0	0	0
2.89415e-06	0	0	0
2.91875e-06	0	0	0
3.24937e-06	0	0	0
4.00439e-06	0	0	0
4.50164e-06	0	0	0
5.02594e-06	0	0	0
5.41139e-06	0	0	0
5.47608e-06	0	0	0
5.56028e-06	0	0	0
5.58443e-06	0	0	0
5.59773e-06	0	0	0
5.66092e-06	0	0	0
6.00543e-06	0	0	0
6.73843e-06	0	0	0
7.70697e-06	0	0	0
7.93951e-06	0	0	0
8.86565e-06	0	0	0
8.88395e-06	0	0	0
9.67497e-06	0	0	0
9.75262e-06	0	0	0
1.23254e-05	0	0	0
1.26168e-05	0	0	0
1.29141e-05	0	0	0
1.30491e-05	0	0	0
1.39595e-05	0	0	0
1.4165e-05	0	0	0
1.50634e-05	0	0	0
1.525e-05	0	0	0
1.69884e-05	0	0	0
1.73675e-05	0	0	0
1.74428e-05	0	0	0
1.79767e-05	0	0	0
1.80727e-05	0	0	0
1.82563e-05	0	0	0
1.87299e-05	0	0	0
1.8857e-05	0	0	0
2.00682e-05	0	0	0
2.0099e-05	0	0	0
2.03632e-05	0	0	0
2.10784e-05	0	0	0
2.167e-05	0	0	0
2.17906e-05	0	0	0
2.22978e-05	0	0	0
2.23013e-05	0	0	0
2.29726e-05	0	0	0
2.33613e-05	0	0	0
2.38062e-05	0	0	0
2.41494e-05	0	0	0
2.46474e-05	0	0	0
2.46654e-05	0	0	0
2.50581e-05	0	0	0
2.55493e-05	0	0	0
2.61431e-05	0	0	0
2.64574e-05	0	0	0
2.65693e-05	0	0	0
2.67117e-05	0	0	0
2.71575e-05	0	0	0
2.77914e-05	0	0	0
2.82931e-05	0	0	0
2.92942e-05	0	0	0
2.98618e-05	0	0	0
3.0111e-05	0	0	0
3.06431e-05	0	0	0
3.23319e-05	0	0	0
3.54103e-05	0	0	0
3.7824e-05	0	0	0
3.88647e-05	0	0	0
3.91004e-05	0	0	0
3.97255e-05	0	0	0
3.9846e-05	0	0	0
4.02078e-05	0	0	0
4.16436e-05	0	0	0
4.22699e-05	0	0	0
4.25067e-05	0	0	0
4.27168e-05	0	0	0
4.28706e-05	0	0	0
4.37959e-05	0	0	0
4.38213e-05	0	0	0
4.53573e-05	0	0	0
4.60217e-05	0	0	0
4.65908e-05	0	0	0
4.67648e-05	0	0	0
4.74279e-05	0	0	0
4.97188e-05	0	0	0
5.02713e-05	0	0	0
5.03706e-05	0	0	0
5.05321e-05	0	0	0
5.08689e-05	0	0	0
5.18361e-05	0	0	0
5.26042e-05	0	0	0
5.40829e-05	0	0	0
5.46678e-05	0	0	0
5.60051e-05	0	0	0
5.73508e-05	0	0	0
5.82926e-05	0	0	0
5.86009e-05	0	0	0
5.9927e-05	0	0	0
6.03181e-05	0	0	0
6.03382e-05	0	0	0
6.33608e-05	0	0	0
6.41308e-05	0	0	0
6.69753e-05	0	0	0
6.75539e-05	0	0	0
6.79021e-05	0	0	0
6.85433e-05	0	0	0
6.87295e-05	0	0	0
6.884e-05	0	0	0
6.91602e-05	0	0	0
6.92875e-05	0	0	0
6.94037e-05	0	0	0
7.00947e-05	0	0	0
7.15084e-05	0	0	0
7.16142e-05	0	0	0
7.20658e-05	0	0	0
7.22806e-05	0	0	0
7.35452e-05	0	0	0
7.41343e-05	0	0	0
7.6273e-05	0	0	0
7.68555e-05	0	0	0
7.69389e-05	0	0	0
7.73826e-05	0	0	0
7.89778e-05	0	0	0
7.92053e-05	0	0	0
7.92692e-05	0	0	0
7.94073e-05	0	0	0
8.14817e-05	0	0	0
8.25172e-05	0	0	0
8.40134e-05	0	0	0
8.48446e-05	0	0	0
8.79039e-05	0	0	0
8.82931e-05	0	0	0
9.0323e-05	0	0	0
9.33203e-05	0	0	0
9.72409e-05	0	0	0
9.80178e-05	0	0	0
0.000101861	0	0	0
0.00010209	0	0	0
0.00010643	0	0	0
0.000106552	0	0	0
0.000107603	0	0	0
0.000110213	0	0	0
0.000112133	0	0	0
0.000115076	0	0	0
0.000115663	0	0	0
0.000116466	0	0	0
0.000117019	0	0	0
0.000117584	0	0	0
0.000119573	0	0	0
0.000119856	0	0	0
0.000119992	0	0	0
0.000122127	0	0	0
0.000129102	0	0	0
0.000129232	0	0	0
0.000131574	0	0	0
0.000132245	0	0	0
0.000133651	0	0	0
0.000137197	0	0	0
0.000137852	0	0	0
0.000137972	0	0	0
0.000140345	0	0	0
0.000140793	0	0	0
0.000140991	0	0	0
0.000141403	0	0	0
0.000141836	0	0	0
0.000147183	0	0	0
0.000150481	0	0	0
0.00015086	0	0	0
0.00015111	0	0	0
0.000153771	0	0	0
0.0001539	0	0	0
0.00015398	0	0	0
0.000154117	0	0	0
0.000154188	0	0	0
0.000157703	0	0	0
0.000159978	0	0	0
0.00016035	0	0	0
0.000161309	0	0	0
0.000161348	0	0	0
0.000162248	0	0	0
0.000162286	0	0	0
0.000163709	0	0	0
0.000167835	0	0	0
0.000168444	0	0	0
0.000169297	0	0	0
0.000169937	0	0	0
0.000170171	0	0	0
0.000172327	0	0	0
0.000175309	0	0	0
0.000179305	0	0	0
0.000180809	0	0	0
0.000185271	0	0	0
0.000185968	0	0	0
0.000187796	0	0	0
0.000188835	0	0	0
0.000190816	0	0	0
0.000190865	0	0	0
0.000191728	0	0	0
0.000194922	0	0	0
0.000196705	0	0	0
0.000197789	0	0	0
0.000204154	0	0	0
0.000205625	0	0	0
0.000208548	0	0	0
0.000209214	0	0	0
0.000223832	0	0	0
0.000225101	0	0	0
0.000225581	0	0	0
0.000226449	0	0	0
0.000227553	0	0	0
0.00022829	0	0	0
0.000230247	0	0	0
0.000231093	0	0	0
0.00023304	0	0	0
0.000242843	0	0	0
0.00024347	0	0	0
0.000259172	0	0	0
0.000260003	0	0	0
0.000260138	0	0	0
0.000261561	0	0	0
0.0002643	0	0	0
0.000266037	0	0	0
0.000266189	0	0	0
0.000266351	0	0	0
0.00027445	0	0	0
0.000280729	0	0	0
0.000281635	0	0	0
0.000282235	0	0	0
0.000292883	0	0	0
0.000292896	0	0	0
0.000295008	0	0	0
0.000295591	0	0	0
0.000296003	0	0	0
0.000307265	0	0	0
0.000309187	0	0	0
0.000313314	0	0	0
0.000315348	0	0	0
0.000318351	0	0	0
0.00032108	0	0	0
0.000321242	0	0	0
0.000322184	0	0	0
0.000322422	0	0	0
0.000322497	0	0	0
0.000332436	0	0	0
0.000333134	0	0	0
0.000336258	0	0	0
0.000340421	0	0	0
0.000341162	0	0	0
0.000341769	0	0	0
0.000346666	0	0	0
0.000357675	0	0	0
0.000358851	0	0	0
0.000360744	0	0	0
0.000369051	0	0	0
0.000369371	0	0	0
0.000369568	0	0	0
0.000377363	0	0	0
0.00037924	0	0	0
0.00037936	0	0	0
0.0003795	0	0	0
0.000380594	0	0	0
0.000394032	0	0	0
0.000397002	0	0	0
0.000399388	0	0	0
0.00040007	0	0	0
0.00041035	0	0	0
0.000419698	0	0	0
0.000426932	0	0	0
0.000428116	0	0	0
0.00043161	0	0	0
0.000434823	0	0	0
0.000434876	0	0	0
0.000459686	0	0	0
0.000460791	0	0	0
0.000462778	0	0	0
0.000466006	0	0	0
0.000470008	0	0	0
0.000474402	0	0	0
0.000481967	0	0	0
0.000502625	0	0	0
0.000505101	0	0	0
0.000506903	0	0	0
0.000507505	0	0	0
0.000520696	0	0	0
0.000530221	0	0	0
0.000553594	0	0	0
0.000584414	0	0	0
0.000592217	0	0	0
0.000607965	0	0	0
0.000645293	0	0	0
0.00064882	0	0	0
0.000656485	0	0	0
0.000689312	0	0	0
0.000691003	0	0	0
0.00072664	0	0	0
0.000732005	0	0	0
0.000736999	0	0	0
0.000777732	0	0	0
0.000788887	0	0	0
0.000814751	0	0	0
0.000940853	0	0	0
0.000981737	0	0	0
0.00110658	0	0	0
0.00121597	0	0	0
0.00146655	0	0	0
0.00158125	0	0	0
0.0015825	0	0	0
0.00159565	0	0	0
0.00161822	0	0	0
0.00172336	0	0	0
0.00187523	0	0	0
0.00201536	0	0	0
0.00230327	0	0	0
0.00318421	0	0	0
0.00430978	0	0	0
0.00448288	0	0	0
0.00508905	0	0	0
0.00598378	0	0	0
0.0060187	0	0	0
0.00677047	0	0	0
0.00913882	0	0	0
0.0094006	0	0	0
0.0171263	0	0	0
0.0202076	0	0	0
0.0246307	0	0	0
