5.55821e-07	0	0	0
1.73101e-06	0	0	0
1.73886e-06	0	0	0
2.28901e-06	0	0	0
2.89628e-06	0	0	0
4.2224e-06	0	0	0
4.44354e-06	0	0	0
5.83599e-06	0	0	0
6.35982e-06	0	0	0
6.48431e-06	0	0	0
8.0018e-06	0	0	0
8.37546e-06	0	0	0
8.50512e-06	0	0	0
9.20018e-06	0	0	0
9.68769e-06	0	0	0
1.03254e-05	0	0	0
1.04927e-05	0	0	0
1.1274e-05	0	0	0
1.18267e-05	0	0	0
1.19827e-05	0	0	0
1.24786e-05	0	0	0
1.29352e-05	0	0	0
1.40559e-05	0	0	0
1.48053e-05	0	0	0
1.49488e-05	0	0	0
1.56481e-05	0	0	0
1.61423e-05	0	0	0
1.62612e-05	0	0	0
1.6873e-05	0	0	0
1.70364e-05	0	0	0
1.70442e-05	0	0	0
1.85261e-05	0	0	0
1.90677e-05	0	0	0
1.94656e-05	0	0	0
2.07288e-05	0	0	0
2.12357e-05	0	0	0
2.13878e-05	0	0	0
2.13974e-05	0	0	0
2.16711e-05	0	0	0
2.16846e-05	0	0	0
2.19124e-05	0	0	0
2.21428e-05	0	0	0
2.23639e-05	0	0	0
2.43295e-05	0	0	0
2.49963e-05	0	0	0
2.54287e-05	0	0	0
2.61335e-05	0	0	0
2.64394e-05	0	0	0
2.71604e-05	0	0	0
2.73306e-05	0	0	0
2.78511e-05	0	0	0
2.79708e-05	0	0	0
2.83346e-05	0	0	0
2.87463e-05	0	0	0
3.0839e-05	0	0	0
3.08962e-05	0	0	0
3.25502e-05	0	0	0
3.30947e-05	0	0	0
3.3238e-05	0	0	0
3.38978e-05	0	0	0
3.4026e-05	0	0	0
3.43403e-05	0	0	0
3.47123e-05	0	0	0
3.53611e-05	0	0	0
3.65987e-05	0	0	0
3.67525e-05	0	0	0
3.77449e-05	0	0	0
3.80758e-05	0	0	0
3.98467e-05	0	0	0
3.98529e-05	0	0	0
4.03421e-05	0	0	0
4.0508e-05	0	0	0
4.09106e-05	0	0	0
4.11211e-05	0	0	0
4.11696e-05	0	0	0
4.12591e-05	0	0	0
4.15725e-05	0	0	0
4.16511e-05	0	0	0
4.27592e-05	0	0	0
4.28899e-05	0	0	0
4.3109e-05	0	0	0
4.32888e-05	0	0	0
4.40194e-05	0	0	0
4.46744e-05	0	0	0
4.54188e-05	0	0	0
4.55354e-05	0	0	0
4.70984e-05	0	0	0
4.74164e-05	0	0	0
4.74902e-05	0	0	0
4.97082e-05	0	0	0
5.02555e-05	0	0	0
5.16752e-05	0	0	0
5.20304e-05	0	0	0
5.31906e-05	0	0	0
5.43118e-05	0	0	0
5.44175e-05	0	0	0
5.46569e-05	0	0	0
5.61839e-05	0	0	0
5.65039e-05	0	0	0
5.70007e-05	0	0	0
5.80419e-05	0	0	0
5.84072e-05	0	0	0
5.8723e-05	0	0	0
5.88831e-05	0	0	0
5.93003e-05	0	0	0
5.9364e-05	0	0	0
6.16948e-05	0	0	0
6.18525e-05	0	0	0
6.23826e-05	0	0	0
6.54806e-05	0	0	0
6.58701e-05	0	0	0
6.5883e-05	0	0	0
6.65887e-05	0	0	0
6.87576e-05	0	0	0
6.93264e-05	0	0	0
7.24222e-05	0	0	0
7.35634e-05	0	0	0
7.37712e-05	0	0	0
7.52323e-05	0	0	0
7.64893e-05	0	0	0
7.83028e-05	0	0	0
8.05617e-05	0	0	0
8.06704e-05	0	0	0
8.11241e-05	0	0	0
8.12608e-05	0	0	0
8.18087e-05	0	0	0
8.20375e-05	0	0	0
8.31775e-05	0	0	0
8.34309e-05	0	0	0
8.36647e-05	0	0	0
8.37334e-05	0	0	0
8.40435e-05	0	0	0
8.46065e-05	0	0	0
8.59212e-05	0	0	0
8.6162e-05	0	0	0
8.64948e-05	0	0	0
8.6996e-05	0	0	0
8.7438e-05	0	0	0
9.01385e-05	0	0	0
9.05016e-05	0	0	0
9.28511e-05	0	0	0
9.31557e-05	0	0	0
9.48036e-05	0	0	0
0.000102039	0	0	0
0.000106243	0	0	0
0.000110037	0	0	0
0.000114651	0	0	0
0.000117143	0	0	0
0.000119875	0	0	0
0.000121578	0	0	0
0.000125627	0	0	0
0.000126242	0	0	0
0.000127332	0	0	0
0.00013035	0	0	0
0.000130843	0	0	0
0.00013145	0	0	0
0.000132906	0	0	0
0.000133363	0	0	0
0.000134156	0	0	0
0.000135321	0	0	0
0.000135383	0	0	0
0.00013621	0	0	0
0.000138092	0	0	0
0.000140304	0	0	0
0.000144032	0	0	0
0.000156846	0	0	0
0.00015759	0	0	0
0.000158781	0	0	0
0.000158956	0	0	0
0.000162422	0	0	0
0.00016372	0	0	0
0.000164076	0	0	0
0.000171418	0	0	0
0.000174757	0	0	0
0.000174773	0	0	0
0.000175318	0	0	0
0.000175813	0	0	0
0.000181123	0	0	0
0.000181834	0	0	0
0.000184058	0	0	0
0.000191213	0	0	0
0.000194396	0	0	0
0.000195906	0	0	0
0.000198341	0	0	0
0.000206914	0	0	0
0.000207697	0	0	0
0.00020774	0	0	0
0.000213606	0	0	0
0.000232308	0	0	0
0.000233489	0	0	0
0.000237386	0	0	0
0.000239487	0	0	0
0.000241097	0	0	0
0.000248044	0	0	0
0.000248532	0	0	0
0.00024997	0	0	0
0.000250592	0	0	0
0.000253955	0	0	0
0.00026396	0	0	0
0.000264062	0	0	0
0.000265783	0	0	0
0.000270613	0	0	0
0.000281808	0	0	0
0.000300332	0	0	0
0.000309915	0	0	0
0.00031034	0	0	0
0.000310913	0	0	0
0.000311001	0	0	0
0.00031811	0	0	0
0.000333142	0	0	0
0.000352266	0	0	0
0.000354445	0	0	0
0.000363593	0	0	0
0.000384636	0	0	0
0.000385306	0	0	0
0.000395012	0	0	0
0.000397581	0	0	0
0.000406468	0	0	0
0.000410283	0	0	0
0.000416474	0	0	0
0.000424788	0	0	0
0.000445497	0	0	0
0.000455472	0	0	0
0.000473607	0	0	0
0.000482502	0	0	0
0.00048819	0	0	0
0.000492965	0	0	0
0.000506335	0	0	0
0.000510058	0	0	0
0.000518146	0	0	0
0.000521625	0	0	0
0.000540745	0	0	0
0.000545912	0	0	0
0.000581848	0	0	0
0.00058861	0	0	0
0.000595099	0	0	0
0.000603237	0	0	0
0.000608401	0	0	0
0.000616689	0	0	0
0.000628811	0	0	0
0.000701685	0	0	0
0.000758331	0	0	0
0.000773436	0	0	0
0.000774591	0	0	0
0.000801309	0	0	0
0.000823342	0	0	0
0.000831927	0	0	0
0.000841401	0	0	0
0.000903247	0	0	0
0.000969489	0	0	0
0.00102173	0	0	0
0.00111272	0	0	0
0.00124581	0	0	0
0.00136118	0	0	0
0.00148476	0	0	0
0.00278558	0	0	0
0.00341006	0	0	0
0.00353837	0	0	0
0.00356147	0	0	0
0.00561674	0	0	0
0.00601083	0	0	0
0.00716459	0	0	0
0.00780449	0	0	0
0.00909104	0	0	0
0.014462	0	0	0
0.0180485	0	0	0
