1.18349e-07	0	0	0
5.39695e-07	0	0	0
2.15227e-06	0	0	0
2.54729e-06	0	0	0
2.73771e-06	0	0	0
3.44797e-06	0	0	0
5.28704e-06	0	0	0
5.36526e-06	0	0	0
5.42753e-06	0	0	0
5.72495e-06	0	0	0
7.10223e-06	0	0	0
8.29348e-06	0	0	0
8.51753e-06	0	0	0
9.08662e-06	0	0	0
9.23827e-06	0	0	0
9.95758e-06	0	0	0
1.2691e-05	0	0	0
1.4279e-05	0	0	0
1.60659e-05	0	0	0
1.65566e-05	0	0	0
1.66802e-05	0	0	0
1.74587e-05	0	0	0
1.76662e-05	0	0	0
1.90887e-05	0	0	0
2.06388e-05	0	0	0
2.14692e-05	0	0	0
2.2186e-05	0	0	0
2.26397e-05	0	0	0
2.29405e-05	0	0	0
2.3922e-05	0	0	0
2.60871e-05	0	0	0
2.69053e-05	0	0	0
2.80822e-05	0	0	0
2.83263e-05	0	0	0
2.87298e-05	0	0	0
2.99181e-05	0	0	0
3.02275e-05	0	0	0
3.04945e-05	0	0	0
3.0689e-05	0	0	0
3.418e-05	0	0	0
3.45134e-05	0	0	0
3.62017e-05	0	0	0
3.6462e-05	0	0	0
3.66805e-05	0	0	0
3.73958e-05	0	0	0
3.7398e-05	0	0	0
3.82591e-05	0	0	0
3.82657e-05	0	0	0
4.00759e-05	0	0	0
4.18591e-05	0	0	0
4.22923e-05	0	0	0
4.42831e-05	0	0	0
4.46186e-05	0	0	0
4.57625e-05	0	0	0
4.63188e-05	0	0	0
4.93757e-05	0	0	0
4.94565e-05	0	0	0
4.96181e-05	0	0	0
5.03696e-05	0	0	0
5.24815e-05	0	0	0
5.69103e-05	0	0	0
5.77155e-05	0	0	0
5.81262e-05	0	0	0
5.88257e-05	0	0	0
5.95459e-05	0	0	0
6.02683e-05	0	0	0
6.23808e-05	0	0	0
6.29327e-05	0	0	0
6.54947e-05	0	0	0
6.68372e-05	0	0	0
6.90567e-05	0	0	0
6.91812e-05	0	0	0
7.33266e-05	0	0	0
7.42612e-05	0	0	0
7.50843e-05	0	0	0
7.50989e-05	0	0	0
7.79662e-05	0	0	0
8.06661e-05	0	0	0
8.27175e-05	0	0	0
9.66886e-05	0	0	0
9.86886e-05	0	0	0
0.000101153	0	0	0
0.000103979	0	0	0
0.000106259	0	0	0
0.000109571	0	0	0
0.000110596	0	0	0
0.000112639	0	0	0
0.000112994	0	0	0
0.000115198	0	0	0
0.000120441	0	0	0
0.000121018	0	0	0
0.000124022	0	0	0
0.000125323	0	0	0
0.000126947	0	0	0
0.000127306	0	0	0
0.000127893	0	0	0
0.000137076	0	0	0
0.000137721	0	0	0
0.000138374	0	0	0
0.000143307	0	0	0
0.000148047	0	0	0
0.000149666	0	0	0
0.000150481	0	0	0
0.000150514	0	0	0
0.000151758	0	0	0
0.000151764	0	0	0
0.000155545	0	0	0
0.000158634	0	0	0
0.000158772	0	0	0
0.000161428	0	0	0
0.000168709	0	0	0
0.000175085	0	0	0
0.000175793	0	0	0
0.000183923	0	0	0
0.000185903	0	0	0
0.000187578	0	0	0
0.000189425	0	0	0
0.000197365	0	0	0
0.00020439	0	0	0
0.000210241	0	0	0
0.00021528	0	0	0
0.000215635	0	0	0
0.000230044	0	0	0
0.000232123	0	0	0
0.000236476	0	0	0
0.000236817	0	0	0
0.000240944	0	0	0
0.000251369	0	0	0
0.000260436	0	0	0
0.000277578	0	0	0
0.00028204	0	0	0
0.000285046	0	0	0
0.000286457	0	0	0
0.000289525	0	0	0
0.000297276	0	0	0
0.000298584	0	0	0
0.000300889	0	0	0
0.000301744	0	0	0
0.000302836	0	0	0
0.000303033	0	0	0
0.000320469	0	0	0
0.000320521	0	0	0
0.000336689	0	0	0
0.000337132	0	0	0
0.000347969	0	0	0
0.000360944	0	0	0
0.000374053	0	0	0
0.000376704	0	0	0
0.000376792	0	0	0
0.000393057	0	0	0
0.000396879	0	0	0
0.000401782	0	0	0
0.00041751	0	0	0
0.000441107	0	0	0
0.000442333	0	0	0
0.000455784	0	0	0
0.000456461	0	0	0
0.000480037	0	0	0
0.000483431	0	0	0
0.000486584	0	0	0
0.000490213	0	0	0
0.000518547	0	0	0
0.000524423	0	0	0
0.000532741	0	0	0
0.00054485	0	0	0
0.000551555	0	0	0
0.000580747	0	0	0
0.000594539	0	0	0
0.000596606	0	0	0
0.000636254	0	0	0
0.000651388	0	0	0
0.000656079	0	0	0
0.000656162	0	0	0
0.000664705	0	0	0
0.000693203	0	0	0
0.000707801	0	0	0
0.000753419	0	0	0
0.00075407	0	0	0
0.000782649	0	0	0
0.000796044	0	0	0
0.000838034	0	0	0
0.000904553	0	0	0
0.000931701	0	0	0
0.000964755	0	0	0
0.00100301	0	0	0
0.00102155	0	0	0
0.00107412	0	0	0
0.00108095	0	0	0
0.00128644	0	0	0
0.0017372	0	0	0
0.00177279	0	0	0
0.00189282	0	0	0
0.00199069	0	0	0
0.00201272	0	0	0
0.0037344	0	0	0
0.00376613	0	0	0
0.00579008	0	0	0
0.00621108	0	0	0
