4.59135e-07	0	0	0
1.72557e-06	0	0	0
2.42067e-06	0	0	0
3.9633e-06	0	0	0
4.22031e-06	0	0	0
5.24001e-06	0	0	0
5.5192e-06	0	0	0
6.73655e-06	0	0	0
7.58023e-06	0	0	0
8.24247e-06	0	0	0
9.02248e-06	0	0	0
9.66701e-06	0	0	0
1.01889e-05	0	0	0
1.04027e-05	0	0	0
1.14044e-05	0	0	0
1.2068e-05	0	0	0
1.2178e-05	0	0	0
1.27353e-05	0	0	0
1.43708e-05	0	0	0
1.50832e-05	0	0	0
1.51258e-05	0	0	0
1.60343e-05	0	0	0
1.68724e-05	0	0	0
1.74577e-05	0	0	0
1.93051e-05	0	0	0
2.0719e-05	0	0	0
2.08976e-05	0	0	0
2.10215e-05	0	0	0
2.16201e-05	0	0	0
2.36161e-05	0	0	0
2.41949e-05	0	0	0
2.54546e-05	0	0	0
2.56737e-05	0	0	0
2.68853e-05	0	0	0
2.69483e-05	0	0	0
2.71535e-05	0	0	0
2.7274e-05	0	0	0
2.82248e-05	0	0	0
2.83896e-05	0	0	0
2.87127e-05	0	0	0
3.07308e-05	0	0	0
3.08679e-05	0	0	0
3.16929e-05	0	0	0
3.20861e-05	0	0	0
3.2284e-05	0	0	0
3.30942e-05	0	0	0
3.41071e-05	0	0	0
3.69426e-05	0	0	0
3.70339e-05	0	0	0
3.73265e-05	0	0	0
3.75514e-05	0	0	0
3.75727e-05	0	0	0
3.88488e-05	0	0	0
3.93008e-05	0	0	0
3.97947e-05	0	0	0
3.99742e-05	0	0	0
4.09569e-05	0	0	0
4.14396e-05	0	0	0
4.26657e-05	0	0	0
4.27665e-05	0	0	0
4.30454e-05	0	0	0
4.35897e-05	0	0	0
4.63519e-05	0	0	0
4.91359e-05	0	0	0
4.92225e-05	0	0	0
4.95436e-05	0	0	0
4.99377e-05	0	0	0
5.16491e-05	0	0	0
5.24584e-05	0	0	0
5.29769e-05	0	0	0
5.67716e-05	0	0	0
5.95906e-05	0	0	0
6.49747e-05	0	0	0
6.53237e-05	0	0	0
6.67123e-05	0	0	0
6.72765e-05	0	0	0
7.23521e-05	0	0	0
7.69194e-05	0	0	0
8.30787e-05	0	0	0
8.58681e-05	0	0	0
8.68645e-05	0	0	0
8.77031e-05	0	0	0
9.0008e-05	0	0	0
9.4092e-05	0	0	0
9.71957e-05	0	0	0
9.73871e-05	0	0	0
9.79762e-05	0	0	0
0.000108005	0	0	0
0.000111875	0	0	0
0.000112438	0	0	0
0.000116831	0	0	0
0.000121673	0	0	0
0.000121957	0	0	0
0.00012425	0	0	0
0.000124392	0	0	0
0.000124503	0	0	0
0.000130825	0	0	0
0.000132076	0	0	0
0.000138467	0	0	0
0.000140959	0	0	0
0.00014258	0	0	0
0.000144606	0	0	0
0.000148696	0	0	0
0.000151185	0	0	0
0.000152235	0	0	0
0.000152451	0	0	0
0.000153548	0	0	0
0.000159036	0	0	0
0.000165679	0	0	0
0.000172391	0	0	0
0.000173912	0	0	0
0.000174337	0	0	0
0.000175362	0	0	0
0.000190213	0	0	0
0.000191994	0	0	0
0.000192559	0	0	0
0.000192626	0	0	0
0.000204684	0	0	0
0.00020591	0	0	0
0.000207821	0	0	0
0.000209018	0	0	0
0.00021455	0	0	0
0.000218227	0	0	0
0.000221548	0	0	0
0.000223651	0	0	0
0.000239015	0	0	0
0.000245037	0	0	0
0.000245123	0	0	0
0.000248253	0	0	0
0.000272281	0	0	0
0.000278412	0	0	0
0.000279217	0	0	0
0.000283242	0	0	0
0.000292559	0	0	0
0.000302344	0	0	0
0.000303531	0	0	0
0.000310096	0	0	0
0.000316083	0	0	0
0.000320213	0	0	0
0.000320586	0	0	0
0.000330198	0	0	0
0.000333752	0	0	0
0.000355561	0	0	0
0.000363345	0	0	0
0.000373683	0	0	0
0.000416897	0	0	0
0.000439232	0	0	0
0.000465275	0	0	0
0.000470516	0	0	0
0.000520753	0	0	0
0.000565266	0	0	0
0.000566023	0	0	0
0.000580229	0	0	0
0.000596938	0	0	0
0.00060532	0	0	0
0.000607337	0	0	0
0.000627819	0	0	0
0.000629095	0	0	0
0.000634886	0	0	0
0.000663936	0	0	0
0.000664594	0	0	0
0.000678902	0	0	0
0.000701232	0	0	0
0.000721253	0	0	0
0.000731358	0	0	0
0.000734556	0	0	0
0.000736791	0	0	0
0.000742313	0	0	0
0.00078706	0	0	0
0.000817962	0	0	0
0.000923535	0	0	0
0.00103058	0	0	0
0.00128976	0	0	0
0.00139348	0	0	0
0.00144673	0	0	0
0.00147328	0	0	0
0.00167496	0	0	0
0.00171394	0	0	0
0.00208273	0	0	0
0.00213701	0	0	0
0.00233883	0	0	0
0.00259059	0	0	0
0.00270136	0	0	0
0.00377601	0	0	0
0.00410762	0	0	0
0.00634501	0	0	0
0.00669198	0	0	0
0.00934629	0	0	0
0.0107067	0	0	0
0.0107863	0	0	0
0.010948	0	0	0
0.0193894	0	0	0
0.0235434	0	0	0
