3.14965e-10	0	0	0
3.18531e-10	0	0	0
9.81515e-10	0	0	0
1.20806e-09	0	0	0
1.51822e-09	0	0	0
2.15409e-09	0	0	0
2.22554e-09	0	0	0
4.26566e-09	0	0	0
5.10087e-09	0	0	0
8.24963e-09	0	0	0
8.29962e-09	0	0	0
8.99386e-09	0	0	0
1.00668e-08	0	0	0
1.09908e-08	0	0	0
1.18581e-08	0	0	0
1.25615e-08	0	0	0
1.25884e-08	0	0	0
1.47247e-08	0	0	0
1.84207e-08	0	0	0
1.90353e-08	0	0	0
2.36682e-08	0	0	0
2.37254e-08	0	0	0
2.79406e-08	0	0	0
3.10821e-08	0	0	0
3.24365e-08	0	0	0
3.44943e-08	0	0	0
3.75369e-08	0	0	0
4.35845e-08	0	0	0
4.42055e-08	0	0	0
4.61647e-08	0	0	0
4.66421e-08	0	0	0
4.67386e-08	0	0	0
4.78963e-08	0	0	0
4.85426e-08	0	0	0
4.92378e-08	0	0	0
5.45791e-08	0	0	0
5.774e-08	0	0	0
6.03715e-08	0	0	0
6.29742e-08	0	0	0
6.83036e-08	0	0	0
7.16385e-08	0	0	0
8.71323e-08	0	0	0
8.99581e-08	0	0	0
9.25934e-08	0	0	0
9.45527e-08	0	0	0
1.16059e-07	0	0	0
1.35691e-07	0	0	0
1.36085e-07	0	0	0
1.37686e-07	0	0	0
1.47325e-07	0	0	0
2.33922e-07	0	0	0
2.44652e-07	0	0	0
3.11014e-07	0	0	0
3.17967e-07	0	0	0
4.16738e-07	0	0	0
4.2798e-07	0	0	0
4.89962e-07	0	0	0
6.14143e-07	0	0	0
8.32429e-07	0	0	0
1.08273e-06	0	0	0
1.10998e-06	0	0	0
1.30756e-06	0	0	0
1.41415e-06	0	0	0
2.64732e-06	0	0	0
3.43041e-06	0	0	0
3.71045e-06	0	0	0
6.18149e-06	0	0	0
2.31469e-05	0	0	0
3.50629e-05	0	0	0
