1.37721e-09	0	0	0
2.08676e-09	0	0	0
4.15156e-09	0	0	0
4.27393e-09	0	0	0
4.94494e-09	0	0	0
5.81637e-09	0	0	0
6.62342e-09	0	0	0
7.17116e-09	0	0	0
7.56728e-09	0	0	0
7.97389e-09	0	0	0
8.32087e-09	0	0	0
8.34656e-09	0	0	0
1.14402e-08	0	0	0
1.19962e-08	0	0	0
1.30243e-08	0	0	0
1.74641e-08	0	0	0
1.77136e-08	0	0	0
1.78097e-08	0	0	0
2.16667e-08	0	0	0
2.2574e-08	0	0	0
2.34368e-08	0	0	0
2.70501e-08	0	0	0
2.86238e-08	0	0	0
3.02625e-08	0	0	0
3.91179e-08	0	0	0
4.00685e-08	0	0	0
4.14429e-08	0	0	0
4.20854e-08	0	0	0
4.53068e-08	0	0	0
4.58143e-08	0	0	0
4.59308e-08	0	0	0
4.82849e-08	0	0	0
5.42099e-08	0	0	0
5.78915e-08	0	0	0
7.73542e-08	0	0	0
7.75113e-08	0	0	0
8.95937e-08	0	0	0
8.99382e-08	0	0	0
9.65586e-08	0	0	0
9.96973e-08	0	0	0
1.06315e-07	0	0	0
1.18369e-07	0	0	0
1.25834e-07	0	0	0
1.32829e-07	0	0	0
1.33156e-07	0	0	0
1.37758e-07	0	0	0
1.43524e-07	0	0	0
1.541e-07	0	0	0
1.70915e-07	0	0	0
1.7553e-07	0	0	0
1.82211e-07	0	0	0
1.90402e-07	0	0	0
2.17768e-07	0	0	0
2.41371e-07	0	0	0
2.7524e-07	0	0	0
2.86179e-07	0	0	0
3.2165e-07	0	0	0
3.48991e-07	0	0	0
4.31713e-07	0	0	0
4.58666e-07	0	0	0
8.27824e-07	0	0	0
8.784e-07	0	0	0
1.00272e-06	0	0	0
1.10946e-06	0	0	0
1.69036e-06	0	0	0
1.82102e-06	0	0	0
2.04014e-06	0	0	0
2.08525e-06	0	0	0
2.16539e-06	0	0	0
2.2878e-06	0	0	0
3.22774e-06	0	0	0
4.0248e-06	0	0	0
4.3247e-06	0	0	0
5.78018e-06	0	0	0
6.04792e-06	0	0	0
8.21452e-06	0	0	0
1.13608e-05	0	0	0
1.68702e-05	0	0	0
3.37732e-05	0	0	0
3.46263e-05	0	0	0
8.79769e-05	0	0	0
