1.51428e-10	0	0	0
1.05495e-09	0	0	0
1.61412e-09	0	0	0
1.8414e-09	0	0	0
1.93293e-09	0	0	0
2.56633e-09	0	0	0
2.63727e-09	0	0	0
2.9199e-09	0	0	0
4.48679e-09	0	0	0
6.75323e-09	0	0	0
7.25433e-09	0	0	0
8.66068e-09	0	0	0
9.00432e-09	0	0	0
1.02295e-08	0	0	0
1.0522e-08	0	0	0
1.09306e-08	0	0	0
1.27211e-08	0	0	0
1.38193e-08	0	0	0
1.86476e-08	0	0	0
1.90261e-08	0	0	0
2.14094e-08	0	0	0
2.2348e-08	0	0	0
2.27122e-08	0	0	0
2.62066e-08	0	0	0
2.62101e-08	0	0	0
2.68967e-08	0	0	0
2.69355e-08	0	0	0
3.06458e-08	0	0	0
3.1832e-08	0	0	0
3.6401e-08	0	0	0
3.9674e-08	0	0	0
4.18051e-08	0	0	0
4.35275e-08	0	0	0
4.50609e-08	0	0	0
4.88659e-08	0	0	0
4.99678e-08	0	0	0
5.01708e-08	0	0	0
5.42988e-08	0	0	0
5.47712e-08	0	0	0
5.89755e-08	0	0	0
5.91537e-08	0	0	0
6.18187e-08	0	0	0
6.34246e-08	0	0	0
1.35408e-07	0	0	0
1.44531e-07	0	0	0
1.53575e-07	0	0	0
1.59823e-07	0	0	0
1.90409e-07	0	0	0
2.14798e-07	0	0	0
2.2274e-07	0	0	0
2.2322e-07	0	0	0
2.34595e-07	0	0	0
2.56265e-07	0	0	0
2.73863e-07	0	0	0
2.99316e-07	0	0	0
3.19087e-07	0	0	0
3.35184e-07	0	0	0
3.35314e-07	0	0	0
4.06271e-07	0	0	0
5.17807e-07	0	0	0
7.14057e-07	0	0	0
7.81052e-07	0	0	0
9.21208e-07	0	0	0
1.05465e-06	0	0	0
1.26586e-06	0	0	0
1.30953e-06	0	0	0
2.1927e-06	0	0	0
2.21709e-06	0	0	0
2.41948e-06	0	0	0
2.62831e-06	0	0	0
3.27616e-06	0	0	0
3.30114e-06	0	0	0
3.58431e-06	0	0	0
3.86659e-06	0	0	0
5.2596e-06	0	0	0
7.56565e-06	0	0	0
4.23181e-05	0	0	0
