2.66205e-10	0	0	0
4.19556e-10	0	0	0
3.12444e-09	0	0	0
4.12946e-09	0	0	0
4.96975e-09	0	0	0
5.42231e-09	0	0	0
6.14582e-09	0	0	0
7.06541e-09	0	0	0
7.46289e-09	0	0	0
7.47772e-09	0	0	0
7.54573e-09	0	0	0
7.57601e-09	0	0	0
1.00502e-08	0	0	0
1.27263e-08	0	0	0
1.38694e-08	0	0	0
1.51008e-08	0	0	0
1.64619e-08	0	0	0
1.73119e-08	0	0	0
1.81328e-08	0	0	0
1.82654e-08	0	0	0
2.15385e-08	0	0	0
2.32192e-08	0	0	0
2.36944e-08	0	0	0
2.871e-08	0	0	0
2.89554e-08	0	0	0
2.96555e-08	0	0	0
3.2028e-08	0	0	0
3.26413e-08	0	0	0
3.43782e-08	0	0	0
3.64496e-08	0	0	0
3.75849e-08	0	0	0
3.95896e-08	0	0	0
4.00037e-08	0	0	0
4.23676e-08	0	0	0
4.28405e-08	0	0	0
4.38575e-08	0	0	0
4.54193e-08	0	0	0
5.60911e-08	0	0	0
5.79485e-08	0	0	0
6.65286e-08	0	0	0
6.90597e-08	0	0	0
7.07754e-08	0	0	0
7.26681e-08	0	0	0
8.0145e-08	0	0	0
8.03238e-08	0	0	0
9.07687e-08	0	0	0
9.38577e-08	0	0	0
1.1057e-07	0	0	0
1.17627e-07	0	0	0
1.24558e-07	0	0	0
1.29495e-07	0	0	0
1.42803e-07	0	0	0
1.75801e-07	0	0	0
2.02965e-07	0	0	0
2.0583e-07	0	0	0
2.32649e-07	0	0	0
2.41454e-07	0	0	0
2.42081e-07	0	0	0
2.76484e-07	0	0	0
3.15456e-07	0	0	0
3.17191e-07	0	0	0
3.89388e-07	0	0	0
4.60169e-07	0	0	0
4.79067e-07	0	0	0
5.4684e-07	0	0	0
7.17118e-07	0	0	0
7.26771e-07	0	0	0
9.64292e-07	0	0	0
1.13753e-06	0	0	0
1.13757e-06	0	0	0
1.26511e-06	0	0	0
3.55053e-06	0	0	0
3.81342e-06	0	0	0
5.63686e-06	0	0	0
1.05636e-05	0	0	0
