3.49247e-10	0	0	0
2.80723e-09	0	0	0
3.04786e-09	0	0	0
3.05104e-09	0	0	0
3.35079e-09	0	0	0
4.15614e-09	0	0	0
4.36119e-09	0	0	0
4.71772e-09	0	0	0
4.75135e-09	0	0	0
5.06731e-09	0	0	0
5.9598e-09	0	0	0
6.55661e-09	0	0	0
6.76103e-09	0	0	0
6.88657e-09	0	0	0
7.69002e-09	0	0	0
8.19813e-09	0	0	0
8.89243e-09	0	0	0
9.1224e-09	0	0	0
9.9414e-09	0	0	0
1.00827e-08	0	0	0
1.11717e-08	0	0	0
1.15868e-08	0	0	0
1.23442e-08	0	0	0
1.84571e-08	0	0	0
1.95542e-08	0	0	0
2.21114e-08	0	0	0
2.27031e-08	0	0	0
2.29453e-08	0	0	0
2.3802e-08	0	0	0
2.41658e-08	0	0	0
2.66973e-08	0	0	0
2.74974e-08	0	0	0
2.86204e-08	0	0	0
3.23158e-08	0	0	0
3.26494e-08	0	0	0
3.51102e-08	0	0	0
3.57498e-08	0	0	0
3.72568e-08	0	0	0
4.30625e-08	0	0	0
5.0844e-08	0	0	0
5.47538e-08	0	0	0
5.77447e-08	0	0	0
6.64642e-08	0	0	0
7.19947e-08	0	0	0
7.37305e-08	0	0	0
7.62747e-08	0	0	0
7.80214e-08	0	0	0
8.6228e-08	0	0	0
8.87154e-08	0	0	0
1.12366e-07	0	0	0
1.23797e-07	0	0	0
1.30567e-07	0	0	0
1.5198e-07	0	0	0
1.75408e-07	0	0	0
1.92328e-07	0	0	0
1.99241e-07	0	0	0
2.5552e-07	0	0	0
3.2959e-07	0	0	0
3.52128e-07	0	0	0
4.61392e-07	0	0	0
4.7328e-07	0	0	0
4.94663e-07	0	0	0
5.66846e-07	0	0	0
5.87876e-07	0	0	0
6.30212e-07	0	0	0
7.64462e-07	0	0	0
8.70203e-07	0	0	0
1.95843e-06	0	0	0
2.02292e-06	0	0	0
2.52725e-06	0	0	0
3.01945e-06	0	0	0
3.22067e-06	0	0	0
3.82187e-06	0	0	0
