1.37942e-09	0	0	0
1.57255e-09	0	0	0
1.69846e-09	0	0	0
2.5736e-09	0	0	0
3.73404e-09	0	0	0
4.39955e-09	0	0	0
4.88065e-09	0	0	0
5.58027e-09	0	0	0
6.10966e-09	0	0	0
7.73669e-09	0	0	0
9.1464e-09	0	0	0
1.0312e-08	0	0	0
1.05111e-08	0	0	0
1.14944e-08	0	0	0
1.19269e-08	0	0	0
1.22476e-08	0	0	0
1.23425e-08	0	0	0
1.25395e-08	0	0	0
1.27464e-08	0	0	0
1.54026e-08	0	0	0
1.9557e-08	0	0	0
1.99254e-08	0	0	0
2.17397e-08	0	0	0
2.18413e-08	0	0	0
2.22461e-08	0	0	0
2.31103e-08	0	0	0
2.47921e-08	0	0	0
2.56763e-08	0	0	0
2.589e-08	0	0	0
2.89948e-08	0	0	0
3.77225e-08	0	0	0
3.97075e-08	0	0	0
4.59543e-08	0	0	0
4.73045e-08	0	0	0
5.00147e-08	0	0	0
5.16657e-08	0	0	0
5.22296e-08	0	0	0
5.28157e-08	0	0	0
5.58246e-08	0	0	0
6.51287e-08	0	0	0
7.15014e-08	0	0	0
7.83778e-08	0	0	0
9.14145e-08	0	0	0
9.55856e-08	0	0	0
9.98257e-08	0	0	0
1.29776e-07	0	0	0
1.37859e-07	0	0	0
1.40048e-07	0	0	0
1.71338e-07	0	0	0
1.75002e-07	0	0	0
1.9636e-07	0	0	0
2.50189e-07	0	0	0
3.02493e-07	0	0	0
3.18529e-07	0	0	0
3.20532e-07	0	0	0
4.01767e-07	0	0	0
4.27449e-07	0	0	0
5.8667e-07	0	0	0
7.12816e-07	0	0	0
8.02707e-07	0	0	0
9.55626e-07	0	0	0
1.29474e-06	0	0	0
1.34579e-06	0	0	0
1.70364e-06	0	0	0
2.0591e-06	0	0	0
2.26144e-06	0	0	0
2.52331e-06	0	0	0
2.75738e-06	0	0	0
3.8132e-06	0	0	0
4.23548e-06	0	0	0
4.64874e-06	0	0	0
6.05013e-05	0	0	0
