5.41724e-10	0	0	0
1.5705e-09	0	0	0
2.52764e-09	0	0	0
2.74151e-09	0	0	0
3.70276e-09	0	0	0
3.97716e-09	0	0	0
4.12645e-09	0	0	0
5.87543e-09	0	0	0
6.43767e-09	0	0	0
6.90217e-09	0	0	0
7.31789e-09	0	0	0
9.53833e-09	0	0	0
1.02318e-08	0	0	0
1.20831e-08	0	0	0
1.41055e-08	0	0	0
1.73234e-08	0	0	0
1.80541e-08	0	0	0
1.92393e-08	0	0	0
2.01635e-08	0	0	0
2.16289e-08	0	0	0
2.32104e-08	0	0	0
2.35144e-08	0	0	0
2.39499e-08	0	0	0
2.77219e-08	0	0	0
2.81766e-08	0	0	0
2.93307e-08	0	0	0
3.17094e-08	0	0	0
3.2908e-08	0	0	0
3.38636e-08	0	0	0
3.48433e-08	0	0	0
3.60038e-08	0	0	0
3.91059e-08	0	0	0
3.99723e-08	0	0	0
4.42661e-08	0	0	0
5.33852e-08	0	0	0
5.56705e-08	0	0	0
5.96021e-08	0	0	0
6.13668e-08	0	0	0
6.17278e-08	0	0	0
6.18233e-08	0	0	0
6.29227e-08	0	0	0
6.30523e-08	0	0	0
7.62063e-08	0	0	0
8.07148e-08	0	0	0
9.24167e-08	0	0	0
9.80123e-08	0	0	0
1.03437e-07	0	0	0
1.12641e-07	0	0	0
1.20776e-07	0	0	0
1.23351e-07	0	0	0
1.26564e-07	0	0	0
1.51968e-07	0	0	0
1.86848e-07	0	0	0
2.26784e-07	0	0	0
2.43479e-07	0	0	0
3.94743e-07	0	0	0
4.02906e-07	0	0	0
4.52229e-07	0	0	0
4.69495e-07	0	0	0
5.94248e-07	0	0	0
7.27605e-07	0	0	0
7.71109e-07	0	0	0
7.80528e-07	0	0	0
9.08221e-07	0	0	0
1.36977e-06	0	0	0
1.72963e-06	0	0	0
2.15842e-06	0	0	0
2.47475e-06	0	0	0
2.79619e-06	0	0	0
3.05289e-06	0	0	0
5.68658e-06	0	0	0
6.18246e-06	0	0	0
6.9706e-06	0	0	0
8.60914e-06	0	0	0
1.12047e-05	0	0	0
