1.47735e-10	0	0	0
4.21314e-10	0	0	0
1.08509e-09	0	0	0
1.4352e-09	0	0	0
1.45395e-09	0	0	0
1.8921e-09	0	0	0
2.63306e-09	0	0	0
2.90489e-09	0	0	0
3.55821e-09	0	0	0
4.31007e-09	0	0	0
4.45e-09	0	0	0
5.05443e-09	0	0	0
5.20664e-09	0	0	0
5.48222e-09	0	0	0
5.68297e-09	0	0	0
5.76889e-09	0	0	0
6.53632e-09	0	0	0
6.64883e-09	0	0	0
7.80891e-09	0	0	0
1.15459e-08	0	0	0
1.15621e-08	0	0	0
1.24145e-08	0	0	0
1.30117e-08	0	0	0
1.34692e-08	0	0	0
1.40193e-08	0	0	0
1.44338e-08	0	0	0
1.61414e-08	0	0	0
1.61858e-08	0	0	0
1.69994e-08	0	0	0
1.77084e-08	0	0	0
1.78484e-08	0	0	0
1.79466e-08	0	0	0
1.83016e-08	0	0	0
1.849e-08	0	0	0
1.87658e-08	0	0	0
1.96278e-08	0	0	0
2.31711e-08	0	0	0
2.69445e-08	0	0	0
2.72219e-08	0	0	0
2.74228e-08	0	0	0
2.93728e-08	0	0	0
3.19834e-08	0	0	0
3.20804e-08	0	0	0
3.24953e-08	0	0	0
3.40376e-08	0	0	0
3.68114e-08	0	0	0
3.85189e-08	0	0	0
3.88817e-08	0	0	0
4.23235e-08	0	0	0
4.29239e-08	0	0	0
4.40895e-08	0	0	0
4.50874e-08	0	0	0
4.98716e-08	0	0	0
5.86727e-08	0	0	0
5.8769e-08	0	0	0
6.912e-08	0	0	0
7.2704e-08	0	0	0
7.59481e-08	0	0	0
7.9258e-08	0	0	0
8.24584e-08	0	0	0
8.52005e-08	0	0	0
8.70589e-08	0	0	0
1.18215e-07	0	0	0
1.24978e-07	0	0	0
1.47099e-07	0	0	0
1.78898e-07	0	0	0
1.80373e-07	0	0	0
1.89591e-07	0	0	0
3.06718e-07	0	0	0
3.61269e-07	0	0	0
3.98163e-07	0	0	0
3.98219e-07	0	0	0
4.94783e-07	0	0	0
5.1578e-07	0	0	0
5.76443e-07	0	0	0
7.73e-07	0	0	0
8.14036e-07	0	0	0
9.09164e-07	0	0	0
9.60166e-07	0	0	0
9.81478e-07	0	0	0
1.16029e-06	0	0	0
1.40198e-06	0	0	0
1.42924e-06	0	0	0
1.46153e-06	0	0	0
1.47853e-06	0	0	0
1.50535e-06	0	0	0
1.53263e-06	0	0	0
1.55062e-06	0	0	0
1.7555e-06	0	0	0
1.85907e-06	0	0	0
1.95588e-06	0	0	0
1.9844e-06	0	0	0
1.99634e-06	0	0	0
2.01902e-06	0	0	0
2.06875e-06	0	0	0
2.10439e-06	0	0	0
2.18167e-06	0	0	0
2.20719e-06	0	0	0
2.23166e-06	0	0	0
2.27742e-06	0	0	0
2.31949e-06	0	0	0
2.36714e-06	0	0	0
2.37075e-06	0	0	0
2.37324e-06	0	0	0
2.40903e-06	0	0	0
2.54287e-06	0	0	0
2.61372e-06	0	0	0
2.62623e-06	0	0	0
2.64264e-06	0	0	0
2.64905e-06	0	0	0
2.73384e-06	0	0	0
2.75637e-06	0	0	0
2.77591e-06	0	0	0
2.81642e-06	0	0	0
2.89776e-06	0	0	0
2.92267e-06	0	0	0
2.94455e-06	0	0	0
2.97209e-06	0	0	0
2.98523e-06	0	0	0
3.01711e-06	0	0	0
3.05255e-06	0	0	0
3.22755e-06	0	0	0
3.24087e-06	0	0	0
3.24299e-06	0	0	0
3.27523e-06	0	0	0
3.31137e-06	0	0	0
3.31694e-06	0	0	0
3.43728e-06	0	0	0
3.47565e-06	0	0	0
3.59855e-06	0	0	0
3.67534e-06	0	0	0
3.74547e-06	0	0	0
3.77721e-06	0	0	0
3.89631e-06	0	0	0
4.09997e-06	0	0	0
4.24613e-06	0	0	0
4.27144e-06	0	0	0
4.34159e-06	0	0	0
4.36202e-06	0	0	0
4.37912e-06	0	0	0
4.45096e-06	0	0	0
4.46755e-06	0	0	0
4.49676e-06	0	0	0
4.57061e-06	0	0	0
4.60259e-06	0	0	0
4.63156e-06	0	0	0
4.69036e-06	0	0	0
4.79193e-06	0	0	0
4.84865e-06	0	0	0
4.88937e-06	0	0	0
4.89225e-06	0	0	0
4.9707e-06	0	0	0
4.97706e-06	0	0	0
5.01774e-06	0	0	0
5.02236e-06	0	0	0
5.06313e-06	0	0	0
5.09624e-06	0	0	0
5.15005e-06	0	0	0
5.16244e-06	0	0	0
5.2731e-06	0	0	0
5.45991e-06	0	0	0
5.55063e-06	0	0	0
5.67113e-06	0	0	0
5.67621e-06	0	0	0
5.71298e-06	0	0	0
5.76658e-06	0	0	0
5.87536e-06	0	0	0
5.91313e-06	0	0	0
6.09609e-06	0	0	0
6.1159e-06	0	0	0
6.1193e-06	0	0	0
6.48681e-06	0	0	0
6.51393e-06	0	0	0
6.54874e-06	0	0	0
6.57882e-06	0	0	0
6.66039e-06	0	0	0
6.78516e-06	0	0	0
6.80754e-06	0	0	0
6.93057e-06	0	0	0
7.00582e-06	0	0	0
7.13145e-06	0	0	0
7.17213e-06	0	0	0
7.19765e-06	0	0	0
7.30159e-06	0	0	0
7.42253e-06	0	0	0
7.48442e-06	0	0	0
7.6654e-06	0	0	0
7.76247e-06	0	0	0
8.15768e-06	0	0	0
8.25668e-06	0	0	0
8.29892e-06	0	0	0
8.37919e-06	0	0	0
8.38917e-06	0	0	0
8.42367e-06	0	0	0
8.43591e-06	0	0	0
8.4413e-06	0	0	0
8.52445e-06	0	0	0
8.63756e-06	0	0	0
8.76979e-06	0	0	0
8.77133e-06	0	0	0
8.84403e-06	0	0	0
8.91647e-06	0	0	0
8.96392e-06	0	0	0
9.06762e-06	0	0	0
9.06801e-06	0	0	0
9.07314e-06	0	0	0
9.19394e-06	0	0	0
9.23072e-06	0	0	0
9.29127e-06	0	0	0
9.48043e-06	0	0	0
9.69508e-06	0	0	0
9.79154e-06	0	0	0
9.94737e-06	0	0	0
1.0381e-05	0	0	0
1.0523e-05	0	0	0
1.05333e-05	0	0	0
1.05468e-05	0	0	0
1.06467e-05	0	0	0
1.0691e-05	0	0	0
1.13102e-05	0	0	0
1.1372e-05	0	0	0
1.17073e-05	0	0	0
1.17827e-05	0	0	0
1.19667e-05	0	0	0
1.20042e-05	0	0	0
1.21151e-05	0	0	0
1.24184e-05	0	0	0
1.31575e-05	0	0	0
1.33054e-05	0	0	0
1.34476e-05	0	0	0
1.34812e-05	0	0	0
1.36435e-05	0	0	0
1.36449e-05	0	0	0
1.38527e-05	0	0	0
1.38815e-05	0	0	0
1.40298e-05	0	0	0
1.40608e-05	0	0	0
1.41454e-05	0	0	0
1.42288e-05	0	0	0
1.42846e-05	0	0	0
1.42867e-05	0	0	0
1.45215e-05	0	0	0
1.46896e-05	0	0	0
1.49529e-05	0	0	0
1.49674e-05	0	0	0
1.50323e-05	0	0	0
1.50969e-05	0	0	0
1.51601e-05	0	0	0
1.54087e-05	0	0	0
1.55851e-05	0	0	0
1.58211e-05	0	0	0
1.59202e-05	0	0	0
1.59515e-05	0	0	0
1.61745e-05	0	0	0
1.63087e-05	0	0	0
1.63231e-05	0	0	0
1.64608e-05	0	0	0
1.6522e-05	0	0	0
1.72991e-05	0	0	0
1.79678e-05	0	0	0
1.7979e-05	0	0	0
1.80689e-05	0	0	0
1.81585e-05	0	0	0
1.86863e-05	0	0	0
1.87284e-05	0	0	0
1.88121e-05	0	0	0
1.91297e-05	0	0	0
1.96046e-05	0	0	0
1.97237e-05	0	0	0
1.97332e-05	0	0	0
1.97629e-05	0	0	0
1.98946e-05	0	0	0
1.9919e-05	0	0	0
2.03832e-05	0	0	0
2.07275e-05	0	0	0
2.10905e-05	0	0	0
2.12953e-05	0	0	0
2.18624e-05	0	0	0
2.20064e-05	0	0	0
2.21629e-05	0	0	0
2.21924e-05	0	0	0
2.23759e-05	0	0	0
2.24827e-05	0	0	0
2.25088e-05	0	0	0
2.26919e-05	0	0	0
2.27078e-05	0	0	0
2.27481e-05	0	0	0
2.28476e-05	0	0	0
2.31188e-05	0	0	0
2.32864e-05	0	0	0
2.35452e-05	0	0	0
2.36356e-05	0	0	0
2.38325e-05	0	0	0
2.50151e-05	0	0	0
2.57583e-05	0	0	0
2.70733e-05	0	0	0
2.70938e-05	0	0	0
2.71411e-05	0	0	0
2.72825e-05	0	0	0
2.73386e-05	0	0	0
2.73937e-05	0	0	0
2.74732e-05	0	0	0
2.75058e-05	0	0	0
2.80766e-05	0	0	0
2.80912e-05	0	0	0
2.82739e-05	0	0	0
2.86071e-05	0	0	0
2.86999e-05	0	0	0
2.89933e-05	0	0	0
2.9067e-05	0	0	0
2.95649e-05	0	0	0
2.99537e-05	0	0	0
3.02897e-05	0	0	0
3.05659e-05	0	0	0
3.13321e-05	0	0	0
3.13555e-05	0	0	0
3.15206e-05	0	0	0
3.16728e-05	0	0	0
3.21283e-05	0	0	0
3.22046e-05	0	0	0
3.22217e-05	0	0	0
3.2486e-05	0	0	0
3.26125e-05	0	0	0
3.31226e-05	0	0	0
3.31884e-05	0	0	0
3.36364e-05	0	0	0
3.38458e-05	0	0	0
3.41488e-05	0	0	0
3.45173e-05	0	0	0
3.52702e-05	0	0	0
3.53832e-05	0	0	0
3.57504e-05	0	0	0
3.63449e-05	0	0	0
3.70775e-05	0	0	0
3.74799e-05	0	0	0
4.0176e-05	0	0	0
4.04492e-05	0	0	0
4.04879e-05	0	0	0
4.09048e-05	0	0	0
4.14898e-05	0	0	0
4.24508e-05	0	0	0
4.26485e-05	0	0	0
4.27135e-05	0	0	0
4.28722e-05	0	0	0
4.33197e-05	0	0	0
4.34848e-05	0	0	0
4.36624e-05	0	0	0
4.38311e-05	0	0	0
4.44818e-05	0	0	0
4.47787e-05	0	0	0
4.50518e-05	0	0	0
4.52959e-05	0	0	0
4.58963e-05	0	0	0
4.70609e-05	0	0	0
4.74894e-05	0	0	0
4.79742e-05	0	0	0
4.81635e-05	0	0	0
4.82996e-05	0	0	0
4.87812e-05	0	0	0
4.93232e-05	0	0	0
5.02329e-05	0	0	0
5.02522e-05	0	0	0
5.08702e-05	0	0	0
5.08905e-05	0	0	0
5.20777e-05	0	0	0
5.20835e-05	0	0	0
5.33781e-05	0	0	0
5.36361e-05	0	0	0
5.36547e-05	0	0	0
5.40112e-05	0	0	0
5.43809e-05	0	0	0
5.44558e-05	0	0	0
5.46579e-05	0	0	0
5.50764e-05	0	0	0
5.67373e-05	0	0	0
5.77826e-05	0	0	0
6.03079e-05	0	0	0
6.1946e-05	0	0	0
6.21925e-05	0	0	0
6.24794e-05	0	0	0
6.28316e-05	0	0	0
6.41991e-05	0	0	0
6.64259e-05	0	0	0
6.64402e-05	0	0	0
6.67592e-05	0	0	0
6.758e-05	0	0	0
6.81219e-05	0	0	0
6.83058e-05	0	0	0
7.18988e-05	0	0	0
7.3083e-05	0	0	0
7.30921e-05	0	0	0
7.36703e-05	0	0	0
7.45483e-05	0	0	0
7.5424e-05	0	0	0
7.68493e-05	0	0	0
7.74317e-05	0	0	0
7.89873e-05	0	0	0
7.90087e-05	0	0	0
7.92339e-05	0	0	0
7.95412e-05	0	0	0
8.16971e-05	0	0	0
8.28002e-05	0	0	0
8.48564e-05	0	0	0
8.53024e-05	0	0	0
8.56694e-05	0	0	0
8.64238e-05	0	0	0
8.72391e-05	0	0	0
8.81389e-05	0	0	0
9.05767e-05	0	0	0
9.07889e-05	0	0	0
9.08897e-05	0	0	0
9.11636e-05	0	0	0
9.28627e-05	0	0	0
9.53443e-05	0	0	0
9.67695e-05	0	0	0
9.70835e-05	0	0	0
9.80325e-05	0	0	0
0.000101769	0	0	0
0.000102312	0	0	0
0.000103503	0	0	0
0.000104652	0	0	0
0.000109422	0	0	0
0.000112126	0	0	0
0.000117631	0	0	0
0.000119436	0	0	0
0.000123817	0	0	0
0.000124088	0	0	0
0.000125259	0	0	0
0.000126908	0	0	0
0.000127202	0	0	0
0.000130898	0	0	0
0.00013665	0	0	0
0.000137904	0	0	0
0.000142221	0	0	0
0.000147127	0	0	0
0.000155026	0	0	0
0.00015755	0	0	0
0.000158771	0	0	0
0.000162739	0	0	0
0.000167345	0	0	0
0.000195709	0	0	0
0.000223705	0	0	0
0.00025224	0	0	0
0.0247016	0	0	0
0.02662	0	0	0.0909918
0.0266446	0	0	0.0909918
0.0266456	0	0.0552792	0.0909918
0.0267118	0.0276396	0.0276396	0.0909918
0.0612981	0.0552792	0	0.0909918
0.0615012	0.0552792	0	0.0909918
0.0615406	0.0690989	0.0276396	0.0909918
0.0645983	0.0967385	0	0.0909918
0.0649779	0.0967385	0	0.0909918
0.0650238	0.0967385	0.0276396	0.0909918
0.0654119	0.0967385	0.0552792	0.0909918
0.0654212	0.110558	0.0829187	0.0909918
0.06543	0.138198	0.0552792	0.0909918
0.0654609	0.165837	0.0276396	0.0909918
0.0706648	0.193477	0	0.0909918
0.0716367	0.193477	0	0.0909918
0.0716846	0.193477	0	0.0909918
0.0717274	0.193477	0	0.0909918
0.092625	0.193477	0	0.0909918
0.102055	0.193477	0	0.0909918
0.102089	0.193477	0	0.0909918
0.102102	0.193477	0	0.0909918
0.110316	0.193477	0	0.0909918
0.116709	0.193477	0	0.181984
0.126615	0.193477	0	0.181984
0.144023	0.193477	0	0.181984
0.173065	0.193477	0	0.272975
0.173097	0.193477	0	0.272975
0.173114	0.193477	0.0552792	0.272975
0.173192	0.221117	0.0276396	0.272975
0.192502	0.248756	0	0.272975
0.192766	0.248756	0	0.272975
0.192894	0.248756	0.0276396	0.272975
0.192898	0.248756	0.0552792	0.272975
0.192967	0.248756	0.0829187	0.272975
0.193097	0.248756	0.110558	0.272975
0.1931	0.262576	0.138198	0.272975
0.193102	0.290216	0.110558	0.272975
0.193106	0.317855	0.0829187	0.272975
0.193149	0.345495	0.0552792	0.272975
0.193161	0.373134	0.0276396	0.272975
0.193194	0.373134	0.0276396	0.272975
0.220035	0.400774	0	0.272975
0.221545	0.400774	0	0.363967
0.228642	0.400774	0	0.363967
0.229059	0.400774	0	0.363967
0.229092	0.414594	0.0276396	0.363967
0.244672	0.442233	0	0.363967
0.255865	0.442233	0	0.363967
0.29201	0.442233	0	0.363967
0.292017	0.442233	0	0.363967
0.292174	0.442233	0	0.363967
0.292188	0.442233	0	0.363967
0.293301	0.442233	0	0.363967
0.293709	0.442233	0	0.363967
0.293738	0.442233	0.0552792	0.363967
0.293808	0.442233	0.0552792	0.363967
0.29382	0.469873	0.0276396	0.363967
0.311916	0.497512	0	0.363967
0.31421	0.497512	0	0.363967
0.314223	0.497512	0.0276396	0.363967
0.317911	0.525152	0	0.363967
0.318547	0.525152	0	0.363967
0.318601	0.538972	0.0276396	0.363967
0.318619	0.566611	0	0.363967
0.327604	0.566611	0	0.363967
0.327702	0.566611	0	0.363967
0.327754	0.580431	0.0276396	0.363967
0.340571	0.608071	0	0.363967
0.341029	0.608071	0	0.363967
0.341297	0.608071	0.0276396	0.363967
0.341332	0.621891	0.0552792	0.363967
0.34135	0.621891	0.0552792	0.363967
0.341352	0.64953	0.0276396	0.363967
0.348215	0.67717	0	0.363967
0.349119	0.67717	0	0.363967
0.349221	0.67717	0.0276396	0.363967
0.350939	0.67717	0.0552792	0.363967
0.351376	0.67717	0.0829187	0.363967
0.354252	0.67717	0.110558	0.363967
0.354259	0.67717	0.165837	0.363967
0.35426	0.704809	0.138198	0.363967
0.354261	0.732449	0.110558	0.363967
0.354266	0.732449	0.110558	0.363967
0.354266	0.760088	0.0829187	0.363967
0.354267	0.787728	0.0552792	0.363967
0.354286	0.815368	0.0276396	0.363967
0.354287	0.843007	0	0.363967
0.368315	0.843007	0	0.363967
0.380961	0.843007	0	0.545951
0.380979	0.843007	0	0.545951
0.381014	0.843007	0	0.545951
0.381029	0.843007	0	0.545951
0.411902	0.843007	0	0.545951
0.412463	0.843007	0	0.545951
0.412493	0.856827	0.0276396	0.545951
0.422395	0.884467	0	0.545951
0.422463	0.884467	0	0.545951
0.422509	0.898286	0.0276396	0.545951
0.45588	0.925926	0	0.545951
0.455891	0.925926	0	0.545951
0.502008	0.925926	0	0.545951
0.511858	0.925926	0	0.545951
0.512021	0.925926	0	0.545951
0.512039	0.939746	0.0276396	0.545951
0.519427	0.967385	0	0.545951
0.521123	0.967385	0	0.545951
0.521135	0.967385	0.0552792	0.545951
0.521182	0.995025	0.0276396	0.545951
0.521199	1.02266	0	0.545951
0.521224	1.02266	0	0.545951
0.521537	1.02266	0	0.545951
0.521714	1.02266	0	0.545951
0.521742	1.02266	0.0552792	0.545951
0.521822	1.0503	0.0276396	0.545951
0.521938	1.07794	0	0.545951
0.522388	1.07794	0	0.545951
0.523064	1.07794	0	0.545951
0.523071	1.07794	0.0552792	0.545951
0.523124	1.10558	0.0276396	0.545951
0.523161	1.13322	0	0.545951
0.527666	1.13322	0	0.545951
0.527711	1.13322	0	0.545951
0.575187	1.13322	0	0.545951
0.591357	1.13322	0	0.545951
0.597982	1.13322	0	0.545951
0.622295	1.13322	0	0.545951
0.622715	1.13322	0	0.545951
0.622715	1.14704	0.0276396	0.545951
0.62272	1.17468	0	0.545951
0.622727	1.17468	0	0.545951
0.656016	1.17468	0	0.545951
0.662797	1.17468	0	0.545951
0.679654	1.17468	0	0.545951
0.693032	1.17468	0	0.545951
0.693041	1.17468	0	0.545951
0.693063	1.17468	0	0.545951
0.721028	1.17468	0	0.545951
0.748086	1.17468	0	0.545951
0.792362	1.17468	0	0.545951
0.806679	1.17468	0	0.545951
0.819735	1.17468	0	0.545951
0.819748	1.17468	0	0.636943
0.819762	1.17468	0	0.636943
0.819764	1.17468	0	0.636943
0.819841	1.17468	0	0.636943
0.821515	1.17468	0	0.636943
0.822253	1.17468	0	0.636943
0.822868	1.17468	0	0.727934
0.823759	1.17468	0	0.727934
0.823793	1.17468	0.0276396	0.727934
0.869685	1.20232	0	0.727934
0.903516	1.20232	0	0.727934
0.909264	1.20232	0	0.727934
0.909389	1.20232	0	0.727934
0.909411	1.20232	0.0552792	0.727934
0.909437	1.22996	0.0276396	0.727934
0.909438	1.22996	0.0276396	0.727934
0.909448	1.22996	0.0276396	0.727934
0.920003	1.2576	0	0.727934
0.920034	1.2576	0	0.727934
0.920038	1.27142	0.0276396	0.727934
0.920045	1.29906	0	0.727934
0.930535	1.29906	0	0.727934
0.930605	1.29906	0	0.727934
0.930732	1.29906	0	0.727934
0.930758	1.29906	0	0.727934
0.934921	1.29906	0	0.727934
0.935025	1.29906	0	0.727934
0.935456	1.29906	0	0.727934
0.937567	1.29906	0	0.727934
0.943115	1.29906	0	0.818926
0.943154	1.29906	0	0.818926
0.943159	1.31288	0.0276396	0.818926
0.949591	1.34052	0	0.818926
0.950125	1.34052	0	0.818926
0.952646	1.34052	0.0276396	0.818926
0.953128	1.34052	0.0552792	0.818926
0.953872	1.34052	0.0829187	0.818926
0.954127	1.34052	0.0829187	0.818926
0.955186	1.34052	0.110558	0.818926
0.955201	1.35434	0.138198	0.818926
0.955715	1.38198	0.110558	0.818926
0.959316	1.38198	0.110558	0.909918
0.961433	1.38198	0.110558	0.909918
0.961778	1.38198	0.110558	0.909918
0.961785	1.3958	0.138198	0.909918
0.962215	1.42344	0.110558	0.909918
0.967014	1.42344	0.110558	1.00091
0.972195	1.42344	0.110558	1.00091
0.972312	1.42344	0.110558	1.00091
0.972327	1.43726	0.138198	1.00091
0.980052	1.4649	0.110558	1.00091
0.980135	1.4649	0.110558	1.00091
0.980135	1.4649	0.165837	1.00091
0.980179	1.49254	0.138198	1.00091
0.987434	1.52018	0.110558	1.00091
0.987436	1.52018	0.110558	1.00091
0.987452	1.54782	0.0829187	1.00091
0.987455	1.57546	0.0552792	1.00091
0.987468	1.57546	0.0552792	1.00091
0.987475	1.57546	0.0552792	1.00091
0.987483	1.6031	0.0276396	1.00091
0.987486	1.63074	0	1.00091
0.987521	1.63074	0	1.00091
0.997369	1.63074	0	1.00091
1.00869	1.63074	0	1.00091
1.02167	1.63074	0	1.0919
1.02212	1.63074	0	1.0919
1.02212	1.63074	0.0552792	1.0919
1.02213	1.65837	0.0276396	1.0919
1.02216	1.68601	0	1.0919
1.02224	1.68601	0	1.0919
1.04357	1.68601	0	1.0919
1.04599	1.68601	0	1.27389
1.07076	1.68601	0	1.27389
1.07079	1.68601	0	1.27389
1.14983	1.68601	0	1.27389
1.15427	1.68601	0	1.27389
1.1628	1.68601	0	1.27389
1.16305	1.68601	0	1.27389
1.16313	1.69983	0.0276396	1.27389
1.16408	1.72747	0	1.27389
1.16412	1.72747	0	1.27389
1.16413	1.74129	0.0276396	1.27389
1.17769	1.76893	0	1.27389
1.1852	1.76893	0	1.27389
1.18903	1.76893	0	1.27389
1.18909	1.76893	0	1.27389
1.19012	1.76893	0.0276396	1.27389
1.19014	1.76893	0.0552792	1.27389
1.19014	1.76893	0.110558	1.27389
1.19016	1.79657	0.0829187	1.27389
1.19017	1.79657	0.0829187	1.27389
1.19017	1.82421	0.0552792	1.27389
1.1902	1.85185	0.0276396	1.27389
1.19445	1.87949	0	1.27389
1.19451	1.87949	0	1.27389
1.19452	1.87949	0.0552792	1.27389
1.19459	1.90713	0.0276396	1.27389
1.2007	1.93477	0	1.27389
1.20333	1.93477	0	1.36488
1.20335	1.93477	0	1.36488
1.20398	1.93477	0.0276396	1.36488
1.20399	1.94859	0.0552792	1.36488
1.204	1.97623	0.0276396	1.36488
1.20401	1.97623	0.0276396	1.36488
1.20403	1.97623	0.0276396	1.36488
1.20411	1.97623	0.0276396	1.36488
1.23646	2.00387	0	1.36488
1.23717	2.00387	0	1.36488
1.23722	2.01769	0.0276396	1.36488
1.2469	2.04533	0	1.36488
1.24985	2.04533	0	1.36488
1.25984	2.04533	0	1.36488
1.26045	2.04533	0	1.36488
1.2605	2.04533	0.0552792	1.36488
1.26056	2.07297	0.0276396	1.36488
1.26349	2.10061	0	1.36488
1.26557	2.10061	0	1.45587
1.29043	2.10061	0	1.45587
1.30292	2.10061	0	1.45587
1.32775	2.10061	0	1.45587
1.33534	2.10061	0	1.45587
1.33597	2.10061	0	1.45587
1.33599	2.11443	0.0276396	1.45587
1.336	2.14207	0	1.45587
1.35201	2.14207	0	1.45587
1.4109	2.14207	0	1.45587
1.42137	2.14207	0	1.45587
1.42138	2.14207	0	1.45587
1.42151	2.14207	0.0276396	1.45587
1.42162	2.14207	0.0552792	1.45587
1.42175	2.14207	0.0552792	1.54686
1.42282	2.14207	0.0829187	1.54686
1.42283	2.15589	0.110558	1.54686
1.42283	2.18353	0.0829187	1.54686
1.42283	2.21117	0.0552792	1.54686
1.42284	2.21117	0.0552792	1.54686
1.42285	2.21117	0.0552792	1.54686
1.42288	2.23881	0.0276396	1.54686
1.42291	2.26645	0	1.54686
1.42294	2.26645	0	1.54686
1.43621	2.26645	0	1.54686
1.43999	2.26645	0	1.54686
1.44135	2.26645	0	1.63785
1.44255	2.26645	0	1.72884
1.44441	2.26645	0	1.72884
1.45214	2.26645	0	1.72884
1.45314	2.26645	0	1.72884
1.45316	2.28027	0.0276396	1.72884
1.4722	2.3079	0	1.72884
1.47224	2.3079	0	1.72884
1.47226	2.32172	0.0276396	1.72884
1.47226	2.32172	0.0276396	1.72884
1.4789	2.34936	0	1.72884
1.50035	2.34936	0	1.81984
1.50041	2.34936	0	1.81984
1.50041	2.36318	0.0276396	1.81984
1.50043	2.39082	0	1.81984
1.54782	2.39082	0	1.81984
1.54783	2.39082	0	1.81984
1.54783	2.39082	0	1.81984
1.56059	2.39082	0	1.81984
1.56111	2.39082	0	1.81984
1.56118	2.39082	0.0276396	1.81984
1.56122	2.40464	0.0552792	1.81984
1.56124	2.43228	0.0276396	1.81984
1.56588	2.45992	0	1.81984
1.56606	2.45992	0	1.81984
1.56704	2.45992	0	1.81984
1.56706	2.45992	0.0276396	1.81984
1.56706	2.47374	0.0552792	1.81984
1.56724	2.50138	0.0276396	1.81984
1.56912	2.50138	0.0552792	1.81984
1.56941	2.50138	0.0829187	1.81984
1.59367	2.50138	0.110558	1.81984
1.59388	2.50138	0.110558	1.81984
1.59393	2.5152	0.138198	1.81984
1.60252	2.54284	0.110558	1.81984
1.6105	2.54284	0.110558	1.81984
1.61062	2.54284	0.110558	1.81984
1.61062	2.55666	0.138198	1.81984
1.63011	2.5843	0.110558	1.81984
1.63012	2.5843	0.110558	1.81984
1.63016	2.61194	0.0829187	1.81984
1.63017	2.63958	0.0552792	1.81984
1.6302	2.66722	0.0276396	1.81984
1.65559	2.69486	0	1.81984
1.66127	2.69486	0	1.81984
1.70386	2.69486	0	1.91083
1.75107	2.69486	0	1.91083
1.7511	2.69486	0	1.91083
1.75347	2.69486	0	1.91083
1.75616	2.69486	0	2.00182
1.75621	2.69486	0	2.00182
1.78806	2.69486	0	2.00182
1.78861	2.69486	0	2.00182
1.78862	2.70868	0.0276396	2.00182
1.79325	2.73632	0	2.00182
1.80794	2.73632	0	2.00182
1.8144	2.73632	0	2.00182
1.81444	2.73632	0	2.00182
1.81445	2.73632	0	2.00182
1.81446	2.75014	0.0276396	2.00182
1.8146	2.77778	0	2.00182
1.81466	2.7916	0.0276396	2.00182
1.82377	2.81924	0	2.00182
1.83585	2.81924	0	2.00182
1.8363	2.81924	0	2.00182
1.83635	2.83306	0.0276396	2.00182
1.83838	2.8607	0	2.00182
1.83851	2.8607	0	2.00182
1.83861	2.87452	0.0276396	2.00182
1.88955	2.90216	0	2.00182
1.89063	2.90216	0	2.00182
1.89067	2.91598	0.0276396	2.00182
1.90185	2.94362	0	2.00182
1.91238	2.94362	0	2.00182
1.92054	2.94362	0	2.1838
1.92146	2.94362	0	2.1838
1.92149	2.94362	0.0276396	2.1838
1.92153	2.95744	0.0552792	2.1838
1.92154	2.98507	0.0276396	2.1838
1.93363	3.01271	0	2.1838
1.93485	3.01271	0	2.1838
1.93962	3.01271	0	2.2748
1.98861	3.01271	0	2.2748
1.99955	3.01271	0	2.36579
2.00202	3.01271	0	2.45678
2.00214	3.01271	0	2.45678
2.00261	3.01271	0	2.45678
2.00265	3.02653	0.0276396	2.45678
2.02719	3.05417	0	2.45678
2.03161	3.05417	0	2.63876
2.03307	3.05417	0	2.63876
2.03311	3.06799	0.0276396	2.63876
2.03498	3.09563	0	2.63876
2.04195	3.09563	0	2.72975
2.04314	3.09563	0	2.72975
2.04315	3.10945	0.0276396	2.72975
2.04496	3.13709	0	2.72975
2.04895	3.13709	0	2.72975
2.06137	3.13709	0	2.72975
2.06166	3.13709	0	2.72975
2.06172	3.15091	0.0276396	2.72975
2.06338	3.17855	0	2.72975
2.13942	3.17855	0	2.82075
2.13999	3.17855	0	2.82075
2.14059	3.17855	0.0276396	2.82075
2.14059	3.19237	0.0552792	2.82075
2.14065	3.22001	0.0276396	2.82075
2.16103	3.24765	0	2.82075
2.16121	3.24765	0	2.82075
2.16128	3.26147	0.0276396	2.82075
2.1708	3.28911	0	2.82075
2.1714	3.28911	0	2.82075
2.17143	3.30293	0.0276396	2.82075
2.2064	3.33057	0	2.82075
2.22194	3.33057	0	2.82075
2.22206	3.33057	0	2.82075
2.22207	3.34439	0.0276396	2.82075
2.22411	3.37203	0	2.82075
2.22605	3.37203	0	2.82075
2.22612	3.37203	0.0276396	2.82075
2.22613	3.37203	0.0829187	2.82075
2.22613	3.39967	0.0552792	2.82075
2.22621	3.42731	0.0276396	2.82075
2.27103	3.45495	0	2.82075
2.2713	3.45495	0	2.82075
2.27132	3.46877	0.0276396	2.82075
2.33526	3.49641	0	2.82075
2.35221	3.49641	0	3.00273
2.36048	3.49641	0	3.00273
2.36103	3.49641	0	3.00273
2.3611	3.49641	0.0276396	3.00273
2.38561	3.52405	0	3.00273
2.39878	3.52405	0	3.09372
2.40422	3.52405	0	3.18471
2.41254	3.52405	0	3.18471
2.41305	3.52405	0	3.18471
2.41306	3.53787	0.0276396	3.18471
2.41313	3.56551	0	3.18471
2.41315	3.56551	0	3.18471
2.42512	3.56551	0	3.18471
2.45105	3.56551	0	3.3667
2.45934	3.56551	0	3.45769
2.47187	3.56551	0	3.54868
2.49703	3.56551	0	3.63967
2.50959	3.56551	0	3.73066
2.51022	3.56551	0	3.73066
2.51053	3.56551	0.0276396	3.73066
2.51054	3.57933	0.0552792	3.73066
2.51055	3.60697	0.0276396	3.73066
2.51056	3.6346	0	3.73066
2.52393	3.6346	0	3.73066
2.53176	3.6346	0	3.82166
2.57362	3.6346	0	3.91265
2.57365	3.6346	0	3.91265
2.57368	3.6346	0.0552792	3.91265
2.57373	3.66224	0.0276396	3.91265
2.57881	3.68988	0	3.91265
2.57898	3.68988	0	3.91265
2.579	3.7037	0.0276396	3.91265
2.59896	3.73134	0	3.91265
2.59925	3.73134	0	3.91265
2.59925	3.73134	0.0276396	3.91265
2.59929	3.74516	0.0552792	3.91265
2.59935	3.7728	0.0276396	3.91265
2.60729	3.80044	0	3.91265
2.60792	3.80044	0	3.91265
2.60819	3.80044	0.0276396	3.91265
2.60875	3.80044	0.0552792	3.91265
2.60943	3.80044	0.0829187	3.91265
2.61006	3.80044	0.110558	3.91265
2.61006	3.80044	0.138198	3.91265
2.61007	3.82808	0.110558	3.91265
2.61007	3.85572	0.0829187	3.91265
2.61007	3.88336	0.0552792	3.91265
2.61008	3.911	0.0276396	3.91265
2.61008	3.93864	0	3.91265
2.61009	3.93864	0	3.91265
2.61011	3.93864	0	3.91265
2.62924	3.93864	0	3.91265
2.63022	3.93864	0	3.91265
2.63031	3.93864	0.0276396	3.91265
2.63033	3.93864	0.0829187	3.91265
2.63035	3.96628	0.0552792	3.91265
2.63044	3.99392	0.0276396	3.91265
2.65161	4.02156	0	3.91265
2.67961	4.02156	0	4.09463
2.71918	4.02156	0	4.18562
2.71992	4.02156	0	4.18562
2.71994	4.02156	0.0552792	4.18562
2.71999	4.0492	0.0276396	4.18562
2.72804	4.07684	0	4.18562
2.75544	4.07684	0	4.36761
2.75672	4.07684	0	4.36761
2.75673	4.09066	0.0276396	4.36761
2.78409	4.1183	0	4.36761
2.78474	4.1183	0	4.36761
2.7848	4.1183	0.0276396	4.36761
2.84903	4.14594	0	4.36761
2.86389	4.14594	0	4.4586
2.94288	4.14594	0	4.4586
2.95111	4.14594	0	4.4586
2.98297	4.14594	0	4.54959
2.98388	4.14594	0	4.54959
2.98497	4.14594	0.0276396	4.54959
2.98497	4.15976	0.0552792	4.54959
2.98503	4.1874	0.0276396	4.54959
3.00079	4.21504	0	4.54959
3.01242	4.21504	0	4.64058
3.01279	4.21504	0	4.73157
3.0147	4.21504	0	4.91356
3.01555	4.21504	0	4.91356
3.01602	4.21504	0	4.91356
3.01603	4.21504	0.0552792	4.91356
3.01608	4.24268	0.0276396	4.91356
3.0256	4.27032	0	4.91356
3.03264	4.27032	0	4.91356
3.04319	4.27032	0	4.91356
3.04471	4.27032	0	4.91356
3.04481	4.27032	0.0552792	4.91356
3.04489	4.29795	0.0276396	4.91356
3.08613	4.32559	0	4.91356
3.0874	4.32559	0	4.91356
3.08749	4.33941	0.0276396	4.91356
3.21775	4.36705	0	4.91356
3.22007	4.36705	0	5.09554
3.24487	4.36705	0	5.18653
3.26017	4.36705	0	5.27753
3.26017	4.36705	0	5.36852
3.27066	4.36705	0	5.36852
3.27933	4.36705	0	5.5505
3.27992	4.36705	0	5.64149
3.28707	4.36705	0	5.82348
3.30417	4.36705	0	5.91447
3.38967	4.36705	0	6.00546
3.41153	4.36705	0	6.00546
3.47177	4.36705	0	6.09645
3.47192	4.36705	0	6.09645
3.47224	4.36705	0.0276396	6.09645
3.47226	4.38087	0.0552792	6.09645
3.47226	4.40851	0.0276396	6.09645
3.47227	4.43615	0	6.09645
3.47234	4.43615	0	6.09645
3.47563	4.43615	0	6.09645
3.49621	4.43615	0	6.18744
3.49653	4.43615	0	6.18744
3.49654	4.44997	0.0276396	6.18744
3.53475	4.47761	0	6.18744
3.53658	4.47761	0	6.18744
3.53695	4.47761	0.0276396	6.18744
3.53751	4.47761	0.0552792	6.18744
3.53781	4.47761	0.0829187	6.18744
3.53809	4.47761	0.110558	6.18744
3.53831	4.47761	0.138198	6.18744
3.53836	4.47761	0.165837	6.18744
3.5583	4.47761	0.193477	6.18744
3.55831	4.47761	0.193477	6.27843
3.55831	4.50525	0.165837	6.27843
3.55832	4.53289	0.138198	6.27843
3.55833	4.56053	0.110558	6.27843
3.55834	4.58817	0.0829187	6.27843
3.55836	4.61581	0.0552792	6.27843
3.55848	4.64345	0.0276396	6.27843
3.58281	4.67109	0	6.27843
3.61464	4.67109	0	6.27843
3.62242	4.67109	0	6.27843
3.65208	4.67109	0	6.36943
3.66749	4.67109	0	6.36943
3.66815	4.67109	0	6.36943
3.66818	4.68491	0.0276396	6.36943
3.69246	4.71255	0	6.36943
3.72571	4.71255	0	6.36943
3.74504	4.71255	0	6.55141
3.74535	4.71255	0	6.55141
3.74537	4.72637	0.0276396	6.55141
3.76147	4.75401	0	6.55141
3.7624	4.75401	0	6.55141
3.7624	4.76783	0.0276396	6.55141
3.77457	4.79547	0	6.55141
3.78867	4.79547	0	6.6424
3.79055	4.79547	0	6.82439
3.79397	4.79547	0	7.00637
3.79407	4.79547	0	7.00637
3.79457	4.79547	0.0276396	7.00637
3.79459	4.80929	0.0552792	7.00637
3.79459	4.83693	0.0276396	7.00637
3.82153	4.86457	0	7.00637
3.8224	4.86457	0	7.00637
3.82246	4.87839	0.0276396	7.00637
3.84695	4.90603	0	7.00637
3.87702	4.90603	0	7.18835
3.88061	4.90603	0	7.27934
3.88173	4.90603	0	7.27934
3.88176	4.91985	0.0276396	7.27934
3.89165	4.94748	0	7.27934
3.89363	4.94748	0	7.27934
3.89422	4.94748	0.0276396	7.27934
3.91194	4.94748	0.0552792	7.27934
3.91196	4.94748	0.0552792	7.27934
3.91207	4.97512	0.0276396	7.27934
3.91226	5.00276	0	7.27934
3.91226	5.00276	0.0276396	7.27934
3.91226	5.01658	0.0552792	7.27934
3.91229	5.04422	0.0276396	7.27934
3.93777	5.07186	0	7.27934
3.93874	5.07186	0	7.27934
3.93926	5.07186	0.0276396	7.27934
3.93928	5.08568	0.0552792	7.27934
3.93928	5.11332	0.0276396	7.27934
3.9773	5.14096	0	7.27934
3.97752	5.14096	0	7.27934
3.97753	5.15478	0.0276396	7.27934
3.97783	5.18242	0	7.27934
4.00525	5.18242	0	7.27934
4.00555	5.18242	0	7.27934
4.00614	5.18242	0.0276396	7.27934
4.00651	5.18242	0.0552792	7.27934
4.00678	5.18242	0.0829187	7.27934
4.00685	5.18242	0.110558	7.27934
4.00685	5.18242	0.165837	7.27934
4.00685	5.21006	0.138198	7.27934
4.00687	5.2377	0.110558	7.27934
4.00687	5.26534	0.0829187	7.27934
4.00688	5.29298	0.0552792	7.27934
4.00691	5.32062	0.0276396	7.27934
4.00691	5.32062	0.0276396	7.27934
4.00694	5.32062	0.0276396	7.27934
4.01156	5.34826	0	7.27934
4.01168	5.34826	0	7.27934
4.01169	5.34826	0.0552792	7.27934
4.01171	5.3759	0.0276396	7.27934
4.03043	5.40354	0	7.27934
4.03071	5.40354	0	7.27934
4.03075	5.41736	0.0276396	7.27934
4.06742	5.445	0	7.27934
4.06751	5.445	0	7.27934
4.06751	5.45882	0.0276396	7.27934
4.07904	5.48646	0	7.27934
4.12062	5.48646	0	7.27934
4.13794	5.48646	0	7.37034
4.17337	5.48646	0	7.46133
4.18214	5.48646	0	7.55232
4.24088	5.48646	0	7.7343
4.2419	5.48646	0	7.7343
4.24195	5.50028	0.0276396	7.7343
4.27149	5.52792	0	7.7343
4.27192	5.52792	0	7.7343
4.27192	5.54174	0.0276396	7.7343
4.27673	5.56938	0	7.7343
4.2823	5.56938	0	7.7343
4.29563	5.56938	0	7.8253
4.31745	5.56938	0	7.91629
4.31752	5.56938	0	7.91629
4.31801	5.56938	0.0276396	7.91629
4.31803	5.5832	0.0552792	7.91629
4.31809	5.61083	0.0276396	7.91629
4.42	5.63847	0	7.91629
4.4204	5.63847	0	7.91629
4.42043	5.65229	0.0276396	7.91629
4.44385	5.67993	0	7.91629
4.48208	5.67993	0	7.91629
4.4931	5.67993	0	8.00728
4.51959	5.67993	0	8.00728
4.51962	5.67993	0	8.18926
4.53247	5.67993	0	8.18926
4.53289	5.67993	0	8.18926
4.53294	5.67993	0.0276396	8.18926
4.53296	5.69375	0.0552792	8.18926
4.53298	5.72139	0.0276396	8.18926
4.54041	5.74903	0	8.18926
4.55599	5.74903	0	8.28025
4.57967	5.74903	0	8.37125
4.65329	5.74903	0	8.55323
4.65832	5.74903	0	8.64422
4.67164	5.74903	0	8.73521
4.67165	5.74903	0	8.73521
4.67172	5.76285	0.0276396	8.73521
4.67428	5.79049	0	8.73521
4.67434	5.79049	0	8.9172
4.69666	5.79049	0	8.9172
4.69741	5.79049	0	8.9172
4.69753	5.79049	0.0276396	8.9172
4.69755	5.80431	0.0552792	8.9172
4.69757	5.83195	0.0276396	8.9172
4.70602	5.85959	0	8.9172
4.73165	5.85959	0	9.00819
4.73292	5.85959	0	9.00819
4.73296	5.87341	0.0276396	9.00819
4.74297	5.90105	0	9.00819
4.74302	5.90105	0	9.00819
4.74365	5.90105	0.0276396	9.00819
4.74365	5.91487	0.0552792	9.00819
4.74367	5.94251	0.0276396	9.00819
4.74903	5.97015	0	9.00819
4.75467	5.97015	0	9.09918
4.75508	5.97015	0	9.09918
4.75509	5.98397	0.0276396	9.09918
4.75594	6.01161	0	9.09918
4.759	6.01161	0	9.19017
4.76327	6.01161	0	9.28116
4.7896	6.01161	0	9.28116
4.80022	6.01161	0	9.37216
4.80138	6.01161	0	9.46315
4.84385	6.01161	0	9.55414
4.84429	6.01161	0	9.55414
4.84434	6.02543	0.0276396	9.55414
4.85457	6.05307	0	9.55414
4.8555	6.05307	0	9.55414
4.85551	6.06689	0.0276396	9.55414
4.90035	6.09453	0	9.55414
4.90122	6.09453	0	9.55414
4.90138	6.09453	0.0276396	9.55414
4.90162	6.09453	0.0552792	9.55414
4.90173	6.09453	0.0829187	9.55414
4.90219	6.09453	0.110558	9.55414
4.90251	6.09453	0.138198	9.55414
4.90272	6.09453	0.165837	9.55414
4.90273	6.10835	0.193477	9.55414
4.90273	6.13599	0.165837	9.55414
4.90274	6.16363	0.138198	9.55414
4.90274	6.19127	0.110558	9.55414
4.90276	6.19127	0.110558	9.55414
4.90276	6.21891	0.0829187	9.55414
4.90278	6.24655	0.0552792	9.55414
4.9028	6.27418	0.0276396	9.55414
4.9169	6.30182	0	9.55414
4.91907	6.30182	0	9.73612
4.91909	6.30182	0	9.91811
5.0296	6.30182	0	9.91811
5.03589	6.30182	0	10.1001
5.03596	6.30182	0	10.1001
5.0362	6.30182	0.0276396	10.1001
5.03621	6.31564	0.0552792	10.1001
5.03621	6.34328	0.0276396	10.1001
5.03622	6.37092	0	10.1001
5.04104	6.37092	0	10.1001
5.05467	6.37092	0	10.1911
5.05479	6.37092	0	10.1911
5.0548	6.38474	0.0276396	10.1911
5.08017	6.41238	0	10.1911
5.10273	6.41238	0	10.1911
5.10297	6.41238	0	10.1911
5.10299	6.41238	0.0552792	10.1911
5.10301	6.44002	0.0276396	10.1911
5.1552	6.46766	0	10.1911
5.15527	6.46766	0	10.1911
5.15528	6.48148	0.0276396	10.1911
5.1563	6.50912	0	10.1911
5.15649	6.50912	0	10.1911
5.15656	6.52294	0.0276396	10.1911
5.22295	6.55058	0	10.1911
5.24365	6.55058	0	10.2821
5.24374	6.55058	0	10.2821
5.24375	6.55058	0.0276396	10.2821
5.24391	6.55058	0.0552792	10.2821
5.24392	6.5644	0.0829187	10.2821
5.24396	6.59204	0.0552792	10.2821
5.24397	6.61968	0.0276396	10.2821
5.2547	6.64732	0	10.2821
5.25486	6.64732	0	10.2821
5.25489	6.64732	0.0552792	10.2821
5.25494	6.67496	0.0276396	10.2821
5.27267	6.7026	0	10.2821
5.28248	6.7026	0	10.4641
5.3046	6.7026	0	10.646
5.30494	6.7026	0	10.646
5.30498	6.7026	0.0276396	10.646
5.30499	6.71642	0.0552792	10.646
5.30499	6.74406	0.0276396	10.646
5.31007	6.7717	0	10.646
5.31888	6.7717	0	10.737
5.40504	6.7717	0	10.737
5.40574	6.7717	0	10.737
5.40577	6.7717	0.0552792	10.737
5.40582	6.79934	0.0276396	10.737
5.40582	6.79934	0.0276396	10.737
5.45829	6.82698	0	10.737
5.45952	6.82698	0	10.737
5.45953	6.8408	0.0276396	10.737
5.48422	6.86844	0	10.737
5.48424	6.86844	0	10.737
5.48429	6.88226	0.0276396	10.737
5.55816	6.90989	0	10.737
5.61067	6.90989	0	10.919
5.62106	6.90989	0	11.101
5.62118	6.90989	0	11.101
5.62121	6.92371	0.0276396	11.101
5.65808	6.95135	0	11.101
5.65867	6.95135	0	11.101
5.65874	6.96517	0.0276396	11.101
5.67116	6.99281	0	11.101
5.67237	6.99281	0	11.101
5.67308	6.99281	0.0276396	11.101
5.67312	7.00663	0.0552792	11.101
5.67312	7.03427	0.0276396	11.101
5.77704	7.06191	0	11.101
5.77709	7.06191	0	11.101
5.77709	7.06191	0.0552792	11.101
5.77711	7.08955	0.0276396	11.101
5.80835	7.11719	0	11.101
5.82826	7.11719	0	11.192
5.89685	7.11719	0	11.374
5.9	7.11719	0	11.465
5.93833	7.11719	0	11.556
5.95038	7.11719	0	11.7379
5.95076	7.11719	0	11.7379
5.95076	7.13101	0.0276396	11.7379
5.96736	7.15865	0	11.7379
5.96917	7.15865	0	11.7379
5.96923	7.17247	0.0276396	11.7379
5.98376	7.20011	0	11.7379
5.98455	7.20011	0	11.7379
5.98455	7.21393	0.0276396	11.7379
5.99906	7.24157	0	11.7379
6.00695	7.24157	0	11.7379
6.01715	7.24157	0	11.9199
6.05365	7.24157	0	12.1019
6.05365	7.24157	0	12.1019
6.05365	7.25539	0.0276396	12.1019
6.15113	7.28303	0	12.1019
6.1615	7.28303	0	12.2839
6.19561	7.28303	0	12.2839
6.19565	7.28303	0	12.4659
6.19693	7.28303	0	12.4659
6.19734	7.28303	0	12.4659
6.19735	7.29685	0.0276396	12.4659
6.21043	7.32449	0	12.4659
6.21582	7.32449	0	12.5569
6.21614	7.32449	0	12.5569
6.21616	7.33831	0.0276396	12.5569
6.21616	7.36595	0	12.5569
6.21628	7.36595	0	12.5569
6.2207	7.36595	0	12.5569
6.22096	7.36595	0	12.5569
6.22148	7.36595	0.0276396	12.5569
6.22153	7.37977	0.0552792	12.5569
6.22154	7.40741	0.0276396	12.5569
6.22156	7.43505	0	12.5569
6.23143	7.43505	0	12.5569
6.25005	7.43505	0	12.7389
6.26529	7.43505	0	12.8298
6.27384	7.43505	0	12.9208
6.27405	7.43505	0	12.9208
6.27409	7.43505	0.0276396	12.9208
6.3045	7.46269	0	12.9208
6.30462	7.46269	0	12.9208
6.30462	7.47651	0.0276396	12.9208
6.36621	7.50415	0	12.9208
6.45601	7.50415	0	13.0118
6.45666	7.50415	0	13.0118
6.4567	7.51797	0.0276396	13.0118
6.48701	7.54561	0	13.0118
6.48711	7.54561	0	13.0118
6.48713	7.54561	0.0552792	13.0118
6.48715	7.57324	0.0276396	13.0118
6.48718	7.60088	0	13.0118
6.51476	7.60088	0	13.0118
6.51484	7.60088	0	13.0118
6.51531	7.60088	0.0276396	13.0118
6.51531	7.6147	0.0552792	13.0118
6.51544	7.64234	0.0276396	13.0118
6.52337	7.66998	0	13.0118
6.57672	7.66998	0	13.1938
6.57755	7.66998	0	13.1938
6.57755	7.66998	0.0552792	13.1938
6.57758	7.69762	0.0276396	13.1938
6.57758	7.72526	0	13.1938
6.65138	7.72526	0	13.1938
6.69978	7.72526	0	13.2848
6.71473	7.72526	0	13.3758
6.71575	7.72526	0	13.3758
6.71578	7.72526	0.0276396	13.3758
6.71578	7.73908	0.0552792	13.3758
6.71585	7.76672	0.0276396	13.3758
6.7159	7.79436	0	13.3758
6.73055	7.79436	0	13.3758
6.73148	7.79436	0	13.3758
6.73151	7.79436	0.0552792	13.3758
6.73151	7.822	0.0276396	13.3758
6.76172	7.84964	0	13.3758
6.78366	7.84964	0	13.5578
6.78403	7.84964	0	13.5578
6.78404	7.84964	0.0552792	13.5578
6.78406	7.87728	0.0276396	13.5578
6.78499	7.90492	0	13.5578
6.82271	7.90492	0	13.6488
6.82334	7.90492	0	13.6488
6.82349	7.90492	0.0276396	13.6488
6.82351	7.91874	0.0552792	13.6488
6.82355	7.94638	0.0276396	13.6488
6.86243	7.97402	0	13.6488
6.86414	7.97402	0	13.6488
6.86448	7.97402	0.0276396	13.6488
6.86448	7.98784	0.0552792	13.6488
6.86449	8.01548	0.0276396	13.6488
6.92346	8.04312	0	13.6488
6.953	8.04312	0	13.8308
6.98576	8.04312	0	14.0127
7.00313	8.04312	0	14.0127
7.00347	8.04312	0	14.0127
7.00354	8.04312	0.0276396	14.0127
7.00361	8.04312	0.0552792	14.0127
7.00393	8.04312	0.0829187	14.0127
7.00432	8.04312	0.110558	14.0127
7.00453	8.04312	0.138198	14.0127
7.00456	8.04312	0.165837	14.0127
7.00494	8.04312	0.193477	14.0127
7.00648	8.04312	0.221117	14.0127
7.00679	8.04312	0.221117	14.0127
7.00681	8.04312	0.276396	14.0127
7.00682	8.07076	0.248756	14.0127
7.02228	8.0984	0.221117	14.0127
7.02228	8.0984	0.221117	14.1947
7.02228	8.12604	0.193477	14.1947
7.0223	8.15368	0.165837	14.1947
7.0223	8.18132	0.138198	14.1947
7.0223	8.20896	0.110558	14.1947
7.02232	8.23659	0.0829187	14.1947
7.02232	8.26423	0.0552792	14.1947
7.02232	8.26423	0.0552792	14.1947
7.02236	8.29187	0.0276396	14.1947
7.02274	8.31951	0	14.1947
7.05076	8.31951	0	14.2857
7.12039	8.31951	0	14.4677
7.12062	8.31951	0	14.4677
7.12078	8.31951	0.0276396	14.4677
7.12082	8.33333	0.0552792	14.4677
7.12088	8.36097	0.0276396	14.4677
7.12531	8.38861	0	14.4677
7.12547	8.38861	0	14.4677
7.12632	8.38861	0.0276396	14.4677
7.12633	8.40243	0.0552792	14.4677
7.12635	8.43007	0.0276396	14.4677
7.13096	8.45771	0	14.4677
7.13208	8.45771	0	14.4677
7.1321	8.47153	0.0276396	14.4677
7.17731	8.49917	0	14.4677
7.19236	8.49917	0	14.6497
7.19249	8.49917	0	14.6497
7.1925	8.49917	0.0552792	14.6497
7.19257	8.52681	0.0276396	14.6497
7.19258	8.55445	0	14.6497
7.20842	8.55445	0	14.6497
7.20885	8.55445	0	14.6497
7.23386	8.55445	0.0276396	14.6497
7.2342	8.55445	0.0276396	14.6497
7.23425	8.56827	0.0552792	14.6497
7.2725	8.59591	0.0276396	14.6497
7.27254	8.59591	0.0276396	14.8317
7.34102	8.62355	0	14.8317
7.35883	8.62355	0	15.0136
7.36022	8.62355	0	15.0136
7.36025	8.63737	0.0276396	15.0136
7.36826	8.66501	0	15.0136
7.3683	8.66501	0	15.0136
7.36831	8.67883	0.0276396	15.0136
7.3717	8.70647	0	15.0136
7.38208	8.70647	0	15.1046
7.41124	8.70647	0	15.2866
7.41452	8.70647	0	15.4686
7.41469	8.70647	0	15.4686
7.4147	8.72029	0.0276396	15.4686
7.45661	8.74793	0	15.4686
7.49968	8.74793	0	15.6506
7.60362	8.74793	0	15.8326
7.60381	8.74793	0	15.8326
7.60392	8.76175	0.0276396	15.8326
7.61597	8.78939	0	15.8326
7.616	8.78939	0	15.8326
7.61604	8.80321	0.0276396	15.8326
7.64921	8.83085	0	15.8326
7.68057	8.83085	0	15.9236
7.70238	8.83085	0	16.0146
7.71516	8.83085	0	16.1965
7.71521	8.83085	0	16.1965
7.71524	8.83085	0.0552792	16.1965
7.71533	8.85849	0.0276396	16.1965
7.7172	8.88612	0	16.1965
7.73283	8.88612	0	16.2875
7.73383	8.88612	0	16.2875
7.73435	8.88612	0.0276396	16.2875
7.73438	8.89994	0.0552792	16.2875
7.7344	8.92758	0.0276396	16.2875
7.74543	8.95522	0	16.2875
7.74586	8.95522	0	16.2875
7.74586	8.95522	0.0552792	16.2875
7.74586	8.98286	0.0276396	16.2875
7.74587	9.0105	0	16.2875
7.75117	9.0105	0	16.2875
7.75163	9.0105	0	16.2875
7.75167	9.02432	0.0276396	16.2875
7.75488	9.05196	0	16.2875
7.75497	9.05196	0	16.2875
7.75499	9.06578	0.0276396	16.2875
7.77351	9.09342	0	16.2875
7.77359	9.09342	0	16.2875
7.77447	9.09342	0.0276396	16.2875
7.77449	9.09342	0.0552792	16.2875
7.77532	9.09342	0.0829187	16.2875
7.79315	9.09342	0.0829187	16.4695
7.85291	9.09342	0.0829187	16.5605
7.85291	9.09342	0.0829187	16.5605
7.85296	9.12106	0.0552792	16.5605
7.85296	9.1487	0.0276396	16.5605
7.85296	9.17634	0	16.5605
7.85315	9.17634	0	16.5605
7.85316	9.19016	0.0276396	16.5605
7.85484	9.2178	0	16.5605
7.85494	9.2178	0	16.5605
7.85585	9.2178	0.0276396	16.5605
7.85586	9.23162	0.0552792	16.5605
7.85586	9.25926	0.0276396	16.5605
7.91071	9.2869	0	16.5605
8.0248	9.2869	0	16.7425
8.10044	9.2869	0	16.9245
8.10701	9.2869	0	16.9245
8.1081	9.2869	0	16.9245
8.10813	9.30072	0.0276396	16.9245
8.10814	9.32836	0	16.9245
8.10821	9.32836	0	16.9245
8.12008	9.32836	0	16.9245
8.12129	9.32836	0	16.9245
8.12168	9.32836	0.0276396	16.9245
8.12171	9.32836	0.0829187	16.9245
8.12172	9.356	0.0552792	16.9245
8.12175	9.38364	0.0276396	16.9245
8.13796	9.41128	0	16.9245
8.18267	9.41128	0	17.0155
8.21945	9.41128	0	17.1975
8.30467	9.41128	0	17.1975
8.32482	9.41128	0	17.2884
8.32631	9.41128	0	17.2884
8.32781	9.41128	0.0276396	17.2884
8.32889	9.41128	0.0552792	17.2884
8.3289	9.41128	0.110558	17.2884
8.32891	9.43892	0.0829187	17.2884
8.32892	9.46656	0.0552792	17.2884
8.32892	9.4942	0.0276396	17.2884
8.32899	9.52184	0	17.2884
8.33629	9.52184	0	17.2884
8.33654	9.52184	0	17.2884
8.33659	9.53566	0.0276396	17.2884
8.3588	9.56329	0	17.2884
8.37427	9.56329	0	17.4704
8.37428	9.56329	0	17.4704
8.37429	9.56329	0.0552792	17.4704
8.37429	9.59093	0.0276396	17.4704
8.39243	9.61857	0	17.4704
8.3926	9.61857	0	17.4704
8.39261	9.63239	0.0276396	17.4704
8.42131	9.66003	0	17.4704
8.42317	9.66003	0	17.4704
8.4232	9.67385	0.0276396	17.4704
8.45326	9.70149	0	17.4704
8.46422	9.70149	0	17.5614
8.46514	9.70149	0	17.5614
8.46597	9.70149	0.0276396	17.5614
8.46597	9.71531	0.0552792	17.5614
8.46598	9.74295	0.0276396	17.5614
8.50125	9.77059	0	17.5614
8.50134	9.77059	0	17.5614
8.50136	9.78441	0.0276396	17.5614
8.50702	9.81205	0	17.5614
8.50753	9.81205	0	17.5614
8.50755	9.81205	0.0552792	17.5614
8.50756	9.83969	0.0276396	17.5614
8.5298	9.86733	0	17.5614
8.52981	9.86733	0	17.5614
8.52981	9.88115	0.0276396	17.5614
8.5562	9.90879	0	17.5614
8.64702	9.90879	0	17.5614
8.65455	9.90879	0	17.7434
8.67937	9.90879	0	17.8344
8.67942	9.90879	0	17.8344
8.67943	9.90879	0.0552792	17.8344
8.67951	9.93643	0.0276396	17.8344
8.68588	9.96407	0	17.8344
8.6868	9.96407	0	17.8344
8.68682	9.96407	0.0276396	17.8344
8.72328	9.99171	0	17.8344
8.73645	9.99171	0	18.0164
8.75346	9.99171	0	18.1984
8.77556	9.99171	0	18.2894
8.77602	9.99171	0	18.2894
8.7769	9.99171	0.0276396	18.2894
8.77782	9.99171	0.0552792	18.2894
8.77785	10.0055	0.0829187	18.2894
8.77786	10.0332	0.0552792	18.2894
8.77787	10.0608	0.0276396	18.2894
8.80554	10.0884	0	18.2894
8.87003	10.0884	0	18.4713
8.92427	10.0884	0	18.6533
8.92448	10.0884	0	18.6533
8.92449	10.1023	0.0276396	18.6533
8.93735	10.1299	0	18.6533
8.95287	10.1299	0	18.7443
8.97284	10.1299	0	18.9263
8.97385	10.1299	0	18.9263
8.97392	10.1437	0.0276396	18.9263
9.01669	10.1714	0	18.9263
9.01698	10.1714	0	18.9263
9.0171	10.1852	0.0276396	18.9263
9.06829	10.2128	0	18.9263
9.06848	10.2128	0	18.9263
9.06868	10.2128	0.0276396	18.9263
9.06869	10.2266	0.0552792	18.9263
9.06875	10.2543	0.0276396	18.9263
9.10234	10.2819	0	18.9263
9.10269	10.2819	0	18.9263
9.10272	10.2957	0.0276396	18.9263
9.2692	10.3234	0	18.9263
9.26998	10.3234	0	18.9263
9.27007	10.3372	0.0276396	18.9263
9.33534	10.3648	0	18.9263
9.3366	10.3648	0	19.1083
9.33715	10.3648	0	19.1083
9.3372	10.3787	0.0276396	19.1083
9.34311	10.4063	0	19.1083
9.34312	10.4063	0	19.1083
9.34312	10.4201	0.0276396	19.1083
9.35005	10.4478	0	19.1083
9.36321	10.4478	0	19.1993
9.36358	10.4478	0	19.1993
9.3636	10.4616	0.0276396	19.1993
9.44231	10.4892	0	19.1993
9.48383	10.4892	0	19.3813
9.49639	10.4892	0	19.4722
9.49678	10.4892	0	19.4722
9.49679	10.503	0.0276396	19.4722
9.56805	10.5307	0	19.4722
9.56857	10.5307	0	19.4722
9.56857	10.5445	0.0276396	19.4722
9.56941	10.5721	0	19.4722
9.56965	10.5721	0	19.4722
9.56965	10.5721	0.0552792	19.4722
9.56972	10.5998	0.0276396	19.4722
9.64486	10.6274	0	19.4722
9.64613	10.6274	0	19.4722
9.64621	10.6274	0.0276396	19.4722
9.64622	10.6412	0.0552792	19.4722
9.64632	10.6689	0.0276396	19.4722
9.66545	10.6965	0	19.4722
9.66553	10.6965	0	19.4722
9.66554	10.6965	0.0552792	19.4722
9.66554	10.7242	0.0276396	19.4722
9.67477	10.7518	0	19.4722
9.67511	10.7518	0	19.4722
9.67527	10.7656	0.0276396	19.4722
9.6824	10.7933	0	19.4722
9.68333	10.7933	0	19.4722
9.68343	10.8071	0.0276396	19.4722
9.69815	10.8347	0	19.4722
9.73531	10.8347	0	19.5632
9.73536	10.8347	0	19.5632
9.73575	10.8347	0.0276396	19.5632
9.73577	10.8485	0.0552792	19.5632
9.73579	10.8762	0.0276396	19.5632
9.75001	10.9038	0	19.5632
9.79668	10.9038	0	19.7452
9.79807	10.9038	0	19.8362
9.79881	10.9038	0	19.8362
9.79881	10.9038	0.0276396	19.8362
9.79971	10.9038	0.0552792	19.8362
9.79971	10.9176	0.0829187	19.8362
9.79976	10.9453	0.0552792	19.8362
9.79979	10.9729	0.0276396	19.8362
9.81614	11.0006	0	19.8362
9.81628	11.0006	0	19.8362
9.81632	11.0006	0.0276396	19.8362
9.81633	11.0144	0.0552792	19.8362
9.81635	11.042	0.0276396	19.8362
9.84642	11.0697	0	19.8362
9.85693	11.0697	0	20.0182
9.88913	11.0697	0	20.1092
9.88935	11.0697	0	20.1092
9.88939	11.0835	0.0276396	20.1092
9.89017	11.1111	0	20.1092
9.89019	11.1111	0	20.1092
9.89021	11.1111	0.0276396	20.1092
9.89022	11.1249	0.0552792	20.1092
9.89022	11.1526	0.0276396	20.1092
9.90236	11.1802	0	20.1092
9.91435	11.1802	0	20.2912
9.9144	11.1802	0	20.2912
9.9144	11.194	0.0276396	20.2912
10.1083	11.2217	0	20.2912
10.1087	11.2217	0	20.2912
10.1088	11.2355	0.0276396	20.2912
10.1968	11.2631	0	20.2912
10.1971	11.2631	0	20.2912
10.1971	11.2769	0.0276396	20.2912
10.2182	11.3046	0	20.2912
10.2186	11.3046	0	20.2912
10.2188	11.3046	0.0276396	20.2912
10.2188	11.3184	0.0552792	20.2912
10.2188	11.346	0.0276396	20.2912
10.2358	11.3737	0	20.2912
10.2363	11.3737	0	20.2912
10.2364	11.3875	0.0276396	20.2912
10.3152	11.4151	0	20.2912
10.3155	11.4151	0	20.2912
10.3156	11.4151	0.0276396	20.2912
10.3156	11.429	0.0552792	20.2912
10.3156	11.4566	0.0276396	20.2912
10.3632	11.4842	0	20.2912
10.3636	11.4842	0	20.2912
10.3637	11.4981	0.0276396	20.2912
10.4534	11.5257	0	20.2912
10.5032	11.5257	0	20.4732
10.5101	11.5257	0	20.5641
10.5104	11.5257	0	20.5641
10.5107	11.5257	0.0276396	20.5641
10.5108	11.5257	0.0552792	20.5641
10.5114	11.5257	0.0829187	20.5641
10.5114	11.5395	0.110558	20.5641
10.5114	11.5395	0.110558	20.5641
10.5114	11.5672	0.0829187	20.5641
10.5114	11.5948	0.0552792	20.5641
10.5116	11.6224	0.0276396	20.5641
10.5735	11.6501	0	20.5641
10.5735	11.6501	0	20.5641
10.5736	11.6501	0.0276396	20.5641
10.5736	11.6639	0.0552792	20.5641
10.5736	11.6915	0.0276396	20.5641
10.6118	11.7192	0	20.5641
10.6133	11.7192	0	20.5641
10.6133	11.733	0.0276396	20.5641
10.6567	11.7606	0	20.5641
10.6574	11.7606	0	20.5641
10.6574	11.7745	0.0276396	20.5641
10.6976	11.8021	0	20.5641
10.6976	11.8021	0	20.5641
10.6976	11.8159	0.0276396	20.5641
10.7295	11.8436	0	20.5641
10.7297	11.8436	0	20.5641
10.7302	11.8436	0.0276396	20.5641
10.7302	11.8574	0.0552792	20.5641
10.7302	11.885	0.0276396	20.5641
10.7694	11.9127	0	20.5641
10.7706	11.9127	0	20.5641
10.8474	11.9127	0.0276396	20.5641
10.8475	11.9127	0.0276396	20.6551
10.9081	11.9403	0	20.6551
10.9983	11.9403	0	20.7461
10.9988	11.9403	0	20.7461
10.9989	11.9541	0.0276396	20.7461
11.0277	11.9818	0	20.7461
11.0281	11.9818	0	20.7461
11.0281	11.9956	0.0276396	20.7461
11.1305	12.0232	0	20.7461
11.1306	12.0232	0	20.7461
11.1306	12.0232	0.0552792	20.7461
11.1307	12.0509	0.0276396	20.7461
11.1413	12.0785	0	20.7461
11.1417	12.0785	0	20.7461
11.1418	12.0785	0.0552792	20.7461
11.1418	12.1061	0.0276396	20.7461
11.3147	12.1338	0	20.7461
11.3377	12.1338	0	20.9281
11.445	12.1338	0	21.1101
11.4773	12.1338	0	21.2921
11.478	12.1338	0	21.2921
11.478	12.1476	0.0276396	21.2921
11.6154	12.1752	0	21.2921
11.6155	12.1752	0	21.2921
11.6162	12.1752	0.0276396	21.2921
11.6162	12.1891	0.0552792	21.2921
11.6163	12.2167	0.0276396	21.2921
11.6235	12.2443	0	21.2921
11.6236	12.2443	0	21.2921
11.6237	12.2582	0.0276396	21.2921
11.6449	12.2858	0	21.2921
11.6705	12.2858	0	21.3831
11.6712	12.2858	0	21.3831
11.6712	12.2858	0.0552792	21.3831
11.6713	12.3134	0.0276396	21.3831
11.8206	12.3411	0	21.3831
11.8216	12.3411	0	21.3831
11.8217	12.3411	0.0276396	21.3831
11.8217	12.3549	0.0552792	21.3831
11.8217	12.3825	0.0276396	21.3831
11.9371	12.4102	0	21.3831
12.0102	12.4102	0	21.4741
12.0104	12.4102	0	21.4741
12.0106	12.424	0.0276396	21.4741
12.0297	12.4516	0	21.4741
12.1319	12.4516	0	21.6561
12.1323	12.4516	0	21.6561
12.1323	12.4516	0.0552792	21.6561
12.1324	12.4793	0.0276396	21.6561
12.1477	12.5069	0	21.6561
12.1487	12.5069	0	21.6561
12.1487	12.5069	0.0552792	21.6561
12.1488	12.5345	0.0276396	21.6561
12.1665	12.5622	0	21.6561
12.1669	12.5622	0	21.6561
12.1669	12.5622	0.0552792	21.6561
12.1669	12.5898	0.0276396	21.6561
12.1669	12.5898	0.0276396	21.6561
12.3638	12.6175	0	21.6561
12.3647	12.6175	0	21.6561
12.366	12.6175	0.0276396	21.6561
12.366	12.6175	0.0829187	21.6561
12.366	12.6451	0.0552792	21.6561
12.366	12.6727	0.0276396	21.6561
12.3813	12.7004	0	21.6561
12.3826	12.7004	0	21.6561
12.3827	12.7142	0.0276396	21.6561
12.3972	12.7418	0	21.6561
12.3973	12.7418	0	21.6561
12.4292	12.7418	0.0276396	21.6561
12.4292	12.7418	0.0276396	21.6561
12.4299	12.7695	0	21.6561
12.4299	12.7833	0.0276396	21.6561
12.5059	12.8109	0	21.6561
12.5059	12.8109	0	21.838
12.5131	12.8109	0	21.838
12.5928	12.8109	0	22.02
12.5929	12.8109	0	22.02
12.5929	12.8109	0.0276396	22.02
12.593	12.8109	0.0552792	22.02
12.593	12.8109	0.0829187	22.02
12.6801	12.8109	0.110558	22.02
12.6801	12.8109	0.110558	22.02
12.6801	12.8386	0.0829187	22.02
12.6801	12.8662	0.0552792	22.02
12.6801	12.8939	0.0276396	22.02
12.6802	12.9215	0	22.02
12.6805	12.9215	0.0276396	22.02
12.6806	12.9353	0.0552792	22.02
12.6806	12.963	0.0276396	22.02
12.718	12.9906	0	22.02
12.738	12.9906	0	22.202
12.8161	12.9906	0	22.384
12.8171	12.9906	0	22.384
12.8193	12.9906	0.0276396	22.384
12.8193	13.0044	0.0552792	22.384
12.8193	13.0321	0.0276396	22.384
12.9122	13.0597	0	22.384
12.988	13.0597	0	22.384
13.0035	13.0597	0	22.475
13.0459	13.0597	0	22.657
13.0461	13.0597	0	22.657
13.0461	13.0735	0.0276396	22.657
13.0667	13.1012	0	22.657
13.0764	13.1012	0	22.8389
13.077	13.1012	0	22.8389
13.077	13.115	0.0276396	22.8389
13.0859	13.1426	0	22.8389
13.1115	13.1426	0	22.9299
13.1116	13.1426	0	22.9299
13.1118	13.1426	0.0276396	22.9299
13.1118	13.1564	0.0552792	22.9299
13.1118	13.1841	0.0276396	22.9299
13.1489	13.2117	0	22.9299
13.1494	13.2117	0	22.9299
13.1495	13.2255	0.0276396	22.9299
13.2093	13.2532	0	22.9299
13.2094	13.2532	0	22.9299
13.2098	13.2532	0.0276396	22.9299
13.2098	13.267	0.0552792	22.9299
13.2098	13.2946	0.0276396	22.9299
13.2261	13.3223	0	22.9299
13.2267	13.3223	0	22.9299
13.2267	13.3223	0.0552792	22.9299
13.2268	13.3499	0.0276396	22.9299
13.2389	13.3776	0	22.9299
13.239	13.3776	0	22.9299
13.239	13.3914	0.0276396	22.9299
13.3213	13.419	0	22.9299
13.3218	13.419	0	22.9299
13.3219	13.4328	0.0276396	22.9299
13.3723	13.4605	0	22.9299
13.3724	13.4605	0	22.9299
13.3724	13.4605	0.0552792	22.9299
13.3725	13.4881	0.0276396	22.9299
13.4076	13.5158	0	22.9299
13.408	13.5158	0	22.9299
13.4081	13.5158	0.0276396	22.9299
13.4081	13.5296	0.0552792	22.9299
13.4082	13.5572	0.0276396	22.9299
13.421	13.5849	0	22.9299
13.4538	13.5849	0	23.1119
13.4541	13.5849	0	23.1119
13.4541	13.5849	0.0552792	23.1119
13.4541	13.6125	0.0276396	23.1119
13.4928	13.6401	0	23.1119
13.5232	13.6401	0	23.2939
13.5232	13.6401	0	23.2939
13.5233	13.6401	0.0552792	23.2939
13.5233	13.6678	0.0276396	23.2939
13.5604	13.6954	0	23.2939
13.5604	13.6954	0	23.2939
13.5605	13.7092	0.0276396	23.2939
13.6001	13.7369	0	23.2939
13.6004	13.7369	0	23.2939
13.6053	13.7369	0.0276396	23.2939
13.6053	13.7507	0.0552792	23.2939
13.6054	13.7783	0.0276396	23.2939
13.6413	13.806	0	23.2939
13.6423	13.806	0	23.2939
13.6423	13.8198	0.0276396	23.2939
13.7147	13.8474	0	23.2939
13.7159	13.8474	0	23.2939
13.7159	13.8612	0.0276396	23.2939
13.7957	13.8889	0	23.2939
13.8887	13.8889	0	23.4759
13.8889	13.8889	0	23.4759
13.889	13.8889	0.0276396	23.4759
13.889	13.9027	0.0552792	23.4759
13.889	13.9303	0.0276396	23.4759
14.0574	13.958	0	23.4759
14.0577	13.958	0	23.4759
14.0579	13.958	0.0276396	23.4759
14.0579	13.9718	0.0552792	23.4759
14.0579	13.9718	0.0552792	23.4759
14.0579	13.9994	0.0276396	23.4759
14.1348	14.0271	0	23.4759
14.1352	14.0271	0	23.4759
14.1352	14.0409	0.0276396	23.4759
14.1406	14.0685	0	23.4759
14.1407	14.0685	0	23.4759
14.1415	14.0685	0.0276396	23.4759
14.1415	14.0824	0.0552792	23.4759
14.1416	14.11	0.0276396	23.4759
14.1416	14.1376	0	23.4759
14.2156	14.1376	0	23.4759
14.2156	14.1376	0	23.4759
14.2157	14.1515	0.0276396	23.4759
14.2231	14.1791	0	23.4759
14.2233	14.1791	0	23.4759
14.2234	14.1929	0.0276396	23.4759
14.2238	14.2206	0	23.4759
14.2239	14.2206	0	23.4759
14.224	14.2344	0.0276396	23.4759
14.3602	14.262	0	23.4759
14.3603	14.262	0	23.4759
14.3605	14.262	0.0276396	23.4759
14.3605	14.2758	0.0552792	23.4759
14.3605	14.3035	0.0276396	23.4759
14.3669	14.3311	0	23.4759
14.3671	14.3311	0	23.4759
14.3671	14.3449	0.0276396	23.4759
14.4195	14.3726	0	23.4759
14.5098	14.3726	0	23.6579
14.5114	14.3726	0	23.6579
14.5114	14.3864	0.0276396	23.6579
14.5259	14.414	0	23.6579
14.526	14.414	0	23.6579
14.526	14.4279	0.0276396	23.6579
14.5458	14.4555	0	23.6579
14.5466	14.4555	0	23.6579
14.5466	14.4693	0.0276396	23.6579
14.5762	14.497	0	23.6579
14.5769	14.497	0	23.6579
14.5769	14.497	0.0276396	23.6579
14.5771	14.497	0.0552792	23.6579
14.5771	14.5108	0.0829187	23.6579
14.5771	14.5384	0.0552792	23.6579
14.5771	14.5661	0.0276396	23.6579
14.5773	14.5937	0	23.6579
14.5951	14.5937	0	23.8399
14.6043	14.5937	0	24.0218
14.6045	14.5937	0	24.0218
14.6045	14.6075	0.0276396	24.0218
14.7502	14.6352	0	24.0218
14.9428	14.6352	0	24.2038
14.9432	14.6352	0	24.2038
14.9433	14.649	0.0276396	24.2038
14.9462	14.6766	0	24.2038
14.9462	14.6766	0	24.2038
14.9463	14.6904	0.0276396	24.2038
14.9943	14.7181	0	24.2038
15.0295	14.7181	0	24.3858
15.0371	14.7181	0	24.5678
15.0373	14.7181	0	24.5678
15.0381	14.7181	0.0276396	24.5678
15.0381	14.7319	0.0552792	24.5678
15.0381	14.7595	0.0276396	24.5678
15.0381	14.7595	0.0276396	24.5678
15.2957	14.7872	0	24.5678
15.3861	14.7872	0	24.7498
15.4489	14.7872	0	24.9318
15.4492	14.7872	0	24.9318
15.4493	14.801	0.0276396	24.9318
15.5515	14.8286	0	24.9318
15.5519	14.8286	0	24.9318
15.5519	14.8286	0.0552792	24.9318
15.552	14.8563	0.0276396	24.9318
15.7837	14.8839	0	24.9318
15.8073	14.8839	0	25.1137
15.808	14.8839	0	25.1137
15.8082	14.8977	0.0276396	25.1137
15.8411	14.9254	0	25.1137
15.8417	14.9254	0	25.1137
15.8417	14.9392	0.0276396	25.1137
15.8739	14.9668	0	25.1137
15.874	14.9668	0	25.1137
15.874	14.9668	0.0552792	25.1137
15.874	14.9945	0.0276396	25.1137
15.9352	15.0221	0	25.1137
15.9357	15.0221	0	25.1137
15.9357	15.0359	0.0276396	25.1137
16.0222	15.0636	0	25.1137
16.0222	15.0636	0	25.1137
16.0222	15.0774	0.0276396	25.1137
16.042	15.105	0	25.1137
16.0431	15.105	0	25.1137
16.0431	15.1189	0.0276396	25.1137
16.0437	15.1465	0	25.1137
16.0439	15.1465	0	25.1137
16.0439	15.1603	0.0276396	25.1137
16.1005	15.1879	0	25.1137
16.2218	15.1879	0	25.2957
16.2219	15.1879	0	25.2957
16.2219	15.1879	0.0276396	25.2957
16.2219	15.2018	0.0552792	25.2957
16.222	15.2018	0.0552792	25.2957
16.222	15.2294	0.0276396	25.2957
16.3576	15.257	0	25.2957
16.3576	15.257	0	25.2957
16.3577	15.2709	0.0276396	25.2957
16.4907	15.2985	0	25.2957
16.4908	15.2985	0	25.2957
16.4908	15.2985	0.0552792	25.2957
16.4909	15.3261	0.0276396	25.2957
16.5795	15.3538	0	25.2957
16.58	15.3538	0	25.2957
16.5801	15.3538	0.0552792	25.2957
16.5801	15.3814	0.0276396	25.2957
16.6191	15.4091	0	25.2957
16.6203	15.4091	0	25.2957
16.6203	15.4229	0.0276396	25.2957
16.7163	15.4505	0	25.2957
16.7175	15.4505	0	25.2957
16.7177	15.4505	0.0276396	25.2957
16.718	15.4505	0.0552792	25.2957
16.718	15.4643	0.0829187	25.2957
16.718	15.492	0.0552792	25.2957
16.718	15.5196	0.0276396	25.2957
16.9297	15.5473	0	25.2957
16.9321	15.5473	0	25.2957
16.9322	15.5611	0.0276396	25.2957
17.0036	15.5887	0	25.2957
17.0038	15.5887	0	25.2957
17.0038	15.5887	0.0552792	25.2957
17.0038	15.6164	0.0276396	25.2957
17.0687	15.644	0	25.2957
17.0705	15.644	0	25.2957
17.0707	15.644	0	25.2957
17.0707	15.644	0.0276396	25.2957
17.0728	15.6716	0	25.2957
17.0736	15.6716	0.0276396	25.2957
17.074	15.6716	0.0552792	25.2957
17.074	15.6855	0.0829187	25.2957
17.074	15.7131	0.0552792	25.2957
17.0741	15.7407	0.0276396	25.2957
17.1246	15.7684	0	25.2957
17.1255	15.7684	0	25.2957
17.1267	15.7684	0.0276396	25.2957
17.1267	15.7822	0.0552792	25.2957
17.1267	15.8098	0.0276396	25.2957
17.1432	15.8375	0	25.2957
17.1558	15.8375	0	25.4777
17.1568	15.8375	0	25.4777
17.1568	15.8513	0.0276396	25.4777
17.1844	15.8789	0	25.4777
17.1853	15.8789	0	25.4777
17.1853	15.8928	0.0276396	25.4777
17.398	15.9204	0	25.4777
17.3987	15.9204	0	25.4777
17.3987	15.9204	0.0552792	25.4777
17.3987	15.948	0.0276396	25.4777
17.4618	15.9757	0	25.4777
17.5432	15.9757	0	25.6597
17.5437	15.9757	0	25.6597
17.5438	15.9757	0.0276396	25.6597
17.5438	15.9895	0.0552792	25.6597
17.5438	16.0171	0.0276396	25.6597
17.6796	16.0448	0	25.6597
17.6797	16.0448	0	25.6597
17.6798	16.0586	0.0276396	25.6597
17.7525	16.0862	0	25.6597
17.7534	16.0862	0	25.6597
17.7534	16.0862	0.0276396	25.6597
17.7535	16.1001	0.0552792	25.6597
17.7535	16.1277	0.0276396	25.6597
17.9343	16.1553	0	25.6597
18.0153	16.1553	0	25.6597
18.0157	16.1553	0	25.6597
18.0169	16.1553	0.0276396	25.6597
18.0173	16.1553	0.0552792	25.6597
18.018	16.1553	0.0829187	25.6597
18.0181	16.1553	0.110558	25.6597
18.0181	16.1553	0.138198	25.6597
18.0181	16.1692	0.165837	25.6597
18.0181	16.1968	0.138198	25.6597
18.0181	16.2244	0.110558	25.6597
18.0181	16.2521	0.0829187	25.6597
18.0182	16.2797	0.0552792	25.6597
18.0183	16.3074	0.0276396	25.6597
18.0732	16.335	0	25.6597
18.1844	16.335	0	25.8417
18.1846	16.335	0	25.8417
18.1851	16.335	0.0276396	25.8417
18.1851	16.3488	0.0552792	25.8417
18.1851	16.3765	0.0276396	25.8417
18.2823	16.4041	0	25.8417
18.2824	16.4041	0	25.8417
18.2824	16.4041	0.0552792	25.8417
18.2824	16.4317	0.0276396	25.8417
18.4026	16.4594	0	25.8417
18.4037	16.4594	0	25.8417
18.4037	16.4732	0.0276396	25.8417
18.4864	16.5008	0	25.8417
18.4874	16.5008	0	25.8417
18.4882	16.5008	0.0276396	25.8417
18.4886	16.5008	0.0552792	25.8417
18.4886	16.5146	0.0829187	25.8417
18.4886	16.5423	0.0552792	25.8417
18.4886	16.5699	0.0276396	25.8417
18.5339	16.5976	0	25.8417
18.5353	16.5976	0	25.8417
18.5358	16.5976	0.0276396	25.8417
18.5482	16.5976	0.0552792	25.8417
18.5484	16.5976	0.0552792	25.8417
18.5484	16.6114	0.0829187	25.8417
18.5925	16.639	0.0552792	25.8417
18.5925	16.639	0.0552792	26.0237
18.5925	16.6667	0.0276396	26.0237
18.643	16.6943	0	26.0237
18.6442	16.6943	0	26.0237
18.6442	16.7081	0.0276396	26.0237
18.7204	16.7358	0	26.0237
18.7205	16.7358	0	26.0237
18.7205	16.7496	0.0276396	26.0237
18.7397	16.7772	0	26.0237
18.7399	16.7772	0	26.0237
18.7399	16.791	0.0276396	26.0237
18.7853	16.8187	0	26.0237
18.7859	16.8187	0	26.0237
18.786	16.8325	0.0276396	26.0237
18.8926	16.8601	0	26.0237
18.8927	16.8601	0	26.0237
18.8927	16.874	0.0276396	26.0237
19.0813	16.9016	0	26.0237
19.0824	16.9016	0	26.0237
19.0825	16.9016	0.0552792	26.0237
19.0825	16.9292	0.0276396	26.0237
19.1409	16.9569	0	26.0237
19.1413	16.9569	0	26.0237
19.1413	16.9707	0.0276396	26.0237
19.3316	16.9983	0	26.0237
19.3317	16.9983	0	26.0237
19.3317	16.9983	0.0552792	26.0237
19.3318	17.026	0.0276396	26.0237
19.4103	17.0536	0	26.0237
19.4105	17.0536	0	26.0237
19.4106	17.0674	0.0276396	26.0237
19.5212	17.0951	0	26.0237
19.5219	17.0951	0	26.0237
19.522	17.1089	0.0276396	26.0237
19.5556	17.1365	0	26.0237
19.5733	17.1365	0	26.2056
19.5748	17.1365	0	26.2056
19.5748	17.1504	0.0276396	26.2056
19.5911	17.178	0	26.2056
19.593	17.178	0	26.2056
19.594	17.178	0.0276396	26.2056
19.594	17.1918	0.0552792	26.2056
19.5941	17.2195	0.0276396	26.2056
19.6191	17.2471	0	26.2056
19.6483	17.2471	0	26.3876
19.6486	17.2471	0	26.3876
19.6486	17.2609	0.0276396	26.3876
19.7475	17.2886	0	26.3876
19.7479	17.2886	0	26.3876
19.7479	17.2886	0.0552792	26.3876
19.7479	17.3162	0.0276396	26.3876
19.9563	17.3438	0	26.3876
20.0303	17.3438	0	26.5696
20.0304	17.3438	0	26.5696
20.0304	17.3438	0.0552792	26.5696
20.0304	17.3715	0.0276396	26.5696
20.0437	17.3991	0	26.5696
20.0558	17.3991	0	26.6606
20.056	17.3991	0	26.6606
20.0576	17.3991	0.0276396	26.6606
20.0576	17.4129	0.0552792	26.6606
20.0576	17.4406	0.0276396	26.6606
20.1083	17.4682	0	26.6606
20.1086	17.4682	0	26.6606
20.1093	17.4682	0.0276396	26.6606
20.1093	17.482	0.0552792	26.6606
20.1093	17.5097	0.0276396	26.6606
20.2313	17.5373	0	26.6606
20.2313	17.5373	0	26.6606
20.2314	17.5511	0.0276396	26.6606
20.258	17.5788	0	26.6606
20.2581	17.5788	0	26.6606
20.2581	17.5926	0.0276396	26.6606
20.7449	17.6202	0	26.6606
20.7451	17.6202	0	26.6606
20.7451	17.6341	0.0276396	26.6606
20.7678	17.6617	0	26.6606
20.7682	17.6617	0	26.6606
20.7682	17.6755	0.0276396	26.6606
20.8777	17.7032	0	26.6606
20.8778	17.7032	0	26.6606
20.8778	17.717	0.0276396	26.6606
21.0498	17.7446	0	26.6606
21.0516	17.7446	0	26.6606
21.0516	17.7584	0.0276396	26.6606
21.436	17.7861	0	26.6606
21.4377	17.7861	0	26.6606
21.4378	17.7999	0.0276396	26.6606
21.4932	17.8275	0	26.6606
21.4947	17.8275	0	26.6606
21.4947	17.8275	0.0552792	26.6606
21.4947	17.8552	0.0276396	26.6606
21.5373	17.8828	0	26.6606
21.5383	17.8828	0	26.6606
21.5383	17.8966	0.0276396	26.6606
21.5895	17.9243	0	26.6606
21.5923	17.9243	0	26.6606
21.5923	17.9381	0.0276396	26.6606
21.6369	17.9657	0	26.6606
21.6388	17.9657	0	26.6606
21.6388	17.9795	0.0276396	26.6606
21.6955	18.0072	0	26.6606
21.6958	18.0072	0	26.6606
21.6958	18.0072	0.0552792	26.6606
21.6959	18.0348	0.0276396	26.6606
21.7642	18.0625	0	26.6606
21.7643	18.0625	0	26.6606
21.7643	18.0763	0.0276396	26.6606
21.7671	18.1039	0	26.6606
21.7678	18.1039	0	26.6606
21.7679	18.1177	0.0276396	26.6606
21.793	18.1454	0	26.6606
21.7934	18.1454	0	26.6606
21.7934	18.1454	0.0552792	26.6606
21.7934	18.173	0.0276396	26.6606
21.8209	18.2007	0	26.6606
21.821	18.2007	0	26.6606
21.8211	18.2007	0.0552792	26.6606
21.8211	18.2283	0.0276396	26.6606
21.8215	18.2559	0	26.6606
21.8216	18.2559	0	26.6606
21.8216	18.2559	0.0552792	26.6606
21.8216	18.2836	0.0276396	26.6606
21.9249	18.3112	0	26.6606
22.0969	18.3112	0	26.8426
22.0971	18.3112	0	26.8426
22.0971	18.325	0.0276396	26.8426
22.0975	18.3527	0	26.8426
22.0976	18.3527	0	26.8426
22.0978	18.3527	0.0276396	26.8426
22.0978	18.3665	0.0552792	26.8426
22.0978	18.3941	0.0276396	26.8426
22.1458	18.4218	0	26.8426
22.3362	18.4218	0	27.0246
22.3363	18.4218	0	27.0246
22.3364	18.4356	0.0276396	27.0246
22.3718	18.4632	0	27.0246
22.372	18.4632	0	27.0246
22.372	18.4632	0.0552792	27.0246
22.3721	18.4909	0.0276396	27.0246
22.5271	18.5185	0	27.0246
22.5272	18.5185	0	27.0246
22.5272	18.5323	0.0276396	27.0246
22.6323	18.56	0	27.0246
22.6324	18.56	0	27.0246
22.6325	18.5738	0.0276396	27.0246
22.6995	18.6014	0	27.0246
22.6997	18.6014	0	27.0246
22.6997	18.6153	0.0276396	27.0246
22.7196	18.6429	0	27.0246
22.7199	18.6429	0	27.0246
22.7199	18.6567	0.0276396	27.0246
22.7203	18.6844	0	27.0246
22.7215	18.6844	0	27.0246
22.7215	18.6982	0.0276396	27.0246
22.917	18.7258	0	27.0246
22.9173	18.7258	0	27.0246
22.9173	18.7396	0.0276396	27.0246
23.0052	18.7673	0	27.0246
23.1035	18.7673	0	27.2066
23.1041	18.7673	0	27.2066
23.1041	18.7811	0.0276396	27.2066
23.3676	18.8087	0	27.2066
23.4891	18.8087	0	27.3885
23.4895	18.8087	0	27.3885
23.4895	18.8226	0.0276396	27.3885
23.6796	18.8502	0	27.3885
23.6801	18.8502	0	27.3885
23.6801	18.864	0.0276396	27.3885
23.7456	18.8917	0	27.3885
23.7456	18.8917	0	27.3885
23.7469	18.8917	0.0276396	27.3885
23.7469	18.9055	0.0552792	27.3885
23.7469	18.9331	0.0276396	27.3885
23.8684	18.9608	0	27.3885
23.8689	18.9608	0	27.3885
23.8692	18.9608	0.0276396	27.3885
23.8692	18.9746	0.0552792	27.3885
23.8693	18.9746	0.0552792	27.3885
23.8693	19.0022	0.0276396	27.3885
24.0251	19.0299	0	27.3885
24.0258	19.0299	0	27.3885
24.0258	19.0437	0.0276396	27.3885
24.1307	19.0713	0	27.3885
24.1311	19.0713	0	27.3885
24.1311	19.0713	0.0552792	27.3885
24.1311	19.0989	0.0276396	27.3885
24.1577	19.1266	0	27.3885
24.1579	19.1266	0	27.3885
24.1579	19.1404	0.0276396	27.3885
24.1608	19.168	0	27.3885
24.1613	19.168	0	27.3885
24.1911	19.168	0.0276396	27.3885
24.1911	19.168	0.0276396	27.3885
24.1911	19.1819	0.0552792	27.3885
24.4032	19.2095	0.0276396	27.3885
24.4032	19.2095	0.0276396	27.3885
24.4045	19.2371	0	27.3885
24.4045	19.251	0.0276396	27.3885
24.4343	19.2786	0	27.3885
24.4345	19.2786	0	27.3885
24.4346	19.2924	0.0276396	27.3885
24.5707	19.3201	0	27.3885
24.5709	19.3201	0	27.3885
24.5709	19.3201	0.0552792	27.3885
24.5709	19.3477	0.0276396	27.3885
24.5824	19.3753	0	27.3885
24.583	19.3753	0	27.3885
24.5833	19.3753	0.0276396	27.3885
24.5834	19.3892	0.0552792	27.3885
24.5834	19.4168	0.0276396	27.3885
25.0074	19.4444	0	27.3885
25.0075	19.4444	0	27.3885
25.0081	19.4444	0.0276396	27.3885
25.0081	19.4583	0.0552792	27.3885
25.0081	19.4859	0.0276396	27.3885
25.1277	19.5135	0	27.3885
25.1278	19.5135	0	27.3885
25.1278	19.5135	0.0552792	27.3885
25.1278	19.5412	0.0276396	27.3885
25.1737	19.5688	0	27.3885
25.1743	19.5688	0	27.3885
25.1744	19.5826	0.0276396	27.3885
25.2427	19.6103	0	27.3885
25.2428	19.6103	0	27.3885
25.2428	19.6241	0.0276396	27.3885
25.5277	19.6517	0	27.3885
25.528	19.6517	0	27.3885
25.528	19.6517	0.0552792	27.3885
25.528	19.6794	0.0276396	27.3885
25.5777	19.707	0	27.3885
25.5783	19.707	0	27.3885
25.5783	19.7208	0.0276396	27.3885
25.5926	19.7485	0	27.3885
25.5934	19.7485	0	27.3885
25.5934	19.7485	0.0552792	27.3885
25.5935	19.7761	0.0276396	27.3885
25.661	19.8038	0	27.3885
25.6622	19.8038	0	27.3885
25.6622	19.8176	0.0276396	27.3885
25.753	19.8452	0	27.3885
25.7544	19.8452	0	27.3885
25.7544	19.8452	0.0552792	27.3885
25.7545	19.8729	0.0276396	27.3885
25.8513	19.9005	0	27.3885
25.8517	19.9005	0	27.3885
25.852	19.9005	0.0276396	27.3885
25.852	19.9143	0.0552792	27.3885
25.852	19.942	0.0276396	27.3885
26.1817	19.9696	0	27.3885
26.1819	19.9696	0	27.3885
26.1825	19.9696	0.0276396	27.3885
26.1825	19.9834	0.0552792	27.3885
26.1825	20.0111	0.0276396	27.3885
26.2372	20.0387	0	27.3885
26.2375	20.0387	0	27.3885
26.2375	20.0525	0.0276396	27.3885
26.4151	20.0802	0	27.3885
26.4161	20.0802	0	27.3885
26.4175	20.0802	0.0276396	27.3885
26.4175	20.094	0.0552792	27.3885
26.4175	20.1216	0.0276396	27.3885
26.4288	20.1493	0	27.3885
26.4292	20.1493	0	27.3885
26.4293	20.1631	0.0276396	27.3885
26.5348	20.1907	0	27.3885
26.5348	20.1907	0	27.3885
26.5348	20.1907	0.0552792	27.3885
26.5348	20.2184	0.0276396	27.3885
26.58	20.246	0	27.3885
26.5806	20.246	0	27.3885
26.5807	20.2598	0.0276396	27.3885
26.6431	20.2875	0	27.3885
26.6434	20.2875	0	27.3885
26.6434	20.2875	0.0552792	27.3885
26.6434	20.3151	0.0276396	27.3885
26.7731	20.3427	0	27.3885
26.774	20.3427	0	27.3885
26.774	20.3427	0.0552792	27.3885
26.774	20.3704	0.0276396	27.3885
26.7939	20.398	0	27.3885
26.7948	20.398	0	27.3885
26.7948	20.4118	0.0276396	27.3885
26.9232	20.4395	0	27.3885
26.9234	20.4395	0	27.3885
26.9235	20.4395	0.0552792	27.3885
26.9235	20.4671	0.0276396	27.3885
27.0435	20.4947	0	27.3885
27.0507	20.4947	0	27.5705
27.0512	20.4947	0	27.5705
27.0513	20.5086	0.0276396	27.5705
27.0858	20.5362	0	27.5705
27.0867	20.5362	0	27.5705
27.0868	20.5362	0.0552792	27.5705
27.0868	20.5638	0.0276396	27.5705
27.131	20.5915	0	27.5705
27.2142	20.5915	0	27.7525
27.3616	20.5915	0	27.9345
27.3621	20.5915	0	27.9345
27.3621	20.5915	0.0552792	27.9345
27.3622	20.6191	0.0276396	27.9345
27.4489	20.6468	0	27.9345
27.4491	20.6468	0	27.9345
27.4491	20.6468	0.0552792	27.9345
27.4491	20.6744	0.0276396	27.9345
27.4762	20.702	0	27.9345
27.4771	20.702	0	27.9345
27.4771	20.7159	0.0276396	27.9345
27.4956	20.7435	0	27.9345
27.4958	20.7435	0	27.9345
27.4958	20.7435	0.0552792	27.9345
27.4959	20.7711	0.0276396	27.9345
27.5454	20.7988	0	27.9345
27.5457	20.7988	0	27.9345
27.5457	20.7988	0.0552792	27.9345
27.5457	20.8264	0.0276396	27.9345
27.6467	20.8541	0	27.9345
27.6468	20.8541	0	27.9345
27.6469	20.8541	0.0552792	27.9345
27.6469	20.8817	0.0276396	27.9345
27.683	20.9093	0	27.9345
27.6834	20.9093	0	27.9345
27.6834	20.9093	0.0552792	27.9345
27.6834	20.937	0.0276396	27.9345
27.733	20.9646	0	27.9345
27.7331	20.9646	0	27.9345
27.7332	20.9784	0.0276396	27.9345
27.8174	21.0061	0	27.9345
27.8194	21.0061	0	27.9345
27.8194	21.0199	0.0276396	27.9345
28.0571	21.0475	0	27.9345
28.0572	21.0475	0	27.9345
28.0572	21.0475	0.0552792	27.9345
28.0572	21.0752	0.0276396	27.9345
28.1028	21.1028	0	27.9345
28.1029	21.1028	0	27.9345
28.1029	21.1166	0.0276396	27.9345
28.3511	21.1443	0	27.9345
28.3515	21.1443	0	27.9345
28.3515	21.1443	0.0552792	27.9345
28.3515	21.1719	0.0276396	27.9345
28.3999	21.1996	0	27.9345
28.4535	21.1996	0	28.1165
28.4535	21.1996	0	28.1165
28.4535	21.2134	0.0276396	28.1165
28.4825	21.241	0	28.1165
28.4836	21.241	0	28.1165
28.4838	21.241	0.0276396	28.1165
28.6488	21.241	0.0552792	28.1165
28.6488	21.241	0.0552792	28.1165
28.6488	21.2687	0.0276396	28.1165
28.649	21.2963	0	28.1165
28.6492	21.2963	0.0276396	28.1165
28.6493	21.3101	0.0552792	28.1165
28.6493	21.3378	0.0276396	28.1165
29.1646	21.3654	0	28.1165
29.1662	21.3654	0	28.1165
29.1662	21.3654	0.0552792	28.1165
29.1662	21.393	0.0276396	28.1165
29.1766	21.4207	0	28.1165
29.1768	21.4207	0	28.1165
29.1769	21.4345	0.0276396	28.1165
29.2737	21.4621	0	28.1165
29.3098	21.4621	0	28.2075
29.3098	21.4621	0	28.2075
29.3099	21.4621	0.0552792	28.2075
29.3099	21.4898	0.0276396	28.2075
29.3598	21.5174	0	28.2075
29.3603	21.5174	0	28.2075
29.3606	21.5174	0.0276396	28.2075
29.3606	21.5312	0.0552792	28.2075
29.3606	21.5589	0.0276396	28.2075
29.5716	21.5865	0	28.2075
29.5722	21.5865	0	28.2075
29.5722	21.6003	0.0276396	28.2075
29.6421	21.628	0	28.2075
29.6703	21.628	0	28.3894
29.671	21.628	0	28.3894
29.671	21.628	0.0276396	28.3894
30.0068	21.6556	0	28.3894
30.0076	21.6556	0	28.3894
30.0081	21.6556	0.0276396	28.3894
30.0082	21.6694	0.0552792	28.3894
30.0082	21.6971	0.0276396	28.3894
30.1833	21.7247	0	28.3894
30.1838	21.7247	0	28.3894
30.1838	21.7385	0.0276396	28.3894
30.636	21.7662	0	28.3894
30.6368	21.7662	0	28.3894
30.6368	21.78	0.0276396	28.3894
30.8042	21.8076	0	28.3894
30.8045	21.8076	0	28.3894
30.8045	21.8076	0.0552792	28.3894
30.8045	21.8353	0.0276396	28.3894
30.9086	21.8629	0	28.3894
30.9096	21.8629	0	28.3894
30.9096	21.8629	0.0552792	28.3894
30.9096	21.8905	0.0276396	28.3894
31.1608	21.9182	0	28.3894
31.1617	21.9182	0	28.3894
31.1617	21.932	0.0276396	28.3894
31.2539	21.9596	0	28.3894
31.254	21.9596	0	28.3894
31.254	21.9735	0.0276396	28.3894
31.9093	22.0011	0	28.3894
31.9102	22.0011	0	28.3894
31.9103	22.0011	0.0552792	28.3894
31.9103	22.0287	0.0276396	28.3894
32.0554	22.0564	0	28.3894
32.0556	22.0564	0	28.3894
32.0556	22.0702	0.0276396	28.3894
32.2435	22.0978	0	28.3894
32.2436	22.0978	0	28.3894
32.2436	22.1117	0.0276396	28.3894
32.3709	22.1393	0	28.3894
32.3711	22.1393	0	28.3894
32.3721	22.1393	0.0276396	28.3894
32.4189	22.1393	0.0552792	28.3894
32.4189	22.1393	0.0552792	28.5714
32.4189	22.1669	0.0276396	28.5714
32.4684	22.1946	0	28.5714
32.4691	22.1946	0	28.5714
32.4692	22.1946	0.0276396	28.5714
32.4692	22.2084	0.0552792	28.5714
32.4692	22.236	0.0276396	28.5714
32.4819	22.2637	0	28.5714
32.483	22.2637	0	28.5714
32.4838	22.2637	0.0276396	28.5714
32.4839	22.2775	0.0552792	28.5714
32.484	22.3051	0.0276396	28.5714
32.4879	22.3328	0	28.5714
32.4883	22.3328	0	28.5714
32.4893	22.3328	0.0276396	28.5714
32.4893	22.3466	0.0552792	28.5714
32.4894	22.3742	0.0276396	28.5714
32.6056	22.4019	0	28.5714
32.6057	22.4019	0	28.5714
32.6057	22.4019	0.0552792	28.5714
32.6057	22.4295	0.0276396	28.5714
33.0253	22.4572	0	28.5714
33.0255	22.4572	0	28.5714
33.026	22.4572	0.0276396	28.5714
33.026	22.471	0.0552792	28.5714
33.0261	22.4986	0.0276396	28.5714
33.2668	22.5263	0	28.5714
33.267	22.5263	0	28.5714
33.7503	22.5263	0.0276396	28.5714
33.7503	22.5263	0.0276396	28.5714
33.7509	22.5539	0	28.5714
33.751	22.5677	0.0276396	28.5714
34.2781	22.5954	0	28.5714
34.2786	22.5954	0	28.5714
34.2787	22.6092	0.0276396	28.5714
34.5723	22.6368	0	28.5714
34.5728	22.6368	0	28.5714
34.5728	22.6506	0.0276396	28.5714
34.5919	22.6783	0	28.5714
34.5919	22.6783	0	28.5714
34.5919	22.6921	0.0276396	28.5714
34.741	22.7197	0	28.5714
34.7414	22.7197	0	28.5714
34.7418	22.7197	0.0276396	28.5714
34.7418	22.7336	0.0552792	28.5714
34.7419	22.7612	0.0276396	28.5714
34.9909	22.7888	0	28.5714
34.9912	22.7888	0	28.5714
34.9917	22.7888	0.0276396	28.5714
34.9917	22.7888	0.0829187	28.5714
34.9917	22.8165	0.0552792	28.5714
34.9917	22.8441	0.0276396	28.5714
34.9958	22.8718	0	28.5714
34.9974	22.8718	0	28.5714
34.9981	22.8718	0.0276396	28.5714
34.9981	22.8856	0.0552792	28.5714
34.9981	22.9132	0.0276396	28.5714
35.1891	22.9409	0	28.5714
35.1907	22.9409	0	28.5714
35.1907	22.9409	0.0552792	28.5714
35.1908	22.9685	0.0276396	28.5714
35.1927	22.9961	0	28.5714
35.1928	22.9961	0	28.5714
35.1929	22.9961	0.0552792	28.5714
35.193	23.0238	0.0276396	28.5714
35.5308	23.0514	0	28.5714
35.5311	23.0514	0	28.5714
35.5311	23.0652	0.0276396	28.5714
35.5855	23.0929	0	28.5714
35.5863	23.0929	0	28.5714
35.5863	23.1067	0.0276396	28.5714
35.8223	23.1343	0	28.5714
35.8236	23.1343	0	28.5714
35.8237	23.1481	0.0276396	28.5714
36.024	23.1758	0	28.5714
36.0247	23.1758	0	28.5714
36.0509	23.1758	0.0276396	28.5714
36.0509	23.1758	0.0276396	28.5714
36.0511	23.2034	0	28.5714
36.0511	23.2172	0.0276396	28.5714
36.702	23.2449	0	28.5714
36.9337	23.2449	0	28.7534
36.9341	23.2449	0	28.7534
36.9342	23.2587	0.0276396	28.7534
37.376	23.2863	0	28.7534
37.3773	23.2863	0	28.7534
37.3781	23.2863	0.0276396	28.7534
37.3781	23.3002	0.0552792	28.7534
37.3781	23.3278	0.0276396	28.7534
37.8926	23.3554	0	28.7534
37.8927	23.3554	0	28.7534
37.8946	23.3554	0.0276396	28.7534
37.8946	23.3693	0.0552792	28.7534
37.8947	23.3969	0.0276396	28.7534
38.3655	23.4245	0	28.7534
38.3656	23.4245	0	28.7534
38.3656	23.4384	0.0276396	28.7534
38.4299	23.466	0	28.7534
38.4307	23.466	0	28.7534
38.4307	23.4798	0.0276396	28.7534
38.5275	23.5075	0	28.7534
38.5287	23.5075	0	28.7534
38.5287	23.5075	0.0552792	28.7534
38.5287	23.5351	0.0276396	28.7534
39.0621	23.5627	0	28.7534
39.0631	23.5627	0	28.7534
39.0632	23.5766	0.0276396	28.7534
39.2528	23.6042	0	28.7534
39.2529	23.6042	0	28.7534
39.2529	23.618	0.0276396	28.7534
39.2695	23.6457	0	28.7534
39.2696	23.6457	0	28.7534
39.2696	23.6457	0.0552792	28.7534
39.2697	23.6733	0.0276396	28.7534
39.3393	23.7009	0	28.7534
39.3394	23.7009	0	28.7534
39.3395	23.7148	0.0276396	28.7534
39.4277	23.7424	0	28.7534
39.4289	23.7424	0	28.7534
39.4289	23.7424	0.0552792	28.7534
39.4289	23.77	0.0276396	28.7534
39.8878	23.7977	0	28.7534
39.8884	23.7977	0	28.7534
39.8884	23.7977	0.0552792	28.7534
39.8884	23.8253	0.0276396	28.7534
39.91	23.853	0	28.7534
39.9104	23.853	0	28.7534
39.9104	23.853	0.0552792	28.7534
39.9104	23.8806	0.0276396	28.7534
40.7234	23.9082	0	28.7534
40.7234	23.9082	0	28.7534
40.7235	23.9082	0.0552792	28.7534
40.7235	23.9359	0.0276396	28.7534
40.7644	23.9635	0	28.7534
40.765	23.9635	0	28.7534
40.7651	23.9635	0.0552792	28.7534
40.7651	23.9912	0.0276396	28.7534
41.0251	24.0188	0	28.7534
41.0254	24.0188	0	28.7534
41.0257	24.0188	0.0276396	28.7534
41.0258	24.0326	0.0552792	28.7534
41.0258	24.0603	0.0276396	28.7534
41.2979	24.0879	0	28.7534
41.2979	24.0879	0	28.7534
41.298	24.0879	0.0276396	28.7534
41.298	24.1017	0.0552792	28.7534
41.298	24.1294	0.0276396	28.7534
41.5051	24.157	0	28.7534
41.5054	24.157	0	28.7534
41.5054	24.157	0.0552792	28.7534
41.5055	24.1846	0.0276396	28.7534
43.3958	24.2123	0	28.7534
43.3961	24.2123	0	28.7534
43.3961	24.2123	0.0552792	28.7534
43.3961	24.2399	0.0276396	28.7534
43.6314	24.2676	0	28.7534
43.632	24.2676	0	28.7534
43.632	24.2676	0.0552792	28.7534
43.6321	24.2952	0.0276396	28.7534
43.8416	24.3228	0	28.7534
43.842	24.3228	0	28.7534
43.8422	24.3228	0.0276396	28.7534
43.8429	24.3228	0.0552792	28.7534
43.844	24.3228	0.0829187	28.7534
44.7047	24.3228	0.110558	28.7534
44.7047	24.3228	0.110558	28.7534
44.7047	24.3505	0.0829187	28.7534
44.7047	24.3781	0.0552792	28.7534
44.7047	24.4057	0.0276396	28.7534
44.705	24.4334	0	28.7534
44.7051	24.4472	0.0276396	28.7534
44.8882	24.4748	0	28.7534
44.889	24.4748	0	28.7534
44.8895	24.4748	0.0276396	28.7534
44.8895	24.4887	0.0552792	28.7534
44.8895	24.5163	0.0276396	28.7534
45.5055	24.5439	0	28.7534
45.5055	24.5439	0	28.7534
45.5055	24.5439	0.0552792	28.7534
45.5056	24.5716	0.0276396	28.7534
45.8289	24.5992	0	28.7534
45.8289	24.5992	0	28.7534
45.829	24.5992	0.0552792	28.7534
45.829	24.6269	0.0276396	28.7534
45.8741	24.6545	0	28.7534
45.8742	24.6545	0	28.7534
45.8748	24.6545	0.0276396	28.7534
45.8751	24.6545	0.0552792	28.7534
45.8753	24.6545	0.0829187	28.7534
46.5432	24.6545	0.110558	28.7534
46.5432	24.6545	0.110558	28.7534
46.5432	24.6821	0.0829187	28.7534
46.5432	24.7098	0.0552792	28.7534
46.5433	24.7374	0.0276396	28.7534
46.5434	24.7651	0	28.7534
46.5434	24.7789	0.0276396	28.7534
46.9155	24.8065	0	28.7534
46.9158	24.8065	0	28.7534
46.9158	24.8203	0.0276396	28.7534
47.0036	24.848	0	28.7534
47.0052	24.848	0	28.7534
47.0052	24.848	0.0552792	28.7534
47.0052	24.8756	0.0276396	28.7534
47.5712	24.9033	0	28.7534
47.5714	24.9033	0	28.7534
47.5717	24.9033	0.0276396	28.7534
47.5719	24.9033	0.0552792	28.7534
47.572	24.9033	0.0829187	28.7534
47.5721	24.9033	0.110558	28.7534
47.5723	24.9033	0.138198	28.7534
47.5724	24.9033	0.165837	28.7534
47.5726	24.9033	0.193477	28.7534
47.5726	24.9033	0.221117	28.7534
47.5727	24.9033	0.248756	28.7534
47.5727	24.9309	0.221117	28.7534
47.5729	24.9309	0.248756	28.7534
47.5729	24.9585	0.221117	28.7534
47.5729	24.9585	0.248756	28.7534
47.5744	24.9862	0.221117	28.7534
47.5744	24.9862	0.248756	28.7534
47.5745	25.0138	0.221117	28.7534
47.5745	25.0138	0.248756	28.7534
47.5749	25.0415	0.221117	28.7534
47.5749	25.0415	0.248756	28.7534
49.6397	25.0691	0.221117	28.7534
49.6397	25.0691	0.221117	28.7534
49.6397	25.0967	0.193477	28.7534
49.6397	25.1244	0.165837	28.7534
49.6397	25.152	0.138198	28.7534
49.6397	25.1797	0.110558	28.7534
49.6397	25.2073	0.0829187	28.7534
49.6398	25.2349	0.0552792	28.7534
49.6398	25.2626	0.0276396	28.7534
49.6398	25.2902	0	28.7534
49.64	25.304	0.0276396	28.7534
50.1585	25.3317	0	28.7534
50.159	25.3317	0	28.7534
50.159	25.3317	0.0552792	28.7534
50.159	25.3593	0.0276396	28.7534
50.2947	25.387	0	28.7534
50.2951	25.387	0	28.7534
50.2951	25.4008	0.0276396	28.7534
50.5985	25.4284	0	28.7534
50.5993	25.4284	0	28.7534
50.5993	25.4284	0.0552792	28.7534
50.5993	25.4561	0.0276396	28.7534
50.9615	25.4837	0	28.7534
50.9623	25.4837	0	28.7534
50.9624	25.4837	0.0276396	28.7534
50.9624	25.4975	0.0552792	28.7534
50.9624	25.5252	0.0276396	28.7534
51.4145	25.5528	0	28.7534
51.415	25.5528	0	28.7534
51.4158	25.5528	0.0276396	28.7534
51.4158	25.5666	0.0552792	28.7534
51.4159	25.5943	0.0276396	28.7534
52.2295	25.6219	0	28.7534
52.2306	25.6219	0	28.7534
52.2306	25.6219	0.0552792	28.7534
52.2307	25.6495	0.0276396	28.7534
53.8405	25.6772	0	28.7534
53.8406	25.6772	0	28.7534
53.8408	25.6772	0.0276396	28.7534
53.8416	25.6772	0.0552792	28.7534
53.8416	25.6772	0.0829187	28.7534
53.8427	25.6772	0.110558	28.7534
53.8428	25.691	0.138198	28.7534
53.8428	25.7186	0.110558	28.7534
53.8428	25.7463	0.0829187	28.7534
53.8428	25.7739	0.0552792	28.7534
53.8428	25.8015	0.0276396	28.7534
53.9349	25.8292	0	28.7534
53.9349	25.8292	0	28.7534
53.935	25.843	0.0276396	28.7534
57.072	25.8706	0	28.7534
57.0721	25.8706	0	28.7534
57.0722	25.8845	0.0276396	28.7534
57.7409	25.9121	0	28.7534
57.7412	25.9121	0	28.7534
57.7413	25.9121	0.0276396	28.7534
57.7421	25.9121	0.0552792	28.7534
57.7422	25.9259	0.0829187	28.7534
57.7422	25.9536	0.0552792	28.7534
57.7422	25.9812	0.0276396	28.7534
57.8839	26.0088	0	28.7534
57.8855	26.0088	0	28.7534
57.8855	26.0088	0.0552792	28.7534
57.8855	26.0365	0.0276396	28.7534
58.1265	26.0641	0	28.7534
58.1265	26.0641	0	28.7534
58.1265	26.0641	0.0552792	28.7534
58.1267	26.0918	0.0276396	28.7534
59.9129	26.1194	0	28.7534
59.9133	26.1194	0	28.7534
59.9133	26.1332	0.0276396	28.7534
60.7146	26.1609	0	28.7534
60.7158	26.1609	0	28.7534
60.7159	26.1747	0.0276396	28.7534
61.8402	26.2023	0	28.7534
61.8413	26.2023	0	28.7534
61.8422	26.2023	0.0276396	28.7534
61.8422	26.2161	0.0552792	28.7534
61.8423	26.2438	0.0276396	28.7534
65.1252	26.2714	0	28.7534
65.1252	26.2714	0	28.7534
65.1253	26.2852	0.0276396	28.7534
66.192	26.3129	0	28.7534
66.1941	26.3129	0	28.7534
66.1942	26.3129	0.0276396	28.7534
66.1943	26.3129	0.0552792	28.7534
66.1947	26.3129	0.0829187	28.7534
66.1949	26.3129	0.110558	28.7534
66.1953	26.3129	0.138198	28.7534
66.1958	26.3129	0.165837	28.7534
66.1965	26.3129	0.193477	28.7534
66.1967	26.3129	0.221117	28.7534
66.1967	26.3129	0.248756	28.7534
66.1978	26.3405	0.221117	28.7534
66.1978	26.3405	0.248756	28.7534
66.1978	26.3405	0.276396	28.7534
66.1978	26.3682	0.248756	28.7534
66.1985	26.3958	0.221117	28.7534
66.1985	26.3958	0.248756	28.7534
66.1993	26.4234	0.221117	28.7534
66.1993	26.4234	0.248756	28.7534
66.1994	26.4511	0.221117	28.7534
66.1994	26.4511	0.248756	28.7534
68.0536	26.4787	0.221117	28.7534
68.0536	26.4787	0.221117	28.7534
68.0536	26.5064	0.193477	28.7534
68.0536	26.534	0.165837	28.7534
68.0536	26.5616	0.138198	28.7534
68.0536	26.5893	0.110558	28.7534
68.0536	26.6169	0.0829187	28.7534
68.0536	26.6446	0.0552792	28.7534
68.0537	26.6722	0.0276396	28.7534
68.0537	26.6722	0.0829187	28.7534
68.0537	26.6998	0.0552792	28.7534
68.0537	26.7275	0.0276396	28.7534
68.4172	26.7551	0	28.7534
68.4181	26.7551	0	28.7534
68.4181	26.7551	0.0552792	28.7534
68.4181	26.7828	0.0276396	28.7534
68.4251	26.8104	0	28.7534
68.4269	26.8104	0	28.7534
68.4269	26.8104	0.0552792	28.7534
68.4269	26.838	0.0276396	28.7534
68.7067	26.8657	0	28.7534
68.7068	26.8657	0	28.7534
68.7071	26.8657	0	28.7534
68.7072	26.8657	0.0552792	28.7534
68.7073	26.8933	0.0276396	28.7534
68.7077	26.921	0	28.7534
68.7078	26.921	0.0276396	28.7534
68.92	26.921	0.0552792	28.7534
68.92	26.921	0.0552792	28.7534
68.9201	26.9486	0.0276396	28.7534
68.9201	26.9762	0	28.7534
68.9201	26.99	0.0276396	28.7534
69.0055	27.0177	0	28.7534
69.0063	27.0177	0	28.7534
69.0063	27.0177	0.0552792	28.7534
69.0063	27.0453	0.0276396	28.7534
70.9737	27.073	0	28.7534
70.9744	27.073	0	28.7534
70.9744	27.0868	0.0276396	28.7534
71.1216	27.1144	0	28.7534
71.1221	27.1144	0	28.7534
71.1225	27.1144	0.0276396	28.7534
71.1225	27.1282	0.0552792	28.7534
71.1225	27.1559	0.0276396	28.7534
73.1724	27.1835	0	28.7534
73.1736	27.1835	0	28.7534
73.1736	27.1835	0.0552792	28.7534
73.1736	27.2112	0.0276396	28.7534
74.0763	27.2388	0	28.7534
74.0764	27.2388	0	28.7534
75.1276	27.2388	0.0276396	28.7534
75.1276	27.2388	0.0276396	28.7534
75.1283	27.2664	0	28.7534
75.1283	27.2664	0.0552792	28.7534
75.1283	27.2941	0.0276396	28.7534
76.1242	27.3217	0	28.7534
76.1251	27.3217	0	28.7534
76.1251	27.3217	0.0552792	28.7534
76.1252	27.3494	0.0276396	28.7534
77.4592	27.377	0	28.7534
77.4592	27.377	0	28.7534
77.4593	27.377	0.0552792	28.7534
77.4593	27.4046	0.0276396	28.7534
80.898	27.4323	0	28.7534
80.8989	27.4323	0	28.7534
80.899	27.4323	0.0552792	28.7534
80.899	27.4599	0.0276396	28.7534
81.4876	27.4876	0	28.7534
81.4877	27.4876	0	28.7534
81.4878	27.5014	0.0276396	28.7534
82.083	27.529	0	28.7534
82.0839	27.529	0	28.7534
87.069	27.529	0.0276396	28.7534
87.0692	27.529	0.0276396	28.7534
87.0692	27.5567	0	28.7534
87.0693	27.5567	0.0552792	28.7534
87.0693	27.5843	0.0276396	28.7534
88.8458	27.6119	0	28.7534
88.8464	27.6119	0	28.7534
88.8464	27.6119	0.0552792	28.7534
88.8464	27.6396	0.0276396	28.7534
89.4619	27.6672	0	28.7534
89.4629	27.6672	0	28.7534
89.4629	27.6672	0.0552792	28.7534
89.4629	27.6949	0.0276396	28.7534
93.022	27.7225	0	28.7534
93.022	27.7225	0	28.7534
93.022	27.7225	0.0552792	28.7534
93.0221	27.7501	0.0276396	28.7534
93.2267	27.7778	0	28.7534
93.2269	27.7778	0	28.7534
93.2269	27.7778	0.0552792	28.7534
93.2269	27.8054	0.0276396	28.7534
93.4084	27.8331	0	28.7534
93.4087	27.8331	0	28.7534
93.4087	27.8331	0.0552792	28.7534
93.4087	27.8607	0.0276396	28.7534
96.1699	27.8883	0	28.7534
96.171	27.8883	0	28.7534
100.836	27.8883	0.0276396	28.7534
100.836	27.8883	0.0276396	28.7534
100.836	27.916	0	28.7534
100.836	27.916	0.0552792	28.7534
100.836	27.9436	0.0276396	28.7534
102.798	27.9713	0	28.7534
102.799	27.9713	0	28.7534
102.799	27.9713	0.0552792	28.7534
102.799	27.9989	0.0276396	28.7534
104.683	28.0265	0	28.7534
104.684	28.0265	0	28.7534
104.684	28.0265	0.0552792	28.7534
104.684	28.0542	0.0276396	28.7534
107.647	28.0818	0	28.7534
107.647	28.0818	0	28.7534
107.647	28.0818	0.0552792	28.7534
107.647	28.1095	0.0276396	28.7534
108.849	28.1371	0	28.7534
108.85	28.1371	0	28.7534
108.85	28.1371	0.0552792	28.7534
108.85	28.1647	0.0276396	28.7534
109.311	28.1924	0	28.7534
109.311	28.1924	0	28.7534
109.312	28.1924	0.0276396	28.7534
109.312	28.1924	0.0552792	28.7534
109.312	28.1924	0.0829187	28.7534
109.313	28.1924	0.110558	28.7534
109.313	28.1924	0.138198	28.7534
109.313	28.1924	0.165837	28.7534
109.313	28.1924	0.193477	28.7534
109.314	28.1924	0.221117	28.7534
109.314	28.1924	0.248756	28.7534
109.315	28.22	0.221117	28.7534
109.315	28.22	0.248756	28.7534
109.316	28.2477	0.221117	28.7534
109.316	28.2477	0.248756	28.7534
109.316	28.2753	0.221117	28.7534
109.316	28.2753	0.248756	28.7534
109.317	28.3029	0.221117	28.7534
109.317	28.3029	0.248756	28.7534
109.317	28.3306	0.221117	28.7534
109.317	28.3306	0.248756	28.7534
114.954	28.3582	0.221117	28.7534
114.954	28.3582	0.221117	28.7534
114.954	28.3858	0.193477	28.7534
114.954	28.4135	0.165837	28.7534
114.954	28.4411	0.138198	28.7534
114.954	28.4688	0.110558	28.7534
114.954	28.4964	0.0829187	28.7534
114.954	28.524	0.0552792	28.7534
114.954	28.5517	0.0276396	28.7534
114.954	28.5793	0	28.7534
114.954	28.5793	0.0552792	28.7534
114.954	28.607	0.0276396	28.7534
142.416	28.6346	0	28.7534
142.416	28.6346	0	28.7534
142.416	28.6346	0.0552792	28.7534
142.416	28.6622	0.0276396	28.7534
149.09	28.6899	0	28.7534
149.09	28.6899	0	28.7534
149.09	28.6899	0.0552792	28.7534
149.09	28.7175	0.0276396	28.7534
175.392	28.7452	0	28.7534
175.392	28.7452	0	28.7534
