5.56088e-10	0	0	0
1.01357e-09	0	0	0
1.48041e-09	0	0	0
1.49248e-09	0	0	0
1.83229e-09	0	0	0
2.14066e-09	0	0	0
2.26255e-09	0	0	0
2.49778e-09	0	0	0
2.57401e-09	0	0	0
3.20691e-09	0	0	0
3.20706e-09	0	0	0
4.45643e-09	0	0	0
5.461e-09	0	0	0
5.59964e-09	0	0	0
5.70333e-09	0	0	0
5.86555e-09	0	0	0
5.89752e-09	0	0	0
5.96489e-09	0	0	0
7.26704e-09	0	0	0
7.64156e-09	0	0	0
8.69166e-09	0	0	0
8.72107e-09	0	0	0
9.29957e-09	0	0	0
1.06816e-08	0	0	0
1.09977e-08	0	0	0
1.23057e-08	0	0	0
1.29188e-08	0	0	0
1.29304e-08	0	0	0
1.29679e-08	0	0	0
1.31699e-08	0	0	0
1.40581e-08	0	0	0
1.43327e-08	0	0	0
1.43617e-08	0	0	0
1.62953e-08	0	0	0
1.85017e-08	0	0	0
2.05365e-08	0	0	0
2.17266e-08	0	0	0
2.22904e-08	0	0	0
2.29111e-08	0	0	0
2.35369e-08	0	0	0
2.52357e-08	0	0	0
2.93312e-08	0	0	0
3.74531e-08	0	0	0
3.75305e-08	0	0	0
3.85445e-08	0	0	0
4.02006e-08	0	0	0
4.43272e-08	0	0	0
4.75071e-08	0	0	0
5.10396e-08	0	0	0
5.19601e-08	0	0	0
5.72449e-08	0	0	0
5.86232e-08	0	0	0
7.11563e-08	0	0	0
7.30452e-08	0	0	0
7.41894e-08	0	0	0
7.57586e-08	0	0	0
9.52065e-08	0	0	0
1.13246e-07	0	0	0
1.18078e-07	0	0	0
1.28998e-07	0	0	0
1.45932e-07	0	0	0
1.52426e-07	0	0	0
1.80345e-07	0	0	0
1.92271e-07	0	0	0
2.50234e-07	0	0	0
3.35119e-07	0	0	0
3.37166e-07	0	0	0
4.2968e-07	0	0	0
4.34869e-07	0	0	0
4.6409e-07	0	0	0
4.79562e-07	0	0	0
4.95883e-07	0	0	0
5.02676e-07	0	0	0
6.26244e-07	0	0	0
6.56699e-07	0	0	0
7.80299e-07	0	0	0
7.88022e-07	0	0	0
7.99621e-07	0	0	0
8.53473e-07	0	0	0
1.05361e-06	0	0	0
1.14952e-06	0	0	0
1.27039e-06	0	0	0
1.28699e-06	0	0	0
1.31222e-06	0	0	0
1.39633e-06	0	0	0
1.39654e-06	0	0	0
1.42877e-06	0	0	0
1.4678e-06	0	0	0
1.47709e-06	0	0	0
1.51275e-06	0	0	0
1.5316e-06	0	0	0
1.54377e-06	0	0	0
1.66829e-06	0	0	0
1.74248e-06	0	0	0
1.81326e-06	0	0	0
1.82384e-06	0	0	0
1.85331e-06	0	0	0
1.88294e-06	0	0	0
1.89742e-06	0	0	0
1.94514e-06	0	0	0
1.96687e-06	0	0	0
2.00725e-06	0	0	0
2.10641e-06	0	0	0
2.12199e-06	0	0	0
2.16975e-06	0	0	0
2.28469e-06	0	0	0
2.42877e-06	0	0	0
2.46361e-06	0	0	0
2.53508e-06	0	0	0
2.66187e-06	0	0	0
2.70306e-06	0	0	0
2.79025e-06	0	0	0
2.87268e-06	0	0	0
2.89848e-06	0	0	0
2.91681e-06	0	0	0
2.94348e-06	0	0	0
3.16831e-06	0	0	0
3.18335e-06	0	0	0
3.20203e-06	0	0	0
3.26432e-06	0	0	0
3.28334e-06	0	0	0
3.40165e-06	0	0	0
3.41044e-06	0	0	0
3.44121e-06	0	0	0
3.46333e-06	0	0	0
3.50481e-06	0	0	0
3.88818e-06	0	0	0
3.9324e-06	0	0	0
3.93571e-06	0	0	0
4.00762e-06	0	0	0
4.01533e-06	0	0	0
4.12037e-06	0	0	0
4.20275e-06	0	0	0
4.5035e-06	0	0	0
4.62642e-06	0	0	0
4.87925e-06	0	0	0
5.03519e-06	0	0	0
5.41725e-06	0	0	0
5.4892e-06	0	0	0
5.68852e-06	0	0	0
5.71293e-06	0	0	0
5.75574e-06	0	0	0
5.9745e-06	0	0	0
6.04923e-06	0	0	0
6.08962e-06	0	0	0
6.17039e-06	0	0	0
6.33744e-06	0	0	0
6.37028e-06	0	0	0
6.51495e-06	0	0	0
6.82737e-06	0	0	0
6.84281e-06	0	0	0
7.22648e-06	0	0	0
7.2703e-06	0	0	0
7.30455e-06	0	0	0
7.68274e-06	0	0	0
7.80176e-06	0	0	0
7.82455e-06	0	0	0
7.86714e-06	0	0	0
7.92504e-06	0	0	0
8.0335e-06	0	0	0
8.10309e-06	0	0	0
8.29206e-06	0	0	0
8.43302e-06	0	0	0
8.73042e-06	0	0	0
8.74449e-06	0	0	0
8.75671e-06	0	0	0
8.84692e-06	0	0	0
8.91417e-06	0	0	0
8.92144e-06	0	0	0
9.00098e-06	0	0	0
9.00182e-06	0	0	0
9.16603e-06	0	0	0
9.20844e-06	0	0	0
9.27334e-06	0	0	0
9.36412e-06	0	0	0
9.69353e-06	0	0	0
9.70845e-06	0	0	0
9.88076e-06	0	0	0
1.00449e-05	0	0	0
1.03574e-05	0	0	0
1.04478e-05	0	0	0
1.06766e-05	0	0	0
1.08263e-05	0	0	0
1.09953e-05	0	0	0
1.12944e-05	0	0	0
1.13556e-05	0	0	0
1.14905e-05	0	0	0
1.15e-05	0	0	0
1.15062e-05	0	0	0
1.15397e-05	0	0	0
1.17993e-05	0	0	0
1.2074e-05	0	0	0
1.20857e-05	0	0	0
1.22288e-05	0	0	0
1.22313e-05	0	0	0
1.22923e-05	0	0	0
1.26151e-05	0	0	0
1.27445e-05	0	0	0
1.3019e-05	0	0	0
1.32576e-05	0	0	0
1.33104e-05	0	0	0
1.35297e-05	0	0	0
1.36143e-05	0	0	0
1.36465e-05	0	0	0
1.36697e-05	0	0	0
1.367e-05	0	0	0
1.38031e-05	0	0	0
1.38851e-05	0	0	0
1.40435e-05	0	0	0
1.41114e-05	0	0	0
1.43542e-05	0	0	0
1.45016e-05	0	0	0
1.47721e-05	0	0	0
1.48278e-05	0	0	0
1.48465e-05	0	0	0
1.52926e-05	0	0	0
1.53301e-05	0	0	0
1.54513e-05	0	0	0
1.55912e-05	0	0	0
1.56058e-05	0	0	0
1.59517e-05	0	0	0
1.59543e-05	0	0	0
1.60238e-05	0	0	0
1.60868e-05	0	0	0
1.6114e-05	0	0	0
1.62334e-05	0	0	0
1.6538e-05	0	0	0
1.66099e-05	0	0	0
1.67002e-05	0	0	0
1.68878e-05	0	0	0
1.73864e-05	0	0	0
1.74011e-05	0	0	0
1.74891e-05	0	0	0
1.75294e-05	0	0	0
1.75902e-05	0	0	0
1.77713e-05	0	0	0
1.78987e-05	0	0	0
1.79657e-05	0	0	0
1.8338e-05	0	0	0
1.83443e-05	0	0	0
1.83836e-05	0	0	0
1.84745e-05	0	0	0
1.87144e-05	0	0	0
1.88221e-05	0	0	0
1.88266e-05	0	0	0
1.9148e-05	0	0	0
1.94496e-05	0	0	0
1.98076e-05	0	0	0
1.99264e-05	0	0	0
2.00755e-05	0	0	0
2.0116e-05	0	0	0
2.0206e-05	0	0	0
2.05357e-05	0	0	0
2.05946e-05	0	0	0
2.08037e-05	0	0	0
2.14358e-05	0	0	0
2.16464e-05	0	0	0
2.16847e-05	0	0	0
2.1897e-05	0	0	0
2.20243e-05	0	0	0
2.29567e-05	0	0	0
2.30349e-05	0	0	0
2.33653e-05	0	0	0
2.33665e-05	0	0	0
2.36287e-05	0	0	0
2.40415e-05	0	0	0
2.42716e-05	0	0	0
2.43085e-05	0	0	0
2.43343e-05	0	0	0
2.4647e-05	0	0	0
2.48144e-05	0	0	0
2.48182e-05	0	0	0
2.48318e-05	0	0	0
2.4869e-05	0	0	0
2.51501e-05	0	0	0
2.5253e-05	0	0	0
2.53712e-05	0	0	0
2.57489e-05	0	0	0
2.62174e-05	0	0	0
2.62238e-05	0	0	0
2.68735e-05	0	0	0
2.69768e-05	0	0	0
2.70392e-05	0	0	0
2.80458e-05	0	0	0
2.82328e-05	0	0	0
2.82878e-05	0	0	0
2.83308e-05	0	0	0
2.87723e-05	0	0	0
3.00974e-05	0	0	0
3.12365e-05	0	0	0
3.12393e-05	0	0	0
3.13479e-05	0	0	0
3.15682e-05	0	0	0
3.20963e-05	0	0	0
3.25512e-05	0	0	0
3.29164e-05	0	0	0
3.29329e-05	0	0	0
3.37079e-05	0	0	0
3.37531e-05	0	0	0
3.40603e-05	0	0	0
3.47789e-05	0	0	0
3.48321e-05	0	0	0
3.51004e-05	0	0	0
3.54924e-05	0	0	0
3.57432e-05	0	0	0
3.57549e-05	0	0	0
3.64032e-05	0	0	0
3.71174e-05	0	0	0
3.78328e-05	0	0	0
3.80268e-05	0	0	0
3.82381e-05	0	0	0
3.85801e-05	0	0	0
3.88929e-05	0	0	0
3.89583e-05	0	0	0
3.97319e-05	0	0	0
3.98158e-05	0	0	0
4.10613e-05	0	0	0
4.15957e-05	0	0	0
4.16277e-05	0	0	0
4.25758e-05	0	0	0
4.28676e-05	0	0	0
4.38905e-05	0	0	0
4.48406e-05	0	0	0
4.50744e-05	0	0	0
4.53942e-05	0	0	0
4.62213e-05	0	0	0
4.64421e-05	0	0	0
4.68084e-05	0	0	0
4.7275e-05	0	0	0
4.86261e-05	0	0	0
4.89296e-05	0	0	0
4.91165e-05	0	0	0
4.99214e-05	0	0	0
5.01419e-05	0	0	0
5.01978e-05	0	0	0
5.06606e-05	0	0	0
5.13933e-05	0	0	0
5.21275e-05	0	0	0
5.22648e-05	0	0	0
5.31509e-05	0	0	0
5.43822e-05	0	0	0
5.62876e-05	0	0	0
5.6625e-05	0	0	0
5.67444e-05	0	0	0
5.72997e-05	0	0	0
5.85173e-05	0	0	0
5.88871e-05	0	0	0
5.92374e-05	0	0	0
6.07421e-05	0	0	0
6.23077e-05	0	0	0
6.34722e-05	0	0	0
6.3687e-05	0	0	0
6.40597e-05	0	0	0
6.40968e-05	0	0	0
6.45253e-05	0	0	0
6.48432e-05	0	0	0
6.5109e-05	0	0	0
6.51809e-05	0	0	0
6.56426e-05	0	0	0
6.62609e-05	0	0	0
6.75882e-05	0	0	0
6.84082e-05	0	0	0
6.85984e-05	0	0	0
7.00467e-05	0	0	0
7.10019e-05	0	0	0
7.28079e-05	0	0	0
7.34047e-05	0	0	0
7.64723e-05	0	0	0
7.66359e-05	0	0	0
7.69627e-05	0	0	0
7.83749e-05	0	0	0
7.84118e-05	0	0	0
7.95495e-05	0	0	0
7.96123e-05	0	0	0
8.00459e-05	0	0	0
8.31747e-05	0	0	0
8.42141e-05	0	0	0
8.43433e-05	0	0	0
8.78989e-05	0	0	0
8.83668e-05	0	0	0
9.00787e-05	0	0	0
9.13741e-05	0	0	0
9.20908e-05	0	0	0
9.29361e-05	0	0	0
9.71684e-05	0	0	0
9.83432e-05	0	0	0
0.00010212	0	0	0
0.000102147	0	0	0
0.000106284	0	0	0
0.000106311	0	0	0
0.000106566	0	0	0
0.000113097	0	0	0
0.000118701	0	0	0
0.000122025	0	0	0
0.000152546	0	0	0
0.000196632	0	0	0
0.00020515	0	0	0
0.000244155	0	0	0
0.0100741	0	0	0
0.0177292	0	0	0
0.0552264	0	0	0
0.0554788	0	0	0
0.0588409	0	0.0276396	0
0.0601004	0	0.0276396	0
0.069403	0	0.0276396	0.0909918
0.0694101	0	0.0276396	0.181984
0.0696095	0.0276396	0	0.181984
0.0759794	0.0276396	0	0.181984
0.0857622	0.0276396	0	0.181984
0.0857648	0.0276396	0	0.272975
0.0857676	0.0276396	0	0.272975
0.0858152	0.0276396	0	0.272975
0.103277	0.0276396	0	0.272975
0.103283	0.0276396	0	0.272975
0.104074	0.0276396	0	0.272975
0.1041	0.0276396	0	0.272975
0.104129	0.0276396	0	0.272975
0.110763	0.0276396	0	0.272975
0.111054	0.0276396	0	0.272975
0.112661	0.0276396	0.0276396	0.272975
0.113115	0.0276396	0.0552792	0.272975
0.114875	0.0276396	0.0829187	0.272975
0.114881	0.0414594	0.110558	0.272975
0.114882	0.0690989	0.0829187	0.272975
0.114912	0.0967385	0.0552792	0.272975
0.114913	0.124378	0.0276396	0.272975
0.11492	0.124378	0.0276396	0.272975
0.114921	0.152018	0	0.272975
0.114942	0.152018	0	0.272975
0.115006	0.152018	0	0.272975
0.13588	0.152018	0	0.272975
0.135914	0.152018	0	0.272975
0.135922	0.152018	0	0.272975
0.153884	0.152018	0	0.272975
0.153889	0.152018	0	0.272975
0.153982	0.152018	0	0.272975
0.153982	0.152018	0	0.272975
0.153983	0.152018	0	0.272975
0.156766	0.152018	0	0.272975
0.165993	0.152018	0	0.272975
0.169563	0.152018	0	0.272975
0.16957	0.152018	0.0552792	0.272975
0.169623	0.179657	0.0276396	0.272975
0.18973	0.207297	0	0.272975
0.189747	0.207297	0	0.272975
0.189752	0.207297	0	0.272975
0.189772	0.207297	0	0.272975
0.199158	0.207297	0	0.272975
0.199627	0.207297	0	0.272975
0.199647	0.221117	0.0276396	0.272975
0.201437	0.248756	0	0.272975
0.20152	0.248756	0	0.272975
0.201569	0.262576	0.0276396	0.272975
0.208372	0.290216	0	0.272975
0.212645	0.290216	0	0.272975
0.238538	0.290216	0	0.272975
0.246163	0.290216	0	0.272975
0.24619	0.290216	0	0.272975
0.246214	0.304035	0.0276396	0.272975
0.246239	0.304035	0.0276396	0.272975
0.24624	0.304035	0.0276396	0.272975
0.246284	0.331675	0	0.272975
0.247191	0.331675	0	0.272975
0.247199	0.345495	0.0276396	0.272975
0.261867	0.373134	0	0.272975
0.261899	0.373134	0	0.272975
0.261901	0.386954	0.0276396	0.272975
0.261918	0.386954	0.0276396	0.272975
0.27142	0.414594	0	0.272975
0.272048	0.414594	0	0.272975
0.272365	0.414594	0.0276396	0.272975
0.272373	0.428413	0.0552792	0.272975
0.272511	0.456053	0.0276396	0.272975
0.280413	0.483693	0	0.272975
0.287931	0.483693	0	0.363967
0.288497	0.483693	0	0.363967
0.289092	0.483693	0.0276396	0.363967
0.289104	0.483693	0.0552792	0.363967
0.289594	0.483693	0.0829187	0.363967
0.289601	0.497512	0.110558	0.363967
0.289633	0.525152	0.0829187	0.363967
0.289636	0.552792	0.0552792	0.363967
0.289662	0.580431	0.0276396	0.363967
0.294474	0.608071	0	0.363967
0.295223	0.608071	0	0.363967
0.300201	0.608071	0	0.454959
0.300291	0.608071	0.0276396	0.454959
0.300293	0.621891	0.0552792	0.454959
0.300337	0.64953	0.0276396	0.454959
0.321407	0.67717	0	0.454959
0.369161	0.67717	0	0.454959
0.393275	0.67717	0	0.454959
0.39457	0.67717	0	0.454959
0.394572	0.690989	0.0276396	0.454959
0.398197	0.718629	0	0.454959
0.399238	0.718629	0	0.454959
0.399551	0.718629	0.0276396	0.454959
0.399565	0.732449	0.0552792	0.454959
0.39958	0.760088	0.0276396	0.454959
0.407321	0.787728	0	0.454959
0.407356	0.787728	0	0.454959
0.413981	0.787728	0	0.454959
0.415472	0.787728	0	0.454959
0.415746	0.787728	0.0276396	0.454959
0.415776	0.801548	0.0552792	0.454959
0.415801	0.829187	0.0276396	0.454959
0.419286	0.856827	0	0.454959
0.420345	0.856827	0	0.454959
0.420982	0.856827	0.0276396	0.454959
0.421027	0.870647	0.0552792	0.454959
0.421087	0.898286	0.0276396	0.454959
0.428673	0.925926	0	0.454959
0.429146	0.925926	0	0.454959
0.430225	0.925926	0.0276396	0.454959
0.430267	0.925926	0.0552792	0.454959
0.4303	0.925926	0.110558	0.454959
0.430327	0.953566	0.0829187	0.454959
0.430354	0.981205	0.0552792	0.454959
0.430374	1.00884	0.0276396	0.454959
0.4305	1.00884	0.0276396	0.454959
0.431594	1.03648	0	0.454959
0.431877	1.03648	0	0.454959
0.431909	1.0503	0.0276396	0.454959
0.434756	1.07794	0	0.454959
0.435041	1.07794	0	0.454959
0.435044	1.09176	0.0276396	0.454959
0.435055	1.09176	0.0276396	0.454959
0.435067	1.1194	0	0.454959
0.435609	1.1194	0	0.454959
0.446235	1.1194	0	0.454959
0.446241	1.1194	0	0.454959
0.446256	1.1194	0	0.454959
0.447106	1.1194	0	0.454959
0.447165	1.1194	0	0.454959
0.447226	1.13322	0.0276396	0.454959
0.455647	1.16086	0	0.454959
0.468042	1.16086	0	0.545951
0.468177	1.16086	0	0.545951
0.479169	1.16086	0	0.545951
0.485533	1.16086	0	0.545951
0.487652	1.16086	0	0.545951
0.537142	1.16086	0	0.545951
0.557684	1.16086	0	0.636943
0.557726	1.16086	0	0.727934
0.570642	1.16086	0	0.727934
0.5707	1.16086	0	0.727934
0.585789	1.16086	0	0.727934
0.586275	1.16086	0	0.727934
0.586276	1.16086	0.0276396	0.727934
0.586288	1.17468	0.0552792	0.727934
0.586303	1.20232	0.0276396	0.727934
0.588825	1.22996	0	0.727934
0.590623	1.22996	0	0.727934
0.590743	1.24378	0.0276396	0.727934
0.6083	1.27142	0	0.727934
0.608334	1.27142	0	0.727934
0.60834	1.27142	0	0.727934
0.608397	1.27142	0	0.727934
0.608401	1.27142	0	0.727934
0.611813	1.27142	0	0.727934
0.651484	1.27142	0	0.727934
0.652239	1.27142	0	0.727934
0.652481	1.27142	0.0276396	0.727934
0.652506	1.27142	0.0829187	0.727934
0.652555	1.27142	0.0829187	0.727934
0.652566	1.29906	0.0552792	0.727934
0.652639	1.3267	0.0276396	0.727934
0.654837	1.35434	0	0.727934
0.655139	1.35434	0	0.818926
0.655157	1.35434	0	0.818926
0.660286	1.35434	0	0.818926
0.665732	1.35434	0	0.909918
0.665734	1.35434	0	0.909918
0.665777	1.35434	0	0.909918
0.665803	1.35434	0	0.909918
0.665843	1.35434	0	0.909918
0.665849	1.35434	0	0.909918
0.738292	1.35434	0	0.909918
0.746708	1.35434	0	1.00091
0.746819	1.35434	0	1.00091
0.749669	1.35434	0.0276396	1.00091
0.749707	1.35434	0.0276396	1.00091
0.749958	1.35434	0.0552792	1.00091
0.749998	1.36816	0.0829187	1.00091
0.750025	1.3958	0.0552792	1.00091
0.750033	1.42344	0.0276396	1.00091
0.758876	1.42344	0.0276396	1.00091
0.75888	1.42344	0.0276396	1.00091
0.785538	1.45108	0	1.00091
0.785551	1.45108	0	1.00091
0.78556	1.45108	0	1.00091
0.785604	1.45108	0	1.00091
0.796818	1.45108	0	1.00091
0.797048	1.45108	0	1.00091
0.797073	1.45108	0.0276396	1.00091
0.797177	1.45108	0.0276396	1.0919
0.797221	1.4649	0.0552792	1.0919
0.79735	1.49254	0.0276396	1.0919
0.7974	1.52018	0	1.0919
0.797549	1.52018	0	1.0919
0.797837	1.52018	0	1.0919
0.797917	1.52018	0.0276396	1.0919
0.798252	1.52018	0.0552792	1.0919
0.798622	1.52018	0.0829187	1.0919
0.798632	1.52018	0.138198	1.0919
0.798647	1.54782	0.110558	1.0919
0.798654	1.57546	0.0829187	1.0919
0.798719	1.6031	0.0552792	1.0919
0.798739	1.63074	0.0276396	1.0919
0.807051	1.65837	0	1.0919
0.807087	1.65837	0	1.0919
0.812842	1.65837	0	1.0919
0.813423	1.65837	0	1.0919
0.813649	1.65837	0	1.0919
0.813831	1.65837	0.0276396	1.0919
0.813867	1.67219	0.0552792	1.0919
0.813874	1.67219	0.0552792	1.0919
0.813918	1.69983	0.0276396	1.0919
0.813936	1.72747	0	1.0919
0.841744	1.72747	0	1.0919
0.856175	1.72747	0	1.0919
0.856439	1.72747	0	1.0919
0.856497	1.74129	0.0276396	1.0919
0.859666	1.76893	0	1.0919
0.860412	1.76893	0	1.0919
0.860449	1.78275	0.0276396	1.0919
0.878278	1.81039	0	1.0919
0.883985	1.81039	0	1.18289
0.884965	1.81039	0	1.18289
0.902376	1.81039	0.0276396	1.18289
0.902386	1.81039	0.0276396	1.18289
0.902408	1.81039	0.0276396	1.27389
0.902409	1.83803	0	1.27389
0.902452	1.83803	0	1.27389
0.902511	1.83803	0	1.27389
0.902539	1.85185	0.0276396	1.27389
0.902639	1.87949	0	1.27389
0.902699	1.87949	0	1.27389
0.903128	1.87949	0.0276396	1.27389
0.903135	1.89331	0.0552792	1.27389
0.903158	1.92095	0.0276396	1.27389
0.903191	1.94859	0	1.27389
0.903209	1.94859	0	1.27389
0.91654	1.94859	0	1.27389
0.916954	1.94859	0	1.27389
0.917005	1.94859	0.0276396	1.27389
0.917013	1.97623	0	1.27389
0.917019	1.97623	0	1.27389
0.917367	1.97623	0	1.27389
0.917412	1.97623	0.0552792	1.27389
0.917421	2.00387	0.0276396	1.27389
0.93592	2.03151	0	1.27389
0.935943	2.03151	0	1.27389
0.938163	2.03151	0	1.27389
0.939211	2.03151	0	1.27389
0.944806	2.03151	0	1.27389
0.94507	2.03151	0	1.27389
0.945089	2.04533	0.0276396	1.27389
0.945251	2.07297	0	1.27389
0.956974	2.07297	0	1.27389
0.957112	2.07297	0	1.27389
0.957132	2.07297	0.0276396	1.27389
0.95714	2.08679	0.0552792	1.27389
0.957194	2.11443	0.0276396	1.27389
0.972321	2.14207	0	1.27389
0.973058	2.14207	0	1.27389
0.973063	2.14207	0.0552792	1.27389
0.973116	2.16971	0.0276396	1.27389
0.985266	2.19735	0	1.27389
0.986292	2.19735	0	1.27389
0.986552	2.19735	0.0276396	1.27389
0.986579	2.21117	0.0552792	1.27389
0.986589	2.23881	0.0276396	1.27389
1.01304	2.26645	0	1.27389
1.01309	2.26645	0	1.27389
1.01311	2.26645	0	1.27389
1.01467	2.26645	0	1.27389
1.0148	2.26645	0	1.27389
1.01481	2.28027	0.0276396	1.27389
1.02397	2.3079	0	1.27389
1.0242	2.3079	0	1.27389
1.02431	2.32172	0.0276396	1.27389
1.03549	2.34936	0	1.27389
1.03558	2.34936	0	1.27389
1.03559	2.36318	0.0276396	1.27389
1.05547	2.39082	0	1.27389
1.07764	2.39082	0	1.36488
1.094	2.39082	0	1.36488
1.09475	2.39082	0	1.36488
1.09613	2.39082	0.0276396	1.36488
1.09615	2.40464	0.0552792	1.36488
1.09617	2.40464	0.0552792	1.36488
1.09621	2.43228	0.0276396	1.36488
1.09731	2.45992	0	1.36488
1.09849	2.45992	0	1.36488
1.16283	2.45992	0.0276396	1.36488
1.16284	2.45992	0.0276396	1.36488
1.16413	2.48756	0	1.36488
1.16413	2.50138	0.0276396	1.36488
1.16559	2.52902	0	1.36488
1.16619	2.52902	0	1.36488
1.16713	2.52902	0.0276396	1.36488
1.16713	2.54284	0.0552792	1.36488
1.16715	2.57048	0.0276396	1.36488
1.16715	2.57048	0.0276396	1.36488
1.16716	2.59812	0	1.36488
1.16884	2.59812	0	1.36488
1.17164	2.59812	0	1.36488
1.17172	2.59812	0	1.45587
1.17648	2.59812	0	1.45587
1.17983	2.59812	0	1.45587
1.19714	2.59812	0	1.45587
1.19738	2.59812	0	1.45587
1.19762	2.59812	0	1.45587
1.19762	2.59812	0.0552792	1.45587
1.19765	2.62576	0.0276396	1.45587
1.1977	2.62576	0.0552792	1.45587
1.19788	2.6534	0.0276396	1.45587
1.19814	2.6534	0.0552792	1.45587
1.19814	2.66722	0.0829187	1.45587
1.19816	2.69486	0.0552792	1.45587
1.19817	2.7225	0.0276396	1.45587
1.19818	2.75014	0	1.45587
1.23107	2.75014	0	1.45587
1.23911	2.75014	0	1.54686
1.23933	2.75014	0	1.54686
1.23935	2.75014	0.0552792	1.54686
1.23936	2.77778	0.0276396	1.54686
1.24383	2.80542	0	1.54686
1.24395	2.80542	0	1.54686
1.24408	2.81924	0.0276396	1.54686
1.25183	2.84688	0	1.54686
1.25698	2.84688	0	1.63785
1.25707	2.84688	0	1.63785
1.2572	2.84688	0.0276396	1.63785
1.25721	2.84688	0.0829187	1.63785
1.25722	2.87452	0.0552792	1.63785
1.25722	2.90216	0.0276396	1.63785
1.27448	2.9298	0	1.63785
1.27478	2.9298	0	1.63785
1.27481	2.94362	0.0276396	1.63785
1.28769	2.97125	0	1.63785
1.28836	2.97125	0	1.63785
1.28838	2.98507	0.0276396	1.63785
1.30198	3.01271	0	1.63785
1.30285	3.01271	0	1.63785
1.30308	3.01271	0.0276396	1.63785
1.30434	3.01271	0.0552792	1.63785
1.30446	3.01271	0.0829187	1.63785
1.30487	3.01271	0.110558	1.63785
1.30488	3.02653	0.138198	1.63785
1.30489	3.05417	0.110558	1.63785
1.30492	3.08181	0.0829187	1.63785
1.30492	3.10945	0.0552792	1.63785
1.30493	3.10945	0.0552792	1.63785
1.30495	3.13709	0.0276396	1.63785
1.30819	3.16473	0	1.63785
1.30823	3.16473	0	1.63785
1.30855	3.16473	0.0276396	1.63785
1.3093	3.16473	0.0552792	1.63785
1.30931	3.16473	0.0829187	1.63785
1.30942	3.16473	0.110558	1.63785
1.31095	3.16473	0.138198	1.63785
1.31095	3.16473	0.165837	1.63785
1.31096	3.19237	0.138198	1.63785
1.31097	3.19237	0.138198	1.63785
1.31098	3.22001	0.110558	1.63785
1.311	3.24765	0.0829187	1.63785
1.311	3.27529	0.0552792	1.63785
1.31101	3.30293	0.0276396	1.63785
1.31101	3.33057	0	1.63785
1.31244	3.33057	0	1.63785
1.3315	3.33057	0	1.72884
1.33867	3.33057	0	1.72884
1.34173	3.33057	0	1.72884
1.34214	3.33057	0	1.72884
1.34214	3.34439	0.0276396	1.72884
1.34215	3.37203	0	1.72884
1.34218	3.37203	0	1.72884
1.34221	3.37203	0	1.72884
1.34395	3.37203	0	1.72884
1.35491	3.37203	0	1.81984
1.37828	3.37203	0	1.81984
1.37977	3.37203	0	1.91083
1.38225	3.37203	0	1.91083
1.38313	3.37203	0	1.91083
1.38315	3.38585	0.0276396	1.91083
1.39934	3.41349	0	1.91083
1.39935	3.41349	0	1.91083
1.39936	3.41349	0	1.91083
1.39936	3.41349	0	1.91083
1.43129	3.41349	0	1.91083
1.43203	3.41349	0	1.91083
1.44954	3.41349	0	2.00182
1.45042	3.41349	0	2.00182
1.45042	3.42731	0.0276396	2.00182
1.45924	3.45495	0	2.00182
1.45938	3.45495	0	2.00182
1.45939	3.46877	0.0276396	2.00182
1.45949	3.49641	0	2.00182
1.45951	3.49641	0	2.09281
1.45952	3.49641	0	2.09281
1.45958	3.49641	0	2.09281
1.49186	3.49641	0	2.09281
1.49376	3.49641	0	2.09281
1.49377	3.49641	0	2.1838
1.49377	3.49641	0	2.1838
1.49377	3.49641	0	2.1838
1.50709	3.49641	0	2.1838
1.50919	3.49641	0	2.1838
1.50978	3.49641	0	2.1838
1.50991	3.51023	0.0276396	2.1838
1.51746	3.53787	0	2.1838
1.51749	3.53787	0	2.1838
1.51756	3.53787	0	2.1838
1.51793	3.53787	0	2.1838
1.51796	3.53787	0.0276396	2.1838
1.51804	3.56551	0	2.1838
1.51806	3.56551	0	2.1838
1.51919	3.56551	0	2.1838
1.5192	3.56551	0	2.1838
1.54622	3.56551	0	2.1838
1.54669	3.56551	0	2.1838
1.57656	3.56551	0.0276396	2.1838
1.57702	3.56551	0.0276396	2.1838
1.57892	3.56551	0.0552792	2.1838
1.57892	3.57933	0.0829187	2.1838
1.57894	3.57933	0.0829187	2.1838
1.57894	3.60697	0.0552792	2.1838
1.57895	3.6346	0.0276396	2.1838
1.58819	3.6346	0.0276396	2.1838
1.5882	3.6346	0.0276396	2.1838
1.58821	3.6346	0.0276396	2.1838
1.58899	3.66224	0	2.1838
1.58899	3.66224	0.0276396	2.1838
1.59002	3.66224	0.0552792	2.1838
1.59099	3.66224	0.0829187	2.1838
1.59122	3.66224	0.110558	2.1838
1.59128	3.66224	0.138198	2.1838
1.59129	3.67606	0.165837	2.1838
1.59129	3.7037	0.138198	2.1838
1.59133	3.7037	0.138198	2.1838
1.59133	3.73134	0.110558	2.1838
1.59133	3.75898	0.0829187	2.1838
1.59133	3.78662	0.0552792	2.1838
1.59134	3.78662	0.0552792	2.1838
1.59136	3.81426	0.0276396	2.1838
1.59137	3.8419	0	2.1838
1.59511	3.8419	0	2.1838
1.59648	3.8419	0	2.1838
1.59648	3.8419	0.0552792	2.1838
1.5966	3.86954	0.0276396	2.1838
1.603	3.89718	0	2.1838
1.60345	3.89718	0	2.1838
1.604	3.89718	0.0276396	2.1838
1.604	3.911	0.0552792	2.1838
1.60407	3.93864	0.0276396	2.1838
1.62248	3.96628	0	2.1838
1.62271	3.96628	0	2.1838
1.62273	3.9801	0.0276396	2.1838
1.63056	4.00774	0	2.1838
1.63383	4.00774	0	2.2748
1.63438	4.00774	0	2.2748
1.63439	4.00774	0.0552792	2.2748
1.63441	4.03538	0.0276396	2.2748
1.65925	4.06302	0	2.2748
1.66011	4.06302	0	2.2748
1.66012	4.06302	0.0552792	2.2748
1.66022	4.09066	0.0276396	2.2748
1.67127	4.1183	0	2.2748
1.71511	4.1183	0	2.2748
1.71526	4.1183	0	2.2748
1.71535	4.13212	0.0276396	2.2748
1.73631	4.15976	0	2.2748
1.73636	4.15976	0	2.2748
1.73645	4.17358	0.0276396	2.2748
1.7395	4.20122	0	2.2748
1.81293	4.20122	0	2.2748
1.81377	4.20122	0	2.2748
1.81379	4.20122	0	2.2748
1.8184	4.20122	0	2.2748
1.84441	4.20122	0	2.36579
1.89729	4.20122	0	2.36579
1.89799	4.20122	0	2.36579
1.89802	4.21504	0.0276396	2.36579
1.89821	4.24268	0	2.36579
1.89824	4.24268	0	2.36579
1.94441	4.24268	0	2.36579
1.94482	4.24268	0	2.36579
1.94509	4.24268	0.0276396	2.36579
1.94509	4.2565	0.0552792	2.36579
1.94516	4.28413	0.0276396	2.36579
1.95263	4.31177	0	2.36579
1.9538	4.31177	0	2.36579
1.95388	4.32559	0.0276396	2.36579
1.95941	4.35323	0	2.36579
1.97365	4.35323	0	2.36579
1.97377	4.35323	0	2.36579
1.97405	4.35323	0.0276396	2.36579
1.97406	4.36705	0.0552792	2.36579
1.97407	4.39469	0.0276396	2.36579
1.98207	4.42233	0	2.36579
1.98312	4.42233	0	2.36579
1.98312	4.43615	0.0276396	2.36579
1.99264	4.46379	0	2.36579
1.9932	4.46379	0	2.36579
1.99358	4.46379	0.0276396	2.36579
1.99475	4.46379	0.0552792	2.36579
1.99637	4.46379	0.0829187	2.36579
1.99765	4.46379	0.110558	2.36579
1.99776	4.46379	0.138198	2.36579
1.9988	4.46379	0.165837	2.36579
2.00018	4.46379	0.193477	2.36579
2.00162	4.46379	0.221117	2.36579
2.00163	4.46379	0.248756	2.36579
2.00189	4.49143	0.221117	2.36579
2.00191	4.49143	0.248756	2.36579
2.00234	4.51907	0.221117	2.36579
2.00235	4.51907	0.248756	2.36579
2.00262	4.54671	0.221117	2.36579
2.00273	4.54671	0.248756	2.36579
2.00281	4.57435	0.221117	2.36579
2.00281	4.57435	0.248756	2.36579
2.00313	4.60199	0.221117	2.36579
2.00313	4.61581	0.248756	2.36579
2.00313	4.64345	0.221117	2.36579
2.00314	4.67109	0.193477	2.36579
2.00315	4.69873	0.165837	2.36579
2.00315	4.72637	0.138198	2.36579
2.00315	4.75401	0.110558	2.36579
2.00316	4.78165	0.0829187	2.36579
2.0032	4.80929	0.0552792	2.36579
2.00321	4.83693	0.0276396	2.36579
2.0099	4.86457	0	2.36579
2.01006	4.86457	0	2.36579
2.01012	4.87839	0.0276396	2.36579
2.0173	4.90603	0	2.36579
2.0184	4.90603	0	2.45678
2.03805	4.90603	0	2.63876
2.03823	4.90603	0	2.63876
2.03834	4.90603	0.0276396	2.63876
2.03835	4.91985	0.0552792	2.63876
2.03839	4.94748	0.0276396	2.63876
2.04133	4.97512	0	2.63876
2.04299	4.97512	0	2.72975
2.05736	4.97512	0	2.82075
2.05887	4.97512	0	2.82075
2.05907	4.97512	0.0276396	2.82075
2.05908	4.98894	0.0552792	2.82075
2.05913	5.01658	0.0276396	2.82075
2.06483	5.04422	0	2.82075
2.08493	5.04422	0	2.91174
2.08815	5.04422	0	2.91174
2.08824	5.04422	0	2.91174
2.08825	5.05804	0.0276396	2.91174
2.12344	5.08568	0	2.91174
2.12388	5.08568	0	2.91174
2.12389	5.08568	0.0552792	2.91174
2.12393	5.11332	0.0276396	2.91174
2.13795	5.14096	0	2.91174
2.14366	5.14096	0	2.91174
2.14366	5.14096	0	2.91174
2.14408	5.14096	0.0276396	2.91174
2.14464	5.14096	0.0552792	2.91174
2.19063	5.14096	0.0829187	2.91174
2.19064	5.14096	0.0829187	2.91174
2.19066	5.14096	0.0829187	2.91174
2.19073	5.1686	0.0552792	2.91174
2.19078	5.19624	0.0276396	2.91174
2.19135	5.22388	0	2.91174
2.26086	5.22388	0	2.91174
2.26093	5.22388	0	2.91174
2.26093	5.2377	0.0276396	2.91174
2.2784	5.26534	0	2.91174
2.27916	5.26534	0	2.91174
2.27928	5.26534	0.0552792	2.91174
2.27928	5.29298	0.0276396	2.91174
2.27929	5.32062	0	2.91174
2.28598	5.32062	0	2.91174
2.29909	5.32062	0	2.91174
2.29939	5.32062	0	2.91174
2.29944	5.32062	0.0276396	2.91174
2.29945	5.33444	0.0552792	2.91174
2.29947	5.36208	0.0276396	2.91174
2.30093	5.38972	0	2.91174
2.32511	5.38972	0	3.09372
2.33214	5.38972	0	3.18471
2.3327	5.38972	0	3.18471
2.33312	5.38972	0.0276396	3.18471
2.33314	5.38972	0.0552792	3.18471
2.33317	5.41736	0.0276396	3.18471
2.34213	5.445	0	3.18471
2.35996	5.445	0	3.18471
2.3687	5.445	0	3.18471
2.37589	5.445	0	3.18471
2.3759	5.445	0	3.27571
2.37669	5.445	0	3.3667
2.37736	5.445	0	3.3667
2.3775	5.445	0.0276396	3.3667
2.37752	5.45882	0.0552792	3.3667
2.37766	5.48646	0.0276396	3.3667
2.38003	5.5141	0	3.3667
2.38003	5.5141	0	3.54868
2.39208	5.5141	0	3.54868
2.39243	5.5141	0	3.54868
2.3925	5.5141	0.0552792	3.54868
2.39252	5.54174	0.0276396	3.54868
2.39512	5.56938	0	3.54868
2.39563	5.56938	0	3.54868
2.39567	5.5832	0.0276396	3.54868
2.39987	5.61083	0	3.54868
2.4003	5.61083	0	3.54868
2.40032	5.61083	0.0552792	3.54868
2.40038	5.63847	0.0276396	3.54868
2.40582	5.66611	0	3.54868
2.40583	5.66611	0	3.54868
2.40591	5.66611	0	3.54868
2.40598	5.66611	0	3.54868
2.4245	5.66611	0	3.54868
2.42466	5.66611	0	3.54868
2.42467	5.67993	0.0276396	3.54868
2.44391	5.70757	0	3.54868
2.46834	5.70757	0	3.63967
2.46869	5.70757	0	3.63967
2.4687	5.70757	0.0552792	3.63967
2.46879	5.73521	0.0276396	3.63967
2.49446	5.76285	0	3.63967
2.49985	5.76285	0	3.63967
2.50024	5.76285	0	3.63967
2.50025	5.77667	0.0276396	3.63967
2.51809	5.80431	0	3.63967
2.51889	5.80431	0	3.63967
2.5189	5.80431	0.0276396	3.63967
2.51893	5.81813	0.0552792	3.63967
2.51895	5.84577	0.0276396	3.63967
2.53172	5.87341	0	3.63967
2.53211	5.87341	0	3.63967
2.53224	5.87341	0.0276396	3.63967
2.53241	5.87341	0.0552792	3.63967
2.53242	5.87341	0.110558	3.63967
2.53244	5.90105	0.0829187	3.63967
2.53244	5.92869	0.0552792	3.63967
2.53246	5.95633	0.0276396	3.63967
2.54048	5.98397	0	3.63967
2.544	5.98397	0	3.73066
2.57928	5.98397	0	3.91265
2.57946	5.98397	0	3.91265
2.58042	5.98397	0.0276396	3.91265
2.58042	5.99779	0.0552792	3.91265
2.58042	6.02543	0.0276396	3.91265
2.60392	6.05307	0	3.91265
2.60435	6.05307	0	3.91265
2.60436	6.05307	0.0552792	3.91265
2.6044	6.08071	0.0276396	3.91265
2.6044	6.08071	0.0276396	3.91265
2.62151	6.10835	0	3.91265
2.66112	6.10835	0	3.91265
2.67949	6.10835	0	3.91265
2.67959	6.10835	0	3.91265
2.67966	6.10835	0.0276396	3.91265
2.67966	6.12217	0.0552792	3.91265
2.67973	6.14981	0.0276396	3.91265
2.68791	6.17745	0	3.91265
2.68801	6.17745	0	3.91265
2.6881	6.17745	0.0276396	3.91265
2.68815	6.19127	0.0552792	3.91265
2.68833	6.21891	0.0276396	3.91265
2.71278	6.24655	0	3.91265
2.72533	6.24655	0	4.00364
2.72544	6.24655	0	4.00364
2.72546	6.24655	0.0552792	4.00364
2.72553	6.27418	0.0276396	4.00364
2.73298	6.30182	0	4.00364
2.73331	6.30182	0	4.00364
2.73337	6.31564	0.0276396	4.00364
2.76101	6.34328	0	4.00364
2.77042	6.34328	0	4.00364
2.7705	6.34328	0	4.00364
2.77054	6.3571	0.0276396	4.00364
2.7871	6.38474	0	4.00364
2.80883	6.38474	0	4.09463
2.80941	6.38474	0	4.09463
2.80941	6.38474	0.0552792	4.09463
2.80946	6.41238	0.0276396	4.09463
2.81637	6.44002	0	4.09463
2.81759	6.44002	0	4.18562
2.81787	6.44002	0	4.18562
2.81844	6.44002	0.0276396	4.18562
2.81845	6.45384	0.0552792	4.18562
2.81846	6.48148	0.0276396	4.18562
2.84556	6.50912	0	4.18562
2.85124	6.50912	0	4.27662
2.85756	6.50912	0	4.36761
2.85869	6.50912	0	4.4586
2.85916	6.50912	0	4.4586
2.8592	6.52294	0.0276396	4.4586
2.85923	6.55058	0	4.4586
2.86039	6.55058	0	4.4586
2.86076	6.55058	0	4.4586
2.86088	6.5644	0.0276396	4.4586
2.86473	6.59204	0	4.4586
2.87012	6.59204	0	4.4586
2.87021	6.59204	0	4.4586
2.87039	6.59204	0.0276396	4.4586
2.87039	6.60586	0.0552792	4.4586
2.87039	6.6335	0.0276396	4.4586
2.87357	6.66114	0	4.4586
2.87432	6.66114	0	4.4586
2.87432	6.67496	0.0276396	4.4586
2.89441	6.7026	0	4.4586
2.89482	6.7026	0	4.54959
2.9308	6.7026	0	4.73157
2.93134	6.7026	0	4.73157
2.93141	6.71642	0.0276396	4.73157
2.95878	6.74406	0	4.73157
2.96941	6.74406	0	4.73157
2.96963	6.74406	0	4.73157
2.96968	6.74406	0.0552792	4.73157
2.96983	6.7717	0.0276396	4.73157
2.98448	6.79934	0	4.73157
2.98514	6.79934	0	4.73157
2.98517	6.81316	0.0276396	4.73157
2.99193	6.8408	0	4.73157
2.99203	6.8408	0	4.73157
2.99206	6.85462	0.0276396	4.73157
3.02183	6.88226	0	4.73157
3.03226	6.88226	0	4.73157
3.03919	6.88226	0	4.82257
3.03953	6.88226	0	4.82257
3.04023	6.88226	0.0276396	4.82257
3.04026	6.89608	0.0552792	4.82257
3.04027	6.92371	0.0276396	4.82257
3.05754	6.95135	0	4.82257
3.05785	6.95135	0	4.82257
3.05787	6.95135	0.0276396	4.82257
3.05787	6.96517	0.0552792	4.82257
3.05789	6.99281	0.0276396	4.82257
3.08817	7.02045	0	4.82257
3.0908	7.02045	0	4.82257
3.13146	7.02045	0	5.00455
3.13896	7.02045	0	5.09554
3.17544	7.02045	0	5.18653
3.17547	7.02045	0	5.18653
3.17551	7.03427	0.0276396	5.18653
3.19746	7.06191	0	5.18653
3.19775	7.06191	0	5.18653
3.19776	7.06191	0.0552792	5.18653
3.19777	7.08955	0.0276396	5.18653
3.21211	7.11719	0	5.18653
3.21753	7.11719	0	5.18653
3.21792	7.11719	0	5.18653
3.21795	7.11719	0.0552792	5.18653
3.21798	7.14483	0.0276396	5.18653
3.24159	7.17247	0	5.18653
3.24448	7.17247	0	5.27753
3.27433	7.17247	0	5.36852
3.27516	7.17247	0	5.36852
3.27576	7.17247	0.0276396	5.36852
3.27578	7.18629	0.0552792	5.36852
3.27585	7.21393	0.0276396	5.36852
3.32038	7.24157	0	5.36852
3.34186	7.24157	0	5.36852
3.34307	7.24157	0	5.45951
3.35678	7.24157	0	5.64149
3.35706	7.24157	0	5.64149
3.35707	7.25539	0.0276396	5.64149
3.37133	7.28303	0	5.64149
3.37133	7.28303	0	5.64149
3.37289	7.28303	0.0276396	5.64149
3.37295	7.28303	0.0552792	5.64149
3.37304	7.31067	0.0276396	5.64149
3.40769	7.33831	0	5.64149
3.43976	7.33831	0	5.73248
3.44008	7.33831	0	5.73248
3.44022	7.35213	0.0276396	5.73248
3.45529	7.37977	0	5.73248
3.45529	7.37977	0	5.73248
3.45678	7.37977	0.0276396	5.73248
3.45678	7.39359	0.0552792	5.73248
3.45681	7.42123	0.0276396	5.73248
3.4797	7.44887	0	5.73248
3.48106	7.44887	0	5.73248
3.48145	7.44887	0	5.82348
3.48149	7.46269	0.0276396	5.82348
3.49971	7.49033	0	5.82348
3.50214	7.49033	0	6.00546
3.50252	7.49033	0	6.00546
3.50262	7.50415	0.0276396	6.00546
3.52954	7.53179	0	6.00546
3.56088	7.53179	0	6.09645
3.56695	7.53179	0	6.09645
3.56777	7.53179	0	6.09645
3.56779	7.53179	0.0552792	6.09645
3.56781	7.55943	0.0276396	6.09645
3.56799	7.58706	0	6.09645
3.56865	7.58706	0	6.09645
3.56894	7.58706	0.0276396	6.09645
3.56895	7.60088	0.0552792	6.09645
3.56896	7.62852	0.0276396	6.09645
3.60914	7.65616	0	6.09645
3.60933	7.65616	0	6.27843
3.60936	7.65616	0	6.36943
3.62487	7.65616	0	6.36943
3.6347	7.65616	0	6.36943
3.63519	7.65616	0	6.36943
3.63639	7.65616	0.0276396	6.36943
3.63661	7.65616	0.0552792	6.36943
3.63663	7.66998	0.0829187	6.36943
3.63664	7.69762	0.0552792	6.36943
3.63667	7.72526	0.0276396	6.36943
3.65518	7.7529	0	6.36943
3.65521	7.7529	0	6.36943
3.65522	7.7529	0.0276396	6.36943
3.6563	7.7529	0.0276396	6.55141
3.65685	7.7529	0.0552792	6.55141
3.65741	7.7529	0.0829187	6.55141
3.6577	7.7529	0.110558	6.55141
3.65771	7.76672	0.138198	6.55141
3.65772	7.79436	0.110558	6.55141
3.65773	7.822	0.0829187	6.55141
3.65779	7.84964	0.0552792	6.55141
3.6578	7.87728	0.0276396	6.55141
3.6618	7.90492	0	6.55141
3.66639	7.90492	0	6.6424
3.66641	7.90492	0	6.73339
3.66642	7.90492	0	6.73339
3.67483	7.90492	0	6.73339
3.67496	7.90492	0	6.73339
3.67498	7.91874	0.0276396	6.73339
3.68598	7.94638	0	6.73339
3.69064	7.94638	0	6.73339
3.73441	7.94638	0	6.82439
3.73447	7.94638	0	6.82439
3.73454	7.9602	0.0276396	6.82439
3.7366	7.98784	0	6.82439
3.7433	7.98784	0	6.91538
3.74408	7.98784	0	6.91538
3.74419	8.00166	0.0276396	6.91538
3.79842	8.0293	0	6.91538
3.80678	8.0293	0	7.00637
3.81538	8.0293	0	7.09736
3.81704	8.0293	0	7.09736
3.81845	8.0293	0.0276396	7.09736
3.81924	8.0293	0.0276396	7.09736
3.82052	8.0293	0.0552792	7.09736
3.82056	8.04312	0.0829187	7.09736
3.82057	8.07076	0.0552792	7.09736
3.82079	8.0984	0.0276396	7.09736
3.82099	8.0984	0.0276396	7.09736
3.82102	8.11222	0.0552792	7.09736
3.8239	8.13986	0.0276396	7.09736
3.82447	8.13986	0.0276396	7.09736
3.82461	8.15368	0.0552792	7.09736
3.8566	8.18132	0.0276396	7.09736
3.85663	8.18132	0.0276396	7.09736
3.85667	8.18132	0.0276396	7.09736
3.85696	8.20896	0	7.09736
3.85701	8.20896	0.0552792	7.09736
3.85703	8.23659	0.0276396	7.09736
3.90675	8.26423	0	7.09736
3.93902	8.26423	0	7.09736
3.93968	8.26423	0	7.09736
3.93968	8.26423	0.0552792	7.09736
3.93969	8.29187	0.0276396	7.09736
3.95118	8.31951	0	7.09736
3.9512	8.31951	0	7.09736
3.9518	8.31951	0.0276396	7.09736
3.95184	8.33333	0.0552792	7.09736
3.9519	8.36097	0.0276396	7.09736
3.95584	8.38861	0	7.09736
3.95586	8.38861	0	7.09736
3.95598	8.38861	0	7.09736
3.956	8.40243	0.0276396	7.09736
3.95643	8.43007	0	7.09736
3.98206	8.43007	0.0276396	7.09736
3.98269	8.43007	0.0276396	7.09736
3.9827	8.43007	0.0829187	7.09736
3.98271	8.45771	0.0552792	7.09736
3.99459	8.48535	0.0276396	7.09736
3.99478	8.48535	0.0276396	7.09736
3.99482	8.49917	0.0552792	7.09736
4.01508	8.52681	0.0276396	7.09736
4.01511	8.52681	0.0276396	7.09736
4.01537	8.55445	0	7.09736
4.01537	8.55445	0.0552792	7.09736
4.01544	8.58209	0.0276396	7.09736
4.01805	8.60973	0	7.09736
4.01825	8.60973	0	7.09736
4.01826	8.60973	0.0552792	7.09736
4.01832	8.63737	0.0276396	7.09736
4.02034	8.66501	0	7.09736
4.02051	8.66501	0	7.09736
4.02053	8.67883	0.0276396	7.09736
4.02054	8.70647	0	7.09736
4.03444	8.70647	0	7.09736
4.03553	8.70647	0	7.09736
4.03586	8.70647	0.0276396	7.09736
4.03587	8.72029	0.0552792	7.09736
4.03598	8.74793	0.0276396	7.09736
4.06395	8.77557	0	7.09736
4.06396	8.77557	0	7.18835
4.07795	8.77557	0	7.18835
4.07945	8.77557	0	7.18835
4.0795	8.78939	0.0276396	7.18835
4.09749	8.81703	0	7.18835
4.12842	8.81703	0	7.18835
4.17598	8.81703	0	7.27934
4.17621	8.81703	0	7.27934
4.17648	8.81703	0	7.27934
4.1765	8.83085	0.0276396	7.27934
4.20293	8.85849	0	7.27934
4.20312	8.85849	0	7.27934
4.20319	8.85849	0.0276396	7.27934
4.21801	8.88612	0	7.27934
4.2184	8.88612	0	7.27934
4.21907	8.88612	0.0276396	7.27934
4.22049	8.88612	0.0552792	7.27934
4.22063	8.88612	0.0829187	7.27934
4.22063	8.89994	0.110558	7.27934
4.22064	8.92758	0.0829187	7.27934
4.22064	8.95522	0.0552792	7.27934
4.22066	8.98286	0.0276396	7.27934
4.24302	9.0105	0	7.27934
4.24309	9.0105	0	7.46133
4.28357	9.0105	0	7.64331
4.28477	9.0105	0	7.64331
4.36656	9.0105	0	7.8253
4.39176	9.0105	0	7.8253
4.39283	9.0105	0	7.8253
4.39345	9.0105	0	7.8253
4.39348	9.02432	0.0276396	7.8253
4.3978	9.05196	0	7.8253
4.43478	9.05196	0	7.91629
4.43483	9.05196	0	7.91629
4.43485	9.06578	0.0276396	7.91629
4.44435	9.09342	0	7.91629
4.44549	9.09342	0	7.91629
4.44575	9.10724	0.0276396	7.91629
4.45342	9.13488	0	7.91629
4.55623	9.13488	0	7.91629
4.55697	9.13488	0	7.91629
4.55723	9.13488	0.0276396	7.91629
4.59687	9.13488	0.0552792	7.91629
4.59687	9.13488	0.0552792	8.00728
4.59687	9.16252	0.0276396	8.00728
4.59688	9.16252	0.0276396	8.00728
4.60643	9.19016	0	8.00728
4.6065	9.19016	0	8.00728
4.60653	9.20398	0.0276396	8.00728
4.63387	9.23162	0	8.00728
4.63394	9.23162	0	8.00728
4.63399	9.23162	0.0276396	8.00728
4.63401	9.24544	0.0552792	8.00728
4.63402	9.27308	0.0276396	8.00728
4.64329	9.30072	0	8.00728
4.64331	9.30072	0	8.00728
4.64333	9.31454	0.0276396	8.00728
4.66956	9.34218	0	8.00728
4.66989	9.34218	0	8.00728
4.67004	9.34218	0.0276396	8.00728
4.67005	9.356	0.0552792	8.00728
4.67014	9.38364	0.0276396	8.00728
4.67285	9.41128	0	8.00728
4.72077	9.41128	0	8.18926
4.74321	9.41128	0	8.28025
4.7461	9.41128	0	8.28025
4.74637	9.41128	0.0276396	8.28025
4.74639	9.41128	0.0552792	8.28025
4.74649	9.41128	0.0829187	8.28025
4.74712	9.41128	0.110558	8.28025
4.74728	9.41128	0.138198	8.28025
4.74732	9.41128	0.165837	8.28025
4.74895	9.41128	0.193477	8.28025
4.74897	9.41128	0.221117	8.28025
4.74899	9.41128	0.248756	8.28025
4.74899	9.43892	0.221117	8.28025
4.74914	9.43892	0.248756	8.28025
4.75421	9.46656	0.221117	8.28025
4.77101	9.46656	0.221117	8.37125
4.77102	9.46656	0.221117	8.37125
4.77102	9.4942	0.193477	8.37125
4.77103	9.52184	0.165837	8.37125
4.77103	9.54947	0.138198	8.37125
4.77104	9.57711	0.110558	8.37125
4.77105	9.60475	0.0829187	8.37125
4.77107	9.63239	0.0552792	8.37125
4.77115	9.66003	0.0276396	8.37125
4.77164	9.68767	0	8.37125
4.77165	9.70149	0.0276396	8.37125
4.77451	9.72913	0	8.37125
4.78679	9.72913	0	8.46224
4.78734	9.72913	0	8.46224
4.78747	9.72913	0.0276396	8.46224
4.78754	9.72913	0.0552792	8.46224
4.78821	9.72913	0.0829187	8.46224
4.78822	9.74295	0.110558	8.46224
4.78823	9.77059	0.0829187	8.46224
4.78829	9.79823	0.0552792	8.46224
4.78835	9.82587	0.0276396	8.46224
4.79085	9.85351	0	8.46224
4.79145	9.85351	0	8.55323
4.79231	9.85351	0	8.55323
4.79235	9.86733	0.0276396	8.55323
4.84378	9.89497	0	8.55323
4.84401	9.89497	0	8.55323
4.84405	9.89497	0.0552792	8.55323
4.84407	9.92261	0.0276396	8.55323
4.8794	9.95025	0	8.55323
4.87963	9.95025	0	8.55323
4.87977	9.96407	0.0276396	8.55323
4.88194	9.99171	0	8.55323
4.88523	9.99171	0	8.64422
4.95448	9.99171	0	8.64422
4.95495	9.99171	0	8.64422
4.95522	9.99171	0.0276396	8.64422
4.95625	9.99171	0.0552792	8.64422
4.95625	10.0055	0.0829187	8.64422
4.9563	10.0332	0.0552792	8.64422
4.95631	10.0608	0.0276396	8.64422
4.96982	10.0884	0	8.64422
5.00994	10.0884	0	8.64422
5.01008	10.0884	0	8.64422
5.01009	10.1023	0.0276396	8.64422
5.05747	10.1299	0	8.64422
5.05916	10.1299	0	8.64422
5.05953	10.1299	0	8.64422
5.05965	10.1299	0.0276396	8.64422
5.06062	10.1299	0.0552792	8.64422
5.06281	10.1299	0.0829187	8.64422
5.07792	10.1299	0.0829187	8.73521
5.07792	10.1299	0.0829187	8.82621
5.07793	10.1575	0.0552792	8.82621
5.07793	10.1852	0.0276396	8.82621
5.07794	10.1852	0.0276396	8.82621
5.09044	10.2128	0	8.82621
5.09051	10.2128	0	8.82621
5.09051	10.2266	0.0276396	8.82621
5.11476	10.2543	0	8.82621
5.11476	10.2543	0	8.82621
5.11481	10.2543	0.0552792	8.82621
5.11492	10.2819	0.0276396	8.82621
5.14415	10.3096	0	8.82621
5.14418	10.3096	0	8.82621
5.14671	10.3096	0	8.82621
5.14796	10.3096	0	8.9172
5.19022	10.3096	0	9.09918
5.1903	10.3096	0	9.09918
5.1903	10.3096	0.0552792	9.09918
5.1904	10.3372	0.0276396	9.09918
5.2067	10.3648	0	9.09918
5.20701	10.3648	0	9.09918
5.20702	10.3787	0.0276396	9.09918
5.21105	10.4063	0	9.09918
5.21117	10.4063	0	9.09918
5.21117	10.4063	0.0552792	9.09918
5.21119	10.4339	0.0276396	9.09918
5.23037	10.4616	0	9.09918
5.23091	10.4616	0	9.09918
5.23178	10.4616	0.0276396	9.09918
5.23183	10.4754	0.0552792	9.09918
5.23185	10.503	0.0276396	9.09918
5.23363	10.5307	0	9.09918
5.23431	10.5307	0	9.09918
5.23431	10.5445	0.0276396	9.09918
5.23547	10.5721	0	9.09918
5.24844	10.5721	0	9.28116
5.24889	10.5721	0	9.28116
5.24893	10.586	0.0276396	9.28116
5.29966	10.6136	0	9.28116
5.31352	10.6136	0	9.37216
5.33729	10.6136	0	9.55414
5.38229	10.6136	0	9.64513
5.40311	10.6136	0	9.82712
5.40334	10.6136	0	9.82712
5.40372	10.6136	0.0276396	9.82712
5.40463	10.6136	0.0552792	9.82712
5.40463	10.6136	0.0829187	9.82712
5.40464	10.6412	0.0552792	9.82712
5.40465	10.6689	0.0276396	9.82712
5.43212	10.6965	0	9.82712
5.44236	10.6965	0	10.0091
5.44632	10.6965	0	10.0091
5.44707	10.6965	0.0276396	10.0091
5.44708	10.7103	0.0552792	10.0091
5.44708	10.738	0.0276396	10.0091
5.45242	10.7656	0	10.0091
5.45314	10.7656	0	10.0091
5.45395	10.7656	0.0276396	10.0091
5.45399	10.7794	0.0552792	10.0091
5.45406	10.8071	0.0276396	10.0091
5.51088	10.8347	0	10.0091
5.5623	10.8347	0	10.1001
5.5632	10.8347	0	10.1001
5.56395	10.8347	0.0276396	10.1001
5.564	10.8485	0.0552792	10.1001
5.56403	10.8762	0.0276396	10.1001
5.6006	10.9038	0	10.1001
5.6006	10.9038	0	10.1001
5.60062	10.9176	0.0276396	10.1001
5.6059	10.9453	0	10.1001
5.61867	10.9453	0	10.1001
5.63794	10.9453	0	10.2821
5.63885	10.9453	0	10.2821
5.63886	10.9453	0	10.4641
5.63931	10.9453	0	10.4641
5.63941	10.9453	0.0276396	10.4641
5.63942	10.9591	0.0552792	10.4641
5.63946	10.9867	0.0276396	10.4641
5.63977	11.0144	0	10.4641
5.64018	11.0144	0	10.4641
5.64037	11.0282	0.0276396	10.4641
5.68839	11.0558	0	10.4641
5.82871	11.0558	0	10.5551
5.86589	11.0558	0	10.646
5.86872	11.0558	0	10.646
5.86875	11.0558	0.0552792	10.646
5.86876	11.0835	0.0276396	10.646
5.8723	11.1111	0	10.646
5.8883	11.1111	0	10.828
5.88844	11.1111	0	10.828
5.88905	11.1111	0.0276396	10.828
5.88912	11.1249	0.0552792	10.828
5.88914	11.1526	0.0276396	10.828
5.91215	11.1802	0	10.828
5.95414	11.1802	0	11.01
5.95421	11.1802	0	11.01
5.95425	11.194	0.0276396	11.01
5.96468	11.2217	0	11.01
5.98056	11.2217	0	11.101
5.99262	11.2217	0	11.283
6.00281	11.2217	0	11.465
6.01799	11.2217	0	11.556
6.03679	11.2217	0	11.647
6.05241	11.2217	0	11.647
6.05288	11.2217	0	11.647
6.05291	11.2355	0.0276396	11.647
6.05867	11.2631	0	11.647
6.05892	11.2631	0	11.647
6.05893	11.2769	0.0276396	11.647
6.1166	11.3046	0	11.647
6.11674	11.3046	0	11.647
6.11678	11.3046	0	11.647
6.11712	11.3046	0.0276396	11.647
6.11795	11.3046	0.0552792	11.647
6.11848	11.3046	0.0829187	11.647
6.11852	11.3046	0.138198	11.647
6.11858	11.3322	0.110558	11.647
6.1186	11.3599	0.0829187	11.647
6.12153	11.3875	0.0552792	11.647
6.12155	11.3875	0.0552792	11.647
6.12176	11.3875	0.0829187	11.647
6.12176	11.3875	0.110558	11.647
6.12179	11.4151	0.0829187	11.647
6.12183	11.4151	0.0829187	11.647
6.12923	11.4428	0.0552792	11.647
6.12923	11.4428	0.0552792	11.647
6.12925	11.4704	0.0276396	11.647
6.12946	11.4981	0	11.647
6.13015	11.4981	0.0276396	11.647
6.13024	11.4981	0.0552792	11.647
6.13082	11.4981	0.0829187	11.647
6.13082	11.5119	0.110558	11.647
6.13086	11.5395	0.0829187	11.647
6.13088	11.5672	0.0552792	11.647
6.13089	11.5948	0.0276396	11.647
6.13961	11.6224	0	11.647
6.14654	11.6224	0	11.7379
6.14686	11.6224	0	11.7379
6.1469	11.6363	0.0276396	11.7379
6.19034	11.6639	0	11.7379
6.19164	11.6639	0	11.8289
6.20428	11.6639	0	11.9199
6.20465	11.6639	0	11.9199
6.20468	11.6777	0.0276396	11.9199
6.2047	11.7054	0	11.9199
6.2094	11.7054	0	11.9199
6.21007	11.7054	0	11.9199
6.21107	11.7054	0.0276396	11.9199
6.21107	11.7192	0.0552792	11.9199
6.2111	11.7468	0.0276396	11.9199
6.21163	11.7745	0	11.9199
6.27409	11.7745	0	12.0109
6.27491	11.7745	0	12.0109
6.27499	11.7745	0.0276396	12.0109
6.27518	11.7745	0.0552792	12.0109
6.2752	11.7883	0.0829187	12.0109
6.27522	11.8159	0.0552792	12.0109
6.27523	11.8436	0.0276396	12.0109
6.36689	11.8712	0	12.0109
6.36775	11.8712	0	12.0109
6.36776	11.885	0.0276396	12.0109
6.36777	11.9127	0	12.0109
6.38129	11.9127	0	12.0109
6.40448	11.9127	0	12.1019
6.40452	11.9127	0	12.1929
6.40454	11.9127	0	12.1929
6.40455	11.9265	0.0276396	12.1929
6.40589	11.9541	0	12.1929
6.40656	11.9541	0	12.1929
6.40656	11.9541	0.0552792	12.1929
6.40657	11.9818	0.0276396	12.1929
6.45987	12.0094	0	12.1929
6.46029	12.0094	0	12.3749
6.47824	12.0094	0	12.4659
6.48605	12.0094	0	12.4659
6.48631	12.0094	0	12.4659
6.48632	12.0094	0.0552792	12.4659
6.48636	12.037	0.0276396	12.4659
6.49498	12.0647	0	12.4659
6.49851	12.0647	0	12.6479
6.49902	12.0647	0	12.6479
6.49942	12.0647	0.0276396	12.6479
6.49944	12.0647	0.0829187	12.6479
6.49949	12.0923	0.0552792	12.6479
6.49961	12.12	0.0276396	12.6479
6.52606	12.1476	0	12.6479
6.52632	12.1476	0	12.6479
6.52633	12.1614	0.0276396	12.6479
6.55945	12.1891	0	12.6479
6.56004	12.1891	0	12.6479
6.56004	12.2029	0.0276396	12.6479
6.57559	12.2305	0	12.6479
6.57732	12.2305	0	12.8298
6.5994	12.2305	0	12.9208
6.60043	12.2305	0	12.9208
6.60044	12.2305	0.0552792	12.9208
6.60046	12.2582	0.0276396	12.9208
6.61105	12.2858	0	12.9208
6.61175	12.2858	0	12.9208
6.61175	12.2858	0.0552792	12.9208
6.61189	12.3134	0.0276396	12.9208
6.69231	12.3411	0	12.9208
6.69256	12.3411	0	12.9208
6.69258	12.3549	0.0276396	12.9208
6.7051	12.3825	0	12.9208
6.70551	12.3825	0	12.9208
6.70552	12.3964	0.0276396	12.9208
6.72561	12.424	0	12.9208
6.73839	12.424	0	13.0118
6.7384	12.424	0	13.1938
6.74533	12.424	0	13.1938
6.74597	12.424	0	13.1938
6.746	12.4378	0.0276396	13.1938
6.74676	12.4655	0	13.1938
6.75821	12.4655	0	13.2848
6.75881	12.4655	0	13.2848
6.75886	12.4793	0.0276396	13.2848
6.76554	12.5069	0	13.2848
6.77466	12.5069	0	13.4668
6.77668	12.5069	0	13.4668
6.7949	12.5069	0	13.5578
6.79533	12.5069	0	13.5578
6.79546	12.5207	0.0276396	13.5578
6.80572	12.5484	0	13.5578
6.87236	12.5484	0	13.6488
6.87417	12.5484	0	13.6488
6.87423	12.5484	0.0276396	13.6488
6.87423	12.5622	0.0552792	13.6488
6.8743	12.5898	0.0276396	13.6488
6.8973	12.6175	0	13.6488
6.8973	12.6175	0	13.7398
6.8973	12.6175	0	13.7398
6.92564	12.6175	0	13.7398
6.92613	12.6175	0	13.7398
6.92613	12.6175	0.0552792	13.7398
6.92613	12.6451	0.0276396	13.7398
6.92992	12.6727	0	13.7398
6.93082	12.6727	0	13.7398
6.93116	12.6727	0.0276396	13.7398
6.93402	12.6727	0.0552792	13.7398
6.93422	12.6727	0.0829187	13.7398
6.93433	12.6727	0.110558	13.7398
6.95947	12.6727	0.138198	13.7398
6.95948	12.6727	0.138198	13.7398
6.95955	12.7004	0.110558	13.7398
6.95957	12.728	0.0829187	13.7398
6.96094	12.728	0.0829187	13.7398
6.96094	12.728	0.110558	13.7398
6.96169	12.7557	0.0829187	13.7398
6.96169	12.7557	0.138198	13.7398
6.9617	12.7833	0.110558	13.7398
6.96171	12.8109	0.0829187	13.7398
6.96171	12.8386	0.0552792	13.7398
6.96175	12.8662	0.0276396	13.7398
6.98425	12.8939	0	13.7398
7.00448	12.8939	0	13.8308
7.02894	12.8939	0	14.0127
7.02945	12.8939	0	14.0127
7.02948	12.9077	0.0276396	14.0127
7.0377	12.9353	0	14.0127
7.03824	12.9353	0	14.0127
7.03826	12.9353	0.0552792	14.0127
7.03839	12.963	0.0276396	14.0127
7.05302	12.9906	0	14.0127
7.0533	12.9906	0	14.0127
7.05335	13.0044	0.0276396	14.0127
7.08188	13.0321	0	14.0127
7.08227	13.0321	0	14.0127
7.08232	13.0459	0.0276396	14.0127
7.11569	13.0735	0	14.0127
7.13116	13.0735	0	14.1947
7.13119	13.0735	0	14.1947
7.13161	13.0735	0.0276396	14.1947
7.13161	13.0873	0.0552792	14.1947
7.13162	13.115	0.0276396	14.1947
7.13913	13.1426	0	14.1947
7.13977	13.1426	0	14.1947
7.13981	13.1564	0.0276396	14.1947
7.1628	13.1841	0	14.1947
7.16969	13.1841	0	14.2857
7.19889	13.1841	0	14.3767
7.1991	13.1841	0	14.3767
7.1992	13.1979	0.0276396	14.3767
7.2183	13.2255	0	14.3767
7.22153	13.2255	0	14.4677
7.2481	13.2255	0	14.5587
7.26472	13.2255	0	14.7407
7.26478	13.2255	0	14.7407
7.2648	13.2394	0.0276396	14.7407
7.29474	13.267	0	14.7407
7.29625	13.267	0	14.7407
7.29626	13.267	0.0552792	14.7407
7.29627	13.2946	0.0276396	14.7407
7.35278	13.3223	0	14.7407
7.39445	13.3223	0	14.8317
7.3946	13.3223	0	14.8317
7.39472	13.3361	0.0276396	14.8317
7.44178	13.3637	0	14.8317
7.44199	13.3637	0	14.8317
7.44202	13.3776	0.0276396	14.8317
7.49552	13.4052	0	14.8317
7.51844	13.4052	0	14.9227
7.51845	13.4052	0	14.9227
7.5185	13.419	0.0276396	14.9227
7.55461	13.4467	0	14.9227
7.55468	13.4467	0	14.9227
7.55498	13.4467	0.0276396	14.9227
7.555	13.4605	0.0552792	14.9227
7.55501	13.4881	0.0276396	14.9227
7.56248	13.5158	0	14.9227
7.56434	13.5158	0	15.0136
7.56452	13.5158	0	15.0136
7.56458	13.5158	0.0552792	15.0136
7.5646	13.5434	0.0276396	15.0136
7.64131	13.571	0	15.0136
7.66079	13.571	0	15.1956
7.66152	13.571	0	15.1956
7.66166	13.571	0.0276396	15.1956
7.66271	13.571	0.0552792	15.1956
7.66324	13.571	0.0829187	15.1956
7.66409	13.571	0.110558	15.1956
7.66425	13.571	0.138198	15.1956
7.66447	13.571	0.165837	15.1956
7.66449	13.5849	0.193477	15.1956
7.6645	13.6125	0.165837	15.1956
7.6645	13.6401	0.138198	15.1956
7.66452	13.6678	0.110558	15.1956
7.66452	13.6954	0.0829187	15.1956
7.66453	13.7231	0.0552792	15.1956
7.66454	13.7507	0.0276396	15.1956
7.66602	13.7783	0	15.1956
7.7003	13.7783	0	15.3776
7.70212	13.7783	0	15.3776
7.70216	13.7922	0.0276396	15.3776
7.70698	13.8198	0	15.3776
7.72126	13.8198	0	15.5596
7.72285	13.8198	0	15.7416
7.73579	13.8198	0	15.7416
7.73693	13.8198	0	15.7416
7.73706	13.8198	0.0276396	15.7416
7.73725	13.8198	0.0552792	15.7416
7.73725	13.8336	0.0829187	15.7416
7.73731	13.8612	0.0552792	15.7416
7.73731	13.8889	0.0276396	15.7416
7.75391	13.9165	0	15.7416
7.75422	13.9165	0	15.7416
7.75436	13.9165	0	15.7416
7.75439	13.9303	0.0276396	15.7416
7.7544	13.958	0	15.7416
7.75441	13.958	0.0552792	15.7416
7.75443	13.9856	0.0276396	15.7416
7.80317	14.0133	0	15.7416
7.80335	14.0133	0	15.7416
7.80337	14.0271	0.0276396	15.7416
7.83694	14.0547	0	15.7416
7.83703	14.0547	0	15.7416
7.83705	14.0685	0.0276396	15.7416
7.85211	14.0962	0	15.7416
7.90709	14.0962	0	15.8326
7.90748	14.0962	0	15.8326
7.90753	14.0962	0.0552792	15.8326
7.90764	14.1238	0.0276396	15.8326
7.91619	14.1515	0	15.8326
8.00992	14.1515	0	16.0146
8.02983	14.1515	0	16.1056
8.02993	14.1515	0	16.1056
8.02997	14.1653	0.0276396	16.1056
8.05439	14.1929	0	16.1056
8.06216	14.1929	0	16.1965
8.06223	14.1929	0	16.1965
8.06224	14.1929	0.0552792	16.1965
8.06226	14.2206	0.0276396	16.1965
8.11633	14.2482	0	16.1965
8.11683	14.2482	0	16.1965
8.11683	14.2482	0.0552792	16.1965
8.11684	14.2758	0.0276396	16.1965
8.16916	14.3035	0	16.1965
8.16923	14.3035	0	16.1965
8.16927	14.3035	0.0276396	16.1965
8.16928	14.3173	0.0552792	16.1965
8.16929	14.3449	0.0276396	16.1965
8.19134	14.3726	0	16.1965
8.19158	14.3726	0	16.1965
8.19166	14.3864	0.0276396	16.1965
8.2079	14.414	0	16.1965
8.20823	14.414	0	16.1965
8.20827	14.4279	0.0276396	16.1965
8.26042	14.4555	0	16.1965
8.26131	14.4555	0	16.1965
8.26135	14.4693	0.0276396	16.1965
8.27577	14.497	0	16.1965
8.30702	14.497	0	16.3785
8.38735	14.497	0	16.4695
8.38757	14.497	0	16.4695
8.38757	14.5108	0.0276396	16.4695
8.39788	14.5384	0	16.4695
8.43345	14.5384	0	16.5605
8.43372	14.5384	0	16.5605
8.43399	14.5384	0.0276396	16.5605
8.43401	14.5522	0.0552792	16.5605
8.43401	14.5799	0.0276396	16.5605
8.45165	14.6075	0	16.5605
8.46005	14.6075	0	16.7425
8.49297	14.6075	0	16.8335
8.49307	14.6075	0	16.8335
8.49312	14.6213	0.0276396	16.8335
8.63958	14.649	0	16.8335
8.64954	14.649	0	16.9245
8.74631	14.649	0	17.1065
8.76017	14.649	0	17.2884
8.76044	14.649	0	17.2884
8.76047	14.649	0.0276396	17.2884
8.761	14.649	0.0552792	17.2884
8.76116	14.649	0.0829187	17.2884
8.76148	14.649	0.110558	17.2884
8.76159	14.649	0.138198	17.2884
8.7616	14.6628	0.165837	17.2884
8.76161	14.6904	0.138198	17.2884
8.76162	14.7181	0.110558	17.2884
8.76163	14.7457	0.0829187	17.2884
8.76168	14.7734	0.0552792	17.2884
8.7617	14.801	0.0276396	17.2884
8.77407	14.8286	0	17.2884
8.77437	14.8286	0	17.2884
8.77465	14.8286	0	17.2884
8.77466	14.8286	0.0552792	17.2884
8.77472	14.8563	0.0276396	17.2884
8.77477	14.8839	0	17.2884
8.79903	14.8839	0	17.2884
8.7992	14.8839	0	17.2884
8.79925	14.8839	0.0552792	17.2884
8.79932	14.9116	0.0276396	17.2884
8.81593	14.9392	0	17.2884
8.81604	14.9392	0	17.2884
8.81605	14.9392	0.0552792	17.2884
8.81605	14.9668	0.0276396	17.2884
8.88848	14.9945	0	17.2884
8.88897	14.9945	0	17.2884
8.88898	15.0083	0.0276396	17.2884
8.92596	15.0359	0	17.2884
8.92655	15.0359	0	17.2884
8.92687	15.0359	0.0276396	17.2884
8.92689	15.0498	0.0552792	17.2884
8.92692	15.0498	0.0552792	17.2884
8.92693	15.0774	0.0276396	17.2884
8.92813	15.105	0	17.2884
8.92834	15.105	0	17.2884
8.92838	15.105	0.0276396	17.2884
8.92842	15.1189	0.0552792	17.2884
8.92844	15.1465	0.0276396	17.2884
9.0141	15.1741	0	17.2884
9.02073	15.1741	0	17.4704
9.02086	15.1741	0	17.4704
9.02087	15.1879	0.0276396	17.4704
9.0458	15.2156	0	17.4704
9.05926	15.2156	0	17.5614
9.05964	15.2156	0	17.5614
9.05966	15.2156	0.0552792	17.5614
9.05969	15.2432	0.0276396	17.5614
9.08388	15.2709	0	17.5614
9.08396	15.2709	0	17.5614
9.08401	15.2847	0.0276396	17.5614
9.10864	15.3123	0	17.5614
9.1365	15.3123	0	17.6524
9.16284	15.3123	0	17.8344
9.23298	15.3123	0	18.0164
9.23608	15.3123	0	18.0164
9.23609	15.3123	0.0552792	18.0164
9.23613	15.34	0.0276396	18.0164
9.23613	15.3676	0	18.0164
9.35126	15.3676	0	18.0164
9.35185	15.3676	0	18.0164
9.35186	15.3814	0.0276396	18.0164
9.43242	15.4091	0	18.0164
9.43244	15.4091	0	18.1074
9.43245	15.4091	0	18.1074
9.44767	15.4091	0	18.1074
9.44812	15.4091	0	18.1074
9.44814	15.4229	0.0276396	18.1074
9.47131	15.4505	0	18.1074
9.47133	15.4505	0	18.1074
9.47141	15.4643	0.0276396	18.1074
9.58741	15.492	0	18.1074
9.58741	15.492	0	18.1074
9.58745	15.492	0.0552792	18.1074
9.58748	15.5196	0.0276396	18.1074
9.60942	15.5473	0	18.1074
9.64086	15.5473	0	18.1074
9.64475	15.5473	0	18.2894
9.65927	15.5473	0	18.4713
9.65936	15.5473	0	18.4713
9.65937	15.5473	0.0552792	18.4713
9.65939	15.5473	0.0552792	18.6533
9.65942	15.5749	0.0276396	18.6533
9.69704	15.6025	0	18.6533
9.69771	15.6025	0	18.6533
9.69783	15.6164	0.0276396	18.6533
9.73307	15.644	0	18.6533
9.73332	15.644	0	18.6533
9.73337	15.644	0.0552792	18.6533
9.73339	15.6716	0.0276396	18.6533
9.81929	15.6993	0	18.6533
9.83328	15.6993	0	18.7443
9.89925	15.6993	0	18.8353
9.89964	15.6993	0	18.8353
9.89967	15.6993	0.0552792	18.8353
9.89968	15.7269	0.0276396	18.8353
9.95333	15.7546	0	18.8353
9.9554	15.7546	0	18.8353
9.95542	15.7546	0.0552792	18.8353
9.95547	15.7822	0.0276396	18.8353
9.97899	15.8098	0	18.8353
10.006	15.8098	0	19.0173
10.0061	15.8098	0	19.0173
10.0062	15.8098	0.0552792	19.0173
10.0062	15.8375	0.0276396	19.0173
10.0262	15.8651	0	19.0173
10.0264	15.8651	0	19.0173
10.0264	15.8651	0.0552792	19.0173
10.0265	15.8928	0.0276396	19.0173
10.0321	15.9204	0	19.0173
10.0332	15.9204	0	19.0173
10.0332	15.9342	0.0276396	19.0173
10.2133	15.9619	0	19.0173
10.2149	15.9619	0	19.0173
10.2149	15.9757	0.0276396	19.0173
10.2465	16.0033	0	19.0173
10.2482	16.0033	0	19.0173
10.2497	16.0033	0.0276396	19.0173
10.2497	16.0171	0.0552792	19.0173
10.2497	16.0448	0.0276396	19.0173
10.2761	16.0724	0	19.0173
10.2766	16.0724	0	19.0173
10.2767	16.0724	0.0552792	19.0173
10.2767	16.1001	0.0276396	19.0173
10.2957	16.1277	0	19.0173
10.3458	16.1277	0	19.1083
10.3461	16.1277	0	19.1083
10.3461	16.1277	0.0552792	19.1083
10.3461	16.1553	0.0276396	19.1083
10.4442	16.183	0	19.1083
10.4447	16.183	0	19.1083
10.4447	16.183	0.0552792	19.1083
10.4447	16.2106	0.0276396	19.1083
10.6343	16.2383	0	19.1083
10.6344	16.2383	0	19.1083
10.6344	16.2521	0.0276396	19.1083
10.6583	16.2797	0	19.1083
10.6595	16.2797	0	19.1083
10.6595	16.2935	0.0276396	19.1083
10.7085	16.3212	0	19.1083
10.7086	16.3212	0	19.1083
10.7088	16.3212	0.0276396	19.1083
10.7088	16.335	0.0552792	19.1083
10.7089	16.3626	0.0276396	19.1083
10.7245	16.3903	0	19.1083
10.7246	16.3903	0	19.1083
10.7246	16.4041	0.0276396	19.1083
10.7432	16.4317	0	19.1083
10.7438	16.4317	0	19.1083
10.7439	16.4317	0.0276396	19.1083
10.7439	16.4456	0.0552792	19.1083
10.744	16.4732	0.0276396	19.1083
10.7764	16.5008	0	19.1083
10.7968	16.5008	0	19.1993
10.797	16.5008	0	19.1993
10.7976	16.5008	0.0276396	19.1993
10.7976	16.5146	0.0552792	19.1993
10.7977	16.5423	0.0276396	19.1993
10.9553	16.5699	0	19.1993
11.0391	16.5699	0	19.3813
11.0414	16.5699	0	19.3813
11.0414	16.5699	0.0552792	19.3813
11.0415	16.5976	0.0276396	19.3813
11.0745	16.6252	0	19.3813
11.1415	16.6252	0	19.4722
11.1662	16.6252	0	19.6542
11.1662	16.6252	0	19.6542
11.1662	16.639	0.0276396	19.6542
11.1699	16.6667	0	19.6542
11.1949	16.6667	0	19.8362
11.1956	16.6667	0	19.8362
11.1957	16.6805	0.0276396	19.8362
11.2228	16.7081	0	19.8362
11.2235	16.7081	0	19.8362
11.2236	16.7219	0.0276396	19.8362
11.3043	16.7496	0	19.8362
11.3055	16.7496	0	19.8362
11.3063	16.7496	0.0276396	19.8362
11.3063	16.7634	0.0552792	19.8362
11.3063	16.791	0.0276396	19.8362
11.3552	16.8187	0	19.8362
11.3553	16.8187	0	19.8362
11.3554	16.8325	0.0276396	19.8362
11.3855	16.8601	0	19.8362
11.3924	16.8601	0	20.0182
11.3927	16.8601	0	20.0182
11.3927	16.8601	0.0552792	20.0182
11.3927	16.8878	0.0276396	20.0182
11.4329	16.9154	0	20.0182
11.433	16.9154	0	20.0182
11.4335	16.9154	0.0276396	20.0182
11.4335	16.9292	0.0552792	20.0182
11.4335	16.9569	0.0276396	20.0182
11.4434	16.9845	0	20.0182
11.4494	16.9845	0	20.1092
11.4663	16.9845	0	20.2912
11.4672	16.9845	0	20.2912
11.4672	16.9845	0.0552792	20.2912
11.4673	17.0122	0.0276396	20.2912
11.5035	17.0398	0	20.2912
11.5038	17.0398	0	20.2912
11.5038	17.0536	0.0276396	20.2912
11.5084	17.0813	0	20.2912
11.5226	17.0813	0	20.3822
11.5226	17.0813	0	20.3822
11.5226	17.0813	0.0552792	20.3822
11.5227	17.1089	0.0276396	20.3822
11.5227	17.1089	0.0276396	20.3822
11.631	17.1365	0	20.3822
11.6386	17.1365	0	20.5641
11.6389	17.1365	0	20.5641
11.6389	17.1504	0.0276396	20.5641
11.642	17.178	0	20.5641
11.642	17.178	0	20.5641
11.642	17.178	0.0552792	20.5641
11.6421	17.2056	0.0276396	20.5641
11.6533	17.2333	0	20.5641
11.6533	17.2333	0	20.5641
11.6534	17.2333	0.0276396	20.5641
11.6534	17.2471	0.0552792	20.5641
11.6535	17.2747	0.0276396	20.5641
11.7088	17.3024	0	20.5641
11.7089	17.3024	0	20.5641
11.7101	17.3024	0.0276396	20.5641
11.7112	17.3024	0.0552792	20.5641
11.7112	17.3024	0.110558	20.5641
11.7113	17.33	0.0829187	20.5641
11.7113	17.3577	0.0552792	20.5641
11.7114	17.3853	0.0276396	20.5641
11.7807	17.4129	0	20.5641
11.781	17.4129	0	20.5641
11.7811	17.4268	0.0276396	20.5641
11.792	17.4544	0	20.5641
11.7927	17.4544	0	20.5641
11.7928	17.4682	0.0276396	20.5641
11.8056	17.4959	0	20.5641
11.8057	17.4959	0	20.5641
11.8057	17.5097	0.0276396	20.5641
11.9713	17.5373	0	20.5641
12.0286	17.5373	0	20.7461
12.029	17.5373	0	20.7461
12.0291	17.5511	0.0276396	20.7461
12.0845	17.5788	0	20.7461
12.1383	17.5788	0	20.9281
12.1389	17.5788	0	20.9281
12.139	17.5926	0.0276396	20.9281
12.14	17.6202	0	20.9281
12.1415	17.6202	0	20.9281
12.1418	17.6202	0.0276396	20.9281
12.1419	17.6341	0.0552792	20.9281
12.1419	17.6617	0.0276396	20.9281
12.1998	17.6893	0	20.9281
12.2	17.6893	0	20.9281
12.201	17.6893	0.0276396	20.9281
12.201	17.7032	0.0552792	20.9281
12.2011	17.7308	0.0276396	20.9281
12.2636	17.7584	0	20.9281
12.2638	17.7584	0	20.9281
12.2638	17.7722	0.0276396	20.9281
12.269	17.7999	0	20.9281
12.2742	17.7999	0	21.1101
12.2773	17.7999	0	21.1101
12.2774	17.7999	0.0552792	21.1101
12.2775	17.8275	0.0276396	21.1101
12.279	17.8552	0	21.1101
12.2801	17.8552	0	21.2921
12.3522	17.8552	0	21.3831
12.3524	17.8552	0	21.3831
12.353	17.8552	0.0276396	21.3831
12.353	17.8552	0.0552792	21.3831
12.353	17.8552	0.110558	21.3831
12.353	17.8828	0.0829187	21.3831
12.353	17.9104	0.0552792	21.3831
12.353	17.9381	0.0276396	21.3831
12.4526	17.9657	0	21.3831
12.4528	17.9657	0	21.3831
12.4532	17.9657	0.0276396	21.3831
12.4533	17.9795	0.0552792	21.3831
12.4533	17.9795	0.0552792	21.3831
12.4533	18.0072	0.0276396	21.3831
12.4981	18.0348	0	21.3831
12.536	18.0348	0	21.5651
12.5362	18.0348	0	21.5651
12.5362	18.0348	0.0552792	21.5651
12.5363	18.0625	0.0276396	21.5651
12.544	18.0901	0	21.5651
12.544	18.0901	0	21.5651
12.566	18.0901	0.0276396	21.5651
12.6735	18.0901	0.0276396	21.6561
12.6735	18.0901	0.0276396	21.838
12.7278	18.1177	0	21.838
12.7279	18.1177	0	21.838
12.7279	18.1316	0.0276396	21.838
12.728	18.1592	0	21.838
12.759	18.1592	0	21.838
12.7597	18.1592	0	21.838
12.7599	18.1592	0.0276396	21.838
12.76	18.173	0.0552792	21.838
12.7601	18.2007	0.0276396	21.838
12.7622	18.2283	0	21.838
12.7624	18.2283	0	21.838
12.7624	18.2283	0.0552792	21.838
12.7624	18.2559	0.0276396	21.838
12.7689	18.2836	0	21.838
12.7692	18.2836	0	21.838
12.7693	18.2974	0.0276396	21.838
12.8995	18.325	0	21.838
12.9	18.325	0	21.838
12.9	18.3389	0.0276396	21.838
12.9404	18.3665	0	21.838
12.9409	18.3665	0	21.838
12.9415	18.3665	0.0276396	21.838
12.9415	18.3803	0.0552792	21.838
12.9416	18.408	0.0276396	21.838
12.9877	18.4356	0	21.838
12.9879	18.4356	0	21.838
12.988	18.4356	0.0276396	21.838
12.9884	18.4356	0.0552792	21.838
12.9884	18.4356	0.0829187	21.838
12.9884	18.4632	0.0552792	21.838
12.9885	18.4909	0.0276396	21.838
13.0814	18.5185	0	21.838
13.0816	18.5185	0	21.838
13.0817	18.5185	0.0276396	21.838
13.0819	18.5185	0.0552792	21.838
13.0819	18.5323	0.0829187	21.838
13.082	18.56	0.0552792	21.838
13.0821	18.5876	0.0276396	21.838
13.1551	18.6153	0	21.838
13.1552	18.6153	0	21.838
13.156	18.6153	0.0276396	21.838
13.1567	18.6153	0.0552792	21.838
13.2786	18.6153	0.0829187	21.838
13.2786	18.6153	0.0829187	21.929
13.2786	18.6429	0.0552792	21.929
13.2786	18.6705	0.0276396	21.929
13.2861	18.6982	0	21.929
13.2863	18.6982	0	21.929
13.2865	18.6982	0.0276396	21.929
13.2865	18.712	0.0552792	21.929
13.2865	18.7396	0.0276396	21.929
13.3193	18.7673	0	21.929
13.3197	18.7673	0	21.929
13.3198	18.7673	0.0552792	21.929
13.3198	18.7949	0.0276396	21.929
13.35	18.8226	0	21.929
13.41	18.8226	0	22.111
13.4107	18.8226	0	22.111
13.4111	18.8226	0.0276396	22.111
13.4114	18.8226	0.0552792	22.111
13.4114	18.8364	0.0829187	22.111
13.4115	18.864	0.0552792	22.111
13.4116	18.8917	0.0276396	22.111
13.4117	18.9193	0	22.111
13.4236	18.9193	0	22.111
13.4236	18.9193	0	22.202
13.5248	18.9193	0	22.202
13.5249	18.9193	0	22.202
13.525	18.9331	0.0276396	22.202
13.5263	18.9608	0	22.202
13.5306	18.9608	0	22.293
13.5306	18.9608	0	22.293
13.6907	18.9608	0.0276396	22.293
13.6908	18.9608	0.0276396	22.293
13.6909	18.9884	0	22.293
13.6909	18.9884	0.0276396	22.293
13.691	19.0022	0.0552792	22.293
13.691	19.0299	0.0276396	22.293
13.7928	19.0575	0	22.293
13.8137	19.0575	0	22.384
13.8137	19.0575	0	22.384
13.8138	19.0575	0.0552792	22.384
13.8138	19.0851	0.0276396	22.384
13.8791	19.1128	0	22.384
13.88	19.1128	0	22.384
13.8806	19.1128	0	22.566
13.8808	19.1128	0.0276396	22.566
13.8808	19.1266	0.0552792	22.566
13.8809	19.1542	0.0276396	22.566
13.9252	19.1819	0	22.566
13.9254	19.1819	0	22.566
13.9255	19.1957	0.0276396	22.566
13.9378	19.2233	0	22.566
13.9389	19.2233	0	22.566
13.9389	19.2371	0.0276396	22.566
14.0449	19.2648	0	22.566
14.0713	19.2648	0	22.657
14.0715	19.2648	0	22.657
14.0715	19.2648	0.0552792	22.657
14.0716	19.2924	0.0276396	22.657
14.0948	19.3201	0	22.657
14.0953	19.3201	0	22.657
14.0953	19.3339	0.0276396	22.657
14.1028	19.3615	0	22.657
14.103	19.3615	0	22.657
14.1031	19.3753	0.0276396	22.657
14.1388	19.403	0	22.657
14.1797	19.403	0	22.8389
14.1805	19.403	0	22.8389
14.1805	19.403	0.0276396	22.8389
14.2028	19.4306	0	22.8389
14.2028	19.4306	0	22.8389
14.2029	19.4444	0.0276396	22.8389
14.2257	19.4721	0	22.8389
14.2263	19.4721	0	22.8389
14.2263	19.4859	0.0276396	22.8389
14.3795	19.5135	0	22.8389
14.3803	19.5135	0	22.8389
14.3803	19.5274	0.0276396	22.8389
14.3915	19.555	0	22.8389
14.4464	19.555	0	23.0209
14.4466	19.555	0	23.0209
14.4466	19.555	0.0552792	23.0209
14.4466	19.5826	0.0276396	23.0209
14.4492	19.6103	0	23.0209
14.4492	19.6103	0	23.0209
14.4495	19.6103	0.0276396	23.0209
14.4495	19.6241	0.0552792	23.0209
14.4496	19.6517	0.0276396	23.0209
14.5198	19.6794	0	23.0209
14.52	19.6794	0	23.0209
14.52	19.6794	0.0552792	23.0209
14.52	19.707	0.0276396	23.0209
14.6042	19.7347	0	23.0209
14.6044	19.7347	0	23.0209
14.6044	19.7485	0.0276396	23.0209
14.6085	19.7761	0	23.0209
14.6506	19.7761	0	23.1119
14.6516	19.7761	0	23.1119
14.6516	19.7899	0.0276396	23.1119
14.6749	19.8176	0	23.1119
14.8626	19.8176	0	23.2939
14.8628	19.8176	0	23.2939
14.8629	19.8314	0.0276396	23.2939
14.8735	19.859	0	23.2939
14.8737	19.859	0	23.2939
14.8737	19.859	0.0276396	23.2939
14.8738	19.8729	0.0552792	23.2939
14.8738	19.9005	0.0276396	23.2939
14.8789	19.9281	0	23.2939
14.8799	19.9281	0	23.2939
14.8799	19.942	0.0276396	23.2939
14.886	19.9696	0	23.2939
14.8861	19.9696	0	23.2939
14.8865	19.9696	0	23.2939
14.8865	19.9834	0.0276396	23.2939
15.0827	20.0111	0	23.2939
15.1541	20.0111	0	23.3849
15.1544	20.0111	0	23.3849
15.1544	20.0249	0.0276396	23.3849
15.1649	20.0525	0	23.3849
15.1653	20.0525	0	23.3849
15.1653	20.0525	0.0552792	23.3849
15.1654	20.0802	0.0276396	23.3849
15.2254	20.1078	0	23.3849
15.234	20.1078	0	23.5669
15.2346	20.1078	0	23.5669
15.2348	20.1078	0.0276396	23.5669
15.2349	20.1216	0.0552792	23.5669
15.2349	20.1493	0.0276396	23.5669
15.3071	20.1769	0	23.5669
15.3079	20.1769	0	23.5669
15.3088	20.1769	0.0276396	23.5669
15.3088	20.1907	0.0552792	23.5669
15.3088	20.2184	0.0276396	23.5669
15.44	20.246	0	23.5669
15.4403	20.246	0	23.5669
15.4404	20.2598	0.0276396	23.5669
15.4501	20.2875	0	23.5669
15.4521	20.2875	0	23.7489
15.4842	20.2875	0	23.8399
15.485	20.2875	0	23.8399
15.4851	20.3013	0.0276396	23.8399
15.5216	20.3289	0	23.8399
15.5216	20.3289	0	23.8399
15.5216	20.3289	0.0276396	23.8399
15.5218	20.3289	0.0552792	23.8399
15.5218	20.3427	0.0829187	23.8399
15.5218	20.3704	0.0552792	23.8399
15.5218	20.398	0.0276396	23.8399
15.5419	20.4256	0	23.8399
15.5421	20.4256	0	23.8399
15.5428	20.4256	0	23.9308
15.5431	20.4256	0.0276396	23.9308
15.5448	20.4256	0.0552792	23.9308
15.5448	20.4395	0.0829187	23.9308
15.5448	20.4671	0.0552792	23.9308
15.5448	20.4947	0.0276396	23.9308
15.6476	20.5224	0	23.9308
15.6477	20.5224	0	23.9308
15.6479	20.5362	0.0276396	23.9308
15.6549	20.5638	0	23.9308
15.6553	20.5638	0	23.9308
15.6553	20.5638	0.0276396	23.9308
15.6553	20.5777	0.0552792	23.9308
15.6553	20.6053	0.0276396	23.9308
15.691	20.6329	0	23.9308
15.691	20.6329	0	23.9308
15.691	20.6468	0.0276396	23.9308
15.7775	20.6744	0	23.9308
15.7777	20.6744	0	23.9308
15.7781	20.6744	0.0276396	23.9308
15.7782	20.6744	0.0829187	23.9308
15.7782	20.702	0.0552792	23.9308
15.7783	20.7297	0.0276396	23.9308
15.887	20.7573	0	23.9308
15.8876	20.7573	0	23.9308
15.8876	20.7573	0.0552792	23.9308
15.8876	20.785	0.0276396	23.9308
15.9372	20.8126	0	23.9308
15.9379	20.8126	0	23.9308
15.977	20.8126	0.0276396	23.9308
15.977	20.8126	0.0276396	24.1128
16.0904	20.8402	0	24.1128
16.1587	20.8402	0	24.2948
16.1593	20.8402	0	24.2948
16.1593	20.8402	0.0552792	24.2948
16.1594	20.8679	0.0276396	24.2948
16.1688	20.8955	0	24.2948
16.1984	20.8955	0	24.4768
16.1988	20.8955	0	24.4768
16.1988	20.8955	0.0552792	24.4768
16.1988	20.9232	0.0276396	24.4768
16.2825	20.9508	0	24.4768
16.2827	20.9508	0	24.4768
16.2827	20.9646	0.0276396	24.4768
16.3046	20.9923	0	24.4768
16.3052	20.9923	0	24.4768
16.3068	20.9923	0.0276396	24.4768
16.3068	21.0061	0.0552792	24.4768
16.3069	21.0337	0.0276396	24.4768
16.3255	21.0614	0	24.4768
16.3259	21.0614	0	24.4768
16.6261	21.0614	0.0276396	24.4768
16.6262	21.0614	0.0276396	24.4768
16.6262	21.089	0	24.4768
16.6263	21.089	0.0552792	24.4768
16.6263	21.1166	0.0276396	24.4768
16.6772	21.1443	0	24.4768
16.6773	21.1443	0	24.4768
16.6776	21.1443	0.0276396	24.4768
16.6776	21.1581	0.0552792	24.4768
16.6777	21.1857	0.0276396	24.4768
16.6951	21.2134	0	24.4768
16.7504	21.2134	0	24.6588
16.7511	21.2134	0	24.6588
16.7512	21.2134	0.0276396	24.6588
16.7607	21.241	0	24.6588
16.8719	21.241	0	24.8408
16.873	21.241	0	24.8408
16.8737	21.241	0.0276396	24.8408
16.8738	21.2548	0.0552792	24.8408
16.8738	21.2825	0.0276396	24.8408
16.8872	21.3101	0	24.8408
16.8878	21.3101	0	24.8408
16.8878	21.3101	0.0552792	24.8408
16.8879	21.3378	0.0276396	24.8408
16.9014	21.3654	0	24.8408
16.9024	21.3654	0	24.8408
16.9024	21.3654	0.0552792	24.8408
16.9024	21.393	0.0276396	24.8408
16.9947	21.4207	0	24.8408
16.9947	21.4207	0	24.8408
17.0966	21.4207	0.0276396	24.8408
17.0966	21.4207	0.0276396	24.8408
17.097	21.4483	0	24.8408
17.097	21.4621	0.0276396	24.8408
17.248	21.4898	0	24.8408
17.2483	21.4898	0	24.8408
17.2484	21.4898	0.0552792	24.8408
17.2484	21.5174	0.0276396	24.8408
17.2586	21.5451	0	24.8408
17.2598	21.5451	0	24.8408
17.2598	21.5451	0.0552792	24.8408
17.2598	21.5727	0.0276396	24.8408
17.2843	21.6003	0	24.8408
17.2849	21.6003	0	24.8408
17.2849	21.6003	0.0552792	24.8408
17.2849	21.628	0.0276396	24.8408
17.3175	21.6556	0	24.8408
17.3489	21.6556	0	25.0227
17.3833	21.6556	0	25.2047
17.3836	21.6556	0	25.2047
17.3836	21.6694	0.0276396	25.2047
17.4127	21.6971	0	25.2047
17.4142	21.6971	0	25.2047
17.4142	21.6971	0.0552792	25.2047
17.4143	21.7247	0.0276396	25.2047
17.464	21.7523	0	25.2047
17.4655	21.7523	0	25.2047
17.4656	21.7523	0.0276396	25.2047
17.467	21.7523	0.0276396	25.3867
17.467	21.7662	0.0552792	25.3867
17.467	21.7938	0.0276396	25.3867
17.526	21.8214	0	25.3867
17.5264	21.8214	0	25.3867
17.5264	21.8353	0.0276396	25.3867
17.6075	21.8629	0	25.3867
17.6075	21.8629	0	25.3867
17.6076	21.8629	0.0552792	25.3867
17.6076	21.8905	0.0276396	25.3867
17.6709	21.9182	0	25.3867
17.6712	21.9182	0	25.3867
17.6712	21.932	0.0276396	25.3867
17.7039	21.9596	0	25.3867
17.7593	21.9596	0	25.5687
17.8473	21.9596	0	25.7507
17.8473	21.9596	0	25.7507
18.1924	21.9596	0.0276396	25.7507
18.1925	21.9596	0.0276396	25.9327
18.2189	21.9873	0	25.9327
18.2191	21.9873	0	25.9327
18.2192	22.0011	0.0276396	25.9327
18.2247	22.0287	0	25.9327
18.2254	22.0287	0	25.9327
18.2254	22.0426	0.0276396	25.9327
18.2254	22.0702	0	25.9327
18.3637	22.0702	0	26.1146
18.4223	22.0702	0	26.2966
18.4777	22.0702	0	26.4786
18.4779	22.0702	0	26.4786
18.4779	22.0702	0.0552792	26.4786
18.478	22.0978	0.0276396	26.4786
18.4998	22.1255	0	26.4786
18.5662	22.1255	0	26.5696
18.6929	22.1255	0	26.7516
18.6929	22.1255	0	26.7516
18.693	22.1393	0.0276396	26.7516
18.6945	22.1669	0	26.7516
18.6954	22.1669	0	26.7516
18.6954	22.1669	0.0552792	26.7516
18.6954	22.1946	0.0276396	26.7516
18.7235	22.2222	0	26.7516
18.7235	22.2222	0	26.7516
18.7236	22.236	0.0276396	26.7516
18.8338	22.2637	0	26.7516
18.8339	22.2637	0	26.7516
18.8341	22.2637	0.0276396	26.7516
18.8341	22.2637	0.0829187	26.7516
18.8341	22.2913	0.0552792	26.7516
18.8342	22.319	0.0276396	26.7516
18.9712	22.3466	0	26.7516
18.9716	22.3466	0	26.7516
18.9716	22.3604	0.0276396	26.7516
19.1872	22.3881	0	26.7516
19.1885	22.3881	0	26.7516
19.1885	22.4019	0.0276396	26.7516
19.423	22.4295	0	26.7516
19.4232	22.4295	0	26.7516
19.4241	22.4295	0.0276396	26.7516
19.4245	22.4295	0.0552792	26.7516
19.4247	22.4295	0.0829187	26.7516
19.4247	22.4295	0.110558	26.7516
19.4247	22.4572	0.0829187	26.7516
19.4247	22.4848	0.0552792	26.7516
19.4247	22.5124	0.0276396	26.7516
19.4784	22.5401	0	26.7516
19.4786	22.5401	0	26.7516
19.4786	22.5539	0.0276396	26.7516
19.5982	22.5815	0	26.7516
19.6003	22.5815	0	26.7516
19.6003	22.5815	0.0552792	26.7516
19.6003	22.6092	0.0276396	26.7516
19.6569	22.6368	0	26.7516
19.6572	22.6368	0	26.7516
19.6577	22.6368	0.0276396	26.7516
19.6582	22.6368	0.0552792	26.7516
19.7096	22.6368	0.0829187	26.7516
19.7096	22.6368	0.0829187	26.7516
19.7096	22.6645	0.0552792	26.7516
19.7097	22.6921	0.0276396	26.7516
19.7098	22.7197	0	26.7516
19.7098	22.7197	0.0552792	26.7516
19.7098	22.7474	0.0276396	26.7516
19.7262	22.775	0	26.7516
19.8117	22.775	0	26.9336
19.8123	22.775	0	26.9336
19.8124	22.775	0.0276396	26.9336
19.8127	22.775	0.0552792	26.9336
19.813	22.775	0.0829187	26.9336
19.813	22.775	0.110558	26.9336
19.813	22.8027	0.0829187	26.9336
19.813	22.8303	0.0552792	26.9336
19.813	22.8579	0.0276396	26.9336
19.8866	22.8856	0	26.9336
19.8876	22.8856	0	26.9336
19.8876	22.8856	0.0552792	26.9336
19.8876	22.9132	0.0276396	26.9336
19.9037	22.9409	0	26.9336
19.9303	22.9409	0	27.0246
19.9304	22.9409	0	27.0246
19.9304	22.9547	0.0276396	27.0246
19.9542	22.9823	0	27.0246
20.1288	22.9823	0	27.2066
20.1289	22.9823	0	27.2066
20.1289	22.9823	0.0552792	27.2066
20.129	23.01	0.0276396	27.2066
20.2292	23.0376	0	27.2066
20.2304	23.0376	0	27.2066
20.2304	23.0514	0.0276396	27.2066
20.2841	23.079	0	27.2066
20.3475	23.079	0	27.3885
20.387	23.079	0	27.5705
20.3874	23.079	0	27.5705
20.3876	23.079	0.0276396	27.5705
20.3876	23.0929	0.0552792	27.5705
20.3876	23.1205	0.0276396	27.5705
20.4389	23.1481	0	27.5705
20.4785	23.1481	0	27.7525
20.6232	23.1481	0	27.8435
20.6233	23.1481	0	27.8435
20.6236	23.162	0.0276396	27.8435
20.6608	23.1896	0	27.8435
20.6609	23.1896	0	27.8435
20.8081	23.1896	0.0276396	27.8435
20.8081	23.1896	0.0276396	27.8435
20.8087	23.2172	0	27.8435
20.8087	23.2311	0.0276396	27.8435
20.8947	23.2587	0	27.8435
20.8955	23.2587	0	27.8435
20.8956	23.2725	0.0276396	27.8435
20.9832	23.3002	0	27.8435
20.9832	23.3002	0	27.8435
20.9833	23.314	0.0276396	27.8435
20.9989	23.3416	0	27.8435
21.1347	23.3416	0	28.0255
21.1357	23.3416	0	28.0255
21.1365	23.3416	0.0276396	28.0255
21.1365	23.3554	0.0552792	28.0255
21.1366	23.3831	0.0276396	28.0255
21.1854	23.4107	0	28.0255
21.1854	23.4107	0	28.0255
21.1854	23.4245	0.0276396	28.0255
21.2895	23.4522	0	28.0255
21.5161	23.4522	0	28.2075
21.5172	23.4522	0	28.2075
21.5172	23.4522	0.0552792	28.2075
21.5172	23.4798	0.0276396	28.2075
21.6721	23.5075	0	28.2075
21.6721	23.5075	0	28.2075
21.6722	23.5075	0.0552792	28.2075
21.6723	23.5351	0.0276396	28.2075
21.7763	23.5627	0	28.2075
21.9502	23.5627	0	28.2985
21.9505	23.5627	0	28.2985
21.9505	23.5766	0.0276396	28.2985
22.0507	23.6042	0	28.2985
22.0511	23.6042	0	28.2985
22.0511	23.618	0.0276396	28.2985
22.1759	23.6457	0	28.2985
22.176	23.6457	0	28.2985
22.176	23.6457	0.0552792	28.2985
22.1761	23.6733	0.0276396	28.2985
22.2524	23.7009	0	28.2985
22.2526	23.7009	0	28.2985
22.2526	23.7009	0.0552792	28.2985
22.2526	23.7286	0.0276396	28.2985
22.298	23.7562	0	28.2985
22.2981	23.7562	0	28.2985
22.2982	23.7562	0.0552792	28.2985
22.2982	23.7839	0.0276396	28.2985
22.3334	23.8115	0	28.2985
22.3336	23.8115	0	28.2985
22.3336	23.8115	0.0552792	28.2985
22.3337	23.8391	0.0276396	28.2985
22.336	23.8668	0	28.2985
22.4193	23.8668	0	28.3894
22.4193	23.8668	0	28.3894
22.4194	23.8806	0.0276396	28.3894
22.5086	23.9082	0	28.3894
22.5087	23.9082	0	28.3894
22.5088	23.9082	0.0552792	28.3894
22.509	23.9359	0.0276396	28.3894
22.6553	23.9635	0	28.3894
22.6558	23.9635	0	28.3894
22.6558	23.9635	0.0552792	28.3894
22.6559	23.9912	0.0276396	28.3894
22.8514	24.0188	0	28.3894
22.8564	24.0188	0	28.5714
22.8565	24.0188	0	28.5714
22.8569	24.0188	0.0276396	28.5714
22.8569	24.0326	0.0552792	28.5714
22.857	24.0603	0.0276396	28.5714
22.8743	24.0879	0	28.5714
22.875	24.0879	0	28.5714
22.875	24.1017	0.0276396	28.5714
23.1902	24.1294	0	28.5714
23.1908	24.1294	0	28.5714
23.4466	24.1294	0.0276396	28.5714
23.4466	24.1294	0.0276396	28.7534
23.5342	24.157	0	28.7534
23.5342	24.157	0	28.7534
23.5342	24.157	0.0552792	28.7534
23.5343	24.1846	0.0276396	28.7534
23.5666	24.2123	0	28.7534
23.6252	24.2123	0	28.9354
23.6256	24.2123	0	28.9354
23.6257	24.2261	0.0276396	28.9354
23.6847	24.2537	0	28.9354
23.6851	24.2537	0	28.9354
23.6852	24.2537	0.0552792	28.9354
23.6852	24.2814	0.0276396	28.9354
23.7375	24.309	0	28.9354
23.7381	24.309	0	28.9354
23.791	24.309	0.0276396	28.9354
23.791	24.309	0.0276396	28.9354
23.7912	24.3367	0	28.9354
23.7912	24.3367	0.0552792	28.9354
23.7912	24.3643	0.0276396	28.9354
23.9153	24.3919	0	28.9354
23.9153	24.3919	0	28.9354
23.9153	24.3919	0.0552792	28.9354
23.9153	24.4196	0.0276396	28.9354
23.9219	24.4472	0	28.9354
23.9219	24.4472	0	28.9354
23.9219	24.461	0.0276396	28.9354
24.1624	24.4887	0	28.9354
24.2894	24.4887	0	29.1174
24.2896	24.4887	0	29.1174
24.2896	24.4887	0.0552792	29.1174
24.2896	24.5163	0.0276396	29.1174
24.5715	24.5439	0	29.1174
24.5719	24.5439	0	29.1174
24.5719	24.5439	0.0276396	29.1174
24.5719	24.5578	0.0552792	29.1174
24.5719	24.5854	0.0276396	29.1174
24.6298	24.613	0	29.1174
24.6299	24.613	0	29.1174
24.6299	24.6269	0.0276396	29.1174
24.6341	24.6545	0	29.1174
24.635	24.6545	0	29.1174
24.6351	24.6545	0.0552792	29.1174
24.6351	24.6821	0.0276396	29.1174
24.6717	24.7098	0	29.1174
24.6717	24.7098	0	29.1174
24.6718	24.7236	0.0276396	29.1174
24.9853	24.7512	0	29.1174
24.9858	24.7512	0	29.1174
25.3666	24.7512	0.0276396	29.1174
25.3666	24.7512	0.0276396	29.1174
25.3666	24.7789	0	29.1174
25.3666	24.7789	0.0552792	29.1174
25.3666	24.8065	0.0276396	29.1174
25.3751	24.8342	0	29.1174
25.3756	24.8342	0	29.1174
25.3756	24.8342	0.0552792	29.1174
25.3756	24.8618	0.0276396	29.1174
25.4011	24.8894	0	29.1174
25.4015	24.8894	0	29.1174
25.4015	24.8894	0.0552792	29.1174
25.4015	24.9171	0.0276396	29.1174
25.509	24.9447	0	29.1174
25.5107	24.9447	0	29.1174
25.5107	24.9447	0.0552792	29.1174
25.5107	24.9724	0.0276396	29.1174
25.7995	25	0	29.1174
25.9022	25	0	29.2994
25.9025	25	0	29.2994
25.9036	25	0.0276396	29.2994
25.9036	25.0138	0.0552792	29.2994
25.9036	25.0415	0.0276396	29.2994
25.9687	25.0691	0	29.2994
25.9689	25.0691	0	29.2994
26.1233	25.0691	0.0276396	29.2994
26.1233	25.0691	0.0276396	29.2994
26.1236	25.0967	0	29.2994
26.1236	25.0967	0.0276396	29.2994
26.1237	25.1106	0.0552792	29.2994
26.1237	25.1382	0.0276396	29.2994
26.626	25.1658	0	29.2994
26.6262	25.1658	0	29.2994
26.6262	25.1658	0.0552792	29.2994
26.6262	25.1935	0.0276396	29.2994
27.0096	25.2211	0	29.2994
27.0461	25.2211	0	29.4813
27.0463	25.2211	0	29.4813
27.0463	25.2211	0.0552792	29.4813
27.0463	25.2488	0.0276396	29.4813
27.177	25.2764	0	29.4813
27.1771	25.2764	0	29.4813
27.1772	25.2902	0.0276396	29.4813
27.7889	25.3179	0	29.4813
27.7892	25.3179	0	29.4813
27.7893	25.3179	0.0276396	29.4813
27.8154	25.3455	0	29.4813
27.8154	25.3455	0	29.4813
27.8154	25.3455	0.0552792	29.4813
27.8154	25.3731	0.0276396	29.4813
27.8593	25.4008	0	29.4813
27.8595	25.4008	0	29.4813
27.8597	25.4008	0.0276396	29.4813
27.8597	25.4146	0.0552792	29.4813
27.8598	25.4422	0.0276396	29.4813
28.1986	25.4699	0	29.4813
28.1994	25.4699	0	29.4813
28.2003	25.4699	0.0276396	29.4813
28.2004	25.4837	0.0552792	29.4813
28.2004	25.5113	0.0276396	29.4813
28.4478	25.539	0	29.4813
28.4479	25.539	0	29.4813
28.4479	25.539	0.0552792	29.4813
28.4479	25.5666	0.0276396	29.4813
28.7433	25.5943	0	29.4813
28.7442	25.5943	0	29.4813
28.7442	25.5943	0.0552792	29.4813
28.7442	25.6219	0.0276396	29.4813
29.0641	25.6495	0	29.4813
29.0642	25.6495	0	29.4813
29.0643	25.6495	0.0552792	29.4813
29.0643	25.6772	0.0276396	29.4813
29.1704	25.7048	0	29.4813
29.4649	25.7048	0	29.6633
29.4652	25.7048	0	29.6633
29.4653	25.7186	0.0276396	29.6633
29.8724	25.7463	0	29.6633
29.8745	25.7463	0	29.6633
29.8746	25.7463	0.0276396	29.6633
29.8746	25.7601	0.0552792	29.6633
29.8747	25.7877	0.0276396	29.6633
30.1784	25.8154	0	29.6633
30.1794	25.8154	0	29.6633
30.1794	25.8292	0.0276396	29.6633
30.1968	25.8568	0	29.6633
30.1969	25.8568	0	29.6633
30.3589	25.8568	0.0276396	29.6633
30.3589	25.8568	0.0276396	29.6633
30.3593	25.8845	0	29.6633
30.3593	25.8983	0.0276396	29.6633
30.3832	25.9259	0	29.6633
30.46	25.9259	0	29.7543
30.5213	25.9259	0	29.9363
30.5216	25.9259	0	29.9363
30.5216	25.9259	0.0552792	29.9363
30.5216	25.9536	0.0276396	29.9363
31.0002	25.9812	0	29.9363
31.0002	25.9812	0	29.9363
31.0003	25.9812	0.0552792	29.9363
31.0003	26.0088	0.0276396	29.9363
31.0634	26.0365	0	29.9363
31.0639	26.0365	0	29.9363
31.064	26.0503	0.0276396	29.9363
31.2291	26.0779	0	29.9363
31.2292	26.0779	0	29.9363
31.2293	26.0779	0.0552792	29.9363
31.2294	26.1056	0.0276396	29.9363
31.4113	26.1332	0	29.9363
31.4118	26.1332	0	29.9363
31.4119	26.147	0.0276396	29.9363
31.462	26.1747	0	29.9363
31.4624	26.1747	0	29.9363
31.7886	26.1747	0.0276396	29.9363
31.7887	26.1747	0.0276396	29.9363
31.7904	26.2023	0	29.9363
31.7905	26.2023	0.0552792	29.9363
31.7906	26.23	0.0276396	29.9363
32.2221	26.2576	0	29.9363
32.2224	26.2576	0	29.9363
32.8641	26.2576	0.0276396	29.9363
32.8657	26.2576	0.0276396	29.9363
32.8657	26.2576	0.0829187	29.9363
32.8657	26.2852	0.0552792	29.9363
32.8657	26.3129	0.0276396	29.9363
33.0852	26.3405	0	29.9363
33.0859	26.3405	0	29.9363
33.086	26.3405	0.0276396	29.9363
33.0861	26.3543	0.0552792	29.9363
33.0861	26.382	0.0276396	29.9363
33.3382	26.4096	0	29.9363
33.3384	26.4096	0	29.9363
33.3395	26.4096	0.0276396	29.9363
33.3395	26.4234	0.0552792	29.9363
33.3396	26.4511	0.0276396	29.9363
33.4117	26.4787	0	29.9363
33.4118	26.4787	0	29.9363
33.4118	26.4787	0.0552792	29.9363
33.4119	26.5064	0.0276396	29.9363
33.6507	26.534	0	29.9363
33.6511	26.534	0	29.9363
33.6511	26.5478	0.0276396	29.9363
34.4589	26.5755	0	29.9363
34.4591	26.5755	0	29.9363
34.4591	26.5755	0.0552792	29.9363
34.4593	26.6031	0.0276396	29.9363
34.5441	26.6307	0	29.9363
34.5452	26.6307	0	29.9363
34.5452	26.6446	0.0276396	29.9363
34.5882	26.6722	0	29.9363
34.6606	26.6722	0	30.1183
34.6607	26.6722	0	30.1183
34.6607	26.6722	0.0552792	30.1183
34.6607	26.6998	0.0276396	30.1183
35.2943	26.7275	0	30.1183
35.2945	26.7275	0	30.1183
35.2945	26.7413	0.0276396	30.1183
35.319	26.7689	0	30.1183
35.3193	26.7689	0	30.1183
35.3193	26.7689	0.0552792	30.1183
35.3194	26.7966	0.0276396	30.1183
35.4576	26.8242	0	30.1183
35.4578	26.8242	0	30.1183
35.4581	26.8242	0.0276396	30.1183
35.8192	26.8242	0.0552792	30.1183
35.8192	26.8242	0.0552792	30.3003
35.8192	26.8519	0.0276396	30.3003
36.1655	26.8795	0	30.3003
36.1659	26.8795	0	30.3003
36.166	26.8933	0.0276396	30.3003
37.2992	26.921	0	30.3003
37.2995	26.921	0	30.3003
37.2999	26.921	0.0276396	30.3003
37.5112	26.921	0.0552792	30.3003
37.5113	26.921	0.0552792	30.4823
37.5113	26.9486	0.0276396	30.4823
37.8474	26.9762	0	30.4823
37.8476	26.9762	0	30.4823
37.8476	26.9762	0.0276396	30.4823
37.8477	26.99	0.0552792	30.4823
37.8479	27.0177	0.0276396	30.4823
38.007	27.0453	0	30.4823
38.007	27.0453	0	30.4823
38.0071	27.0591	0.0276396	30.4823
38.179	27.0868	0	30.4823
38.179	27.0868	0	30.4823
38.1791	27.1006	0.0276396	30.4823
38.8254	27.1282	0	30.4823
38.8257	27.1282	0	30.4823
38.8257	27.1282	0.0552792	30.4823
38.8257	27.1559	0.0276396	30.4823
39.3063	27.1835	0	30.4823
39.3068	27.1835	0	30.4823
39.3068	27.1835	0.0552792	30.4823
39.3069	27.2112	0.0276396	30.4823
39.3179	27.2388	0	30.4823
39.3192	27.2388	0	30.4823
39.3192	27.2388	0.0552792	30.4823
39.3192	27.2664	0.0276396	30.4823
39.3353	27.2941	0	30.4823
39.3353	27.2941	0	30.4823
39.3354	27.2941	0.0276396	30.4823
39.3354	27.3079	0.0552792	30.4823
39.3354	27.3355	0.0276396	30.4823
40.11	27.3632	0	30.4823
40.1101	27.3632	0	30.4823
40.1101	27.377	0.0276396	30.4823
40.2615	27.4046	0	30.4823
40.2616	27.4046	0	30.4823
40.2618	27.4046	0.0276396	30.4823
40.2619	27.4185	0.0552792	30.4823
40.262	27.4461	0.0276396	30.4823
40.874	27.4737	0	30.4823
40.8741	27.4737	0	30.4823
40.8741	27.4737	0.0552792	30.4823
40.8743	27.5014	0.0276396	30.4823
41.0118	27.529	0	30.4823
41.0126	27.529	0	30.4823
42.4047	27.529	0.0276396	30.4823
42.4048	27.529	0.0276396	30.6642
42.6544	27.5567	0	30.6642
42.6552	27.5567	0	30.6642
42.6553	27.5567	0.0276396	30.6642
42.6553	27.5705	0.0552792	30.6642
42.6554	27.5981	0.0276396	30.6642
43.2316	27.6258	0	30.6642
43.2319	27.6258	0	30.6642
43.2319	27.6258	0.0552792	30.6642
43.2321	27.6534	0.0276396	30.6642
43.7692	27.681	0	30.6642
43.7694	27.681	0	30.6642
44.6672	27.681	0.0276396	30.6642
44.6672	27.681	0.0276396	30.6642
44.6676	27.7087	0	30.6642
44.6676	27.7087	0.0552792	30.6642
44.6676	27.7363	0.0276396	30.6642
45.316	27.764	0	30.6642
45.3162	27.764	0	30.6642
45.3162	27.764	0.0276396	30.6642
45.3162	27.764	0.0552792	30.6642
45.3163	27.764	0.0829187	30.6642
45.3166	27.764	0.110558	30.6642
45.317	27.764	0.138198	30.6642
45.3176	27.764	0.165837	30.6642
45.3176	27.7778	0.193477	30.6642
45.3176	27.8054	0.165837	30.6642
45.3176	27.8331	0.138198	30.6642
45.3176	27.8607	0.110558	30.6642
45.3176	27.8883	0.0829187	30.6642
45.3176	27.916	0.0552792	30.6642
45.3178	27.9436	0.0276396	30.6642
47.3044	27.9713	0	30.6642
47.3062	27.9713	0	30.6642
47.3062	27.9713	0.0552792	30.6642
47.3062	27.9989	0.0276396	30.6642
47.7819	28.0265	0	30.6642
47.782	28.0265	0	30.6642
47.7822	28.0265	0.0276396	30.6642
47.7823	28.0404	0.0552792	30.6642
47.7823	28.068	0.0276396	30.6642
48.9786	28.0956	0	30.6642
48.9788	28.0956	0	30.6642
48.9788	28.0956	0.0552792	30.6642
48.9788	28.1233	0.0276396	30.6642
50.5229	28.1509	0	30.6642
50.5235	28.1509	0	30.6642
50.5236	28.1509	0.0552792	30.6642
50.5236	28.1786	0.0276396	30.6642
50.6161	28.2062	0	30.6642
50.6164	28.2062	0	30.6642
50.6168	28.2062	0.0276396	30.6642
50.6169	28.22	0.0552792	30.6642
50.6169	28.2477	0.0276396	30.6642
52.7185	28.2753	0	30.6642
52.7186	28.2753	0	30.6642
52.7186	28.2753	0.0552792	30.6642
52.7187	28.3029	0.0276396	30.6642
53.4571	28.3306	0	30.6642
53.4572	28.3306	0	30.6642
53.4572	28.3306	0.0552792	30.6642
53.4572	28.3582	0.0276396	30.6642
53.6691	28.3858	0	30.6642
53.6692	28.3858	0	30.6642
53.6693	28.3997	0.0276396	30.6642
54.6086	28.4273	0	30.6642
54.6088	28.4273	0	30.6642
54.6089	28.4273	0.0552792	30.6642
54.609	28.4549	0.0276396	30.6642
57.3506	28.4826	0	30.6642
57.3507	28.4826	0	30.6642
57.3508	28.4964	0.0276396	30.6642
57.7523	28.524	0	30.6642
57.7533	28.524	0	30.6642
57.7535	28.524	0.0276396	30.6642
57.7535	28.5379	0.0552792	30.6642
57.7535	28.5655	0.0276396	30.6642
61.1404	28.5931	0	30.6642
61.1407	28.5931	0	30.6642
61.1407	28.5931	0.0552792	30.6642
61.1408	28.6208	0.0276396	30.6642
62.121	28.6484	0	30.6642
62.1222	28.6484	0	30.6642
62.2381	28.6484	0.0276396	30.6642
62.2381	28.6484	0.0276396	30.6642
62.2387	28.6761	0	30.6642
62.2387	28.6761	0.0552792	30.6642
62.2388	28.7037	0.0276396	30.6642
68.306	28.7313	0	30.6642
68.306	28.7313	0	30.6642
68.306	28.7313	0.0552792	30.6642
68.306	28.759	0.0276396	30.6642
79.7714	28.7866	0	30.6642
79.7723	28.7866	0	30.6642
79.7724	28.7866	0.0552792	30.6642
79.7724	28.8143	0.0276396	30.6642
87.3151	28.8419	0	30.6642
87.3151	28.8419	0	30.6642
87.3152	28.8419	0.0552792	30.6642
87.3152	28.8695	0.0276396	30.6642
98.213	28.8972	0	30.6642
98.2138	28.8972	0	30.6642
98.2138	28.8972	0.0552792	30.6642
98.2138	28.9248	0.0276396	30.6642
121.531	28.9525	0	30.6642
121.532	28.9525	0	30.6642
121.532	28.9525	0.0552792	30.6642
121.532	28.9801	0.0276396	30.6642
137.024	29.0077	0	30.6642
137.025	29.0077	0	30.6642
137.025	29.0077	0.0552792	30.6642
137.025	29.0354	0.0276396	30.6642
