3.48701e-10	0	0	0
7.85539e-10	0	0	0
1.32643e-09	0	0	0
1.98566e-09	0	0	0
2.273e-09	0	0	0
2.39642e-09	0	0	0
3.79163e-09	0	0	0
4.14601e-09	0	0	0
4.15156e-09	0	0	0
5.11744e-09	0	0	0
5.23631e-09	0	0	0
5.59348e-09	0	0	0
5.83702e-09	0	0	0
6.3261e-09	0	0	0
7.06837e-09	0	0	0
7.60473e-09	0	0	0
8.58702e-09	0	0	0
9.7006e-09	0	0	0
9.80646e-09	0	0	0
1.06495e-08	0	0	0
1.2295e-08	0	0	0
1.28981e-08	0	0	0
1.48673e-08	0	0	0
1.58508e-08	0	0	0
1.71047e-08	0	0	0
1.72869e-08	0	0	0
1.78911e-08	0	0	0
1.82543e-08	0	0	0
1.82682e-08	0	0	0
1.91264e-08	0	0	0
1.92979e-08	0	0	0
2.01314e-08	0	0	0
2.26341e-08	0	0	0
2.30404e-08	0	0	0
2.51618e-08	0	0	0
2.62948e-08	0	0	0
2.70632e-08	0	0	0
2.95132e-08	0	0	0
2.95784e-08	0	0	0
2.97493e-08	0	0	0
3.11729e-08	0	0	0
3.5747e-08	0	0	0
4.0546e-08	0	0	0
4.35365e-08	0	0	0
4.41477e-08	0	0	0
4.60295e-08	0	0	0
4.9344e-08	0	0	0
4.95797e-08	0	0	0
5.07028e-08	0	0	0
5.3091e-08	0	0	0
5.32592e-08	0	0	0
5.97977e-08	0	0	0
5.99792e-08	0	0	0
7.36588e-08	0	0	0
8.58009e-08	0	0	0
8.77666e-08	0	0	0
1.02541e-07	0	0	0
1.04318e-07	0	0	0
1.08442e-07	0	0	0
1.21483e-07	0	0	0
1.27862e-07	0	0	0
1.31147e-07	0	0	0
1.32007e-07	0	0	0
1.39052e-07	0	0	0
1.7078e-07	0	0	0
1.7169e-07	0	0	0
1.76374e-07	0	0	0
2.61938e-07	0	0	0
2.65174e-07	0	0	0
4.14917e-07	0	0	0
4.42132e-07	0	0	0
4.95196e-07	0	0	0
5.0379e-07	0	0	0
5.30408e-07	0	0	0
5.79666e-07	0	0	0
6.07373e-07	0	0	0
6.16076e-07	0	0	0
6.34665e-07	0	0	0
7.60988e-07	0	0	0
7.66931e-07	0	0	0
7.86688e-07	0	0	0
1.01296e-06	0	0	0
1.07382e-06	0	0	0
1.22725e-06	0	0	0
1.34217e-06	0	0	0
1.42577e-06	0	0	0
1.44129e-06	0	0	0
1.46588e-06	0	0	0
1.4779e-06	0	0	0
1.4807e-06	0	0	0
1.49097e-06	0	0	0
1.49742e-06	0	0	0
1.52693e-06	0	0	0
1.5405e-06	0	0	0
1.58548e-06	0	0	0
1.6267e-06	0	0	0
1.6544e-06	0	0	0
1.73788e-06	0	0	0
1.74148e-06	0	0	0
1.7417e-06	0	0	0
1.78366e-06	0	0	0
1.81923e-06	0	0	0
1.83647e-06	0	0	0
1.87474e-06	0	0	0
1.8878e-06	0	0	0
1.90546e-06	0	0	0
1.95769e-06	0	0	0
1.99385e-06	0	0	0
2.12492e-06	0	0	0
2.15552e-06	0	0	0
2.21043e-06	0	0	0
2.22986e-06	0	0	0
2.25767e-06	0	0	0
2.28393e-06	0	0	0
2.33438e-06	0	0	0
2.34313e-06	0	0	0
2.35659e-06	0	0	0
2.36029e-06	0	0	0
2.39136e-06	0	0	0
2.42255e-06	0	0	0
2.58875e-06	0	0	0
2.65694e-06	0	0	0
2.85636e-06	0	0	0
2.99644e-06	0	0	0
3.06295e-06	0	0	0
3.09123e-06	0	0	0
3.10262e-06	0	0	0
3.36623e-06	0	0	0
3.39391e-06	0	0	0
3.43596e-06	0	0	0
3.45137e-06	0	0	0
3.51483e-06	0	0	0
3.57209e-06	0	0	0
3.6251e-06	0	0	0
3.62632e-06	0	0	0
3.76306e-06	0	0	0
3.76531e-06	0	0	0
3.81215e-06	0	0	0
3.89111e-06	0	0	0
3.96249e-06	0	0	0
4.04431e-06	0	0	0
4.12216e-06	0	0	0
4.19781e-06	0	0	0
4.21144e-06	0	0	0
4.43609e-06	0	0	0
4.45207e-06	0	0	0
4.51983e-06	0	0	0
4.60202e-06	0	0	0
4.70415e-06	0	0	0
4.73636e-06	0	0	0
4.76383e-06	0	0	0
4.83452e-06	0	0	0
4.9312e-06	0	0	0
4.9997e-06	0	0	0
5.04223e-06	0	0	0
5.07125e-06	0	0	0
5.20631e-06	0	0	0
5.29896e-06	0	0	0
5.30822e-06	0	0	0
5.3296e-06	0	0	0
5.38134e-06	0	0	0
5.41184e-06	0	0	0
5.4144e-06	0	0	0
5.41919e-06	0	0	0
5.4944e-06	0	0	0
5.50583e-06	0	0	0
5.58481e-06	0	0	0
5.6452e-06	0	0	0
5.82023e-06	0	0	0
5.98063e-06	0	0	0
6.07928e-06	0	0	0
6.10256e-06	0	0	0
6.11265e-06	0	0	0
6.28193e-06	0	0	0
6.28366e-06	0	0	0
6.47486e-06	0	0	0
6.49486e-06	0	0	0
6.66113e-06	0	0	0
6.66123e-06	0	0	0
6.93638e-06	0	0	0
6.96888e-06	0	0	0
7.03467e-06	0	0	0
7.61386e-06	0	0	0
7.62308e-06	0	0	0
7.89656e-06	0	0	0
8.10737e-06	0	0	0
8.20561e-06	0	0	0
8.31421e-06	0	0	0
8.39813e-06	0	0	0
8.57171e-06	0	0	0
8.60927e-06	0	0	0
8.67307e-06	0	0	0
8.7063e-06	0	0	0
8.80804e-06	0	0	0
8.95858e-06	0	0	0
9.00358e-06	0	0	0
9.24754e-06	0	0	0
9.30827e-06	0	0	0
9.3365e-06	0	0	0
9.49783e-06	0	0	0
9.52637e-06	0	0	0
9.57778e-06	0	0	0
9.68278e-06	0	0	0
9.78599e-06	0	0	0
9.81024e-06	0	0	0
9.84571e-06	0	0	0
9.94482e-06	0	0	0
1.01339e-05	0	0	0
1.02428e-05	0	0	0
1.02798e-05	0	0	0
1.06584e-05	0	0	0
1.06833e-05	0	0	0
1.0705e-05	0	0	0
1.07404e-05	0	0	0
1.11728e-05	0	0	0
1.14365e-05	0	0	0
1.15426e-05	0	0	0
1.15954e-05	0	0	0
1.19748e-05	0	0	0
1.21844e-05	0	0	0
1.23601e-05	0	0	0
1.24819e-05	0	0	0
1.24843e-05	0	0	0
1.27462e-05	0	0	0
1.34085e-05	0	0	0
1.36886e-05	0	0	0
1.36987e-05	0	0	0
1.37109e-05	0	0	0
1.37985e-05	0	0	0
1.38056e-05	0	0	0
1.38155e-05	0	0	0
1.42429e-05	0	0	0
1.44494e-05	0	0	0
1.44957e-05	0	0	0
1.45568e-05	0	0	0
1.45863e-05	0	0	0
1.46837e-05	0	0	0
1.46985e-05	0	0	0
1.48e-05	0	0	0
1.52011e-05	0	0	0
1.52015e-05	0	0	0
1.52219e-05	0	0	0
1.52846e-05	0	0	0
1.53543e-05	0	0	0
1.56846e-05	0	0	0
1.58061e-05	0	0	0
1.58459e-05	0	0	0
1.6086e-05	0	0	0
1.61611e-05	0	0	0
1.6194e-05	0	0	0
1.63332e-05	0	0	0
1.6406e-05	0	0	0
1.65733e-05	0	0	0
1.66244e-05	0	0	0
1.68251e-05	0	0	0
1.70258e-05	0	0	0
1.71205e-05	0	0	0
1.72147e-05	0	0	0
1.72821e-05	0	0	0
1.76085e-05	0	0	0
1.77133e-05	0	0	0
1.78068e-05	0	0	0
1.78232e-05	0	0	0
1.78688e-05	0	0	0
1.79229e-05	0	0	0
1.80338e-05	0	0	0
1.83612e-05	0	0	0
1.85798e-05	0	0	0
1.86071e-05	0	0	0
1.87033e-05	0	0	0
1.87214e-05	0	0	0
1.89793e-05	0	0	0
1.91317e-05	0	0	0
1.91433e-05	0	0	0
1.93505e-05	0	0	0
1.93781e-05	0	0	0
1.95643e-05	0	0	0
1.96382e-05	0	0	0
1.97349e-05	0	0	0
1.98487e-05	0	0	0
1.99187e-05	0	0	0
2.01003e-05	0	0	0
2.02286e-05	0	0	0
2.03428e-05	0	0	0
2.06984e-05	0	0	0
2.07955e-05	0	0	0
2.07998e-05	0	0	0
2.14948e-05	0	0	0
2.16156e-05	0	0	0
2.19655e-05	0	0	0
2.23198e-05	0	0	0
2.25313e-05	0	0	0
2.27102e-05	0	0	0
2.27644e-05	0	0	0
2.33656e-05	0	0	0
2.34469e-05	0	0	0
2.40896e-05	0	0	0
2.4453e-05	0	0	0
2.44542e-05	0	0	0
2.46007e-05	0	0	0
2.50105e-05	0	0	0
2.54294e-05	0	0	0
2.634e-05	0	0	0
2.66241e-05	0	0	0
2.69521e-05	0	0	0
2.82985e-05	0	0	0
2.83856e-05	0	0	0
2.85726e-05	0	0	0
2.86325e-05	0	0	0
2.87339e-05	0	0	0
2.87733e-05	0	0	0
2.91115e-05	0	0	0
2.91551e-05	0	0	0
2.94198e-05	0	0	0
2.95232e-05	0	0	0
3.07354e-05	0	0	0
3.10778e-05	0	0	0
3.11807e-05	0	0	0
3.13481e-05	0	0	0
3.25063e-05	0	0	0
3.26272e-05	0	0	0
3.30947e-05	0	0	0
3.31202e-05	0	0	0
3.32347e-05	0	0	0
3.41733e-05	0	0	0
3.43364e-05	0	0	0
3.44828e-05	0	0	0
3.51388e-05	0	0	0
3.69078e-05	0	0	0
3.69586e-05	0	0	0
3.78336e-05	0	0	0
3.7856e-05	0	0	0
3.8498e-05	0	0	0
3.85525e-05	0	0	0
3.94456e-05	0	0	0
3.98452e-05	0	0	0
4.09296e-05	0	0	0
4.10119e-05	0	0	0
4.31947e-05	0	0	0
4.52105e-05	0	0	0
4.55761e-05	0	0	0
4.60004e-05	0	0	0
4.60199e-05	0	0	0
4.61134e-05	0	0	0
4.6447e-05	0	0	0
4.67194e-05	0	0	0
4.69009e-05	0	0	0
4.73399e-05	0	0	0
4.73557e-05	0	0	0
4.86822e-05	0	0	0
4.90514e-05	0	0	0
4.95881e-05	0	0	0
4.9683e-05	0	0	0
5.00012e-05	0	0	0
5.03626e-05	0	0	0
5.0545e-05	0	0	0
5.0883e-05	0	0	0
5.10114e-05	0	0	0
5.18209e-05	0	0	0
5.30396e-05	0	0	0
5.33909e-05	0	0	0
5.37921e-05	0	0	0
5.46316e-05	0	0	0
5.53083e-05	0	0	0
5.67897e-05	0	0	0
5.79996e-05	0	0	0
5.88278e-05	0	0	0
5.91205e-05	0	0	0
5.97263e-05	0	0	0
6.16622e-05	0	0	0
6.26273e-05	0	0	0
6.27552e-05	0	0	0
6.27581e-05	0	0	0
6.45085e-05	0	0	0
6.4938e-05	0	0	0
6.52784e-05	0	0	0
6.53782e-05	0	0	0
6.5538e-05	0	0	0
6.63437e-05	0	0	0
6.64983e-05	0	0	0
6.66649e-05	0	0	0
6.77764e-05	0	0	0
6.80455e-05	0	0	0
6.88678e-05	0	0	0
6.94982e-05	0	0	0
7.16235e-05	0	0	0
7.25439e-05	0	0	0
7.26833e-05	0	0	0
7.4518e-05	0	0	0
7.54719e-05	0	0	0
7.57176e-05	0	0	0
7.67777e-05	0	0	0
7.70246e-05	0	0	0
7.72577e-05	0	0	0
7.84902e-05	0	0	0
7.96522e-05	0	0	0
8.24699e-05	0	0	0
8.46703e-05	0	0	0
8.68812e-05	0	0	0
9.07763e-05	0	0	0
9.16494e-05	0	0	0
9.1907e-05	0	0	0
9.24692e-05	0	0	0
9.25115e-05	0	0	0
9.46602e-05	0	0	0
9.49965e-05	0	0	0
9.57284e-05	0	0	0
9.57998e-05	0	0	0
9.88021e-05	0	0	0
0.000101967	0	0	0
0.000102486	0	0	0
0.000104987	0	0	0
0.000107374	0	0	0
0.000108657	0	0	0
0.000111769	0	0	0
0.000113955	0	0	0
0.000117893	0	0	0
0.00011833	0	0	0
0.000124409	0	0	0
0.000125648	0	0	0
0.000126171	0	0	0
0.00013295	0	0	0
0.000133103	0	0	0
0.000133914	0	0	0
0.000134547	0	0	0
0.000136918	0	0	0
0.000139927	0	0	0
0.000143688	0	0	0
0.000155756	0	0	0
0.000159884	0	0	0
0.000169004	0	0	0
0.0146602	0	0	0
0.0146781	0	0	0
0.0147043	0	0	0
0.049129	0	0	0
0.0492161	0	0	0
0.0520177	0	0	0
0.0719008	0	0	0
0.0780464	0	0	0
0.0841683	0	0	0
0.0969675	0	0	0
0.112908	0	0	0.0909918
0.113018	0	0	0.0909918
0.11312	0	0	0.0909918
0.113537	0	0	0.0909918
0.11354	0	0	0.0909918
0.132377	0	0	0.0909918
0.141846	0	0	0.0909918
0.142321	0	0	0.0909918
0.144079	0	0	0.0909918
0.144487	0	0	0.0909918
0.144491	0	0	0.0909918
0.144503	0.0138198	0.0276396	0.0909918
0.144548	0.0138198	0.0276396	0.0909918
0.144614	0.0414594	0	0.0909918
0.145473	0.0414594	0	0.0909918
0.145749	0.0552792	0.0276396	0.0909918
0.154266	0.0829187	0	0.0909918
0.155283	0.0829187	0	0.0909918
0.155316	0.0967385	0.0276396	0.0909918
0.15533	0.124378	0	0.0909918
0.155366	0.124378	0	0.0909918
0.161393	0.124378	0	0.0909918
0.162412	0.124378	0	0.0909918
0.162485	0.138198	0.0276396	0.0909918
0.16253	0.165837	0	0.0909918
0.207977	0.165837	0	0.0909918
0.208006	0.165837	0	0.0909918
0.208044	0.165837	0	0.0909918
0.214203	0.165837	0	0.0909918
0.240737	0.165837	0	0.181984
0.240763	0.165837	0	0.181984
0.2408	0.179657	0.0276396	0.181984
0.245457	0.207297	0	0.181984
0.263835	0.207297	0	0.181984
0.271859	0.207297	0	0.181984
0.272652	0.207297	0	0.181984
0.273099	0.207297	0	0.181984
0.273203	0.221117	0.0276396	0.181984
0.282445	0.248756	0	0.181984
0.282516	0.248756	0	0.181984
0.282542	0.248756	0	0.181984
0.28256	0.248756	0	0.181984
0.282769	0.248756	0	0.181984
0.282805	0.248756	0	0.181984
0.285971	0.248756	0	0.181984
0.286016	0.248756	0	0.181984
0.286106	0.262576	0.0276396	0.181984
0.290654	0.290216	0	0.181984
0.290688	0.290216	0	0.181984
0.29069	0.290216	0	0.181984
0.298732	0.290216	0	0.181984
0.29967	0.290216	0	0.181984
0.300411	0.290216	0.0276396	0.181984
0.300411	0.304035	0.0552792	0.181984
0.300453	0.331675	0.0276396	0.181984
0.300472	0.359315	0	0.181984
0.300548	0.359315	0	0.181984
0.307659	0.359315	0	0.181984
0.322199	0.359315	0	0.272975
0.322213	0.359315	0	0.272975
0.322291	0.359315	0.0276396	0.272975
0.322328	0.373134	0.0552792	0.272975
0.322363	0.373134	0.0552792	0.272975
0.322381	0.373134	0.0552792	0.272975
0.322416	0.400774	0.0276396	0.272975
0.323257	0.428413	0	0.272975
0.324039	0.428413	0	0.272975
0.32411	0.442233	0.0276396	0.272975
0.344326	0.469873	0	0.272975
0.34437	0.469873	0	0.272975
0.380947	0.469873	0	0.272975
0.380974	0.469873	0	0.272975
0.381015	0.469873	0	0.272975
0.381021	0.469873	0	0.272975
0.38103	0.469873	0	0.272975
0.414804	0.469873	0	0.272975
0.480755	0.469873	0	0.272975
0.481162	0.469873	0	0.272975
0.481172	0.483693	0.0276396	0.272975
0.490507	0.511332	0	0.272975
0.491186	0.511332	0	0.272975
0.491199	0.511332	0	0.363967
0.4912	0.511332	0	0.363967
0.491202	0.511332	0	0.363967
0.491205	0.511332	0	0.363967
0.491206	0.511332	0	0.363967
0.491231	0.511332	0	0.363967
0.494933	0.511332	0	0.363967
0.498919	0.511332	0	0.363967
0.499016	0.511332	0	0.363967
0.499252	0.511332	0.0276396	0.363967
0.499256	0.525152	0.0552792	0.363967
0.499274	0.552792	0.0276396	0.363967
0.526771	0.580431	0	0.363967
0.526842	0.580431	0	0.363967
0.536651	0.580431	0	0.363967
0.536729	0.580431	0	0.363967
0.538971	0.580431	0.0276396	0.363967
0.538972	0.594251	0.0552792	0.363967
0.539019	0.594251	0.0552792	0.454959
0.539027	0.621891	0.0276396	0.454959
0.539035	0.64953	0	0.454959
0.539543	0.64953	0	0.454959
0.539644	0.64953	0	0.454959
0.539658	0.64953	0	0.454959
0.53968	0.64953	0	0.454959
0.550276	0.64953	0	0.454959
0.556545	0.64953	0	0.454959
0.565131	0.64953	0	0.454959
0.565763	0.64953	0	0.454959
0.565914	0.66335	0.0276396	0.454959
0.607425	0.690989	0	0.454959
0.607834	0.690989	0	0.454959
0.60787	0.704809	0.0276396	0.454959
0.618158	0.732449	0	0.454959
0.639836	0.732449	0	0.454959
0.639847	0.732449	0	0.454959
0.661154	0.732449	0	0.454959
0.661505	0.732449	0	0.454959
0.661661	0.732449	0.0276396	0.454959
0.661683	0.746269	0.0552792	0.454959
0.661706	0.746269	0.0552792	0.454959
0.661971	0.773908	0.0276396	0.454959
0.696638	0.801548	0	0.454959
0.696677	0.801548	0	0.454959
0.715797	0.801548	0	0.454959
0.716232	0.801548	0	0.454959
0.716253	0.801548	0.0276396	0.454959
0.716294	0.801548	0.0276396	0.454959
0.722105	0.829187	0	0.454959
0.722221	0.829187	0	0.454959
0.722227	0.829187	0.0552792	0.454959
0.722249	0.856827	0.0276396	0.454959
0.723042	0.884467	0	0.454959
0.723489	0.884467	0	0.454959
0.723525	0.898286	0.0276396	0.454959
0.730471	0.925926	0	0.454959
0.731249	0.925926	0	0.454959
0.731791	0.925926	0	0.454959
0.731846	0.925926	0.0276396	0.454959
0.732016	0.925926	0.0552792	0.454959
0.747476	0.925926	0.0829187	0.454959
0.76462	0.925926	0.0829187	0.454959
0.765254	0.925926	0.0829187	0.454959
0.765262	0.939746	0.110558	0.454959
0.766406	0.967385	0.0829187	0.454959
0.815386	0.967385	0.0829187	0.454959
0.815393	0.967385	0.0829187	0.545951
0.815402	0.995025	0.0552792	0.545951
0.81541	1.02266	0.0276396	0.545951
0.81545	1.02266	0.0276396	0.545951
0.815451	1.0503	0	0.545951
0.815639	1.0503	0	0.545951
0.81567	1.0503	0	0.545951
0.819775	1.0503	0	0.545951
0.819782	1.0503	0	0.545951
0.819813	1.0503	0	0.545951
0.839759	1.0503	0	0.545951
0.84052	1.0503	0	0.545951
0.840542	1.06412	0.0276396	0.545951
0.856786	1.09176	0	0.545951
0.86179	1.09176	0	0.545951
0.861806	1.09176	0	0.545951
0.868074	1.09176	0	0.545951
0.869727	1.09176	0	0.545951
0.870106	1.09176	0.0276396	0.545951
0.870108	1.10558	0.0552792	0.545951
0.870155	1.13322	0.0276396	0.545951
0.870172	1.16086	0	0.545951
0.870258	1.16086	0	0.545951
0.891228	1.16086	0	0.545951
0.89125	1.16086	0	0.636943
0.891299	1.16086	0	0.636943
0.891318	1.16086	0	0.727934
0.903749	1.16086	0	0.727934
0.906306	1.16086	0	0.909918
0.920861	1.16086	0	1.00091
0.94815	1.16086	0	1.00091
0.966357	1.16086	0	1.0919
0.976273	1.16086	0	1.0919
0.976885	1.16086	0	1.0919
0.98854	1.16086	0	1.0919
0.991455	1.16086	0	1.0919
0.991953	1.16086	0	1.0919
0.992062	1.16086	0.0276396	1.0919
0.993432	1.16086	0.0552792	1.0919
0.993434	1.16086	0.110558	1.0919
0.993449	1.1885	0.0829187	1.0919
0.993451	1.1885	0.0829187	1.0919
0.993455	1.21614	0.0552792	1.0919
0.993459	1.21614	0.0552792	1.0919
0.99346	1.21614	0.0552792	1.0919
0.993502	1.24378	0.0276396	1.0919
0.993522	1.24378	0.0276396	1.0919
0.995853	1.27142	0	1.0919
1.00599	1.27142	0	1.0919
1.01412	1.27142	0	1.0919
1.02121	1.27142	0	1.0919
1.02122	1.27142	0	1.0919
1.02127	1.27142	0	1.0919
1.05253	1.27142	0	1.0919
1.06556	1.27142	0	1.0919
1.07103	1.27142	0	1.27389
1.07104	1.27142	0	1.27389
1.07116	1.27142	0	1.27389
1.07117	1.27142	0	1.27389
1.07124	1.27142	0	1.27389
1.0735	1.27142	0	1.27389
1.07397	1.27142	0	1.27389
1.07403	1.27142	0.0276396	1.27389
1.07405	1.28524	0.0552792	1.27389
1.07406	1.31288	0.0276396	1.27389
1.07759	1.34052	0	1.27389
1.07759	1.34052	0	1.27389
1.07762	1.34052	0	1.27389
1.08214	1.34052	0	1.27389
1.08261	1.34052	0	1.27389
1.08261	1.35434	0.0276396	1.27389
1.08857	1.38198	0	1.27389
1.08923	1.38198	0	1.27389
1.08935	1.3958	0.0276396	1.27389
1.09719	1.42344	0	1.27389
1.14305	1.42344	0	1.27389
1.14309	1.42344	0	1.27389
1.14762	1.42344	0	1.27389
1.17288	1.42344	0	1.27389
1.17288	1.42344	0	1.27389
1.17433	1.42344	0	1.27389
1.17557	1.42344	0	1.27389
1.17572	1.43726	0.0276396	1.27389
1.20677	1.4649	0	1.27389
1.20769	1.4649	0	1.27389
1.20781	1.47872	0.0276396	1.27389
1.21878	1.50636	0	1.27389
1.21882	1.50636	0	1.27389
1.21925	1.50636	0.0276396	1.27389
1.21929	1.52018	0.0552792	1.27389
1.21947	1.54782	0.0276396	1.27389
1.22231	1.57546	0	1.27389
1.22234	1.57546	0	1.27389
1.22239	1.58928	0.0276396	1.27389
1.24892	1.61692	0	1.27389
1.24906	1.61692	0	1.27389
1.24964	1.61692	0.0276396	1.27389
1.24988	1.61692	0.0552792	1.27389
1.24993	1.61692	0.0552792	1.27389
1.25041	1.61692	0.0829187	1.27389
1.25053	1.61692	0.110558	1.27389
1.25093	1.61692	0.138198	1.27389
1.25094	1.63074	0.165837	1.27389
1.25094	1.65837	0.138198	1.27389
1.25096	1.68601	0.110558	1.27389
1.25096	1.68601	0.110558	1.27389
1.25098	1.68601	0.110558	1.27389
1.25099	1.71365	0.0829187	1.27389
1.25103	1.74129	0.0552792	1.27389
1.25107	1.76893	0.0276396	1.27389
1.29947	1.79657	0	1.27389
1.30571	1.79657	0	1.27389
1.30573	1.79657	0	1.36488
1.30573	1.79657	0	1.36488
1.31981	1.79657	0	1.36488
1.36421	1.79657	0	1.45587
1.37337	1.79657	0	1.54686
1.37418	1.79657	0	1.54686
1.37424	1.81039	0.0276396	1.54686
1.37926	1.83803	0	1.54686
1.38077	1.83803	0	1.54686
1.38084	1.85185	0.0276396	1.54686
1.3815	1.87949	0	1.54686
1.38222	1.87949	0	1.54686
1.38226	1.89331	0.0276396	1.54686
1.39069	1.92095	0	1.54686
1.39074	1.92095	0	1.54686
1.39084	1.93477	0.0276396	1.54686
1.39485	1.96241	0	1.54686
1.3949	1.96241	0	1.54686
1.39561	1.96241	0.0276396	1.54686
1.39563	1.97623	0.0552792	1.54686
1.39564	2.00387	0.0276396	1.54686
1.40512	2.03151	0	1.54686
1.40759	2.03151	0	1.63785
1.40806	2.03151	0	1.63785
1.40823	2.03151	0.0276396	1.63785
1.40986	2.03151	0.0552792	1.63785
1.40987	2.03151	0.110558	1.63785
1.40987	2.03151	0.110558	1.63785
1.40987	2.05915	0.0829187	1.63785
1.40988	2.08679	0.0552792	1.63785
1.4099	2.11443	0.0276396	1.63785
1.40991	2.11443	0.0276396	1.63785
1.44847	2.14207	0	1.63785
1.46534	2.14207	0	1.63785
1.46551	2.14207	0	1.63785
1.46575	2.14207	0.0276396	1.63785
1.46601	2.14207	0.0552792	1.63785
1.46604	2.14207	0.0829187	1.63785
1.46605	2.16971	0.0552792	1.63785
1.46606	2.19735	0.0276396	1.63785
1.4741	2.22499	0	1.63785
1.47412	2.22499	0	1.72884
1.49772	2.22499	0	1.72884
1.53247	2.22499	0	1.81984
1.53687	2.22499	0	1.91083
1.54709	2.22499	0	1.91083
1.54854	2.22499	0	1.91083
1.55096	2.22499	0	1.91083
1.55106	2.22499	0.0276396	1.91083
1.55111	2.23881	0.0552792	1.91083
1.55121	2.26645	0.0276396	1.91083
1.55736	2.29409	0	1.91083
1.55739	2.29409	0	1.91083
1.55743	2.29409	0.0552792	1.91083
1.55745	2.32172	0.0276396	1.91083
1.56725	2.34936	0	1.91083
1.56726	2.34936	0	1.91083
1.56764	2.34936	0.0276396	1.91083
1.56765	2.34936	0.0552792	1.91083
1.56773	2.377	0.0276396	1.91083
1.57023	2.40464	0	1.91083
1.57071	2.40464	0	1.91083
1.57075	2.41846	0.0276396	1.91083
1.58313	2.4461	0	1.91083
1.58579	2.4461	0	2.00182
1.58672	2.4461	0	2.00182
1.58693	2.4461	0.0276396	2.00182
1.5875	2.4461	0.0552792	2.00182
1.59892	2.4461	0.0552792	2.00182
1.59892	2.4461	0.0552792	2.00182
1.59911	2.45992	0.0829187	2.00182
1.60827	2.48756	0.0552792	2.00182
1.60846	2.48756	0.0552792	2.00182
1.60851	2.48756	0.0829187	2.00182
1.60865	2.48756	0.110558	2.00182
1.60865	2.48756	0.138198	2.00182
1.60867	2.5152	0.110558	2.00182
1.60867	2.54284	0.0829187	2.00182
1.60867	2.57048	0.0552792	2.00182
1.61558	2.57048	0.0552792	2.00182
1.61564	2.57048	0.0552792	2.00182
1.61568	2.57048	0.110558	2.00182
1.61576	2.59812	0.0829187	2.00182
1.631	2.62576	0.0552792	2.00182
1.631	2.62576	0.0552792	2.09281
1.63108	2.6534	0.0276396	2.09281
1.65497	2.68104	0	2.09281
1.65498	2.68104	0	2.09281
1.655	2.68104	0	2.09281
1.655	2.68104	0	2.09281
1.67079	2.68104	0	2.09281
1.7527	2.68104	0	2.09281
1.75367	2.68104	0	2.1838
1.78343	2.68104	0	2.1838
1.78371	2.68104	0	2.1838
1.78428	2.68104	0.0276396	2.1838
1.78432	2.69486	0.0552792	2.1838
1.78438	2.7225	0.0276396	2.1838
1.79264	2.75014	0	2.1838
1.7934	2.75014	0	2.1838
1.79357	2.76396	0.0276396	2.1838
1.8034	2.7916	0	2.1838
1.80431	2.7916	0	2.1838
1.80434	2.7916	0.0552792	2.1838
1.80439	2.81924	0.0276396	2.1838
1.82621	2.84688	0	2.1838
1.82667	2.84688	0	2.1838
1.82703	2.84688	0.0276396	2.1838
1.82707	2.8607	0.0552792	2.1838
1.82723	2.88834	0.0276396	2.1838
1.83303	2.91598	0	2.1838
1.83305	2.91598	0	2.1838
1.83323	2.91598	0.0276396	2.1838
1.83349	2.91598	0.0552792	2.1838
1.83483	2.91598	0.0829187	2.1838
1.83506	2.91598	0.110558	2.1838
1.83548	2.91598	0.138198	2.1838
1.83583	2.91598	0.165837	2.1838
1.83583	2.9298	0.193477	2.1838
1.83584	2.95744	0.165837	2.1838
1.83587	2.98507	0.138198	2.1838
1.83591	3.01271	0.110558	2.1838
1.83592	3.04035	0.0829187	2.1838
1.83599	3.06799	0.0552792	2.1838
1.8363	3.09563	0.0276396	2.1838
1.83752	3.12327	0	2.1838
1.83821	3.12327	0	2.1838
1.83829	3.13709	0.0276396	2.1838
1.85224	3.16473	0	2.1838
1.86609	3.16473	0	2.36579
1.87232	3.16473	0	2.36579
1.87259	3.16473	0	2.36579
1.87264	3.17855	0.0276396	2.36579
1.87267	3.20619	0	2.36579
1.87299	3.20619	0	2.36579
1.8736	3.20619	0	2.36579
1.87374	3.22001	0.0276396	2.36579
1.91495	3.24765	0	2.36579
1.91567	3.24765	0	2.36579
1.91569	3.26147	0.0276396	2.36579
1.93231	3.28911	0	2.36579
1.94035	3.28911	0	2.45678
1.94037	3.28911	0	2.54777
1.94247	3.28911	0	2.54777
1.94328	3.28911	0	2.54777
1.94338	3.30293	0.0276396	2.54777
1.94765	3.33057	0	2.54777
1.94795	3.33057	0	2.54777
1.94812	3.33057	0.0276396	2.54777
1.94815	3.34439	0.0552792	2.54777
1.94821	3.37203	0.0276396	2.54777
1.95333	3.39967	0	2.54777
1.95367	3.39967	0	2.54777
1.95368	3.41349	0.0276396	2.54777
1.96136	3.44113	0	2.54777
1.96246	3.44113	0	2.54777
1.96254	3.45495	0.0276396	2.54777
1.96867	3.48259	0	2.54777
1.96903	3.48259	0	2.54777
1.96911	3.48259	0.0552792	2.54777
1.96912	3.51023	0.0276396	2.54777
1.96917	3.51023	0.0276396	2.54777
1.9785	3.53787	0	2.54777
1.97866	3.53787	0	2.54777
1.97869	3.55169	0.0276396	2.54777
1.98776	3.57933	0	2.54777
1.98777	3.57933	0	2.54777
1.98983	3.57933	0.0276396	2.54777
2.07216	3.57933	0.0276396	2.54777
2.07216	3.57933	0.0276396	2.63876
2.07218	3.57933	0.0276396	2.63876
2.07218	3.57933	0.0276396	2.63876
2.10789	3.60697	0	2.63876
2.10792	3.60697	0	2.72975
2.1127	3.60697	0	2.72975
2.15855	3.60697	0	2.82075
2.15865	3.60697	0	2.82075
2.1587	3.62078	0.0276396	2.82075
2.16956	3.64842	0	2.82075
2.17377	3.64842	0	2.82075
2.1749	3.64842	0	2.82075
2.17573	3.64842	0.0276396	2.82075
2.17574	3.64842	0.0829187	2.82075
2.1758	3.67606	0.0552792	2.82075
2.17582	3.7037	0.0276396	2.82075
2.19043	3.73134	0	2.82075
2.19118	3.73134	0	2.82075
2.1917	3.73134	0.0276396	2.82075
2.19199	3.73134	0.0276396	2.91174
2.19203	3.74516	0.0552792	2.91174
2.19204	3.7728	0.0276396	2.91174
2.19802	3.80044	0	2.91174
2.19825	3.80044	0	2.91174
2.19832	3.81426	0.0276396	2.91174
2.20881	3.8419	0	2.91174
2.20903	3.8419	0	2.91174
2.20903	3.8419	0	2.91174
2.20914	3.8419	0	2.91174
2.2252	3.8419	0	2.91174
2.22955	3.8419	0	2.91174
2.24005	3.8419	0	3.09372
2.24314	3.8419	0	3.18471
2.2666	3.8419	0	3.18471
2.267	3.8419	0	3.18471
2.26715	3.85572	0.0276396	3.18471
2.27347	3.88336	0	3.18471
2.27416	3.88336	0	3.18471
2.27529	3.88336	0.0276396	3.18471
2.2753	3.89718	0.0552792	3.18471
2.27541	3.92482	0.0276396	3.18471
2.29006	3.95246	0	3.18471
2.29127	3.95246	0	3.18471
2.29362	3.95246	0	3.27571
2.2938	3.96628	0.0276396	3.27571
2.30453	3.99392	0	3.27571
2.31532	3.99392	0	3.3667
2.31566	3.99392	0	3.3667
2.31566	3.99392	0.0552792	3.3667
2.31566	4.02156	0.0276396	3.3667
2.32523	4.0492	0	3.3667
2.32589	4.0492	0	3.3667
2.32593	4.0492	0.0552792	3.3667
2.32599	4.07684	0.0276396	3.3667
2.3362	4.10448	0	3.3667
2.33677	4.10448	0	3.3667
2.33679	4.10448	0.0552792	3.3667
2.33679	4.13212	0.0276396	3.3667
2.33681	4.13212	0.0276396	3.3667
2.33681	4.13212	0.0276396	3.3667
2.33688	4.15976	0	3.3667
2.34268	4.15976	0	3.3667
2.37381	4.15976	0	3.3667
2.37402	4.15976	0	3.3667
2.37407	4.15976	0.0552792	3.3667
2.37421	4.1874	0.0276396	3.3667
2.37561	4.21504	0	3.3667
2.42421	4.21504	0	3.54868
2.4244	4.21504	0	3.54868
2.42448	4.21504	0.0276396	3.54868
2.42449	4.22886	0.0552792	3.54868
2.42458	4.2565	0.0276396	3.54868
2.42925	4.28413	0	3.54868
2.45752	4.28413	0	3.63967
2.45773	4.28413	0	3.63967
2.45791	4.29795	0.0276396	3.63967
2.47348	4.32559	0	3.63967
2.47409	4.32559	0	3.63967
2.47441	4.32559	0.0276396	3.63967
2.47441	4.33941	0.0552792	3.63967
2.47444	4.36705	0.0276396	3.63967
2.48023	4.39469	0	3.63967
2.48326	4.39469	0	3.63967
2.48333	4.39469	0.0276396	3.63967
2.52051	4.42233	0	3.63967
2.5266	4.42233	0	3.82166
2.52672	4.42233	0	3.82166
2.52679	4.42233	0.0552792	3.82166
2.52683	4.44997	0.0276396	3.82166
2.60345	4.47761	0	3.82166
2.60384	4.47761	0	3.82166
2.6039	4.49143	0.0276396	3.82166
2.63694	4.51907	0	3.82166
2.63719	4.51907	0	3.82166
2.63722	4.53289	0.0276396	3.82166
2.64942	4.56053	0	3.82166
2.6499	4.56053	0	3.82166
2.64992	4.57435	0.0276396	3.82166
2.7198	4.60199	0	3.82166
2.71988	4.60199	0	3.82166
2.71989	4.61581	0.0276396	3.82166
2.7199	4.64345	0	3.82166
2.73381	4.64345	0	3.82166
2.73503	4.64345	0	3.82166
2.77934	4.64345	0	3.91265
2.79985	4.64345	0	4.00364
2.8159	4.64345	0	4.09463
2.81598	4.64345	0	4.09463
2.81601	4.64345	0.0552792	4.09463
2.81601	4.67109	0.0276396	4.09463
2.8184	4.69873	0	4.09463
2.81874	4.69873	0	4.09463
2.81878	4.69873	0.0276396	4.09463
2.81966	4.69873	0.0552792	4.09463
2.83282	4.69873	0.0552792	4.09463
2.83337	4.69873	0.0552792	4.09463
2.83344	4.71255	0.0829187	4.09463
2.84664	4.74019	0.0552792	4.09463
2.87019	4.74019	0.0552792	4.27662
2.87028	4.74019	0.0552792	4.36761
2.87031	4.76783	0.0276396	4.36761
2.87217	4.79547	0	4.36761
2.87753	4.79547	0	4.36761
2.91404	4.79547	0	4.36761
2.9148	4.79547	0	4.36761
2.91492	4.79547	0.0276396	4.36761
2.91493	4.80929	0.0552792	4.36761
2.91494	4.83693	0.0276396	4.36761
2.91499	4.86457	0	4.36761
2.91725	4.86457	0	4.36761
2.91837	4.86457	0	4.36761
2.96058	4.86457	0	4.4586
2.96103	4.86457	0	4.54959
2.96141	4.86457	0	4.54959
2.96152	4.87839	0.0276396	4.54959
2.96902	4.90603	0	4.54959
2.96966	4.90603	0	4.54959
2.96968	4.91985	0.0276396	4.54959
2.9697	4.94748	0	4.54959
3.0009	4.94748	0	4.54959
3.06985	4.94748	0	4.73157
3.07086	4.94748	0	4.82257
3.07591	4.94748	0	5.00455
3.08504	4.94748	0	5.09554
3.08516	4.94748	0	5.09554
3.08564	4.94748	0.0276396	5.09554
3.08566	4.9613	0.0552792	5.09554
3.08573	4.98894	0.0276396	5.09554
3.08786	5.01658	0	5.09554
3.08789	5.01658	0	5.18653
3.09064	5.01658	0	5.18653
3.091	5.01658	0	5.18653
3.09132	5.01658	0.0276396	5.18653
3.09137	5.0304	0.0552792	5.18653
3.09152	5.05804	0.0276396	5.18653
3.0985	5.08568	0	5.18653
3.0994	5.08568	0	5.18653
3.09945	5.08568	0.0552792	5.18653
3.09953	5.11332	0.0276396	5.18653
3.13336	5.14096	0	5.18653
3.13666	5.14096	0	5.27753
3.13766	5.14096	0	5.27753
3.13808	5.14096	0.0276396	5.27753
3.13808	5.15478	0.0552792	5.27753
3.13818	5.18242	0.0276396	5.27753
3.1545	5.21006	0	5.27753
3.17974	5.21006	0	5.27753
3.18017	5.21006	0	5.27753
3.1802	5.21006	0.0552792	5.27753
3.18022	5.2377	0.0276396	5.27753
3.235	5.26534	0	5.27753
3.23756	5.26534	0	5.36852
3.23918	5.26534	0	5.45951
3.23962	5.26534	0	5.5505
3.23965	5.26534	0	5.64149
3.27351	5.26534	0	5.64149
3.27443	5.26534	0	5.64149
3.27445	5.27916	0.0276396	5.64149
3.27512	5.3068	0	5.64149
3.27556	5.3068	0	5.64149
3.27608	5.3068	0.0276396	5.64149
3.27609	5.32062	0.0552792	5.64149
3.27609	5.34826	0.0276396	5.64149
3.28899	5.3759	0	5.64149
3.28949	5.3759	0	5.64149
3.28951	5.3759	0.0552792	5.64149
3.28952	5.40354	0.0276396	5.64149
3.33321	5.43118	0	5.64149
3.33469	5.43118	0	5.64149
3.40065	5.43118	0	5.82348
3.40593	5.43118	0	5.91447
3.40608	5.43118	0	6.09645
3.40616	5.43118	0	6.09645
3.40619	5.445	0.0276396	6.09645
3.41191	5.47264	0	6.09645
3.41215	5.47264	0	6.09645
3.41217	5.47264	0.0552792	6.09645
3.41226	5.50028	0.0276396	6.09645
3.43461	5.52792	0	6.09645
3.43472	5.52792	0	6.09645
3.43472	5.54174	0.0276396	6.09645
3.4485	5.56938	0	6.09645
3.44861	5.56938	0	6.09645
3.44865	5.5832	0.0276396	6.09645
3.52826	5.61083	0	6.09645
3.53075	5.61083	0	6.09645
3.53078	5.61083	0.0552792	6.09645
3.53078	5.63847	0.0276396	6.09645
3.55375	5.66611	0	6.09645
3.55795	5.66611	0	6.18744
3.55899	5.66611	0	6.18744
3.55902	5.67993	0.0276396	6.18744
3.56569	5.70757	0	6.18744
3.56582	5.70757	0	6.18744
3.56591	5.72139	0.0276396	6.18744
3.66226	5.74903	0	6.18744
3.67394	5.74903	0	6.27843
3.67452	5.74903	0	6.27843
3.67598	5.74903	0.0276396	6.27843
3.67606	5.76285	0.0552792	6.27843
3.67609	5.79049	0.0276396	6.27843
3.67997	5.81813	0	6.27843
3.68076	5.81813	0	6.27843
3.68082	5.83195	0.0276396	6.27843
3.69663	5.85959	0	6.27843
3.69664	5.85959	0	6.27843
3.69665	5.85959	0	6.27843
3.71136	5.85959	0	6.27843
3.71164	5.85959	0	6.27843
3.71166	5.85959	0.0276396	6.27843
3.71169	5.87341	0.0552792	6.27843
3.71176	5.90105	0.0276396	6.27843
3.72282	5.92869	0	6.27843
3.72828	5.92869	0	6.27843
3.72888	5.92869	0	6.27843
3.72918	5.92869	0.0276396	6.27843
3.7292	5.94251	0.0552792	6.27843
3.72921	5.97015	0.0276396	6.27843
3.72923	5.97015	0.0276396	6.27843
3.72924	5.99779	0	6.27843
3.7322	5.99779	0	6.27843
3.73231	5.99779	0	6.27843
3.73416	5.99779	0.0276396	6.27843
3.73416	6.01161	0.0552792	6.27843
3.73418	6.03925	0.0276396	6.27843
3.73418	6.03925	0.0276396	6.27843
3.81274	6.06689	0	6.27843
3.81616	6.06689	0	6.27843
3.82016	6.06689	0	6.46042
3.82035	6.06689	0	6.46042
3.82039	6.08071	0.0276396	6.46042
3.8238	6.10835	0	6.46042
3.82463	6.10835	0	6.46042
3.82471	6.10835	0.0552792	6.46042
3.82472	6.13599	0.0276396	6.46042
3.82477	6.13599	0.0276396	6.46042
3.8248	6.16363	0	6.46042
3.8566	6.16363	0	6.46042
3.86458	6.16363	0	6.6424
3.8668	6.16363	0	6.73339
3.86837	6.16363	0	6.73339
3.86839	6.16363	0.0552792	6.73339
3.86849	6.19127	0.0276396	6.73339
3.8697	6.21891	0	6.73339
3.86992	6.21891	0	6.73339
3.86993	6.23273	0.0276396	6.73339
3.8794	6.26036	0	6.73339
3.88294	6.26036	0	6.82439
3.88295	6.26036	0	6.82439
3.88296	6.26036	0.0552792	6.82439
3.88317	6.288	0.0276396	6.82439
3.89427	6.31564	0	6.82439
3.91835	6.31564	0	7.00637
3.92158	6.31564	0	7.00637
3.92213	6.31564	0	7.00637
3.92223	6.32946	0.0276396	7.00637
3.92224	6.3571	0	7.00637
3.95797	6.3571	0	7.00637
3.9677	6.3571	0	7.09736
3.99904	6.3571	0	7.27934
3.9995	6.3571	0	7.27934
3.99952	6.37092	0.0276396	7.27934
4.00103	6.39856	0	7.27934
4.03074	6.39856	0	7.37034
4.03109	6.39856	0	7.37034
4.03112	6.39856	0.0552792	7.37034
4.03119	6.4262	0.0276396	7.37034
4.05296	6.45384	0	7.37034
4.07423	6.45384	0	7.37034
4.0811	6.45384	0	7.46133
4.08177	6.45384	0	7.46133
4.08202	6.46766	0.0276396	7.46133
4.08319	6.4953	0	7.46133
4.10382	6.4953	0	7.55232
4.11731	6.4953	0	7.55232
4.11738	6.4953	0	7.55232
4.11755	6.50912	0.0276396	7.55232
4.12268	6.53676	0	7.55232
4.12381	6.53676	0	7.55232
4.12386	6.55058	0.0276396	7.55232
4.15165	6.57822	0	7.55232
4.15171	6.57822	0	7.55232
4.15171	6.57822	0.0552792	7.55232
4.15172	6.60586	0.0276396	7.55232
4.16561	6.6335	0	7.55232
4.223	6.6335	0	7.55232
4.23714	6.6335	0	7.55232
4.23721	6.6335	0	7.55232
4.23763	6.6335	0.0276396	7.55232
4.23777	6.6335	0.0552792	7.55232
4.23777	6.6335	0.0829187	7.55232
4.23779	6.66114	0.0552792	7.55232
4.23784	6.68878	0.0276396	7.55232
4.24518	6.71642	0	7.55232
4.26308	6.71642	0	7.55232
4.26364	6.71642	0	7.55232
4.26364	6.71642	0.0552792	7.55232
4.26372	6.74406	0.0276396	7.55232
4.26445	6.7717	0	7.55232
4.26485	6.7717	0	7.55232
4.26496	6.78552	0.0276396	7.55232
4.28238	6.81316	0	7.55232
4.29156	6.81316	0	7.64331
4.29666	6.81316	0	7.7343
4.29722	6.81316	0	7.7343
4.29724	6.82698	0.0276396	7.7343
4.30822	6.85462	0	7.7343
4.30824	6.85462	0	7.91629
4.30828	6.85462	0	7.91629
4.31024	6.85462	0	7.91629
4.3104	6.85462	0	7.91629
4.31041	6.86844	0.0276396	7.91629
4.36564	6.89608	0	7.91629
4.46181	6.89608	0	8.00728
4.46215	6.89608	0	8.00728
4.46225	6.90989	0.0276396	8.00728
4.47095	6.93753	0	8.00728
4.48353	6.93753	0	8.00728
4.48456	6.93753	0	8.00728
4.48459	6.93753	0.0552792	8.00728
4.48465	6.96517	0.0276396	8.00728
4.49888	6.99281	0	8.00728
4.50106	6.99281	0	8.00728
4.50107	7.00663	0.0276396	8.00728
4.50111	7.00663	0.0276396	8.00728
4.50148	7.03427	0	8.00728
4.50313	7.03427	0	8.09827
4.50387	7.03427	0	8.09827
4.50423	7.03427	0.0276396	8.09827
4.50425	7.04809	0.0552792	8.09827
4.50427	7.07573	0.0276396	8.09827
4.5138	7.10337	0	8.09827
4.51381	7.10337	0	8.09827
4.51395	7.10337	0.0276396	8.09827
4.51398	7.11719	0.0552792	8.09827
4.51418	7.14483	0.0276396	8.09827
4.53948	7.17247	0	8.09827
4.54696	7.17247	0	8.18926
4.55245	7.17247	0	8.37125
4.55278	7.17247	0	8.37125
4.55284	7.18629	0.0276396	8.37125
4.58091	7.21393	0	8.37125
4.59727	7.21393	0	8.46224
4.63573	7.21393	0	8.55323
4.69331	7.21393	0	8.64422
4.70456	7.21393	0	8.73521
4.70549	7.21393	0	8.73521
4.70561	7.22775	0.0276396	8.73521
4.71829	7.25539	0	8.73521
4.7187	7.25539	0	8.73521
4.71936	7.25539	0.0276396	8.73521
4.71937	7.26921	0.0552792	8.73521
4.71943	7.29685	0.0276396	8.73521
4.71944	7.29685	0.0276396	8.73521
4.7195	7.32449	0	8.73521
4.73097	7.32449	0	8.73521
4.73618	7.32449	0	8.9172
4.73686	7.32449	0	8.9172
4.73692	7.33831	0.0276396	8.9172
4.76365	7.36595	0	8.9172
4.77993	7.36595	0	9.00819
4.78033	7.36595	0	9.00819
4.78035	7.36595	0.0552792	9.00819
4.78037	7.39359	0.0276396	9.00819
4.78235	7.42123	0	9.00819
4.78273	7.42123	0	9.00819
4.78279	7.43505	0.0276396	9.00819
4.79562	7.46269	0	9.00819
4.79596	7.46269	0	9.00819
4.79598	7.46269	0.0552792	9.00819
4.79606	7.49033	0.0276396	9.00819
4.84088	7.51797	0	9.00819
4.84102	7.51797	0	9.00819
4.84105	7.53179	0.0276396	9.00819
4.84126	7.55943	0	9.00819
4.84309	7.55943	0	9.00819
4.86545	7.55943	0	9.00819
4.86584	7.55943	0	9.00819
4.86592	7.57324	0.0276396	9.00819
4.87457	7.60088	0	9.00819
4.87476	7.60088	0	9.00819
4.87478	7.6147	0.0276396	9.00819
4.89956	7.64234	0	9.00819
4.91527	7.64234	0	9.09918
4.9153	7.64234	0	9.09918
4.9155	7.65616	0.0276396	9.09918
4.91705	7.6838	0	9.09918
4.91728	7.6838	0	9.09918
4.9173	7.6838	0.0552792	9.09918
4.91742	7.71144	0.0276396	9.09918
4.94009	7.73908	0	9.09918
4.97844	7.73908	0	9.19017
4.98787	7.73908	0	9.28116
4.9919	7.73908	0	9.28116
4.99191	7.7529	0.0276396	9.28116
5.02213	7.78054	0	9.28116
5.03668	7.78054	0	9.46315
5.04323	7.78054	0	9.55414
5.04328	7.78054	0	9.55414
5.04345	7.78054	0.0276396	9.55414
5.04347	7.79436	0.0552792	9.55414
5.04365	7.822	0.0276396	9.55414
5.06184	7.84964	0	9.55414
5.06301	7.84964	0	9.55414
5.06303	7.86346	0.0276396	9.55414
5.06356	7.8911	0	9.55414
5.07237	7.8911	0	9.73612
5.07266	7.8911	0	9.73612
5.07277	7.8911	0.0552792	9.73612
5.07292	7.91874	0.0276396	9.73612
5.09203	7.94638	0	9.73612
5.10786	7.94638	0	9.91811
5.10788	7.94638	0	10.0091
5.10796	7.94638	0	10.0091
5.14155	7.94638	0	10.0091
5.14169	7.94638	0	10.0091
5.14171	7.9602	0.0276396	10.0091
5.14172	7.98784	0	10.0091
5.16321	7.98784	0	10.0091
5.16337	7.98784	0	10.0091
5.16338	8.00166	0.0276396	10.0091
5.17704	8.0293	0	10.0091
5.19599	8.0293	0	10.1911
5.19703	8.0293	0	10.1911
5.19704	8.04312	0.0276396	10.1911
5.20906	8.07076	0	10.1911
5.20948	8.07076	0	10.1911
5.20954	8.08458	0.0276396	10.1911
5.23691	8.11222	0	10.1911
5.23886	8.11222	0	10.2821
5.23908	8.11222	0	10.2821
5.23909	8.12604	0.0276396	10.2821
5.24984	8.15368	0	10.2821
5.2938	8.15368	0	10.3731
5.35307	8.15368	0	10.3731
5.35315	8.15368	0	10.3731
5.3532	8.1675	0.0276396	10.3731
5.3547	8.19514	0	10.3731
5.35513	8.19514	0	10.3731
5.35513	8.19514	0.0552792	10.3731
5.35516	8.22278	0.0276396	10.3731
5.37902	8.25041	0	10.3731
5.3793	8.25041	0	10.3731
5.37931	8.26423	0.0276396	10.3731
5.39693	8.29187	0	10.3731
5.40552	8.29187	0	10.4641
5.40559	8.29187	0	10.4641
5.4056	8.29187	0.0276396	10.4641
5.4056	8.30569	0.0552792	10.4641
5.40563	8.33333	0.0276396	10.4641
5.40565	8.33333	0.0276396	10.4641
5.40685	8.36097	0	10.4641
5.40694	8.36097	0	10.4641
5.40725	8.36097	0.0276396	10.4641
5.40726	8.37479	0.0552792	10.4641
5.40726	8.40243	0.0276396	10.4641
5.40822	8.43007	0	10.4641
5.40826	8.43007	0	10.4641
5.40833	8.44389	0.0276396	10.4641
5.45465	8.47153	0	10.4641
5.4547	8.47153	0	10.4641
5.45519	8.47153	0.0276396	10.4641
5.45519	8.47153	0.0829187	10.4641
5.4552	8.49917	0.0552792	10.4641
5.45534	8.52681	0.0276396	10.4641
5.48653	8.55445	0	10.4641
5.48722	8.55445	0	10.4641
5.49357	8.55445	0.0276396	10.4641
5.49403	8.55445	0.0276396	10.4641
5.49421	8.55445	0.0552792	10.4641
5.49452	8.55445	0.0829187	10.4641
5.4946	8.55445	0.110558	10.4641
5.55793	8.55445	0.138198	10.4641
5.55794	8.55445	0.138198	10.5551
5.55796	8.58209	0.110558	10.5551
5.558	8.58209	0.110558	10.5551
5.55801	8.60973	0.0829187	10.5551
5.5581	8.63737	0.0552792	10.5551
5.55814	8.66501	0.0276396	10.5551
5.56721	8.69265	0	10.5551
5.58506	8.69265	0	10.737
5.5853	8.69265	0	10.737
5.58539	8.70647	0.0276396	10.737
5.58645	8.73411	0	10.737
5.59569	8.73411	0	10.828
5.61134	8.73411	0	10.919
5.61768	8.73411	0	11.01
5.61785	8.73411	0	11.01
5.61789	8.74793	0.0276396	11.01
5.61998	8.77557	0	11.01
5.62013	8.77557	0	11.01
5.62015	8.78939	0.0276396	11.01
5.63916	8.81703	0	11.01
5.68707	8.81703	0	11.101
5.69702	8.81703	0	11.192
5.69757	8.81703	0	11.192
5.69804	8.81703	0	11.283
5.69884	8.81703	0.0276396	11.283
5.69886	8.83085	0.0552792	11.283
5.69887	8.85849	0.0276396	11.283
5.73878	8.88612	0	11.283
5.73911	8.88612	0	11.283
5.73914	8.89994	0.0276396	11.283
5.77432	8.92758	0	11.283
5.77435	8.92758	0	11.283
5.77438	8.92758	0.0552792	11.283
5.77441	8.95522	0.0276396	11.283
5.78484	8.98286	0	11.283
5.78549	8.98286	0	11.283
5.78551	8.99668	0.0276396	11.283
5.87411	9.02432	0	11.283
5.87416	9.02432	0	11.283
5.87417	9.03814	0.0276396	11.283
5.94507	9.06578	0	11.283
5.95223	9.06578	0	11.374
5.95227	9.06578	0	11.374
5.9525	9.06578	0.0276396	11.374
5.9526	9.06578	0.0552792	11.374
5.9533	9.06578	0.0829187	11.374
5.95338	9.06578	0.110558	11.374
5.95362	9.06578	0.138198	11.374
5.95369	9.06578	0.165837	11.374
5.9537	9.0796	0.193477	11.374
5.95371	9.10724	0.165837	11.374
5.95371	9.13488	0.138198	11.374
5.95371	9.16252	0.110558	11.374
5.95371	9.19016	0.0829187	11.374
5.95377	9.2178	0.0552792	11.374
5.95391	9.24544	0.0276396	11.374
6.04035	9.27308	0	11.374
6.04049	9.27308	0	11.374
6.04065	9.27308	0	11.374
6.04068	9.2869	0.0276396	11.374
6.04312	9.31454	0	11.374
6.04314	9.32836	0.0276396	11.374
6.04788	9.356	0	11.374
6.048	9.356	0	11.374
6.04853	9.356	0.0276396	11.374
6.04854	9.36982	0.0552792	11.374
6.04856	9.39746	0.0276396	11.374
6.07644	9.4251	0	11.374
6.07646	9.4251	0	11.374
6.07658	9.4251	0.0276396	11.374
6.07658	9.43892	0.0552792	11.374
6.07658	9.46656	0.0276396	11.374
6.07661	9.46656	0.0276396	11.374
6.08237	9.4942	0	11.374
6.14229	9.4942	0	11.465
6.14337	9.4942	0	11.465
6.14351	9.50802	0.0276396	11.465
6.19834	9.53566	0	11.465
6.19997	9.53566	0	11.465
6.20001	9.53566	0.0276396	11.465
6.20055	9.56329	0	11.465
6.20067	9.56329	0	11.465
6.20069	9.57711	0.0276396	11.465
6.26594	9.60475	0	11.465
6.26646	9.60475	0	11.465
6.26774	9.60475	0.0276396	11.465
6.26779	9.61857	0.0552792	11.465
6.26793	9.64621	0.0276396	11.465
6.34181	9.67385	0	11.465
6.34185	9.67385	0	11.465
6.3419	9.68767	0.0276396	11.465
6.35497	9.71531	0	11.465
6.35565	9.71531	0	11.465
6.3557	9.72913	0.0276396	11.465
6.35699	9.75677	0	11.465
6.39443	9.75677	0	11.556
6.39446	9.75677	0	11.556
6.39447	9.75677	0.0552792	11.556
6.39451	9.78441	0.0276396	11.556
6.4025	9.81205	0	11.556
6.40483	9.81205	0	11.556
6.40497	9.81205	0.0276396	11.556
6.40571	9.81205	0.0552792	11.556
6.40572	9.81205	0.0829187	11.556
6.4058	9.81205	0.110558	11.556
6.41432	9.81205	0.138198	11.556
6.41528	9.81205	0.138198	11.556
6.41534	9.81205	0.165837	11.556
6.41537	9.82587	0.193477	11.556
6.41537	9.85351	0.165837	11.556
6.44317	9.88115	0.138198	11.556
6.44328	9.88115	0.138198	11.556
6.44328	9.89497	0.165837	11.556
6.4433	9.92261	0.138198	11.556
6.4433	9.95025	0.110558	11.556
6.44333	9.97789	0.0829187	11.556
6.44336	10.0055	0.0552792	11.556
6.4434	10.0332	0.0276396	11.556
6.54831	10.0608	0	11.556
6.56584	10.0608	0	11.7379
6.56594	10.0608	0	11.7379
6.56595	10.0746	0.0276396	11.7379
6.58131	10.1023	0	11.7379
6.59168	10.1023	0	11.9199
6.59237	10.1023	0	11.9199
6.59241	10.1023	0.0552792	11.9199
6.59249	10.1299	0.0276396	11.9199
6.59811	10.1575	0	11.9199
6.59912	10.1575	0	11.9199
6.59919	10.1575	0.0552792	11.9199
6.59919	10.1852	0.0276396	11.9199
6.59921	10.2128	0	11.9199
6.70973	10.2128	0	11.9199
6.71038	10.2128	0	11.9199
6.7105	10.2128	0.0552792	11.9199
6.71067	10.2405	0.0276396	11.9199
6.71936	10.2681	0	11.9199
6.71994	10.2681	0	11.9199
6.71996	10.2819	0.0276396	11.9199
6.72811	10.3096	0	11.9199
6.72885	10.3096	0	11.9199
6.72887	10.3234	0.0276396	11.9199
6.76726	10.351	0	11.9199
6.76738	10.351	0	11.9199
6.76742	10.3648	0.0276396	11.9199
6.77865	10.3925	0	11.9199
6.77991	10.3925	0	11.9199
6.77998	10.4063	0.0276396	11.9199
6.78949	10.4339	0	11.9199
6.79382	10.4339	0	12.0109
6.79734	10.4339	0	12.1929
6.79764	10.4339	0	12.1929
6.79791	10.4339	0	12.3749
6.79791	10.4478	0.0276396	12.3749
6.79905	10.4754	0	12.3749
6.82042	10.4754	0	12.4659
6.821	10.4754	0	12.5569
6.82139	10.4754	0	12.7389
6.82294	10.4754	0	12.7389
6.82301	10.4754	0.0552792	12.7389
6.82302	10.503	0.0276396	12.7389
6.83656	10.5307	0	12.7389
6.94235	10.5307	0	12.9208
6.94302	10.5307	0	12.9208
6.94312	10.5445	0.0276396	12.9208
6.95008	10.5721	0	12.9208
6.96496	10.5721	0	13.1028
6.96554	10.5721	0	13.1028
6.96555	10.586	0.0276396	13.1028
6.96571	10.586	0.0276396	13.1028
6.99171	10.6136	0	13.1028
7.02687	10.6136	0	13.1938
7.03691	10.6136	0	13.3758
7.03856	10.6136	0	13.3758
7.0386	10.6274	0.0276396	13.3758
7.1078	10.6551	0	13.3758
7.10831	10.6551	0	13.3758
7.10832	10.6551	0.0552792	13.3758
7.10837	10.6827	0.0276396	13.3758
7.1117	10.7103	0	13.3758
7.11281	10.7103	0	13.3758
7.11282	10.7242	0.0276396	13.3758
7.11343	10.7518	0	13.3758
7.13194	10.7518	0	13.5578
7.13231	10.7518	0	13.5578
7.13237	10.7656	0.0276396	13.5578
7.14014	10.7933	0	13.5578
7.1405	10.7933	0	13.5578
7.14221	10.7933	0.0276396	13.5578
7.14264	10.7933	0.0552792	13.5578
7.14285	10.7933	0.0829187	13.5578
7.1437	10.7933	0.110558	13.5578
7.14382	10.7933	0.138198	13.5578
7.16895	10.7933	0.165837	13.5578
7.1809	10.7933	0.165837	13.7398
7.1809	10.7933	0.165837	13.7398
7.18092	10.8209	0.138198	13.7398
7.18092	10.8485	0.110558	13.7398
7.18099	10.8762	0.0829187	13.7398
7.181	10.9038	0.0552792	13.7398
7.1811	10.9315	0.0276396	13.7398
7.18123	10.9591	0	13.7398
7.18155	10.9591	0.0276396	13.7398
7.1816	10.9729	0.0552792	13.7398
7.18161	11.0006	0.0276396	13.7398
7.19114	11.0282	0	13.7398
7.20692	11.0282	0	13.9217
7.21781	11.0282	0	14.0127
7.21825	11.0282	0	14.0127
7.21826	11.042	0.0276396	14.0127
7.2295	11.0697	0	14.0127
7.22957	11.0697	0	14.0127
7.23046	11.0697	0.0276396	14.0127
7.23047	11.0697	0.0829187	14.0127
7.23047	11.0973	0.0552792	14.0127
7.2305	11.0973	0.0552792	14.0127
7.2305	11.1249	0.0276396	14.0127
7.2616	11.1526	0	14.0127
7.26273	11.1526	0	14.0127
7.26343	11.1526	0.0276396	14.0127
7.26346	11.1664	0.0552792	14.0127
7.2635	11.194	0.0276396	14.0127
7.28339	11.2217	0	14.0127
7.28373	11.2217	0	14.0127
7.28375	11.2355	0.0276396	14.0127
7.29515	11.2631	0	14.0127
7.29557	11.2631	0	14.0127
7.29582	11.2631	0.0276396	14.0127
7.29583	11.2769	0.0552792	14.0127
7.2959	11.3046	0.0276396	14.0127
7.2959	11.3322	0	14.0127
7.30806	11.3322	0	14.0127
7.32579	11.3322	0	14.1947
7.32631	11.3322	0	14.1947
7.32631	11.346	0.0276396	14.1947
7.32635	11.346	0.0276396	14.1947
7.32636	11.3737	0	14.1947
7.34792	11.3737	0	14.1947
7.37033	11.3737	0	14.2857
7.39546	11.3737	0	14.2857
7.39576	11.3737	0	14.2857
7.39593	11.3737	0.0276396	14.2857
7.39593	11.3875	0.0552792	14.2857
7.39595	11.3875	0.0552792	14.2857
7.3961	11.4151	0.0276396	14.2857
7.42492	11.4428	0	14.2857
7.42525	11.4428	0	14.2857
7.42526	11.4566	0.0276396	14.2857
7.44276	11.4842	0	14.2857
7.44331	11.4842	0	14.2857
7.44337	11.4981	0.0276396	14.2857
7.47547	11.5257	0	14.2857
7.51212	11.5257	0	14.2857
7.51226	11.5257	0	14.2857
7.51227	11.5395	0.0276396	14.2857
7.51235	11.5395	0.0276396	14.2857
7.52614	11.5672	0	14.2857
7.52701	11.5672	0	14.2857
7.52713	11.581	0.0276396	14.2857
7.54614	11.6086	0	14.2857
7.62586	11.6086	0	14.4677
7.62605	11.6086	0	14.4677
7.62606	11.6086	0.0276396	14.4677
7.6655	11.6363	0	14.4677
7.66559	11.6363	0	14.4677
7.66565	11.6501	0.0276396	14.4677
7.68583	11.6777	0	14.4677
7.70185	11.6777	0	14.4677
7.70208	11.6777	0	14.4677
7.70209	11.6915	0.0276396	14.4677
7.74405	11.7192	0	14.4677
7.74454	11.7192	0	14.4677
7.74502	11.7192	0.0276396	14.4677
7.74505	11.733	0.0552792	14.4677
7.74509	11.7606	0.0276396	14.4677
7.84618	11.7883	0	14.4677
7.89866	11.7883	0	14.5587
7.89936	11.7883	0	14.5587
7.89982	11.7883	0.0276396	14.5587
7.89998	11.7883	0.0552792	14.5587
7.89999	11.8021	0.0829187	14.5587
7.89999	11.8297	0.0552792	14.5587
7.90004	11.8574	0.0276396	14.5587
7.9302	11.885	0	14.5587
7.97985	11.885	0	14.7407
7.98209	11.885	0	14.8317
7.98217	11.885	0	14.8317
7.98218	11.8988	0.0276396	14.8317
7.98219	11.9265	0	14.8317
7.98237	11.9265	0	14.8317
7.98767	11.9265	0	14.8317
7.9965	11.9265	0	14.9227
7.99653	11.9265	0	14.9227
7.99673	11.9403	0.0276396	14.9227
8.00748	11.9679	0	14.9227
8.03665	11.9679	0	15.1046
8.04808	11.9679	0	15.1046
8.04921	11.9679	0	15.1046
8.04921	11.9818	0.0276396	15.1046
8.09453	12.0094	0	15.1046
8.09766	12.0094	0	15.2866
8.09814	12.0094	0	15.2866
8.09877	12.0094	0.0276396	15.2866
8.09877	12.0232	0.0552792	15.2866
8.09887	12.0509	0.0276396	15.2866
8.12471	12.0785	0	15.2866
8.12553	12.0785	0	15.2866
8.12558	12.0785	0.0552792	15.2866
8.12569	12.1061	0.0276396	15.2866
8.1714	12.1338	0	15.2866
8.17146	12.1338	0	15.2866
8.17147	12.1338	0.0552792	15.2866
8.17147	12.1614	0.0276396	15.2866
8.17167	12.1891	0	15.2866
8.17221	12.1891	0	15.2866
8.17226	12.2029	0.0276396	15.2866
8.17916	12.2305	0	15.2866
8.21005	12.2305	0	15.4686
8.21016	12.2305	0	15.4686
8.21028	12.2443	0.0276396	15.4686
8.21566	12.272	0	15.4686
8.21635	12.272	0	15.4686
8.21651	12.2858	0.0276396	15.4686
8.2187	12.3134	0	15.4686
8.2195	12.3134	0	15.4686
8.21957	12.3273	0.0276396	15.4686
8.23734	12.3549	0	15.4686
8.25562	12.3549	0	15.5596
8.25564	12.3549	0	15.5596
8.25567	12.3687	0.0276396	15.5596
8.2801	12.3964	0	15.5596
8.28038	12.3964	0	15.5596
8.28038	12.3964	0.0552792	15.5596
8.28048	12.424	0.0276396	15.5596
8.29759	12.4516	0	15.5596
8.34136	12.4516	0	15.7416
8.34143	12.4516	0	15.7416
8.3415	12.4655	0.0276396	15.7416
8.40657	12.4931	0	15.7416
8.40737	12.4931	0	15.7416
8.40755	12.4931	0	15.7416
8.40792	12.4931	0.0276396	15.7416
8.40795	12.4931	0.0829187	15.7416
8.40799	12.5207	0.0552792	15.7416
8.40941	12.5484	0.0276396	15.7416
8.40943	12.5622	0.0552792	15.7416
8.40944	12.5898	0.0276396	15.7416
8.4163	12.6175	0	15.7416
8.4336	12.6175	0	15.9236
8.46164	12.6175	0	16.1056
8.46189	12.6175	0	16.1056
8.4628	12.6175	0.0276396	16.1056
8.4628	12.6313	0.0552792	16.1056
8.46288	12.6589	0.0276396	16.1056
8.47617	12.6866	0	16.1056
8.51668	12.6866	0	16.1965
8.51748	12.6866	0	16.1965
8.51749	12.6866	0.0552792	16.1965
8.51749	12.7142	0.0276396	16.1965
8.51753	12.7142	0.0276396	16.1965
8.62979	12.7418	0	16.1965
8.62994	12.7418	0	16.1965
8.63001	12.7557	0.0276396	16.1965
8.63828	12.7833	0	16.1965
8.69956	12.7833	0	16.3785
8.69984	12.7833	0	16.3785
8.70786	12.7833	0.0276396	16.3785
8.70789	12.7833	0.0276396	16.3785
8.7107	12.7833	0.0552792	16.3785
8.71071	12.7971	0.0829187	16.3785
8.71071	12.8248	0.0552792	16.3785
8.74575	12.8524	0.0276396	16.3785
8.74582	12.8524	0.0276396	16.5605
8.75991	12.88	0	16.5605
8.76017	12.88	0	16.5605
8.76019	12.8939	0.0276396	16.5605
8.77645	12.9215	0	16.5605
8.7773	12.9215	0	16.5605
8.77731	12.9353	0.0276396	16.5605
8.81658	12.963	0	16.5605
8.81742	12.963	0	16.5605
8.81743	12.9768	0.0276396	16.5605
8.84177	13.0044	0	16.5605
8.84847	13.0044	0	16.7425
8.84852	13.0044	0	16.7425
8.84853	13.0044	0.0552792	16.7425
8.84854	13.0321	0.0276396	16.7425
8.8516	13.0597	0	16.7425
8.85227	13.0597	0	16.7425
8.85227	13.0735	0.0276396	16.7425
8.9302	13.1012	0	16.7425
8.94069	13.1012	0	16.9245
8.9408	13.1012	0	16.9245
8.94083	13.115	0.0276396	16.9245
8.95374	13.1426	0	16.9245
8.9539	13.1426	0	17.1065
8.95395	13.1426	0	17.1065
8.96604	13.1426	0.0276396	17.1065
8.96631	13.1426	0.0276396	17.1065
8.96755	13.1426	0.0552792	17.1065
8.96757	13.1564	0.0829187	17.1065
8.96762	13.1841	0.0552792	17.1065
8.9677	13.2117	0.0276396	17.1065
8.9677	13.2117	0.0276396	17.1065
9.04906	13.2394	0	17.1065
9.04929	13.2394	0	17.1065
9.04933	13.2532	0.0276396	17.1065
9.08383	13.2808	0	17.1065
9.08394	13.2808	0	17.1065
9.08395	13.2808	0.0552792	17.1065
9.08406	13.3085	0.0276396	17.1065
9.08814	13.3361	0	17.1065
9.12177	13.3361	0	17.1975
9.12242	13.3361	0	17.1975
9.12275	13.3361	0.0276396	17.1975
9.12279	13.3499	0.0552792	17.1975
9.12282	13.3776	0.0276396	17.1975
9.21486	13.4052	0	17.1975
9.21489	13.4052	0	17.1975
9.2149	13.4052	0.0276396	17.1975
9.21493	13.4052	0.0552792	17.1975
9.21494	13.419	0.0829187	17.1975
9.21495	13.4467	0.0552792	17.1975
9.21495	13.4467	0.0552792	17.1975
9.21496	13.4743	0.0276396	17.1975
9.23397	13.5019	0	17.1975
9.23455	13.5019	0	17.1975
9.23461	13.5019	0.0552792	17.1975
9.23463	13.5296	0.0276396	17.1975
9.239	13.5572	0	17.1975
9.23925	13.5572	0	17.3794
9.23957	13.5572	0	17.3794
9.23957	13.571	0.0276396	17.3794
9.30549	13.5987	0	17.3794
9.3057	13.5987	0	17.3794
9.3063	13.5987	0.0276396	17.3794
9.30632	13.6125	0.0552792	17.3794
9.30633	13.6401	0.0276396	17.3794
9.3627	13.6678	0	17.3794
9.41887	13.6678	0	17.5614
9.41987	13.6678	0	17.5614
9.42004	13.6678	0.0276396	17.5614
9.4201	13.6816	0.0552792	17.5614
9.42011	13.7092	0.0276396	17.5614
9.46812	13.7369	0	17.5614
9.48434	13.7369	0	17.6524
9.52974	13.7369	0	17.8344
9.53027	13.7369	0	17.8344
9.53033	13.7507	0.0276396	17.8344
9.58286	13.7783	0	17.8344
9.58421	13.7783	0	17.8344
9.58432	13.7922	0.0276396	17.8344
9.60278	13.8198	0	17.8344
9.64503	13.8198	0	18.0164
9.6451	13.8198	0	18.0164
9.64515	13.8336	0.0276396	18.0164
9.67526	13.8612	0	18.0164
9.67569	13.8612	0	18.0164
9.67571	13.8751	0.0276396	18.0164
9.6808	13.9027	0	18.0164
9.68082	13.9027	0	18.0164
9.68084	13.9165	0.0276396	18.0164
9.68402	13.9442	0	18.0164
9.68417	13.9442	0	18.0164
9.68438	13.9442	0.0276396	18.0164
9.68441	13.958	0.0552792	18.0164
9.68443	13.9856	0.0276396	18.0164
9.68445	13.9856	0.0276396	18.0164
9.71531	14.0133	0	18.0164
9.71616	14.0133	0	18.0164
9.71625	14.0271	0.0276396	18.0164
9.73208	14.0547	0	18.0164
9.73227	14.0547	0	18.0164
9.73227	14.0685	0.0276396	18.0164
9.75444	14.0962	0	18.0164
9.75475	14.0962	0	18.0164
9.75484	14.11	0.0276396	18.0164
9.75859	14.1376	0	18.0164
9.77036	14.1376	0	18.1074
9.77062	14.1376	0	18.1074
9.77062	14.1515	0.0276396	18.1074
9.81146	14.1791	0	18.1074
9.81162	14.1791	0	18.1074
9.81164	14.1791	0.0552792	18.1074
9.81175	14.2067	0.0276396	18.1074
9.82268	14.2344	0	18.1074
9.8228	14.2344	0	18.1074
9.82288	14.2482	0.0276396	18.1074
9.83737	14.2758	0	18.1074
9.89306	14.2758	0	18.1984
9.8932	14.2758	0	18.1984
9.89321	14.2897	0.0276396	18.1984
9.90234	14.3173	0	18.1984
9.90248	14.3173	0	18.1984
9.90319	14.3173	0.0276396	18.1984
9.90324	14.3311	0.0552792	18.1984
9.9033	14.3588	0.0276396	18.1984
9.91855	14.3864	0	18.1984
9.98249	14.3864	0	18.3803
10.0041	14.3864	0	18.3803
10.005	14.3864	0	18.3803
10.0051	14.4002	0.0276396	18.3803
10.0086	14.4279	0	18.3803
10.009	14.4279	0	18.3803
10.0091	14.4417	0.0276396	18.3803
10.0141	14.4693	0	18.3803
10.0144	14.4693	0	18.3803
10.0155	14.4693	0.0276396	18.3803
10.0155	14.4831	0.0552792	18.3803
10.0155	14.5108	0.0276396	18.3803
10.0195	14.5384	0	18.3803
10.041	14.5384	0	18.4713
10.041	14.5384	0	18.4713
10.0411	14.5384	0.0552792	18.4713
10.0411	14.5661	0.0276396	18.4713
10.0458	14.5937	0	18.4713
10.0471	14.5937	0	18.4713
10.0476	14.5937	0.0276396	18.4713
10.0478	14.5937	0.0552792	18.4713
10.0478	14.5937	0.110558	18.4713
10.0478	14.6213	0.0829187	18.4713
10.0479	14.649	0.0552792	18.4713
10.0479	14.6766	0.0276396	18.4713
10.08	14.7043	0	18.4713
10.1034	14.7043	0	18.4713
10.1367	14.7043	0	18.5623
10.1566	14.7043	0	18.6533
10.1597	14.7043	0	18.8353
10.1607	14.7043	0	18.8353
10.1607	14.7043	0.0552792	18.8353
10.1608	14.7319	0.0276396	18.8353
10.1961	14.7595	0	18.8353
10.1962	14.7595	0	18.8353
10.1962	14.7595	0.0552792	18.8353
10.1963	14.7872	0.0276396	18.8353
10.1986	14.8148	0	18.8353
10.1995	14.8148	0	18.8353
10.1995	14.8286	0.0276396	18.8353
10.2634	14.8563	0	18.8353
10.2639	14.8563	0	18.8353
10.2641	14.8701	0.0276396	18.8353
10.3262	14.8977	0	18.8353
10.3269	14.8977	0	18.8353
10.3269	14.9116	0.0276396	18.8353
10.343	14.9392	0	18.8353
10.3434	14.9392	0	18.8353
10.3434	14.9392	0.0552792	18.8353
10.3435	14.9668	0.0276396	18.8353
10.3629	14.9945	0	18.8353
10.3829	14.9945	0	19.0173
10.3966	14.9945	0	19.1993
10.3972	14.9945	0	19.1993
10.3972	15.0083	0.0276396	19.1993
10.4745	15.0359	0	19.1993
10.5184	15.0359	0	19.3813
10.5238	15.0359	0	19.5632
10.5239	15.0359	0	19.5632
10.5239	15.0359	0.0552792	19.5632
10.524	15.0636	0.0276396	19.5632
10.606	15.0912	0	19.5632
10.6067	15.0912	0	19.5632
10.6067	15.105	0.0276396	19.5632
10.6442	15.1327	0	19.5632
10.6443	15.1327	0	19.5632
10.6443	15.1465	0.0276396	19.5632
10.6511	15.1741	0	19.5632
10.6514	15.1741	0	19.5632
10.6514	15.1879	0.0276396	19.5632
10.7174	15.2156	0	19.5632
10.7225	15.2156	0	19.5632
10.7225	15.2156	0	19.5632
10.7226	15.2294	0.0276396	19.5632
10.7527	15.257	0	19.5632
10.7529	15.257	0	19.5632
10.753	15.257	0.0552792	19.5632
10.753	15.2847	0.0276396	19.5632
10.7819	15.3123	0	19.5632
10.782	15.3123	0	19.5632
10.782	15.3261	0.0276396	19.5632
10.8123	15.3538	0	19.5632
10.8126	15.3538	0	19.5632
10.8126	15.3676	0.0276396	19.5632
10.8426	15.3952	0	19.5632
10.844	15.3952	0	19.5632
10.8441	15.4091	0.0276396	19.5632
10.8493	15.4367	0	19.5632
10.8493	15.4367	0	19.5632
10.8494	15.4505	0.0276396	19.5632
10.8719	15.4782	0	19.5632
10.8849	15.4782	0	19.6542
10.8865	15.4782	0	19.6542
10.8865	15.492	0.0276396	19.6542
10.8867	15.492	0.0276396	19.6542
10.9367	15.5196	0	19.6542
10.9372	15.5196	0	19.6542
10.9373	15.5196	0.0276396	19.6542
10.9379	15.5196	0.0276396	19.8362
10.9379	15.5196	0.0829187	19.8362
10.938	15.5473	0.0552792	19.8362
10.938	15.5749	0.0276396	19.8362
11.0067	15.6025	0	19.8362
11.007	15.6025	0	19.8362
11.007	15.6025	0.0552792	19.8362
11.007	15.6302	0.0276396	19.8362
11.033	15.6578	0	19.8362
11.033	15.6578	0	19.8362
11.0332	15.6578	0.0276396	19.8362
11.0332	15.6716	0.0552792	19.8362
11.0332	15.6993	0.0276396	19.8362
11.0768	15.7269	0	19.8362
11.0893	15.7269	0	20.0182
11.1226	15.7269	0	20.1092
11.172	15.7269	0	20.2002
11.1848	15.7269	0	20.3822
11.1853	15.7269	0	20.3822
11.1854	15.7269	0.0552792	20.3822
11.1854	15.7546	0.0276396	20.3822
11.1854	15.7822	0	20.3822
11.1924	15.7822	0	20.3822
11.2301	15.7822	0	20.4732
11.2424	15.7822	0	20.6551
11.2426	15.7822	0	20.6551
11.243	15.7822	0.0276396	20.6551
11.243	15.796	0.0552792	20.6551
11.243	15.8237	0.0276396	20.6551
11.2431	15.8237	0.0276396	20.6551
11.3029	15.8513	0	20.6551
11.3033	15.8513	0	20.6551
11.3033	15.8651	0.0276396	20.6551
11.3192	15.8928	0	20.6551
11.3195	15.8928	0	20.6551
11.3195	15.9066	0.0276396	20.6551
11.3555	15.9342	0	20.6551
11.3793	15.9342	0	20.7461
11.3793	15.9342	0	20.7461
11.3793	15.9342	0.0552792	20.7461
11.3796	15.9619	0.0276396	20.7461
11.4132	15.9895	0	20.7461
11.4132	15.9895	0	20.7461
11.4132	16.0033	0.0276396	20.7461
11.4305	16.031	0	20.7461
11.4318	16.031	0	20.7461
11.4318	16.0448	0.0276396	20.7461
11.5598	16.0724	0	20.7461
11.5603	16.0724	0	20.7461
11.5607	16.0862	0.0276396	20.7461
11.5631	16.1139	0	20.7461
11.5632	16.1139	0	20.7461
11.5633	16.1277	0.0276396	20.7461
11.5926	16.1553	0	20.7461
11.5931	16.1553	0	20.7461
11.5931	16.1692	0.0276396	20.7461
11.6024	16.1968	0	20.7461
11.6024	16.1968	0	20.7461
11.6025	16.1968	0.0552792	20.7461
11.6026	16.2244	0.0276396	20.7461
11.6168	16.2521	0	20.7461
11.6179	16.2521	0	20.7461
11.618	16.2659	0.0276396	20.7461
11.6374	16.2935	0	20.7461
11.658	16.2935	0	20.9281
11.6597	16.2935	0	20.9281
11.6599	16.2935	0.0276396	20.9281
11.66	16.3074	0.0552792	20.9281
11.66	16.335	0.0276396	20.9281
11.66	16.3626	0	20.9281
11.7205	16.3626	0	20.9281
11.7631	16.3626	0	21.1101
11.7634	16.3626	0	21.1101
11.7636	16.3626	0.0276396	21.1101
11.7637	16.3765	0.0552792	21.1101
11.7637	16.4041	0.0276396	21.1101
11.837	16.4317	0	21.1101
11.8376	16.4317	0	21.1101
11.8377	16.4456	0.0276396	21.1101
11.9273	16.4732	0	21.1101
11.9708	16.4732	0	21.2921
12.1227	16.4732	0	21.3831
12.1227	16.4732	0	21.3831
12.1228	16.4732	0.0552792	21.3831
12.1228	16.5008	0.0276396	21.3831
12.1311	16.5285	0	21.3831
12.1313	16.5285	0	21.3831
12.1313	16.5423	0.0276396	21.3831
12.1731	16.5699	0	21.3831
12.1801	16.5699	0	21.5651
12.1805	16.5699	0	21.5651
12.1807	16.5837	0.0276396	21.5651
12.2305	16.6114	0	21.5651
12.2336	16.6114	0	21.747
12.2337	16.6114	0	21.747
12.2337	16.6252	0.0276396	21.747
12.3084	16.6528	0	21.747
12.309	16.6528	0	21.747
12.3163	16.6528	0.0276396	21.747
12.3172	16.6528	0.0276396	21.747
12.3172	16.6528	0.0829187	21.747
12.3172	16.6805	0.0552792	21.747
12.3173	16.7081	0.0276396	21.747
12.3423	16.7358	0	21.747
12.3423	16.7358	0	21.747
12.3425	16.7358	0.0276396	21.747
12.3436	16.7358	0.0552792	21.747
12.3436	16.7358	0.0829187	21.747
12.4136	16.7358	0.110558	21.747
12.4136	16.7358	0.110558	21.929
12.4136	16.7634	0.0829187	21.929
12.4136	16.791	0.0552792	21.929
12.4136	16.8187	0.0276396	21.929
12.4294	16.8463	0	21.929
12.4297	16.8463	0	21.929
12.4297	16.8463	0.0552792	21.929
12.4298	16.874	0.0276396	21.929
12.4339	16.9016	0	21.929
12.434	16.9016	0	21.929
12.4341	16.9016	0.0552792	21.929
12.4341	16.9292	0.0276396	21.929
12.4746	16.9569	0	21.929
12.4749	16.9569	0	21.929
12.4754	16.9569	0.0276396	21.929
12.4759	16.9569	0.0552792	21.929
12.476	16.9707	0.0829187	21.929
12.476	16.9983	0.0552792	21.929
12.476	17.026	0.0276396	21.929
12.5024	17.0536	0	21.929
12.521	17.0536	0	22.111
12.5214	17.0536	0	22.111
12.5217	17.0536	0.0276396	22.111
12.5218	17.0674	0.0552792	22.111
12.5219	17.0951	0.0276396	22.111
12.591	17.1227	0	22.111
12.5913	17.1227	0	22.111
12.5914	17.1365	0.0276396	22.111
12.6105	17.1642	0	22.111
12.6111	17.1642	0	22.111
12.6848	17.1642	0.0276396	22.111
12.6848	17.1642	0.0276396	22.111
12.6848	17.1642	0.0276396	22.111
12.6849	17.1918	0	22.111
12.6849	17.2056	0.0276396	22.111
12.6925	17.2333	0	22.111
12.6933	17.2333	0	22.111
12.6934	17.2471	0.0276396	22.111
12.7145	17.2747	0	22.111
12.7158	17.2747	0	22.111
12.7158	17.2747	0.0552792	22.111
12.7158	17.3024	0.0276396	22.111
12.7721	17.33	0	22.111
12.7729	17.33	0	22.111
12.7729	17.3438	0.0276396	22.111
12.7869	17.3715	0	22.111
12.7871	17.3715	0	22.111
12.7872	17.3715	0.0552792	22.111
12.7872	17.3991	0.0276396	22.111
12.8203	17.4268	0	22.111
12.8206	17.4268	0	22.111
12.8206	17.4268	0.0552792	22.111
12.8209	17.4544	0.0276396	22.111
12.8663	17.482	0	22.111
12.9081	17.482	0	22.293
12.9082	17.482	0	22.293
12.9082	17.482	0.0552792	22.293
12.9083	17.5097	0.0276396	22.293
12.9166	17.5373	0	22.293
12.9456	17.5373	0	22.475
12.9458	17.5373	0	22.475
12.9462	17.5373	0.0276396	22.475
12.9462	17.5511	0.0552792	22.475
12.9463	17.5788	0.0276396	22.475
12.9718	17.6064	0	22.475
12.9778	17.6064	0	22.657
13.154	17.6064	0	22.8389
13.1544	17.6064	0	22.8389
13.1544	17.6064	0.0552792	22.8389
13.1545	17.6341	0.0276396	22.8389
13.1821	17.6617	0	22.8389
13.1823	17.6617	0	22.9299
13.1823	17.6617	0	22.9299
13.1824	17.6755	0.0276396	22.9299
13.2803	17.7032	0	22.9299
13.2813	17.7032	0	22.9299
13.2813	17.7032	0.0552792	22.9299
13.2813	17.7308	0.0276396	22.9299
13.345	17.7584	0	22.9299
13.347	17.7584	0	23.1119
13.3471	17.7584	0	23.1119
13.3472	17.7722	0.0276396	23.1119
13.3596	17.7999	0	23.1119
13.3602	17.7999	0	23.1119
13.3604	17.7999	0.0276396	23.1119
13.3604	17.8137	0.0552792	23.1119
13.3604	17.8413	0.0276396	23.1119
13.3723	17.869	0	23.1119
13.3724	17.869	0	23.1119
13.3724	17.8828	0.0276396	23.1119
13.3724	17.9104	0	23.1119
13.4121	17.9104	0	23.1119
13.4125	17.9104	0	23.1119
13.4125	17.9104	0.0552792	23.1119
13.4125	17.9381	0.0276396	23.1119
13.4894	17.9657	0	23.1119
13.4898	17.9657	0	23.1119
13.4899	17.9657	0.0552792	23.1119
13.49	17.9934	0.0276396	23.1119
13.5326	18.021	0	23.1119
13.5327	18.021	0	23.1119
13.5327	18.0348	0.0276396	23.1119
13.5968	18.0625	0	23.1119
13.5972	18.0625	0	23.2939
13.6247	18.0625	0	23.4759
13.6249	18.0625	0	23.4759
13.625	18.0763	0.0276396	23.4759
13.6684	18.1039	0	23.4759
13.6692	18.1039	0	23.4759
13.6696	18.1039	0.0276396	23.4759
13.6696	18.1177	0.0552792	23.4759
13.6696	18.1454	0.0276396	23.4759
13.7179	18.173	0	23.4759
13.718	18.173	0	23.4759
13.718	18.173	0.0552792	23.4759
13.7181	18.2007	0.0276396	23.4759
13.7223	18.2283	0	23.4759
13.7226	18.2283	0	23.4759
13.7226	18.2421	0.0276396	23.4759
13.8162	18.2698	0	23.4759
13.8322	18.2698	0	23.5669
13.9809	18.2698	0	23.7489
13.9809	18.2698	0	23.7489
13.9809	18.2698	0.0552792	23.7489
13.981	18.2974	0.0276396	23.7489
14.2591	18.325	0	23.7489
14.2592	18.325	0	23.7489
14.2593	18.325	0.0276396	23.7489
14.2604	18.325	0.0552792	23.7489
14.2604	18.3389	0.0829187	23.7489
14.2604	18.3665	0.0552792	23.7489
14.2607	18.3941	0.0276396	23.7489
14.3047	18.4218	0	23.7489
14.305	18.4218	0	23.7489
14.3055	18.4218	0	23.9308
14.3055	18.4218	0.0552792	23.9308
14.3056	18.4494	0.0276396	23.9308
14.5259	18.4771	0	23.9308
14.5265	18.4771	0	23.9308
14.5265	18.4909	0.0276396	23.9308
14.5314	18.5185	0	23.9308
14.5453	18.5185	0	24.1128
14.5456	18.5185	0	24.1128
14.5456	18.5185	0.0552792	24.1128
14.5456	18.5462	0.0276396	24.1128
14.5511	18.5738	0	24.1128
14.6198	18.5738	0	24.2948
14.6201	18.5738	0	24.2948
14.6202	18.5876	0.0276396	24.2948
14.6822	18.6153	0	24.2948
14.7	18.6153	0	24.4768
14.7002	18.6153	0	24.4768
14.7003	18.6291	0.0276396	24.4768
14.7279	18.6567	0	24.4768
14.7281	18.6567	0	24.4768
14.7283	18.6705	0.0276396	24.4768
14.8025	18.6982	0	24.4768
14.8026	18.6982	0	24.4768
14.8029	18.6982	0.0276396	24.4768
14.803	18.712	0.0552792	24.4768
14.803	18.7396	0.0276396	24.4768
14.8376	18.7673	0	24.4768
14.8384	18.7673	0	24.4768
14.8384	18.7673	0.0552792	24.4768
14.8385	18.7949	0.0276396	24.4768
15.0676	18.8226	0	24.4768
15.0681	18.8226	0	24.4768
15.0681	18.8364	0.0276396	24.4768
15.1324	18.864	0	24.4768
15.1895	18.864	0	24.6588
15.1898	18.864	0	24.6588
15.1899	18.8778	0.0276396	24.6588
15.3663	18.9055	0	24.6588
15.3664	18.9055	0	24.6588
15.3665	18.9055	0.0276396	24.6588
15.3665	18.9193	0.0552792	24.6588
15.3666	18.9469	0.0276396	24.6588
15.3802	18.9746	0	24.6588
15.3802	18.9746	0	24.6588
15.3802	18.9884	0.0276396	24.6588
15.392	19.016	0	24.6588
15.3929	19.016	0	24.6588
15.393	19.0299	0.0276396	24.6588
15.5754	19.0575	0	24.6588
15.5763	19.0575	0	24.6588
15.5764	19.0713	0.0276396	24.6588
15.5814	19.0989	0	24.6588
15.5826	19.0989	0	24.6588
15.5826	19.1128	0.0276396	24.6588
15.6209	19.1404	0	24.6588
15.6211	19.1404	0	24.6588
15.6212	19.1542	0.0276396	24.6588
15.6742	19.1819	0	24.6588
15.6748	19.1819	0	24.6588
15.7812	19.1819	0.0276396	24.6588
15.7812	19.1819	0.0276396	24.6588
15.7827	19.2095	0	24.6588
15.7827	19.2095	0.0552792	24.6588
15.7829	19.2371	0.0276396	24.6588
15.8981	19.2648	0	24.6588
15.8982	19.2648	0	24.6588
15.8995	19.2648	0.0276396	24.6588
15.8995	19.2786	0.0552792	24.6588
15.8997	19.3062	0.0276396	24.6588
15.9567	19.3339	0	24.6588
15.957	19.3339	0	24.6588
15.9571	19.3477	0.0276396	24.6588
15.9586	19.3753	0	24.6588
15.9592	19.3753	0	24.6588
15.9592	19.3753	0.0552792	24.6588
15.9594	19.403	0.0276396	24.6588
15.9729	19.4306	0	24.6588
15.9993	19.4306	0	24.8408
15.9994	19.4306	0	24.8408
16.0005	19.4306	0.0276396	24.8408
16.0005	19.4444	0.0552792	24.8408
16.0005	19.4721	0.0276396	24.8408
16.1103	19.4997	0	24.8408
16.1109	19.4997	0	24.8408
16.111	19.5135	0.0276396	24.8408
16.137	19.5412	0	24.8408
16.1373	19.5412	0	24.8408
16.1373	19.555	0.0276396	24.8408
16.1436	19.5826	0	24.8408
16.2303	19.5826	0	25.0227
16.2313	19.5826	0	25.0227
16.2325	19.5826	0.0276396	25.0227
16.2327	19.5826	0.0276396	25.0227
16.234	19.5826	0.0552792	25.0227
16.234	19.5826	0.0829187	25.0227
16.234	19.5965	0.110558	25.0227
16.2342	19.6241	0.0829187	25.0227
16.2342	19.6517	0.0552792	25.0227
16.2986	19.6794	0.0276396	25.0227
16.2987	19.6794	0.0276396	25.0227
16.2988	19.707	0	25.0227
16.2996	19.707	0.0276396	25.0227
16.2996	19.7208	0.0552792	25.0227
16.2997	19.7485	0.0276396	25.0227
16.3852	19.7761	0	25.0227
16.447	19.7761	0	25.2047
16.4472	19.7761	0	25.2047
16.4473	19.7899	0.0276396	25.2047
16.4504	19.8176	0	25.2047
16.4505	19.8176	0	25.2047
16.4505	19.8314	0.0276396	25.2047
16.9185	19.859	0	25.2047
16.9194	19.859	0	25.2047
16.9195	19.8729	0.0276396	25.2047
16.9854	19.9005	0	25.2047
16.9857	19.9005	0	25.2047
16.9859	19.9143	0.0276396	25.2047
17.0328	19.942	0	25.2047
17.0335	19.942	0	25.2047
17.0342	19.942	0.0276396	25.2047
17.0342	19.9558	0.0552792	25.2047
17.0344	19.9834	0.0276396	25.2047
17.0605	20.0111	0	25.2047
17.0612	20.0111	0	25.2047
17.0612	20.0249	0.0276396	25.2047
17.1531	20.0525	0	25.2047
17.1561	20.0525	0	25.2047
17.1564	20.0663	0.0276396	25.2047
17.2636	20.094	0	25.2047
17.2638	20.094	0	25.2047
17.2638	20.094	0.0552792	25.2047
17.2638	20.1216	0.0276396	25.2047
17.3197	20.1493	0	25.2047
17.3211	20.1493	0	25.2047
17.3212	20.1631	0.0276396	25.2047
17.3733	20.1907	0	25.2047
17.5447	20.1907	0	25.3867
17.7182	20.1907	0	25.5687
17.7196	20.1907	0	25.5687
17.7196	20.1907	0.0552792	25.5687
17.7198	20.2184	0.0276396	25.5687
17.7524	20.246	0	25.5687
17.7529	20.246	0	25.5687
17.7529	20.2598	0.0276396	25.5687
17.7559	20.2875	0	25.5687
17.7564	20.2875	0	25.5687
17.805	20.2875	0.0276396	25.5687
17.8054	20.2875	0.0276396	25.7507
17.8315	20.3151	0	25.7507
17.8557	20.3151	0	25.9327
17.8566	20.3151	0	25.9327
17.8567	20.3289	0.0276396	25.9327
17.9054	20.3566	0	25.9327
17.9055	20.3566	0	25.9327
17.9057	20.3704	0.0276396	25.9327
17.963	20.398	0	25.9327
17.9631	20.398	0	25.9327
18.2338	20.398	0.0276396	25.9327
18.2338	20.398	0.0276396	25.9327
18.234	20.4256	0	25.9327
18.234	20.4395	0.0276396	25.9327
18.2887	20.4671	0	25.9327
18.2899	20.4671	0	25.9327
18.2904	20.4671	0.0276396	25.9327
18.2904	20.4809	0.0552792	25.9327
18.2904	20.5086	0.0276396	25.9327
18.2941	20.5362	0	25.9327
18.3044	20.5362	0	26.1146
18.3047	20.5362	0	26.1146
18.3048	20.5362	0.0552792	26.1146
18.3048	20.5638	0.0276396	26.1146
18.3049	20.5915	0	26.1146
18.3663	20.5915	0	26.1146
18.4542	20.5915	0	26.2966
18.4544	20.5915	0	26.2966
18.4545	20.5915	0.0552792	26.2966
18.4545	20.6191	0.0276396	26.2966
18.4791	20.6468	0	26.2966
18.4796	20.6468	0	26.2966
18.4811	20.6468	0.0276396	26.2966
18.4812	20.6606	0.0552792	26.2966
18.4812	20.6882	0.0276396	26.2966
18.5177	20.7159	0	26.2966
18.632	20.7159	0	26.4786
18.6341	20.7159	0	26.4786
18.6342	20.7297	0.0276396	26.4786
18.6958	20.7573	0	26.4786
18.696	20.7573	0	26.4786
18.696	20.7573	0.0276396	26.4786
18.6962	20.7573	0.0552792	26.4786
18.6963	20.7573	0.0829187	26.4786
18.6965	20.7573	0.110558	26.4786
18.6967	20.7573	0.138198	26.4786
18.6967	20.7711	0.165837	26.4786
18.6967	20.7988	0.138198	26.4786
18.6967	20.8264	0.110558	26.4786
18.6967	20.8541	0.0829187	26.4786
18.6967	20.8817	0.0552792	26.4786
18.6968	20.9093	0.0276396	26.4786
18.7418	20.937	0	26.4786
18.7422	20.937	0	26.4786
18.7426	20.937	0.0276396	26.4786
18.7426	20.9508	0.0552792	26.4786
18.7427	20.9784	0.0276396	26.4786
18.7469	21.0061	0	26.4786
18.748	21.0061	0	26.4786
18.748	21.0199	0.0276396	26.4786
18.7866	21.0475	0	26.4786
19.1143	21.0475	0	26.6606
19.1147	21.0475	0	26.6606
19.1147	21.0614	0.0276396	26.6606
19.3092	21.089	0	26.6606
19.3093	21.089	0	26.6606
19.3094	21.089	0.0276396	26.6606
19.3094	21.1028	0.0552792	26.6606
19.3095	21.1305	0.0276396	26.6606
19.3102	21.1581	0	26.6606
19.3111	21.1581	0	26.6606
19.4949	21.1581	0.0276396	26.6606
19.4949	21.1581	0.0276396	26.6606
19.495	21.1857	0	26.6606
19.4951	21.1857	0.0552792	26.6606
19.4951	21.2134	0.0276396	26.6606
19.5285	21.241	0	26.6606
19.5285	21.241	0	26.6606
19.5291	21.241	0.0276396	26.6606
19.5291	21.2548	0.0552792	26.6606
19.5291	21.2825	0.0276396	26.6606
19.7171	21.3101	0	26.6606
19.7177	21.3101	0	26.6606
19.7177	21.3239	0.0276396	26.6606
19.7447	21.3516	0	26.6606
19.7585	21.3516	0	26.8426
19.7586	21.3516	0	26.8426
19.7587	21.3654	0.0276396	26.8426
19.8022	21.393	0	26.8426
19.803	21.393	0	26.8426
19.8031	21.4069	0.0276396	26.8426
19.9479	21.4345	0	26.8426
19.9481	21.4345	0	26.8426
19.9482	21.4345	0.0276396	26.8426
19.9489	21.4345	0.0552792	26.8426
19.9489	21.4483	0.0829187	26.8426
19.9489	21.476	0.0552792	26.8426
19.9489	21.5036	0.0276396	26.8426
20.044	21.5312	0	26.8426
20.0441	21.5312	0	26.8426
20.0442	21.5451	0.0276396	26.8426
20.174	21.5727	0	26.8426
20.1757	21.5727	0	26.8426
20.1757	21.5727	0.0552792	26.8426
20.1757	21.6003	0.0276396	26.8426
20.2136	21.628	0	26.8426
20.2144	21.628	0	26.8426
20.2147	21.628	0.0276396	26.8426
20.2147	21.6418	0.0552792	26.8426
20.2147	21.6694	0.0276396	26.8426
20.2521	21.6971	0	26.8426
20.2525	21.6971	0	26.8426
20.2525	21.7109	0.0276396	26.8426
20.2538	21.7385	0	26.8426
20.2542	21.7385	0	26.8426
20.2542	21.7523	0.0276396	26.8426
20.2905	21.78	0	26.8426
20.2909	21.78	0	26.8426
20.2913	21.78	0.0276396	26.8426
20.2914	21.7938	0.0552792	26.8426
20.2914	21.8214	0.0276396	26.8426
20.3135	21.8491	0	26.8426
20.3138	21.8491	0	26.8426
20.3145	21.8491	0.0276396	26.8426
20.3145	21.8491	0.0552792	26.8426
20.3146	21.8767	0.0276396	26.8426
20.4445	21.9044	0	26.8426
20.4451	21.9044	0	26.8426
20.4451	21.9044	0.0552792	26.8426
20.4451	21.932	0.0276396	26.8426
20.5231	21.9596	0	26.8426
20.5518	21.9596	0	27.0246
20.5521	21.9596	0	27.0246
20.5521	21.9596	0.0552792	27.0246
20.5522	21.9873	0.0276396	27.0246
20.5522	22.0149	0	27.0246
20.5526	22.0149	0	27.0246
20.8385	22.0149	0	27.2066
20.8386	22.0149	0	27.2066
20.8386	22.0149	0.0552792	27.2066
20.8387	22.0426	0.0276396	27.2066
20.9512	22.0702	0	27.2066
20.9512	22.0702	0	27.2066
20.9516	22.0702	0.0276396	27.2066
20.9516	22.084	0.0552792	27.2066
20.9517	22.1117	0.0276396	27.2066
21.1447	22.1393	0	27.2066
21.1459	22.1393	0	27.2066
21.146	22.1393	0.0276396	27.2066
21.1461	22.1393	0.0552792	27.2066
21.1464	22.1393	0.0829187	27.2066
21.1467	22.1393	0.110558	27.2066
21.1467	22.1531	0.138198	27.2066
21.1468	22.1808	0.110558	27.2066
21.1468	22.2084	0.0829187	27.2066
21.1468	22.236	0.0552792	27.2066
21.1469	22.2637	0.0276396	27.2066
21.1809	22.2913	0	27.2066
21.181	22.2913	0	27.2066
21.1811	22.3051	0.0276396	27.2066
21.2862	22.3328	0	27.2066
21.2867	22.3328	0	27.2066
21.2868	22.3466	0.0276396	27.2066
21.3344	22.3742	0	27.2066
21.3345	22.3742	0	27.2066
21.3345	22.3742	0.0552792	27.2066
21.3345	22.4019	0.0276396	27.2066
21.3765	22.4295	0	27.2066
21.3776	22.4295	0	27.2066
21.3776	22.4295	0.0276396	27.2066
21.3777	22.4433	0.0552792	27.2066
21.3777	22.471	0.0276396	27.2066
21.4208	22.4986	0	27.2066
21.4632	22.4986	0	27.3885
21.4633	22.4986	0	27.3885
21.4633	22.5124	0.0276396	27.3885
21.7211	22.5401	0	27.3885
21.7215	22.5401	0	27.3885
21.7215	22.5539	0.0276396	27.3885
21.7298	22.5815	0	27.3885
21.8522	22.5815	0	27.5705
21.8526	22.5815	0	27.5705
22.2322	22.5815	0.0276396	27.5705
22.2323	22.5815	0.0276396	27.6615
22.5734	22.6092	0	27.6615
22.5752	22.6092	0	27.6615
22.5752	22.623	0.0276396	27.6615
22.6605	22.6506	0	27.6615
22.6612	22.6506	0	27.6615
22.8566	22.6506	0.0276396	27.6615
22.8567	22.6506	0.0276396	27.6615
22.8571	22.6783	0	27.6615
22.8575	22.6783	0.0276396	27.6615
22.8576	22.6783	0.0552792	27.6615
22.8576	22.6783	0.0829187	27.6615
22.8582	22.6783	0.110558	27.6615
22.8582	22.6921	0.138198	27.6615
22.8582	22.7197	0.110558	27.6615
22.8582	22.7474	0.0829187	27.6615
22.8583	22.775	0.0552792	27.6615
22.8583	22.8027	0.0276396	27.6615
22.9055	22.8303	0	27.6615
22.9079	22.8303	0	27.6615
22.908	22.8441	0.0276396	27.6615
22.9291	22.8718	0	27.6615
22.9292	22.8718	0	27.6615
22.9295	22.8718	0.0276396	27.6615
22.9299	22.8718	0.0552792	27.6615
22.9303	22.8718	0.0829187	27.6615
22.9303	22.8856	0.110558	27.6615
22.9303	22.9132	0.0829187	27.6615
22.9304	22.9409	0.0552792	27.6615
22.9304	22.9685	0.0276396	27.6615
23.0584	22.9961	0	27.6615
23.0586	22.9961	0	27.6615
23.0593	22.9961	0.0276396	27.6615
23.0595	22.9961	0.0552792	27.6615
23.0595	22.9961	0.0829187	27.6615
23.0595	23.0238	0.0552792	27.6615
23.0595	23.0514	0.0276396	27.6615
23.0651	23.079	0	27.6615
23.0654	23.079	0	27.6615
23.0654	23.0929	0.0276396	27.6615
23.3629	23.1205	0	27.6615
23.363	23.1205	0	27.6615
23.363	23.1205	0.0552792	27.6615
23.3631	23.1481	0.0276396	27.6615
23.4107	23.1758	0	27.6615
23.411	23.1758	0	27.6615
23.4111	23.1896	0.0276396	27.6615
23.4659	23.2172	0	27.6615
23.543	23.2172	0	27.8435
23.5434	23.2172	0	27.8435
23.5436	23.2311	0.0276396	27.8435
23.8634	23.2587	0	27.8435
23.8638	23.2587	0	27.8435
23.9162	23.2587	0.0276396	27.8435
23.9162	23.2587	0.0276396	27.8435
23.9164	23.2863	0	27.8435
23.9165	23.2863	0.0276396	27.8435
23.9165	23.2863	0.0552792	27.8435
23.9165	23.314	0.0276396	27.8435
23.9833	23.3416	0	27.8435
23.9838	23.3416	0	27.8435
23.9839	23.3554	0.0276396	27.8435
24.0383	23.3831	0	27.8435
24.0398	23.3831	0	27.8435
24.0405	23.3831	0.0276396	27.8435
24.0405	23.3969	0.0552792	27.8435
24.0406	23.4245	0.0276396	27.8435
24.0757	23.4522	0	27.8435
24.0758	23.4522	0	27.8435
24.0763	23.4522	0.0276396	27.8435
24.0764	23.466	0.0552792	27.8435
24.0765	23.4936	0.0276396	27.8435
24.0947	23.5213	0	27.8435
24.0949	23.5213	0	27.8435
24.0951	23.5351	0.0276396	27.8435
24.3371	23.5627	0	27.8435
24.3372	23.5627	0	27.8435
24.3372	23.5766	0.0276396	27.8435
24.4169	23.6042	0	27.8435
24.4182	23.6042	0	27.8435
24.4182	23.618	0.0276396	27.8435
24.4401	23.6457	0	27.8435
24.4407	23.6457	0	27.8435
24.4407	23.6457	0.0552792	27.8435
24.4407	23.6733	0.0276396	27.8435
24.4523	23.7009	0	27.8435
24.4525	23.7009	0	27.8435
24.4526	23.7009	0.0276396	27.8435
24.4526	23.7009	0.0552792	27.8435
24.454	23.7009	0.0829187	27.8435
24.5584	23.7009	0.110558	27.8435
24.5584	23.7009	0.110558	27.8435
24.5585	23.7286	0.0829187	27.8435
24.5585	23.7562	0.0552792	27.8435
24.5586	23.7839	0.0276396	27.8435
24.5587	23.8115	0	27.8435
24.5587	23.8115	0.0276396	27.8435
24.5588	23.8115	0.0552792	27.8435
24.5588	23.8115	0.0829187	27.8435
24.5588	23.8391	0.0552792	27.8435
24.5589	23.8668	0.0276396	27.8435
24.7124	23.8944	0	27.8435
24.7127	23.8944	0	27.8435
24.7127	23.8944	0.0552792	27.8435
24.7128	23.9221	0.0276396	27.8435
24.7598	23.9497	0	27.8435
24.7602	23.9497	0	27.8435
24.7602	23.9497	0.0552792	27.8435
24.7603	23.9773	0.0276396	27.8435
24.8087	24.005	0	27.8435
24.8089	24.005	0	27.8435
24.8091	24.0188	0.0276396	27.8435
25.6089	24.0464	0	27.8435
25.609	24.0464	0	27.8435
25.6091	24.0464	0.0276396	27.8435
25.6166	24.0741	0	27.8435
25.6167	24.0741	0	27.8435
25.6167	24.0879	0.0276396	27.8435
25.6291	24.1155	0	27.8435
25.6305	24.1155	0	27.8435
25.6308	24.1155	0.0276396	27.8435
25.6309	24.1294	0.0552792	27.8435
25.6309	24.157	0.0276396	27.8435
25.6692	24.1846	0	27.8435
25.6695	24.1846	0	27.8435
25.6695	24.1846	0.0552792	27.8435
25.6695	24.2123	0.0276396	27.8435
25.9214	24.2399	0	27.8435
25.922	24.2399	0	27.8435
25.922	24.2537	0.0276396	27.8435
26.1505	24.2814	0	27.8435
26.1509	24.2814	0	27.8435
26.151	24.2952	0.0276396	27.8435
26.2065	24.3228	0	27.8435
26.2066	24.3228	0	27.8435
26.2067	24.3228	0.0276396	27.8435
26.2068	24.3367	0.0552792	27.8435
26.2069	24.3643	0.0276396	27.8435
26.2398	24.3919	0	27.8435
26.2403	24.3919	0	27.8435
26.2403	24.3919	0.0552792	27.8435
26.2403	24.4196	0.0276396	27.8435
26.4399	24.4472	0	27.8435
26.4407	24.4472	0	27.8435
26.4407	24.461	0.0276396	27.8435
26.5148	24.4887	0	27.8435
26.5156	24.4887	0	27.8435
26.5156	24.4887	0.0552792	27.8435
26.5156	24.5163	0.0276396	27.8435
26.7787	24.5439	0	27.8435
26.824	24.5439	0	28.0255
26.8242	24.5439	0	28.0255
26.8243	24.5578	0.0276396	28.0255
26.9579	24.5854	0	28.0255
26.9583	24.5854	0	28.0255
26.9583	24.5854	0.0552792	28.0255
26.9584	24.613	0.0276396	28.0255
26.9956	24.6407	0	28.0255
26.9967	24.6407	0	28.0255
26.9967	24.6407	0.0552792	28.0255
26.9967	24.6683	0.0276396	28.0255
27.3726	24.696	0	28.0255
27.3726	24.696	0	28.0255
27.3726	24.696	0.0552792	28.0255
27.3726	24.7236	0.0276396	28.0255
27.5573	24.7512	0	28.0255
27.6985	24.7512	0	28.2075
27.7011	24.7512	0	28.2075
27.8537	24.7512	0.0276396	28.2075
27.8538	24.7512	0.0276396	28.2075
27.8538	24.7789	0	28.2075
27.8542	24.7789	0.0276396	28.2075
27.8543	24.7789	0.0552792	28.2075
27.8543	24.7789	0.0829187	28.2075
27.8543	24.8065	0.0552792	28.2075
27.8544	24.8342	0.0276396	28.2075
28.0353	24.8618	0	28.2075
28.0355	24.8618	0	28.2075
28.0356	24.8618	0.0552792	28.2075
28.0356	24.8894	0.0276396	28.2075
28.2191	24.9171	0	28.2075
28.2197	24.9171	0	28.2075
28.2197	24.9309	0.0276396	28.2075
28.5682	24.9585	0	28.2075
28.6118	24.9585	0	28.3894
28.6123	24.9585	0	28.3894
28.6123	24.9724	0.0276396	28.3894
28.6731	25	0	28.3894
28.6732	25	0	28.3894
28.6732	25	0.0552792	28.3894
28.6734	25.0276	0.0276396	28.3894
28.8012	25.0553	0	28.3894
28.8024	25.0553	0	28.3894
28.8024	25.0553	0.0552792	28.3894
28.8025	25.0829	0.0276396	28.3894
28.9172	25.1106	0	28.3894
28.9173	25.1106	0	28.3894
28.9174	25.1106	0.0552792	28.3894
28.9175	25.1382	0.0276396	28.3894
28.9787	25.1658	0	28.3894
28.979	25.1658	0	28.3894
28.9791	25.1797	0.0276396	28.3894
29.1554	25.2073	0	28.3894
29.1557	25.2073	0	28.3894
29.1557	25.2073	0.0552792	28.3894
29.1558	25.2349	0.0276396	28.3894
29.4568	25.2626	0	28.3894
29.457	25.2626	0	28.3894
29.457	25.2764	0.0276396	28.3894
29.4845	25.304	0	28.3894
29.4849	25.304	0	28.3894
29.4849	25.3179	0.0276396	28.3894
29.6352	25.3455	0	28.3894
29.6805	25.3455	0	28.5714
29.6825	25.3455	0	28.5714
29.6826	25.3593	0.0276396	28.5714
29.7222	25.387	0	28.5714
29.7231	25.387	0	28.5714
29.7231	25.387	0.0276396	28.5714
29.7242	25.387	0.0552792	28.5714
30.0371	25.387	0.0829187	28.5714
30.0372	25.387	0.0829187	28.5714
30.0372	25.4146	0.0552792	28.5714
30.0372	25.4422	0.0276396	28.5714
30.0372	25.4561	0.0552792	28.5714
30.0373	25.4837	0.0276396	28.5714
30.1553	25.5113	0	28.5714
30.1555	25.5113	0	28.5714
30.1555	25.5252	0.0276396	28.5714
30.2696	25.5528	0	28.5714
30.2697	25.5528	0	28.5714
30.27	25.5528	0.0276396	28.5714
30.27	25.5666	0.0552792	28.5714
30.2701	25.5943	0.0276396	28.5714
30.4943	25.6219	0	28.5714
30.4952	25.6219	0	28.5714
30.4952	25.6219	0.0552792	28.5714
30.4953	25.6495	0.0276396	28.5714
30.617	25.6772	0	28.5714
30.6194	25.6772	0	28.5714
30.6197	25.691	0.0276396	28.5714
30.6729	25.7186	0	28.5714
30.6736	25.7186	0	28.5714
30.6736	25.7186	0.0552792	28.5714
30.6737	25.7463	0.0276396	28.5714
31.3221	25.7739	0	28.5714
31.3226	25.7739	0	28.5714
31.3226	25.7877	0.0276396	28.5714
31.4005	25.8154	0	28.5714
31.4006	25.8154	0	28.5714
31.4019	25.8154	0.0276396	28.5714
31.4019	25.8292	0.0552792	28.5714
31.4019	25.8568	0.0276396	28.5714
31.8037	25.8845	0	28.5714
31.8635	25.8845	0	28.7534
31.864	25.8845	0	28.7534
31.864	25.8983	0.0276396	28.7534
32.179	25.9259	0	28.7534
32.1791	25.9259	0	28.7534
32.1792	25.9259	0.0552792	28.7534
32.1792	25.9536	0.0276396	28.7534
32.2995	25.9812	0	28.7534
32.3019	25.9812	0	28.7534
32.3023	25.9812	0.0276396	28.7534
32.3023	25.995	0.0552792	28.7534
32.3024	26.0227	0.0276396	28.7534
33.0629	26.0503	0	28.7534
33.0631	26.0503	0	28.7534
33.0631	26.0641	0.0276396	28.7534
33.4423	26.0918	0	28.7534
33.443	26.0918	0	28.7534
33.443	26.0918	0.0552792	28.7534
33.443	26.1194	0.0276396	28.7534
33.654	26.147	0	28.7534
33.6541	26.147	0	28.7534
33.6541	26.147	0.0552792	28.7534
33.6542	26.1747	0.0276396	28.7534
33.8283	26.2023	0	28.7534
33.8288	26.2023	0	28.7534
33.829	26.2161	0.0276396	28.7534
34.0432	26.2438	0	28.7534
34.0437	26.2438	0	28.7534
34.0442	26.2438	0.0276396	28.7534
34.0442	26.2576	0.0552792	28.7534
34.0442	26.2852	0.0276396	28.7534
34.0863	26.3129	0	28.7534
34.0872	26.3129	0	28.7534
34.0873	26.3267	0.0276396	28.7534
34.9882	26.3543	0	28.7534
34.9886	26.3543	0	28.7534
34.9886	26.3682	0.0276396	28.7534
35.3111	26.3958	0	28.7534
35.3119	26.3958	0	28.7534
35.312	26.4096	0.0276396	28.7534
35.4156	26.4373	0	28.7534
35.4162	26.4373	0	28.7534
35.4166	26.4373	0.0276396	28.7534
35.4166	26.4511	0.0552792	28.7534
35.4166	26.4787	0.0276396	28.7534
36.7169	26.5064	0	28.7534
36.7176	26.5064	0	28.7534
36.7176	26.5064	0.0552792	28.7534
36.7177	26.534	0.0276396	28.7534
36.9422	26.5616	0	28.7534
36.9424	26.5616	0	28.7534
36.9426	26.5755	0.0276396	28.7534
37.8816	26.6031	0	28.7534
38.0113	26.6031	0	28.9354
38.0134	26.6031	0	28.9354
38.0134	26.6031	0.0552792	28.9354
38.0135	26.6307	0.0276396	28.9354
38.0903	26.6584	0	28.9354
38.0906	26.6584	0	28.9354
38.0918	26.6584	0.0276396	28.9354
38.0919	26.6722	0.0552792	28.9354
38.0919	26.6998	0.0276396	28.9354
38.4041	26.7275	0	28.9354
38.4049	26.7275	0	28.9354
38.4055	26.7275	0.0276396	28.9354
38.4056	26.7413	0.0552792	28.9354
38.4057	26.7689	0.0276396	28.9354
38.5021	26.7966	0	28.9354
38.5026	26.7966	0	28.9354
38.5027	26.8104	0.0276396	28.9354
41.4174	26.838	0	28.9354
41.4183	26.838	0	28.9354
41.4183	26.838	0.0552792	28.9354
41.4183	26.8657	0.0276396	28.9354
41.7079	26.8933	0	28.9354
41.7087	26.8933	0	28.9354
42.0051	26.8933	0.0276396	28.9354
42.0056	26.8933	0.0276396	28.9354
42.0056	26.8933	0.0829187	28.9354
42.0056	26.921	0.0552792	28.9354
42.0056	26.9486	0.0276396	28.9354
42.6353	26.9762	0	28.9354
43.3897	26.9762	0	29.0264
43.3899	26.9762	0	29.0264
43.3899	26.99	0.0276396	29.0264
44.0766	27.0177	0	29.0264
44.0776	27.0177	0	29.0264
44.0777	27.0315	0.0276396	29.0264
44.2447	27.0591	0	29.0264
44.2451	27.0591	0	29.0264
44.2451	27.0591	0.0552792	29.0264
44.2451	27.0868	0.0276396	29.0264
45.7538	27.1144	0	29.0264
45.7546	27.1144	0	29.0264
45.7546	27.1282	0.0276396	29.0264
46.3235	27.1559	0	29.0264
46.3236	27.1559	0	29.0264
47.6131	27.1559	0.0276396	29.0264
47.6131	27.1559	0.0276396	29.0264
47.6149	27.1835	0	29.0264
47.6149	27.1835	0.0552792	29.0264
47.6149	27.2112	0.0276396	29.0264
47.8228	27.2388	0	29.0264
47.8228	27.2388	0	29.0264
47.8229	27.2388	0.0552792	29.0264
47.8229	27.2664	0.0276396	29.0264
48.1617	27.2941	0	29.0264
48.1623	27.2941	0	29.0264
48.1626	27.2941	0.0276396	29.0264
48.1627	27.3079	0.0552792	29.0264
48.1627	27.3355	0.0276396	29.0264
48.2628	27.3632	0	29.0264
48.2637	27.3632	0	29.0264
48.2637	27.3632	0.0552792	29.0264
48.2638	27.3908	0.0276396	29.0264
49.2773	27.4185	0	29.0264
49.2778	27.4185	0	29.0264
49.2781	27.4185	0.0276396	29.0264
49.2781	27.4323	0.0552792	29.0264
49.2781	27.4599	0.0276396	29.0264
49.3101	27.4876	0	29.0264
49.3105	27.4876	0	29.0264
49.3106	27.5014	0.0276396	29.0264
49.5094	27.529	0	29.0264
49.5095	27.529	0	29.0264
49.5095	27.529	0.0552792	29.0264
49.5095	27.5567	0.0276396	29.0264
51.5836	27.5843	0	29.0264
51.5836	27.5843	0	29.0264
51.5836	27.5981	0.0276396	29.0264
52.189	27.6258	0	29.0264
52.1894	27.6258	0	29.0264
52.1894	27.6396	0.0276396	29.0264
52.3378	27.6672	0	29.0264
52.3379	27.6672	0	29.0264
52.3379	27.6672	0.0552792	29.0264
52.338	27.6949	0.0276396	29.0264
52.4994	27.7225	0	29.0264
52.4999	27.7225	0	29.0264
52.5	27.7363	0.0276396	29.0264
52.5112	27.764	0	29.0264
52.5119	27.764	0	29.0264
52.512	27.7778	0.0276396	29.0264
52.669	27.8054	0	29.0264
52.6691	27.8054	0	29.0264
52.6691	27.8054	0.0552792	29.0264
52.6691	27.8331	0.0276396	29.0264
53.3043	27.8607	0	29.0264
53.3053	27.8607	0	29.0264
53.3053	27.8607	0.0552792	29.0264
53.3054	27.8883	0.0276396	29.0264
58.9665	27.916	0	29.0264
58.9667	27.916	0	29.0264
58.9667	27.9298	0.0276396	29.0264
58.9895	27.9574	0	29.0264
58.9902	27.9574	0	29.0264
58.9902	27.9574	0.0552792	29.0264
58.9903	27.9851	0.0276396	29.0264
62.2042	28.0127	0	29.0264
62.205	28.0127	0	29.0264
62.205	28.0127	0.0552792	29.0264
62.2051	28.0404	0.0276396	29.0264
62.6255	28.068	0	29.0264
62.626	28.068	0	29.0264
62.626	28.068	0.0552792	29.0264
62.6261	28.0956	0.0276396	29.0264
65.8652	28.1233	0	29.0264
65.8654	28.1233	0	29.0264
65.8654	28.1233	0.0552792	29.0264
65.8654	28.1509	0.0276396	29.0264
67.04	28.1786	0	29.0264
67.0408	28.1786	0	29.0264
67.0409	28.1786	0.0552792	29.0264
67.041	28.2062	0.0276396	29.0264
69.983	28.2338	0	29.0264
69.9834	28.2338	0	29.0264
69.9834	28.2338	0.0552792	29.0264
69.9835	28.2615	0.0276396	29.0264
72.3239	28.2891	0	29.0264
72.3259	28.2891	0	29.0264
72.3259	28.2891	0.0552792	29.0264
72.326	28.3167	0.0276396	29.0264
73.7418	28.3444	0	29.0264
73.7427	28.3444	0	29.0264
73.7429	28.3444	0.0552792	29.0264
73.7429	28.372	0.0276396	29.0264
75.2819	28.3997	0	29.0264
75.2823	28.3997	0	29.0264
75.2823	28.3997	0.0552792	29.0264
75.2824	28.4273	0.0276396	29.0264
75.4423	28.4549	0	29.0264
75.4448	28.4549	0	29.0264
75.4448	28.4549	0.0552792	29.0264
75.4448	28.4826	0.0276396	29.0264
80.3891	28.5102	0	29.0264
80.3923	28.5102	0	29.0264
80.3924	28.5102	0.0552792	29.0264
80.3924	28.5379	0.0276396	29.0264
84.2287	28.5655	0	29.0264
84.2293	28.5655	0	29.0264
84.2293	28.5655	0.0552792	29.0264
84.2293	28.5931	0.0276396	29.0264
86.023	28.6208	0	29.0264
86.0232	28.6208	0	29.0264
86.0232	28.6208	0.0552792	29.0264
86.0233	28.6484	0.0276396	29.0264
86.2983	28.6761	0	29.0264
86.2986	28.6761	0	29.0264
86.2986	28.6761	0.0552792	29.0264
86.2987	28.7037	0.0276396	29.0264
90.4905	28.7313	0	29.0264
90.4907	28.7313	0	29.0264
90.4907	28.7313	0.0552792	29.0264
90.4908	28.759	0.0276396	29.0264
92.6982	28.7866	0	29.0264
92.6983	28.7866	0	29.0264
92.6983	28.7866	0.0552792	29.0264
92.6984	28.8143	0.0276396	29.0264
95.4818	28.8419	0	29.0264
95.4821	28.8419	0	29.0264
95.4822	28.8419	0.0552792	29.0264
95.4822	28.8695	0.0276396	29.0264
102.42	28.8972	0	29.0264
102.42	28.8972	0	29.0264
102.42	28.8972	0.0552792	29.0264
102.42	28.9248	0.0276396	29.0264
105.706	28.9525	0	29.0264
105.706	28.9525	0	29.0264
105.706	28.9525	0.0552792	29.0264
105.706	28.9801	0.0276396	29.0264
