6.84099e-10	0	0	0
1.10359e-09	0	0	0
1.11514e-09	0	0	0
1.32764e-09	0	0	0
3.2372e-09	0	0	0
3.48588e-09	0	0	0
3.61082e-09	0	0	0
4.21591e-09	0	0	0
4.59898e-09	0	0	0
4.61278e-09	0	0	0
5.15493e-09	0	0	0
5.31414e-09	0	0	0
5.45359e-09	0	0	0
6.35704e-09	0	0	0
6.81423e-09	0	0	0
7.36303e-09	0	0	0
7.63747e-09	0	0	0
8.85412e-09	0	0	0
9.00175e-09	0	0	0
9.23783e-09	0	0	0
9.71948e-09	0	0	0
9.93541e-09	0	0	0
1.02726e-08	0	0	0
1.13307e-08	0	0	0
1.1543e-08	0	0	0
1.22969e-08	0	0	0
1.23961e-08	0	0	0
1.29921e-08	0	0	0
1.38474e-08	0	0	0
1.525e-08	0	0	0
1.53641e-08	0	0	0
1.64667e-08	0	0	0
2.20502e-08	0	0	0
2.21274e-08	0	0	0
2.26551e-08	0	0	0
2.33253e-08	0	0	0
2.40901e-08	0	0	0
2.53731e-08	0	0	0
2.57376e-08	0	0	0
2.625e-08	0	0	0
2.88653e-08	0	0	0
2.91957e-08	0	0	0
3.14386e-08	0	0	0
3.16337e-08	0	0	0
3.50812e-08	0	0	0
3.61683e-08	0	0	0
3.68685e-08	0	0	0
4.14687e-08	0	0	0
4.17623e-08	0	0	0
4.55895e-08	0	0	0
5.7787e-08	0	0	0
5.83866e-08	0	0	0
5.98336e-08	0	0	0
6.01341e-08	0	0	0
6.70115e-08	0	0	0
7.04344e-08	0	0	0
7.13546e-08	0	0	0
8.12598e-08	0	0	0
8.88536e-08	0	0	0
1.00846e-07	0	0	0
1.08169e-07	0	0	0
1.18623e-07	0	0	0
1.42869e-07	0	0	0
1.61107e-07	0	0	0
2.144e-07	0	0	0
4.85261e-07	0	0	0
5.82291e-07	0	0	0
6.48488e-07	0	0	0
6.60343e-07	0	0	0
6.991e-07	0	0	0
7.38593e-07	0	0	0
7.59159e-07	0	0	0
7.79663e-07	0	0	0
8.31304e-07	0	0	0
8.76789e-07	0	0	0
9.39549e-07	0	0	0
9.46189e-07	0	0	0
1.07592e-06	0	0	0
1.11275e-06	0	0	0
1.21674e-06	0	0	0
1.2299e-06	0	0	0
1.24675e-06	0	0	0
1.29549e-06	0	0	0
1.40458e-06	0	0	0
1.42644e-06	0	0	0
1.44818e-06	0	0	0
1.45887e-06	0	0	0
1.46684e-06	0	0	0
1.48965e-06	0	0	0
1.50129e-06	0	0	0
1.56653e-06	0	0	0
1.56733e-06	0	0	0
1.68907e-06	0	0	0
1.76714e-06	0	0	0
1.76887e-06	0	0	0
1.77238e-06	0	0	0
1.7755e-06	0	0	0
1.98099e-06	0	0	0
2.01075e-06	0	0	0
2.06331e-06	0	0	0
2.14214e-06	0	0	0
2.27629e-06	0	0	0
2.2768e-06	0	0	0
2.27705e-06	0	0	0
2.3099e-06	0	0	0
2.34569e-06	0	0	0
2.36785e-06	0	0	0
2.37815e-06	0	0	0
2.50186e-06	0	0	0
2.51325e-06	0	0	0
2.52584e-06	0	0	0
2.6528e-06	0	0	0
2.78907e-06	0	0	0
2.87045e-06	0	0	0
2.90931e-06	0	0	0
2.95379e-06	0	0	0
3.1224e-06	0	0	0
3.15252e-06	0	0	0
3.16469e-06	0	0	0
3.20004e-06	0	0	0
3.23528e-06	0	0	0
3.27253e-06	0	0	0
3.2848e-06	0	0	0
3.33292e-06	0	0	0
3.34495e-06	0	0	0
3.3744e-06	0	0	0
3.59347e-06	0	0	0
3.6907e-06	0	0	0
3.69261e-06	0	0	0
3.98467e-06	0	0	0
4.06653e-06	0	0	0
4.09468e-06	0	0	0
4.44861e-06	0	0	0
4.49363e-06	0	0	0
4.51552e-06	0	0	0
4.5177e-06	0	0	0
4.56653e-06	0	0	0
4.58028e-06	0	0	0
4.59196e-06	0	0	0
4.61385e-06	0	0	0
4.65347e-06	0	0	0
4.70313e-06	0	0	0
4.72086e-06	0	0	0
4.73596e-06	0	0	0
4.81432e-06	0	0	0
5.11479e-06	0	0	0
5.13127e-06	0	0	0
5.23247e-06	0	0	0
5.24435e-06	0	0	0
5.2805e-06	0	0	0
5.28433e-06	0	0	0
5.30902e-06	0	0	0
5.44322e-06	0	0	0
5.50924e-06	0	0	0
5.51435e-06	0	0	0
5.52688e-06	0	0	0
5.54906e-06	0	0	0
5.86028e-06	0	0	0
5.87286e-06	0	0	0
6.00469e-06	0	0	0
6.0226e-06	0	0	0
6.1271e-06	0	0	0
6.13011e-06	0	0	0
6.17186e-06	0	0	0
6.22848e-06	0	0	0
6.32909e-06	0	0	0
6.37498e-06	0	0	0
6.75114e-06	0	0	0
6.7557e-06	0	0	0
6.77652e-06	0	0	0
6.8601e-06	0	0	0
6.90389e-06	0	0	0
7.05078e-06	0	0	0
7.10608e-06	0	0	0
7.11148e-06	0	0	0
7.11257e-06	0	0	0
7.15655e-06	0	0	0
7.16456e-06	0	0	0
7.26622e-06	0	0	0
7.26676e-06	0	0	0
7.36991e-06	0	0	0
7.55622e-06	0	0	0
7.58292e-06	0	0	0
7.64561e-06	0	0	0
7.6535e-06	0	0	0
7.69278e-06	0	0	0
7.79449e-06	0	0	0
7.8095e-06	0	0	0
8.06426e-06	0	0	0
8.06903e-06	0	0	0
8.29604e-06	0	0	0
8.43925e-06	0	0	0
8.43968e-06	0	0	0
8.67344e-06	0	0	0
8.73528e-06	0	0	0
8.87134e-06	0	0	0
9.08846e-06	0	0	0
9.22408e-06	0	0	0
9.63755e-06	0	0	0
9.64861e-06	0	0	0
9.70231e-06	0	0	0
1.00564e-05	0	0	0
1.01168e-05	0	0	0
1.01321e-05	0	0	0
1.01656e-05	0	0	0
1.0246e-05	0	0	0
1.05941e-05	0	0	0
1.06581e-05	0	0	0
1.07024e-05	0	0	0
1.0848e-05	0	0	0
1.11333e-05	0	0	0
1.11628e-05	0	0	0
1.12715e-05	0	0	0
1.13505e-05	0	0	0
1.19831e-05	0	0	0
1.20119e-05	0	0	0
1.21423e-05	0	0	0
1.21587e-05	0	0	0
1.2173e-05	0	0	0
1.23775e-05	0	0	0
1.23852e-05	0	0	0
1.24836e-05	0	0	0
1.25667e-05	0	0	0
1.25758e-05	0	0	0
1.26038e-05	0	0	0
1.27297e-05	0	0	0
1.27388e-05	0	0	0
1.28039e-05	0	0	0
1.29847e-05	0	0	0
1.32764e-05	0	0	0
1.34108e-05	0	0	0
1.36368e-05	0	0	0
1.36525e-05	0	0	0
1.37356e-05	0	0	0
1.37933e-05	0	0	0
1.39473e-05	0	0	0
1.39544e-05	0	0	0
1.39588e-05	0	0	0
1.40392e-05	0	0	0
1.45008e-05	0	0	0
1.51224e-05	0	0	0
1.51428e-05	0	0	0
1.52149e-05	0	0	0
1.53926e-05	0	0	0
1.55281e-05	0	0	0
1.57865e-05	0	0	0
1.58095e-05	0	0	0
1.58838e-05	0	0	0
1.58844e-05	0	0	0
1.60394e-05	0	0	0
1.65247e-05	0	0	0
1.65536e-05	0	0	0
1.6813e-05	0	0	0
1.69288e-05	0	0	0
1.69346e-05	0	0	0
1.6947e-05	0	0	0
1.69593e-05	0	0	0
1.71235e-05	0	0	0
1.74632e-05	0	0	0
1.79994e-05	0	0	0
1.80041e-05	0	0	0
1.85008e-05	0	0	0
1.85503e-05	0	0	0
1.86867e-05	0	0	0
1.90054e-05	0	0	0
1.90916e-05	0	0	0
1.94673e-05	0	0	0
1.97632e-05	0	0	0
1.98038e-05	0	0	0
1.98801e-05	0	0	0
2.00977e-05	0	0	0
2.01367e-05	0	0	0
2.0141e-05	0	0	0
2.01484e-05	0	0	0
2.0506e-05	0	0	0
2.2296e-05	0	0	0
2.25417e-05	0	0	0
2.33489e-05	0	0	0
2.35456e-05	0	0	0
2.38803e-05	0	0	0
2.41208e-05	0	0	0
2.41814e-05	0	0	0
2.41954e-05	0	0	0
2.43789e-05	0	0	0
2.45758e-05	0	0	0
2.46723e-05	0	0	0
2.47604e-05	0	0	0
2.51507e-05	0	0	0
2.542e-05	0	0	0
2.55215e-05	0	0	0
2.5873e-05	0	0	0
2.61296e-05	0	0	0
2.62011e-05	0	0	0
2.69006e-05	0	0	0
2.73341e-05	0	0	0
2.73736e-05	0	0	0
2.74805e-05	0	0	0
2.80541e-05	0	0	0
2.83962e-05	0	0	0
2.89016e-05	0	0	0
2.93078e-05	0	0	0
2.93525e-05	0	0	0
2.95676e-05	0	0	0
2.99587e-05	0	0	0
3.02198e-05	0	0	0
3.10215e-05	0	0	0
3.17298e-05	0	0	0
3.1946e-05	0	0	0
3.24916e-05	0	0	0
3.33168e-05	0	0	0
3.35933e-05	0	0	0
3.44813e-05	0	0	0
3.49214e-05	0	0	0
3.50229e-05	0	0	0
3.52906e-05	0	0	0
3.5694e-05	0	0	0
3.6686e-05	0	0	0
3.72429e-05	0	0	0
3.72621e-05	0	0	0
3.75423e-05	0	0	0
3.78575e-05	0	0	0
3.86911e-05	0	0	0
3.92713e-05	0	0	0
3.93755e-05	0	0	0
3.957e-05	0	0	0
3.95786e-05	0	0	0
3.96377e-05	0	0	0
3.97518e-05	0	0	0
4.03242e-05	0	0	0
4.04113e-05	0	0	0
4.04667e-05	0	0	0
4.06118e-05	0	0	0
4.07144e-05	0	0	0
4.08252e-05	0	0	0
4.1135e-05	0	0	0
4.14149e-05	0	0	0
4.19276e-05	0	0	0
4.21742e-05	0	0	0
4.27903e-05	0	0	0
4.3262e-05	0	0	0
4.34768e-05	0	0	0
4.39061e-05	0	0	0
4.47527e-05	0	0	0
4.56079e-05	0	0	0
4.60656e-05	0	0	0
4.72204e-05	0	0	0
4.75467e-05	0	0	0
4.87413e-05	0	0	0
4.8827e-05	0	0	0
4.99705e-05	0	0	0
5.0151e-05	0	0	0
5.03691e-05	0	0	0
5.12362e-05	0	0	0
5.19184e-05	0	0	0
5.45245e-05	0	0	0
5.57271e-05	0	0	0
5.71768e-05	0	0	0
5.82095e-05	0	0	0
5.83227e-05	0	0	0
5.8535e-05	0	0	0
5.89e-05	0	0	0
6.00532e-05	0	0	0
6.08204e-05	0	0	0
6.08678e-05	0	0	0
6.09265e-05	0	0	0
6.1188e-05	0	0	0
6.13063e-05	0	0	0
6.34187e-05	0	0	0
6.35288e-05	0	0	0
6.37094e-05	0	0	0
6.70503e-05	0	0	0
6.90999e-05	0	0	0
7.12999e-05	0	0	0
7.2067e-05	0	0	0
7.20854e-05	0	0	0
7.22055e-05	0	0	0
7.35001e-05	0	0	0
7.45686e-05	0	0	0
7.74093e-05	0	0	0
7.7896e-05	0	0	0
7.81298e-05	0	0	0
7.81976e-05	0	0	0
7.83661e-05	0	0	0
7.92835e-05	0	0	0
8.01338e-05	0	0	0
8.10997e-05	0	0	0
8.19111e-05	0	0	0
8.20996e-05	0	0	0
8.33198e-05	0	0	0
8.46615e-05	0	0	0
8.47586e-05	0	0	0
8.47829e-05	0	0	0
8.50488e-05	0	0	0
8.63667e-05	0	0	0
8.6695e-05	0	0	0
8.78136e-05	0	0	0
8.95437e-05	0	0	0
8.97282e-05	0	0	0
9.05276e-05	0	0	0
9.49871e-05	0	0	0
9.54639e-05	0	0	0
9.80257e-05	0	0	0
9.99911e-05	0	0	0
0.00010244	0	0	0
0.000103561	0	0	0
0.00010375	0	0	0
0.000105375	0	0	0
0.000106578	0	0	0
0.000106966	0	0	0
0.000107989	0	0	0
0.000109744	0	0	0
0.000110807	0	0	0
0.000111543	0	0	0
0.000117119	0	0	0
0.000121005	0	0	0
0.000123357	0	0	0
0.000123968	0	0	0
0.000125318	0	0	0
0.000127818	0	0	0
0.000130749	0	0	0
0.000134339	0	0	0
0.000138597	0	0	0
0.000139755	0	0	0
0.000141034	0	0	0
0.000155587	0	0	0
0.000164004	0	0	0
0.000165332	0	0	0
0.000175503	0	0	0
0.000193539	0	0	0
0.000236769	0	0	0
0.000292486	0	0	0
0.0143353	0	0	0
0.0221699	0	0	0
0.0613574	0	0	0.0909918
0.0629827	0	0	0.0909918
0.0630049	0.0138198	0.0276396	0.0909918
0.0630585	0.0138198	0.0276396	0.0909918
0.0793914	0.0414594	0	0.0909918
0.0813214	0.0414594	0	0.0909918
0.0816749	0.0414594	0	0.0909918
0.0832318	0.0414594	0.0276396	0.0909918
0.0836144	0.0414594	0.0552792	0.0909918
0.0850328	0.0414594	0.0829187	0.0909918
0.0858143	0.0414594	0.110558	0.0909918
0.0861447	0.0414594	0.138198	0.0909918
0.0862745	0.0414594	0.165837	0.0909918
0.0864425	0.0414594	0.193477	0.0909918
0.0869464	0.0414594	0.193477	0.0909918
0.0870942	0.0414594	0.221117	0.0909918
0.0874608	0.0414594	0.248756	0.0909918
0.0874718	0.0414594	0.276396	0.0909918
0.0880839	0.0690989	0.248756	0.0909918
0.0881088	0.0690989	0.276396	0.0909918
0.0881244	0.0829187	0.304035	0.0909918
0.0881855	0.110558	0.276396	0.0909918
0.0882701	0.138198	0.248756	0.0909918
0.0884374	0.165837	0.221117	0.0909918
0.0884512	0.165837	0.248756	0.0909918
0.0916214	0.193477	0.221117	0.0909918
0.091622	0.193477	0.276396	0.0909918
0.0916278	0.221117	0.248756	0.0909918
0.0916305	0.248756	0.221117	0.0909918
0.0916307	0.276396	0.193477	0.0909918
0.0916314	0.304035	0.165837	0.0909918
0.0916316	0.331675	0.138198	0.0909918
0.0916358	0.331675	0.138198	0.0909918
0.0916503	0.359315	0.110558	0.0909918
0.0916656	0.386954	0.0829187	0.0909918
0.0916992	0.414594	0.0552792	0.0909918
0.0917238	0.414594	0.0552792	0.0909918
0.0918149	0.442233	0.0276396	0.0909918
0.102196	0.469873	0	0.0909918
0.113934	0.469873	0	0.0909918
0.113943	0.469873	0	0.0909918
0.114025	0.469873	0	0.0909918
0.117031	0.469873	0	0.0909918
0.118181	0.469873	0	0.0909918
0.137194	0.469873	0	0.0909918
0.146835	0.469873	0	0.0909918
0.16181	0.469873	0	0.0909918
0.16506	0.469873	0	0.0909918
0.170557	0.469873	0	0.0909918
0.178692	0.469873	0	0.181984
0.184961	0.469873	0	0.181984
0.185016	0.469873	0	0.181984
0.230511	0.469873	0	0.181984
0.259246	0.469873	0	0.181984
0.265519	0.469873	0	0.181984
0.274759	0.469873	0	0.272975
0.275424	0.469873	0	0.272975
0.275434	0.483693	0.0276396	0.272975
0.292283	0.511332	0	0.272975
0.294499	0.511332	0	0.272975
0.294578	0.511332	0	0.272975
0.294581	0.511332	0	0.272975
0.297887	0.511332	0	0.272975
0.32063	0.511332	0	0.272975
0.320659	0.511332	0	0.272975
0.320678	0.511332	0	0.272975
0.327881	0.511332	0	0.272975
0.334149	0.511332	0	0.272975
0.335109	0.511332	0	0.272975
0.335135	0.511332	0.0552792	0.272975
0.335155	0.538972	0.0276396	0.272975
0.33517	0.566611	0	0.272975
0.335171	0.566611	0	0.272975
0.337777	0.566611	0	0.272975
0.338156	0.566611	0	0.272975
0.338166	0.566611	0.0552792	0.272975
0.338443	0.594251	0.0276396	0.272975
0.357064	0.621891	0	0.272975
0.357672	0.621891	0	0.272975
0.357683	0.63571	0.0276396	0.272975
0.369269	0.66335	0	0.272975
0.381223	0.66335	0	0.272975
0.381422	0.66335	0	0.272975
0.381468	0.67717	0.0276396	0.272975
0.38157	0.67717	0.0276396	0.363967
0.402169	0.704809	0	0.363967
0.414645	0.704809	0	0.454959
0.414684	0.704809	0	0.454959
0.414688	0.704809	0	0.454959
0.414695	0.704809	0	0.454959
0.414698	0.704809	0	0.454959
0.414706	0.704809	0	0.454959
0.414766	0.704809	0	0.454959
0.415143	0.704809	0	0.454959
0.435527	0.704809	0	0.545951
0.435583	0.704809	0	0.545951
0.436895	0.704809	0	0.545951
0.436918	0.704809	0	0.545951
0.436924	0.704809	0	0.545951
0.45839	0.704809	0	0.545951
0.465801	0.704809	0	0.636943
0.465809	0.704809	0	0.727934
0.478306	0.704809	0	0.727934
0.478317	0.704809	0	0.727934
0.480142	0.704809	0	0.727934
0.480437	0.704809	0	0.727934
0.48046	0.718629	0.0276396	0.727934
0.523664	0.746269	0	0.727934
0.523743	0.746269	0	0.727934
0.523819	0.760088	0.0276396	0.727934
0.528692	0.787728	0	0.727934
0.52924	0.787728	0	0.727934
0.529291	0.801548	0.0276396	0.727934
0.537028	0.829187	0	0.727934
0.553062	0.829187	0	0.727934
0.553079	0.829187	0	0.818926
0.557024	0.829187	0	0.818926
0.557154	0.829187	0	0.818926
0.557168	0.843007	0.0276396	0.818926
0.557196	0.843007	0.0276396	0.818926
0.591302	0.870647	0	0.818926
0.592024	0.870647	0	0.818926
0.61642	0.870647	0	0.909918
0.631373	0.870647	0	0.909918
0.631433	0.870647	0	0.909918
0.632525	0.870647	0.0276396	0.909918
0.633083	0.870647	0.0552792	0.909918
0.633431	0.870647	0.0829187	0.909918
0.634345	0.870647	0.110558	0.909918
0.634352	0.870647	0.138198	0.909918
0.634367	0.898286	0.110558	0.909918
0.634384	0.925926	0.0829187	0.909918
0.634424	0.953566	0.0552792	0.909918
0.634438	0.981205	0.0276396	0.909918
0.651179	1.00884	0	0.909918
0.651454	1.00884	0	0.909918
0.659927	1.00884	0	1.00091
0.671199	1.00884	0	1.00091
0.683703	1.00884	0	1.00091
0.683948	1.00884	0	1.00091
0.683962	1.00884	0.0276396	1.00091
0.684182	1.00884	0.0552792	1.00091
0.685273	1.00884	0.0829187	1.00091
0.68529	1.02266	0.110558	1.00091
0.685302	1.0503	0.0829187	1.00091
0.685316	1.07794	0.0552792	1.00091
0.685413	1.10558	0.0276396	1.00091
0.732664	1.13322	0	1.00091
0.732727	1.13322	0	1.00091
0.733484	1.13322	0.0276396	1.00091
0.734731	1.13322	0.0552792	1.00091
0.736152	1.13322	0.0829187	1.00091
0.736158	1.14704	0.110558	1.00091
0.736161	1.17468	0.0829187	1.00091
0.736188	1.20232	0.0552792	1.00091
0.736225	1.22996	0.0276396	1.00091
0.736909	1.2576	0	1.00091
0.737426	1.2576	0	1.00091
0.73762	1.2576	0	1.00091
0.738112	1.2576	0.0276396	1.00091
0.738568	1.2576	0.0552792	1.00091
0.738584	1.2576	0.0829187	1.00091
0.738967	1.2576	0.110558	1.00091
0.739657	1.2576	0.138198	1.00091
0.739813	1.2576	0.165837	1.00091
0.740083	1.2576	0.193477	1.00091
0.741291	1.2576	0.221117	1.00091
0.741408	1.2576	0.248756	1.00091
0.741633	1.28524	0.221117	1.00091
0.741732	1.28524	0.248756	1.00091
0.741784	1.31288	0.221117	1.00091
0.741833	1.31288	0.248756	1.00091
0.741856	1.34052	0.221117	1.00091
0.741863	1.35434	0.248756	1.00091
0.741865	1.38198	0.221117	1.00091
0.741872	1.40962	0.193477	1.00091
0.741894	1.43726	0.165837	1.00091
0.741897	1.4649	0.138198	1.00091
0.741907	1.4649	0.138198	1.00091
0.741908	1.49254	0.110558	1.00091
0.741908	1.52018	0.0829187	1.00091
0.741985	1.54782	0.0552792	1.00091
0.741988	1.57546	0.0276396	1.00091
0.74205	1.6031	0	1.00091
0.74207	1.6031	0	1.00091
0.742073	1.6031	0	1.00091
0.74497	1.6031	0	1.00091
0.744983	1.6031	0	1.00091
0.745269	1.6031	0	1.00091
0.760868	1.6031	0	1.0919
0.771899	1.6031	0	1.0919
0.773483	1.6031	0	1.0919
0.773516	1.6031	0	1.18289
0.785124	1.6031	0	1.18289
0.803161	1.6031	0	1.18289
0.803253	1.6031	0	1.18289
0.803262	1.6031	0.0552792	1.18289
0.803273	1.63074	0.0276396	1.18289
0.80332	1.63074	0.0276396	1.18289
0.81452	1.65837	0	1.18289
0.825349	1.65837	0	1.18289
0.825651	1.65837	0	1.18289
0.825703	1.67219	0.0276396	1.18289
0.826413	1.69983	0	1.18289
0.826416	1.69983	0	1.18289
0.826448	1.69983	0	1.18289
0.828676	1.69983	0	1.18289
0.828691	1.69983	0	1.27389
0.868373	1.69983	0	1.27389
0.869291	1.69983	0	1.36488
0.903577	1.69983	0	1.36488
0.903894	1.69983	0	1.36488
0.903979	1.71365	0.0276396	1.36488
0.904999	1.74129	0	1.36488
0.905053	1.74129	0	1.36488
0.90506	1.74129	0	1.36488
0.905081	1.74129	0	1.36488
0.905121	1.74129	0	1.36488
0.934903	1.74129	0	1.36488
0.949405	1.74129	0	1.36488
0.954718	1.74129	0	1.36488
0.955127	1.74129	0	1.36488
0.955187	1.75511	0.0276396	1.36488
0.960632	1.78275	0	1.36488
0.961971	1.78275	0	1.36488
0.962175	1.78275	0.0276396	1.36488
0.962195	1.79657	0.0552792	1.36488
0.962261	1.82421	0.0276396	1.36488
0.966983	1.85185	0	1.36488
0.968895	1.85185	0	1.36488
0.968897	1.86567	0.0276396	1.36488
0.968901	1.86567	0.0276396	1.36488
0.968927	1.86567	0.0276396	1.36488
0.968964	1.86567	0.0276396	1.36488
0.991178	1.89331	0	1.36488
0.991934	1.89331	0	1.36488
0.995097	1.89331	0.0276396	1.36488
0.995115	1.89331	0.0829187	1.36488
0.995156	1.92095	0.0552792	1.36488
0.995157	1.94859	0.0276396	1.36488
0.996348	1.97623	0	1.36488
0.996381	1.97623	0	1.36488
0.998517	1.97623	0	1.36488
0.999134	1.97623	0	1.45587
1.00026	1.97623	0	1.45587
1.00041	1.99005	0.0276396	1.45587
1.00972	2.01769	0	1.45587
1.02116	2.01769	0	1.54686
1.02164	2.01769	0	1.54686
1.02177	2.01769	0.0276396	1.54686
1.0218	2.01769	0.0552792	1.54686
1.02209	2.01769	0.0829187	1.54686
1.02251	2.01769	0.110558	1.54686
1.02252	2.01769	0.138198	1.54686
1.02252	2.01769	0.193477	1.54686
1.02252	2.04533	0.165837	1.54686
1.02253	2.07297	0.138198	1.54686
1.02258	2.10061	0.110558	1.54686
1.02259	2.12825	0.0829187	1.54686
1.02262	2.15589	0.0552792	1.54686
1.02262	2.18353	0.0276396	1.54686
1.0293	2.21117	0	1.54686
1.04103	2.21117	0	1.63785
1.04551	2.21117	0	1.63785
1.06852	2.21117	0	1.72884
1.06905	2.21117	0	1.72884
1.06912	2.22499	0.0276396	1.72884
1.08256	2.25263	0	1.72884
1.08264	2.25263	0	1.81984
1.08339	2.25263	0	1.81984
1.08986	2.25263	0	1.81984
1.09009	2.25263	0	1.81984
1.09013	2.26645	0.0276396	1.81984
1.09505	2.29409	0	1.81984
1.10909	2.29409	0	1.81984
1.1091	2.29409	0	1.81984
1.10912	2.3079	0.0276396	1.81984
1.12988	2.33554	0	1.81984
1.14416	2.33554	0	1.81984
1.15073	2.33554	0	1.81984
1.15486	2.33554	0	1.81984
1.1779	2.33554	0	1.91083
1.18146	2.33554	0	2.00182
1.18663	2.33554	0	2.09281
1.18889	2.33554	0	2.09281
1.19201	2.33554	0	2.1838
1.19826	2.33554	0	2.1838
1.19848	2.33554	0	2.1838
1.19851	2.33554	0.0552792	2.1838
1.19857	2.36318	0.0276396	2.1838
1.1998	2.39082	0	2.1838
1.23454	2.39082	0	2.1838
1.26885	2.39082	0	2.1838
1.26935	2.39082	0	2.1838
1.26939	2.40464	0.0276396	2.1838
1.27401	2.43228	0	2.1838
1.27404	2.43228	0	2.1838
1.27543	2.43228	0.0276396	2.1838
1.27586	2.43228	0.0552792	2.1838
1.27609	2.43228	0.0829187	2.1838
1.2761	2.43228	0.138198	2.1838
1.2761	2.43228	0.138198	2.1838
1.27611	2.45992	0.110558	2.1838
1.27612	2.45992	0.110558	2.1838
1.27612	2.45992	0.110558	2.1838
1.27616	2.48756	0.0829187	2.1838
1.27619	2.48756	0.0829187	2.1838
1.27619	2.5152	0.0552792	2.1838
1.27623	2.54284	0.0276396	2.1838
1.28206	2.57048	0	2.1838
1.28372	2.57048	0	2.1838
1.28697	2.57048	0	2.36579
1.28853	2.57048	0	2.45678
1.28876	2.57048	0	2.45678
1.28883	2.5843	0.0276396	2.45678
1.31447	2.61194	0	2.45678
1.31455	2.61194	0	2.45678
1.31481	2.61194	0.0276396	2.45678
1.31481	2.62576	0.0552792	2.45678
1.31484	2.62576	0.0552792	2.45678
1.31487	2.62576	0.0552792	2.45678
1.31501	2.6534	0.0276396	2.45678
1.33486	2.68104	0	2.45678
1.3349	2.68104	0	2.45678
1.33493	2.69486	0.0276396	2.45678
1.3464	2.7225	0	2.45678
1.3622	2.7225	0	2.45678
1.36264	2.7225	0	2.45678
1.36267	2.73632	0.0276396	2.45678
1.36267	2.76396	0	2.45678
1.41413	2.76396	0	2.45678
1.41448	2.76396	0	2.45678
1.41467	2.76396	0.0276396	2.45678
1.41469	2.76396	0.0276396	2.45678
1.41619	2.76396	0.0276396	2.45678
1.41619	2.77778	0.0552792	2.45678
1.41623	2.80542	0.0276396	2.45678
1.41624	2.83306	0	2.45678
1.42504	2.83306	0	2.45678
1.43087	2.83306	0	2.54777
1.43143	2.83306	0	2.54777
1.43149	2.84688	0.0276396	2.54777
1.45077	2.87452	0	2.54777
1.45819	2.87452	0	2.63876
1.45983	2.87452	0	2.63876
1.5095	2.87452	0	2.72975
1.50992	2.87452	0	2.72975
1.51076	2.87452	0.0276396	2.72975
1.51131	2.87452	0.0552792	2.72975
1.51155	2.87452	0.0829187	2.72975
1.51167	2.87452	0.110558	2.72975
1.51283	2.87452	0.138198	2.72975
1.51284	2.87452	0.193477	2.72975
1.51285	2.90216	0.165837	2.72975
1.51287	2.9298	0.138198	2.72975
1.51287	2.95744	0.110558	2.72975
1.51288	2.95744	0.110558	2.72975
1.51288	2.95744	0.110558	2.72975
1.51289	2.98507	0.0829187	2.72975
1.5129	3.01271	0.0552792	2.72975
1.5129	3.01271	0.0552792	2.72975
1.51301	3.04035	0.0276396	2.72975
1.55259	3.06799	0	2.72975
1.56415	3.06799	0	2.72975
1.56432	3.06799	0	2.72975
1.56434	3.06799	0.0552792	2.72975
1.56438	3.09563	0.0276396	2.72975
1.57017	3.12327	0	2.72975
1.59005	3.12327	0	2.91174
1.59706	3.12327	0	2.91174
1.6049	3.12327	0	2.91174
1.64276	3.12327	0	3.00273
1.67475	3.12327	0	3.09372
1.67565	3.12327	0	3.09372
1.67623	3.12327	0.0276396	3.09372
1.67623	3.13709	0.0552792	3.09372
1.67623	3.13709	0.0552792	3.09372
1.67625	3.16473	0.0276396	3.09372
1.68178	3.19237	0	3.09372
1.68225	3.19237	0	3.09372
1.68232	3.20619	0.0276396	3.09372
1.68232	3.23383	0	3.09372
1.71002	3.23383	0	3.09372
1.7144	3.23383	0	3.18471
1.73463	3.23383	0	3.18471
1.73501	3.23383	0	3.18471
1.73502	3.23383	0.0552792	3.18471
1.73504	3.26147	0.0276396	3.18471
1.7527	3.28911	0	3.18471
1.81032	3.28911	0	3.18471
1.81058	3.28911	0	3.18471
1.81061	3.30293	0.0276396	3.18471
1.81294	3.33057	0	3.18471
1.81319	3.33057	0	3.18471
1.81321	3.34439	0.0276396	3.18471
1.81626	3.37203	0	3.18471
1.83253	3.37203	0	3.18471
1.83307	3.37203	0	3.18471
1.83312	3.38585	0.0276396	3.18471
1.83419	3.41349	0	3.18471
1.8342	3.41349	0	3.27571
1.85637	3.41349	0	3.27571
1.87711	3.41349	0	3.3667
1.87719	3.41349	0	3.3667
1.87812	3.41349	0.0276396	3.3667
1.87814	3.41349	0.0552792	3.3667
1.8793	3.41349	0.0829187	3.3667
1.88019	3.41349	0.110558	3.3667
1.88019	3.42731	0.138198	3.3667
1.88019	3.45495	0.110558	3.3667
1.8802	3.48259	0.0829187	3.3667
1.8802	3.51023	0.0552792	3.3667
1.8802	3.51023	0.0552792	3.3667
1.88021	3.51023	0.0552792	3.3667
1.88024	3.51023	0.0552792	3.3667
1.88025	3.53787	0.0276396	3.3667
1.88026	3.53787	0.0276396	3.3667
1.88879	3.56551	0	3.3667
1.88928	3.56551	0	3.3667
1.8893	3.57933	0.0276396	3.3667
1.88938	3.57933	0.0276396	3.3667
1.90187	3.60697	0	3.3667
1.90284	3.60697	0	3.3667
1.90303	3.60697	0.0276396	3.3667
1.90303	3.62078	0.0552792	3.3667
1.90304	3.64842	0.0276396	3.3667
1.90305	3.67606	0	3.3667
1.92488	3.67606	0	3.3667
1.9385	3.67606	0	3.3667
1.94238	3.67606	0	3.3667
1.94238	3.67606	0	3.3667
1.94239	3.67606	0	3.3667
1.94651	3.67606	0	3.3667
1.94762	3.67606	0	3.54868
1.98647	3.67606	0	3.63967
1.98666	3.67606	0	3.63967
1.98669	3.68988	0.0276396	3.63967
1.9867	3.71752	0	3.63967
2.01615	3.71752	0	3.63967
2.01965	3.71752	0	3.73066
2.02044	3.71752	0	3.82166
2.02056	3.71752	0	3.82166
2.02071	3.71752	0.0276396	3.82166
2.02191	3.71752	0.0552792	3.82166
2.02279	3.71752	0.0829187	3.82166
2.02279	3.71752	0.138198	3.82166
2.02279	3.74516	0.110558	3.82166
2.0228	3.7728	0.0829187	3.82166
2.02285	3.80044	0.0552792	3.82166
2.02294	3.82808	0.0276396	3.82166
2.03079	3.85572	0	3.82166
2.03203	3.85572	0	3.82166
2.05131	3.85572	0	3.91265
2.05318	3.85572	0	3.91265
2.0544	3.85572	0.0276396	3.91265
2.05446	3.85572	0.0829187	3.91265
2.05446	3.88336	0.0552792	3.91265
2.05449	3.911	0.0276396	3.91265
2.08624	3.93864	0	3.91265
2.09216	3.93864	0	4.09463
2.12383	3.93864	0	4.18562
2.12517	3.93864	0	4.18562
2.12518	3.93864	0.0552792	4.18562
2.12518	3.96628	0.0276396	4.18562
2.17528	3.99392	0	4.18562
2.17533	3.99392	0	4.18562
2.1834	3.99392	0	4.18562
2.18666	3.99392	0	4.27662
2.1871	3.99392	0	4.27662
2.18743	3.99392	0.0276396	4.27662
2.18744	4.00774	0.0552792	4.27662
2.18748	4.03538	0.0276396	4.27662
2.18953	4.06302	0	4.27662
2.18953	4.06302	0	4.27662
2.18958	4.07684	0.0276396	4.27662
2.21362	4.10448	0	4.27662
2.21404	4.10448	0	4.27662
2.21412	4.10448	0.0552792	4.27662
2.21413	4.13212	0.0276396	4.27662
2.22024	4.15976	0	4.27662
2.22043	4.15976	0	4.27662
2.22046	4.17358	0.0276396	4.27662
2.29001	4.20122	0	4.27662
2.29129	4.20122	0	4.27662
2.29134	4.21504	0.0276396	4.27662
2.37781	4.24268	0	4.27662
2.37796	4.24268	0	4.27662
2.37804	4.2565	0.0276396	4.27662
2.38403	4.28413	0	4.27662
2.38439	4.28413	0	4.27662
2.38455	4.28413	0.0276396	4.27662
2.38457	4.29795	0.0552792	4.27662
2.38457	4.32559	0.0276396	4.27662
2.39125	4.35323	0	4.27662
2.39175	4.35323	0	4.27662
2.39175	4.36705	0.0276396	4.27662
2.4026	4.39469	0	4.27662
2.40308	4.39469	0	4.27662
2.40312	4.40851	0.0276396	4.27662
2.41737	4.43615	0	4.27662
2.418	4.43615	0	4.27662
2.41831	4.43615	0.0276396	4.27662
2.41834	4.44997	0.0552792	4.27662
2.4185	4.47761	0.0276396	4.27662
2.43072	4.50525	0	4.27662
2.43603	4.50525	0	4.27662
2.44283	4.50525	0	4.36761
2.44897	4.50525	0	4.4586
2.46115	4.50525	0	4.54959
2.46144	4.50525	0	4.54959
2.46235	4.50525	0.0276396	4.54959
2.46236	4.51907	0.0552792	4.54959
2.46239	4.54671	0.0276396	4.54959
2.4624	4.54671	0.0276396	4.54959
2.46244	4.57435	0	4.54959
2.48045	4.57435	0	4.54959
2.48076	4.57435	0	4.64058
2.52796	4.57435	0	4.82257
2.52908	4.57435	0	4.82257
2.52911	4.58817	0.0276396	4.82257
2.55549	4.61581	0	4.82257
2.55893	4.61581	0	4.91356
2.56379	4.61581	0	5.00455
2.56907	4.61581	0	5.00455
2.56964	4.61581	0	5.00455
2.56966	4.61581	0.0552792	5.00455
2.56971	4.64345	0.0276396	5.00455
2.58361	4.67109	0	5.00455
2.62372	4.67109	0	5.00455
2.62511	4.67109	0	5.00455
2.64958	4.67109	0	5.09554
2.66712	4.67109	0	5.09554
2.67211	4.67109	0	5.18653
2.67221	4.67109	0	5.18653
2.67223	4.68491	0.0276396	5.18653
2.67835	4.71255	0	5.18653
2.67846	4.71255	0	5.18653
2.67847	4.72637	0.0276396	5.18653
2.67909	4.75401	0	5.18653
2.70369	4.75401	0	5.27753
2.70408	4.75401	0	5.27753
2.70409	4.75401	0.0552792	5.27753
2.70411	4.78165	0.0276396	5.27753
2.74377	4.80929	0	5.27753
2.74386	4.80929	0	5.27753
2.74391	4.80929	0.0552792	5.27753
2.74392	4.83693	0.0276396	5.27753
2.77285	4.86457	0	5.27753
2.81358	4.86457	0	5.45951
2.84454	4.86457	0	5.5505
2.84503	4.86457	0	5.5505
2.84554	4.86457	0.0276396	5.5505
2.84559	4.87839	0.0552792	5.5505
2.84567	4.90603	0.0276396	5.5505
2.84965	4.93367	0	5.5505
2.85402	4.93367	0	5.5505
2.85408	4.93367	0	5.5505
2.85408	4.93367	0.0552792	5.5505
2.85409	4.9613	0.0276396	5.5505
2.85409	4.9613	0.0276396	5.5505
2.87016	4.98894	0	5.5505
2.87132	4.98894	0	5.5505
2.87143	5.00276	0.0276396	5.5505
2.88523	5.0304	0	5.5505
2.94075	5.0304	0	5.64149
2.94089	5.0304	0	5.64149
2.97166	5.0304	0.0276396	5.64149
2.97218	5.0304	0.0276396	5.64149
2.97232	5.04422	0.0552792	5.64149
2.98303	5.07186	0.0276396	5.64149
2.98308	5.07186	0.0276396	5.64149
3.04262	5.0995	0	5.64149
3.04549	5.0995	0	5.64149
3.05115	5.0995	0	5.73248
3.07554	5.0995	0	5.82348
3.11024	5.0995	0	6.00546
3.11219	5.0995	0	6.18744
3.11244	5.0995	0	6.18744
3.11343	5.0995	0.0276396	6.18744
3.11461	5.0995	0.0552792	6.18744
3.11482	5.0995	0.0829187	6.18744
3.11528	5.0995	0.110558	6.18744
3.11539	5.0995	0.138198	6.18744
3.11539	5.0995	0.165837	6.18744
3.11539	5.12714	0.138198	6.18744
3.11539	5.15478	0.110558	6.18744
3.1154	5.18242	0.0829187	6.18744
3.1154	5.21006	0.0552792	6.18744
3.1154	5.2377	0.0276396	6.18744
3.11541	5.2377	0.0276396	6.18744
3.11543	5.2377	0.0276396	6.18744
3.11558	5.2377	0.0276396	6.18744
3.18929	5.26534	0	6.18744
3.18954	5.26534	0	6.18744
3.18955	5.27916	0.0276396	6.18744
3.21012	5.3068	0	6.18744
3.25877	5.3068	0	6.18744
3.25883	5.3068	0	6.36943
3.25901	5.3068	0	6.36943
3.25907	5.32062	0.0276396	6.36943
3.26394	5.34826	0	6.36943
3.26649	5.34826	0	6.46042
3.28578	5.34826	0	6.6424
3.28581	5.34826	0	6.73339
3.28583	5.34826	0	6.73339
3.28987	5.34826	0	6.73339
3.29009	5.34826	0	6.73339
3.29011	5.34826	0.0276396	6.73339
3.29014	5.36208	0.0552792	6.73339
3.29018	5.38972	0.0276396	6.73339
3.29903	5.41736	0	6.73339
3.31224	5.41736	0	6.73339
3.31739	5.41736	0	6.82439
3.33898	5.41736	0	7.00637
3.33907	5.41736	0	7.00637
3.33908	5.43118	0.0276396	7.00637
3.35609	5.45882	0	7.00637
3.3721	5.45882	0	7.00637
3.37491	5.45882	0	7.18835
3.38721	5.45882	0	7.37034
3.41449	5.45882	0	7.55232
3.41453	5.45882	0	7.55232
3.41465	5.47264	0.0276396	7.55232
3.42767	5.50028	0	7.55232
3.42804	5.50028	0	7.55232
3.42805	5.50028	0.0552792	7.55232
3.42807	5.52792	0.0276396	7.55232
3.42808	5.55556	0	7.55232
3.44743	5.55556	0	7.55232
3.44779	5.55556	0	7.55232
3.44824	5.55556	0.0276396	7.55232
3.44854	5.55556	0.0552792	7.55232
3.44855	5.56938	0.0829187	7.55232
3.44856	5.59701	0.0552792	7.55232
3.44867	5.62465	0.0276396	7.55232
3.4504	5.65229	0	7.55232
3.46219	5.65229	0	7.64331
3.46275	5.65229	0	7.7343
3.46292	5.65229	0	7.7343
3.46331	5.65229	0.0276396	7.7343
3.4634	5.66611	0.0552792	7.7343
3.46345	5.69375	0.0276396	7.7343
3.46554	5.72139	0	7.7343
3.47252	5.72139	0	7.91629
3.47308	5.72139	0	7.91629
3.47311	5.72139	0.0276396	7.91629
3.47311	5.73521	0.0552792	7.91629
3.47314	5.76285	0.0276396	7.91629
3.48325	5.79049	0	7.91629
3.48531	5.79049	0	8.09827
3.48559	5.79049	0	8.09827
3.4856	5.80431	0.0276396	8.09827
3.50125	5.83195	0	8.09827
3.502	5.83195	0	8.09827
3.50225	5.83195	0.0276396	8.09827
3.5023	5.84577	0.0552792	8.09827
3.50234	5.87341	0.0276396	8.09827
3.54658	5.90105	0	8.09827
3.54994	5.90105	0	8.09827
3.56124	5.90105	0	8.09827
3.56204	5.90105	0	8.09827
3.56218	5.91487	0.0276396	8.09827
3.56749	5.94251	0	8.09827
3.5874	5.94251	0	8.18926
3.60022	5.94251	0	8.28025
3.60036	5.94251	0	8.28025
3.60089	5.94251	0.0276396	8.28025
3.60175	5.94251	0.0552792	8.28025
3.60175	5.94251	0.110558	8.28025
3.60176	5.97015	0.0829187	8.28025
3.60177	5.97015	0.0829187	8.28025
3.60181	5.99779	0.0552792	8.28025
3.60183	5.99779	0.0552792	8.28025
3.60184	6.02543	0.0276396	8.28025
3.62115	6.05307	0	8.28025
3.62123	6.05307	0	8.28025
3.62126	6.06689	0.0276396	8.28025
3.62418	6.09453	0	8.28025
3.6243	6.09453	0	8.28025
3.62444	6.09453	0.0276396	8.28025
3.62445	6.10835	0.0552792	8.28025
3.62446	6.13599	0.0276396	8.28025
3.69365	6.16363	0	8.28025
3.69478	6.16363	0	8.28025
3.69481	6.17745	0.0276396	8.28025
3.69719	6.20509	0	8.28025
3.69719	6.20509	0	8.28025
3.69727	6.20509	0.0276396	8.28025
3.72522	6.23273	0	8.28025
3.77398	6.23273	0	8.28025
3.77418	6.23273	0	8.28025
3.77423	6.24655	0.0276396	8.28025
3.78233	6.27418	0	8.28025
3.80485	6.27418	0	8.46224
3.80485	6.27418	0	8.46224
3.80486	6.27418	0.0552792	8.46224
3.8049	6.30182	0.0276396	8.46224
3.82667	6.32946	0	8.46224
3.82766	6.32946	0	8.46224
3.82769	6.34328	0.0276396	8.46224
3.84152	6.37092	0	8.46224
3.84979	6.37092	0	8.46224
3.86303	6.37092	0	8.46224
3.86311	6.37092	0	8.55323
3.89147	6.37092	0	8.55323
3.893	6.37092	0	8.55323
3.89305	6.38474	0.0276396	8.55323
3.91612	6.41238	0	8.55323
3.91614	6.41238	0	8.55323
3.9162	6.4262	0.0276396	8.55323
3.91838	6.45384	0	8.55323
3.9317	6.45384	0	8.73521
3.95671	6.45384	0	8.82621
3.95811	6.45384	0	9.00819
3.97359	6.45384	0	9.09918
3.97375	6.45384	0	9.09918
3.97384	6.46766	0.0276396	9.09918
3.99273	6.4953	0	9.09918
3.99446	6.4953	0	9.09918
3.99448	6.50912	0.0276396	9.09918
3.99837	6.53676	0	9.09918
4.00574	6.53676	0	9.09918
4.00651	6.53676	0	9.09918
4.00651	6.53676	0.0552792	9.09918
4.00659	6.5644	0.0276396	9.09918
4.0692	6.59204	0	9.09918
4.06998	6.59204	0	9.09918
4.06999	6.59204	0.0552792	9.09918
4.07004	6.61968	0.0276396	9.09918
4.09188	6.64732	0	9.09918
4.09961	6.64732	0	9.28116
4.1086	6.64732	0	9.46315
4.10866	6.64732	0	9.46315
4.10869	6.66114	0.0276396	9.46315
4.12749	6.68878	0	9.46315
4.12751	6.68878	0	9.46315
4.12752	6.68878	0.0552792	9.46315
4.12756	6.71642	0.0276396	9.46315
4.1363	6.74406	0	9.46315
4.14185	6.74406	0	9.64513
4.15181	6.74406	0	9.73612
4.15186	6.74406	0	9.73612
4.15201	6.75788	0.0276396	9.73612
4.22179	6.78552	0	9.73612
4.23522	6.78552	0	9.82712
4.23537	6.78552	0	9.82712
4.23556	6.79934	0.0276396	9.82712
4.24835	6.82698	0	9.82712
4.25211	6.82698	0	10.0091
4.25215	6.82698	0	10.0091
4.25221	6.82698	0.0552792	10.0091
4.25223	6.85462	0.0276396	10.0091
4.2645	6.88226	0	10.0091
4.26604	6.88226	0	10.1001
4.32308	6.88226	0	10.2821
4.32375	6.88226	0	10.2821
4.32377	6.88226	0.0552792	10.2821
4.32381	6.90989	0.0276396	10.2821
4.32968	6.93753	0	10.2821
4.33451	6.93753	0	10.3731
4.34496	6.93753	0	10.4641
4.34879	6.93753	0	10.5551
4.3498	6.93753	0	10.5551
4.34982	6.93753	0.0552792	10.5551
4.34983	6.96517	0.0276396	10.5551
4.37576	6.99281	0	10.5551
4.38303	6.99281	0	10.646
4.38399	6.99281	0	10.646
4.384	6.99281	0.0552792	10.646
4.38407	7.02045	0.0276396	10.646
4.39032	7.04809	0	10.646
4.39931	7.04809	0	10.646
4.45745	7.04809	0	10.737
4.49927	7.04809	0	10.828
4.4997	7.04809	0	10.828
4.49974	7.06191	0.0276396	10.828
4.53426	7.08955	0	10.828
4.53586	7.08955	0	10.828
4.58393	7.08955	0	11.01
4.59786	7.08955	0	11.101
4.60018	7.08955	0	11.192
4.60105	7.08955	0	11.192
4.6014	7.08955	0.0276396	11.192
4.6017	7.08955	0.0552792	11.192
4.60194	7.08955	0.0829187	11.192
4.60195	7.10337	0.110558	11.192
4.60197	7.13101	0.0829187	11.192
4.60197	7.15865	0.0552792	11.192
4.60208	7.18629	0.0276396	11.192
4.62616	7.21393	0	11.192
4.63151	7.21393	0	11.283
4.63225	7.21393	0	11.283
4.63228	7.21393	0.0552792	11.283
4.63228	7.24157	0.0276396	11.283
4.63229	7.26921	0	11.283
4.64436	7.26921	0	11.283
4.64503	7.26921	0	11.283
4.64505	7.26921	0.0276396	11.283
4.64505	7.28303	0.0552792	11.283
4.64508	7.31067	0.0276396	11.283
4.6727	7.33831	0	11.283
4.67309	7.33831	0	11.465
4.67893	7.33831	0	11.556
4.67945	7.33831	0	11.556
4.67945	7.35213	0.0276396	11.556
4.68575	7.37977	0	11.556
4.68582	7.37977	0	11.556
4.68591	7.39359	0.0276396	11.556
4.74121	7.42123	0	11.556
4.76834	7.42123	0	11.647
4.76885	7.42123	0	11.647
4.76889	7.43505	0.0276396	11.647
4.80632	7.46269	0	11.647
4.80644	7.46269	0	11.647
4.80645	7.47651	0.0276396	11.647
4.82412	7.50415	0	11.647
4.82493	7.50415	0	11.647
4.8262	7.50415	0.0276396	11.647
4.827	7.50415	0.0552792	11.647
4.82782	7.50415	0.0829187	11.647
4.82787	7.50415	0.110558	11.647
4.82887	7.50415	0.138198	11.647
4.82892	7.50415	0.165837	11.647
4.83017	7.50415	0.193477	11.647
4.83054	7.50415	0.221117	11.647
4.83055	7.50415	0.248756	11.647
4.83057	7.50415	0.276396	11.647
4.83062	7.53179	0.248756	11.647
4.83108	7.55943	0.221117	11.647
4.8311	7.55943	0.248756	11.647
4.84722	7.58706	0.221117	11.647
4.84722	7.58706	0.221117	11.7379
4.84722	7.6147	0.193477	11.7379
4.84723	7.64234	0.165837	11.7379
4.84723	7.66998	0.138198	11.7379
4.84724	7.69762	0.110558	11.7379
4.84726	7.72526	0.0829187	11.7379
4.84726	7.7529	0.0552792	11.7379
4.84728	7.78054	0.0276396	11.7379
4.87837	7.80818	0	11.7379
4.87938	7.80818	0	11.7379
4.87938	7.80818	0.0552792	11.7379
4.87947	7.83582	0.0276396	11.7379
4.93634	7.86346	0	11.7379
4.93664	7.86346	0	11.7379
4.93667	7.87728	0.0276396	11.7379
4.94608	7.90492	0	11.7379
4.94627	7.90492	0	11.7379
4.94628	7.91874	0.0276396	11.7379
4.95056	7.94638	0	11.7379
4.95101	7.94638	0	11.7379
4.95103	7.94638	0.0552792	11.7379
4.95106	7.97402	0.0276396	11.7379
4.95132	8.00166	0	11.7379
4.95344	8.00166	0	11.7379
4.95363	8.00166	0	11.7379
4.95367	8.01548	0.0276396	11.7379
4.95368	8.01548	0.0276396	11.7379
5.01291	8.04312	0	11.7379
5.02596	8.04312	0	11.8289
5.03914	8.04312	0	11.8289
5.03967	8.04312	0	11.8289
5.03974	8.04312	0.0276396	11.8289
5.03975	8.05694	0.0552792	11.8289
5.03981	8.08458	0.0276396	11.8289
5.0568	8.11222	0	11.8289
5.11357	8.11222	0	12.0109
5.13509	8.11222	0	12.1019
5.13518	8.11222	0	12.1019
5.13527	8.12604	0.0276396	12.1019
5.13576	8.15368	0	12.1019
5.13592	8.15368	0	12.1019
5.13618	8.15368	0.0276396	12.1019
5.13733	8.15368	0.0552792	12.1019
5.13821	8.15368	0.0829187	12.1019
5.13874	8.15368	0.110558	12.1019
5.1394	8.15368	0.138198	12.1019
5.1394	8.15368	0.193477	12.1019
5.1394	8.18132	0.165837	12.1019
5.1394	8.20896	0.138198	12.1019
5.13946	8.23659	0.110558	12.1019
5.13946	8.26423	0.0829187	12.1019
5.13946	8.29187	0.0552792	12.1019
5.1395	8.31951	0.0276396	12.1019
5.15651	8.34715	0	12.1019
5.15743	8.34715	0	12.1019
5.15746	8.36097	0.0276396	12.1019
5.18326	8.38861	0	12.1019
5.21952	8.38861	0	12.1929
5.22021	8.38861	0	12.1929
5.22026	8.40243	0.0276396	12.1929
5.22544	8.43007	0	12.1929
5.22557	8.43007	0	12.1929
5.22583	8.43007	0.0276396	12.1929
5.22589	8.44389	0.0552792	12.1929
5.22603	8.47153	0.0276396	12.1929
5.22669	8.49917	0	12.1929
5.22711	8.49917	0	12.1929
5.22712	8.49917	0.0276396	12.1929
5.22804	8.49917	0.0552792	12.1929
5.22805	8.49917	0.0829187	12.1929
5.22808	8.52681	0.0552792	12.1929
5.2281	8.55445	0.0276396	12.1929
5.23558	8.58209	0	12.1929
5.23594	8.58209	0	12.1929
5.23597	8.59591	0.0276396	12.1929
5.26212	8.62355	0	12.1929
5.28258	8.62355	0	12.3749
5.31	8.62355	0	12.5569
5.31015	8.62355	0	12.5569
5.31017	8.63737	0.0276396	12.5569
5.33073	8.66501	0	12.5569
5.33274	8.66501	0	12.5569
5.33297	8.66501	0	12.5569
5.33301	8.66501	0.0552792	12.5569
5.33302	8.69265	0.0276396	12.5569
5.35387	8.72029	0	12.5569
5.35454	8.72029	0	12.5569
5.35455	8.72029	0.0552792	12.5569
5.35463	8.74793	0.0276396	12.5569
5.35469	8.77557	0	12.5569
5.35625	8.77557	0	12.5569
5.36021	8.77557	0	12.6479
5.36114	8.77557	0	12.6479
5.36119	8.77557	0.0552792	12.6479
5.36122	8.80321	0.0276396	12.6479
5.38642	8.83085	0	12.6479
5.39537	8.83085	0	12.7389
5.39561	8.83085	0	12.7389
5.40476	8.83085	0.0276396	12.7389
5.4048	8.83085	0.0276396	12.8298
5.44045	8.85849	0	12.8298
5.44057	8.85849	0	12.8298
5.4406	8.87231	0.0276396	12.8298
5.46439	8.89994	0	12.8298
5.46452	8.89994	0	12.8298
5.46452	8.89994	0.0552792	12.8298
5.46456	8.92758	0.0276396	12.8298
5.48097	8.95522	0	12.8298
5.48124	8.95522	0	12.8298
5.48171	8.95522	0.0276396	12.8298
5.48174	8.96904	0.0552792	12.8298
5.48178	8.99668	0.0276396	12.8298
5.49938	9.02432	0	12.8298
5.53923	9.02432	0	13.0118
5.55454	9.02432	0	13.1938
5.58534	9.02432	0	13.2848
5.58548	9.02432	0	13.2848
5.58549	9.02432	0.0552792	13.2848
5.58556	9.05196	0.0276396	13.2848
5.58937	9.0796	0	13.2848
5.58971	9.0796	0	13.2848
5.58973	9.0796	0.0552792	13.2848
5.58982	9.10724	0.0276396	13.2848
5.58997	9.13488	0	13.2848
5.61532	9.13488	0	13.4668
5.61539	9.13488	0	13.4668
5.61669	9.13488	0.0276396	13.4668
5.61673	9.1487	0.0552792	13.4668
5.61685	9.17634	0.0276396	13.4668
5.71073	9.20398	0	13.4668
5.75941	9.20398	0	13.4668
5.76047	9.20398	0	13.4668
5.76085	9.20398	0.0276396	13.4668
5.76091	9.2178	0.0552792	13.4668
5.76094	9.24544	0.0276396	13.4668
5.76757	9.27308	0	13.4668
5.76773	9.27308	0	13.4668
5.76773	9.2869	0.0276396	13.4668
5.76775	9.2869	0.0276396	13.4668
5.81402	9.31454	0	13.4668
5.81668	9.31454	0	13.6488
5.81688	9.31454	0	13.6488
5.8184	9.31454	0.0276396	13.6488
5.81889	9.31454	0.0552792	13.6488
5.8189	9.31454	0.110558	13.6488
5.81891	9.34218	0.0829187	13.6488
5.81891	9.34218	0.0829187	13.6488
5.81892	9.36982	0.0552792	13.6488
5.81898	9.39746	0.0276396	13.6488
5.83735	9.4251	0	13.6488
5.83821	9.4251	0	13.6488
5.83822	9.43892	0.0276396	13.6488
5.86955	9.46656	0	13.6488
5.86959	9.46656	0	13.6488
5.87016	9.46656	0.0276396	13.6488
5.8702	9.48038	0.0552792	13.6488
5.8702	9.50802	0.0276396	13.6488
5.89145	9.53566	0	13.6488
5.89153	9.53566	0	13.6488
5.89154	9.53566	0.0552792	13.6488
5.89155	9.56329	0.0276396	13.6488
5.89165	9.56329	0.0276396	13.6488
5.90641	9.59093	0	13.6488
5.9265	9.59093	0	13.8308
5.93659	9.59093	0	13.9217
5.9444	9.59093	0	14.0127
5.94461	9.59093	0	14.0127
5.94507	9.59093	0.0276396	14.0127
5.9451	9.59093	0.0829187	14.0127
5.94511	9.61857	0.0552792	14.0127
5.94514	9.64621	0.0276396	14.0127
5.94548	9.67385	0	14.0127
6.00575	9.67385	0	14.1947
6.00776	9.67385	0	14.1947
6.00827	9.67385	0.0276396	14.1947
6.00827	9.68767	0.0552792	14.1947
6.00835	9.71531	0.0276396	14.1947
6.00872	9.74295	0	14.1947
6.00897	9.74295	0	14.1947
6.00901	9.74295	0.0552792	14.1947
6.00902	9.77059	0.0276396	14.1947
6.06583	9.79823	0	14.1947
6.06833	9.79823	0	14.1947
6.06835	9.79823	0.0552792	14.1947
6.06837	9.82587	0.0276396	14.1947
6.1032	9.85351	0	14.1947
6.10478	9.85351	0	14.2857
6.1052	9.85351	0	14.2857
6.10521	9.86733	0.0276396	14.2857
6.11393	9.89497	0	14.2857
6.11766	9.89497	0	14.4677
6.11941	9.89497	0	14.4677
6.11941	9.89497	0.0552792	14.4677
6.11942	9.92261	0.0276396	14.4677
6.17302	9.95025	0	14.4677
6.17328	9.95025	0	14.4677
6.17343	9.96407	0.0276396	14.4677
6.1892	9.99171	0	14.4677
6.23661	9.99171	0	14.5587
6.24009	9.99171	0	14.6497
6.27379	9.99171	0	14.8317
6.27497	9.99171	0	14.8317
6.27506	10.0055	0.0276396	14.8317
6.31893	10.0332	0	14.8317
6.31977	10.0332	0	14.8317
6.31986	10.047	0.0276396	14.8317
6.33521	10.0746	0	14.8317
6.36026	10.0746	0	14.8317
6.36197	10.0746	0	14.8317
6.36198	10.0746	0.0276396	14.8317
6.40908	10.1023	0	14.8317
6.42295	10.1023	0	15.0136
6.42301	10.1023	0	15.0136
6.42306	10.1023	0.0276396	15.0136
6.42307	10.1161	0.0552792	15.0136
6.42314	10.1437	0.0276396	15.0136
6.42621	10.1714	0	15.0136
6.4465	10.1714	0	15.1956
6.44703	10.1714	0	15.1956
6.44745	10.1714	0.0276396	15.1956
6.44884	10.1714	0.0552792	15.1956
6.44884	10.1852	0.0829187	15.1956
6.44884	10.2128	0.0552792	15.1956
6.44885	10.2405	0.0276396	15.1956
6.46255	10.2681	0	15.1956
6.46311	10.2681	0	15.1956
6.46313	10.2819	0.0276396	15.1956
6.50246	10.3096	0	15.1956
6.50356	10.3096	0	15.1956
6.50357	10.3096	0.0552792	15.1956
6.50366	10.3372	0.0276396	15.1956
6.52882	10.3648	0	15.1956
6.52904	10.3648	0	15.1956
6.53044	10.3648	0.0276396	15.1956
6.53065	10.3648	0.0552792	15.1956
6.53065	10.3787	0.0829187	15.1956
6.53066	10.3787	0.0829187	15.1956
6.53067	10.4063	0.0552792	15.1956
6.53068	10.4339	0.0276396	15.1956
6.57759	10.4616	0	15.1956
6.58763	10.4616	0	15.2866
6.58819	10.4616	0	15.2866
6.58858	10.4616	0.0276396	15.2866
6.5886	10.4754	0.0552792	15.2866
6.58861	10.503	0.0276396	15.2866
6.60478	10.5307	0	15.2866
6.60507	10.5307	0	15.2866
6.60507	10.5307	0.0552792	15.2866
6.60516	10.5583	0.0276396	15.2866
6.60783	10.586	0	15.2866
6.63651	10.586	0	15.4686
6.6815	10.586	0	15.4686
6.6818	10.586	0	15.4686
6.68182	10.5998	0.0276396	15.4686
6.80502	10.6274	0	15.4686
6.91279	10.6274	0	15.6506
6.91315	10.6274	0	15.6506
6.91321	10.6274	0.0552792	15.6506
6.91322	10.6551	0.0276396	15.6506
6.91323	10.6827	0	15.6506
6.91347	10.6827	0	15.6506
6.91353	10.6827	0.0552792	15.6506
6.91354	10.7103	0.0276396	15.6506
6.91816	10.738	0	15.6506
6.91839	10.738	0	15.6506
6.91848	10.738	0.0276396	15.6506
6.9185	10.7518	0.0552792	15.6506
6.91866	10.7794	0.0276396	15.6506
6.94177	10.8071	0	15.6506
6.94245	10.8071	0	15.6506
6.94245	10.8071	0.0552792	15.6506
6.94246	10.8347	0.0276396	15.6506
6.94248	10.8624	0	15.6506
6.97557	10.8624	0	15.6506
6.97597	10.8624	0	15.6506
6.97598	10.8624	0.0552792	15.6506
6.97601	10.89	0.0276396	15.6506
6.97865	10.9176	0	15.6506
6.98235	10.9176	0	15.8326
6.98292	10.9176	0	15.8326
6.98309	10.9315	0.0276396	15.8326
6.98314	10.9315	0.0276396	16.0146
6.98451	10.9591	0	16.0146
7.04001	10.9591	0	16.1965
7.09862	10.9591	0	16.2875
7.10516	10.9591	0	16.3785
7.1053	10.9591	0	16.3785
7.1056	10.9591	0.0276396	16.3785
7.10565	10.9729	0.0552792	16.3785
7.10566	11.0006	0.0276396	16.3785
7.10567	11.0282	0	16.3785
7.13071	11.0282	0	16.3785
7.13363	11.0282	0	16.5605
7.13372	11.0282	0	16.5605
7.13373	11.0282	0.0552792	16.5605
7.13375	11.0558	0.0276396	16.5605
7.14077	11.0835	0	16.5605
7.1924	11.0835	0	16.6515
7.19241	11.0835	0	16.7425
7.19241	11.0835	0	16.7425
7.20253	11.0835	0	16.7425
7.21553	11.0835	0	16.8335
7.21576	11.0835	0	16.8335
7.21931	11.0835	0.0276396	16.8335
7.22841	11.0835	0.0276396	17.0155
7.22883	11.0835	0.0276396	17.0155
7.22892	11.0835	0.0552792	17.0155
7.22894	11.0973	0.0829187	17.0155
7.22895	11.1249	0.0552792	17.0155
7.33858	11.1526	0.0276396	17.0155
7.33858	11.1526	0.0276396	17.0155
7.33859	11.1526	0.0276396	17.0155
7.33863	11.1526	0.0276396	17.0155
7.33864	11.1526	0.0552792	17.0155
7.34052	11.1802	0.0276396	17.0155
7.34054	11.194	0.0552792	17.0155
7.34058	11.2217	0.0276396	17.0155
7.35044	11.2493	0	17.0155
7.35061	11.2493	0	17.0155
7.35067	11.2631	0.0276396	17.0155
7.41472	11.2908	0	17.0155
7.41575	11.2908	0	17.0155
7.41592	11.2908	0.0276396	17.0155
7.41625	11.2908	0.0552792	17.0155
7.41636	11.2908	0.0829187	17.0155
7.41692	11.2908	0.110558	17.0155
7.45697	11.2908	0.138198	17.0155
7.45697	11.2908	0.138198	17.0155
7.45701	11.3184	0.110558	17.0155
7.45701	11.346	0.0829187	17.0155
7.45701	11.3737	0.0552792	17.0155
7.45706	11.3737	0.0552792	17.0155
7.45707	11.4013	0.0276396	17.0155
7.4571	11.429	0	17.0155
7.45712	11.4428	0.0276396	17.0155
7.51756	11.4704	0	17.0155
7.53835	11.4704	0	17.1065
7.53883	11.4704	0	17.1065
7.53953	11.4704	0.0276396	17.1065
7.53968	11.4704	0.0552792	17.1065
7.54064	11.4704	0.0829187	17.1065
7.54119	11.4704	0.110558	17.1065
7.54119	11.4704	0.165837	17.1065
7.5412	11.4981	0.138198	17.1065
7.54121	11.5257	0.110558	17.1065
7.54124	11.5533	0.0829187	17.1065
7.54126	11.581	0.0552792	17.1065
7.54131	11.6086	0.0276396	17.1065
7.56344	11.6363	0	17.1065
7.56776	11.6363	0	17.1975
7.56956	11.6363	0	17.1975
7.56956	11.6501	0.0276396	17.1975
7.58568	11.6777	0	17.1975
7.58621	11.6777	0	17.1975
7.58623	11.6777	0.0552792	17.1975
7.58629	11.7054	0.0276396	17.1975
7.6251	11.733	0	17.1975
7.63767	11.733	0	17.3794
7.63775	11.733	0	17.3794
7.6382	11.733	0.0276396	17.3794
7.63823	11.7468	0.0552792	17.3794
7.63841	11.7745	0.0276396	17.3794
7.65028	11.8021	0	17.3794
7.68603	11.8021	0	17.5614
7.74018	11.8021	0	17.6524
7.74025	11.8021	0	17.6524
7.74025	11.8021	0.0552792	17.6524
7.74029	11.8297	0.0276396	17.6524
7.78663	11.8574	0	17.6524
7.79284	11.8574	0	17.8344
7.85828	11.8574	0	17.9254
7.85972	11.8574	0	17.9254
7.85977	11.8574	0.0552792	17.9254
7.85982	11.885	0.0276396	17.9254
7.87956	11.9127	0	17.9254
7.87972	11.9127	0	17.9254
7.88002	11.9127	0.0276396	17.9254
7.88012	11.9265	0.0552792	17.9254
7.88014	11.9541	0.0276396	17.9254
7.90653	11.9818	0	17.9254
7.90728	11.9818	0	17.9254
7.9073	11.9818	0.0552792	17.9254
7.9073	12.0094	0.0276396	17.9254
7.97408	12.037	0	17.9254
7.97609	12.037	0	18.1074
8.0105	12.037	0	18.2894
8.05166	12.037	0	18.2894
8.0519	12.037	0	18.2894
8.05191	12.0509	0.0276396	18.2894
8.05192	12.0785	0	18.2894
8.05431	12.0785	0	18.2894
8.06291	12.0785	0	18.3803
8.06299	12.0785	0	18.3803
8.06301	12.0923	0.0276396	18.3803
8.15898	12.12	0	18.3803
8.2611	12.12	0	18.4713
8.26417	12.12	0	18.6533
8.28787	12.12	0	18.8353
8.28897	12.12	0	18.8353
8.289	12.1338	0.0276396	18.8353
8.29405	12.1614	0	18.8353
8.29415	12.1614	0	18.8353
8.29432	12.1614	0.0276396	18.8353
8.29457	12.1614	0.0552792	18.8353
8.29458	12.1752	0.0829187	18.8353
8.29465	12.2029	0.0552792	18.8353
8.2947	12.2305	0.0276396	18.8353
8.30545	12.2582	0	18.8353
8.30598	12.2582	0	18.8353
8.30601	12.2582	0.0552792	18.8353
8.30605	12.2858	0.0276396	18.8353
8.37135	12.3134	0	18.8353
8.37148	12.3134	0	18.8353
8.37159	12.3134	0.0552792	18.8353
8.37159	12.3411	0.0276396	18.8353
8.37166	12.3411	0.0276396	18.8353
8.39219	12.3687	0	18.8353
8.39282	12.3687	0	18.8353
8.39284	12.3687	0.0276396	18.8353
8.4296	12.3687	0.0552792	18.8353
8.42962	12.3687	0.0552792	18.9263
8.42963	12.3964	0.0276396	18.9263
8.45911	12.424	0	18.9263
8.47319	12.424	0	19.0173
8.47346	12.424	0	19.0173
8.47347	12.4378	0.0276396	19.0173
8.4949	12.4655	0	19.0173
8.49547	12.4655	0	19.0173
8.4955	12.4655	0.0552792	19.0173
8.49555	12.4931	0.0276396	19.0173
8.5574	12.5207	0	19.0173
8.56588	12.5207	0	19.1993
8.56599	12.5207	0	19.1993
8.56614	12.5207	0.0276396	19.1993
8.56616	12.5345	0.0552792	19.1993
8.56618	12.5622	0.0276396	19.1993
8.57208	12.5898	0	19.1993
8.59911	12.5898	0	19.2903
8.60016	12.5898	0	19.2903
8.60017	12.5898	0.0552792	19.2903
8.6002	12.6175	0.0276396	19.2903
8.62571	12.6451	0	19.2903
8.62586	12.6451	0	19.2903
8.62612	12.6451	0.0276396	19.2903
8.6278	12.6451	0.0552792	19.2903
8.62824	12.6451	0.0829187	19.2903
8.62865	12.6451	0.110558	19.2903
8.62879	12.6451	0.138198	19.2903
8.62939	12.6451	0.165837	19.2903
8.62978	12.6451	0.193477	19.2903
8.62979	12.6589	0.221117	19.2903
8.62979	12.6866	0.193477	19.2903
8.62979	12.7142	0.165837	19.2903
8.62982	12.7418	0.138198	19.2903
8.62983	12.7695	0.110558	19.2903
8.62983	12.7971	0.0829187	19.2903
8.62986	12.8248	0.0552792	19.2903
8.62987	12.8524	0.0276396	19.2903
8.64332	12.88	0	19.2903
8.64371	12.88	0	19.2903
8.64429	12.88	0.0276396	19.2903
8.64433	12.8939	0.0552792	19.2903
8.64433	12.9215	0.0276396	19.2903
8.6857	12.9491	0	19.2903
8.6974	12.9491	0	19.3813
8.69772	12.9491	0	19.3813
8.69774	12.963	0.0276396	19.3813
8.74575	12.9906	0	19.3813
8.74612	12.9906	0	19.3813
8.74642	12.9906	0.0276396	19.3813
8.74643	12.9906	0.0829187	19.3813
8.74644	12.9906	0.0829187	19.3813
8.74644	13.0182	0.0552792	19.3813
8.74648	13.0459	0.0276396	19.3813
8.76961	13.0735	0	19.3813
8.79086	13.0735	0	19.4722
8.79104	13.0735	0	19.4722
8.79111	13.0873	0.0276396	19.4722
8.82136	13.115	0	19.4722
8.82162	13.115	0	19.4722
8.82234	13.115	0.0276396	19.4722
8.82296	13.115	0.0552792	19.4722
8.82296	13.1288	0.0829187	19.4722
8.823	13.1564	0.0552792	19.4722
8.82308	13.1841	0.0276396	19.4722
8.83869	13.2117	0	19.4722
8.83935	13.2117	0	19.4722
8.84015	13.2117	0.0276396	19.4722
8.84097	13.2117	0.0552792	19.4722
8.84103	13.2117	0.0829187	19.4722
8.84143	13.2117	0.110558	19.4722
8.84203	13.2117	0.138198	19.4722
8.84203	13.2255	0.165837	19.4722
8.84203	13.2532	0.138198	19.4722
8.84204	13.2808	0.110558	19.4722
8.84205	13.3085	0.0829187	19.4722
8.84209	13.3361	0.0552792	19.4722
8.84212	13.3637	0.0276396	19.4722
8.85484	13.3914	0	19.4722
8.85524	13.3914	0	19.4722
8.85542	13.4052	0.0276396	19.4722
8.92487	13.4328	0	19.4722
8.92505	13.4328	0	19.4722
8.92519	13.4328	0.0276396	19.4722
8.92519	13.4467	0.0552792	19.4722
8.92521	13.4743	0.0276396	19.4722
8.94956	13.5019	0	19.4722
8.9497	13.5019	0	19.6542
8.95062	13.5019	0	19.6542
8.95063	13.5158	0.0276396	19.6542
8.96214	13.5434	0	19.6542
8.99286	13.5434	0	19.7452
8.99937	13.5434	0	19.9272
9.05	13.5434	0	20.0182
9.05003	13.5434	0	20.0182
9.05013	13.5572	0.0276396	20.0182
9.06094	13.5849	0	20.0182
9.06191	13.5849	0	20.0182
9.06296	13.5849	0.0276396	20.0182
9.06297	13.5987	0.0552792	20.0182
9.06297	13.6263	0.0276396	20.0182
9.16375	13.654	0	20.0182
9.16741	13.654	0	20.1092
9.16774	13.654	0	20.1092
9.16793	13.654	0.0276396	20.1092
9.16794	13.6678	0.0552792	20.1092
9.16799	13.6954	0.0276396	20.1092
9.18979	13.7231	0	20.1092
9.19011	13.7231	0	20.1092
9.19014	13.7231	0.0276396	20.1092
9.1902	13.7231	0.0829187	20.1092
9.1902	13.7507	0.0552792	20.1092
9.19021	13.7783	0.0276396	20.1092
9.24133	13.806	0	20.1092
9.24165	13.806	0	20.1092
9.24261	13.806	0.0276396	20.1092
9.24262	13.8198	0.0552792	20.1092
9.24266	13.8474	0.0276396	20.1092
9.24268	13.8751	0	20.1092
9.24945	13.8751	0	20.1092
9.24979	13.8751	0	20.1092
9.2498	13.8751	0.0552792	20.1092
9.24992	13.9027	0.0276396	20.1092
9.26082	13.9303	0	20.1092
9.26091	13.9303	0	20.1092
9.26249	13.9303	0.0276396	20.1092
9.26253	13.9442	0.0552792	20.1092
9.26256	13.9718	0.0276396	20.1092
9.27234	13.9994	0	20.1092
9.2725	13.9994	0	20.1092
9.2725	14.0133	0.0276396	20.1092
9.43298	14.0409	0	20.1092
9.45812	14.0409	0	20.2002
9.45824	14.0409	0	20.2002
9.45831	14.0547	0.0276396	20.2002
9.52586	14.0824	0	20.2002
9.52597	14.0824	0	20.2002
9.52597	14.0824	0.0552792	20.2002
9.52602	14.11	0.0276396	20.2002
9.64455	14.1376	0	20.2002
9.64546	14.1376	0	20.2002
9.64598	14.1376	0.0276396	20.2002
9.646	14.1515	0.0552792	20.2002
9.64605	14.1791	0.0276396	20.2002
9.6728	14.2067	0	20.2002
9.67327	14.2067	0	20.2002
9.71837	14.2067	0.0276396	20.2002
9.71839	14.2067	0.0276396	20.2002
9.71876	14.2344	0	20.2002
9.71879	14.2482	0.0276396	20.2002
9.7777	14.2758	0	20.2002
9.77965	14.2758	0	20.2912
9.78072	14.2758	0	20.2912
9.78137	14.2758	0.0276396	20.2912
9.78138	14.2897	0.0552792	20.2912
9.78146	14.3173	0.0276396	20.2912
9.78508	14.3449	0	20.2912
9.80918	14.3449	0	20.4732
9.86231	14.3449	0	20.6551
9.86237	14.3449	0	20.6551
9.8624	14.3449	0.0552792	20.6551
9.86247	14.3726	0.0276396	20.6551
9.86619	14.4002	0	20.6551
9.86675	14.4002	0	20.6551
9.8673	14.4002	0.0276396	20.6551
9.86731	14.414	0.0552792	20.6551
9.86738	14.4417	0.0276396	20.6551
9.87501	14.4693	0	20.6551
9.877	14.4693	0	20.7461
9.87771	14.4693	0	20.7461
9.87773	14.4831	0.0276396	20.7461
9.88627	14.5108	0	20.7461
9.88686	14.5108	0	20.7461
9.88743	14.5108	0.0276396	20.7461
9.88746	14.5246	0.0552792	20.7461
9.88752	14.5522	0.0276396	20.7461
9.91895	14.5799	0	20.7461
9.91958	14.5799	0	20.7461
9.91971	14.5799	0.0276396	20.7461
9.91973	14.5937	0.0552792	20.7461
9.9198	14.6213	0.0276396	20.7461
9.94793	14.649	0	20.7461
9.94869	14.649	0	20.7461
9.94873	14.649	0.0276396	20.7461
9.95388	14.6766	0	20.7461
9.98432	14.6766	0	20.9281
10.061	14.6766	0	21.1101
10.0612	14.6766	0	21.1101
10.0613	14.6904	0.0276396	21.1101
10.1023	14.7181	0	21.1101
10.1027	14.7181	0	21.1101
10.1028	14.7319	0.0276396	21.1101
10.1542	14.7595	0	21.1101
10.1564	14.7595	0	21.2011
10.1575	14.7595	0	21.2011
10.1576	14.7734	0.0276396	21.2011
10.2068	14.801	0	21.2011
10.2453	14.801	0	21.3831
10.2455	14.801	0	21.3831
10.2456	14.801	0.0276396	21.3831
10.2456	14.8148	0.0552792	21.3831
10.2456	14.8425	0.0276396	21.3831
10.2968	14.8701	0	21.3831
10.3332	14.8701	0	21.4741
10.4009	14.8701	0	21.5651
10.4011	14.8701	0	21.5651
10.4011	14.8839	0.0276396	21.5651
10.4742	14.9116	0	21.5651
10.4929	14.9116	0	21.747
10.4932	14.9116	0	21.747
10.4942	14.9116	0.0276396	21.747
10.4943	14.9254	0.0552792	21.747
10.4943	14.953	0.0276396	21.747
10.4962	14.9807	0	21.747
10.4966	14.9807	0	21.747
10.4973	14.9807	0.0276396	21.747
10.4973	14.9945	0.0552792	21.747
10.4973	15.0221	0.0276396	21.747
10.5446	15.0498	0	21.747
10.5511	15.0498	0	21.838
10.5512	15.0498	0	21.838
10.5512	15.0636	0.0276396	21.838
10.6345	15.0912	0	21.838
10.6632	15.0912	0	22.02
10.6634	15.0912	0	22.02
10.6634	15.0912	0.0552792	22.02
10.6634	15.1189	0.0276396	22.02
10.699	15.1465	0	22.02
10.7001	15.1465	0	22.02
10.7007	15.1465	0.0276396	22.02
10.7007	15.1603	0.0552792	22.02
10.7008	15.1879	0.0276396	22.02
10.7388	15.2156	0	22.02
10.7715	15.2156	0	22.202
10.7715	15.2156	0	22.202
10.7716	15.2294	0.0276396	22.202
10.7874	15.257	0	22.202
10.8731	15.257	0	22.293
10.8746	15.257	0	22.293
10.8746	15.2709	0.0276396	22.293
10.9415	15.2985	0	22.293
10.943	15.2985	0	22.293
10.943	15.3123	0.0276396	22.293
10.9897	15.34	0	22.293
10.9897	15.34	0	22.293
10.9902	15.34	0.0276396	22.293
10.9902	15.3538	0.0552792	22.293
10.9903	15.3814	0.0276396	22.293
10.9991	15.4091	0	22.293
11.0002	15.4091	0	22.293
11.0003	15.4229	0.0276396	22.293
11.0048	15.4505	0	22.293
11.0054	15.4505	0	22.293
11.0054	15.4505	0.0552792	22.293
11.0056	15.4782	0.0276396	22.293
11.0224	15.5058	0	22.293
11.0231	15.5058	0	22.293
11.0231	15.5058	0.0552792	22.293
11.0232	15.5334	0.0276396	22.293
11.1371	15.5611	0	22.293
11.138	15.5611	0	22.293
11.1381	15.5749	0.0276396	22.293
11.1939	15.6025	0	22.293
11.1945	15.6025	0	22.293
11.1945	15.6164	0.0276396	22.293
11.2382	15.644	0	22.293
11.2401	15.644	0	22.293
11.2406	15.644	0.0276396	22.293
11.2407	15.6578	0.0552792	22.293
11.2407	15.6855	0.0276396	22.293
11.2678	15.7131	0	22.293
11.2679	15.7131	0	22.293
11.2679	15.7269	0.0276396	22.293
11.2717	15.7546	0	22.293
11.2719	15.7546	0	22.293
11.272	15.7684	0.0276396	22.293
11.2822	15.796	0	22.293
11.3397	15.796	0	22.384
11.3398	15.796	0	22.384
11.3399	15.8098	0.0276396	22.384
11.364	15.8375	0	22.384
11.3642	15.8375	0	22.384
11.3642	15.8513	0.0276396	22.384
11.4824	15.8789	0	22.384
11.5109	15.8789	0	22.566
11.5111	15.8789	0	22.566
11.5111	15.8789	0.0552792	22.566
11.5113	15.9066	0.0276396	22.566
11.5734	15.9342	0	22.566
11.5739	15.9342	0	22.566
11.5741	15.948	0.0276396	22.566
11.6128	15.9757	0	22.566
11.6129	15.9757	0	22.566
11.613	15.9757	0.0276396	22.566
11.613	15.9757	0.0552792	22.566
11.613	16.0033	0.0276396	22.566
11.6983	16.031	0	22.566
11.6988	16.031	0	22.566
11.6988	16.0448	0.0276396	22.566
11.9251	16.0724	0	22.566
11.9252	16.0724	0	22.566
11.9252	16.0862	0.0276396	22.566
11.9751	16.1139	0	22.566
12.0599	16.1139	0	22.657
12.063	16.1139	0	22.657
12.0637	16.1139	0.0276396	22.657
12.0637	16.1277	0.0552792	22.657
12.0638	16.1553	0.0276396	22.657
12.1067	16.183	0	22.657
12.1068	16.183	0	22.657
12.1071	16.183	0.0276396	22.657
12.1075	16.183	0.0552792	22.657
12.1075	16.1968	0.0829187	22.657
12.1075	16.2244	0.0552792	22.657
12.1075	16.2521	0.0276396	22.657
12.1147	16.2797	0	22.657
12.115	16.2797	0	22.657
12.115	16.2797	0.0276396	22.657
12.1527	16.3074	0	22.657
12.1528	16.3074	0	22.657
12.1528	16.3074	0.0552792	22.657
12.1528	16.335	0.0276396	22.657
12.2468	16.3626	0	22.657
12.2472	16.3626	0	22.657
12.2474	16.3765	0.0276396	22.657
12.2498	16.4041	0	22.657
12.2505	16.4041	0	22.657
12.2505	16.4179	0.0276396	22.657
12.4134	16.4456	0	22.657
12.4135	16.4456	0	22.657
12.5143	16.4456	0.0276396	22.657
12.5144	16.4456	0.0276396	22.657
12.5148	16.4732	0	22.657
12.5148	16.487	0.0276396	22.657
12.5555	16.5146	0	22.657
12.5555	16.5146	0	22.748
12.5702	16.5146	0	22.748
12.5702	16.5146	0	22.748
12.5705	16.5146	0.0276396	22.748
12.5705	16.5285	0.0552792	22.748
12.5705	16.5561	0.0276396	22.748
12.605	16.5837	0	22.748
12.6459	16.5837	0	22.9299
12.646	16.5837	0	22.9299
12.6469	16.5837	0.0276396	22.9299
12.6469	16.5976	0.0552792	22.9299
12.6469	16.6252	0.0276396	22.9299
12.7065	16.6528	0	22.9299
12.7069	16.6528	0	22.9299
12.7069	16.6528	0.0552792	22.9299
12.7069	16.6805	0.0276396	22.9299
12.7478	16.7081	0	22.9299
12.7479	16.7081	0	22.9299
12.7485	16.7081	0.0276396	22.9299
12.7485	16.7219	0.0552792	22.9299
12.7485	16.7496	0.0276396	22.9299
12.7485	16.7496	0.0276396	22.9299
12.7485	16.7772	0	22.9299
12.7644	16.7772	0	22.9299
12.7646	16.7772	0	22.9299
12.7647	16.791	0.0276396	22.9299
12.9005	16.8187	0	22.9299
12.9006	16.8187	0	22.9299
12.9006	16.8325	0.0276396	22.9299
12.9145	16.8601	0	22.9299
12.9147	16.8601	0	22.9299
12.9147	16.8601	0.0552792	22.9299
12.9148	16.8878	0.0276396	22.9299
12.943	16.9154	0	22.9299
12.9595	16.9154	0	23.1119
12.9885	16.9154	0	23.2939
12.989	16.9154	0	23.2939
12.9891	16.9154	0.0552792	23.2939
12.9891	16.9431	0.0276396	23.2939
13.0444	16.9707	0	23.2939
13.1429	16.9707	0	23.4759
13.143	16.9707	0	23.4759
13.143	16.9707	0.0552792	23.4759
13.143	16.9983	0.0276396	23.4759
13.2298	17.026	0	23.4759
13.2303	17.026	0	23.4759
13.2304	17.0398	0.0276396	23.4759
13.3	17.0674	0	23.4759
13.3001	17.0674	0	23.4759
13.3018	17.0674	0.0276396	23.4759
13.3024	17.0674	0.0552792	23.4759
13.3024	17.0674	0.0829187	23.4759
13.3024	17.0674	0.110558	23.4759
13.3024	17.0951	0.0829187	23.4759
13.3025	17.1227	0.0552792	23.4759
13.3025	17.1504	0.0276396	23.4759
13.3876	17.178	0	23.4759
13.3885	17.178	0	23.4759
13.4809	17.178	0.0276396	23.4759
13.4809	17.178	0.0276396	23.6579
13.481	17.178	0.0276396	23.6579
13.5189	17.2056	0	23.6579
13.5412	17.2056	0	23.7489
13.6801	17.2056	0	23.9308
13.6801	17.2056	0	23.9308
13.6811	17.2056	0.0276396	23.9308
13.683	17.2056	0.0552792	23.9308
13.6831	17.2195	0.0829187	23.9308
13.6831	17.2471	0.0552792	23.9308
13.6831	17.2747	0.0276396	23.9308
13.874	17.3024	0	23.9308
13.9167	17.3024	0	24.1128
13.9182	17.3024	0	24.1128
13.9183	17.3024	0.0552792	24.1128
13.9183	17.33	0.0276396	24.1128
13.9627	17.3577	0	24.1128
13.9628	17.3577	0	24.1128
13.9632	17.3577	0.0276396	24.1128
13.9632	17.3715	0.0552792	24.1128
13.9633	17.3991	0.0276396	24.1128
14.163	17.4268	0	24.1128
14.1643	17.4268	0	24.1128
14.1643	17.4406	0.0276396	24.1128
14.3092	17.4682	0	24.1128
14.3093	17.4682	0	24.1128
14.3095	17.482	0.0276396	24.1128
14.3628	17.5097	0	24.1128
14.3633	17.5097	0	24.1128
14.3635	17.5097	0.0276396	24.1128
14.3636	17.5235	0.0552792	24.1128
14.3636	17.5511	0.0276396	24.1128
14.5027	17.5788	0	24.1128
14.6223	17.5788	0	24.2948
14.6227	17.5788	0	24.2948
14.6231	17.5788	0.0276396	24.2948
14.6238	17.5788	0.0552792	24.2948
14.6238	17.5926	0.0829187	24.2948
14.6238	17.6202	0.0552792	24.2948
14.6238	17.6479	0.0276396	24.2948
14.6867	17.6755	0	24.2948
14.6867	17.6755	0	24.3858
14.7699	17.6755	0	24.3858
14.77	17.6755	0	24.3858
14.77	17.6755	0.0552792	24.3858
14.77	17.7032	0.0276396	24.3858
14.7823	17.7308	0	24.3858
14.7825	17.7308	0	24.3858
14.7825	17.7446	0.0276396	24.3858
14.7866	17.7722	0	24.3858
14.7874	17.7722	0	24.3858
14.7875	17.7861	0.0276396	24.3858
14.8139	17.8137	0	24.3858
14.814	17.8137	0	24.3858
14.814	17.8137	0.0552792	24.3858
14.814	17.8413	0.0276396	24.3858
14.8877	17.869	0	24.3858
14.936	17.869	0	24.5678
14.9916	17.869	0	24.6588
15.0344	17.869	0	24.7498
15.0892	17.869	0	24.9318
15.0896	17.869	0	24.9318
15.0897	17.8828	0.0276396	24.9318
15.0897	17.9104	0	24.9318
15.1649	17.9104	0	24.9318
15.1655	17.9104	0	24.9318
15.1655	17.9104	0.0552792	24.9318
15.1655	17.9381	0.0276396	24.9318
15.1885	17.9657	0	24.9318
15.1886	17.9657	0	24.9318
15.1887	17.9795	0.0276396	24.9318
15.2915	18.0072	0	24.9318
15.2928	18.0072	0	25.1137
15.3335	18.0072	0	25.2047
15.3347	18.0072	0	25.2047
15.3349	18.021	0.0276396	25.2047
15.3436	18.0486	0	25.2047
15.4206	18.0486	0	25.3867
15.421	18.0486	0	25.3867
15.421	18.0486	0.0552792	25.3867
15.421	18.0763	0.0276396	25.3867
15.4729	18.1039	0	25.3867
15.4733	18.1039	0	25.3867
15.4734	18.1039	0.0552792	25.3867
15.4735	18.1316	0.0276396	25.3867
15.4932	18.1592	0	25.3867
15.5635	18.1592	0	25.5687
15.5867	18.1592	0	25.7507
15.587	18.1592	0	25.7507
15.587	18.1592	0.0552792	25.7507
15.587	18.1868	0.0276396	25.7507
15.6684	18.2145	0	25.7507
15.6685	18.2145	0	25.7507
15.6685	18.2145	0.0552792	25.7507
15.6686	18.2421	0.0276396	25.7507
15.7122	18.2698	0	25.7507
15.7123	18.2698	0	25.7507
15.7124	18.2836	0.0276396	25.7507
15.7435	18.3112	0	25.7507
15.7435	18.3112	0	25.7507
15.7442	18.3112	0.0276396	25.7507
15.7445	18.3112	0.0276396	25.7507
15.7445	18.3112	0.0552792	25.7507
15.7446	18.3112	0.0829187	25.7507
15.7446	18.325	0.110558	25.7507
15.7447	18.3527	0.0829187	25.7507
15.7447	18.3803	0.0552792	25.7507
15.7448	18.408	0.0276396	25.7507
15.7456	18.4356	0	25.7507
15.7456	18.4494	0.0276396	25.7507
15.7819	18.4771	0	25.7507
15.8073	18.4771	0	25.9327
15.8079	18.4771	0	25.9327
15.8079	18.4771	0.0552792	25.9327
15.8079	18.5047	0.0276396	25.9327
15.8253	18.5323	0	25.9327
15.8256	18.5323	0	25.9327
15.8256	18.5462	0.0276396	25.9327
15.8296	18.5738	0	25.9327
15.83	18.5738	0	25.9327
15.83	18.5876	0.0276396	25.9327
15.8496	18.6153	0	25.9327
15.8496	18.6153	0	25.9327
15.8496	18.6291	0.0276396	25.9327
15.8579	18.6567	0	25.9327
15.8591	18.6567	0	25.9327
15.8591	18.6567	0.0552792	25.9327
15.8592	18.6844	0.0276396	25.9327
15.9091	18.712	0	25.9327
15.9091	18.712	0	25.9327
15.9093	18.712	0.0276396	25.9327
15.9093	18.7258	0.0552792	25.9327
15.9094	18.7535	0.0276396	25.9327
15.9312	18.7811	0	25.9327
15.9319	18.7811	0	25.9327
15.9319	18.7949	0.0276396	25.9327
15.9604	18.8226	0	25.9327
15.9607	18.8226	0	25.9327
15.961	18.8226	0.0276396	25.9327
15.961	18.8364	0.0552792	25.9327
15.9613	18.864	0.0276396	25.9327
16.0393	18.8917	0	25.9327
16.0393	18.8917	0	25.9327
16.0394	18.8917	0.0552792	25.9327
16.0394	18.9193	0.0276396	25.9327
16.2369	18.9469	0	25.9327
16.2374	18.9469	0	25.9327
16.2374	18.9469	0.0552792	25.9327
16.2375	18.9746	0.0276396	25.9327
16.2477	19.0022	0	25.9327
16.2486	19.0022	0	25.9327
16.2486	19.016	0.0276396	25.9327
16.2954	19.0437	0	25.9327
16.2954	19.0437	0	25.9327
16.2959	19.0437	0.0276396	25.9327
16.2965	19.0437	0.0552792	25.9327
16.2969	19.0437	0.0829187	25.9327
16.2969	19.0437	0.138198	25.9327
16.297	19.0713	0.110558	25.9327
16.297	19.0989	0.0829187	25.9327
16.297	19.1266	0.0552792	25.9327
16.2971	19.1542	0.0276396	25.9327
16.6741	19.1819	0	25.9327
16.6745	19.1819	0	25.9327
16.6746	19.1957	0.0276396	25.9327
16.6961	19.2233	0	25.9327
16.6969	19.2233	0	25.9327
16.697	19.2371	0.0276396	25.9327
16.8043	19.2648	0	25.9327
16.8049	19.2648	0	25.9327
16.8049	19.2786	0.0276396	25.9327
16.8472	19.3062	0	25.9327
16.8478	19.3062	0	25.9327
16.848	19.3062	0.0276396	25.9327
16.8482	19.3062	0.0552792	25.9327
16.923	19.3062	0.0829187	25.9327
16.923	19.3062	0.0829187	26.0237
16.923	19.3062	0.0829187	26.0237
16.923	19.3339	0.0552792	26.0237
16.9231	19.3615	0.0276396	26.0237
16.9697	19.3892	0	26.0237
17.0804	19.3892	0	26.2056
17.0806	19.3892	0	26.2056
17.0806	19.3892	0.0552792	26.2056
17.0807	19.4168	0.0276396	26.2056
17.0869	19.4444	0	26.2056
17.1766	19.4444	0	26.3876
17.1777	19.4444	0	26.3876
17.1777	19.4583	0.0276396	26.3876
17.1962	19.4859	0	26.3876
17.1965	19.4859	0	26.3876
17.1972	19.4859	0.0276396	26.3876
17.3214	19.4859	0.0552792	26.3876
17.3214	19.4859	0.0552792	26.3876
17.3217	19.5135	0.0276396	26.3876
17.3217	19.5412	0	26.3876
17.3218	19.555	0.0276396	26.3876
17.3715	19.5826	0	26.3876
17.372	19.5826	0	26.3876
17.372	19.5826	0.0552792	26.3876
17.3721	19.6103	0.0276396	26.3876
17.3962	19.6379	0	26.3876
17.3964	19.6379	0	26.3876
17.3965	19.6379	0.0552792	26.3876
17.3966	19.6656	0.0276396	26.3876
17.4496	19.6932	0	26.3876
17.4504	19.6932	0	26.3876
17.4505	19.707	0.0276396	26.3876
17.4975	19.7347	0	26.3876
17.4978	19.7347	0	26.3876
17.4978	19.7485	0.0276396	26.3876
17.5785	19.7761	0	26.3876
17.5786	19.7761	0	26.3876
17.5786	19.7761	0.0552792	26.3876
17.5786	19.8038	0.0276396	26.3876
17.6001	19.8314	0	26.3876
17.655	19.8314	0	26.5696
17.8153	19.8314	0	26.7516
17.8156	19.8314	0	26.7516
17.8157	19.8452	0.0276396	26.7516
17.8556	19.8729	0	26.7516
17.8564	19.8729	0	26.7516
17.858	19.8729	0.0276396	26.7516
17.858	19.8867	0.0552792	26.7516
17.8581	19.9143	0.0276396	26.7516
17.9698	19.942	0	26.7516
17.9702	19.942	0	26.7516
17.9702	19.9558	0.0276396	26.7516
18.0756	19.9834	0	26.7516
18.0767	19.9834	0	26.7516
18.1031	19.9834	0.0276396	26.7516
18.1031	19.9834	0.0276396	26.7516
18.1031	20.0111	0	26.7516
18.1031	20.0249	0.0276396	26.7516
18.1271	20.0525	0	26.7516
18.1277	20.0525	0	26.7516
18.1277	20.0663	0.0276396	26.7516
18.2875	20.094	0	26.7516
18.2879	20.094	0	26.7516
18.2879	20.094	0.0276396	26.7516
18.2879	20.1078	0.0552792	26.7516
18.2879	20.1354	0.0276396	26.7516
18.458	20.1631	0	26.7516
18.5703	20.1631	0	26.9336
18.8294	20.1631	0	27.1156
18.83	20.1631	0	27.1156
18.8301	20.1631	0.0276396	27.1156
18.8301	20.1769	0.0552792	27.1156
18.8301	20.2045	0.0276396	27.1156
19.0909	20.2322	0	27.1156
19.0909	20.2322	0	27.1156
19.0909	20.246	0.0276396	27.1156
19.157	20.2736	0	27.1156
19.1571	20.2736	0	27.1156
19.1572	20.2736	0.0552792	27.1156
19.1572	20.3013	0.0276396	27.1156
19.2068	20.3289	0	27.1156
19.2084	20.3289	0	27.1156
19.2085	20.3427	0.0276396	27.1156
19.2332	20.3704	0	27.1156
19.2333	20.3704	0	27.1156
19.2333	20.3704	0.0552792	27.1156
19.2335	20.398	0.0276396	27.1156
19.2682	20.4256	0	27.1156
19.2694	20.4256	0	27.1156
19.2703	20.4256	0.0276396	27.1156
19.2762	20.4256	0.0552792	27.1156
19.2765	20.4256	0.0552792	27.1156
19.2765	20.4395	0.0829187	27.1156
19.6566	20.4671	0.0552792	27.1156
19.6567	20.4671	0.0552792	27.2975
19.6567	20.4947	0.0276396	27.2975
19.6686	20.5224	0	27.2975
19.6686	20.5224	0	27.2975
19.6688	20.5224	0.0276396	27.2975
19.6688	20.5362	0.0552792	27.2975
19.6688	20.5638	0.0276396	27.2975
19.6769	20.5915	0	27.2975
19.6772	20.5915	0	27.2975
19.6772	20.5915	0.0552792	27.2975
19.6772	20.6191	0.0276396	27.2975
19.7179	20.6468	0	27.2975
19.7182	20.6468	0	27.2975
19.7183	20.6468	0.0276396	27.2975
19.7198	20.6468	0.0552792	27.2975
19.7198	20.6606	0.0829187	27.2975
19.7198	20.6882	0.0552792	27.2975
19.7198	20.7159	0.0276396	27.2975
19.795	20.7435	0	27.2975
19.7955	20.7435	0	27.2975
19.7955	20.7573	0.0276396	27.2975
19.9832	20.785	0	27.2975
20.0174	20.785	0	27.4795
20.0175	20.785	0	27.4795
20.0175	20.785	0.0552792	27.4795
20.0176	20.8126	0.0276396	27.4795
20.1164	20.8402	0	27.4795
20.1166	20.8402	0	27.4795
20.1169	20.8402	0.0276396	27.4795
20.117	20.8541	0.0552792	27.4795
20.117	20.8817	0.0276396	27.4795
20.1582	20.9093	0	27.4795
20.2235	20.9093	0	27.6615
20.2238	20.9093	0	27.6615
20.2238	20.9232	0.0276396	27.6615
20.2734	20.9508	0	27.6615
20.2872	20.9508	0	27.8435
20.288	20.9508	0	27.8435
20.288	20.9508	0.0276396	27.8435
20.2881	20.9646	0.0552792	27.8435
20.2881	20.9923	0.0276396	27.8435
20.3355	21.0199	0	27.8435
20.3356	21.0199	0	27.8435
20.3356	21.0337	0.0276396	27.8435
20.4606	21.0614	0	27.8435
20.4609	21.0614	0	27.8435
20.4609	21.0752	0.0276396	27.8435
20.4945	21.1028	0	27.8435
20.4957	21.1028	0	27.8435
20.4958	21.1028	0.0552792	27.8435
20.4958	21.1305	0.0276396	27.8435
20.57	21.1581	0	27.8435
20.5706	21.1581	0	27.8435
20.5706	21.1581	0.0552792	27.8435
20.5707	21.1857	0.0276396	27.8435
20.6038	21.2134	0	27.8435
20.6307	21.2134	0	28.0255
20.6308	21.2134	0	28.0255
20.6308	21.2272	0.0276396	28.0255
20.8721	21.2548	0	28.0255
20.8728	21.2548	0	28.0255
20.8729	21.2548	0.0276396	28.0255
20.8734	21.2548	0.0552792	28.0255
20.8742	21.2548	0.0829187	28.0255
20.8745	21.2548	0.110558	28.0255
20.8745	21.2687	0.138198	28.0255
20.8745	21.2963	0.110558	28.0255
20.8745	21.3239	0.0829187	28.0255
20.8745	21.3516	0.0552792	28.0255
20.8745	21.3792	0.0276396	28.0255
20.8966	21.4069	0	28.0255
20.8966	21.4069	0	28.0255
20.8967	21.4207	0.0276396	28.0255
20.9256	21.4483	0	28.0255
20.9426	21.4483	0	28.2075
20.9428	21.4483	0	28.2075
20.9429	21.4621	0.0276396	28.2075
21.0015	21.4898	0	28.2075
21.0426	21.4898	0	28.3894
21.0427	21.4898	0	28.3894
21.1314	21.4898	0.0276396	28.3894
21.1315	21.4898	0.0276396	28.3894
21.1317	21.5174	0	28.3894
21.1317	21.5174	0.0552792	28.3894
21.1317	21.5451	0.0276396	28.3894
21.1352	21.5727	0	28.3894
21.1374	21.5727	0	28.3894
21.1376	21.5865	0.0276396	28.3894
21.5107	21.6142	0	28.3894
21.5114	21.6142	0	28.4804
21.5125	21.6142	0	28.4804
21.5125	21.6142	0.0552792	28.4804
21.5126	21.6418	0.0276396	28.4804
21.5434	21.6694	0	28.4804
21.5437	21.6694	0	28.4804
21.5438	21.6833	0.0276396	28.4804
21.5676	21.7109	0	28.4804
21.5685	21.7109	0	28.4804
21.5685	21.7247	0.0276396	28.4804
21.619	21.7523	0	28.4804
21.6206	21.7523	0	28.4804
21.6206	21.7662	0.0276396	28.4804
21.7157	21.7938	0	28.4804
21.7157	21.7938	0	28.4804
21.7157	21.7938	0.0552792	28.4804
21.7157	21.8214	0.0276396	28.4804
21.721	21.8491	0	28.4804
21.721	21.8491	0	28.4804
21.721	21.8491	0.0276396	28.4804
21.7211	21.8629	0.0552792	28.4804
21.7211	21.8905	0.0276396	28.4804
21.7751	21.9182	0	28.4804
21.7752	21.9182	0	28.4804
21.7752	21.9182	0.0552792	28.4804
21.7752	21.9458	0.0276396	28.4804
21.7852	21.9735	0	28.4804
21.7859	21.9735	0	28.4804
21.7859	21.9735	0.0552792	28.4804
21.786	22.0011	0.0276396	28.4804
22.0987	22.0287	0	28.4804
22.0996	22.0287	0	28.4804
22.1201	22.0287	0.0276396	28.4804
22.1202	22.0287	0.0276396	28.4804
22.1205	22.0564	0	28.4804
22.1215	22.0564	0.0276396	28.4804
22.1216	22.0702	0.0552792	28.4804
22.1217	22.0978	0.0276396	28.4804
22.1985	22.1255	0	28.4804
22.1986	22.1255	0	28.4804
22.1986	22.1255	0.0552792	28.4804
22.1988	22.1531	0.0276396	28.4804
22.3495	22.1808	0	28.4804
22.3501	22.1808	0	28.4804
22.3501	22.1946	0.0276396	28.4804
22.715	22.2222	0	28.4804
22.7153	22.2222	0	28.4804
22.7161	22.2222	0.0276396	28.4804
22.7162	22.236	0.0552792	28.4804
22.7162	22.2637	0.0276396	28.4804
22.7248	22.2913	0	28.4804
22.7252	22.2913	0	28.4804
22.7253	22.2913	0.0552792	28.4804
22.7253	22.319	0.0276396	28.4804
22.7607	22.3466	0	28.4804
22.7611	22.3466	0	28.4804
22.7611	22.3604	0.0276396	28.4804
22.9916	22.3881	0	28.4804
22.9924	22.3881	0	28.4804
22.9924	22.4019	0.0276396	28.4804
23.0344	22.4295	0	28.4804
23.1568	22.4295	0	28.5714
23.1578	22.4295	0	28.5714
23.1579	22.4433	0.0276396	28.5714
23.33	22.471	0	28.5714
23.3303	22.471	0	28.5714
23.3303	22.471	0.0552792	28.5714
23.3304	22.4986	0.0276396	28.5714
23.5785	22.5263	0	28.5714
23.5793	22.5263	0	28.5714
23.5793	22.5263	0.0552792	28.5714
23.5794	22.5539	0.0276396	28.5714
23.8079	22.5815	0	28.5714
23.8084	22.5815	0	28.5714
23.8084	22.5954	0.0276396	28.5714
23.8211	22.623	0	28.5714
23.8223	22.623	0	28.5714
23.8224	22.623	0.0276396	28.5714
23.8224	22.6368	0.0552792	28.5714
23.8224	22.6645	0.0276396	28.5714
23.8902	22.6921	0	28.5714
23.8904	22.6921	0	28.5714
23.8904	22.7059	0.0276396	28.5714
23.9386	22.7336	0	28.5714
23.9387	22.7336	0	28.5714
23.9387	22.7336	0.0276396	28.5714
23.9387	22.7474	0.0552792	28.5714
23.9389	22.775	0.0276396	28.5714
24.3345	22.8027	0	28.5714
24.335	22.8027	0	28.5714
24.3351	22.8165	0.0276396	28.5714
24.3686	22.8441	0	28.5714
24.3689	22.8441	0	28.5714
24.3689	22.8441	0.0552792	28.5714
24.369	22.8718	0.0276396	28.5714
24.5259	22.8994	0	28.5714
24.5566	22.8994	0	28.7534
24.5568	22.8994	0	28.7534
24.5578	22.8994	0.0276396	28.7534
24.5579	22.9132	0.0552792	28.7534
24.5579	22.9409	0.0276396	28.7534
24.6934	22.9685	0	28.7534
24.6941	22.9685	0	28.7534
24.6942	22.9685	0.0552792	28.7534
24.6943	22.9961	0.0276396	28.7534
24.7171	23.0238	0	28.7534
24.7173	23.0238	0	28.7534
24.7173	23.0238	0.0552792	28.7534
24.7173	23.0514	0.0276396	28.7534
24.7531	23.079	0	28.7534
24.7705	23.079	0	28.9354
24.771	23.079	0	28.9354
24.7711	23.079	0.0552792	28.9354
24.7713	23.1067	0.0276396	28.9354
24.8238	23.1343	0	28.9354
24.8239	23.1343	0	28.9354
24.824	23.1343	0.0552792	28.9354
24.8241	23.162	0.0276396	28.9354
24.8292	23.1896	0	28.9354
24.8295	23.1896	0	28.9354
24.831	23.1896	0.0276396	28.9354
24.831	23.2034	0.0552792	28.9354
24.831	23.2311	0.0276396	28.9354
25.2381	23.2587	0	28.9354
25.2382	23.2587	0	28.9354
25.2382	23.2587	0.0552792	28.9354
25.2382	23.2863	0.0276396	28.9354
25.2767	23.314	0	28.9354
25.2767	23.314	0	28.9354
25.2768	23.3278	0.0276396	28.9354
25.3085	23.3554	0	28.9354
25.3085	23.3554	0	28.9354
25.3086	23.3693	0.0276396	28.9354
25.4333	23.3969	0	28.9354
25.4337	23.3969	0	28.9354
25.4338	23.3969	0.0552792	28.9354
25.4338	23.4245	0.0276396	28.9354
25.5624	23.4522	0	28.9354
25.5634	23.4522	0	28.9354
25.5634	23.4522	0.0552792	28.9354
25.5634	23.4798	0.0276396	28.9354
25.6307	23.5075	0	28.9354
25.6309	23.5075	0	28.9354
25.6309	23.5213	0.0276396	28.9354
25.6998	23.5489	0	28.9354
25.7005	23.5489	0	28.9354
25.7005	23.5489	0.0552792	28.9354
25.7006	23.5766	0.0276396	28.9354
25.8753	23.6042	0	28.9354
25.9743	23.6042	0	29.1174
25.9744	23.6042	0	29.1174
25.9744	23.6042	0.0552792	29.1174
25.9745	23.6318	0.0276396	29.1174
26.2099	23.6595	0	29.1174
26.2102	23.6595	0	29.1174
26.2103	23.6733	0.0276396	29.1174
26.3547	23.7009	0	29.1174
26.3563	23.7009	0	29.1174
26.3564	23.7148	0.0276396	29.1174
26.4797	23.7424	0	29.1174
26.7952	23.7424	0	29.2994
26.7952	23.7424	0	29.2994
26.7952	23.7424	0.0552792	29.2994
26.7952	23.77	0.0276396	29.2994
27.282	23.7977	0	29.2994
27.2835	23.7977	0	29.2994
27.2837	23.8115	0.0276396	29.2994
27.6679	23.8391	0	29.2994
27.6689	23.8391	0	29.2994
27.6689	23.8391	0.0552792	29.2994
27.6689	23.8668	0.0276396	29.2994
27.8464	23.8944	0	29.2994
27.8471	23.8944	0	29.2994
27.8471	23.8944	0.0552792	29.2994
27.8471	23.9221	0.0276396	29.2994
28.1181	23.9497	0	29.2994
28.1198	23.9497	0	29.2994
28.1213	23.9497	0.0276396	29.2994
28.1213	23.9635	0.0552792	29.2994
28.1214	23.9912	0.0276396	29.2994
28.426	24.0188	0	29.2994
28.4265	24.0188	0	29.2994
28.4266	24.0188	0.0552792	29.2994
28.4266	24.0464	0.0276396	29.2994
28.5022	24.0741	0	29.2994
28.5026	24.0741	0	29.2994
28.5026	24.0879	0.0276396	29.2994
28.672	24.1155	0	29.2994
28.6729	24.1155	0	29.2994
28.673	24.1294	0.0276396	29.2994
29.0206	24.157	0	29.2994
29.0211	24.157	0	29.2994
29.0211	24.1708	0.0276396	29.2994
29.5091	24.1985	0	29.2994
29.5093	24.1985	0	29.2994
29.5093	24.2123	0.0276396	29.2994
29.8299	24.2399	0	29.2994
29.8299	24.2399	0	29.2994
29.83	24.2399	0.0552792	29.2994
29.83	24.2676	0.0276396	29.2994
30.3571	24.2952	0	29.2994
30.3578	24.2952	0	29.2994
30.3579	24.2952	0.0552792	29.2994
30.3579	24.3228	0.0276396	29.2994
30.5048	24.3505	0	29.2994
30.5052	24.3505	0	29.2994
30.5053	24.3505	0.0552792	29.2994
30.5053	24.3781	0.0276396	29.2994
30.8555	24.4057	0	29.2994
30.8559	24.4057	0	29.2994
30.8559	24.4057	0.0552792	29.2994
30.856	24.4334	0.0276396	29.2994
31.0472	24.461	0	29.2994
31.2554	24.461	0	29.4813
31.2556	24.461	0	29.4813
31.2558	24.461	0.0276396	29.4813
31.2558	24.4748	0.0552792	29.4813
31.2558	24.5025	0.0276396	29.4813
31.3419	24.5301	0	29.4813
31.3423	24.5301	0	29.4813
31.3423	24.5301	0.0552792	29.4813
31.3425	24.5578	0.0276396	29.4813
31.4153	24.5854	0	29.4813
31.4161	24.5854	0	29.4813
31.4161	24.5992	0.0276396	29.4813
31.434	24.6269	0	29.4813
31.4346	24.6269	0	29.4813
31.4348	24.6269	0.0276396	29.4813
31.4349	24.6407	0.0552792	29.4813
31.435	24.6683	0.0276396	29.4813
31.7563	24.696	0	29.4813
31.7564	24.696	0	29.4813
31.7564	24.696	0.0552792	29.4813
31.7565	24.7236	0.0276396	29.4813
31.7822	24.7512	0	29.4813
31.7832	24.7512	0	29.4813
31.7832	24.7651	0.0276396	29.4813
31.8335	24.7927	0	29.4813
31.8336	24.7927	0	29.4813
31.8336	24.7927	0.0552792	29.4813
31.8339	24.8203	0.0276396	29.4813
32.0692	24.848	0	29.4813
32.0696	24.848	0	29.4813
32.0696	24.848	0.0552792	29.4813
32.0697	24.8756	0.0276396	29.4813
32.1212	24.9033	0	29.4813
32.1216	24.9033	0	29.4813
32.1217	24.9171	0.0276396	29.4813
32.2581	24.9447	0	29.4813
32.259	24.9447	0	29.4813
32.259	24.9585	0.0276396	29.4813
32.3374	24.9862	0	29.4813
32.3375	24.9862	0	29.4813
32.3376	25	0.0276396	29.4813
32.8832	25.0276	0	29.4813
32.884	25.0276	0	29.4813
32.8841	25.0276	0.0552792	29.4813
32.8841	25.0553	0.0276396	29.4813
32.947	25.0829	0	29.4813
32.9477	25.0829	0	29.4813
32.9481	25.0829	0.0276396	29.4813
32.9481	25.0967	0.0552792	29.4813
32.9481	25.1244	0.0276396	29.4813
33.0756	25.152	0	29.4813
33.0764	25.152	0	29.4813
33.0764	25.152	0.0552792	29.4813
33.0764	25.1797	0.0276396	29.4813
33.2552	25.2073	0	29.4813
33.2563	25.2073	0	29.4813
33.2564	25.2073	0.0552792	29.4813
33.2564	25.2349	0.0276396	29.4813
33.7149	25.2626	0	29.4813
33.7152	25.2626	0	29.4813
33.7152	25.2626	0.0552792	29.4813
33.7152	25.2902	0.0276396	29.4813
33.7636	25.3179	0	29.4813
33.7648	25.3179	0	29.4813
33.765	25.3317	0.0276396	29.4813
33.8783	25.3593	0	29.4813
33.8789	25.3593	0	29.4813
33.8789	25.3731	0.0276396	29.4813
34.1785	25.4008	0	29.4813
34.1787	25.4008	0	29.4813
34.1787	25.4008	0.0552792	29.4813
34.1787	25.4284	0.0276396	29.4813
34.5737	25.4561	0	29.4813
34.5738	25.4561	0	29.4813
34.5738	25.4699	0.0276396	29.4813
34.6879	25.4975	0	29.4813
34.6887	25.4975	0	29.4813
34.6888	25.5113	0.0276396	29.4813
34.7691	25.539	0	29.4813
34.7694	25.539	0	29.4813
34.7699	25.539	0.0276396	29.4813
34.7699	25.5528	0.0552792	29.4813
34.7701	25.5804	0.0276396	29.4813
35.2076	25.6081	0	29.4813
35.2087	25.6081	0	29.4813
35.2088	25.6219	0.0276396	29.4813
35.7073	25.6495	0	29.4813
35.7073	25.6495	0	29.4813
35.7074	25.6633	0.0276396	29.4813
36.3299	25.691	0	29.4813
36.3302	25.691	0	29.4813
36.3302	25.7048	0.0276396	29.4813
36.6385	25.7324	0	29.4813
36.6387	25.7324	0	29.4813
36.6388	25.7324	0.0552792	29.4813
36.6388	25.7601	0.0276396	29.4813
37.4075	25.7877	0	29.4813
37.4077	25.7877	0	29.4813
37.4087	25.7877	0.0276396	29.4813
37.4087	25.8015	0.0552792	29.4813
37.4087	25.8292	0.0276396	29.4813
38.6211	25.8568	0	29.4813
38.6213	25.8568	0	29.4813
38.6213	25.8568	0.0552792	29.4813
38.6214	25.8845	0.0276396	29.4813
38.7032	25.9121	0	29.4813
38.7033	25.9121	0	29.4813
38.7035	25.9121	0.0276396	29.4813
38.7035	25.9259	0.0552792	29.4813
38.7036	25.9536	0.0276396	29.4813
38.7074	25.9812	0	29.4813
38.7075	25.9812	0	29.4813
38.7075	25.9812	0.0552792	29.4813
38.7077	26.0088	0.0276396	29.4813
38.7308	26.0365	0	29.4813
38.731	26.0365	0	29.4813
38.7311	26.0365	0.0552792	29.4813
38.7311	26.0641	0.0276396	29.4813
38.7871	26.0918	0	29.4813
38.7872	26.0918	0	29.4813
38.7872	26.1056	0.0276396	29.4813
39.043	26.1332	0	29.4813
39.0431	26.1332	0	29.4813
39.0431	26.1332	0.0552792	29.4813
39.0432	26.1609	0.0276396	29.4813
39.1586	26.1885	0	29.4813
39.1588	26.1885	0	29.4813
39.1589	26.2023	0.0276396	29.4813
39.1681	26.23	0	29.4813
39.1684	26.23	0	29.4813
39.1684	26.23	0.0552792	29.4813
39.1685	26.2576	0.0276396	29.4813
39.5799	26.2852	0	29.4813
39.5809	26.2852	0	29.4813
39.5811	26.2991	0.0276396	29.4813
39.8354	26.3267	0	29.4813
39.8359	26.3267	0	29.4813
39.836	26.3405	0.0276396	29.4813
39.9132	26.3682	0	29.4813
39.9135	26.3682	0	29.4813
39.9135	26.382	0.0276396	29.4813
39.9962	26.4096	0	29.4813
39.9964	26.4096	0	29.4813
39.9965	26.4234	0.0276396	29.4813
41.0662	26.4511	0	29.4813
41.0663	26.4511	0	29.4813
41.0664	26.4511	0.0552792	29.4813
41.0665	26.4787	0.0276396	29.4813
41.6176	26.5064	0	29.4813
41.6177	26.5064	0	29.4813
41.6178	26.5064	0.0552792	29.4813
41.6178	26.534	0.0276396	29.4813
42.0536	26.5616	0	29.4813
42.0544	26.5616	0	29.4813
42.0544	26.5616	0.0552792	29.4813
42.0544	26.5893	0.0276396	29.4813
42.5028	26.6169	0	29.4813
42.5036	26.6169	0	29.4813
43.5725	26.6169	0.0276396	29.4813
43.5725	26.6169	0.0276396	29.4813
43.5725	26.6446	0	29.4813
43.5726	26.6446	0.0552792	29.4813
43.5726	26.6722	0.0276396	29.4813
44.8251	26.6998	0	29.4813
44.8251	26.6998	0	29.4813
44.8251	26.6998	0.0552792	29.4813
44.8251	26.7275	0.0276396	29.4813
45.7353	26.7551	0	29.4813
45.7366	26.7551	0	29.4813
45.7367	26.7551	0.0276396	29.4813
45.7367	26.7689	0.0552792	29.4813
45.7369	26.7966	0.0276396	29.4813
45.7621	26.8242	0	29.4813
45.7624	26.8242	0	29.4813
45.7624	26.838	0.0276396	29.4813
46.426	26.8657	0	29.4813
46.4266	26.8657	0	29.4813
46.4266	26.8795	0.0276396	29.4813
46.5647	26.9071	0	29.4813
46.5651	26.9071	0	29.4813
46.5651	26.9071	0.0552792	29.4813
46.5652	26.9348	0.0276396	29.4813
46.8855	26.9624	0	29.4813
46.8861	26.9624	0	29.4813
46.8864	26.9624	0.0276396	29.4813
46.8864	26.9762	0.0552792	29.4813
46.8865	27.0039	0.0276396	29.4813
46.9806	27.0315	0	29.4813
46.9821	27.0315	0	29.4813
46.9829	27.0315	0.0276396	29.4813
46.983	27.0453	0.0552792	29.4813
46.983	27.073	0.0276396	29.4813
47.0877	27.1006	0	29.4813
47.0879	27.1006	0	29.4813
47.0881	27.1006	0.0276396	29.4813
47.0881	27.1144	0.0552792	29.4813
47.0881	27.1421	0.0276396	29.4813
47.3319	27.1697	0	29.4813
47.332	27.1697	0	29.4813
47.3322	27.1697	0.0276396	29.4813
47.3322	27.1835	0.0552792	29.4813
47.3322	27.2112	0.0276396	29.4813
49.0117	27.2388	0	29.4813
49.0123	27.2388	0	29.4813
49.0123	27.2388	0.0552792	29.4813
49.0123	27.2664	0.0276396	29.4813
49.0298	27.2941	0	29.4813
49.0323	27.2941	0	29.4813
49.0323	27.2941	0.0552792	29.4813
49.0323	27.3217	0.0276396	29.4813
49.4636	27.3494	0	29.4813
49.4637	27.3494	0	29.4813
49.4637	27.3632	0.0276396	29.4813
50.5847	27.3908	0	29.4813
50.5847	27.3908	0	29.4813
50.5847	27.3908	0.0552792	29.4813
50.5848	27.4185	0.0276396	29.4813
50.8516	27.4461	0	29.4813
50.8519	27.4461	0	29.4813
50.8519	27.4461	0.0552792	29.4813
50.8519	27.4737	0.0276396	29.4813
51.5641	27.5014	0	29.4813
51.566	27.5014	0	29.4813
54.4223	27.5014	0.0276396	29.4813
54.4223	27.5014	0.0276396	29.4813
54.4224	27.529	0	29.4813
54.4224	27.529	0.0552792	29.4813
54.4224	27.5567	0.0276396	29.4813
54.5499	27.5843	0	29.4813
54.5507	27.5843	0	29.4813
54.5508	27.5843	0.0552792	29.4813
54.5508	27.6119	0.0276396	29.4813
54.9593	27.6396	0	29.4813
54.9595	27.6396	0	29.4813
54.9595	27.6534	0.0276396	29.4813
55.2818	27.681	0	29.4813
55.2819	27.681	0	29.4813
55.282	27.681	0.0552792	29.4813
55.282	27.7087	0.0276396	29.4813
55.3093	27.7363	0	29.4813
55.3108	27.7363	0	29.4813
55.3108	27.7501	0.0276396	29.4813
56.0293	27.7778	0	29.4813
56.0295	27.7778	0	29.4813
56.0296	27.7916	0.0276396	29.4813
56.4149	27.8192	0	29.4813
56.4154	27.8192	0	29.4813
56.4154	27.8192	0.0276396	29.4813
56.4154	27.8331	0.0552792	29.4813
56.4155	27.8607	0.0276396	29.4813
58.5085	27.8883	0	29.4813
58.5091	27.8883	0	29.4813
58.5091	27.8883	0.0552792	29.4813
58.5091	27.916	0.0276396	29.4813
59.6259	27.9436	0	29.4813
59.626	27.9436	0	29.4813
59.6261	27.9436	0.0552792	29.4813
59.6261	27.9713	0.0276396	29.4813
60.3195	27.9989	0	29.4813
60.3195	27.9989	0	29.4813
60.3195	27.9989	0.0552792	29.4813
60.3196	28.0265	0.0276396	29.4813
60.3259	28.0542	0	29.4813
60.3259	28.0542	0	29.4813
60.326	28.068	0.0276396	29.4813
62.4115	28.0956	0	29.4813
62.4115	28.0956	0	29.4813
62.4116	28.1095	0.0276396	29.4813
66.0925	28.1371	0	29.4813
66.093	28.1371	0	29.4813
66.093	28.1371	0.0552792	29.4813
66.093	28.1647	0.0276396	29.4813
66.7869	28.1924	0	29.4813
66.7877	28.1924	0	29.4813
66.7877	28.1924	0.0552792	29.4813
66.7877	28.22	0.0276396	29.4813
68.0086	28.2477	0	29.4813
68.0086	28.2477	0	29.4813
68.0086	28.2477	0.0552792	29.4813
68.0086	28.2753	0.0276396	29.4813
69.4552	28.3029	0	29.4813
69.4555	28.3029	0	29.4813
69.4556	28.3029	0.0276396	29.4813
69.4557	28.3167	0.0552792	29.4813
69.4557	28.3444	0.0276396	29.4813
71.136	28.372	0	29.4813
71.1369	28.372	0	29.4813
71.1369	28.372	0.0552792	29.4813
71.1369	28.3997	0.0276396	29.4813
72.7076	28.4273	0	29.4813
72.7082	28.4273	0	29.4813
72.7082	28.4273	0.0552792	29.4813
72.7082	28.4549	0.0276396	29.4813
75.4626	28.4826	0	29.4813
75.4639	28.4826	0	29.4813
75.4639	28.4826	0.0552792	29.4813
75.4639	28.5102	0.0276396	29.4813
76.0869	28.5379	0	29.4813
76.087	28.5379	0	29.4813
76.0871	28.5379	0.0552792	29.4813
76.0871	28.5655	0.0276396	29.4813
80.3763	28.5931	0	29.4813
80.3787	28.5931	0	29.4813
80.3787	28.5931	0.0552792	29.4813
80.3787	28.6208	0.0276396	29.4813
82.8287	28.6484	0	29.4813
82.8289	28.6484	0	29.4813
82.8295	28.6484	0.0276396	29.4813
82.8295	28.6622	0.0552792	29.4813
82.8295	28.6899	0.0276396	29.4813
87.1216	28.7175	0	29.4813
87.1217	28.7175	0	29.4813
87.1218	28.7175	0.0552792	29.4813
87.1218	28.7452	0.0276396	29.4813
89.5348	28.7728	0	29.4813
89.5349	28.7728	0	29.4813
89.5349	28.7866	0.0276396	29.4813
92.0827	28.8143	0	29.4813
92.0829	28.8143	0	29.4813
92.0829	28.8281	0.0276396	29.4813
93.8524	28.8557	0	29.4813
93.8531	28.8557	0	29.4813
93.8531	28.8557	0.0552792	29.4813
93.8532	28.8834	0.0276396	29.4813
94.4732	28.911	0	29.4813
94.4732	28.911	0	29.4813
94.4739	28.911	0.0276396	29.4813
94.4747	28.911	0.0552792	29.4813
94.4747	28.9248	0.0829187	29.4813
94.4748	28.9525	0.0552792	29.4813
94.4749	28.9801	0.0276396	29.4813
132.528	29.0077	0	29.4813
132.53	29.0077	0	29.4813
132.53	29.0077	0.0552792	29.4813
132.53	29.0354	0.0276396	29.4813
