3.69178e-11	0	0	0
5.08435e-10	0	0	0
8.69263e-10	0	0	0
1.01052e-09	0	0	0
1.34446e-09	0	0	0
1.73101e-09	0	0	0
3.61437e-09	0	0	0
3.7952e-09	0	0	0
3.89978e-09	0	0	0
4.2569e-09	0	0	0
4.61726e-09	0	0	0
5.24753e-09	0	0	0
5.87722e-09	0	0	0
6.46551e-09	0	0	0
7.88655e-09	0	0	0
8.03692e-09	0	0	0
8.06642e-09	0	0	0
9.05382e-09	0	0	0
9.35745e-09	0	0	0
9.39679e-09	0	0	0
9.45214e-09	0	0	0
9.98946e-09	0	0	0
1.16881e-08	0	0	0
1.25406e-08	0	0	0
1.35971e-08	0	0	0
1.40712e-08	0	0	0
1.41784e-08	0	0	0
1.69321e-08	0	0	0
1.8952e-08	0	0	0
1.95471e-08	0	0	0
2.05631e-08	0	0	0
2.08332e-08	0	0	0
2.10378e-08	0	0	0
2.14018e-08	0	0	0
2.36603e-08	0	0	0
2.54767e-08	0	0	0
2.72022e-08	0	0	0
2.72792e-08	0	0	0
3.52362e-08	0	0	0
3.61594e-08	0	0	0
3.68157e-08	0	0	0
3.82628e-08	0	0	0
3.83368e-08	0	0	0
3.9655e-08	0	0	0
3.96779e-08	0	0	0
3.9688e-08	0	0	0
3.98006e-08	0	0	0
4.35301e-08	0	0	0
4.54485e-08	0	0	0
4.57883e-08	0	0	0
4.58822e-08	0	0	0
4.62493e-08	0	0	0
4.72066e-08	0	0	0
4.96739e-08	0	0	0
5.34102e-08	0	0	0
6.14839e-08	0	0	0
6.56953e-08	0	0	0
6.74147e-08	0	0	0
7.76508e-08	0	0	0
7.76865e-08	0	0	0
8.78907e-08	0	0	0
9.70349e-08	0	0	0
1.05858e-07	0	0	0
1.16827e-07	0	0	0
1.21914e-07	0	0	0
1.33773e-07	0	0	0
1.38123e-07	0	0	0
1.40553e-07	0	0	0
1.67676e-07	0	0	0
2.43189e-07	0	0	0
3.21112e-07	0	0	0
4.06153e-07	0	0	0
4.4715e-07	0	0	0
4.97661e-07	0	0	0
5.47376e-07	0	0	0
5.82124e-07	0	0	0
6.0135e-07	0	0	0
6.19414e-07	0	0	0
7.08957e-07	0	0	0
7.46401e-07	0	0	0
7.64318e-07	0	0	0
7.72592e-07	0	0	0
7.76531e-07	0	0	0
8.46278e-07	0	0	0
8.57727e-07	0	0	0
8.83653e-07	0	0	0
9.5247e-07	0	0	0
9.7164e-07	0	0	0
9.74044e-07	0	0	0
1.02613e-06	0	0	0
1.08962e-06	0	0	0
1.10929e-06	0	0	0
1.12361e-06	0	0	0
1.14052e-06	0	0	0
1.16365e-06	0	0	0
1.23064e-06	0	0	0
1.24022e-06	0	0	0
1.29256e-06	0	0	0
1.3192e-06	0	0	0
1.33487e-06	0	0	0
1.34068e-06	0	0	0
1.38575e-06	0	0	0
1.45537e-06	0	0	0
1.50159e-06	0	0	0
1.5534e-06	0	0	0
1.70428e-06	0	0	0
1.74646e-06	0	0	0
1.83199e-06	0	0	0
1.92944e-06	0	0	0
1.98076e-06	0	0	0
1.99772e-06	0	0	0
2.01263e-06	0	0	0
2.02003e-06	0	0	0
2.05491e-06	0	0	0
2.11379e-06	0	0	0
2.1187e-06	0	0	0
2.12752e-06	0	0	0
2.15266e-06	0	0	0
2.19153e-06	0	0	0
2.20192e-06	0	0	0
2.31522e-06	0	0	0
2.36942e-06	0	0	0
2.42298e-06	0	0	0
2.43686e-06	0	0	0
2.47051e-06	0	0	0
2.56846e-06	0	0	0
2.59935e-06	0	0	0
2.64562e-06	0	0	0
2.67474e-06	0	0	0
2.71392e-06	0	0	0
2.76755e-06	0	0	0
2.76931e-06	0	0	0
2.77088e-06	0	0	0
2.8162e-06	0	0	0
2.86475e-06	0	0	0
2.9033e-06	0	0	0
3.18287e-06	0	0	0
3.21874e-06	0	0	0
3.41396e-06	0	0	0
3.56401e-06	0	0	0
3.6493e-06	0	0	0
3.68435e-06	0	0	0
4.00944e-06	0	0	0
4.0816e-06	0	0	0
4.14909e-06	0	0	0
4.15504e-06	0	0	0
4.17768e-06	0	0	0
4.26225e-06	0	0	0
4.32879e-06	0	0	0
4.45072e-06	0	0	0
4.46902e-06	0	0	0
4.54116e-06	0	0	0
4.70693e-06	0	0	0
5.11596e-06	0	0	0
5.18904e-06	0	0	0
5.27251e-06	0	0	0
5.31496e-06	0	0	0
5.43746e-06	0	0	0
5.55048e-06	0	0	0
5.77209e-06	0	0	0
5.77246e-06	0	0	0
5.84741e-06	0	0	0
5.85312e-06	0	0	0
5.9532e-06	0	0	0
5.98823e-06	0	0	0
6.20274e-06	0	0	0
6.29678e-06	0	0	0
6.53744e-06	0	0	0
6.71518e-06	0	0	0
6.73508e-06	0	0	0
6.74366e-06	0	0	0
6.83878e-06	0	0	0
7.1038e-06	0	0	0
7.54361e-06	0	0	0
7.55524e-06	0	0	0
7.71425e-06	0	0	0
7.75685e-06	0	0	0
7.93041e-06	0	0	0
8.53809e-06	0	0	0
8.57157e-06	0	0	0
8.60913e-06	0	0	0
8.8444e-06	0	0	0
9.04521e-06	0	0	0
9.14801e-06	0	0	0
9.43735e-06	0	0	0
9.4849e-06	0	0	0
9.54467e-06	0	0	0
9.58587e-06	0	0	0
9.79714e-06	0	0	0
9.90694e-06	0	0	0
1.01109e-05	0	0	0
1.03505e-05	0	0	0
1.0475e-05	0	0	0
1.04757e-05	0	0	0
1.05353e-05	0	0	0
1.05857e-05	0	0	0
1.07962e-05	0	0	0
1.10962e-05	0	0	0
1.1152e-05	0	0	0
1.14531e-05	0	0	0
1.16329e-05	0	0	0
1.1838e-05	0	0	0
1.19726e-05	0	0	0
1.20012e-05	0	0	0
1.21845e-05	0	0	0
1.23116e-05	0	0	0
1.2876e-05	0	0	0
1.3109e-05	0	0	0
1.33405e-05	0	0	0
1.33523e-05	0	0	0
1.3722e-05	0	0	0
1.41579e-05	0	0	0
1.44484e-05	0	0	0
1.47006e-05	0	0	0
1.5251e-05	0	0	0
1.53864e-05	0	0	0
1.53998e-05	0	0	0
1.54081e-05	0	0	0
1.57327e-05	0	0	0
1.62827e-05	0	0	0
1.64176e-05	0	0	0
1.67062e-05	0	0	0
1.67785e-05	0	0	0
1.69135e-05	0	0	0
1.69322e-05	0	0	0
1.82573e-05	0	0	0
1.8317e-05	0	0	0
1.84445e-05	0	0	0
1.85399e-05	0	0	0
1.89529e-05	0	0	0
1.90864e-05	0	0	0
1.92189e-05	0	0	0
1.99939e-05	0	0	0
2.05335e-05	0	0	0
2.0698e-05	0	0	0
2.08078e-05	0	0	0
2.08345e-05	0	0	0
2.11676e-05	0	0	0
2.14753e-05	0	0	0
2.17966e-05	0	0	0
2.20086e-05	0	0	0
2.23883e-05	0	0	0
2.26968e-05	0	0	0
2.32912e-05	0	0	0
2.36138e-05	0	0	0
2.37827e-05	0	0	0
2.38368e-05	0	0	0
2.39657e-05	0	0	0
2.39775e-05	0	0	0
2.41351e-05	0	0	0
2.42075e-05	0	0	0
2.44933e-05	0	0	0
2.48974e-05	0	0	0
2.49524e-05	0	0	0
2.6809e-05	0	0	0
2.68643e-05	0	0	0
2.69215e-05	0	0	0
2.70401e-05	0	0	0
2.71752e-05	0	0	0
2.72714e-05	0	0	0
2.79122e-05	0	0	0
2.86083e-05	0	0	0
2.92124e-05	0	0	0
3.02612e-05	0	0	0
3.03477e-05	0	0	0
3.07854e-05	0	0	0
3.08673e-05	0	0	0
3.10172e-05	0	0	0
3.14062e-05	0	0	0
3.15687e-05	0	0	0
3.17687e-05	0	0	0
3.23025e-05	0	0	0
3.23853e-05	0	0	0
3.24828e-05	0	0	0
3.2741e-05	0	0	0
3.32178e-05	0	0	0
3.40608e-05	0	0	0
3.44121e-05	0	0	0
3.49564e-05	0	0	0
3.54988e-05	0	0	0
3.56088e-05	0	0	0
3.6429e-05	0	0	0
3.67057e-05	0	0	0
3.67251e-05	0	0	0
3.67688e-05	0	0	0
3.70919e-05	0	0	0
3.79055e-05	0	0	0
3.80072e-05	0	0	0
3.80222e-05	0	0	0
3.80904e-05	0	0	0
3.8661e-05	0	0	0
3.96705e-05	0	0	0
3.99924e-05	0	0	0
4.05062e-05	0	0	0
4.06996e-05	0	0	0
4.07413e-05	0	0	0
4.07594e-05	0	0	0
4.09575e-05	0	0	0
4.15923e-05	0	0	0
4.17147e-05	0	0	0
4.39368e-05	0	0	0
4.43293e-05	0	0	0
4.5499e-05	0	0	0
4.61012e-05	0	0	0
4.727e-05	0	0	0
4.84448e-05	0	0	0
4.94629e-05	0	0	0
4.95706e-05	0	0	0
5.00648e-05	0	0	0
5.10768e-05	0	0	0
5.13232e-05	0	0	0
5.32992e-05	0	0	0
5.4491e-05	0	0	0
5.53486e-05	0	0	0
5.55303e-05	0	0	0
5.56788e-05	0	0	0
5.5748e-05	0	0	0
5.63334e-05	0	0	0
5.75226e-05	0	0	0
5.78571e-05	0	0	0
5.88869e-05	0	0	0
6.13278e-05	0	0	0
6.19184e-05	0	0	0
6.33401e-05	0	0	0
6.3881e-05	0	0	0
6.4499e-05	0	0	0
6.45109e-05	0	0	0
6.49343e-05	0	0	0
6.67392e-05	0	0	0
6.6846e-05	0	0	0
6.7093e-05	0	0	0
6.74031e-05	0	0	0
6.7686e-05	0	0	0
6.888e-05	0	0	0
6.91198e-05	0	0	0
6.95093e-05	0	0	0
7.08014e-05	0	0	0
7.08815e-05	0	0	0
7.1674e-05	0	0	0
7.21787e-05	0	0	0
7.23627e-05	0	0	0
7.45423e-05	0	0	0
7.77998e-05	0	0	0
7.82113e-05	0	0	0
7.83791e-05	0	0	0
7.87679e-05	0	0	0
7.9015e-05	0	0	0
8.00125e-05	0	0	0
8.25876e-05	0	0	0
8.26897e-05	0	0	0
8.34051e-05	0	0	0
8.43879e-05	0	0	0
8.43908e-05	0	0	0
8.62785e-05	0	0	0
8.72589e-05	0	0	0
8.99462e-05	0	0	0
9.01647e-05	0	0	0
9.58604e-05	0	0	0
9.72926e-05	0	0	0
9.83668e-05	0	0	0
9.98042e-05	0	0	0
9.99695e-05	0	0	0
0.000100037	0	0	0
0.000101278	0	0	0
0.000104549	0	0	0
0.000106431	0	0	0
0.000107544	0	0	0
0.000114835	0	0	0
0.000116336	0	0	0
0.000117426	0	0	0
0.000122317	0	0	0
0.000125965	0	0	0
0.000129884	0	0	0
0.000138108	0	0	0
0.000140604	0	0	0
0.000140711	0	0	0
0.000141095	0	0	0
0.000142879	0	0	0
0.000153459	0	0	0
0.000157271	0	0	0
0.000162329	0	0	0
0.000163403	0	0	0
0.000226451	0	0	0
0.00444023	0	0	0
0.00510011	0	0	0
0.00511593	0.0138198	0.0276396	0
0.00512244	0.0414594	0	0
0.00514557	0.0414594	0	0
0.00518383	0.0414594	0	0
0.00841404	0.0414594	0	0
0.00873694	0.0414594	0	0
0.008794	0.0552792	0.0276396	0
0.0114901	0.0829187	0	0
0.0115078	0.0829187	0	0
0.0115092	0.0829187	0	0
0.0115235	0.0829187	0	0
0.011532	0.0829187	0	0
0.0479338	0.0829187	0	0
0.0606767	0.0829187	0	0
0.0609089	0.0829187	0	0
0.0610239	0.0829187	0.0276396	0
0.0611344	0.0829187	0.0552792	0
0.0618399	0.0829187	0.0829187	0
0.0619561	0.0829187	0.110558	0
0.0625645	0.0829187	0.138198	0
0.0627204	0.0829187	0.138198	0
0.062726	0.0829187	0.165837	0
0.0628637	0.0829187	0.193477	0
0.0632054	0.0829187	0.221117	0
0.0633772	0.0829187	0.248756	0
0.0641134	0.110558	0.221117	0
0.0641134	0.110558	0.248756	0
0.0654079	0.138198	0.221117	0
0.0654258	0.138198	0.248756	0
0.0659368	0.165837	0.221117	0
0.0660068	0.165837	0.248756	0
0.0660129	0.193477	0.221117	0
0.0660367	0.193477	0.248756	0
0.0660766	0.221117	0.221117	0
0.0660894	0.221117	0.248756	0
0.0750976	0.248756	0.221117	0
0.0754421	0.248756	0.221117	0
0.0755727	0.248756	0.248756	0
0.076213	0.248756	0.276396	0
0.0763032	0.248756	0.304035	0
0.0763035	0.262576	0.331675	0
0.0763044	0.262576	0.331675	0
0.0763071	0.262576	0.331675	0
0.0763114	0.290216	0.304035	0
0.0763189	0.317855	0.276396	0
0.0763237	0.345495	0.248756	0
0.0763281	0.373134	0.221117	0
0.0763308	0.400774	0.193477	0
0.0763361	0.400774	0.193477	0
0.0763393	0.400774	0.193477	0
0.076347	0.428413	0.165837	0
0.0763702	0.456053	0.138198	0
0.0763784	0.483693	0.110558	0
0.0763842	0.511332	0.0829187	0
0.0764228	0.538972	0.0552792	0
0.0764479	0.538972	0.0552792	0
0.0764547	0.566611	0.0276396	0
0.0764599	0.566611	0.0276396	0
0.0764655	0.594251	0	0
0.0808604	0.594251	0	0
0.0810385	0.594251	0	0
0.0810449	0.594251	0.0276396	0
0.0810689	0.608071	0.0552792	0
0.0811059	0.63571	0.0276396	0
0.0811175	0.66335	0	0
0.0943155	0.66335	0	0
0.0943367	0.66335	0	0
0.112314	0.66335	0	0
0.121725	0.66335	0	0
0.138042	0.66335	0	0
0.139841	0.66335	0	0
0.140277	0.66335	0.0276396	0
0.140785	0.66335	0.0552792	0
0.141268	0.66335	0.0829187	0
0.14305	0.66335	0.110558	0
0.152638	0.66335	0.138198	0
0.152856	0.66335	0.138198	0
0.153755	0.66335	0.138198	0
0.154017	0.66335	0.165837	0
0.154039	0.67717	0.193477	0
0.154202	0.704809	0.165837	0
0.155292	0.732449	0.138198	0
0.155314	0.746269	0.165837	0
0.156373	0.773908	0.138198	0
0.186564	0.773908	0.138198	0
0.186564	0.773908	0.138198	0
0.186567	0.773908	0.138198	0
0.186567	0.801548	0.110558	0
0.186582	0.829187	0.0829187	0
0.186583	0.829187	0.0829187	0
0.186597	0.829187	0.0829187	0
0.186597	0.829187	0.0829187	0
0.186611	0.829187	0.0829187	0
0.186633	0.856827	0.0552792	0
0.186642	0.856827	0.0552792	0
0.186655	0.884467	0.0276396	0
0.186661	0.912106	0	0
0.186735	0.912106	0	0
0.205737	0.912106	0	0
0.206223	0.912106	0	0
0.207375	0.912106	0.0276396	0
0.207384	0.925926	0.0552792	0
0.207439	0.953566	0.0276396	0
0.231515	0.981205	0	0
0.231522	0.981205	0	0
0.231552	0.981205	0	0
0.242392	0.981205	0	0
0.250394	0.981205	0	0
0.250743	0.981205	0	0
0.250747	0.981205	0.0552792	0
0.2508	1.00884	0.0276396	0
0.260633	1.03648	0	0
0.264443	1.03648	0	0
0.266226	1.03648	0	0
0.266228	1.0503	0.0276396	0
0.26623	1.0503	0.0276396	0
0.266249	1.07794	0	0
0.266317	1.07794	0	0
0.26635	1.07794	0	0
0.266366	1.07794	0	0
0.276643	1.07794	0	0
0.276647	1.07794	0	0
0.29459	1.07794	0	0
0.296421	1.07794	0	0
0.296643	1.07794	0	0
0.296826	1.09176	0.0276396	0
0.296834	1.1194	0	0
0.29758	1.1194	0	0
0.297804	1.1194	0	0
0.29826	1.1194	0.0276396	0
0.298269	1.13322	0.0552792	0
0.298286	1.13322	0.0552792	0
0.298301	1.13322	0.0552792	0
0.298412	1.16086	0.0276396	0
0.306459	1.1885	0	0
0.306543	1.1885	0	0
0.341389	1.1885	0.0276396	0
0.341426	1.1885	0.0276396	0
0.341436	1.21614	0	0
0.341458	1.21614	0	0
0.341467	1.21614	0	0
0.341587	1.21614	0	0
0.341622	1.21614	0.0552792	0
0.341642	1.24378	0.0276396	0
0.378691	1.27142	0	0
0.378729	1.27142	0	0
0.37877	1.27142	0	0
0.378776	1.27142	0	0
0.378777	1.27142	0	0
0.378785	1.27142	0	0
0.379798	1.27142	0	0
0.379959	1.27142	0	0
0.379962	1.27142	0.0552792	0
0.380083	1.29906	0.0276396	0
0.38598	1.3267	0	0
0.386529	1.3267	0	0
0.386931	1.3267	0	0
0.38695	1.3267	0	0
0.386953	1.3267	0.0276396	0
0.38774	1.3267	0.0552792	0
0.387764	1.34052	0.0829187	0
0.387805	1.34052	0.0829187	0
0.387837	1.34052	0.0829187	0
0.387863	1.35434	0.110558	0
0.387867	1.38198	0.0829187	0
0.387875	1.40962	0.0552792	0
0.387888	1.43726	0.0276396	0
0.387894	1.43726	0.0276396	0
0.387896	1.4649	0	0
0.394815	1.4649	0	0
0.411763	1.4649	0	0
0.420181	1.4649	0	0.0909918
0.437271	1.4649	0	0.0909918
0.477221	1.4649	0	0.0909918
0.494779	1.4649	0	0.181984
0.494847	1.4649	0	0.181984
0.495183	1.4649	0.0276396	0.181984
0.495201	1.47872	0.0552792	0.181984
0.495207	1.50636	0.0276396	0.181984
0.529159	1.534	0	0.181984
0.529448	1.534	0	0.181984
0.530721	1.534	0.0276396	0.181984
0.530732	1.54782	0.0552792	0.181984
0.530736	1.57546	0.0276396	0.181984
0.53083	1.57546	0.0276396	0.181984
0.535646	1.6031	0	0.181984
0.551388	1.6031	0	0.272975
0.552313	1.6031	0	0.272975
0.556821	1.6031	0.0276396	0.272975
0.563959	1.6031	0.0276396	0.272975
0.565341	1.6031	0.0276396	0.272975
0.565751	1.6031	0.0552792	0.272975
0.565763	1.61692	0.0829187	0.272975
0.565764	1.64456	0.0552792	0.272975
0.565768	1.64456	0.0552792	0.272975
0.565805	1.67219	0.0276396	0.272975
0.576398	1.67219	0.0276396	0.272975
0.577227	1.67219	0.0276396	0.272975
0.577783	1.67219	0.0276396	0.272975
0.60532	1.68601	0.0552792	0.272975
0.60532	1.68601	0.0552792	0.272975
0.605355	1.68601	0.0552792	0.272975
0.605438	1.68601	0.0552792	0.272975
0.60544	1.68601	0.0829187	0.272975
0.605944	1.71365	0.0552792	0.272975
0.605967	1.71365	0.0829187	0.272975
0.606072	1.71365	0.110558	0.272975
0.606421	1.71365	0.138198	0.272975
0.606595	1.71365	0.165837	0.272975
0.606598	1.71365	0.193477	0.272975
0.606603	1.74129	0.165837	0.272975
0.606636	1.76893	0.138198	0.272975
0.606637	1.79657	0.110558	0.272975
0.606649	1.82421	0.0829187	0.272975
0.606711	1.85185	0.0552792	0.272975
0.606728	1.87949	0.0276396	0.272975
0.618833	1.90713	0	0.272975
0.61971	1.90713	0	0.272975
0.619711	1.92095	0.0276396	0.272975
0.638748	1.94859	0	0.272975
0.638749	1.94859	0	0.272975
0.638843	1.94859	0	0.272975
0.649383	1.94859	0	0.272975
0.691767	1.94859	0	0.272975
0.691776	1.94859	0	0.272975
0.691781	1.96241	0.0276396	0.272975
0.691814	1.96241	0.0276396	0.272975
0.692491	1.99005	0	0.272975
0.6926	1.99005	0	0.272975
0.692601	2.00387	0.0276396	0.272975
0.69264	2.00387	0.0276396	0.272975
0.706293	2.03151	0	0.272975
0.712055	2.03151	0	0.272975
0.71212	2.03151	0	0.363967
0.718506	2.03151	0	0.363967
0.718566	2.03151	0	0.363967
0.71863	2.04533	0.0276396	0.363967
0.724512	2.07297	0	0.363967
0.724631	2.07297	0	0.363967
0.724668	2.07297	0	0.363967
0.740332	2.07297	0	0.363967
0.740586	2.07297	0	0.363967
0.740625	2.07297	0.0276396	0.363967
0.741304	2.07297	0.0552792	0.363967
0.741343	2.07297	0.0829187	0.363967
0.741348	2.07297	0.138198	0.363967
0.741356	2.07297	0.138198	0.363967
0.741376	2.10061	0.110558	0.363967
0.741388	2.12825	0.0829187	0.363967
0.741399	2.12825	0.0829187	0.363967
0.741408	2.15589	0.0552792	0.363967
0.741424	2.18353	0.0276396	0.363967
0.764344	2.21117	0	0.363967
0.764363	2.21117	0	0.363967
0.764369	2.22499	0.0276396	0.363967
0.785229	2.25263	0	0.363967
0.786016	2.25263	0	0.363967
0.786053	2.26645	0.0276396	0.363967
0.786282	2.26645	0.0276396	0.363967
0.797911	2.29409	0	0.363967
0.797912	2.29409	0	0.363967
0.797919	2.29409	0	0.363967
0.797982	2.29409	0	0.363967
0.806226	2.29409	0	0.363967
0.80639	2.29409	0	0.363967
0.806767	2.29409	0.0276396	0.363967
0.806778	2.29409	0.0829187	0.363967
0.806791	2.29409	0.0829187	0.363967
0.806792	2.32172	0.0552792	0.363967
0.806799	2.34936	0.0276396	0.363967
0.811734	2.377	0	0.363967
0.812492	2.377	0	0.363967
0.813328	2.377	0.0276396	0.363967
0.813334	2.39082	0.0552792	0.363967
0.81335	2.41846	0.0276396	0.363967
0.825954	2.4461	0	0.363967
0.826364	2.4461	0	0.363967
0.826434	2.45992	0.0276396	0.363967
0.849619	2.48756	0	0.363967
0.849823	2.48756	0	0.363967
0.849893	2.50138	0.0276396	0.363967
0.853945	2.52902	0	0.363967
0.857293	2.52902	0	0.363967
0.857313	2.52902	0	0.454959
0.857336	2.52902	0	0.454959
0.892764	2.52902	0	0.454959
0.943203	2.52902	0	0.545951
0.943982	2.52902	0	0.545951
0.944023	2.54284	0.0276396	0.545951
0.958637	2.57048	0	0.545951
0.958703	2.57048	0	0.545951
0.958978	2.57048	0.0276396	0.545951
0.959961	2.57048	0.0552792	0.545951
0.960048	2.57048	0.0829187	0.545951
0.960056	2.5843	0.110558	0.545951
0.960057	2.61194	0.0829187	0.545951
0.960067	2.63958	0.0552792	0.545951
0.960078	2.63958	0.0552792	0.545951
0.960244	2.66722	0.0276396	0.545951
0.972505	2.69486	0	0.545951
0.972613	2.69486	0	0.545951
0.972686	2.69486	0.0276396	0.545951
0.972695	2.70868	0.0552792	0.545951
0.972697	2.73632	0.0276396	0.545951
0.972729	2.73632	0.0276396	0.545951
0.972842	2.73632	0.0276396	0.545951
0.989731	2.76396	0	0.545951
0.989822	2.76396	0	0.545951
0.990005	2.77778	0.0276396	0.545951
0.991679	2.80542	0	0.545951
0.992132	2.80542	0	0.545951
0.99214	2.80542	0.0276396	0.545951
0.992161	2.80542	0.0276396	0.545951
1.00394	2.83306	0	0.545951
1.00946	2.83306	0	0.636943
1.02087	2.83306	0	0.636943
1.02401	2.83306	0	0.636943
1.02429	2.83306	0	0.636943
1.02488	2.83306	0.0276396	0.636943
1.0249	2.84688	0.0552792	0.636943
1.02494	2.87452	0.0276396	0.636943
1.02516	2.90216	0	0.636943
1.02517	2.90216	0	0.636943
1.05725	2.90216	0	0.636943
1.05742	2.90216	0	0.636943
1.05744	2.91598	0.0276396	0.636943
1.07757	2.94362	0	0.636943
1.07803	2.94362	0	0.636943
1.07804	2.94362	0.0276396	0.636943
1.0781	2.95744	0.0552792	0.636943
1.07812	2.98507	0.0276396	0.636943
1.07931	3.01271	0	0.636943
1.07949	3.01271	0	0.636943
1.08015	3.01271	0.0276396	0.636943
1.08018	3.02653	0.0552792	0.636943
1.08018	3.05417	0.0276396	0.636943
1.08102	3.08181	0	0.636943
1.08584	3.08181	0	0.636943
1.08704	3.08181	0	0.636943
1.08707	3.09563	0.0276396	0.636943
1.0872	3.12327	0	0.636943
1.08725	3.12327	0	0.636943
1.09256	3.12327	0	0.636943
1.09346	3.12327	0	0.636943
1.09351	3.13709	0.0276396	0.636943
1.09357	3.16473	0	0.636943
1.0936	3.16473	0	0.636943
1.09974	3.16473	0	0.636943
1.10423	3.16473	0	0.636943
1.10429	3.16473	0	0.636943
1.12187	3.16473	0	0.636943
1.13763	3.16473	0	0.636943
1.13785	3.16473	0	0.636943
1.13789	3.17855	0.0276396	0.636943
1.13885	3.20619	0	0.636943
1.17397	3.20619	0	0.727934
1.17492	3.20619	0	0.727934
1.17497	3.20619	0	0.818926
1.17506	3.22001	0.0276396	0.818926
1.18319	3.24765	0	0.818926
1.18342	3.24765	0	0.818926
1.18344	3.26147	0.0276396	0.818926
1.21477	3.28911	0	0.818926
1.2151	3.28911	0	0.818926
1.21536	3.28911	0.0276396	0.818926
1.21537	3.28911	0.0829187	0.818926
1.21539	3.31675	0.0552792	0.818926
1.21539	3.31675	0.0552792	0.818926
1.2154	3.31675	0.0552792	0.818926
1.21542	3.31675	0.0552792	0.818926
1.21554	3.34439	0.0276396	0.818926
1.21561	3.37203	0	0.818926
1.21899	3.37203	0	0.818926
1.24955	3.37203	0	0.909918
1.24956	3.37203	0	1.00091
1.24956	3.37203	0	1.00091
1.24957	3.37203	0	1.00091
1.27142	3.37203	0	1.00091
1.27153	3.37203	0	1.00091
1.27157	3.37203	0.0276396	1.00091
1.27158	3.38585	0.0552792	1.00091
1.27159	3.38585	0.0552792	1.00091
1.27163	3.38585	0.0552792	1.00091
1.27166	3.41349	0.0276396	1.00091
1.27166	3.44113	0	1.00091
1.27903	3.44113	0	1.00091
1.2797	3.44113	0	1.00091
1.27971	3.45495	0.0276396	1.00091
1.27975	3.45495	0.0276396	1.00091
1.28805	3.48259	0	1.00091
1.2881	3.48259	0	1.00091
1.28813	3.49641	0.0276396	1.00091
1.29425	3.52405	0	1.00091
1.29437	3.52405	0	1.00091
1.29452	3.52405	0.0276396	1.00091
1.29476	3.52405	0.0552792	1.00091
1.29495	3.52405	0.0829187	1.00091
1.2952	3.52405	0.110558	1.00091
1.29563	3.52405	0.138198	1.00091
1.29564	3.52405	0.165837	1.00091
1.29565	3.52405	0.165837	1.00091
1.29566	3.55169	0.138198	1.00091
1.29566	3.57933	0.110558	1.00091
1.29567	3.57933	0.110558	1.00091
1.29567	3.57933	0.110558	1.00091
1.29568	3.60697	0.0829187	1.00091
1.29569	3.60697	0.0829187	1.00091
1.2957	3.6346	0.0552792	1.00091
1.29571	3.66224	0.0276396	1.00091
1.29575	3.66224	0.0276396	1.00091
1.29575	3.68988	0	1.00091
1.30263	3.68988	0	1.00091
1.30285	3.68988	0	1.00091
1.30291	3.7037	0.0276396	1.00091
1.30298	3.73134	0	1.00091
1.33333	3.73134	0	1.00091
1.35456	3.73134	0	1.00091
1.35557	3.73134	0	1.00091
1.36425	3.73134	0	1.0919
1.3645	3.73134	0	1.0919
1.36456	3.73134	0.0552792	1.0919
1.36458	3.75898	0.0276396	1.0919
1.36465	3.78662	0	1.0919
1.36508	3.78662	0	1.0919
1.3661	3.78662	0.0276396	1.0919
1.36611	3.78662	0.0552792	1.0919
1.36617	3.81426	0.0276396	1.0919
1.36617	3.8419	0	1.0919
1.39645	3.8419	0	1.0919
1.39669	3.8419	0	1.0919
1.39669	3.85572	0.0276396	1.0919
1.40656	3.88336	0	1.0919
1.4067	3.88336	0	1.0919
1.4067	3.89718	0.0276396	1.0919
1.45041	3.92482	0	1.0919
1.46196	3.92482	0	1.0919
1.46215	3.92482	0	1.0919
1.47626	3.92482	0	1.18289
1.47806	3.92482	0	1.18289
1.50575	3.92482	0	1.27389
1.51827	3.92482	0	1.27389
1.51871	3.92482	0	1.27389
1.51904	3.92482	0.0276396	1.27389
1.51933	3.92482	0.0552792	1.27389
1.52577	3.92482	0.0829187	1.27389
1.55044	3.92482	0.0829187	1.27389
1.55045	3.92482	0.0829187	1.27389
1.55051	3.95246	0.0552792	1.27389
1.55063	3.9801	0.0276396	1.27389
1.55067	3.99392	0.0552792	1.27389
1.55075	4.02156	0.0276396	1.27389
1.55322	4.0492	0	1.27389
1.55323	4.0492	0	1.27389
1.55822	4.0492	0	1.27389
1.55931	4.0492	0	1.27389
1.55941	4.06302	0.0276396	1.27389
1.55947	4.09066	0	1.27389
1.59015	4.09066	0	1.27389
1.59032	4.09066	0	1.27389
1.59061	4.09066	0.0276396	1.27389
1.59092	4.09066	0.0552792	1.27389
1.59096	4.09066	0.0829187	1.27389
1.59113	4.09066	0.110558	1.27389
1.59114	4.10448	0.138198	1.27389
1.59115	4.13212	0.110558	1.27389
1.59115	4.15976	0.0829187	1.27389
1.59117	4.1874	0.0552792	1.27389
1.59127	4.21504	0.0276396	1.27389
1.59322	4.24268	0	1.27389
1.59346	4.24268	0	1.27389
1.60579	4.24268	0.0276396	1.27389
1.60647	4.24268	0.0276396	1.27389
1.60649	4.24268	0.0829187	1.27389
1.60655	4.27032	0.0552792	1.27389
1.63679	4.29795	0.0276396	1.27389
1.63688	4.29795	0.0276396	1.36488
1.64418	4.32559	0	1.36488
1.64536	4.32559	0	1.36488
1.70879	4.32559	0	1.36488
1.71096	4.32559	0	1.45587
1.71115	4.32559	0	1.45587
1.71129	4.33941	0.0276396	1.45587
1.72549	4.36705	0	1.45587
1.72595	4.36705	0	1.45587
1.72598	4.36705	0.0276396	1.45587
1.72598	4.36705	0.0829187	1.45587
1.72598	4.39469	0.0552792	1.45587
1.72609	4.42233	0.0276396	1.45587
1.7467	4.44997	0	1.45587
1.74844	4.44997	0	1.45587
1.74915	4.44997	0	1.45587
1.74952	4.46379	0.0276396	1.45587
1.74955	4.47761	0.0552792	1.45587
1.74957	4.50525	0.0276396	1.45587
1.7588	4.53289	0	1.45587
1.76071	4.53289	0	1.45587
1.76075	4.54671	0.0276396	1.45587
1.76318	4.57435	0	1.45587
1.76377	4.57435	0	1.45587
1.76381	4.58817	0.0276396	1.45587
1.78143	4.61581	0	1.45587
1.78698	4.61581	0	1.54686
1.78751	4.61581	0	1.54686
1.78751	4.62963	0.0276396	1.54686
1.79988	4.65727	0	1.54686
1.79999	4.65727	0	1.54686
1.80007	4.65727	0.0276396	1.54686
1.80025	4.65727	0.0552792	1.54686
1.80081	4.65727	0.0829187	1.54686
1.80117	4.65727	0.110558	1.54686
1.80123	4.65727	0.165837	1.54686
1.80125	4.68491	0.138198	1.54686
1.80128	4.71255	0.110558	1.54686
1.8013	4.74019	0.0829187	1.54686
1.8013	4.76783	0.0552792	1.54686
1.80133	4.79547	0.0276396	1.54686
1.80885	4.82311	0	1.54686
1.81715	4.82311	0	1.63785
1.81782	4.82311	0	1.63785
1.81787	4.83693	0.0276396	1.63785
1.83571	4.86457	0	1.63785
1.83573	4.86457	0	1.63785
1.83583	4.86457	0.0276396	1.63785
1.83587	4.87839	0.0552792	1.63785
1.8359	4.90603	0.0276396	1.63785
1.84446	4.93367	0	1.63785
1.85364	4.93367	0	1.72884
1.85366	4.93367	0	1.72884
1.85387	4.93367	0.0276396	1.72884
1.85388	4.94748	0.0552792	1.72884
1.85392	4.97512	0.0276396	1.72884
1.85392	4.97512	0.0276396	1.72884
1.85392	5.00276	0	1.72884
1.86139	5.00276	0	1.72884
1.86725	5.00276	0	1.72884
1.86728	5.00276	0	1.81984
1.86784	5.00276	0	1.81984
1.86785	5.01658	0.0276396	1.81984
1.89087	5.04422	0	1.81984
1.91085	5.04422	0	1.91083
1.91096	5.04422	0	1.91083
1.91096	5.04422	0.0552792	1.91083
1.91099	5.07186	0.0276396	1.91083
1.9458	5.0995	0	1.91083
1.94714	5.0995	0	1.91083
1.94767	5.0995	0.0276396	1.91083
1.94768	5.0995	0.0552792	1.91083
1.94774	5.12714	0.0276396	1.91083
1.97645	5.15478	0	1.91083
1.97649	5.15478	0	1.91083
1.97685	5.15478	0.0276396	1.91083
1.97687	5.1686	0.0552792	1.91083
1.97707	5.19624	0.0276396	1.91083
2.00899	5.22388	0	1.91083
2.00916	5.22388	0	1.91083
2.00922	5.2377	0.0276396	1.91083
2.0516	5.26534	0	1.91083
2.05244	5.26534	0	1.91083
2.05244	5.26534	0.0276396	1.91083
2.05827	5.29298	0	1.91083
2.05834	5.29298	0	1.91083
2.05845	5.3068	0.0276396	1.91083
2.06874	5.33444	0	1.91083
2.06944	5.33444	0	1.91083
2.06971	5.33444	0.0276396	1.91083
2.06973	5.33444	0.0552792	1.91083
2.0698	5.36208	0.0276396	1.91083
2.09955	5.38972	0	1.91083
2.13137	5.38972	0	2.00182
2.13386	5.38972	0	2.00182
2.13397	5.40354	0.0276396	2.00182
2.16038	5.43118	0	2.00182
2.16064	5.43118	0	2.00182
2.16072	5.445	0.0276396	2.00182
2.16618	5.47264	0	2.00182
2.16643	5.47264	0	2.00182
2.1665	5.48646	0.0276396	2.00182
2.1842	5.5141	0	2.00182
2.18491	5.5141	0	2.00182
2.18495	5.52792	0.0276396	2.00182
2.20973	5.55556	0	2.00182
2.22863	5.55556	0	2.00182
2.22963	5.55556	0	2.00182
2.22967	5.56938	0.0276396	2.00182
2.27262	5.59701	0	2.00182
2.27302	5.59701	0	2.00182
2.27307	5.59701	0.0276396	2.00182
2.27307	5.61083	0.0552792	2.00182
2.27315	5.61083	0.0552792	2.00182
2.27324	5.63847	0.0276396	2.00182
2.27325	5.66611	0	2.00182
2.2983	5.66611	0	2.00182
2.29841	5.66611	0	2.00182
2.29853	5.66611	0.0276396	2.00182
2.29857	5.66611	0.0552792	2.00182
2.29858	5.66611	0.110558	2.00182
2.29858	5.69375	0.0829187	2.00182
2.29859	5.72139	0.0552792	2.00182
2.29859	5.74903	0.0276396	2.00182
2.35375	5.77667	0	2.00182
2.36414	5.77667	0	2.00182
2.36469	5.77667	0	2.00182
2.3647	5.79049	0.0276396	2.00182
2.4215	5.81813	0	2.00182
2.42186	5.81813	0	2.00182
2.42191	5.83195	0.0276396	2.00182
2.4379	5.85959	0	2.00182
2.43794	5.85959	0	2.09281
2.44273	5.85959	0	2.09281
2.44275	5.85959	0	2.09281
2.44277	5.85959	0.0552792	2.09281
2.44277	5.88723	0.0276396	2.09281
2.45841	5.91487	0	2.09281
2.46127	5.91487	0	2.09281
2.4619	5.91487	0	2.09281
2.46191	5.91487	0.0552792	2.09281
2.46195	5.91487	0.0552792	2.09281
2.46222	5.94251	0.0276396	2.09281
2.47544	5.97015	0	2.09281
2.47736	5.97015	0	2.09281
2.47798	5.97015	0	2.09281
2.478	5.98397	0.0276396	2.09281
2.48355	6.01161	0	2.09281
2.48415	6.01161	0	2.09281
2.48492	6.01161	0.0276396	2.09281
2.4854	6.01161	0.0552792	2.09281
2.48542	6.01161	0.110558	2.09281
2.48542	6.03925	0.0829187	2.09281
2.48542	6.06689	0.0552792	2.09281
2.48543	6.09453	0.0276396	2.09281
2.48545	6.09453	0.0276396	2.09281
2.50339	6.12217	0	2.09281
2.50532	6.12217	0	2.09281
2.55395	6.12217	0.0276396	2.09281
2.55416	6.12217	0.0276396	2.09281
2.55459	6.14981	0	2.09281
2.55462	6.16363	0.0276396	2.09281
2.55612	6.19127	0	2.09281
2.55618	6.19127	0	2.09281
2.55629	6.20509	0.0276396	2.09281
2.56442	6.23273	0	2.09281
2.56476	6.23273	0	2.09281
2.56481	6.24655	0.0276396	2.09281
2.56487	6.27418	0	2.09281
2.57285	6.27418	0	2.09281
2.57303	6.27418	0	2.09281
2.57304	6.27418	0.0552792	2.09281
2.57308	6.30182	0.0276396	2.09281
2.58556	6.32946	0	2.09281
2.59363	6.32946	0	2.1838
2.59373	6.32946	0	2.1838
2.59378	6.34328	0.0276396	2.1838
2.59536	6.37092	0	2.1838
2.59651	6.37092	0	2.1838
2.59654	6.37092	0.0276396	2.1838
2.59657	6.38474	0.0552792	2.1838
2.59663	6.41238	0.0276396	2.1838
2.60237	6.44002	0	2.1838
2.60614	6.44002	0	2.2748
2.60739	6.44002	0	2.2748
2.6074	6.45384	0.0276396	2.2748
2.61094	6.48148	0	2.2748
2.611	6.48148	0	2.2748
2.61162	6.48148	0.0276396	2.2748
2.61164	6.4953	0.0552792	2.2748
2.61184	6.52294	0.0276396	2.2748
2.6334	6.55058	0	2.2748
2.63342	6.55058	0	2.2748
2.63343	6.5644	0.0276396	2.2748
2.63761	6.59204	0	2.2748
2.65591	6.59204	0	2.36579
2.65659	6.59204	0	2.36579
2.65659	6.60586	0.0276396	2.36579
2.68523	6.6335	0	2.36579
2.68529	6.6335	0	2.36579
2.68534	6.6335	0.0552792	2.36579
2.68535	6.66114	0.0276396	2.36579
2.69265	6.68878	0	2.36579
2.69298	6.68878	0	2.36579
2.69307	6.7026	0.0276396	2.36579
2.69548	6.73024	0	2.36579
2.69587	6.73024	0	2.36579
2.69587	6.74406	0.0276396	2.36579
2.71345	6.7717	0	2.36579
2.72418	6.7717	0	2.36579
2.72452	6.7717	0	2.36579
2.72458	6.78552	0.0276396	2.36579
2.73574	6.81316	0	2.36579
2.73798	6.81316	0	2.36579
2.73836	6.81316	0	2.36579
2.73842	6.81316	0.0276396	2.36579
2.74003	6.81316	0.0552792	2.36579
2.74004	6.82698	0.0829187	2.36579
2.74007	6.85462	0.0552792	2.36579
2.7401	6.88226	0.0276396	2.36579
2.74847	6.90989	0	2.36579
2.74985	6.90989	0	2.36579
2.74988	6.92371	0.0276396	2.36579
2.76897	6.95135	0	2.36579
2.76911	6.95135	0	2.36579
2.76917	6.96517	0.0276396	2.36579
2.77195	6.99281	0	2.36579
2.79123	6.99281	0	2.36579
2.79464	6.99281	0	2.45678
2.80005	6.99281	0	2.45678
2.80006	6.99281	0	2.45678
2.80127	6.99281	0	2.45678
2.80153	6.99281	0	2.45678
2.80154	7.00663	0.0276396	2.45678
2.82792	7.03427	0	2.45678
2.85903	7.03427	0	2.45678
2.87067	7.03427	0	2.45678
2.87083	7.03427	0	2.45678
2.87083	7.04809	0.0276396	2.45678
2.91805	7.07573	0	2.45678
2.91827	7.07573	0	2.45678
2.91836	7.07573	0.0276396	2.45678
2.94053	7.10337	0	2.45678
2.94105	7.10337	0	2.45678
2.94116	7.11719	0.0276396	2.45678
2.94762	7.14483	0	2.45678
2.94881	7.14483	0	2.45678
3.03156	7.14483	0	2.54777
3.04039	7.14483	0	2.54777
3.05189	7.14483	0	2.54777
3.0519	7.14483	0	2.54777
3.05203	7.14483	0.0276396	2.54777
3.05223	7.14483	0.0552792	2.54777
3.05321	7.14483	0.0829187	2.54777
3.05322	7.15865	0.110558	2.54777
3.05323	7.18629	0.0829187	2.54777
3.05325	7.21393	0.0552792	2.54777
3.05329	7.24157	0.0276396	2.54777
3.05374	7.26921	0	2.54777
3.09526	7.26921	0	2.63876
3.14139	7.26921	0	2.72975
3.14232	7.26921	0	2.72975
3.14233	7.26921	0.0552792	2.72975
3.14241	7.29685	0.0276396	2.72975
3.14242	7.32449	0	2.72975
3.14388	7.32449	0	2.72975
3.144	7.32449	0	2.72975
3.1441	7.33831	0.0276396	2.72975
3.14505	7.36595	0	2.72975
3.14511	7.36595	0	2.72975
3.14558	7.36595	0.0276396	2.72975
3.14559	7.37977	0.0552792	2.72975
3.14569	7.40741	0.0276396	2.72975
3.14919	7.43505	0	2.72975
3.16024	7.43505	0	2.72975
3.16423	7.43505	0	2.82075
3.16439	7.43505	0	2.82075
3.16441	7.44887	0.0276396	2.82075
3.16587	7.47651	0	2.82075
3.16838	7.47651	0	2.91174
3.16864	7.47651	0	2.91174
3.16969	7.47651	0.0276396	2.91174
3.16976	7.49033	0.0552792	2.91174
3.16991	7.51797	0.0276396	2.91174
3.17263	7.54561	0	2.91174
3.17387	7.54561	0	2.91174
3.17446	7.54561	0.0276396	2.91174
3.17447	7.54561	0.0829187	2.91174
3.17451	7.57324	0.0552792	2.91174
3.17452	7.60088	0.0276396	2.91174
3.18948	7.62852	0	2.91174
3.18954	7.62852	0	2.91174
3.19015	7.62852	0.0276396	2.91174
3.19015	7.62852	0.0829187	2.91174
3.19017	7.65616	0.0552792	2.91174
3.19017	7.65616	0.0552792	2.91174
3.19021	7.6838	0.0276396	2.91174
3.19895	7.71144	0	2.91174
3.20027	7.71144	0	2.91174
3.2003	7.71144	0.0552792	2.91174
3.20031	7.73908	0.0276396	2.91174
3.24348	7.76672	0	2.91174
3.25591	7.76672	0	3.00273
3.28312	7.76672	0	3.18471
3.2832	7.76672	0	3.18471
3.28327	7.78054	0.0276396	3.18471
3.30133	7.80818	0	3.18471
3.31909	7.80818	0	3.27571
3.31916	7.80818	0	3.27571
3.31918	7.822	0.0276396	3.27571
3.37345	7.84964	0	3.27571
3.37821	7.84964	0	3.45769
3.39386	7.84964	0	3.45769
3.39396	7.84964	0	3.45769
3.39424	7.84964	0.0276396	3.45769
3.39425	7.86346	0.0552792	3.45769
3.39425	7.8911	0.0276396	3.45769
3.44244	7.91874	0	3.45769
3.44299	7.91874	0	3.45769
3.44315	7.93256	0.0276396	3.45769
3.44505	7.93256	0.0276396	3.45769
3.44507	7.93256	0.0829187	3.45769
3.44507	7.9602	0.0552792	3.45769
3.44518	7.98784	0.0276396	3.45769
3.4452	8.01548	0	3.45769
3.44557	8.01548	0	3.45769
3.44784	8.01548	0.0276396	3.45769
3.44837	8.01548	0.0552792	3.45769
3.44882	8.01548	0.0829187	3.45769
3.44903	8.01548	0.110558	3.45769
3.44977	8.01548	0.138198	3.45769
3.45036	8.01548	0.165837	3.45769
3.45036	8.01548	0.221117	3.45769
3.45036	8.04312	0.193477	3.45769
3.45037	8.04312	0.193477	3.45769
3.45038	8.04312	0.193477	3.45769
3.45038	8.07076	0.165837	3.45769
3.45038	8.0984	0.138198	3.45769
3.45039	8.12604	0.110558	3.45769
3.4504	8.15368	0.0829187	3.45769
3.4504	8.18132	0.0552792	3.45769
3.45041	8.18132	0.0552792	3.45769
3.45043	8.18132	0.0552792	3.45769
3.45044	8.18132	0.0552792	3.45769
3.45045	8.20896	0.0276396	3.45769
3.46404	8.23659	0	3.45769
3.46409	8.23659	0	3.45769
3.46417	8.25041	0.0276396	3.45769
3.46558	8.27805	0	3.45769
3.4673	8.27805	0	3.45769
3.47146	8.27805	0	3.45769
3.47227	8.27805	0	3.54868
3.48491	8.27805	0	3.63967
3.48534	8.27805	0	3.63967
3.48538	8.29187	0.0276396	3.63967
3.48544	8.29187	0.0276396	3.63967
3.48548	8.31951	0	3.63967
3.49525	8.31951	0	3.63967
3.50661	8.31951	0	3.73066
3.5071	8.31951	0	3.73066
3.50711	8.33333	0.0276396	3.73066
3.51342	8.36097	0	3.73066
3.51512	8.36097	0	3.82166
3.52635	8.36097	0	3.82166
3.52707	8.36097	0	3.82166
3.52732	8.36097	0.0276396	3.82166
3.52733	8.37479	0.0552792	3.82166
3.52737	8.40243	0.0276396	3.82166
3.59384	8.43007	0	3.82166
3.62353	8.43007	0	3.82166
3.62397	8.43007	0	3.82166
3.624	8.44389	0.0276396	3.82166
3.62935	8.47153	0	3.82166
3.62953	8.47153	0	3.82166
3.62959	8.48535	0.0276396	3.82166
3.62963	8.51299	0	3.82166
3.63507	8.51299	0	3.82166
3.63979	8.51299	0	4.00364
3.67185	8.51299	0	4.09463
3.67235	8.51299	0	4.09463
3.67235	8.52681	0.0276396	4.09463
3.68416	8.55445	0	4.09463
3.6842	8.55445	0	4.09463
3.68429	8.56827	0.0276396	4.09463
3.70279	8.59591	0	4.09463
3.71282	8.59591	0	4.18562
3.713	8.59591	0	4.18562
3.71305	8.60973	0.0276396	4.18562
3.74059	8.63737	0	4.18562
3.74103	8.63737	0	4.18562
3.74153	8.63737	0.0276396	4.18562
3.74154	8.65119	0.0552792	4.18562
3.74155	8.67883	0.0276396	4.18562
3.74158	8.70647	0	4.18562
3.75171	8.70647	0	4.18562
3.75255	8.70647	0	4.18562
3.75262	8.72029	0.0276396	4.18562
3.79811	8.74793	0	4.18562
3.8137	8.74793	0	4.27662
3.81375	8.74793	0	4.36761
3.81659	8.74793	0	4.36761
3.84993	8.74793	0	4.4586
3.85096	8.74793	0	4.4586
3.85112	8.74793	0	4.54959
3.8512	8.76175	0.0276396	4.54959
3.85492	8.78939	0	4.54959
3.89491	8.78939	0	4.73157
3.89499	8.78939	0	4.73157
3.89504	8.78939	0.0276396	4.73157
3.89505	8.80321	0.0552792	4.73157
3.89507	8.83085	0.0276396	4.73157
3.96459	8.85849	0	4.73157
3.97279	8.85849	0	4.91356
3.9742	8.85849	0	4.91356
3.97422	8.85849	0.0552792	4.91356
3.97424	8.88612	0.0276396	4.91356
4.01111	8.91376	0	4.91356
4.02656	8.91376	0	5.00455
4.02662	8.91376	0	5.00455
4.02718	8.91376	0.0276396	5.00455
4.02721	8.92758	0.0552792	5.00455
4.02722	8.95522	0.0276396	5.00455
4.02774	8.98286	0	5.00455
4.0282	8.98286	0	5.00455
4.03013	8.98286	0.0276396	5.00455
4.03018	8.99668	0.0552792	5.00455
4.03022	9.02432	0.0276396	5.00455
4.04273	9.05196	0	5.00455
4.04451	9.05196	0	5.00455
4.05166	9.05196	0	5.09554
4.06488	9.05196	0	5.27753
4.07057	9.05196	0	5.45951
4.097	9.05196	0	5.45951
4.12803	9.05196	0	5.64149
4.14143	9.05196	0	5.73248
4.15715	9.05196	0	5.91447
4.15718	9.05196	0	5.91447
4.15721	9.06578	0.0276396	5.91447
4.2249	9.09342	0	5.91447
4.22516	9.09342	0	5.91447
4.2252	9.09342	0.0276396	5.91447
4.23357	9.12106	0	5.91447
4.23972	9.12106	0	6.00546
4.23982	9.12106	0	6.00546
4.23982	9.12106	0.0276396	6.00546
4.24344	9.1487	0	6.00546
4.25088	9.1487	0	6.09645
4.251	9.1487	0	6.09645
4.25101	9.1487	0.0552792	6.09645
4.25105	9.17634	0.0276396	6.09645
4.26495	9.20398	0	6.09645
4.28221	9.20398	0	6.09645
4.28224	9.20398	0	6.09645
4.28229	9.2178	0.0276396	6.09645
4.28279	9.24544	0	6.09645
4.28325	9.24544	0	6.09645
4.28387	9.24544	0	6.09645
4.28388	9.25926	0.0276396	6.09645
4.28407	9.25926	0.0276396	6.09645
4.32252	9.2869	0	6.09645
4.32327	9.2869	0	6.09645
4.32327	9.2869	0.0276396	6.09645
4.32351	9.2869	0.0552792	6.09645
4.3703	9.2869	0.0552792	6.18744
4.3703	9.2869	0.0552792	6.18744
4.37031	9.31454	0.0276396	6.18744
4.37035	9.34218	0	6.18744
4.37214	9.34218	0	6.18744
4.37215	9.356	0.0276396	6.18744
4.38097	9.38364	0	6.18744
4.38424	9.38364	0	6.27843
4.42395	9.38364	0	6.36943
4.42423	9.38364	0	6.36943
4.42424	9.38364	0.0276396	6.36943
4.4243	9.39746	0.0552792	6.36943
4.42431	9.4251	0.0276396	6.36943
4.42438	9.45274	0	6.36943
4.4244	9.45274	0	6.36943
4.44397	9.45274	0	6.36943
4.44646	9.45274	0	6.46042
4.45648	9.45274	0	6.6424
4.45676	9.45274	0	6.82439
4.45726	9.45274	0	6.82439
4.45825	9.45274	0.0276396	6.82439
4.45825	9.46656	0.0552792	6.82439
4.45827	9.4942	0.0276396	6.82439
4.49768	9.52184	0	6.82439
4.52256	9.52184	0	6.82439
4.52308	9.52184	0	6.82439
4.52342	9.52184	0.0276396	6.82439
4.52344	9.53566	0.0552792	6.82439
4.52352	9.56329	0.0276396	6.82439
4.53886	9.59093	0	6.82439
4.53922	9.59093	0	6.82439
4.53928	9.60475	0.0276396	6.82439
4.54629	9.63239	0	6.82439
4.54722	9.63239	0	6.82439
4.54725	9.64621	0.0276396	6.82439
4.55968	9.67385	0	6.82439
4.56031	9.67385	0	6.82439
4.56031	9.68767	0.0276396	6.82439
4.60697	9.71531	0	6.82439
4.60735	9.71531	0	6.82439
4.60738	9.72913	0.0276396	6.82439
4.60738	9.72913	0.0276396	6.82439
4.60745	9.75677	0	6.82439
4.6094	9.75677	0	6.82439
4.61374	9.75677	0	7.00637
4.61655	9.75677	0	7.18835
4.61783	9.75677	0	7.18835
4.61792	9.77059	0.0276396	7.18835
4.62197	9.79823	0	7.18835
4.62213	9.79823	0	7.27934
4.63609	9.79823	0	7.27934
4.63617	9.79823	0	7.27934
4.63662	9.79823	0.0276396	7.27934
4.63663	9.81205	0.0552792	7.27934
4.63668	9.83969	0.0276396	7.27934
4.68074	9.86733	0	7.27934
4.68076	9.86733	0	7.27934
4.68119	9.86733	0.0276396	7.27934
4.68131	9.86733	0.0552792	7.27934
4.68143	9.86733	0.0829187	7.27934
4.68163	9.86733	0.110558	7.27934
4.68229	9.86733	0.138198	7.27934
4.6823	9.88115	0.165837	7.27934
4.68233	9.90879	0.138198	7.27934
4.68233	9.93643	0.110558	7.27934
4.68234	9.96407	0.0829187	7.27934
4.68235	9.99171	0.0552792	7.27934
4.68235	10.0193	0.0276396	7.27934
4.68237	10.047	0	7.27934
4.72224	10.047	0	7.27934
4.73871	10.047	0	7.37034
4.76878	10.047	0	7.46133
4.77495	10.047	0	7.55232
4.77515	10.047	0	7.55232
4.7752	10.0608	0.0276396	7.55232
4.77917	10.0884	0	7.55232
4.78881	10.0884	0	7.7343
4.78922	10.0884	0	7.7343
4.78926	10.1023	0.0276396	7.7343
4.82029	10.1299	0	7.7343
4.82065	10.1299	0	7.7343
4.82069	10.1299	0.0552792	7.7343
4.82069	10.1575	0.0276396	7.7343
4.82379	10.1852	0	7.7343
4.8762	10.1852	0	7.8253
4.87632	10.1852	0	7.8253
4.8764	10.199	0.0276396	7.8253
4.90104	10.2266	0	7.8253
4.90226	10.2266	0	7.8253
4.90228	10.2266	0.0552792	7.8253
4.90235	10.2543	0.0276396	7.8253
4.90325	10.2819	0	7.8253
4.90356	10.2819	0	7.8253
4.9045	10.2819	0.0276396	7.8253
4.90638	10.2819	0.0552792	7.8253
4.90651	10.2819	0.0829187	7.8253
4.90658	10.2819	0.110558	7.8253
4.90679	10.2819	0.110558	7.8253
4.90754	10.2819	0.138198	7.8253
4.90763	10.2819	0.165837	7.8253
4.90765	10.2957	0.193477	7.8253
4.9078	10.3234	0.165837	7.8253
4.90787	10.3234	0.193477	7.8253
4.92072	10.3234	0.221117	7.8253
4.92124	10.3234	0.221117	7.8253
4.92125	10.3234	0.276396	7.8253
4.92126	10.351	0.248756	7.8253
4.94098	10.3787	0.221117	7.8253
4.97082	10.3787	0.221117	7.91629
4.97083	10.3787	0.221117	7.91629
4.97083	10.4063	0.193477	7.91629
4.97085	10.4339	0.165837	7.91629
4.97086	10.4616	0.138198	7.91629
4.97086	10.4616	0.138198	7.91629
4.97087	10.4616	0.138198	7.91629
4.97088	10.4892	0.110558	7.91629
4.97088	10.5169	0.0829187	7.91629
4.97092	10.5445	0.0552792	7.91629
4.97099	10.5721	0.0276396	7.91629
4.97099	10.5998	0	7.91629
4.97105	10.5998	0	7.91629
4.97106	10.6136	0.0276396	7.91629
4.97157	10.6412	0	7.91629
4.9772	10.6412	0	7.91629
4.97759	10.6412	0	7.91629
4.97761	10.6412	0.0552792	7.91629
4.97773	10.6689	0.0276396	7.91629
4.98195	10.6965	0	7.91629
5.00202	10.6965	0	7.91629
5.00302	10.6965	0	7.91629
5.00311	10.7103	0.0276396	7.91629
5.08371	10.738	0	7.91629
5.08418	10.738	0	7.91629
5.0842	10.738	0	7.91629
5.08421	10.738	0.0552792	7.91629
5.08422	10.7656	0.0276396	7.91629
5.08437	10.7933	0	7.91629
5.08437	10.7933	0.0552792	7.91629
5.08441	10.8209	0.0276396	7.91629
5.12448	10.8485	0	7.91629
5.12776	10.8485	0	7.91629
5.12786	10.8624	0.0276396	7.91629
5.14211	10.89	0	7.91629
5.14214	10.89	0	8.09827
5.143	10.89	0	8.09827
5.14312	10.9038	0.0276396	8.09827
5.16323	10.9315	0	8.09827
5.19431	10.9315	0	8.09827
5.21405	10.9315	0	8.28025
5.21999	10.9315	0	8.46224
5.22433	10.9315	0	8.46224
5.22465	10.9315	0	8.46224
5.22472	10.9315	0.0552792	8.46224
5.22474	10.9591	0.0276396	8.46224
5.25697	10.9867	0	8.46224
5.25702	10.9867	0	8.46224
5.25703	10.9867	0.0552792	8.46224
5.25712	11.0144	0.0276396	8.46224
5.34049	11.042	0	8.46224
5.34088	11.042	0	8.46224
5.3409	11.042	0.0552792	8.46224
5.34105	11.0697	0.0276396	8.46224
5.35381	11.0973	0	8.46224
5.35665	11.0973	0	8.55323
5.35713	11.0973	0	8.55323
5.35803	11.0973	0.0276396	8.55323
5.35842	11.0973	0.0552792	8.55323
5.35891	11.0973	0.0829187	8.55323
5.36013	11.0973	0.110558	8.55323
5.37903	11.0973	0.138198	8.55323
5.37904	11.0973	0.138198	8.55323
5.37906	11.1249	0.110558	8.55323
5.37906	11.1526	0.0829187	8.55323
5.37908	11.1802	0.0552792	8.55323
5.37908	11.2078	0.0276396	8.55323
5.41	11.2355	0	8.55323
5.41007	11.2355	0	8.55323
5.43323	11.2355	0.0276396	8.55323
5.43361	11.2355	0.0276396	8.55323
5.43362	11.2493	0.0552792	8.55323
5.45765	11.2769	0.0276396	8.55323
5.4578	11.2769	0.0276396	8.64422
5.47037	11.3046	0	8.64422
5.4705	11.3046	0	8.64422
5.47149	11.3046	0.0276396	8.64422
5.4723	11.3046	0.0552792	8.64422
5.47311	11.3046	0.0829187	8.64422
5.47376	11.3046	0.110558	8.64422
5.47379	11.3046	0.138198	8.64422
5.47437	11.3046	0.165837	8.64422
5.47446	11.3046	0.193477	8.64422
5.55712	11.3046	0.221117	8.64422
5.55713	11.3046	0.221117	8.64422
5.55713	11.3322	0.193477	8.64422
5.55713	11.3599	0.165837	8.64422
5.55714	11.3875	0.138198	8.64422
5.55715	11.4151	0.110558	8.64422
5.55715	11.4428	0.0829187	8.64422
5.55716	11.4704	0.0552792	8.64422
5.55717	11.4981	0.0276396	8.64422
5.55723	11.4981	0.0276396	8.64422
5.56484	11.5257	0	8.64422
5.56695	11.5257	0	8.73521
5.56703	11.5257	0	8.73521
5.56706	11.5395	0.0276396	8.73521
5.56765	11.5672	0	8.73521
5.56769	11.5672	0	8.73521
5.56821	11.5672	0.0276396	8.73521
5.56829	11.581	0.0552792	8.73521
5.56832	11.6086	0.0276396	8.73521
5.59316	11.6363	0	8.73521
5.59383	11.6363	0	8.73521
5.59397	11.6501	0.0276396	8.73521
5.59401	11.6777	0	8.73521
5.59426	11.6777	0	8.73521
5.59429	11.6915	0.0276396	8.73521
5.63705	11.7192	0	8.73521
5.66564	11.7192	0	8.82621
5.66628	11.7192	0	8.82621
5.66629	11.733	0.0276396	8.82621
5.67527	11.7606	0	8.82621
5.67555	11.7606	0	8.82621
5.67755	11.7606	0.0276396	8.82621
5.67758	11.7745	0.0552792	8.82621
5.67759	11.8021	0.0276396	8.82621
5.72308	11.8297	0	8.82621
5.78308	11.8297	0	8.9172
5.78312	11.8297	0	8.9172
5.78313	11.8436	0.0276396	8.9172
5.81213	11.8712	0	8.9172
5.81276	11.8712	0	8.9172
5.81278	11.885	0.0276396	8.9172
5.81737	11.9127	0	8.9172
5.91074	11.9127	0	9.00819
5.91093	11.9127	0	9.00819
5.91094	11.9127	0.0552792	9.00819
5.91103	11.9403	0.0276396	9.00819
5.92313	11.9679	0	9.00819
5.92402	11.9679	0	9.00819
5.92408	11.9818	0.0276396	9.00819
5.92581	12.0094	0	9.00819
5.95503	12.0094	0	9.09918
5.96026	12.0094	0	9.28116
5.97443	12.0094	0	9.46315
5.98373	12.0094	0	9.55414
5.98421	12.0094	0	9.55414
5.98425	12.0232	0.0276396	9.55414
5.98484	12.0509	0	9.55414
5.98521	12.0509	0	9.55414
5.98566	12.0509	0.0276396	9.55414
5.98568	12.0647	0.0552792	9.55414
5.98572	12.0923	0.0276396	9.55414
5.98669	12.12	0	9.55414
5.98671	12.12	0	9.55414
5.98698	12.12	0.0276396	9.55414
5.9874	12.12	0.0552792	9.55414
5.98789	12.12	0.0829187	9.55414
5.98807	12.12	0.110558	9.55414
5.98919	12.12	0.138198	9.55414
6.00991	12.12	0.138198	9.64513
6.01148	12.12	0.138198	9.64513
6.01158	12.1338	0.165837	9.64513
6.01253	12.1614	0.138198	9.64513
6.01261	12.1614	0.138198	9.64513
6.01277	12.1614	0.165837	9.64513
6.01278	12.1752	0.193477	9.64513
6.01279	12.2029	0.165837	9.64513
6.10003	12.2305	0.138198	9.64513
6.10004	12.2305	0.138198	9.64513
6.10004	12.2582	0.110558	9.64513
6.10005	12.2858	0.0829187	9.64513
6.10005	12.3134	0.0552792	9.64513
6.10008	12.3411	0.0276396	9.64513
6.10044	12.3687	0	9.64513
6.10141	12.3687	0.0276396	9.64513
6.10166	12.3687	0.0552792	9.64513
6.10178	12.3687	0.0829187	9.64513
6.10197	12.3687	0.110558	9.64513
6.10197	12.3687	0.138198	9.64513
6.10198	12.3964	0.110558	9.64513
6.10198	12.424	0.0829187	9.64513
6.10201	12.424	0.0829187	9.64513
6.10202	12.4516	0.0552792	9.64513
6.10206	12.4793	0.0276396	9.64513
6.11971	12.5069	0	9.64513
6.15199	12.5069	0	9.64513
6.15222	12.5069	0	9.64513
6.15225	12.5207	0.0276396	9.64513
6.15275	12.5484	0	9.64513
6.15321	12.5484	0	9.64513
6.15321	12.5484	0	9.73612
6.15328	12.5622	0.0276396	9.73612
6.16255	12.5898	0	9.73612
6.16302	12.5898	0	9.73612
6.16337	12.5898	0.0276396	9.73612
6.1634	12.6036	0.0552792	9.73612
6.16349	12.6313	0.0276396	9.73612
6.1667	12.6589	0	9.73612
6.16808	12.6589	0	9.73612
6.16814	12.6589	0.0552792	9.73612
6.16815	12.6866	0.0276396	9.73612
6.18685	12.7142	0	9.73612
6.18727	12.7142	0	9.73612
6.18732	12.728	0.0276396	9.73612
6.20834	12.7557	0	9.73612
6.20919	12.7557	0	9.73612
6.20942	12.7557	0.0276396	9.73612
6.20943	12.7695	0.0552792	9.73612
6.20952	12.7971	0.0276396	9.73612
6.27438	12.8248	0	9.73612
6.27481	12.8248	0	9.73612
6.32355	12.8248	0.0276396	9.73612
6.32356	12.8248	0.0276396	9.73612
6.32524	12.8524	0	9.73612
6.32532	12.8662	0.0276396	9.73612
6.34017	12.8939	0	9.73612
6.34028	12.8939	0	9.73612
6.34028	12.9077	0.0276396	9.73612
6.38491	12.9353	0	9.73612
6.39206	12.9353	0	9.82712
6.39321	12.9353	0	9.82712
6.39344	12.9353	0.0276396	9.82712
6.39346	12.9491	0.0552792	9.82712
6.39355	12.9768	0.0276396	9.82712
6.40006	13.0044	0	9.82712
6.43458	13.0044	0	9.91811
6.4686	13.0044	0	10.0091
6.47851	13.0044	0	10.1911
6.4888	13.0044	0	10.2821
6.48949	13.0044	0	10.2821
6.48951	13.0182	0.0276396	10.2821
6.52252	13.0459	0	10.2821
6.52313	13.0459	0	10.2821
6.52317	13.0597	0.0276396	10.2821
6.52601	13.0873	0	10.2821
6.53142	13.0873	0	10.3731
6.53733	13.0873	0	10.5551
6.53742	13.0873	0	10.5551
6.53818	13.0873	0.0276396	10.5551
6.53873	13.0873	0.0552792	10.5551
6.53875	13.0873	0.0829187	10.5551
6.55352	13.0873	0.110558	10.5551
6.5617	13.0873	0.110558	10.5551
6.56174	13.0873	0.110558	10.5551
6.56176	13.115	0.0829187	10.5551
6.56177	13.1426	0.0552792	10.5551
6.56177	13.1703	0.0276396	10.5551
6.56178	13.1979	0	10.5551
6.56185	13.1979	0	10.5551
6.5822	13.1979	0	10.5551
6.59941	13.1979	0	10.646
6.6	13.1979	0	10.737
6.6001	13.1979	0	10.737
6.60015	13.2117	0.0276396	10.737
6.63072	13.2394	0	10.737
6.63097	13.2394	0	10.737
6.63097	13.2532	0.0276396	10.737
6.71439	13.2808	0	10.737
6.71506	13.2808	0	10.737
6.71511	13.2946	0.0276396	10.737
6.72121	13.3223	0	10.737
6.72131	13.3223	0	10.737
6.72201	13.3223	0.0276396	10.737
6.72207	13.3223	0.0552792	10.737
6.72207	13.3361	0.0829187	10.737
6.72208	13.3637	0.0552792	10.737
6.72212	13.3914	0.0276396	10.737
6.76609	13.419	0	10.737
6.77833	13.419	0	10.828
6.77855	13.419	0	10.828
6.77855	13.419	0.0552792	10.828
6.77857	13.4467	0.0276396	10.828
6.79905	13.4743	0	10.828
6.79926	13.4743	0	10.828
6.79928	13.4881	0.0276396	10.828
6.81174	13.5158	0	10.828
6.81259	13.5158	0	10.828
6.81309	13.5158	0.0276396	10.828
6.8131	13.5296	0.0552792	10.828
6.81311	13.5572	0.0276396	10.828
6.85503	13.5849	0	10.828
6.86104	13.5849	0	10.919
6.86105	13.5849	0	10.919
6.86105	13.5849	0.0276396	10.919
6.86107	13.5987	0.0552792	10.919
6.86108	13.6263	0.0276396	10.919
6.86488	13.654	0	10.919
6.86573	13.654	0	10.919
6.86578	13.6678	0.0276396	10.919
6.86579	13.6954	0	10.919
6.87664	13.6954	0	10.919
6.88891	13.6954	0	11.01
6.88907	13.6954	0	11.01
6.88909	13.6954	0.0552792	11.01
6.88926	13.7231	0.0276396	11.01
6.89404	13.7507	0	11.01
6.89893	13.7507	0	11.01
6.92355	13.7507	0	11.101
6.92355	13.7507	0	11.101
6.92415	13.7507	0.0276396	11.101
6.92417	13.7645	0.0552792	11.101
6.92417	13.7922	0.0276396	11.101
6.94951	13.8198	0	11.101
7.00673	13.8198	0	11.101
7.05728	13.8198	0	11.192
7.0573	13.8198	0	11.192
7.05733	13.8336	0.0276396	11.192
7.08009	13.8612	0	11.192
7.09546	13.8612	0	11.283
7.09585	13.8612	0	11.283
7.09587	13.8751	0.0276396	11.283
7.15002	13.9027	0	11.283
7.15047	13.9027	0	11.283
7.15048	13.9027	0.0552792	11.283
7.15051	13.9303	0.0276396	11.283
7.1959	13.958	0	11.283
7.2057	13.958	0	11.374
7.20671	13.958	0	11.374
7.20686	13.9718	0.0276396	11.374
7.24648	13.9994	0	11.374
7.2472	13.9994	0	11.374
7.24723	14.0133	0.0276396	11.374
7.25474	14.0409	0	11.374
7.25583	14.0409	0	11.374
7.25587	14.0409	0.0552792	11.374
7.25604	14.0685	0.0276396	11.374
7.28573	14.0962	0	11.374
7.28635	14.0962	0	11.374
7.30807	14.0962	0.0276396	11.374
7.30809	14.0962	0.0276396	11.374
7.30812	14.1238	0	11.374
7.30828	14.1238	0.0276396	11.374
7.30829	14.1238	0.0829187	11.374
7.3083	14.1238	0.0829187	11.374
7.30831	14.1238	0.0829187	11.374
7.30836	14.1515	0.0552792	11.374
7.30838	14.1791	0.0276396	11.374
7.32509	14.2067	0	11.374
7.38392	14.2067	0	11.556
7.40746	14.2067	0	11.647
7.40877	14.2067	0	11.647
7.40889	14.2206	0.0276396	11.647
7.42315	14.2482	0	11.647
7.42343	14.2482	0	11.647
7.42343	14.2482	0.0552792	11.647
7.42343	14.2758	0.0276396	11.647
7.44629	14.3035	0	11.647
7.44755	14.3035	0	11.647
7.44767	14.3173	0.0276396	11.647
7.46482	14.3449	0	11.647
7.465	14.3449	0	11.647
7.46508	14.3588	0.0276396	11.647
7.48604	14.3864	0	11.647
7.57591	14.3864	0	11.7379
7.57619	14.3864	0	11.7379
7.57619	14.3864	0.0552792	11.7379
7.5762	14.414	0.0276396	11.7379
7.58595	14.4417	0	11.7379
7.60105	14.4417	0	11.7379
7.60105	14.4417	0	11.7379
7.6012	14.4555	0.0276396	11.7379
7.62999	14.4831	0	11.7379
7.63015	14.4831	0	11.7379
7.63017	14.497	0.0276396	11.7379
7.6911	14.5246	0	11.7379
7.69126	14.5246	0	11.7379
7.69162	14.5246	0.0276396	11.7379
7.69162	14.5384	0.0552792	11.7379
7.69164	14.5661	0.0276396	11.7379
7.69174	14.5937	0	11.7379
7.69179	14.5937	0	11.7379
7.71397	14.5937	0	11.7379
7.71711	14.5937	0	11.8289
7.72059	14.5937	0	11.9199
7.72061	14.5937	0	11.9199
7.72092	14.5937	0.0276396	11.9199
7.72092	14.6075	0.0552792	11.9199
7.72101	14.6352	0.0276396	11.9199
7.73006	14.6628	0	11.9199
7.74366	14.6628	0	12.0109
7.74397	14.6628	0	12.0109
7.74426	14.6628	0	12.0109
7.74432	14.6628	0.0276396	12.0109
7.74473	14.6628	0.0552792	12.0109
7.74477	14.6766	0.0829187	12.0109
7.74481	14.7043	0.0552792	12.0109
7.74644	14.7319	0.0276396	12.0109
7.74652	14.7319	0.0552792	12.0109
7.81474	14.7319	0.0829187	12.0109
7.81476	14.7319	0.0829187	12.0109
7.81476	14.7595	0.0552792	12.0109
7.81477	14.7595	0.0552792	12.0109
7.81477	14.7872	0.0276396	12.0109
7.81596	14.8148	0	12.0109
7.81598	14.8286	0.0276396	12.0109
7.82649	14.8563	0	12.0109
7.82665	14.8563	0	12.1019
7.85713	14.8563	0	12.1929
7.92282	14.8563	0	12.3749
7.9229	14.8563	0	12.3749
7.92299	14.8701	0.0276396	12.3749
7.9792	14.8977	0	12.3749
7.98765	14.8977	0	12.4659
7.98768	14.8977	0	12.4659
7.98772	14.9116	0.0276396	12.4659
7.98822	14.9392	0	12.4659
7.98824	14.9392	0	12.4659
7.9883	14.953	0.0276396	12.4659
8.00216	14.9807	0	12.4659
8.00251	14.9807	0	12.4659
8.00252	14.9807	0.0552792	12.4659
8.00253	15.0083	0.0276396	12.4659
8.01771	15.0359	0	12.4659
8.04983	15.0359	0	12.5569
8.05029	15.0359	0	12.5569
8.05061	15.0359	0.0276396	12.5569
8.05063	15.0498	0.0552792	12.5569
8.05073	15.0774	0.0276396	12.5569
8.05243	15.105	0	12.5569
8.05276	15.105	0	12.5569
8.05278	15.1189	0.0276396	12.5569
8.06913	15.1465	0	12.5569
8.06914	15.1465	0	12.5569
8.12052	15.1465	0.0276396	12.5569
8.12053	15.1465	0.0276396	12.5569
8.12083	15.1741	0	12.5569
8.12084	15.1879	0.0276396	12.5569
8.1427	15.2156	0	12.5569
8.14335	15.2156	0	12.5569
8.14336	15.2156	0.0552792	12.5569
8.14342	15.2432	0.0276396	12.5569
8.14499	15.2709	0	12.5569
8.17736	15.2709	0	12.6479
8.17745	15.2709	0	12.6479
8.17769	15.2709	0	12.6479
8.17771	15.2847	0.0276396	12.6479
8.17828	15.3123	0	12.6479
8.17858	15.3123	0.0276396	12.6479
8.17861	15.3261	0.0552792	12.6479
8.17864	15.3538	0.0276396	12.6479
8.18428	15.3814	0	12.6479
8.1911	15.3814	0	12.8298
8.19127	15.3814	0	12.8298
8.19135	15.3952	0.0276396	12.8298
8.22663	15.4229	0	12.8298
8.22663	15.4229	0	12.8298
8.22667	15.4229	0.0276396	12.8298
8.2295	15.4229	0.0552792	12.8298
8.22964	15.4229	0.0829187	12.8298
8.26944	15.4229	0.110558	12.8298
8.26946	15.4229	0.110558	12.8298
8.26946	15.4505	0.0829187	12.8298
8.26947	15.4782	0.0552792	12.8298
8.26953	15.5058	0.0276396	12.8298
8.27041	15.5334	0	12.8298
8.27141	15.5334	0.0276396	12.8298
8.27141	15.5473	0.0552792	12.8298
8.27142	15.5749	0.0276396	12.8298
8.2915	15.6025	0	12.8298
8.31805	15.6025	0	12.9208
8.31826	15.6025	0	12.9208
8.31835	15.6164	0.0276396	12.9208
8.33198	15.644	0	12.9208
8.33289	15.644	0	12.9208
8.33301	15.6578	0.0276396	12.9208
8.3338	15.6855	0	12.9208
8.3834	15.6855	0	13.0118
8.38341	15.6855	0	13.0118
8.38383	15.6855	0.0276396	13.0118
8.38383	15.6993	0.0552792	13.0118
8.38385	15.7269	0.0276396	13.0118
8.39243	15.7546	0	13.0118
8.39275	15.7546	0	13.0118
8.39275	15.7684	0.0276396	13.0118
8.41705	15.796	0	13.0118
8.41725	15.796	0	13.0118
8.41798	15.796	0	13.0118
8.41804	15.8098	0.0276396	13.0118
8.4181	15.8375	0	13.0118
8.41818	15.8513	0.0276396	13.0118
8.42028	15.8789	0	13.0118
8.42088	15.8789	0	13.0118
8.42093	15.8928	0.0276396	13.0118
8.42922	15.9204	0	13.0118
8.43036	15.9204	0	13.0118
8.43075	15.9204	0.0276396	13.0118
8.43075	15.9342	0.0552792	13.0118
8.43079	15.9619	0.0276396	13.0118
8.47106	15.9895	0	13.0118
8.47163	15.9895	0	13.0118
8.47234	15.9895	0.0276396	13.0118
8.47235	16.0033	0.0552792	13.0118
8.47236	16.031	0.0276396	13.0118
8.49664	16.0586	0	13.0118
8.52119	16.0586	0	13.1028
8.52148	16.0586	0	13.1028
8.5216	16.0724	0.0276396	13.1028
8.54425	16.1001	0	13.1028
8.54541	16.1001	0	13.1028
8.54545	16.1139	0.0276396	13.1028
8.62173	16.1415	0	13.1028
8.62239	16.1415	0	13.1028
8.62298	16.1415	0.0276396	13.1028
8.623	16.1553	0.0552792	13.1028
8.62307	16.183	0.0276396	13.1028
8.63215	16.2106	0	13.1028
8.63217	16.2106	0	13.1028
8.63217	16.2244	0.0276396	13.1028
8.66094	16.2521	0	13.1028
8.67886	16.2521	0	13.1028
8.67892	16.2521	0	13.1028
8.7151	16.2521	0	13.1028
8.71584	16.2521	0	13.1028
8.71594	16.2659	0.0276396	13.1028
8.7189	16.2935	0	13.1028
8.72017	16.2935	0	13.1028
8.72019	16.3074	0.0276396	13.1028
8.73244	16.335	0	13.1028
8.73253	16.335	0	13.1028
8.73256	16.335	0.0276396	13.1028
8.73394	16.335	0.0552792	13.1028
8.73394	16.335	0.110558	13.1028
8.73395	16.3626	0.0829187	13.1028
8.73397	16.3903	0.0552792	13.1028
8.73398	16.4179	0.0276396	13.1028
8.75536	16.4456	0	13.1028
8.7556	16.4456	0	13.1028
8.7556	16.4456	0.0276396	13.1028
8.78487	16.4732	0	13.1028
8.78497	16.4732	0	13.1028
8.78498	16.4732	0.0552792	13.1028
8.78503	16.5008	0.0276396	13.1028
8.8135	16.5285	0	13.1028
8.81485	16.5285	0	13.1028
8.81485	16.5285	0.0552792	13.1028
8.81486	16.5561	0.0276396	13.1028
8.86579	16.5837	0	13.1028
8.86652	16.5837	0	13.1028
8.86677	16.5837	0.0276396	13.1028
8.86717	16.5837	0.0552792	13.1028
8.86718	16.5976	0.0829187	13.1028
8.86722	16.6252	0.0552792	13.1028
8.86724	16.6528	0.0276396	13.1028
8.87531	16.6805	0	13.1028
8.88613	16.6805	0	13.1028
8.8862	16.6805	0	13.1028
8.88639	16.6805	0.0276396	13.1028
8.92506	16.7081	0	13.1028
8.92649	16.7081	0	13.1028
8.92675	16.7081	0.0276396	13.1028
8.92679	16.7219	0.0552792	13.1028
8.92684	16.7496	0.0276396	13.1028
8.93698	16.7772	0	13.1028
8.98385	16.7772	0	13.2848
9.01569	16.7772	0	13.4668
9.06505	16.7772	0	13.6488
9.06514	16.7772	0	13.6488
9.06523	16.791	0.0276396	13.6488
9.10592	16.8187	0	13.6488
9.10651	16.8187	0	13.6488
9.10654	16.8325	0.0276396	13.6488
9.14035	16.8601	0	13.6488
9.14148	16.8601	0	13.6488
9.14153	16.874	0.0276396	13.6488
9.16789	16.9016	0	13.6488
9.17804	16.9016	0	13.7398
9.17814	16.9016	0	13.7398
9.17817	16.9154	0.0276396	13.7398
9.23454	16.9431	0	13.7398
9.23481	16.9431	0	13.7398
9.23534	16.9431	0.0276396	13.7398
9.23626	16.9431	0.0552792	13.7398
9.27098	16.9431	0.0829187	13.7398
9.27102	16.9431	0.0829187	13.8308
9.27102	16.9707	0.0552792	13.8308
9.27103	16.9983	0.0276396	13.8308
9.30105	17.026	0	13.8308
9.30148	17.026	0	13.8308
9.30156	17.026	0.0276396	13.8308
9.34567	17.0536	0	13.8308
9.34837	17.0536	0	13.9217
9.3583	17.0536	0	14.1037
9.35856	17.0536	0	14.1037
9.35867	17.0674	0.0276396	14.1037
9.37678	17.0951	0	14.1037
9.39851	17.0951	0	14.2857
9.39864	17.0951	0	14.2857
9.39875	17.0951	0.0276396	14.2857
9.39877	17.1089	0.0552792	14.2857
9.39877	17.1365	0.0276396	14.2857
9.43892	17.1642	0	14.2857
9.43918	17.1642	0	14.2857
9.43919	17.1642	0.0552792	14.2857
9.43921	17.1918	0.0276396	14.2857
9.50336	17.2195	0	14.2857
9.5113	17.2195	0	14.4677
9.51191	17.2195	0	14.4677
9.51221	17.2195	0.0276396	14.4677
9.51223	17.2333	0.0552792	14.4677
9.51227	17.2609	0.0276396	14.4677
9.53355	17.2886	0	14.4677
9.53404	17.2886	0	14.4677
9.53414	17.3024	0.0276396	14.4677
9.54066	17.33	0	14.4677
9.54083	17.33	0	14.4677
9.54173	17.33	0	14.6497
9.54175	17.3438	0.0276396	14.6497
9.55132	17.3715	0	14.6497
9.55142	17.3715	0	14.6497
9.55142	17.3715	0.0552792	14.6497
9.55149	17.3991	0.0276396	14.6497
9.56666	17.4268	0	14.6497
9.56811	17.4268	0	14.6497
9.56815	17.4406	0.0276396	14.6497
9.5877	17.4682	0	14.6497
9.63778	17.4682	0	14.6497
9.63834	17.4682	0	14.6497
9.63843	17.482	0.0276396	14.6497
9.67773	17.5097	0	14.6497
9.67845	17.5097	0	14.6497
9.6785	17.5097	0.0552792	14.6497
9.67851	17.5373	0.0276396	14.6497
9.70006	17.565	0	14.6497
9.70018	17.565	0	14.6497
9.70021	17.5788	0.0276396	14.6497
9.73945	17.6064	0	14.6497
9.73987	17.6064	0	14.6497
9.7399	17.6202	0.0276396	14.6497
9.76554	17.6479	0	14.6497
9.788	17.6479	0	14.8317
9.78833	17.6479	0	14.8317
9.78833	17.6617	0.0276396	14.8317
9.80577	17.6893	0	14.8317
9.80715	17.6893	0	14.8317
9.80717	17.7032	0.0276396	14.8317
9.81445	17.7308	0	14.8317
9.81579	17.7308	0	14.8317
9.81582	17.7446	0.0276396	14.8317
9.83656	17.7722	0	14.8317
9.83683	17.7722	0	14.8317
9.83684	17.7722	0.0552792	14.8317
9.83687	17.7999	0.0276396	14.8317
9.8703	17.8275	0	14.8317
9.87031	17.8275	0	14.9227
9.88255	17.8275	0	15.1046
9.91942	17.8275	0	15.1956
9.9205	17.8275	0	15.1956
9.92095	17.8275	0	15.3776
9.92104	17.8413	0.0276396	15.3776
9.92399	17.869	0	15.3776
9.92421	17.869	0	15.3776
9.92431	17.869	0.0552792	15.3776
9.92439	17.8966	0.0276396	15.3776
9.93114	17.9243	0	15.3776
9.93185	17.9243	0	15.3776
9.9325	17.9243	0.0276396	15.3776
9.9325	17.9381	0.0552792	15.3776
9.93253	17.9657	0.0276396	15.3776
9.94038	17.9934	0	15.3776
10.0218	17.9934	0	15.5596
10.0222	17.9934	0	15.5596
10.0225	18.0072	0.0276396	15.5596
10.078	18.0348	0	15.5596
10.0782	18.0348	0	15.5596
10.0782	18.0486	0.0276396	15.5596
10.1089	18.0763	0	15.5596
10.1102	18.0763	0	15.5596
10.1102	18.0901	0.0276396	15.5596
10.1635	18.1177	0	15.5596
10.2183	18.1177	0	15.7416
10.2196	18.1177	0	15.7416
10.2197	18.1316	0.0276396	15.7416
10.354	18.1592	0	15.7416
10.4212	18.1592	0	15.9236
10.422	18.1592	0	15.9236
10.422	18.173	0.0276396	15.9236
10.4669	18.2007	0	15.9236
10.4759	18.2007	0	16.0146
10.476	18.2007	0	16.0146
10.4761	18.2145	0.0276396	16.0146
10.4945	18.2421	0	16.0146
10.4946	18.2421	0	16.0146
10.4946	18.2421	0.0552792	16.0146
10.4949	18.2698	0.0276396	16.0146
10.5115	18.2974	0	16.0146
10.512	18.2974	0	16.0146
10.5121	18.3112	0.0276396	16.0146
10.5191	18.3389	0	16.0146
10.5193	18.3389	0	16.0146
10.5195	18.3389	0.0276396	16.0146
10.5195	18.3527	0.0552792	16.0146
10.5196	18.3803	0.0276396	16.0146
10.5661	18.408	0	16.0146
10.5662	18.408	0	16.0146
10.5663	18.4218	0.0276396	16.0146
10.5675	18.4494	0	16.0146
10.5867	18.4494	0	16.1056
10.5872	18.4494	0	16.1056
10.5873	18.4494	0.0552792	16.1056
10.5874	18.4771	0.0276396	16.1056
10.5935	18.5047	0	16.1056
10.5943	18.5047	0	16.1056
10.5944	18.5185	0.0276396	16.1056
10.6036	18.5462	0	16.1056
10.6043	18.5462	0	16.1056
10.6044	18.56	0.0276396	16.1056
10.6163	18.5876	0	16.1056
10.654	18.5876	0	16.1056
10.6541	18.5876	0	16.1056
10.6541	18.5876	0.0276396	16.1056
10.6766	18.6153	0	16.1056
10.6772	18.6153	0	16.1056
10.6772	18.6291	0.0276396	16.1056
10.6812	18.6567	0	16.1056
10.6869	18.6567	0	16.2875
10.6872	18.6567	0	16.2875
10.6872	18.6567	0.0552792	16.2875
10.6872	18.6844	0.0276396	16.2875
10.7377	18.712	0	16.2875
10.738	18.712	0	16.2875
10.7393	18.712	0.0276396	16.2875
10.7393	18.7258	0.0552792	16.2875
10.7394	18.7535	0.0276396	16.2875
10.8104	18.7811	0	16.2875
10.8106	18.7811	0	16.2875
10.8106	18.7949	0.0276396	16.2875
10.8194	18.8226	0	16.2875
10.8613	18.8226	0	16.3785
10.8619	18.8226	0	16.3785
10.8619	18.8226	0.0552792	16.3785
10.862	18.8502	0.0276396	16.3785
10.8675	18.8778	0	16.3785
10.8762	18.8778	0	16.5605
10.9101	18.8778	0	16.6515
10.9104	18.8778	0	16.6515
10.9105	18.8778	0.0276396	16.6515
10.9106	18.8917	0.0552792	16.6515
10.9107	18.9193	0.0276396	16.6515
10.9109	18.9469	0	16.6515
11.001	18.9469	0	16.8335
11.0013	18.9469	0	16.8335
11.0014	18.9469	0.0552792	16.8335
11.0014	18.9746	0.0276396	16.8335
11.0791	19.0022	0	16.8335
11.0984	19.0022	0	17.0155
11.0985	19.0022	0	17.0155
11.0996	19.0022	0.0276396	17.0155
11.0997	19.016	0.0552792	17.0155
11.0997	19.0437	0.0276396	17.0155
11.1115	19.0713	0	17.0155
11.112	19.0713	0	17.0155
11.1129	19.0713	0.0276396	17.0155
11.1129	19.0851	0.0552792	17.0155
11.113	19.1128	0.0276396	17.0155
11.1383	19.1404	0	17.0155
11.1392	19.1404	0	17.0155
11.1395	19.1404	0.0276396	17.0155
11.1395	19.1542	0.0552792	17.0155
11.1395	19.1819	0.0276396	17.0155
11.171	19.2095	0	17.0155
11.1742	19.2095	0	17.0155
11.2997	19.2095	0.0276396	17.0155
11.2997	19.2095	0.0276396	17.0155
11.3003	19.2371	0	17.0155
11.3003	19.251	0.0276396	17.0155
11.3214	19.2786	0	17.0155
11.3396	19.2786	0	17.1065
11.3399	19.2786	0	17.1065
11.3403	19.2786	0.0276396	17.1065
11.4905	19.2786	0.0552792	17.1065
11.4905	19.2786	0.0552792	17.1065
11.4906	19.3062	0.0276396	17.1065
11.4906	19.3339	0	17.1065
11.4907	19.3477	0.0276396	17.1065
11.6009	19.3753	0	17.1065
11.6015	19.3753	0	17.1065
11.6172	19.3753	0.0276396	17.1065
11.6175	19.3753	0.0276396	17.1065
11.6175	19.3892	0.0552792	17.1065
11.6362	19.4168	0.0276396	17.1065
11.6363	19.4168	0.0276396	17.1065
11.6371	19.4444	0	17.1065
11.6371	19.4444	0.0552792	17.1065
11.6371	19.4721	0.0276396	17.1065
11.6615	19.4997	0	17.1065
11.6616	19.4997	0	17.1065
11.6616	19.5135	0.0276396	17.1065
11.6999	19.5412	0	17.1065
11.708	19.5412	0	17.1975
11.7083	19.5412	0	17.1975
11.7083	19.5412	0.0552792	17.1975
11.7084	19.5688	0.0276396	17.1975
11.721	19.5965	0	17.1975
11.7214	19.5965	0	17.1975
11.7215	19.6103	0.0276396	17.1975
11.7279	19.6379	0	17.1975
11.7281	19.6379	0	17.1975
11.7295	19.6379	0	17.1975
11.7297	19.6379	0.0276396	17.1975
11.7302	19.6379	0.0552792	17.1975
11.7303	19.6379	0.0829187	17.1975
11.7303	19.6656	0.0552792	17.1975
11.7303	19.6656	0.0552792	17.1975
11.7303	19.6656	0.0552792	17.1975
11.7303	19.6932	0.0276396	17.1975
11.7303	19.7208	0	17.1975
11.7677	19.7208	0	17.1975
11.7688	19.7208	0	17.1975
11.7688	19.7347	0.0276396	17.1975
11.8076	19.7623	0	17.1975
11.8641	19.7623	0	17.2884
11.9117	19.7623	0	17.4704
11.9124	19.7623	0	17.4704
11.9124	19.7761	0.0276396	17.4704
11.9231	19.8038	0	17.4704
11.9232	19.8038	0	17.4704
11.9232	19.8038	0.0552792	17.4704
11.9233	19.8314	0.0276396	17.4704
11.9314	19.859	0	17.4704
11.9315	19.859	0	17.4704
11.9316	19.8729	0.0276396	17.4704
11.9534	19.9005	0	17.4704
11.9535	19.9005	0	17.4704
11.9537	19.9005	0.0276396	17.4704
11.9538	19.9143	0.0552792	17.4704
11.954	19.942	0.0276396	17.4704
11.9686	19.9696	0	17.4704
11.9704	19.9696	0	17.4704
12.3071	19.9696	0.0276396	17.4704
12.3073	19.9696	0.0276396	17.4704
12.3073	19.9972	0	17.4704
12.3074	19.9972	0.0276396	17.4704
12.3074	19.9972	0.0829187	17.4704
12.3074	20.0249	0.0552792	17.4704
12.3074	20.0525	0.0276396	17.4704
12.397	20.0802	0	17.4704
12.3976	20.0802	0	17.4704
12.4802	20.0802	0.0276396	17.4704
12.4803	20.0802	0.0276396	17.4704
12.4805	20.1078	0	17.4704
12.4805	20.1216	0.0276396	17.4704
12.6054	20.1493	0	17.4704
12.6123	20.1493	0	17.6524
12.613	20.1493	0	17.6524
12.6133	20.1493	0.0276396	17.6524
12.6133	20.1493	0.0552792	17.6524
12.6312	20.1493	0.0829187	17.6524
12.6324	20.1493	0.0829187	17.6524
12.6324	20.1631	0.110558	17.6524
12.6325	20.1907	0.0829187	17.6524
12.6325	20.2184	0.0552792	17.6524
12.6327	20.246	0.0276396	17.6524
12.6345	20.2736	0	17.6524
12.6346	20.2736	0	17.6524
12.6346	20.2736	0.0552792	17.6524
12.6347	20.3013	0.0276396	17.6524
12.7334	20.3289	0	17.6524
12.7357	20.3289	0	17.6524
12.7358	20.3427	0.0276396	17.6524
12.8161	20.3704	0	17.6524
12.8167	20.3704	0	17.7434
12.8172	20.3704	0	17.7434
12.8173	20.3842	0.0276396	17.7434
12.8323	20.4118	0	17.7434
12.8324	20.4118	0	17.7434
12.8383	20.4118	0.0276396	17.7434
12.8758	20.4118	0.0276396	17.8344
12.8759	20.4118	0.0276396	17.8344
12.876	20.4256	0.0552792	17.8344
12.9422	20.4533	0.0276396	17.8344
12.9422	20.4533	0.0276396	17.8344
12.9424	20.4809	0	17.8344
12.9424	20.4947	0.0276396	17.8344
12.9878	20.5224	0	17.8344
12.9878	20.5224	0	17.8344
12.9878	20.5224	0.0552792	17.8344
12.9879	20.55	0.0276396	17.8344
13.0136	20.5777	0	17.8344
13.0138	20.5777	0	17.8344
13.0138	20.5915	0.0276396	17.8344
13.0347	20.6191	0	17.8344
13.0942	20.6191	0	18.0164
13.0955	20.6191	0	18.0164
13.0955	20.6329	0.0276396	18.0164
13.1091	20.6606	0	18.0164
13.1092	20.6606	0	18.0164
13.11	20.6606	0.0276396	18.0164
13.1297	20.6606	0.0552792	18.0164
13.1836	20.6606	0.0552792	18.1984
13.1836	20.6606	0.0552792	18.3803
13.1837	20.6882	0.0276396	18.3803
13.3195	20.7159	0	18.3803
13.3202	20.7159	0	18.3803
13.3202	20.7297	0.0276396	18.3803
13.3467	20.7573	0	18.3803
13.5317	20.7573	0	18.5623
13.5624	20.7573	0	18.6533
13.5626	20.7573	0	18.6533
13.5626	20.7573	0.0552792	18.6533
13.5626	20.785	0.0276396	18.6533
13.572	20.8126	0	18.6533
13.7871	20.8126	0	18.7443
13.7878	20.8126	0	18.7443
13.7878	20.8126	0.0276396	18.7443
13.7879	20.8264	0.0552792	18.7443
13.7879	20.8541	0.0276396	18.7443
13.7981	20.8817	0	18.7443
13.7984	20.8817	0	18.7443
13.7984	20.8955	0.0276396	18.7443
13.827	20.9232	0	18.7443
13.8294	20.9232	0	18.7443
13.8295	20.937	0.0276396	18.7443
13.833	20.9646	0	18.7443
13.9255	20.9646	0	18.9263
14.0514	20.9646	0	18.9263
14.1792	20.9646	0	19.0173
14.1927	20.9646	0	19.1083
14.1927	20.9646	0	19.1083
14.1928	20.9646	0.0276396	19.1083
14.2466	20.9923	0	19.1083
14.2469	20.9923	0	19.1083
14.2469	20.9923	0.0276396	19.1083
14.2469	20.9923	0.0552792	19.1083
14.2469	21.0199	0.0276396	19.1083
14.3194	21.0475	0	19.1083
14.3203	21.0475	0	19.1083
14.3209	21.0475	0.0276396	19.1083
14.3214	21.0475	0.0552792	19.1083
14.3219	21.0475	0.0829187	19.1083
14.322	21.0475	0.110558	19.1083
14.322	21.0475	0.138198	19.1083
14.322	21.0752	0.110558	19.1083
14.322	21.1028	0.0829187	19.1083
14.322	21.1305	0.0552792	19.1083
14.3221	21.1581	0.0276396	19.1083
14.4722	21.1857	0	19.1083
14.5826	21.1857	0	19.1993
14.5826	21.1857	0	19.1993
14.5827	21.1996	0.0276396	19.1993
14.6284	21.2272	0	19.1993
14.6287	21.2272	0	19.1993
14.6287	21.2272	0.0552792	19.1993
14.6287	21.2548	0.0276396	19.1993
14.6651	21.2825	0	19.1993
14.7131	21.2825	0	19.1993
14.7138	21.2825	0	19.1993
14.7139	21.2963	0.0276396	19.1993
14.7369	21.3239	0	19.1993
14.764	21.3239	0	19.3813
14.7641	21.3239	0	19.3813
14.7641	21.3239	0.0552792	19.3813
14.7641	21.3516	0.0276396	19.3813
14.7735	21.3792	0	19.3813
14.8631	21.3792	0	19.5632
14.878	21.3792	0	19.6542
14.8804	21.3792	0	19.6542
14.8804	21.3792	0.0552792	19.6542
14.8805	21.4069	0.0276396	19.6542
14.9527	21.4345	0	19.6542
14.9539	21.4345	0	19.6542
14.954	21.4483	0.0276396	19.6542
15.0029	21.476	0	19.6542
15.0031	21.476	0	19.6542
15.0031	21.476	0.0552792	19.6542
15.0031	21.5036	0.0276396	19.6542
15.018	21.5312	0	19.6542
15.0182	21.5312	0	19.6542
15.0184	21.5312	0.0276396	19.6542
15.0184	21.5312	0.0552792	19.6542
15.0185	21.5589	0.0276396	19.6542
15.1345	21.5865	0	19.6542
15.1347	21.5865	0	19.6542
15.1347	21.6003	0.0276396	19.6542
15.1398	21.628	0	19.6542
15.14	21.628	0	19.6542
15.1404	21.628	0.0276396	19.6542
15.1404	21.6418	0.0552792	19.6542
15.1404	21.6694	0.0276396	19.6542
15.2719	21.6971	0	19.6542
15.4127	21.6971	0	19.8362
15.4428	21.6971	0	19.9272
15.4614	21.6971	0	20.1092
15.4615	21.6971	0	20.1092
15.4629	21.6971	0.0276396	20.1092
15.4629	21.6971	0.0829187	20.1092
15.4629	21.7247	0.0552792	20.1092
15.4629	21.7523	0.0276396	20.1092
15.5445	21.78	0	20.1092
15.5447	21.78	0	20.1092
15.5451	21.78	0.0276396	20.1092
15.5451	21.7938	0.0552792	20.1092
15.5451	21.8214	0.0276396	20.1092
15.604	21.8491	0	20.1092
15.7292	21.8491	0	20.2912
15.7326	21.8491	0	20.3822
15.7329	21.8491	0	20.3822
15.7331	21.8491	0.0276396	20.3822
15.898	21.8767	0	20.3822
15.9205	21.8767	0	20.5641
15.9211	21.8767	0	20.5641
15.9211	21.8767	0	20.5641
15.9217	21.8767	0.0276396	20.5641
15.9217	21.8905	0.0552792	20.5641
15.9941	21.9182	0.0276396	20.5641
15.9941	21.9182	0.0276396	20.5641
15.9942	21.9458	0	20.5641
15.9942	21.9458	0.0552792	20.5641
15.9942	21.9735	0.0276396	20.5641
16.0593	22.0011	0	20.5641
16.1614	22.0011	0	20.7461
16.1635	22.0011	0	20.7461
16.1636	22.0149	0.0276396	20.7461
16.1916	22.0426	0	20.7461
16.2207	22.0426	0	20.9281
16.2214	22.0426	0	20.9281
16.2571	22.0426	0.0276396	20.9281
16.2572	22.0426	0.0276396	20.9281
16.2572	22.0702	0	20.9281
16.2576	22.0702	0.0276396	20.9281
16.2576	22.084	0.0552792	20.9281
16.2578	22.1117	0.0276396	20.9281
16.4297	22.1393	0	20.9281
16.444	22.1393	0	21.0191
16.4447	22.1393	0	21.0191
16.4447	22.1531	0.0276396	21.0191
16.4995	22.1808	0	21.0191
16.5485	22.1808	0	21.2011
16.5674	22.1808	0	21.3831
16.5677	22.1808	0	21.3831
16.5685	22.1808	0.0276396	21.3831
16.5685	22.1946	0.0552792	21.3831
16.5686	22.2222	0.0276396	21.3831
16.801	22.2499	0	21.3831
16.8012	22.2499	0	21.3831
16.8012	22.2637	0.0276396	21.3831
16.9856	22.2913	0	21.3831
16.9863	22.2913	0	21.3831
16.9863	22.2913	0.0552792	21.3831
16.9864	22.319	0.0276396	21.3831
17.0619	22.3466	0	21.3831
17.062	22.3466	0	21.3831
17.0623	22.3604	0.0276396	21.3831
17.3091	22.3881	0	21.3831
17.3098	22.3881	0	21.3831
17.3099	22.4019	0.0276396	21.3831
17.3804	22.4295	0	21.3831
17.3814	22.4295	0	21.3831
17.3814	22.4433	0.0276396	21.3831
17.3886	22.471	0	21.3831
17.3897	22.471	0	21.3831
17.3897	22.4848	0.0276396	21.3831
17.4687	22.5124	0	21.3831
17.4688	22.5124	0	21.3831
17.4688	22.5263	0.0276396	21.3831
17.4707	22.5539	0	21.3831
17.5795	22.5539	0	21.5651
17.5796	22.5539	0	21.5651
17.5797	22.5539	0.0552792	21.5651
17.5797	22.5815	0.0276396	21.5651
17.582	22.6092	0	21.5651
17.6021	22.6092	0	21.747
17.7272	22.6092	0	21.929
17.7277	22.6092	0	21.929
17.7278	22.623	0.0276396	21.929
17.7933	22.6506	0	21.929
17.7934	22.6506	0	21.929
17.7936	22.6645	0.0276396	21.929
17.953	22.6921	0	21.929
17.9544	22.6921	0	21.929
17.9544	22.7059	0.0276396	21.929
18.0842	22.7336	0	21.929
18.0844	22.7336	0	21.929
18.0844	22.7336	0.0552792	21.929
18.0844	22.7612	0.0276396	21.929
18.1715	22.7888	0	21.929
18.1717	22.7888	0	21.929
18.1734	22.7888	0.0276396	21.929
18.1734	22.8027	0.0552792	21.929
18.1734	22.8303	0.0276396	21.929
18.1769	22.8579	0	21.929
18.345	22.8579	0	22.111
18.3458	22.8579	0	22.111
18.3458	22.8579	0.0552792	22.111
18.3458	22.8856	0.0276396	22.111
18.7026	22.9132	0	22.111
18.7899	22.9132	0	22.293
18.7902	22.9132	0	22.293
18.7903	22.927	0.0276396	22.293
19.1621	22.9547	0	22.293
19.1621	22.9547	0	22.293
19.1621	22.9547	0.0552792	22.293
19.1622	22.9823	0.0276396	22.293
19.4339	23.01	0	22.293
19.4342	23.01	0	22.293
19.499	23.01	0.0276396	22.293
19.499	23.01	0.0276396	22.475
19.6212	23.0376	0	22.475
19.6218	23.0376	0	22.475
19.622	23.0514	0.0276396	22.475
19.6435	23.079	0	22.475
19.6443	23.079	0	22.475
19.6445	23.079	0.0276396	22.475
19.6449	23.079	0.0552792	22.475
19.6449	23.0929	0.0829187	22.475
19.6449	23.1205	0.0552792	22.475
19.6451	23.1481	0.0276396	22.475
19.7187	23.1758	0	22.475
20.1173	23.1758	0	22.657
20.1177	23.1758	0	22.657
20.1177	23.1758	0.0552792	22.657
20.1177	23.2034	0.0276396	22.657
20.1772	23.2311	0	22.657
20.1779	23.2311	0	22.657
20.1779	23.2449	0.0276396	22.657
20.2126	23.2725	0	22.657
20.2134	23.2725	0	22.657
20.2134	23.2863	0.0276396	22.657
20.2539	23.314	0	22.657
20.2542	23.314	0	22.657
20.2963	23.314	0.0276396	22.657
20.2965	23.314	0.0276396	22.8389
20.3474	23.3416	0	22.8389
20.4097	23.3416	0	22.9299
20.4109	23.3416	0	22.9299
20.5069	23.3416	0.0276396	22.9299
20.507	23.3416	0.0276396	22.9299
20.5074	23.3693	0	22.9299
20.7214	23.3693	0.0276396	22.9299
20.7215	23.3693	0.0276396	22.9299
20.7216	23.3969	0	22.9299
20.7217	23.3969	0.0552792	22.9299
20.7217	23.4245	0.0276396	22.9299
20.7505	23.4522	0	22.9299
20.8495	23.4522	0	23.0209
20.8509	23.4522	0	23.0209
20.8509	23.4522	0.0552792	23.0209
20.851	23.4798	0.0276396	23.0209
20.938	23.5075	0	23.0209
21.0553	23.5075	0	23.2029
21.0555	23.5075	0	23.2029
21.0555	23.5213	0.0276396	23.2029
21.0598	23.5489	0	23.2029
21.0615	23.5489	0	23.2029
21.0615	23.5627	0.0276396	23.2029
21.2801	23.5904	0	23.2029
21.2801	23.5904	0	23.2029
21.2803	23.6042	0.0276396	23.2029
21.466	23.6318	0	23.2029
21.5198	23.6318	0	23.2939
21.6256	23.6318	0	23.4759
21.6256	23.6318	0	23.4759
21.6256	23.6318	0.0552792	23.4759
21.6256	23.6595	0.0276396	23.4759
21.6977	23.6871	0	23.4759
21.6977	23.6871	0	23.4759
21.6978	23.6871	0.0276396	23.4759
21.6984	23.6871	0.0552792	23.4759
21.7172	23.6871	0.0829187	23.4759
21.7172	23.6871	0.0829187	23.6579
21.7172	23.7148	0.0552792	23.6579
21.7172	23.7424	0.0276396	23.6579
21.7198	23.77	0	23.6579
21.7208	23.77	0	23.6579
21.7208	23.7839	0.0276396	23.6579
21.8408	23.8115	0	23.6579
21.9267	23.8115	0	23.8399
21.9284	23.8115	0	23.8399
21.9284	23.8115	0.0552792	23.8399
21.9284	23.8391	0.0276396	23.8399
21.9399	23.8668	0	23.8399
21.9405	23.8668	0	23.8399
21.9406	23.8806	0.0276396	23.8399
22.0562	23.9082	0	23.8399
22.0572	23.9082	0	23.8399
22.0572	23.9082	0.0552792	23.8399
22.0572	23.9359	0.0276396	23.8399
22.0901	23.9635	0	23.8399
22.0913	23.9635	0	23.8399
22.0914	23.9773	0.0276396	23.8399
22.3537	24.005	0	23.8399
22.3622	24.005	0	24.0218
22.3624	24.005	0	24.0218
22.7363	24.005	0.0276396	24.0218
22.7363	24.005	0.0276396	24.0218
22.7375	24.0326	0	24.0218
22.7375	24.0464	0.0276396	24.0218
22.7614	24.0741	0	24.0218
22.7956	24.0741	0	24.2038
22.8589	24.0741	0	24.3858
22.859	24.0741	0	24.3858
22.859	24.0741	0.0552792	24.3858
22.8592	24.1017	0.0276396	24.3858
22.9084	24.1294	0	24.3858
22.9087	24.1294	0	24.3858
22.9087	24.1294	0.0552792	24.3858
22.9088	24.157	0.0276396	24.3858
22.9088	24.1846	0	24.3858
22.9091	24.1846	0	24.3858
22.91	24.1846	0.0276396	24.3858
22.9134	24.1846	0.0552792	24.3858
22.9136	24.1846	0.0552792	24.3858
22.9136	24.1846	0.110558	24.3858
22.9137	24.2123	0.0829187	24.3858
23.0887	24.2399	0.0552792	24.3858
23.0887	24.2399	0.0552792	24.3858
23.0887	24.2676	0.0276396	24.3858
23.0895	24.2952	0	24.3858
23.0895	24.2952	0.0552792	24.3858
23.0896	24.3228	0.0276396	24.3858
23.1384	24.3505	0	24.3858
23.1391	24.3505	0	24.3858
23.1393	24.3643	0.0276396	24.3858
23.1497	24.3919	0	24.3858
23.2264	24.3919	0	24.5678
23.2267	24.3919	0	24.5678
23.2268	24.3919	0.0552792	24.5678
23.2268	24.4196	0.0276396	24.5678
23.3353	24.4472	0	24.5678
23.5284	24.4472	0	24.7498
23.5289	24.4472	0	24.7498
23.5289	24.4472	0.0552792	24.7498
23.5289	24.4748	0.0276396	24.7498
24.3688	24.5025	0	24.7498
24.3691	24.5025	0	24.7498
24.3693	24.5163	0.0276396	24.7498
24.3997	24.5439	0	24.7498
24.4165	24.5439	0	24.9318
24.4166	24.5439	0	24.9318
24.4167	24.5439	0.0276396	24.9318
24.4168	24.5578	0.0552792	24.9318
24.4169	24.5854	0.0276396	24.9318
24.6279	24.613	0	24.9318
24.6694	24.613	0	25.1137
24.8135	24.613	0	25.2957
24.8144	24.613	0	25.2957
24.8144	24.613	0.0276396	25.2957
24.8145	24.6269	0.0552792	25.2957
24.8145	24.6545	0.0276396	25.2957
24.9864	24.6821	0	25.2957
24.9864	24.6821	0	25.2957
24.9867	24.6821	0.0276396	25.2957
24.9867	24.696	0.0552792	25.2957
24.9867	24.7236	0.0276396	25.2957
25.1253	24.7512	0	25.2957
25.1254	24.7512	0	25.2957
25.1254	24.7512	0.0552792	25.2957
25.1254	24.7789	0.0276396	25.2957
25.2327	24.8065	0	25.2957
25.2332	24.8065	0	25.2957
25.2334	24.8065	0.0276396	25.2957
25.2335	24.8203	0.0552792	25.2957
25.2335	24.848	0.0276396	25.2957
25.3029	24.8756	0	25.2957
25.6102	24.8756	0	25.4777
25.6103	24.8756	0	25.4777
25.6103	24.8756	0.0552792	25.4777
25.6104	24.9033	0.0276396	25.4777
25.6515	24.9309	0	25.4777
25.6525	24.9309	0	25.4777
25.6525	24.9309	0.0552792	25.4777
25.6525	24.9585	0.0276396	25.4777
25.8318	24.9862	0	25.4777
25.8325	24.9862	0	25.4777
25.8325	24.9862	0.0552792	25.4777
25.8327	25.0138	0.0276396	25.4777
26.0293	25.0415	0	25.4777
26.0296	25.0415	0	25.4777
26.0298	25.0415	0.0276396	25.4777
26.0298	25.0553	0.0552792	25.4777
26.0298	25.0829	0.0276396	25.4777
26.1755	25.1106	0	25.4777
26.4388	25.1106	0	25.6597
26.4389	25.1106	0	25.6597
26.4389	25.1106	0.0552792	25.6597
26.439	25.1382	0.0276396	25.6597
26.4715	25.1658	0	25.6597
26.4716	25.1658	0	25.6597
26.5197	25.1658	0.0276396	25.6597
26.5198	25.1658	0.0276396	25.6597
26.52	25.1935	0	25.6597
26.5205	25.1935	0.0276396	25.6597
26.5206	25.1935	0.0829187	25.6597
26.5206	25.2211	0.0552792	25.6597
26.5206	25.2488	0.0276396	25.6597
26.8286	25.2764	0	25.6597
26.8286	25.2764	0	25.6597
26.8287	25.2764	0.0552792	25.6597
26.8287	25.304	0.0276396	25.6597
26.864	25.3317	0	25.6597
26.864	25.3317	0	25.6597
26.864	25.3317	0.0552792	25.6597
26.8641	25.3593	0.0276396	25.6597
26.9487	25.387	0	25.6597
26.9501	25.387	0	25.6597
26.9501	25.387	0.0552792	25.6597
26.9502	25.4146	0.0276396	25.6597
27.0048	25.4422	0	25.6597
27.0048	25.4422	0	25.6597
27.0048	25.4422	0.0552792	25.6597
27.005	25.4699	0.0276396	25.6597
27.0367	25.4975	0	25.6597
27.133	25.4975	0	25.8417
27.1332	25.4975	0	25.8417
27.1333	25.4975	0.0552792	25.8417
27.1333	25.5252	0.0276396	25.8417
27.1861	25.5528	0	25.8417
27.1862	25.5528	0	25.8417
27.1862	25.5666	0.0276396	25.8417
27.2543	25.5943	0	25.8417
27.2559	25.5943	0	25.8417
27.2562	25.5943	0.0276396	25.8417
27.2562	25.6081	0.0552792	25.8417
27.2563	25.6357	0.0276396	25.8417
27.4033	25.6633	0	25.8417
27.497	25.6633	0	26.0237
27.497	25.6633	0	26.0237
27.6937	25.6633	0.0276396	26.0237
27.6937	25.6633	0.0276396	26.2056
27.7038	25.691	0	26.2056
27.7958	25.691	0	26.3876
27.7964	25.691	0	26.3876
27.7964	25.691	0.0552792	26.3876
27.7964	25.7186	0.0276396	26.3876
27.9445	25.7463	0	26.3876
27.9448	25.7463	0	26.3876
27.9448	25.7463	0.0552792	26.3876
27.9448	25.7739	0.0276396	26.3876
27.9989	25.8015	0	26.3876
28.0007	25.8015	0	26.3876
28.0007	25.8015	0.0552792	26.3876
28.0007	25.8292	0.0276396	26.3876
28.043	25.8568	0	26.3876
28.0433	25.8568	0	26.3876
28.0441	25.8568	0.0276396	26.3876
28.0448	25.8568	0.0552792	26.3876
28.7357	25.8568	0.0829187	26.3876
28.7359	25.8568	0.0829187	26.3876
28.7359	25.8568	0.138198	26.3876
28.7359	25.8845	0.110558	26.3876
28.7359	25.9121	0.0829187	26.3876
28.736	25.9397	0.0552792	26.3876
28.736	25.9674	0.0276396	26.3876
28.7882	25.995	0	26.3876
28.9972	25.995	0	26.5696
28.9974	25.995	0	26.5696
28.9974	25.995	0.0552792	26.5696
28.9975	26.0227	0.0276396	26.5696
29.4892	26.0503	0	26.5696
29.4895	26.0503	0	26.5696
29.4896	26.0503	0.0276396	26.5696
29.4905	26.0503	0.0552792	26.5696
29.4906	26.0503	0.0829187	26.5696
29.4906	26.0779	0.0552792	26.5696
29.4906	26.1056	0.0276396	26.5696
29.8389	26.1332	0	26.5696
29.8391	26.1332	0	26.5696
29.8391	26.1332	0.0552792	26.5696
29.8392	26.1609	0.0276396	26.5696
29.9742	26.1885	0	26.5696
29.9792	26.1885	0	26.7516
29.9795	26.1885	0	26.7516
29.9795	26.1885	0.0552792	26.7516
29.9795	26.2161	0.0276396	26.7516
30.1613	26.2438	0	26.7516
30.1875	26.2438	0	26.8426
30.1877	26.2438	0	26.8426
30.1879	26.2438	0.0276396	26.8426
30.1879	26.2576	0.0552792	26.8426
30.1879	26.2852	0.0276396	26.8426
30.492	26.3129	0	26.8426
30.4922	26.3129	0	26.8426
30.4923	26.3267	0.0276396	26.8426
30.6029	26.3543	0	26.8426
30.6031	26.3543	0	26.8426
30.6031	26.3543	0.0552792	26.8426
30.6033	26.382	0.0276396	26.8426
30.7526	26.4096	0	26.8426
30.7526	26.4096	0	26.8426
30.7526	26.4096	0.0552792	26.8426
30.7527	26.4373	0.0276396	26.8426
30.7604	26.4649	0	26.8426
30.7611	26.4649	0	26.8426
30.7611	26.4649	0.0552792	26.8426
30.7612	26.4925	0.0276396	26.8426
30.7924	26.5202	0	26.8426
30.7927	26.5202	0	26.8426
30.7927	26.5202	0.0552792	26.8426
30.7928	26.5478	0.0276396	26.8426
30.9472	26.5755	0	26.8426
30.9493	26.5755	0	26.8426
30.9493	26.5755	0.0552792	26.8426
30.9493	26.6031	0.0276396	26.8426
31.0973	26.6307	0	26.8426
31.4169	26.6307	0	27.0246
31.4172	26.6307	0	27.0246
31.4173	26.6446	0.0276396	27.0246
31.4678	26.6722	0	27.0246
31.4679	26.6722	0	27.0246
31.4679	26.686	0.0276396	27.0246
32.4339	26.7137	0	27.0246
32.4344	26.7137	0	27.0246
32.4344	26.7275	0.0276396	27.0246
32.7334	26.7551	0	27.0246
32.735	26.7551	0	27.0246
32.735	26.7551	0.0552792	27.0246
32.7351	26.7828	0.0276396	27.0246
32.7749	26.8104	0	27.0246
32.7751	26.8104	0	27.0246
32.7752	26.8104	0.0276396	27.0246
33.0616	26.838	0	27.0246
33.1343	26.838	0	27.1156
33.1347	26.838	0	27.1156
33.1347	26.8519	0.0276396	27.1156
33.199	26.8795	0	27.1156
33.1992	26.8795	0	27.1156
33.1993	26.8795	0.0552792	27.1156
33.1993	26.9071	0.0276396	27.1156
34.4923	26.9348	0	27.1156
34.4924	26.9348	0	27.1156
34.4924	26.9348	0.0552792	27.1156
34.4925	26.9624	0.0276396	27.1156
34.5261	26.99	0	27.1156
34.5899	26.99	0	27.2975
34.6281	26.99	0	27.4795
34.6295	26.99	0	27.4795
34.6295	26.99	0.0276396	27.4795
34.6296	27.0039	0.0552792	27.4795
34.6296	27.0315	0.0276396	27.4795
34.6468	27.0591	0	27.4795
34.6473	27.0591	0	27.4795
34.6473	27.073	0.0276396	27.4795
34.7872	27.1006	0	27.4795
34.7879	27.1006	0	27.4795
34.788	27.1144	0.0276396	27.4795
35.1244	27.1421	0	27.4795
35.127	27.1421	0	27.4795
35.1271	27.1559	0.0276396	27.4795
35.2086	27.1835	0	27.4795
35.2092	27.1835	0	27.4795
35.2093	27.1835	0.0276396	27.4795
35.6534	27.2112	0	27.4795
35.6534	27.2112	0	27.4795
35.6535	27.225	0.0276396	27.4795
35.7388	27.2526	0	27.4795
35.7388	27.2526	0	27.4795
35.7388	27.2526	0.0552792	27.4795
35.739	27.2803	0.0276396	27.4795
36.139	27.3079	0	27.4795
36.6106	27.3079	0	27.6615
36.6107	27.3079	0	27.6615
36.6107	27.3079	0.0552792	27.6615
36.6109	27.3355	0.0276396	27.6615
36.7497	27.3632	0	27.6615
37.0206	27.3632	0	27.8435
37.0216	27.3632	0	27.8435
37.0216	27.3632	0.0552792	27.8435
37.0217	27.3908	0.0276396	27.8435
37.6222	27.4185	0	27.8435
37.6234	27.4185	0	27.8435
37.6234	27.4185	0.0552792	27.8435
37.6234	27.4461	0.0276396	27.8435
37.6552	27.4737	0	27.8435
37.6553	27.4737	0	27.8435
37.6553	27.4737	0.0552792	27.8435
37.6554	27.5014	0.0276396	27.8435
37.7461	27.529	0	27.8435
37.7468	27.529	0	27.8435
37.7469	27.5428	0.0276396	27.8435
38.7103	27.5705	0	27.8435
38.7104	27.5705	0	27.8435
38.7104	27.5705	0.0552792	27.8435
38.7104	27.5981	0.0276396	27.8435
39.34	27.6258	0	27.8435
39.4694	27.6258	0	28.0255
40.6034	27.6258	0	28.2075
40.6035	27.6258	0	28.2075
40.6035	27.6258	0.0552792	28.2075
40.6035	27.6534	0.0276396	28.2075
41.3709	27.681	0	28.2075
41.6318	27.681	0	28.3894
41.6322	27.681	0	28.3894
41.6322	27.681	0.0552792	28.3894
41.6323	27.7087	0.0276396	28.3894
41.7141	27.7363	0	28.3894
41.7161	27.7363	0	28.3894
41.7162	27.7363	0.0552792	28.3894
41.7162	27.764	0.0276396	28.3894
41.7857	27.7916	0	28.3894
41.7883	27.7916	0	28.3894
41.7884	27.7916	0.0552792	28.3894
41.7884	27.8192	0.0276396	28.3894
44.5969	27.8469	0	28.3894
44.597	27.8469	0	28.3894
44.597	27.8469	0.0552792	28.3894
44.597	27.8745	0.0276396	28.3894
45.5789	27.9022	0	28.3894
45.58	27.9022	0	28.3894
45.58	27.916	0.0276396	28.3894
46.3167	27.9436	0	28.3894
46.3176	27.9436	0	28.3894
46.8862	27.9436	0.0276396	28.3894
46.8862	27.9436	0.0276396	28.3894
46.8863	27.9713	0	28.3894
46.8864	27.9713	0.0552792	28.3894
46.8864	27.9989	0.0276396	28.3894
49.6878	28.0265	0	28.3894
49.6879	28.0265	0	28.3894
49.6879	28.0265	0.0552792	28.3894
49.6879	28.0542	0.0276396	28.3894
49.6939	28.0818	0	28.3894
49.6941	28.0818	0	28.3894
49.6941	28.0818	0.0552792	28.3894
49.6941	28.1095	0.0276396	28.3894
50.0395	28.1371	0	28.3894
50.0398	28.1371	0	28.3894
50.0401	28.1371	0.0276396	28.3894
50.2761	28.1371	0.0552792	28.3894
50.2761	28.1371	0.0552792	28.3894
50.2762	28.1371	0.0829187	28.3894
50.2762	28.1647	0.0552792	28.3894
50.2764	28.1924	0.0276396	28.3894
50.2764	28.2062	0.0552792	28.3894
50.2765	28.2338	0.0276396	28.3894
51.3185	28.2615	0	28.3894
51.7673	28.2615	0	28.5714
51.7673	28.2615	0	28.5714
51.7674	28.2615	0.0552792	28.5714
51.7675	28.2891	0.0276396	28.5714
52.9825	28.3167	0	28.5714
52.9836	28.3167	0	28.5714
52.9837	28.3167	0.0552792	28.5714
52.9837	28.3444	0.0276396	28.5714
54.5632	28.372	0	28.5714
54.5643	28.372	0	28.5714
54.5643	28.372	0.0552792	28.5714
54.5643	28.3997	0.0276396	28.5714
54.7503	28.4273	0	28.5714
54.7513	28.4273	0	28.5714
54.7513	28.4273	0.0552792	28.5714
54.7514	28.4549	0.0276396	28.5714
56.2268	28.4826	0	28.5714
56.2277	28.4826	0	28.5714
56.2277	28.4826	0.0552792	28.5714
56.2279	28.5102	0.0276396	28.5714
57.5325	28.5379	0	28.5714
57.5335	28.5379	0	28.5714
57.5335	28.5379	0.0552792	28.5714
57.5336	28.5655	0.0276396	28.5714
58.7991	28.5931	0	28.5714
58.8	28.5931	0	28.5714
58.8	28.5931	0.0552792	28.5714
58.8	28.6208	0.0276396	28.5714
58.9027	28.6484	0	28.5714
58.903	28.6484	0	28.5714
58.9031	28.6484	0.0552792	28.5714
58.9031	28.6761	0.0276396	28.5714
59.0173	28.7037	0	28.5714
64.0449	28.7037	0	28.7534
64.045	28.7037	0	28.7534
64.045	28.7037	0.0552792	28.7534
64.045	28.7313	0.0276396	28.7534
66.6121	28.759	0	28.7534
66.6124	28.759	0	28.7534
66.6124	28.759	0.0552792	28.7534
66.6124	28.7866	0.0276396	28.7534
67.3577	28.8143	0	28.7534
67.3583	28.8143	0	28.7534
67.3583	28.8143	0.0552792	28.7534
67.3584	28.8419	0.0276396	28.7534
92.1677	28.8695	0	28.7534
92.1687	28.8695	0	28.7534
92.1687	28.8695	0.0552792	28.7534
92.1687	28.8972	0.0276396	28.7534
94.6209	28.9248	0	28.7534
94.6212	28.9248	0	28.7534
94.6212	28.9248	0.0552792	28.7534
94.6212	28.9525	0.0276396	28.7534
98.2306	28.9801	0	28.7534
98.2307	28.9801	0	28.7534
98.2307	28.9801	0.0552792	28.7534
98.2307	29.0077	0.0276396	28.7534
