6.29848e-10	0	0	0
9.07802e-10	0	0	0
1.36702e-09	0	0	0
1.44117e-09	0	0	0
2.12183e-09	0	0	0
2.27919e-09	0	0	0
2.75168e-09	0	0	0
2.92761e-09	0	0	0
4.05138e-09	0	0	0
4.62903e-09	0	0	0
5.41815e-09	0	0	0
6.18318e-09	0	0	0
6.95721e-09	0	0	0
7.16479e-09	0	0	0
7.193e-09	0	0	0
7.67444e-09	0	0	0
8.38945e-09	0	0	0
9.32948e-09	0	0	0
9.61766e-09	0	0	0
1.00995e-08	0	0	0
1.0124e-08	0	0	0
1.06119e-08	0	0	0
1.06507e-08	0	0	0
1.09448e-08	0	0	0
1.13237e-08	0	0	0
1.22054e-08	0	0	0
1.2446e-08	0	0	0
1.25701e-08	0	0	0
1.50768e-08	0	0	0
1.51567e-08	0	0	0
1.74708e-08	0	0	0
1.85157e-08	0	0	0
1.90557e-08	0	0	0
1.94066e-08	0	0	0
2.12896e-08	0	0	0
2.21403e-08	0	0	0
2.28674e-08	0	0	0
2.30532e-08	0	0	0
2.67439e-08	0	0	0
2.69589e-08	0	0	0
2.7884e-08	0	0	0
2.80588e-08	0	0	0
3.16386e-08	0	0	0
3.28322e-08	0	0	0
3.32779e-08	0	0	0
3.39936e-08	0	0	0
4.31011e-08	0	0	0
4.60454e-08	0	0	0
4.62352e-08	0	0	0
4.8113e-08	0	0	0
4.81972e-08	0	0	0
5.51865e-08	0	0	0
5.82669e-08	0	0	0
5.94609e-08	0	0	0
6.2101e-08	0	0	0
6.24789e-08	0	0	0
7.02817e-08	0	0	0
7.10355e-08	0	0	0
7.53081e-08	0	0	0
8.30164e-08	0	0	0
8.55059e-08	0	0	0
8.76216e-08	0	0	0
8.76795e-08	0	0	0
1.03753e-07	0	0	0
1.36525e-07	0	0	0
1.72024e-07	0	0	0
1.8668e-07	0	0	0
1.8997e-07	0	0	0
1.96633e-07	0	0	0
2.00077e-07	0	0	0
2.72268e-07	0	0	0
2.86577e-07	0	0	0
3.66835e-07	0	0	0
4.97162e-07	0	0	0
5.01127e-07	0	0	0
6.01273e-07	0	0	0
6.02221e-07	0	0	0
6.03154e-07	0	0	0
8.12718e-07	0	0	0
8.51994e-07	0	0	0
8.86905e-07	0	0	0
9.59272e-07	0	0	0
9.61261e-07	0	0	0
9.73111e-07	0	0	0
1.02374e-06	0	0	0
1.03458e-06	0	0	0
1.04364e-06	0	0	0
1.07988e-06	0	0	0
1.29877e-06	0	0	0
1.30186e-06	0	0	0
1.34983e-06	0	0	0
1.48244e-06	0	0	0
1.83494e-06	0	0	0
1.87103e-06	0	0	0
1.95319e-06	0	0	0
1.95861e-06	0	0	0
2.029e-06	0	0	0
2.17315e-06	0	0	0
2.36292e-06	0	0	0
2.42645e-06	0	0	0
2.43307e-06	0	0	0
2.49456e-06	0	0	0
2.50905e-06	0	0	0
2.57927e-06	0	0	0
2.75394e-06	0	0	0
2.78928e-06	0	0	0
2.80423e-06	0	0	0
2.87609e-06	0	0	0
3.0343e-06	0	0	0
3.12241e-06	0	0	0
3.15545e-06	0	0	0
3.15973e-06	0	0	0
3.16584e-06	0	0	0
3.19914e-06	0	0	0
3.34468e-06	0	0	0
3.35031e-06	0	0	0
3.47987e-06	0	0	0
3.50627e-06	0	0	0
3.51502e-06	0	0	0
3.54476e-06	0	0	0
3.62785e-06	0	0	0
3.632e-06	0	0	0
3.64613e-06	0	0	0
3.68985e-06	0	0	0
3.82708e-06	0	0	0
3.85184e-06	0	0	0
3.96583e-06	0	0	0
3.99126e-06	0	0	0
4.07303e-06	0	0	0
4.0845e-06	0	0	0
4.12248e-06	0	0	0
4.16742e-06	0	0	0
4.19295e-06	0	0	0
4.23714e-06	0	0	0
4.36961e-06	0	0	0
4.4141e-06	0	0	0
4.42416e-06	0	0	0
4.45293e-06	0	0	0
4.46236e-06	0	0	0
4.46765e-06	0	0	0
4.54123e-06	0	0	0
4.62369e-06	0	0	0
4.70558e-06	0	0	0
4.70859e-06	0	0	0
4.72417e-06	0	0	0
4.78374e-06	0	0	0
4.87162e-06	0	0	0
4.87505e-06	0	0	0
4.92438e-06	0	0	0
4.9339e-06	0	0	0
4.96393e-06	0	0	0
5.07475e-06	0	0	0
5.40795e-06	0	0	0
5.41227e-06	0	0	0
5.43194e-06	0	0	0
5.64989e-06	0	0	0
5.71274e-06	0	0	0
5.75721e-06	0	0	0
5.79721e-06	0	0	0
5.86681e-06	0	0	0
5.90448e-06	0	0	0
5.93757e-06	0	0	0
5.97041e-06	0	0	0
5.9802e-06	0	0	0
6.04979e-06	0	0	0
6.06993e-06	0	0	0
6.09121e-06	0	0	0
6.13866e-06	0	0	0
6.36583e-06	0	0	0
6.45704e-06	0	0	0
6.56071e-06	0	0	0
6.57824e-06	0	0	0
6.58673e-06	0	0	0
6.67408e-06	0	0	0
6.68005e-06	0	0	0
6.70276e-06	0	0	0
6.87792e-06	0	0	0
6.93919e-06	0	0	0
7.0903e-06	0	0	0
7.16495e-06	0	0	0
7.16728e-06	0	0	0
7.31859e-06	0	0	0
7.37824e-06	0	0	0
7.50016e-06	0	0	0
7.53739e-06	0	0	0
7.77721e-06	0	0	0
7.81345e-06	0	0	0
8.1172e-06	0	0	0
8.44041e-06	0	0	0
8.47963e-06	0	0	0
8.75722e-06	0	0	0
8.76268e-06	0	0	0
8.83869e-06	0	0	0
8.90004e-06	0	0	0
8.99027e-06	0	0	0
9.04621e-06	0	0	0
9.2524e-06	0	0	0
9.2714e-06	0	0	0
9.66469e-06	0	0	0
9.67278e-06	0	0	0
9.77475e-06	0	0	0
9.79402e-06	0	0	0
9.90953e-06	0	0	0
1.00222e-05	0	0	0
1.01738e-05	0	0	0
1.0284e-05	0	0	0
1.04714e-05	0	0	0
1.06349e-05	0	0	0
1.06397e-05	0	0	0
1.06697e-05	0	0	0
1.07927e-05	0	0	0
1.08039e-05	0	0	0
1.08273e-05	0	0	0
1.08536e-05	0	0	0
1.08861e-05	0	0	0
1.0908e-05	0	0	0
1.09841e-05	0	0	0
1.11875e-05	0	0	0
1.12321e-05	0	0	0
1.12814e-05	0	0	0
1.12823e-05	0	0	0
1.14338e-05	0	0	0
1.14352e-05	0	0	0
1.14642e-05	0	0	0
1.15144e-05	0	0	0
1.15279e-05	0	0	0
1.15361e-05	0	0	0
1.17134e-05	0	0	0
1.17555e-05	0	0	0
1.18749e-05	0	0	0
1.18829e-05	0	0	0
1.19784e-05	0	0	0
1.21483e-05	0	0	0
1.21946e-05	0	0	0
1.22007e-05	0	0	0
1.2287e-05	0	0	0
1.23784e-05	0	0	0
1.25015e-05	0	0	0
1.26298e-05	0	0	0
1.27362e-05	0	0	0
1.30052e-05	0	0	0
1.30104e-05	0	0	0
1.32954e-05	0	0	0
1.38649e-05	0	0	0
1.41619e-05	0	0	0
1.42029e-05	0	0	0
1.42381e-05	0	0	0
1.46328e-05	0	0	0
1.48739e-05	0	0	0
1.50088e-05	0	0	0
1.52849e-05	0	0	0
1.53565e-05	0	0	0
1.58075e-05	0	0	0
1.59859e-05	0	0	0
1.6094e-05	0	0	0
1.61877e-05	0	0	0
1.6615e-05	0	0	0
1.68077e-05	0	0	0
1.69388e-05	0	0	0
1.69656e-05	0	0	0
1.71384e-05	0	0	0
1.73058e-05	0	0	0
1.73205e-05	0	0	0
1.75395e-05	0	0	0
1.79915e-05	0	0	0
1.82763e-05	0	0	0
1.83628e-05	0	0	0
1.9004e-05	0	0	0
1.91954e-05	0	0	0
1.97937e-05	0	0	0
1.98476e-05	0	0	0
1.99065e-05	0	0	0
1.99485e-05	0	0	0
2.05928e-05	0	0	0
2.07175e-05	0	0	0
2.10015e-05	0	0	0
2.10655e-05	0	0	0
2.10952e-05	0	0	0
2.12454e-05	0	0	0
2.13766e-05	0	0	0
2.14506e-05	0	0	0
2.17301e-05	0	0	0
2.18486e-05	0	0	0
2.2462e-05	0	0	0
2.26147e-05	0	0	0
2.27973e-05	0	0	0
2.28289e-05	0	0	0
2.29974e-05	0	0	0
2.3239e-05	0	0	0
2.36334e-05	0	0	0
2.39867e-05	0	0	0
2.40436e-05	0	0	0
2.4379e-05	0	0	0
2.47988e-05	0	0	0
2.4903e-05	0	0	0
2.52924e-05	0	0	0
2.54347e-05	0	0	0
2.55007e-05	0	0	0
2.61008e-05	0	0	0
2.61799e-05	0	0	0
2.6337e-05	0	0	0
2.63618e-05	0	0	0
2.72554e-05	0	0	0
2.74633e-05	0	0	0
2.80362e-05	0	0	0
2.86531e-05	0	0	0
2.90878e-05	0	0	0
2.92121e-05	0	0	0
2.96938e-05	0	0	0
2.99489e-05	0	0	0
3.00619e-05	0	0	0
3.03466e-05	0	0	0
3.07693e-05	0	0	0
3.10128e-05	0	0	0
3.16446e-05	0	0	0
3.20169e-05	0	0	0
3.20207e-05	0	0	0
3.28759e-05	0	0	0
3.33901e-05	0	0	0
3.34295e-05	0	0	0
3.34956e-05	0	0	0
3.36783e-05	0	0	0
3.37594e-05	0	0	0
3.41193e-05	0	0	0
3.48964e-05	0	0	0
3.55613e-05	0	0	0
3.60112e-05	0	0	0
3.60445e-05	0	0	0
3.61945e-05	0	0	0
3.64094e-05	0	0	0
3.66756e-05	0	0	0
3.69807e-05	0	0	0
3.73595e-05	0	0	0
3.74884e-05	0	0	0
3.76638e-05	0	0	0
3.77937e-05	0	0	0
3.83597e-05	0	0	0
3.87565e-05	0	0	0
4.0303e-05	0	0	0
4.04468e-05	0	0	0
4.07143e-05	0	0	0
4.08571e-05	0	0	0
4.08738e-05	0	0	0
4.15492e-05	0	0	0
4.32235e-05	0	0	0
4.35064e-05	0	0	0
4.41402e-05	0	0	0
4.43234e-05	0	0	0
4.44009e-05	0	0	0
4.51872e-05	0	0	0
4.532e-05	0	0	0
4.57904e-05	0	0	0
4.60095e-05	0	0	0
4.64494e-05	0	0	0
4.70426e-05	0	0	0
4.7428e-05	0	0	0
4.76922e-05	0	0	0
4.78521e-05	0	0	0
4.79028e-05	0	0	0
4.86017e-05	0	0	0
4.89347e-05	0	0	0
4.89621e-05	0	0	0
4.92214e-05	0	0	0
5.09082e-05	0	0	0
5.26462e-05	0	0	0
5.30597e-05	0	0	0
5.53654e-05	0	0	0
5.54265e-05	0	0	0
5.66365e-05	0	0	0
5.68566e-05	0	0	0
5.7254e-05	0	0	0
5.73098e-05	0	0	0
5.73239e-05	0	0	0
5.82205e-05	0	0	0
5.85396e-05	0	0	0
6.12056e-05	0	0	0
6.18021e-05	0	0	0
6.24145e-05	0	0	0
6.626e-05	0	0	0
6.65429e-05	0	0	0
6.66994e-05	0	0	0
6.81541e-05	0	0	0
6.90667e-05	0	0	0
7.02295e-05	0	0	0
7.10596e-05	0	0	0
7.24829e-05	0	0	0
7.67601e-05	0	0	0
7.75116e-05	0	0	0
7.80248e-05	0	0	0
7.90966e-05	0	0	0
8.26031e-05	0	0	0
8.42979e-05	0	0	0
8.43618e-05	0	0	0
8.64559e-05	0	0	0
8.68313e-05	0	0	0
8.83924e-05	0	0	0
9.0388e-05	0	0	0
9.04985e-05	0	0	0
9.0887e-05	0	0	0
9.27171e-05	0	0	0
9.42683e-05	0	0	0
9.45551e-05	0	0	0
9.77005e-05	0	0	0
9.77418e-05	0	0	0
9.91152e-05	0	0	0
9.93628e-05	0	0	0
0.000101882	0	0	0
0.000106841	0	0	0
0.000109039	0	0	0
0.00011105	0	0	0
0.000112759	0	0	0
0.000118217	0	0	0
0.000119557	0	0	0
0.000121583	0	0	0
0.000122758	0	0	0
0.000124506	0	0	0
0.000127036	0	0	0
0.000141033	0	0	0
0.000208009	0	0	0
0.0156698	0	0	0
0.0156723	0	0	0
0.0156726	0	0	0
0.0156779	0	0	0
0.0160468	0	0	0
0.0160895	0	0	0
0.016111	0	0	0
0.0161151	0	0	0
0.019029	0	0	0
0.0191097	0	0	0
0.0191218	0.0138198	0.0276396	0
0.0214474	0.0414594	0	0
0.0217535	0.0414594	0	0
0.0226418	0.0414594	0.0276396	0
0.0226446	0.0552792	0.0552792	0
0.0226464	0.0829187	0.0276396	0
0.0227456	0.0829187	0.0276396	0
0.0356173	0.110558	0	0
0.0559838	0.110558	0	0
0.0560167	0.110558	0	0
0.071331	0.110558	0	0
0.0719209	0.110558	0	0
0.0723673	0.110558	0.0276396	0
0.0723717	0.124378	0.0552792	0
0.0723756	0.152018	0.0276396	0
0.0753801	0.179657	0	0
0.0757382	0.179657	0	0
0.0758173	0.193477	0.0276396	0
0.0791383	0.221117	0	0
0.080909	0.221117	0	0
0.0809322	0.221117	0.0552792	0
0.0809406	0.248756	0.0276396	0
0.0809563	0.276396	0	0
0.0809745	0.276396	0	0
0.0810393	0.276396	0	0
0.100125	0.276396	0	0
0.110105	0.276396	0	0
0.110106	0.276396	0	0
0.110128	0.276396	0	0
0.110141	0.276396	0	0
0.121679	0.276396	0	0
0.126599	0.276396	0	0
0.127819	0.276396	0	0
0.129593	0.276396	0.0276396	0
0.129637	0.290216	0.0552792	0
0.129787	0.317855	0.0276396	0
0.175866	0.345495	0	0
0.176802	0.345495	0	0
0.176833	0.359315	0.0276396	0
0.210695	0.386954	0	0
0.241364	0.386954	0	0
0.243406	0.386954	0	0
0.243474	0.400774	0.0276396	0
0.283673	0.428413	0	0
0.283676	0.428413	0	0
0.283698	0.428413	0	0
0.287315	0.428413	0	0
0.307067	0.428413	0	0
0.307093	0.428413	0	0
0.317485	0.428413	0	0
0.322955	0.428413	0	0
0.324832	0.428413	0	0
0.329741	0.428413	0	0
0.341328	0.428413	0	0
0.354734	0.428413	0	0
0.367797	0.428413	0	0
0.367839	0.428413	0	0.0909918
0.368883	0.428413	0	0.0909918
0.370551	0.428413	0	0.0909918
0.371724	0.428413	0	0.0909918
0.371934	0.428413	0.0276396	0.0909918
0.371935	0.428413	0.0829187	0.0909918
0.371962	0.456053	0.0552792	0.0909918
0.372109	0.483693	0.0276396	0.0909918
0.38427	0.511332	0	0.0909918
0.44083	0.511332	0	0.0909918
0.440865	0.511332	0	0.181984
0.441018	0.511332	0	0.181984
0.441022	0.511332	0	0.181984
0.441495	0.511332	0	0.181984
0.444098	0.511332	0	0.181984
0.444113	0.511332	0	0.181984
0.444166	0.511332	0	0.181984
0.456694	0.511332	0	0.181984
0.462412	0.511332	0	0.272975
0.462448	0.511332	0	0.272975
0.468062	0.511332	0	0.272975
0.473606	0.511332	0	0.272975
0.473753	0.511332	0	0.272975
0.473784	0.525152	0.0276396	0.272975
0.479424	0.552792	0	0.272975
0.479435	0.552792	0	0.272975
0.47945	0.552792	0	0.272975
0.508466	0.552792	0	0.272975
0.509002	0.552792	0	0.272975
0.509307	0.552792	0	0.272975
0.509521	0.552792	0	0.272975
0.509525	0.566611	0.0276396	0.272975
0.509547	0.566611	0.0276396	0.272975
0.521608	0.594251	0	0.272975
0.521779	0.594251	0	0.272975
0.521829	0.608071	0.0276396	0.272975
0.521939	0.63571	0	0.272975
0.52813	0.63571	0	0.272975
0.556212	0.63571	0	0.272975
0.559222	0.63571	0	0.363967
0.5631	0.63571	0	0.363967
0.563134	0.63571	0	0.363967
0.563242	0.63571	0	0.363967
0.563367	0.63571	0	0.363967
0.563383	0.63571	0	0.363967
0.564379	0.63571	0	0.363967
0.564382	0.64953	0.0276396	0.363967
0.574361	0.67717	0	0.363967
0.611273	0.67717	0	0.363967
0.61139	0.67717	0	0.363967
0.611465	0.690989	0.0276396	0.363967
0.624067	0.718629	0	0.363967
0.624079	0.718629	0	0.363967
0.624102	0.732449	0.0276396	0.363967
0.628891	0.760088	0	0.363967
0.629669	0.760088	0	0.363967
0.629718	0.760088	0.0276396	0.363967
0.629725	0.773908	0.0552792	0.363967
0.629728	0.801548	0.0276396	0.363967
0.629745	0.801548	0.0276396	0.363967
0.629773	0.801548	0.0276396	0.363967
0.629792	0.829187	0	0.363967
0.651728	0.829187	0	0.363967
0.654054	0.829187	0	0.363967
0.662726	0.829187	0	0.363967
0.662761	0.829187	0	0.454959
0.662778	0.829187	0	0.454959
0.677185	0.829187	0	0.454959
0.685092	0.829187	0	0.545951
0.685156	0.829187	0	0.545951
0.685163	0.829187	0	0.545951
0.685185	0.829187	0	0.545951
0.710444	0.829187	0	0.545951
0.710458	0.829187	0	0.545951
0.726822	0.829187	0	0.545951
0.751579	0.829187	0	0.636943
0.751673	0.829187	0	0.636943
0.756349	0.829187	0	0.636943
0.764827	0.829187	0	0.636943
0.765995	0.829187	0	0.636943
0.766963	0.829187	0.0276396	0.636943
0.796323	0.829187	0.0552792	0.636943
0.796329	0.829187	0.0552792	0.636943
0.796345	0.829187	0.0552792	0.636943
0.796406	0.856827	0.0276396	0.636943
0.797894	0.884467	0	0.636943
0.811999	0.884467	0	0.636943
0.812092	0.884467	0	0.636943
0.812146	0.898286	0.0276396	0.636943
0.812205	0.925926	0	0.636943
0.814785	0.925926	0	0.636943
0.814803	0.925926	0	0.636943
0.814827	0.925926	0	0.636943
0.834876	0.925926	0	0.636943
0.864124	0.925926	0	0.636943
0.864219	0.925926	0	0.636943
0.873782	0.925926	0	0.727934
0.881376	0.925926	0	0.818926
0.89609	0.925926	0	0.818926
0.897072	0.925926	0	0.818926
0.897094	0.939746	0.0276396	0.818926
0.899297	0.967385	0	0.818926
0.935123	0.967385	0	0.818926
0.961949	0.967385	0	0.909918
0.964809	0.967385	0	1.00091
0.97398	0.967385	0	1.00091
0.989533	0.967385	0	1.0919
0.989967	0.967385	0	1.0919
0.990051	0.967385	0.0276396	1.0919
0.990065	0.981205	0.0552792	1.0919
0.990146	1.00884	0.0276396	1.0919
0.992886	1.03648	0	1.0919
0.993109	1.03648	0	1.0919
0.993241	1.03648	0.0276396	1.0919
0.993266	1.0503	0.0552792	1.0919
0.993267	1.07794	0.0276396	1.0919
1.01058	1.10558	0	1.0919
1.01118	1.10558	0	1.0919
1.01122	1.1194	0.0276396	1.0919
1.01859	1.14704	0	1.0919
1.01936	1.14704	0	1.0919
1.01958	1.14704	0.0276396	1.0919
1.01983	1.14704	0.0276396	1.0919
1.01986	1.16086	0.0552792	1.0919
1.02046	1.1885	0.0276396	1.0919
1.02047	1.20232	0.0552792	1.0919
1.02055	1.22996	0.0276396	1.0919
1.0211	1.2576	0	1.0919
1.02902	1.2576	0	1.18289
1.05948	1.2576	0	1.27389
1.0597	1.2576	0	1.27389
1.05976	1.27142	0.0276396	1.27389
1.05979	1.29906	0	1.27389
1.076	1.29906	0	1.27389
1.07608	1.29906	0	1.36488
1.07608	1.29906	0	1.36488
1.08051	1.29906	0	1.36488
1.08421	1.29906	0	1.45587
1.08714	1.29906	0	1.45587
1.09138	1.29906	0	1.45587
1.09206	1.29906	0	1.45587
1.09214	1.29906	0	1.45587
1.09215	1.29906	0	1.45587
1.09216	1.29906	0.0276396	1.45587
1.09218	1.29906	0.0276396	1.45587
1.09223	1.29906	0.0276396	1.45587
1.09226	1.31288	0.0552792	1.45587
1.09227	1.34052	0.0276396	1.45587
1.12983	1.36816	0	1.45587
1.14549	1.36816	0	1.45587
1.15763	1.36816	0	1.54686
1.17784	1.36816	0	1.63785
1.17816	1.36816	0	1.63785
1.17819	1.38198	0.0276396	1.63785
1.18324	1.40962	0	1.63785
1.18328	1.40962	0	1.63785
1.1872	1.40962	0	1.63785
1.18726	1.40962	0	1.63785
1.18736	1.40962	0.0276396	1.63785
1.18784	1.40962	0.0552792	1.63785
1.18784	1.42344	0.0829187	1.63785
1.18787	1.45108	0.0552792	1.63785
1.1879	1.47872	0.0276396	1.63785
1.18791	1.50636	0	1.63785
1.19204	1.50636	0	1.63785
1.21266	1.50636	0	1.63785
1.21267	1.50636	0	1.63785
1.21269	1.50636	0	1.63785
1.23478	1.50636	0	1.63785
1.23567	1.50636	0	1.63785
1.23597	1.50636	0.0276396	1.63785
1.23598	1.52018	0.0552792	1.63785
1.23606	1.54782	0.0276396	1.63785
1.24363	1.57546	0	1.63785
1.24974	1.57546	0	1.72884
1.25074	1.57546	0	1.72884
1.25074	1.58928	0.0276396	1.72884
1.25337	1.61692	0	1.72884
1.25337	1.61692	0	1.81984
1.26957	1.61692	0	1.81984
1.30641	1.61692	0	1.81984
1.32197	1.61692	0	1.91083
1.32236	1.61692	0	1.91083
1.32264	1.61692	0.0276396	1.91083
1.3328	1.61692	0.0276396	2.00182
1.34133	1.61692	0.0276396	2.00182
1.34138	1.61692	0.0276396	2.00182
1.34174	1.64456	0	2.00182
1.34616	1.64456	0	2.09281
1.34633	1.64456	0	2.1838
1.3529	1.64456	0	2.1838
1.35553	1.64456	0	2.2748
1.35569	1.64456	0	2.2748
1.35573	1.65837	0.0276396	2.2748
1.35597	1.68601	0	2.2748
1.35684	1.68601	0	2.2748
1.35685	1.68601	0.0552792	2.2748
1.35688	1.71365	0.0276396	2.2748
1.36137	1.74129	0	2.2748
1.36167	1.74129	0	2.2748
1.36174	1.74129	0.0276396	2.2748
1.36216	1.74129	0.0552792	2.2748
1.36227	1.74129	0.0829187	2.2748
1.36302	1.74129	0.110558	2.2748
1.36333	1.74129	0.138198	2.2748
1.36371	1.74129	0.165837	2.2748
1.36376	1.74129	0.193477	2.2748
1.36377	1.74129	0.221117	2.2748
1.36386	1.74129	0.248756	2.2748
1.36393	1.76893	0.221117	2.2748
1.36395	1.76893	0.248756	2.2748
1.3641	1.79657	0.221117	2.2748
1.36413	1.79657	0.248756	2.2748
1.36441	1.82421	0.221117	2.2748
1.36442	1.82421	0.248756	2.2748
1.36552	1.85185	0.221117	2.2748
1.36555	1.85185	0.221117	2.2748
1.36555	1.85185	0.248756	2.2748
1.36555	1.87949	0.221117	2.2748
1.41872	1.87949	0.221117	2.2748
1.41872	1.87949	0.221117	2.36579
1.41874	1.90713	0.193477	2.36579
1.41874	1.93477	0.165837	2.36579
1.41877	1.96241	0.138198	2.36579
1.41878	1.99005	0.110558	2.36579
1.41879	2.01769	0.0829187	2.36579
1.4188	2.04533	0.0552792	2.36579
1.41881	2.07297	0.0276396	2.36579
1.42234	2.10061	0	2.36579
1.42506	2.10061	0	2.45678
1.42553	2.10061	0	2.45678
1.42578	2.10061	0	2.54777
1.42589	2.11443	0.0276396	2.54777
1.42837	2.14207	0	2.54777
1.4306	2.14207	0	2.54777
1.43061	2.15589	0.0276396	2.54777
1.45118	2.18353	0	2.54777
1.46219	2.18353	0	2.63876
1.46237	2.18353	0	2.63876
1.4656	2.18353	0	2.82075
1.469	2.18353	0	2.91174
1.46923	2.18353	0	2.91174
1.46925	2.19735	0.0276396	2.91174
1.4749	2.22499	0	2.91174
1.48414	2.22499	0	2.91174
1.48493	2.22499	0	2.91174
1.48494	2.23881	0.0276396	2.91174
1.48496	2.23881	0.0276396	2.91174
1.4862	2.26645	0	2.91174
1.48905	2.26645	0	2.91174
1.48906	2.26645	0.0552792	2.91174
1.48906	2.29409	0.0276396	2.91174
1.48913	2.32172	0	2.91174
1.49071	2.32172	0	2.91174
1.50256	2.32172	0	2.91174
1.50257	2.32172	0	2.91174
1.50259	2.33554	0.0276396	2.91174
1.53661	2.36318	0	2.91174
1.53683	2.36318	0	2.91174
1.53762	2.36318	0.0276396	2.91174
1.53763	2.377	0.0552792	2.91174
1.53765	2.40464	0.0276396	2.91174
1.58421	2.43228	0	2.91174
1.61694	2.43228	0	2.91174
1.61697	2.43228	0	2.91174
1.6172	2.43228	0.0276396	2.91174
1.61721	2.4461	0.0552792	2.91174
1.61722	2.47374	0.0276396	2.91174
1.62126	2.50138	0	2.91174
1.62132	2.50138	0	2.91174
1.62138	2.5152	0.0276396	2.91174
1.62142	2.54284	0	2.91174
1.62818	2.54284	0	2.91174
1.63391	2.54284	0	2.91174
1.63433	2.54284	0	2.91174
1.63434	2.55666	0.0276396	2.91174
1.66146	2.5843	0	2.91174
1.66287	2.5843	0	2.91174
1.66293	2.59812	0.0276396	2.91174
1.66834	2.62576	0	2.91174
1.66841	2.62576	0	2.91174
1.66921	2.62576	0.0276396	2.91174
1.66923	2.63958	0.0552792	2.91174
1.66925	2.66722	0.0276396	2.91174
1.67919	2.69486	0	2.91174
1.71321	2.69486	0	3.00273
1.8256	2.69486	0	3.00273
1.87237	2.69486	0	3.18471
1.87517	2.69486	0	3.3667
1.87527	2.69486	0	3.3667
1.87677	2.69486	0.0276396	3.3667
1.87678	2.69486	0.0552792	3.3667
1.87681	2.7225	0.0276396	3.3667
1.88124	2.75014	0	3.3667
1.88162	2.75014	0	3.3667
1.88174	2.75014	0.0276396	3.3667
1.88179	2.75014	0.0552792	3.3667
1.88243	2.75014	0.0829187	3.3667
1.88246	2.76396	0.110558	3.3667
1.88246	2.7916	0.0829187	3.3667
1.8825	2.81924	0.0552792	3.3667
1.88254	2.84688	0.0276396	3.3667
1.91978	2.87452	0	3.3667
1.97893	2.87452	0	3.45769
1.97967	2.87452	0	3.45769
1.98058	2.87452	0.0276396	3.45769
1.98129	2.87452	0.0552792	3.45769
1.98291	2.87452	0.0829187	3.45769
1.98414	2.87452	0.110558	3.45769
1.98433	2.87452	0.138198	3.45769
1.98437	2.87452	0.165837	3.45769
1.98454	2.87452	0.193477	3.45769
1.98467	2.87452	0.221117	3.45769
1.98485	2.87452	0.248756	3.45769
1.98602	2.90216	0.221117	3.45769
1.98606	2.90216	0.248756	3.45769
1.98768	2.9298	0.221117	3.45769
1.98774	2.9298	0.248756	3.45769
1.98774	2.95744	0.221117	3.45769
1.9878	2.95744	0.221117	3.45769
1.98784	2.95744	0.248756	3.45769
1.98848	2.98507	0.221117	3.45769
1.98853	2.98507	0.248756	3.45769
1.98854	2.98507	0.248756	3.45769
1.98878	3.01271	0.221117	3.45769
1.98882	3.01271	0.248756	3.45769
1.98958	3.04035	0.221117	3.45769
1.98963	3.04035	0.248756	3.45769
1.98969	3.04035	0.248756	3.45769
2.04768	3.06799	0.221117	3.45769
2.04768	3.06799	0.221117	3.45769
2.04769	3.09563	0.193477	3.45769
2.0477	3.12327	0.165837	3.45769
2.0477	3.15091	0.138198	3.45769
2.04771	3.17855	0.110558	3.45769
2.04773	3.17855	0.110558	3.45769
2.04775	3.19237	0.138198	3.45769
2.04776	3.22001	0.110558	3.45769
2.04777	3.24765	0.0829187	3.45769
2.04777	3.24765	0.0829187	3.45769
2.04779	3.24765	0.0829187	3.45769
2.04779	3.27529	0.0552792	3.45769
2.04779	3.30293	0.0276396	3.45769
2.04787	3.30293	0.0276396	3.45769
2.04788	3.33057	0	3.45769
2.05381	3.33057	0	3.45769
2.08361	3.33057	0	3.45769
2.08375	3.33057	0	3.45769
2.08408	3.33057	0.0276396	3.45769
2.08411	3.34439	0.0552792	3.45769
2.08418	3.37203	0.0276396	3.45769
2.08866	3.39967	0	3.45769
2.12924	3.39967	0	3.63967
2.13076	3.39967	0	3.63967
2.13077	3.39967	0	3.63967
2.1308	3.39967	0	3.63967
2.14815	3.39967	0	3.63967
2.14822	3.39967	0	3.63967
2.15909	3.39967	0	3.63967
2.15961	3.39967	0	3.63967
2.15964	3.41349	0.0276396	3.63967
2.20116	3.44113	0	3.63967
2.20161	3.44113	0	3.63967
2.20164	3.44113	0.0552792	3.63967
2.20164	3.46877	0.0276396	3.63967
2.20489	3.49641	0	3.63967
2.21332	3.49641	0	3.73066
2.21333	3.49641	0	3.82166
2.21333	3.49641	0	3.82166
2.25662	3.49641	0	4.00364
2.27048	3.49641	0	4.09463
2.28867	3.49641	0	4.18562
2.28877	3.49641	0	4.18562
2.28882	3.51023	0.0276396	4.18562
2.28886	3.53787	0	4.18562
2.29207	3.53787	0	4.18562
2.30442	3.53787	0	4.18562
2.32031	3.53787	0	4.27662
2.32086	3.53787	0	4.27662
2.32091	3.53787	0.0552792	4.27662
2.32099	3.56551	0.0276396	4.27662
2.34128	3.59315	0	4.27662
2.34129	3.59315	0	4.27662
2.34129	3.59315	0.0552792	4.27662
2.34133	3.62078	0.0276396	4.27662
2.36189	3.64842	0	4.27662
2.36747	3.64842	0	4.27662
2.40065	3.64842	0	4.4586
2.40089	3.64842	0	4.4586
2.40097	3.66224	0.0276396	4.4586
2.42555	3.68988	0	4.4586
2.43306	3.68988	0	4.54959
2.4497	3.68988	0	4.73157
2.46479	3.68988	0	4.82257
2.46487	3.68988	0	4.91356
2.52222	3.68988	0	4.91356
2.52589	3.68988	0	5.00455
2.55942	3.68988	0	5.09554
2.55944	3.68988	0	5.09554
2.58643	3.68988	0	5.09554
2.58715	3.68988	0	5.09554
2.58719	3.7037	0.0276396	5.09554
2.59805	3.73134	0	5.09554
2.59851	3.73134	0	5.09554
2.59852	3.73134	0.0552792	5.09554
2.59862	3.75898	0.0276396	5.09554
2.60769	3.78662	0	5.09554
2.60794	3.78662	0	5.09554
2.60798	3.80044	0.0276396	5.09554
2.61844	3.82808	0	5.09554
2.631	3.82808	0	5.18653
2.63168	3.82808	0	5.18653
2.63168	3.8419	0.0276396	5.18653
2.64529	3.86954	0	5.18653
2.65173	3.86954	0	5.18653
2.65241	3.86954	0	5.18653
2.65251	3.86954	0.0276396	5.18653
2.65251	3.88336	0.0552792	5.18653
2.65252	3.911	0.0276396	5.18653
2.65261	3.911	0.0276396	5.18653
2.6768	3.93864	0	5.18653
2.67939	3.93864	0	5.18653
2.6795	3.95246	0.0276396	5.18653
2.70562	3.9801	0	5.18653
2.70562	3.9801	0	5.18653
2.70671	3.9801	0	5.18653
2.71887	3.9801	0	5.27753
2.74631	3.9801	0	5.27753
2.74662	3.9801	0	5.27753
2.74666	3.9801	0.0552792	5.27753
2.74668	4.00774	0.0276396	5.27753
2.77479	4.03538	0	5.27753
2.77542	4.03538	0	5.27753
2.77545	4.03538	0.0552792	5.27753
2.77548	4.06302	0.0276396	5.27753
2.78634	4.09066	0	5.27753
2.78763	4.09066	0	5.27753
2.78764	4.10448	0.0276396	5.27753
2.79261	4.13212	0	5.27753
2.79264	4.13212	0	5.36852
2.7927	4.13212	0	5.36852
2.82939	4.13212	0	5.36852
2.82971	4.13212	0	5.36852
2.88769	4.13212	0.0276396	5.36852
2.88769	4.13212	0.0276396	5.36852
2.88773	4.13212	0.0276396	5.36852
2.88792	4.13212	0.0276396	5.36852
2.895	4.15976	0	5.36852
2.92319	4.15976	0	5.36852
3.01775	4.15976	0	5.45951
3.01805	4.15976	0	5.45951
3.01806	4.17358	0.0276396	5.45951
3.03264	4.20122	0	5.45951
3.07472	4.20122	0	5.5505
3.07489	4.20122	0	5.5505
3.07497	4.21504	0.0276396	5.5505
3.08999	4.24268	0	5.5505
3.09086	4.24268	0	5.5505
3.09088	4.2565	0.0276396	5.5505
3.10342	4.28413	0	5.5505
3.10344	4.28413	0	5.5505
3.11055	4.28413	0	5.5505
3.12014	4.28413	0	5.5505
3.16135	4.28413	0	5.5505
3.21014	4.28413	0	5.5505
3.21322	4.28413	0	5.64149
3.22236	4.28413	0	5.73248
3.2236	4.28413	0	5.82348
3.22453	4.28413	0	5.82348
3.22456	4.29795	0.0276396	5.82348
3.22691	4.32559	0	5.82348
3.22699	4.32559	0	5.82348
3.22703	4.33941	0.0276396	5.82348
3.25353	4.36705	0	5.82348
3.2536	4.36705	0	5.91447
3.25568	4.36705	0	5.91447
3.25608	4.36705	0	5.91447
3.25703	4.36705	0.0276396	5.91447
3.25731	4.36705	0.0552792	5.91447
3.25742	4.36705	0.0829187	5.91447
3.25773	4.36705	0.110558	5.91447
3.25787	4.36705	0.138198	5.91447
3.25802	4.36705	0.165837	5.91447
3.25863	4.36705	0.193477	5.91447
3.25975	4.36705	0.221117	5.91447
3.25984	4.36705	0.248756	5.91447
3.25999	4.39469	0.221117	5.91447
3.26001	4.39469	0.248756	5.91447
3.2608	4.42233	0.221117	5.91447
3.2608	4.42233	0.276396	5.91447
3.2608	4.44997	0.248756	5.91447
3.26081	4.47761	0.221117	5.91447
3.26082	4.47761	0.221117	5.91447
3.26082	4.50525	0.193477	5.91447
3.26083	4.50525	0.193477	5.91447
3.26084	4.53289	0.165837	5.91447
3.26086	4.56053	0.138198	5.91447
3.26087	4.58817	0.110558	5.91447
3.26088	4.61581	0.0829187	5.91447
3.2609	4.64345	0.0552792	5.91447
3.26091	4.67109	0.0276396	5.91447
3.26387	4.69873	0	5.91447
3.27873	4.69873	0	5.91447
3.27873	4.69873	0	5.91447
3.27878	4.71255	0.0276396	5.91447
3.28902	4.74019	0	5.91447
3.28937	4.74019	0	5.91447
3.28958	4.74019	0.0276396	5.91447
3.29027	4.74019	0.0552792	5.91447
3.2915	4.74019	0.0829187	5.91447
3.2915	4.75401	0.110558	5.91447
3.29153	4.78165	0.0829187	5.91447
3.2916	4.80929	0.0552792	5.91447
3.29161	4.83693	0.0276396	5.91447
3.29463	4.86457	0	5.91447
3.29529	4.86457	0	5.91447
3.29532	4.87839	0.0276396	5.91447
3.31826	4.90603	0	5.91447
3.31889	4.90603	0	5.91447
3.31932	4.90603	0.0276396	5.91447
3.31932	4.91985	0.0552792	5.91447
3.31933	4.94748	0.0276396	5.91447
3.32527	4.97512	0	5.91447
3.32688	4.97512	0	5.91447
3.32689	4.98894	0.0276396	5.91447
3.3269	5.01658	0	5.91447
3.33375	5.01658	0	5.91447
3.33498	5.01658	0	5.91447
3.33505	5.01658	0.0552792	5.91447
3.33507	5.04422	0.0276396	5.91447
3.33532	5.07186	0	5.91447
3.33611	5.07186	0	5.91447
3.33611	5.08568	0.0276396	5.91447
3.34803	5.11332	0	5.91447
3.34851	5.11332	0	5.91447
3.34852	5.12714	0.0276396	5.91447
3.37476	5.15478	0	5.91447
3.37501	5.15478	0	5.91447
3.37502	5.15478	0.0552792	5.91447
3.37502	5.18242	0.0276396	5.91447
3.39637	5.21006	0	5.91447
3.40532	5.21006	0	5.91447
3.40535	5.21006	0	5.91447
3.40535	5.21006	0.0276396	5.91447
3.40538	5.22388	0.0552792	5.91447
3.40541	5.25152	0.0276396	5.91447
3.43807	5.27916	0	5.91447
3.48885	5.27916	0	5.91447
3.56623	5.27916	0	6.00546
3.56628	5.27916	0	6.00546
3.56634	5.29298	0.0276396	6.00546
3.57215	5.32062	0	6.00546
3.60039	5.32062	0	6.00546
3.60055	5.32062	0	6.00546
3.60055	5.32062	0.0552792	6.00546
3.60059	5.34826	0.0276396	6.00546
3.63623	5.3759	0	6.00546
3.67122	5.3759	0	6.18744
3.67295	5.3759	0	6.18744
3.67476	5.3759	0.0276396	6.18744
3.67476	5.38972	0.0552792	6.18744
3.67477	5.41736	0.0276396	6.18744
3.67477	5.41736	0.0276396	6.18744
3.67478	5.445	0	6.18744
3.67966	5.445	0	6.18744
3.68103	5.445	0	6.18744
3.68106	5.45882	0.0276396	6.18744
3.72272	5.48646	0	6.18744
3.76779	5.48646	0	6.36943
3.76825	5.48646	0	6.36943
3.76833	5.48646	0.0276396	6.36943
3.76836	5.5141	0	6.36943
3.78692	5.5141	0	6.36943
3.78746	5.5141	0	6.36943
3.78749	5.52792	0.0276396	6.36943
3.80944	5.55556	0	6.36943
3.81996	5.55556	0	6.55141
3.82028	5.55556	0	6.55141
3.8203	5.55556	0.0552792	6.55141
3.82033	5.5832	0.0276396	6.55141
3.82752	5.61083	0	6.55141
3.85656	5.61083	0	6.6424
3.87541	5.61083	0	6.82439
3.87542	5.61083	0	6.82439
3.8756	5.61083	0.0276396	6.82439
3.8756	5.61083	0.0552792	6.82439
3.8756	5.63847	0.0276396	6.82439
3.88496	5.66611	0	6.82439
3.885	5.66611	0	6.82439
3.88507	5.67993	0.0276396	6.82439
3.91903	5.70757	0	6.82439
3.94041	5.70757	0	6.82439
3.94486	5.70757	0	7.00637
3.9928	5.70757	0	7.09736
4.00586	5.70757	0	7.18835
4.01613	5.70757	0	7.37034
4.01635	5.70757	0	7.37034
4.01715	5.70757	0	7.37034
4.01717	5.72139	0.0276396	7.37034
4.03735	5.74903	0	7.37034
4.04296	5.74903	0	7.46133
4.07275	5.74903	0	7.64331
4.12546	5.74903	0	7.64331
4.12549	5.74903	0	7.64331
4.12549	5.74903	0.0552792	7.64331
4.1255	5.77667	0.0276396	7.64331
4.12711	5.80431	0	7.64331
4.12785	5.80431	0	7.64331
4.12798	5.81813	0.0276396	7.64331
4.16645	5.84577	0	7.64331
4.1666	5.84577	0	7.8253
4.17522	5.84577	0	7.91629
4.17544	5.84577	0	7.91629
4.17544	5.84577	0.0552792	7.91629
4.1755	5.87341	0.0276396	7.91629
4.17914	5.90105	0	7.91629
4.17945	5.90105	0	7.91629
4.18017	5.90105	0.0276396	7.91629
4.18018	5.91487	0.0552792	7.91629
4.18018	5.94251	0.0276396	7.91629
4.18332	5.97015	0	7.91629
4.18524	5.97015	0	8.00728
4.22783	5.97015	0	8.18926
4.22834	5.97015	0	8.18926
4.22836	5.98397	0.0276396	8.18926
4.24359	6.01161	0	8.18926
4.24954	6.01161	0	8.18926
4.24988	6.01161	0	8.18926
4.25	6.02543	0.0276396	8.18926
4.25544	6.05307	0	8.18926
4.25621	6.05307	0	8.18926
4.25638	6.06689	0.0276396	8.18926
4.25955	6.09453	0	8.18926
4.25996	6.09453	0	8.18926
4.26006	6.10835	0.0276396	8.18926
4.31837	6.13599	0	8.18926
4.32633	6.13599	0	8.28025
4.32877	6.13599	0	8.46224
4.32894	6.13599	0	8.46224
4.32897	6.13599	0.0552792	8.46224
4.32902	6.16363	0.0276396	8.46224
4.36159	6.19127	0	8.46224
4.36256	6.19127	0	8.46224
4.36256	6.20509	0.0276396	8.46224
4.37046	6.23273	0	8.46224
4.37049	6.23273	0	8.46224
4.3705	6.23273	0	8.46224
4.37053	6.23273	0	8.46224
4.37406	6.23273	0	8.46224
4.37416	6.23273	0	8.46224
4.37428	6.24655	0.0276396	8.46224
4.43333	6.27418	0	8.46224
4.45534	6.27418	0	8.55323
4.45535	6.27418	0	8.55323
4.45535	6.288	0.0276396	8.55323
4.46594	6.31564	0	8.55323
4.46601	6.31564	0	8.55323
4.46618	6.32946	0.0276396	8.55323
4.46941	6.3571	0	8.55323
4.46996	6.3571	0	8.55323
4.46997	6.3571	0.0552792	8.55323
4.47002	6.38474	0.0276396	8.55323
4.47568	6.41238	0	8.55323
4.47621	6.41238	0	8.55323
4.47622	6.4262	0.0276396	8.55323
4.50128	6.45384	0	8.55323
4.50641	6.45384	0	8.55323
4.50651	6.45384	0	8.55323
4.50651	6.46766	0.0276396	8.55323
4.51025	6.4953	0	8.55323
4.51188	6.4953	0	8.55323
4.51201	6.4953	0.0276396	8.55323
4.51201	6.50912	0.0552792	8.55323
4.51212	6.53676	0.0276396	8.55323
4.52389	6.5644	0	8.55323
4.52435	6.5644	0	8.55323
4.52435	6.5644	0.0552792	8.55323
4.52436	6.59204	0.0276396	8.55323
4.52437	6.61968	0	8.55323
4.52438	6.61968	0	8.55323
4.5244	6.61968	0	8.55323
4.5759	6.61968	0	8.55323
4.57605	6.61968	0	8.55323
4.57619	6.61968	0.0276396	8.55323
4.57621	6.6335	0.0552792	8.55323
4.57621	6.66114	0.0276396	8.55323
4.59959	6.68878	0	8.55323
4.60546	6.68878	0	8.73521
4.61875	6.68878	0	8.82621
4.64672	6.68878	0	8.9172
4.6513	6.68878	0	9.00819
4.65496	6.68878	0	9.09918
4.66181	6.68878	0	9.19017
4.66376	6.68878	0	9.37216
4.68124	6.68878	0	9.55414
4.70246	6.68878	0	9.55414
4.73412	6.68878	0	9.64513
4.73421	6.68878	0	9.64513
4.73426	6.68878	0.0552792	9.64513
4.73428	6.71642	0.0276396	9.64513
4.74587	6.74406	0	9.64513
4.74641	6.74406	0	9.64513
4.74707	6.74406	0.0276396	9.64513
4.74936	6.74406	0.0552792	9.64513
4.75041	6.74406	0.0829187	9.64513
4.75082	6.74406	0.110558	9.64513
4.75108	6.74406	0.138198	9.64513
4.75123	6.74406	0.165837	9.64513
4.75154	6.74406	0.193477	9.64513
4.75339	6.74406	0.221117	9.64513
4.75342	6.74406	0.248756	9.64513
4.75347	6.7717	0.221117	9.64513
4.75351	6.7717	0.248756	9.64513
4.81484	6.79934	0.221117	9.64513
4.81484	6.79934	0.221117	9.64513
4.81485	6.82698	0.193477	9.64513
4.81485	6.85462	0.165837	9.64513
4.81489	6.88226	0.138198	9.64513
4.81491	6.90989	0.110558	9.64513
4.81493	6.93753	0.0829187	9.64513
4.81493	6.96517	0.0552792	9.64513
4.81493	6.96517	0.0829187	9.64513
4.81498	6.99281	0.0552792	9.64513
4.81618	7.02045	0.0276396	9.64513
4.81694	7.02045	0.0552792	9.64513
4.81721	7.02045	0.0829187	9.64513
4.81755	7.02045	0.110558	9.64513
4.81787	7.02045	0.138198	9.64513
4.81797	7.02045	0.165837	9.64513
4.81883	7.02045	0.193477	9.64513
4.81884	7.02045	0.248756	9.64513
4.81886	7.04809	0.221117	9.64513
4.8189	7.07573	0.193477	9.64513
4.8189	7.10337	0.165837	9.64513
4.81893	7.13101	0.138198	9.64513
4.81893	7.15865	0.110558	9.64513
4.81893	7.18629	0.0829187	9.64513
4.819	7.21393	0.0552792	9.64513
4.819	7.24157	0.0276396	9.64513
4.82528	7.26921	0	9.64513
4.84757	7.26921	0	9.64513
4.84774	7.26921	0	9.64513
4.84775	7.28303	0.0276396	9.64513
4.88751	7.31067	0	9.64513
4.89643	7.31067	0	9.73612
4.9153	7.31067	0	9.82712
4.92833	7.31067	0	9.82712
4.92869	7.31067	0	9.82712
4.9287	7.31067	0.0552792	9.82712
4.92878	7.33831	0.0276396	9.82712
4.95238	7.36595	0	9.82712
4.95331	7.36595	0	9.82712
4.95472	7.36595	0.0276396	9.82712
4.95496	7.36595	0.0552792	9.82712
4.95545	7.36595	0.0829187	9.82712
4.95548	7.37977	0.110558	9.82712
4.95548	7.40741	0.0829187	9.82712
4.95548	7.43505	0.0552792	9.82712
4.95552	7.46269	0.0276396	9.82712
4.96572	7.49033	0	9.82712
4.96572	7.49033	0	9.82712
4.96573	7.50415	0.0276396	9.82712
4.99215	7.53179	0	9.82712
5.00217	7.53179	0	9.91811
5.00259	7.53179	0	9.91811
5.00262	7.54561	0.0276396	9.91811
5.00645	7.57324	0	9.91811
5.00719	7.57324	0	9.91811
5.00721	7.58706	0.0276396	9.91811
5.00723	7.6147	0	9.91811
5.022	7.6147	0	9.91811
5.02244	7.6147	0	9.91811
5.02244	7.6147	0.0552792	9.91811
5.0225	7.64234	0.0276396	9.91811
5.02264	7.66998	0	9.91811
5.03132	7.66998	0	10.1001
5.03832	7.66998	0	10.2821
5.06386	7.66998	0	10.2821
5.06426	7.66998	0	10.2821
5.06426	7.66998	0.0552792	10.2821
5.06431	7.69762	0.0276396	10.2821
5.08572	7.72526	0	10.2821
5.12346	7.72526	0	10.4641
5.12526	7.72526	0	10.5551
5.12582	7.72526	0	10.5551
5.12582	7.73908	0.0276396	10.5551
5.1341	7.76672	0	10.5551
5.13415	7.76672	0	10.5551
5.13415	7.78054	0.0276396	10.5551
5.1756	7.80818	0	10.5551
5.19765	7.80818	0	10.646
5.1977	7.80818	0	10.646
5.19775	7.822	0.0276396	10.646
5.248	7.84964	0	10.646
5.24809	7.84964	0	10.646
5.2502	7.84964	0.0276396	10.646
5.25026	7.86346	0.0552792	10.646
5.25027	7.8911	0.0276396	10.646
5.27298	7.91874	0	10.646
5.28944	7.91874	0	10.737
5.30978	7.91874	0	10.919
5.33612	7.91874	0	11.01
5.33637	7.91874	0	11.01
5.34029	7.91874	0.0276396	11.01
5.34045	7.91874	0.0276396	11.01
5.35467	7.91874	0.0552792	11.01
5.35473	7.91874	0.0552792	11.192
5.35913	7.94638	0.0276396	11.192
5.3601	7.94638	0.0276396	11.192
5.36021	7.94638	0.0552792	11.192
5.37333	7.97402	0.0276396	11.192
5.37359	7.97402	0.0276396	11.192
5.3736	7.98784	0.0552792	11.192
5.37686	8.01548	0.0276396	11.192
5.3772	8.01548	0.0276396	11.192
5.37725	8.0293	0.0552792	11.192
5.38495	8.05694	0.0276396	11.192
5.385	8.05694	0.0276396	11.192
5.38572	8.08458	0	11.192
5.38599	8.08458	0	11.192
5.38606	8.08458	0.0276396	11.192
5.38606	8.0984	0.0552792	11.192
5.38607	8.12604	0.0276396	11.192
5.38615	8.12604	0.0276396	11.192
5.39458	8.15368	0	11.192
5.39472	8.15368	0	11.192
5.39479	8.1675	0.0276396	11.192
5.39511	8.19514	0	11.192
5.39523	8.19514	0	11.192
5.39528	8.20896	0.0276396	11.192
5.42582	8.23659	0	11.192
5.44381	8.23659	0	11.374
5.44487	8.23659	0	11.374
5.44524	8.23659	0.0276396	11.374
5.4453	8.25041	0.0552792	11.374
5.4454	8.27805	0.0276396	11.374
5.49386	8.30569	0	11.374
5.49421	8.30569	0	11.374
5.49423	8.31951	0.0276396	11.374
5.4993	8.34715	0	11.374
5.49973	8.34715	0	11.374
5.49985	8.36097	0.0276396	11.374
5.50647	8.38861	0	11.374
5.50677	8.38861	0	11.374
5.50688	8.40243	0.0276396	11.374
5.50798	8.43007	0	11.374
5.514	8.43007	0	11.556
5.51456	8.43007	0	11.556
5.5146	8.44389	0.0276396	11.556
5.51948	8.47153	0	11.556
5.5212	8.47153	0	11.556
5.52125	8.47153	0.0552792	11.556
5.52132	8.49917	0.0276396	11.556
5.55651	8.52681	0	11.556
5.55747	8.52681	0	11.556
5.55809	8.52681	0.0276396	11.556
5.55811	8.54063	0.0552792	11.556
5.55813	8.56827	0.0276396	11.556
5.5712	8.59591	0	11.556
5.57134	8.59591	0	11.556
5.57152	8.59591	0.0276396	11.556
5.57153	8.60973	0.0552792	11.556
5.57163	8.63737	0.0276396	11.556
5.57753	8.66501	0	11.556
5.57837	8.66501	0	11.556
5.57898	8.66501	0.0276396	11.556
5.57901	8.67883	0.0552792	11.556
5.57904	8.70647	0.0276396	11.556
5.57906	8.73411	0	11.556
5.57907	8.73411	0	11.556
5.60532	8.73411	0	11.556
5.60536	8.73411	0	11.556
5.6054	8.74793	0.0276396	11.556
5.6217	8.77557	0	11.556
5.62172	8.77557	0	11.556
5.62172	8.78939	0.0276396	11.556
5.62174	8.78939	0.0276396	11.556
5.62185	8.78939	0.0276396	11.556
5.63972	8.81703	0	11.556
5.63993	8.81703	0	11.556
5.64001	8.83085	0.0276396	11.556
5.64004	8.85849	0	11.556
5.64008	8.85849	0	11.556
5.64009	8.85849	0	11.556
5.66298	8.85849	0	11.556
5.6631	8.85849	0	11.556
5.66313	8.85849	0.0552792	11.556
5.66318	8.88612	0.0276396	11.556
5.67903	8.91376	0	11.556
5.67983	8.91376	0	11.556
5.68032	8.91376	0.0276396	11.556
5.68033	8.92758	0.0552792	11.556
5.68035	8.95522	0.0276396	11.556
5.71326	8.98286	0	11.556
5.71993	8.98286	0	11.647
5.72125	8.98286	0	11.7379
5.72157	8.98286	0	11.7379
5.72197	8.98286	0.0276396	11.7379
5.72198	8.99668	0.0552792	11.7379
5.72203	9.02432	0.0276396	11.7379
5.76055	9.05196	0	11.7379
5.76856	9.05196	0	11.9199
5.7691	9.05196	0	11.9199
5.76914	9.06578	0.0276396	11.9199
5.77925	9.09342	0	11.9199
5.7794	9.09342	0	11.9199
5.77944	9.09342	0.0552792	11.9199
5.77947	9.12106	0.0276396	11.9199
5.79252	9.1487	0	11.9199
5.79733	9.1487	0	12.1019
5.80756	9.1487	0	12.1929
5.80811	9.1487	0	12.1929
5.80814	9.16252	0.0276396	12.1929
5.81471	9.19016	0	12.1929
5.81477	9.19016	0	12.1929
5.81479	9.19016	0.0552792	12.1929
5.81481	9.2178	0.0276396	12.1929
5.82437	9.24544	0	12.1929
5.83162	9.24544	0	12.3749
5.83206	9.24544	0	12.3749
5.83225	9.24544	0.0276396	12.3749
5.83226	9.25926	0.0552792	12.3749
5.83227	9.2869	0.0276396	12.3749
5.85003	9.31454	0	12.3749
5.85039	9.31454	0	12.3749
5.85058	9.31454	0.0276396	12.3749
5.8506	9.32836	0.0552792	12.3749
5.8506	9.356	0.0276396	12.3749
5.88793	9.38364	0	12.3749
5.88819	9.38364	0	12.3749
5.8882	9.39746	0.0276396	12.3749
5.89492	9.4251	0	12.3749
5.89509	9.4251	0	12.3749
5.89513	9.43892	0.0276396	12.3749
5.90974	9.46656	0	12.3749
5.92007	9.46656	0	12.3749
6.00391	9.46656	0	12.4659
6.0044	9.46656	0	12.4659
6.00444	9.46656	0.0552792	12.4659
6.00446	9.4942	0.0276396	12.4659
6.01676	9.52184	0	12.4659
6.01963	9.52184	0	12.5569
6.02018	9.52184	0	12.5569
6.02029	9.53566	0.0276396	12.5569
6.02568	9.56329	0	12.5569
6.02583	9.56329	0	12.5569
6.02583	9.56329	0.0552792	12.5569
6.02613	9.59093	0.0276396	12.5569
6.03566	9.61857	0	12.5569
6.03568	9.61857	0	12.5569
6.03568	9.61857	0.0276396	12.5569
6.03569	9.63239	0.0552792	12.5569
6.0357	9.66003	0.0276396	12.5569
6.03571	9.68767	0	12.5569
6.05217	9.68767	0	12.5569
6.13781	9.68767	0	12.6479
6.17361	9.68767	0	12.8298
6.18663	9.68767	0	13.0118
6.18669	9.68767	0	13.0118
6.1867	9.70149	0.0276396	13.0118
6.19131	9.72913	0	13.0118
6.19249	9.72913	0	13.0118
6.1925	9.72913	0.0552792	13.0118
6.19261	9.75677	0.0276396	13.0118
6.19901	9.78441	0	13.0118
6.19931	9.78441	0	13.0118
6.19931	9.78441	0.0552792	13.0118
6.19939	9.81205	0.0276396	13.0118
6.20405	9.83969	0	13.0118
6.20425	9.83969	0	13.0118
6.2043	9.85351	0.0276396	13.0118
6.21931	9.88115	0	13.0118
6.23041	9.88115	0	13.1938
6.2306	9.88115	0	13.1938
6.23074	9.88115	0.0276396	13.1938
6.23759	9.88115	0.0552792	13.1938
6.2376	9.88115	0.0552792	13.1938
6.26101	9.88115	0.0552792	13.1938
6.26106	9.88115	0.0552792	13.1938
6.26112	9.90879	0.0276396	13.1938
6.26121	9.93643	0	13.1938
6.26127	9.93643	0.0276396	13.1938
6.26127	9.95025	0.0552792	13.1938
6.26136	9.97789	0.0276396	13.1938
6.32995	10.0055	0	13.1938
6.33845	10.0055	0	13.3758
6.3388	10.0055	0	13.3758
6.3389	10.0055	0.0276396	13.3758
6.33971	10.0055	0.0552792	13.3758
6.33974	10.0055	0.0829187	13.3758
6.34034	10.0055	0.110558	13.3758
6.34034	10.0055	0.138198	13.3758
6.34034	10.0332	0.110558	13.3758
6.34034	10.0608	0.0829187	13.3758
6.34035	10.0884	0.0552792	13.3758
6.34043	10.0884	0.0552792	13.3758
6.34043	10.1161	0.0276396	13.3758
6.38889	10.1437	0	13.3758
6.38894	10.1437	0	13.5578
6.40199	10.1437	0	13.5578
6.41868	10.1437	0	13.5578
6.41978	10.1437	0	13.5578
6.41983	10.1575	0.0276396	13.5578
6.42928	10.1852	0	13.5578
6.44982	10.1852	0	13.6488
6.44985	10.1852	0	13.6488
6.44986	10.199	0.0276396	13.6488
6.44986	10.2266	0	13.6488
6.48152	10.2266	0	13.6488
6.48156	10.2266	0	13.6488
6.48403	10.2266	0.0276396	13.6488
6.49193	10.2266	0.0276396	13.8308
6.51615	10.2266	0.0276396	13.9217
6.58475	10.2266	0.0276396	14.0127
6.58495	10.2266	0.0276396	14.0127
6.58655	10.2543	0	14.0127
6.69643	10.2543	0	14.1947
6.69656	10.2543	0	14.1947
6.69659	10.2681	0.0276396	14.1947
6.7509	10.2957	0	14.1947
6.81826	10.2957	0	14.3767
6.82779	10.2957	0	14.5587
6.84116	10.2957	0	14.6497
6.86229	10.2957	0	14.8317
6.86234	10.2957	0	15.0136
6.9285	10.2957	0	15.0136
6.92879	10.2957	0	15.0136
6.92885	10.2957	0	15.0136
6.92887	10.2957	0.0552792	15.0136
6.92898	10.3234	0.0276396	15.0136
6.92999	10.351	0	15.0136
6.93014	10.3648	0.0276396	15.0136
6.93014	10.3925	0	15.0136
6.93908	10.3925	0	15.0136
6.93929	10.3925	0	15.0136
6.93942	10.4063	0.0276396	15.0136
6.94178	10.4339	0	15.0136
6.95466	10.4339	0	15.1956
7.05701	10.4339	0	15.1956
7.10433	10.4339	0	15.2866
7.10439	10.4339	0	15.2866
7.10547	10.4339	0.0276396	15.2866
7.10578	10.4339	0.0552792	15.2866
7.10597	10.4339	0.0829187	15.2866
7.1067	10.4339	0.110558	15.2866
7.10671	10.4339	0.165837	15.2866
7.10672	10.4616	0.138198	15.2866
7.10672	10.4892	0.110558	15.2866
7.10672	10.5169	0.0829187	15.2866
7.10673	10.5169	0.0829187	15.2866
7.10674	10.5445	0.0552792	15.2866
7.10681	10.5721	0.0276396	15.2866
7.12019	10.5998	0	15.2866
7.12048	10.5998	0	15.2866
7.12048	10.5998	0.0552792	15.2866
7.12054	10.6274	0.0276396	15.2866
7.13318	10.6551	0	15.2866
7.13357	10.6551	0	15.2866
7.13361	10.6551	0.0552792	15.2866
7.13368	10.6827	0.0276396	15.2866
7.14483	10.7103	0	15.2866
7.16925	10.7103	0	15.4686
7.18813	10.7103	0	15.6506
7.18833	10.7103	0	15.6506
7.18843	10.7242	0.0276396	15.6506
7.2045	10.7518	0	15.6506
7.20773	10.7518	0	15.7416
7.21148	10.7518	0	15.9236
7.21152	10.7518	0	15.9236
7.21215	10.7518	0.0276396	15.9236
7.21215	10.7656	0.0552792	15.9236
7.21218	10.7933	0.0276396	15.9236
7.2531	10.8209	0	15.9236
7.25365	10.8209	0	15.9236
7.25373	10.8209	0.0552792	15.9236
7.25374	10.8485	0.0276396	15.9236
7.2677	10.8762	0	15.9236
7.26848	10.8762	0	15.9236
7.26856	10.89	0.0276396	15.9236
7.28096	10.9176	0	15.9236
7.28193	10.9176	0	15.9236
7.28196	10.9315	0.0276396	15.9236
7.39144	10.9591	0	15.9236
7.39187	10.9591	0	15.9236
7.39188	10.9591	0.0552792	15.9236
7.39189	10.9867	0.0276396	15.9236
7.40263	11.0144	0	15.9236
7.40347	11.0144	0	15.9236
7.4037	11.0282	0.0276396	15.9236
7.44403	11.0558	0	15.9236
7.44533	11.0558	0	15.9236
7.4466	11.0558	0.0276396	15.9236
7.44661	11.0697	0.0552792	15.9236
7.44667	11.0973	0.0276396	15.9236
7.44904	11.1249	0	15.9236
7.44944	11.1249	0	15.9236
7.44971	11.1249	0.0276396	15.9236
7.44971	11.1388	0.0552792	15.9236
7.44974	11.1664	0.0276396	15.9236
7.46539	11.194	0	15.9236
7.46663	11.194	0	15.9236
7.46688	11.194	0.0276396	15.9236
7.46741	11.194	0.0552792	15.9236
7.46745	11.2078	0.0829187	15.9236
7.46749	11.2355	0.0552792	15.9236
7.46751	11.2631	0.0276396	15.9236
7.48591	11.2908	0	15.9236
7.48689	11.2908	0	15.9236
7.48696	11.3046	0.0276396	15.9236
7.50038	11.3322	0	15.9236
7.51224	11.3322	0	16.1056
7.51248	11.3322	0	16.1056
7.51297	11.3322	0.0276396	16.1056
7.51321	11.3322	0.0552792	16.1056
7.51334	11.3322	0.0829187	16.1056
7.51334	11.3322	0.110558	16.1056
7.51336	11.3599	0.0829187	16.1056
7.51341	11.3875	0.0552792	16.1056
7.51346	11.4151	0.0276396	16.1056
7.55023	11.4428	0	16.1056
7.55079	11.4428	0	16.1056
7.5508	11.4428	0.0552792	16.1056
7.5508	11.4704	0.0276396	16.1056
7.57652	11.4981	0	16.1056
7.57762	11.4981	0	16.1056
7.57764	11.4981	0.0552792	16.1056
7.5777	11.5257	0.0276396	16.1056
7.58822	11.5533	0	16.1056
7.58888	11.5533	0	16.1056
7.58894	11.5672	0.0276396	16.1056
7.60798	11.5948	0	16.1056
7.61553	11.5948	0	16.1965
7.61696	11.5948	0	16.1965
7.6172	11.6086	0.0276396	16.1965
7.70003	11.6363	0	16.1965
7.70099	11.6363	0	16.1965
7.70101	11.6363	0.0552792	16.1965
7.70102	11.6639	0.0276396	16.1965
7.7554	11.6915	0	16.1965
7.75636	11.6915	0	16.1965
7.75647	11.6915	0.0276396	16.1965
7.75647	11.7054	0.0552792	16.1965
7.75655	11.733	0.0276396	16.1965
7.88501	11.7606	0	16.1965
7.88621	11.7606	0	16.3785
7.88677	11.7606	0	16.3785
7.88689	11.7606	0.0552792	16.3785
7.88691	11.7883	0.0276396	16.3785
7.93709	11.8159	0	16.3785
7.93727	11.8159	0	16.3785
8.05329	11.8159	0.0276396	16.3785
8.05332	11.8159	0.0276396	16.5605
8.05423	11.8436	0	16.5605
8.05452	11.8436	0	16.5605
8.05458	11.8574	0.0276396	16.5605
8.0595	11.885	0	16.5605
8.07798	11.885	0	16.6515
8.07799	11.885	0	16.6515
8.078	11.8988	0.0276396	16.6515
8.13267	11.9265	0	16.6515
8.13331	11.9265	0	16.6515
8.13332	11.9403	0.0276396	16.6515
8.15588	11.9679	0	16.6515
8.17382	11.9679	0	16.8335
8.17398	11.9679	0	16.8335
8.17399	11.9818	0.0276396	16.8335
8.19466	12.0094	0	16.8335
8.21711	12.0094	0	17.0155
8.21941	12.0094	0	17.0155
8.30423	12.0094	0	17.1065
8.30425	12.0094	0	17.1065
8.30453	12.0094	0.0276396	17.1065
8.30459	12.0232	0.0552792	17.1065
8.30462	12.0509	0.0276396	17.1065
8.35488	12.0785	0	17.1065
8.35558	12.0785	0	17.1065
8.35559	12.0923	0.0276396	17.1065
8.36216	12.12	0	17.1065
8.4108	12.12	0	17.2884
8.4112	12.12	0	17.2884
8.41143	12.1338	0.0276396	17.2884
8.48253	12.1614	0	17.2884
8.55263	12.1614	0	17.3794
8.55264	12.1614	0	17.3794
8.55297	12.1614	0.0276396	17.3794
8.55309	12.1752	0.0552792	17.3794
8.5532	12.2029	0.0276396	17.3794
8.56704	12.2305	0	17.3794
8.56744	12.2305	0	17.3794
8.56747	12.2305	0.0276396	17.3794
8.56748	12.2443	0.0552792	17.3794
8.56759	12.272	0.0276396	17.3794
8.59985	12.2996	0	17.3794
8.59988	12.2996	0	17.3794
8.60038	12.2996	0.0276396	17.3794
8.60046	12.3134	0.0552792	17.3794
8.60047	12.3411	0.0276396	17.3794
8.69963	12.3687	0	17.3794
8.70303	12.3687	0	17.3794
8.70396	12.3687	0.0276396	17.3794
8.70399	12.3825	0.0552792	17.3794
8.70414	12.4102	0.0276396	17.3794
8.70629	12.4378	0	17.3794
8.70637	12.4378	0	17.3794
8.70639	12.4516	0.0276396	17.3794
8.72285	12.4793	0	17.3794
8.72379	12.4793	0	17.3794
8.72383	12.4931	0.0276396	17.3794
8.73144	12.5207	0	17.3794
8.73215	12.5207	0	17.3794
8.7322	12.5345	0.0276396	17.3794
8.74828	12.5622	0	17.3794
8.76724	12.5622	0	17.5614
8.79253	12.5622	0	17.7434
8.79871	12.5622	0	17.9254
8.79877	12.5622	0	17.9254
8.79878	12.5622	0.0552792	17.9254
8.79882	12.5898	0.0276396	17.9254
8.80449	12.6175	0	17.9254
8.80452	12.6175	0	17.9254
8.80452	12.6313	0.0276396	17.9254
8.93552	12.6589	0	17.9254
8.93587	12.6589	0	17.9254
8.93589	12.6589	0.0552792	17.9254
8.93592	12.6866	0.0276396	17.9254
9.04475	12.7142	0	17.9254
9.04494	12.7142	0	17.9254
9.04497	12.728	0.0276396	17.9254
9.07012	12.7557	0	17.9254
9.07078	12.7557	0	17.9254
9.07088	12.7695	0.0276396	17.9254
9.08813	12.7971	0	17.9254
9.09729	12.7971	0	18.1074
9.15152	12.7971	0	18.2894
9.15164	12.7971	0	18.2894
9.15173	12.7971	0.0552792	18.2894
9.15178	12.8248	0.0276396	18.2894
9.15988	12.8524	0	18.2894
9.15994	12.8524	0	18.2894
9.16104	12.8524	0.0276396	18.2894
9.16107	12.8662	0.0552792	18.2894
9.16111	12.8939	0.0276396	18.2894
9.1991	12.9215	0	18.2894
9.19955	12.9215	0	18.2894
9.19956	12.9215	0.0552792	18.2894
9.19967	12.9491	0.0276396	18.2894
9.2036	12.9768	0	18.2894
9.20363	12.9768	0	18.2894
9.20365	12.9906	0.0276396	18.2894
9.228	13.0182	0	18.2894
9.22807	13.0182	0	18.2894
9.22813	13.0321	0.0276396	18.2894
9.2394	13.0597	0	18.2894
9.33943	13.0597	0	18.3803
9.34006	13.0597	0	18.3803
9.34008	13.0735	0.0276396	18.3803
9.34843	13.1012	0	18.3803
9.34847	13.1012	0	18.3803
9.34847	13.115	0.0276396	18.3803
9.35632	13.1426	0	18.3803
9.35702	13.1426	0	18.3803
9.35703	13.1426	0.0552792	18.3803
9.35706	13.1703	0.0276396	18.3803
9.36857	13.1979	0	18.3803
9.38472	13.1979	0	18.4713
9.38493	13.1979	0	18.4713
9.38495	13.1979	0.0552792	18.4713
9.38497	13.2255	0.0276396	18.4713
9.40471	13.2532	0	18.4713
9.41693	13.2532	0	18.6533
9.43521	13.2532	0	18.8353
9.49209	13.2532	0	18.9263
9.49262	13.2532	0	19.1083
9.49267	13.2532	0	19.1083
9.4927	13.2532	0.0552792	19.1083
9.4927	13.2808	0.0276396	19.1083
9.49334	13.3085	0	19.1083
9.50376	13.3085	0	19.2903
9.50461	13.3085	0	19.2903
9.50478	13.3085	0.0276396	19.2903
9.50549	13.3085	0.0552792	19.2903
9.50552	13.3223	0.0829187	19.2903
9.50552	13.3499	0.0552792	19.2903
9.50553	13.3776	0.0276396	19.2903
9.52744	13.4052	0	19.2903
9.52759	13.4052	0	19.2903
9.52777	13.4052	0.0276396	19.2903
9.52846	13.4052	0.0552792	19.2903
9.52848	13.419	0.0829187	19.2903
9.52851	13.4467	0.0552792	19.2903
9.52853	13.4743	0.0276396	19.2903
9.54037	13.5019	0	19.2903
9.54078	13.5019	0	19.2903
9.54157	13.5019	0.0276396	19.2903
9.54206	13.5019	0.0552792	19.2903
9.54208	13.5019	0.0829187	19.2903
9.54227	13.5019	0.110558	19.2903
9.54368	13.5019	0.138198	19.2903
9.54413	13.5019	0.165837	19.2903
9.54473	13.5019	0.193477	19.2903
9.54491	13.5019	0.221117	19.2903
9.54493	13.5019	0.248756	19.2903
9.54494	13.5019	0.276396	19.2903
9.545	13.5296	0.248756	19.2903
9.54501	13.5572	0.221117	19.2903
9.54502	13.5572	0.248756	19.2903
9.54625	13.5849	0.221117	19.2903
9.54629	13.5849	0.248756	19.2903
9.57411	13.6125	0.221117	19.2903
9.57411	13.6125	0.221117	19.3813
9.57411	13.6401	0.193477	19.3813
9.57411	13.6678	0.165837	19.3813
9.57412	13.6954	0.138198	19.3813
9.57413	13.7231	0.110558	19.3813
9.57413	13.7507	0.0829187	19.3813
9.57413	13.7783	0.0552792	19.3813
9.57416	13.806	0.0276396	19.3813
9.63698	13.8336	0	19.3813
9.63702	13.8336	0	19.3813
9.63703	13.8474	0.0276396	19.3813
9.67397	13.8751	0	19.3813
9.80524	13.8751	0	19.5632
9.90456	13.8751	0	19.6542
9.90495	13.8751	0	19.6542
9.90496	13.8751	0.0552792	19.6542
9.90507	13.9027	0.0276396	19.6542
9.95662	13.9303	0	19.6542
10.077	13.9303	0	19.8362
10.0778	13.9303	0	19.8362
10.0781	13.9303	0.0276396	19.8362
10.0787	13.9303	0.0552792	19.8362
10.0787	13.9303	0.110558	19.8362
10.0787	13.958	0.0829187	19.8362
10.0787	13.9856	0.0552792	19.8362
10.0789	14.0133	0.0276396	19.8362
10.176	14.0409	0	19.8362
10.1767	14.0409	0	19.8362
10.1767	14.0409	0	19.8362
10.1775	14.0409	0.0276396	19.8362
10.1775	14.0547	0.0552792	19.8362
10.1775	14.0824	0.0276396	19.8362
10.1778	14.11	0	19.8362
10.1779	14.1238	0.0276396	19.8362
10.2455	14.1515	0	19.8362
10.2472	14.1515	0	19.8362
10.2473	14.1653	0.0276396	19.8362
10.2533	14.1929	0	19.8362
10.3146	14.1929	0	20.0182
10.5293	14.1929	0	20.2002
10.5352	14.1929	0	20.2912
10.6175	14.1929	0	20.4732
10.618	14.1929	0	20.4732
10.618	14.1929	0.0552792	20.4732
10.618	14.1929	0.0552792	20.4732
10.6181	14.2206	0.0276396	20.4732
10.6575	14.2482	0	20.4732
10.6577	14.2482	0	20.4732
10.6578	14.262	0.0276396	20.4732
10.7012	14.2897	0	20.4732
10.7015	14.2897	0	20.4732
10.7023	14.2897	0.0276396	20.4732
10.7023	14.3035	0.0552792	20.4732
10.7023	14.3311	0.0276396	20.4732
10.7088	14.3588	0	20.4732
10.7088	14.3588	0	20.4732
10.7088	14.3588	0.0552792	20.4732
10.709	14.3864	0.0276396	20.4732
10.7158	14.414	0	20.4732
10.7161	14.414	0	20.4732
10.7162	14.4279	0.0276396	20.4732
10.7539	14.4555	0	20.4732
10.7868	14.4555	0	20.6551
10.787	14.4555	0	20.6551
10.787	14.4693	0.0276396	20.6551
10.805	14.497	0	20.6551
10.8182	14.497	0	20.7461
10.8182	14.497	0	20.7461
10.8182	14.5108	0.0276396	20.7461
10.8327	14.5384	0	20.7461
10.8542	14.5384	0	20.9281
10.8544	14.5384	0	20.9281
10.8544	14.5384	0.0552792	20.9281
10.8544	14.5661	0.0276396	20.9281
10.8586	14.5937	0	20.9281
10.8598	14.5937	0	20.9281
10.8599	14.6075	0.0276396	20.9281
10.8707	14.6352	0	20.9281
10.871	14.6352	0	20.9281
10.871	14.649	0.0276396	20.9281
10.9172	14.6766	0	20.9281
10.9512	14.6766	0	21.1101
10.9513	14.6766	0	21.1101
10.9516	14.6766	0.0276396	21.1101
10.9517	14.6904	0.0552792	21.1101
10.9517	14.7181	0.0276396	21.1101
11.0874	14.7457	0	21.1101
11.1856	14.7457	0	21.2921
11.1856	14.7457	0	21.2921
11.1857	14.7595	0.0276396	21.2921
11.2136	14.7872	0	21.2921
11.2138	14.7872	0	21.2921
11.2139	14.801	0.0276396	21.2921
11.2193	14.8286	0	21.2921
11.2672	14.8286	0	21.4741
11.2679	14.8286	0	21.4741
11.2679	14.8286	0.0552792	21.4741
11.2679	14.8563	0.0276396	21.4741
11.2687	14.8839	0	21.4741
11.2826	14.8839	0	21.6561
11.2828	14.8839	0	21.6561
11.2832	14.8839	0.0276396	21.6561
11.2832	14.8977	0.0552792	21.6561
11.2832	14.9254	0.0276396	21.6561
11.2832	14.953	0	21.6561
11.286	14.953	0	21.6561
11.3366	14.953	0	21.838
11.3367	14.953	0	21.838
11.3367	14.9668	0.0276396	21.838
11.3529	14.9945	0	21.838
11.5009	14.9945	0	22.02
11.533	14.9945	0	22.202
11.5337	14.9945	0	22.202
11.5346	14.9945	0.0276396	22.202
11.5346	14.9945	0.0829187	22.202
11.5347	15.0221	0.0552792	22.202
11.5348	15.0498	0.0276396	22.202
11.5434	15.0774	0	22.202
11.5435	15.0774	0	22.202
11.5435	15.0912	0.0276396	22.202
11.5895	15.1189	0	22.202
11.6429	15.1189	0	22.384
11.655	15.1189	0	22.566
11.6552	15.1189	0	22.566
11.6553	15.1327	0.0276396	22.566
11.6734	15.1603	0	22.566
11.6735	15.1603	0	22.566
11.6735	15.1603	0.0552792	22.566
11.6735	15.1879	0.0276396	22.566
11.7076	15.2156	0	22.566
11.7093	15.2156	0	22.566
11.7093	15.2156	0.0552792	22.566
11.7093	15.2432	0.0276396	22.566
11.7121	15.2709	0	22.566
11.7124	15.2709	0	22.566
11.7124	15.2847	0.0276396	22.566
11.7141	15.3123	0	22.566
11.7424	15.3123	0	22.657
11.7429	15.3123	0	22.657
11.7431	15.3123	0.0276396	22.657
11.7431	15.3261	0.0552792	22.657
11.7433	15.3538	0.0276396	22.657
11.7717	15.3814	0	22.657
11.8804	15.3814	0	22.8389
11.9305	15.3814	0	22.9299
11.9312	15.3814	0	22.9299
11.9312	15.3952	0.0276396	22.9299
11.9407	15.4229	0	22.9299
11.9409	15.4229	0	22.9299
11.9417	15.4229	0.0276396	22.9299
11.9417	15.4367	0.0552792	22.9299
11.9417	15.4643	0.0276396	22.9299
11.9531	15.492	0	22.9299
11.9534	15.492	0	22.9299
11.9552	15.492	0.0276396	22.9299
11.9672	15.492	0.0276396	23.1119
11.9679	15.492	0.0276396	23.1119
11.9679	15.5058	0.0552792	23.1119
12.0153	15.5334	0.0276396	23.1119
12.0153	15.5334	0.0276396	23.1119
12.0167	15.5611	0	23.1119
12.0169	15.5749	0.0276396	23.1119
12.0657	15.6025	0	23.1119
12.0661	15.6025	0	23.1119
12.0662	15.6025	0.0276396	23.1119
12.0662	15.6164	0.0552792	23.1119
12.0662	15.644	0.0276396	23.1119
12.0733	15.6716	0	23.1119
12.0733	15.6716	0	23.1119
12.0736	15.6716	0.0276396	23.1119
12.0736	15.6855	0.0552792	23.1119
12.0736	15.7131	0.0276396	23.1119
12.2118	15.7407	0	23.1119
12.2121	15.7407	0	23.1119
12.2122	15.7407	0.0276396	23.1119
12.2122	15.7546	0.0552792	23.1119
12.2122	15.7822	0.0276396	23.1119
12.3103	15.8098	0	23.1119
12.3105	15.8098	0	23.1119
12.3106	15.8098	0.0276396	23.1119
12.3106	15.8237	0.0552792	23.1119
12.3108	15.8513	0.0276396	23.1119
12.3932	15.8789	0	23.1119
12.394	15.8789	0	23.1119
12.394	15.8928	0.0276396	23.1119
12.4515	15.9204	0	23.1119
12.4518	15.9204	0	23.1119
12.4518	15.9342	0.0276396	23.1119
12.4543	15.9619	0	23.1119
12.455	15.9619	0	23.1119
12.4552	15.9619	0.0276396	23.1119
12.4553	15.9757	0.0552792	23.1119
12.4553	16.0033	0.0276396	23.1119
12.4804	16.031	0	23.1119
12.4804	16.031	0	23.1119
12.4804	16.031	0.0552792	23.1119
12.4804	16.0586	0.0276396	23.1119
12.4904	16.0862	0	23.1119
12.6667	16.0862	0	23.2939
12.667	16.0862	0	23.2939
12.6677	16.0862	0.0276396	23.2939
12.6677	16.1001	0.0552792	23.2939
12.6678	16.1277	0.0276396	23.2939
12.7796	16.1553	0	23.2939
12.78	16.1553	0	23.2939
12.78	16.1692	0.0276396	23.2939
12.7812	16.1968	0	23.2939
12.8102	16.1968	0	23.3849
12.9605	16.1968	0	23.5669
12.9608	16.1968	0	23.5669
12.9608	16.2106	0.0276396	23.5669
12.9874	16.2383	0	23.5669
12.9877	16.2383	0	23.5669
12.9877	16.2383	0.0552792	23.5669
12.9878	16.2659	0.0276396	23.5669
12.9941	16.2935	0	23.5669
12.996	16.2935	0	23.5669
12.996	16.3074	0.0276396	23.5669
13.1062	16.335	0	23.5669
13.1066	16.335	0	23.5669
13.1066	16.3488	0.0276396	23.5669
13.146	16.3765	0	23.5669
13.1465	16.3765	0	23.5669
13.1469	16.3765	0.0276396	23.5669
13.1469	16.3903	0.0552792	23.5669
13.147	16.4179	0.0276396	23.5669
13.1528	16.4456	0	23.5669
13.1532	16.4456	0	23.5669
13.1543	16.4456	0.0276396	23.5669
13.1543	16.4594	0.0552792	23.5669
13.1544	16.487	0.0276396	23.5669
13.2767	16.5146	0	23.5669
13.2768	16.5146	0	23.5669
13.2768	16.5146	0.0552792	23.5669
13.2768	16.5423	0.0276396	23.5669
13.3572	16.5699	0	23.5669
13.3579	16.5699	0	23.5669
13.3579	16.5699	0.0552792	23.5669
13.358	16.5976	0.0276396	23.5669
13.517	16.6252	0	23.5669
13.5183	16.6252	0	23.5669
13.5191	16.6252	0.0276396	23.5669
13.5194	16.6252	0.0552792	23.5669
13.5195	16.6252	0.0829187	23.5669
13.5202	16.6252	0.110558	23.5669
13.5205	16.6252	0.138198	23.5669
13.5205	16.6252	0.193477	23.5669
13.5205	16.6528	0.165837	23.5669
13.5205	16.6805	0.138198	23.5669
13.5205	16.7081	0.110558	23.5669
13.5206	16.7358	0.0829187	23.5669
13.5206	16.7634	0.0552792	23.5669
13.5206	16.791	0.0276396	23.5669
13.7028	16.8187	0	23.5669
13.7031	16.8187	0	23.5669
13.7031	16.8187	0.0552792	23.5669
13.7032	16.8463	0.0276396	23.5669
13.7121	16.874	0	23.5669
13.7127	16.874	0	23.5669
13.7127	16.874	0.0552792	23.5669
13.7127	16.9016	0.0276396	23.5669
13.7819	16.9292	0	23.5669
13.7825	16.9292	0	23.5669
13.7827	16.9292	0.0552792	23.5669
13.7827	16.9569	0.0276396	23.5669
13.7857	16.9845	0	23.5669
13.7859	16.9845	0	23.5669
13.7859	16.9845	0.0552792	23.5669
13.7859	17.0122	0.0276396	23.5669
13.8845	17.0398	0	23.5669
13.8849	17.0398	0	23.5669
13.885	17.0536	0.0276396	23.5669
13.8852	17.0813	0	23.5669
13.8854	17.0813	0	23.5669
13.8856	17.0951	0.0276396	23.5669
13.8985	17.1227	0	23.5669
14.0509	17.1227	0	23.7489
14.0509	17.1227	0	23.7489
14.0509	17.1365	0.0276396	23.7489
14.0878	17.1642	0	23.7489
14.1053	17.1642	0	23.9308
14.1296	17.1642	0	24.1128
14.1298	17.1642	0	24.1128
14.1302	17.1642	0.0276396	24.1128
14.1305	17.1642	0.0552792	24.1128
14.1315	17.1642	0.0829187	24.1128
14.1315	17.178	0.110558	24.1128
14.1316	17.2056	0.0829187	24.1128
14.1316	17.2333	0.0552792	24.1128
14.1317	17.2609	0.0276396	24.1128
14.1416	17.2886	0	24.1128
14.1424	17.2886	0	24.1128
14.1424	17.2886	0.0552792	24.1128
14.1424	17.3162	0.0276396	24.1128
14.1425	17.3162	0.0276396	24.1128
14.1605	17.3438	0	24.1128
14.1605	17.3438	0	24.1128
14.1605	17.3438	0.0552792	24.1128
14.1606	17.3715	0.0276396	24.1128
14.2267	17.3991	0	24.1128
14.2268	17.3991	0	24.1128
14.2268	17.3991	0.0552792	24.1128
14.2268	17.4268	0.0276396	24.1128
14.2351	17.4544	0	24.1128
14.2353	17.4544	0	24.1128
14.2354	17.4682	0.0276396	24.1128
14.2625	17.4959	0	24.1128
14.2627	17.4959	0	24.1128
14.2629	17.5097	0.0276396	24.1128
14.3382	17.5373	0	24.1128
14.3391	17.5373	0	24.1128
14.3392	17.5373	0.0276396	24.1128
14.3392	17.5511	0.0552792	24.1128
14.3392	17.5788	0.0276396	24.1128
14.3818	17.6064	0	24.1128
14.3821	17.6064	0	24.1128
14.3822	17.6202	0.0276396	24.1128
14.3863	17.6479	0	24.1128
14.4855	17.6479	0	24.2948
14.4865	17.6479	0	24.2948
14.4865	17.6479	0.0552792	24.2948
14.4865	17.6755	0.0276396	24.2948
14.5447	17.7032	0	24.2948
14.5452	17.7032	0	24.2948
14.5452	17.717	0.0276396	24.2948
14.5559	17.7446	0	24.2948
14.5573	17.7446	0	24.2948
14.5573	17.7446	0.0552792	24.2948
14.5574	17.7722	0.0276396	24.2948
14.6166	17.7999	0	24.2948
14.6167	17.7999	0	24.2948
14.6167	17.8137	0.0276396	24.2948
14.6531	17.8413	0	24.2948
14.6533	17.8413	0	24.2948
14.6535	17.8413	0.0276396	24.2948
14.6535	17.8552	0.0552792	24.2948
14.6536	17.8828	0.0276396	24.2948
14.6782	17.9104	0	24.2948
14.6784	17.9104	0	24.2948
14.6785	17.9243	0.0276396	24.2948
14.7209	17.9519	0	24.2948
14.729	17.9519	0	24.4768
14.8014	17.9519	0	24.6588
14.8019	17.9519	0	24.6588
14.802	17.9519	0.0552792	24.6588
14.802	17.9795	0.0276396	24.6588
14.8202	18.0072	0	24.6588
14.8227	18.0072	0	24.6588
14.8228	18.021	0.0276396	24.6588
14.8874	18.0486	0	24.6588
14.8881	18.0486	0	24.6588
14.8907	18.0486	0.0276396	24.6588
14.8907	18.0625	0.0552792	24.6588
14.8907	18.0901	0.0276396	24.6588
14.9044	18.1177	0	24.6588
14.9051	18.1177	0	24.6588
14.9051	18.1316	0.0276396	24.6588
15.2151	18.1592	0	24.6588
15.2151	18.1592	0	24.6588
15.2151	18.1592	0.0552792	24.6588
15.2151	18.1868	0.0276396	24.6588
15.216	18.2145	0	24.6588
15.216	18.2145	0	24.6588
15.2161	18.2283	0.0276396	24.6588
15.2332	18.2559	0	24.6588
15.2333	18.2559	0	24.6588
15.2334	18.2559	0.0276396	24.6588
15.2334	18.2698	0.0552792	24.6588
15.2335	18.2974	0.0276396	24.6588
15.2678	18.325	0	24.6588
15.269	18.325	0	24.6588
15.2691	18.3389	0.0276396	24.6588
15.3095	18.3665	0	24.6588
15.3101	18.3665	0	24.6588
15.3101	18.3803	0.0276396	24.6588
15.3237	18.408	0	24.6588
15.324	18.408	0	24.6588
15.3241	18.408	0.0552792	24.6588
15.3242	18.4356	0.0276396	24.6588
15.4738	18.4632	0	24.6588
15.4759	18.4632	0	24.6588
15.476	18.4771	0.0276396	24.6588
15.511	18.5047	0	24.6588
15.5114	18.5047	0	24.8408
15.5115	18.5047	0	24.8408
15.5115	18.5047	0.0552792	24.8408
15.5115	18.5323	0.0276396	24.8408
15.5575	18.56	0	24.8408
15.5577	18.56	0	24.8408
15.5577	18.56	0.0552792	24.8408
15.5577	18.5876	0.0276396	24.8408
15.7291	18.6153	0	24.8408
15.7305	18.6153	0	24.8408
15.7305	18.6153	0.0276396	24.8408
15.7306	18.6291	0.0552792	24.8408
15.7306	18.6567	0.0276396	24.8408
15.7456	18.6844	0	24.8408
15.7458	18.6844	0	24.8408
15.7458	18.6982	0.0276396	24.8408
15.7991	18.7258	0	24.8408
15.7991	18.7258	0	24.8408
15.7992	18.7396	0.0276396	24.8408
15.962	18.7673	0	24.8408
15.9628	18.7673	0	24.8408
15.9628	18.7811	0.0276396	24.8408
16.0867	18.8087	0	24.8408
16.087	18.8087	0	24.8408
16.0871	18.8087	0.0276396	24.8408
16.0872	18.8226	0.0552792	24.8408
16.0873	18.8502	0.0276396	24.8408
16.137	18.8778	0	24.8408
16.1384	18.8778	0	24.8408
16.1385	18.8917	0.0276396	24.8408
16.1452	18.9193	0	24.8408
16.1459	18.9193	0	24.8408
16.1461	18.9193	0.0276396	24.8408
16.1988	18.9469	0	24.8408
16.1991	18.9469	0	24.8408
16.1991	18.9469	0.0552792	24.8408
16.1991	18.9746	0.0276396	24.8408
16.2608	19.0022	0	24.8408
16.261	19.0022	0	24.8408
16.2611	19.016	0.0276396	24.8408
16.4661	19.0437	0	24.8408
16.4662	19.0437	0	24.8408
16.4663	19.0575	0.0276396	24.8408
16.5613	19.0851	0	24.8408
16.5628	19.0851	0	24.8408
16.5629	19.0989	0.0276396	24.8408
16.6383	19.1266	0	24.8408
16.6386	19.1266	0	24.8408
16.6387	19.1404	0.0276396	24.8408
16.6748	19.168	0	24.8408
16.6752	19.168	0	24.8408
16.6752	19.1819	0.0276396	24.8408
16.754	19.2095	0	24.8408
16.7652	19.2095	0	25.0227
16.7682	19.2095	0	25.2047
16.7685	19.2095	0	25.2047
16.7686	19.2095	0.0552792	25.2047
16.7686	19.2371	0.0276396	25.2047
16.8075	19.2648	0	25.2047
16.8076	19.2648	0	25.2047
16.8076	19.2648	0.0552792	25.2047
16.8077	19.2924	0.0276396	25.2047
16.8817	19.3201	0	25.2047
16.8829	19.3201	0	25.2047
16.883	19.3339	0.0276396	25.2047
16.9104	19.3615	0	25.2047
16.9104	19.3615	0	25.2047
17.1732	19.3615	0.0276396	25.2047
17.1733	19.3615	0.0276396	25.3867
17.2198	19.3892	0	25.3867
17.2206	19.3892	0	25.3867
17.2207	19.403	0.0276396	25.3867
17.2737	19.4306	0	25.3867
17.2745	19.4306	0	25.3867
17.2746	19.4444	0.0276396	25.3867
17.2957	19.4721	0	25.3867
17.296	19.4721	0	25.3867
17.296	19.4859	0.0276396	25.3867
17.2974	19.5135	0	25.3867
17.2976	19.5135	0	25.3867
17.2977	19.5135	0.0552792	25.3867
17.2977	19.5412	0.0276396	25.3867
17.3001	19.5688	0	25.3867
17.3901	19.5688	0	25.5687
17.3907	19.5688	0	25.5687
17.3907	19.5826	0.0276396	25.5687
17.4124	19.6103	0	25.5687
17.4133	19.6103	0	25.5687
17.4135	19.6241	0.0276396	25.5687
17.435	19.6517	0	25.5687
17.4354	19.6517	0	25.5687
17.4361	19.6517	0.0276396	25.5687
17.4361	19.6656	0.0552792	25.5687
17.4361	19.6932	0.0276396	25.5687
17.5481	19.7208	0	25.5687
17.5482	19.7208	0	25.5687
17.5482	19.7208	0.0552792	25.5687
17.5483	19.7485	0.0276396	25.5687
17.6801	19.7761	0	25.5687
17.6802	19.7761	0	25.5687
17.6804	19.7899	0.0276396	25.5687
17.6846	19.8176	0	25.5687
17.6861	19.8176	0	25.5687
17.6867	19.8176	0.0276396	25.5687
17.6868	19.8314	0.0552792	25.5687
17.6868	19.859	0.0276396	25.5687
17.7592	19.8867	0	25.5687
17.9449	19.8867	0	25.6597
17.9451	19.8867	0	25.6597
17.9824	19.8867	0.0276396	25.6597
17.9829	19.8867	0.0276396	25.6597
17.9829	19.9005	0.0552792	25.6597
18.0737	19.9281	0.0276396	25.6597
18.0739	19.9281	0.0276396	25.6597
18.0739	19.9281	0.0829187	25.6597
18.074	19.9558	0.0552792	25.6597
18.074	19.9834	0.0276396	25.6597
18.3557	20.0111	0	25.6597
18.3562	20.0111	0	25.6597
18.3566	20.0111	0.0276396	25.6597
18.3566	20.0249	0.0552792	25.6597
18.3567	20.0525	0.0276396	25.6597
18.3723	20.0802	0	25.6597
18.4086	20.0802	0	25.7507
18.4088	20.0802	0	25.7507
18.4089	20.094	0.0276396	25.7507
18.4508	20.1216	0	25.7507
18.451	20.1216	0	25.7507
18.6279	20.1216	0.0276396	25.7507
18.628	20.1216	0.0276396	25.9327
18.6315	20.1493	0	25.9327
18.6321	20.1493	0	25.9327
18.6321	20.1493	0.0276396	25.9327
18.6322	20.1631	0.0552792	25.9327
18.6323	20.1907	0.0276396	25.9327
18.8128	20.2184	0	25.9327
18.9083	20.2184	0	26.1146
18.9083	20.2184	0	26.1146
18.9084	20.2322	0.0276396	26.1146
19.1379	20.2598	0	26.1146
19.138	20.2598	0	26.1146
19.138	20.2598	0.0552792	26.1146
19.1381	20.2875	0.0276396	26.1146
19.14	20.3151	0	26.1146
19.1538	20.3151	0	26.2966
19.1539	20.3151	0	26.2966
19.1539	20.3289	0.0276396	26.2966
19.154	20.3566	0	26.2966
19.1542	20.3566	0	26.2966
19.1662	20.3566	0.0276396	26.2966
19.1665	20.3566	0.0276396	26.2966
19.1665	20.3704	0.0552792	26.2966
19.2288	20.398	0.0276396	26.2966
19.2288	20.398	0.0276396	26.2966
19.2292	20.4256	0	26.2966
19.2292	20.4256	0.0276396	26.2966
19.2292	20.4395	0.0552792	26.2966
19.2292	20.4671	0.0276396	26.2966
19.3058	20.4947	0	26.2966
19.3059	20.4947	0	26.2966
19.3059	20.4947	0.0552792	26.2966
19.306	20.5224	0.0276396	26.2966
19.3113	20.55	0	26.2966
19.312	20.55	0	26.2966
19.3126	20.55	0.0276396	26.2966
19.3126	20.5638	0.0552792	26.2966
19.3126	20.5915	0.0276396	26.2966
19.3712	20.6191	0	26.2966
19.3726	20.6191	0	26.2966
19.3744	20.6191	0.0276396	26.2966
19.3744	20.6329	0.0552792	26.2966
19.3745	20.6606	0.0276396	26.2966
19.3765	20.6882	0	26.2966
19.3767	20.6882	0	26.2966
19.3768	20.702	0.0276396	26.2966
19.4298	20.7297	0	26.2966
19.4307	20.7297	0	26.4786
19.4311	20.7297	0	26.4786
19.4313	20.7435	0.0276396	26.4786
19.4564	20.7711	0	26.4786
19.4568	20.7711	0	26.4786
19.4568	20.785	0.0276396	26.4786
19.5864	20.8126	0	26.4786
19.5866	20.8126	0	26.4786
19.5869	20.8126	0.0276396	26.4786
19.5873	20.8126	0.0552792	26.4786
19.5882	20.8126	0.0829187	26.4786
19.5884	20.8126	0.110558	26.4786
19.5885	20.8126	0.138198	26.4786
19.5888	20.8126	0.165837	26.4786
19.5901	20.8126	0.193477	26.4786
19.5917	20.8126	0.221117	26.4786
19.5919	20.8126	0.248756	26.4786
19.592	20.8402	0.221117	26.4786
19.592	20.8402	0.248756	26.4786
19.5928	20.8679	0.221117	26.4786
19.5928	20.8679	0.248756	26.4786
19.5929	20.8955	0.221117	26.4786
19.5931	20.8955	0.248756	26.4786
19.5933	20.9232	0.221117	26.4786
19.5933	20.937	0.248756	26.4786
19.5933	20.9646	0.221117	26.4786
19.5933	20.9923	0.193477	26.4786
19.5933	21.0199	0.165837	26.4786
19.5933	21.0475	0.138198	26.4786
19.5933	21.0752	0.110558	26.4786
19.5933	21.1028	0.0829187	26.4786
19.5933	21.1305	0.0552792	26.4786
19.5933	21.1581	0.0276396	26.4786
19.7029	21.1857	0	26.4786
19.7043	21.1857	0	26.4786
19.7045	21.1857	0.0276396	26.4786
19.7045	21.1996	0.0552792	26.4786
19.7046	21.2272	0.0276396	26.4786
19.7151	21.2548	0	26.4786
19.7154	21.2548	0	26.4786
19.7156	21.2548	0.0276396	26.4786
19.7161	21.2548	0.0552792	26.4786
19.7163	21.2548	0.0829187	26.4786
19.717	21.2548	0.110558	26.4786
19.7173	21.2548	0.138198	26.4786
19.7176	21.2548	0.165837	26.4786
19.7176	21.2687	0.193477	26.4786
19.7176	21.2963	0.165837	26.4786
19.7176	21.3239	0.138198	26.4786
19.7176	21.3516	0.110558	26.4786
19.7176	21.3792	0.0829187	26.4786
19.7177	21.4069	0.0552792	26.4786
19.7177	21.4345	0.0276396	26.4786
19.8051	21.4621	0	26.4786
19.8051	21.4621	0	26.4786
19.8051	21.476	0.0276396	26.4786
19.8713	21.5036	0	26.4786
19.8716	21.5036	0	26.4786
19.8716	21.5036	0.0552792	26.4786
19.8716	21.5312	0.0276396	26.4786
19.9979	21.5589	0	26.4786
20.0633	21.5589	0	26.6606
20.0637	21.5589	0	26.6606
20.0639	21.5589	0.0276396	26.6606
20.064	21.5727	0.0552792	26.6606
20.0641	21.6003	0.0276396	26.6606
20.2181	21.628	0	26.6606
20.2194	21.628	0	26.6606
20.2196	21.628	0.0276396	26.6606
20.2204	21.628	0.0552792	26.6606
20.2208	21.628	0.0829187	26.6606
20.2208	21.628	0.110558	26.6606
20.2208	21.6556	0.0829187	26.6606
20.2209	21.6833	0.0552792	26.6606
20.2209	21.7109	0.0276396	26.6606
20.3399	21.7385	0	26.6606
20.3403	21.7385	0	26.6606
20.3404	21.7523	0.0276396	26.6606
20.4914	21.78	0	26.6606
20.4918	21.78	0	26.6606
20.4918	21.78	0.0552792	26.6606
20.4919	21.8076	0.0276396	26.6606
20.5974	21.8353	0	26.6606
20.5977	21.8353	0	26.6606
20.5978	21.8491	0.0276396	26.6606
20.6032	21.8767	0	26.6606
20.6036	21.8767	0	26.6606
20.6036	21.8767	0.0552792	26.6606
20.6037	21.9044	0.0276396	26.6606
20.6699	21.932	0	26.6606
20.6706	21.932	0	26.6606
20.6724	21.932	0.0276396	26.6606
20.6726	21.932	0.0552792	26.6606
20.6729	21.932	0.0829187	26.6606
20.6729	21.932	0.110558	26.6606
20.6729	21.932	0.138198	26.6606
20.8574	21.932	0.165837	26.6606
20.8575	21.932	0.165837	26.8426
20.8575	21.9596	0.138198	26.8426
20.8575	21.9873	0.110558	26.8426
20.8575	22.0149	0.0829187	26.8426
20.8575	22.0426	0.0552792	26.8426
20.8575	22.0702	0.0276396	26.8426
21.0288	22.0978	0	26.8426
21.15	22.0978	0	27.0246
21.1501	22.0978	0	27.0246
21.1503	22.0978	0.0276396	27.0246
21.1503	22.1117	0.0552792	27.0246
21.1504	22.1393	0.0276396	27.0246
21.2374	22.1669	0	27.0246
21.2377	22.1669	0	27.0246
21.2377	22.1808	0.0276396	27.0246
21.6178	22.2084	0	27.0246
21.6178	22.2084	0	27.0246
21.6182	22.2084	0.0276396	27.0246
21.6182	22.2084	0.0552792	27.0246
21.6182	22.236	0.0276396	27.0246
21.7482	22.2637	0	27.0246
21.9669	22.2637	0	27.2066
21.9673	22.2637	0	27.2066
21.9673	22.2637	0.0552792	27.2066
21.9673	22.2913	0.0276396	27.2066
22.0458	22.319	0	27.2066
22.0463	22.319	0	27.2066
22.0466	22.319	0.0276396	27.2066
22.0466	22.3328	0.0552792	27.2066
22.0466	22.3604	0.0276396	27.2066
22.1329	22.3881	0	27.2066
22.1333	22.3881	0	27.2066
22.1333	22.3881	0.0552792	27.2066
22.1334	22.4157	0.0276396	27.2066
22.2066	22.4433	0	27.2066
22.2067	22.4433	0	27.2066
22.207	22.4572	0.0276396	27.2066
22.2446	22.4848	0	27.2066
22.2453	22.4848	0	27.2066
22.2453	22.4848	0.0552792	27.2066
22.2453	22.5124	0.0276396	27.2066
22.2644	22.5401	0	27.2066
22.265	22.5401	0	27.2066
22.265	22.5539	0.0276396	27.2066
22.2969	22.5815	0	27.2066
22.2971	22.5815	0	27.2066
22.2971	22.5954	0.0276396	27.2066
22.4217	22.623	0	27.2066
22.4219	22.623	0	27.2066
22.422	22.623	0.0276396	27.2066
22.422	22.6368	0.0552792	27.2066
22.4222	22.6645	0.0276396	27.2066
22.4994	22.6921	0	27.2066
22.4997	22.6921	0	27.2066
22.4997	22.7059	0.0276396	27.2066
22.6453	22.7336	0	27.2066
22.6453	22.7336	0	27.2066
22.6459	22.7336	0.0276396	27.2066
22.6465	22.7336	0.0552792	27.2066
22.6465	22.7336	0.0829187	27.2066
22.6465	22.7336	0.110558	27.2066
22.6473	22.7336	0.138198	27.2066
22.6479	22.7336	0.165837	27.2066
22.6488	22.7336	0.193477	27.2066
22.649	22.7336	0.221117	27.2066
22.649	22.7336	0.248756	27.2066
22.649	22.7336	0.276396	27.2066
22.6491	22.7612	0.248756	27.2066
22.6496	22.7888	0.221117	27.2066
22.6496	22.7888	0.248756	27.2066
22.7956	22.8165	0.221117	27.2066
22.7956	22.8165	0.221117	27.3885
22.7956	22.8441	0.193477	27.3885
22.7956	22.8718	0.165837	27.3885
22.7956	22.8994	0.138198	27.3885
22.7956	22.927	0.110558	27.3885
22.7956	22.9547	0.0829187	27.3885
22.7957	22.9823	0.0552792	27.3885
22.7958	23.01	0.0276396	27.3885
22.8699	23.0376	0	27.3885
22.8704	23.0376	0	27.3885
22.8704	23.0514	0.0276396	27.3885
22.947	23.079	0	27.3885
23.1186	23.079	0	27.4795
23.1186	23.079	0	27.4795
23.1187	23.079	0.0552792	27.4795
23.1187	23.1067	0.0276396	27.4795
23.1273	23.1343	0	27.4795
23.1287	23.1343	0	27.4795
23.1297	23.1343	0.0276396	27.4795
23.1297	23.1481	0.0552792	27.4795
23.1298	23.1758	0.0276396	27.4795
23.2623	23.2034	0	27.4795
23.3906	23.2034	0	27.6615
23.3915	23.2034	0	27.6615
23.3915	23.2034	0.0552792	27.6615
23.3916	23.2311	0.0276396	27.6615
23.4291	23.2587	0	27.6615
23.4294	23.2587	0	27.6615
23.4294	23.2587	0.0552792	27.6615
23.4294	23.2863	0.0276396	27.6615
23.5235	23.314	0	27.6615
23.5242	23.314	0	27.6615
23.5242	23.314	0.0552792	27.6615
23.5242	23.3416	0.0276396	27.6615
23.6323	23.3693	0	27.6615
23.6329	23.3693	0	27.6615
23.633	23.3831	0.0276396	27.6615
23.8199	23.4107	0	27.6615
23.8921	23.4107	0	27.8435
23.8921	23.4107	0	27.8435
23.9544	23.4107	0.0276396	27.8435
23.9544	23.4107	0.0276396	27.8435
23.9544	23.4384	0	27.8435
23.9544	23.4384	0	27.8435
23.9552	23.4384	0.0276396	27.8435
23.9553	23.4522	0.0552792	27.8435
23.9553	23.4798	0.0276396	27.8435
24.0336	23.5075	0	27.8435
24.0342	23.5075	0	27.8435
24.0342	23.5213	0.0276396	27.8435
24.5358	23.5489	0	27.8435
24.5359	23.5489	0	27.8435
24.536	23.5627	0.0276396	27.8435
24.7789	23.5904	0	27.8435
24.779	23.5904	0	27.8435
24.779	23.6042	0.0276396	27.8435
24.8304	23.6318	0	27.8435
24.8306	23.6318	0	27.8435
24.8312	23.6318	0.0276396	27.8435
24.8312	23.6457	0.0552792	27.8435
24.8312	23.6733	0.0276396	27.8435
25.4132	23.7009	0	27.8435
25.4136	23.7009	0	27.8435
25.4139	23.7009	0.0276396	27.8435
25.4139	23.7148	0.0552792	27.8435
25.414	23.7424	0.0276396	27.8435
25.414	23.77	0	27.8435
25.4141	23.77	0	27.8435
25.4142	23.77	0.0276396	27.8435
25.4142	23.7839	0.0552792	27.8435
25.4142	23.8115	0.0276396	27.8435
25.423	23.8391	0	27.8435
25.423	23.8391	0	27.8435
25.4231	23.8391	0.0276396	27.8435
25.4231	23.853	0.0552792	27.8435
25.4232	23.8806	0.0276396	27.8435
25.436	23.9082	0	27.8435
25.4373	23.9082	0	27.8435
25.4373	23.9221	0.0276396	27.8435
25.718	23.9497	0	27.8435
25.8111	23.9497	0	28.0255
25.8119	23.9497	0	28.0255
25.812	23.9635	0.0276396	28.0255
25.8295	23.9912	0	28.0255
25.8299	23.9912	0	28.0255
25.8299	23.9912	0.0552792	28.0255
25.8299	24.0188	0.0276396	28.0255
25.8562	24.0464	0	28.0255
25.8567	24.0464	0	28.0255
25.8567	24.0603	0.0276396	28.0255
26.107	24.0879	0	28.0255
26.1085	24.0879	0	28.0255
26.1085	24.0879	0.0552792	28.0255
26.1086	24.1155	0.0276396	28.0255
26.1884	24.1432	0	28.0255
26.1898	24.1432	0	28.0255
26.1898	24.157	0.0276396	28.0255
26.229	24.1846	0	28.0255
26.2293	24.1846	0	28.0255
26.2293	24.1985	0.0276396	28.0255
26.2653	24.2261	0	28.0255
26.2657	24.2261	0	28.0255
26.2657	24.2399	0.0276396	28.0255
26.5638	24.2676	0	28.0255
26.5639	24.2676	0	28.0255
26.564	24.2814	0.0276396	28.0255
26.9974	24.309	0	28.0255
26.9979	24.309	0	28.0255
26.9979	24.309	0.0552792	28.0255
26.998	24.3367	0.0276396	28.0255
27.8049	24.3643	0	28.0255
27.8051	24.3643	0	28.0255
27.8053	24.3781	0.0276396	28.0255
27.9829	24.4057	0	28.0255
27.9846	24.4057	0	28.0255
27.9846	24.4057	0.0552792	28.0255
27.9848	24.4334	0.0276396	28.0255
27.9911	24.461	0	28.0255
27.9912	24.461	0	28.0255
27.9912	24.461	0.0552792	28.0255
27.9912	24.4887	0.0276396	28.0255
29.1109	24.5163	0	28.0255
29.1112	24.5163	0	28.0255
29.1112	24.5301	0.0276396	28.0255
29.1714	24.5578	0	28.0255
29.1723	24.5578	0	28.0255
29.1724	24.5578	0.0552792	28.0255
29.1724	24.5854	0.0276396	28.0255
29.194	24.613	0	28.0255
29.1944	24.613	0	28.0255
29.1944	24.613	0.0552792	28.0255
29.1944	24.6407	0.0276396	28.0255
29.3699	24.6683	0	28.0255
29.3707	24.6683	0	28.0255
29.3707	24.6683	0.0552792	28.0255
29.3709	24.696	0.0276396	28.0255
29.4742	24.7236	0	28.0255
29.4754	24.7236	0	28.0255
29.4754	24.7374	0.0276396	28.0255
29.5635	24.7651	0	28.0255
29.5645	24.7651	0	28.0255
29.5646	24.7651	0.0552792	28.0255
29.5646	24.7927	0.0276396	28.0255
29.7459	24.8203	0	28.0255
29.7468	24.8203	0	28.0255
29.7469	24.8342	0.0276396	28.0255
30.0359	24.8618	0	28.0255
30.0359	24.8618	0	28.0255
30.0359	24.8756	0.0276396	28.0255
30.1714	24.9033	0	28.0255
30.1715	24.9033	0	28.0255
30.1715	24.9033	0.0552792	28.0255
30.1717	24.9309	0.0276396	28.0255
30.185	24.9585	0	28.0255
30.1853	24.9585	0	28.0255
30.1853	24.9585	0.0552792	28.0255
30.1853	24.9862	0.0276396	28.0255
30.3243	25.0138	0	28.0255
30.3253	25.0138	0	28.0255
30.3253	25.0138	0.0552792	28.0255
30.3253	25.0415	0.0276396	28.0255
30.327	25.0691	0	28.0255
30.3271	25.0691	0	28.0255
30.3274	25.0691	0.0276396	28.0255
30.3274	25.0829	0.0552792	28.0255
30.3275	25.1106	0.0276396	28.0255
30.4919	25.1382	0	28.0255
30.4926	25.1382	0	28.0255
30.4926	25.1382	0.0552792	28.0255
30.4928	25.1658	0.0276396	28.0255
30.554	25.1935	0	28.0255
30.5544	25.1935	0	28.0255
30.5545	25.1935	0.0552792	28.0255
30.5545	25.2211	0.0276396	28.0255
30.5958	25.2488	0	28.0255
30.596	25.2488	0	28.0255
30.596	25.2488	0.0552792	28.0255
30.5961	25.2764	0.0276396	28.0255
30.6233	25.304	0	28.0255
30.6235	25.304	0	28.0255
30.6235	25.304	0.0552792	28.0255
30.6236	25.3317	0.0276396	28.0255
30.7696	25.3593	0	28.0255
30.7702	25.3593	0	28.0255
30.7702	25.3593	0.0552792	28.0255
30.7702	25.387	0.0276396	28.0255
31.5307	25.4146	0	28.0255
31.5312	25.4146	0	28.0255
31.5313	25.4146	0.0552792	28.0255
31.5313	25.4422	0.0276396	28.0255
31.5377	25.4699	0	28.0255
31.5383	25.4699	0	28.0255
31.5397	25.4699	0.0276396	28.0255
31.5397	25.4837	0.0552792	28.0255
31.5399	25.5113	0.0276396	28.0255
31.6404	25.539	0	28.0255
31.6404	25.539	0	28.0255
31.6405	25.539	0.0552792	28.0255
31.6405	25.5666	0.0276396	28.0255
31.6986	25.5943	0	28.0255
31.6986	25.5943	0	28.0255
31.6986	25.5943	0.0552792	28.0255
31.6987	25.6219	0.0276396	28.0255
31.7702	25.6495	0	28.0255
31.7703	25.6495	0	28.0255
31.7703	25.6495	0.0552792	28.0255
31.7704	25.6772	0.0276396	28.0255
32.182	25.7048	0	28.0255
32.182	25.7048	0	28.0255
32.1821	25.7048	0.0276396	28.0255
32.1822	25.7186	0.0552792	28.0255
32.1822	25.7463	0.0276396	28.0255
33.0986	25.7739	0	28.0255
33.099	25.7739	0	28.0255
33.0992	25.7877	0.0276396	28.0255
33.272	25.8154	0	28.0255
33.2728	25.8154	0	28.0255
33.2728	25.8154	0.0552792	28.0255
33.2729	25.843	0.0276396	28.0255
33.6575	25.8706	0	28.0255
33.9727	25.8706	0	28.2075
33.9731	25.8706	0	28.2075
33.9731	25.8845	0.0276396	28.2075
34.2021	25.9121	0	28.2075
34.2022	25.9121	0	28.2075
34.2022	25.9121	0.0276396	28.2075
34.2022	25.9259	0.0552792	28.2075
34.2024	25.9536	0.0276396	28.2075
34.2998	25.9812	0	28.2075
34.2999	25.9812	0	28.2075
34.2999	25.995	0.0276396	28.2075
34.4345	26.0227	0	28.2075
34.4345	26.0227	0	28.2075
34.4345	26.0227	0.0552792	28.2075
34.4345	26.0503	0.0276396	28.2075
34.5025	26.0779	0	28.2075
34.503	26.0779	0	28.2075
34.5031	26.0779	0.0552792	28.2075
34.5031	26.1056	0.0276396	28.2075
34.5275	26.1332	0	28.2075
34.5281	26.1332	0	28.2075
34.5281	26.147	0.0276396	28.2075
34.6828	26.1747	0	28.2075
34.6832	26.1747	0	28.2075
34.6832	26.1747	0.0552792	28.2075
34.6833	26.2023	0.0276396	28.2075
34.8385	26.23	0	28.2075
34.8387	26.23	0	28.2075
34.8387	26.23	0.0552792	28.2075
34.8387	26.2576	0.0276396	28.2075
34.9584	26.2852	0	28.2075
34.9584	26.2852	0	28.2075
34.9584	26.2991	0.0276396	28.2075
35.1384	26.3267	0	28.2075
35.1386	26.3267	0	28.2075
35.1386	26.3405	0.0276396	28.2075
35.774	26.3682	0	28.2075
35.8456	26.3682	0	28.3894
35.8463	26.3682	0	28.3894
35.8463	26.382	0.0276396	28.3894
36.03	26.4096	0	28.3894
36.0302	26.4096	0	28.3894
36.0303	26.4096	0.0276396	28.3894
36.0303	26.4234	0.0552792	28.3894
36.0303	26.4511	0.0276396	28.3894
36.057	26.4787	0	28.3894
36.0573	26.4787	0	28.3894
36.0573	26.4787	0.0552792	28.3894
36.0573	26.5064	0.0276396	28.3894
36.1788	26.534	0	28.3894
36.1792	26.534	0	28.3894
36.1792	26.534	0.0276396	28.3894
36.1793	26.5478	0.0552792	28.3894
36.1793	26.5755	0.0276396	28.3894
36.6998	26.6031	0	28.3894
36.7006	26.6031	0	28.3894
36.7006	26.6169	0.0276396	28.3894
37.1189	26.6446	0	28.3894
37.1193	26.6446	0	28.3894
37.1193	26.6584	0.0276396	28.3894
37.4748	26.686	0	28.3894
37.476	26.686	0	28.3894
37.476	26.6998	0.0276396	28.3894
37.6477	26.7275	0	28.3894
37.6486	26.7275	0	28.3894
37.6497	26.7275	0.0276396	28.3894
37.6498	26.7275	0.0829187	28.3894
37.6498	26.7551	0.0552792	28.3894
37.6499	26.7828	0.0276396	28.3894
37.9808	26.8104	0	28.3894
37.9814	26.8104	0	28.3894
37.9815	26.8104	0.0276396	28.3894
37.9815	26.8242	0.0552792	28.3894
37.9815	26.8519	0.0276396	28.3894
38.1187	26.8795	0	28.3894
38.1187	26.8795	0	28.3894
38.1187	26.8795	0.0552792	28.3894
38.1187	26.9071	0.0276396	28.3894
38.4663	26.9348	0	28.3894
38.7633	26.9348	0	28.5714
38.7635	26.9348	0	28.5714
38.7635	26.9486	0.0276396	28.5714
39.041	26.9762	0	28.5714
39.0414	26.9762	0	28.5714
39.0414	26.9762	0.0552792	28.5714
39.0414	27.0039	0.0276396	28.5714
39.181	27.0315	0	28.5714
39.182	27.0315	0	28.5714
39.182	27.0315	0.0552792	28.5714
39.182	27.0591	0.0276396	28.5714
39.3356	27.0868	0	28.5714
39.3357	27.0868	0	28.5714
39.3357	27.1006	0.0276396	28.5714
39.9305	27.1282	0	28.5714
39.9329	27.1282	0	28.5714
39.933	27.1421	0.0276396	28.5714
40.2029	27.1697	0	28.5714
40.2029	27.1697	0	28.5714
40.2029	27.1835	0.0276396	28.5714
40.2759	27.2112	0	28.5714
40.276	27.2112	0	28.5714
42.3634	27.2112	0.0276396	28.5714
42.3635	27.2112	0.0276396	28.5714
42.3644	27.2388	0	28.5714
42.3651	27.2388	0.0276396	28.5714
42.3652	27.2388	0.0276396	28.5714
42.3652	27.2526	0.0552792	28.5714
42.3653	27.2803	0.0276396	28.5714
42.3659	27.3079	0	28.5714
42.366	27.3079	0.0552792	28.5714
42.366	27.3355	0.0276396	28.5714
42.6653	27.3632	0	28.5714
42.6656	27.3632	0	28.5714
42.6656	27.3632	0.0552792	28.5714
42.6656	27.3908	0.0276396	28.5714
43.4308	27.4185	0	28.5714
43.4314	27.4185	0	28.5714
43.4314	27.4185	0.0552792	28.5714
43.4315	27.4461	0.0276396	28.5714
46.2678	27.4737	0	28.5714
46.2682	27.4737	0	28.5714
46.2682	27.4737	0.0276396	28.5714
46.2682	27.4876	0.0552792	28.5714
46.2682	27.5152	0.0276396	28.5714
46.5514	27.5428	0	28.5714
46.5519	27.5428	0	28.5714
46.5519	27.5428	0.0552792	28.5714
46.5519	27.5705	0.0276396	28.5714
46.5525	27.5981	0	28.5714
46.5527	27.5981	0	28.5714
46.5527	27.5981	0.0552792	28.5714
46.5528	27.6258	0.0276396	28.5714
46.5591	27.6534	0	28.5714
46.5593	27.6534	0	28.5714
46.5593	27.6672	0.0276396	28.5714
47.1153	27.6949	0	28.5714
48.2651	27.6949	0	28.7534
48.2652	27.6949	0	28.7534
48.2652	27.7087	0.0276396	28.7534
48.8749	27.7363	0	28.7534
48.8755	27.7363	0	28.7534
48.8755	27.7363	0.0552792	28.7534
48.8755	27.764	0.0276396	28.7534
49.8015	27.7916	0	28.7534
49.8019	27.7916	0	28.7534
49.8019	27.7916	0.0552792	28.7534
49.8019	27.8192	0.0276396	28.7534
50.2423	27.8469	0	28.7534
50.243	27.8469	0	28.7534
50.243	27.8469	0.0552792	28.7534
50.243	27.8745	0.0276396	28.7534
51.7562	27.9022	0	28.7534
51.7565	27.9022	0	28.7534
51.7565	27.9022	0.0552792	28.7534
51.7565	27.9298	0.0276396	28.7534
51.7896	27.9574	0	28.7534
51.7897	27.9574	0	28.7534
51.7897	27.9574	0.0552792	28.7534
51.7898	27.9851	0.0276396	28.7534
53.4984	28.0127	0	28.7534
53.4989	28.0127	0	28.7534
53.4989	28.0127	0.0552792	28.7534
53.4989	28.0404	0.0276396	28.7534
53.5839	28.068	0	28.7534
53.5848	28.068	0	28.7534
53.5849	28.068	0.0552792	28.7534
53.5849	28.0956	0.0276396	28.7534
54.773	28.1233	0	28.7534
54.7734	28.1233	0	28.7534
54.7734	28.1233	0.0552792	28.7534
54.7735	28.1509	0.0276396	28.7534
57.8032	28.1786	0	28.7534
57.8037	28.1786	0	28.7534
57.8038	28.1924	0.0276396	28.7534
58.1909	28.22	0	28.7534
58.1918	28.22	0	28.7534
58.1919	28.22	0.0552792	28.7534
58.192	28.2477	0.0276396	28.7534
58.4693	28.2753	0	28.7534
58.4705	28.2753	0	28.7534
61.2594	28.2753	0.0276396	28.7534
61.2599	28.2753	0.0276396	28.7534
61.2599	28.2753	0.0829187	28.7534
61.2599	28.3029	0.0552792	28.7534
61.26	28.3306	0.0276396	28.7534
64.089	28.3582	0	28.7534
64.089	28.3582	0	28.7534
64.089	28.3582	0.0552792	28.7534
64.089	28.3858	0.0276396	28.7534
64.6298	28.4135	0	28.7534
64.6299	28.4135	0	28.7534
64.6307	28.4135	0.0276396	28.7534
64.6307	28.4273	0.0552792	28.7534
64.6307	28.4549	0.0276396	28.7534
65.5006	28.4826	0	28.7534
65.5007	28.4826	0	28.7534
65.5007	28.4826	0.0552792	28.7534
65.5008	28.5102	0.0276396	28.7534
66.6473	28.5379	0	28.7534
66.6474	28.5379	0	28.7534
66.6514	28.5379	0.0276396	28.7534
66.6514	28.5517	0.0552792	28.7534
66.6515	28.5793	0.0276396	28.7534
67.2427	28.607	0	28.7534
67.2444	28.607	0	28.7534
67.2444	28.607	0.0552792	28.7534
67.2445	28.6346	0.0276396	28.7534
67.9302	28.6622	0	28.7534
67.9304	28.6622	0	28.7534
67.9304	28.6622	0.0552792	28.7534
67.9305	28.6899	0.0276396	28.7534
72.9981	28.7175	0	28.7534
72.9985	28.7175	0	28.7534
72.9986	28.7313	0.0276396	28.7534
76.21	28.759	0	28.7534
76.2102	28.759	0	28.7534
76.2103	28.759	0.0552792	28.7534
76.2103	28.7866	0.0276396	28.7534
77.9598	28.8143	0	28.7534
77.9603	28.8143	0	28.7534
81.5397	28.8143	0.0276396	28.7534
81.5398	28.8143	0.0276396	28.7534
81.5405	28.8419	0	28.7534
81.5405	28.8419	0.0552792	28.7534
81.5406	28.8695	0.0276396	28.7534
82.1302	28.8972	0	28.7534
82.1313	28.8972	0	28.7534
106.825	28.8972	0.0276396	28.7534
106.825	28.8972	0.0276396	28.7534
106.826	28.9248	0	28.7534
125.585	28.9248	0.0276396	28.7534
125.585	28.9248	0.0276396	28.7534
125.585	28.9525	0	28.7534
