1.23085e-10	0	0	0
3.04502e-10	0	0	0
4.96438e-10	0	0	0
5.55594e-10	0	0	0
5.7761e-10	0	0	0
6.57586e-10	0	0	0
8.57566e-10	0	0	0
1.53895e-09	0	0	0
1.89858e-09	0	0	0
2.08798e-09	0	0	0
2.57021e-09	0	0	0
3.00168e-09	0	0	0
3.47054e-09	0	0	0
3.49343e-09	0	0	0
3.71676e-09	0	0	0
3.93853e-09	0	0	0
4.69089e-09	0	0	0
4.76595e-09	0	0	0
4.77043e-09	0	0	0
5.02295e-09	0	0	0
5.27285e-09	0	0	0
5.59385e-09	0	0	0
5.87255e-09	0	0	0
5.93425e-09	0	0	0
6.62985e-09	0	0	0
6.64755e-09	0	0	0
6.73941e-09	0	0	0
7.01842e-09	0	0	0
9.15526e-09	0	0	0
1.02124e-08	0	0	0
1.04441e-08	0	0	0
1.1322e-08	0	0	0
1.42907e-08	0	0	0
1.66279e-08	0	0	0
1.68237e-08	0	0	0
1.74884e-08	0	0	0
1.79684e-08	0	0	0
1.97599e-08	0	0	0
2.19349e-08	0	0	0
2.33654e-08	0	0	0
2.4172e-08	0	0	0
2.90263e-08	0	0	0
2.9704e-08	0	0	0
3.02647e-08	0	0	0
3.11694e-08	0	0	0
3.13123e-08	0	0	0
3.19625e-08	0	0	0
3.37626e-08	0	0	0
3.40949e-08	0	0	0
3.73847e-08	0	0	0
5.19013e-08	0	0	0
5.95892e-08	0	0	0
6.18822e-08	0	0	0
6.42144e-08	0	0	0
9.29569e-08	0	0	0
1.15369e-07	0	0	0
1.15794e-07	0	0	0
1.20576e-07	0	0	0
1.41107e-07	0	0	0
1.86986e-07	0	0	0
2.35502e-07	0	0	0
2.69169e-07	0	0	0
2.87939e-07	0	0	0
3.00414e-07	0	0	0
3.86044e-07	0	0	0
4.27709e-07	0	0	0
4.86822e-07	0	0	0
5.35265e-07	0	0	0
6.15715e-07	0	0	0
7.70842e-07	0	0	0
8.17176e-07	0	0	0
8.17844e-07	0	0	0
8.24632e-07	0	0	0
8.40792e-07	0	0	0
8.54073e-07	0	0	0
1.06265e-06	0	0	0
1.18192e-06	0	0	0
1.57391e-06	0	0	0
1.71128e-06	0	0	0
1.86482e-06	0	0	0
1.91515e-06	0	0	0
1.95811e-06	0	0	0
2.14122e-06	0	0	0
2.30608e-06	0	0	0
2.37726e-06	0	0	0
2.4674e-06	0	0	0
2.4705e-06	0	0	0
2.48099e-06	0	0	0
2.5285e-06	0	0	0
2.57272e-06	0	0	0
2.57896e-06	0	0	0
2.6107e-06	0	0	0
2.62399e-06	0	0	0
2.72653e-06	0	0	0
2.9845e-06	0	0	0
2.99378e-06	0	0	0
3.00073e-06	0	0	0
3.01195e-06	0	0	0
3.07648e-06	0	0	0
3.07722e-06	0	0	0
3.13458e-06	0	0	0
3.31353e-06	0	0	0
3.33398e-06	0	0	0
3.45958e-06	0	0	0
3.53778e-06	0	0	0
3.54681e-06	0	0	0
3.73286e-06	0	0	0
3.77396e-06	0	0	0
3.83199e-06	0	0	0
3.91898e-06	0	0	0
4.05475e-06	0	0	0
4.18799e-06	0	0	0
4.30895e-06	0	0	0
4.34588e-06	0	0	0
4.40052e-06	0	0	0
4.50944e-06	0	0	0
4.55463e-06	0	0	0
4.56042e-06	0	0	0
4.71338e-06	0	0	0
4.87174e-06	0	0	0
4.91353e-06	0	0	0
4.96742e-06	0	0	0
4.98004e-06	0	0	0
5.08417e-06	0	0	0
5.17989e-06	0	0	0
5.20891e-06	0	0	0
5.3296e-06	0	0	0
5.3445e-06	0	0	0
5.50943e-06	0	0	0
5.52871e-06	0	0	0
5.55428e-06	0	0	0
5.64334e-06	0	0	0
5.75487e-06	0	0	0
5.75493e-06	0	0	0
5.7579e-06	0	0	0
5.84779e-06	0	0	0
5.89617e-06	0	0	0
5.98304e-06	0	0	0
5.98441e-06	0	0	0
6.12304e-06	0	0	0
6.15088e-06	0	0	0
6.17112e-06	0	0	0
6.2177e-06	0	0	0
6.31975e-06	0	0	0
6.37495e-06	0	0	0
6.42986e-06	0	0	0
6.45455e-06	0	0	0
6.48435e-06	0	0	0
6.48654e-06	0	0	0
6.59334e-06	0	0	0
6.82662e-06	0	0	0
6.93185e-06	0	0	0
7.09511e-06	0	0	0
7.16818e-06	0	0	0
7.17564e-06	0	0	0
7.36169e-06	0	0	0
7.39734e-06	0	0	0
7.39941e-06	0	0	0
7.49075e-06	0	0	0
7.51446e-06	0	0	0
7.52424e-06	0	0	0
7.52509e-06	0	0	0
7.53736e-06	0	0	0
7.64352e-06	0	0	0
7.68217e-06	0	0	0
7.80951e-06	0	0	0
7.86072e-06	0	0	0
7.91332e-06	0	0	0
8.14278e-06	0	0	0
8.21838e-06	0	0	0
8.23202e-06	0	0	0
8.39095e-06	0	0	0
8.42222e-06	0	0	0
8.4251e-06	0	0	0
8.42865e-06	0	0	0
8.48339e-06	0	0	0
8.51185e-06	0	0	0
8.53606e-06	0	0	0
8.57435e-06	0	0	0
8.62276e-06	0	0	0
8.65063e-06	0	0	0
8.73628e-06	0	0	0
8.88966e-06	0	0	0
8.95978e-06	0	0	0
9.04533e-06	0	0	0
9.06529e-06	0	0	0
9.20023e-06	0	0	0
9.29503e-06	0	0	0
9.4902e-06	0	0	0
9.51831e-06	0	0	0
9.64735e-06	0	0	0
9.85756e-06	0	0	0
1.01417e-05	0	0	0
1.03163e-05	0	0	0
1.03362e-05	0	0	0
1.04617e-05	0	0	0
1.04683e-05	0	0	0
1.05219e-05	0	0	0
1.06351e-05	0	0	0
1.07536e-05	0	0	0
1.10762e-05	0	0	0
1.12247e-05	0	0	0
1.12481e-05	0	0	0
1.14741e-05	0	0	0
1.15575e-05	0	0	0
1.18945e-05	0	0	0
1.20032e-05	0	0	0
1.20268e-05	0	0	0
1.22032e-05	0	0	0
1.22361e-05	0	0	0
1.22521e-05	0	0	0
1.24333e-05	0	0	0
1.265e-05	0	0	0
1.26775e-05	0	0	0
1.27263e-05	0	0	0
1.28888e-05	0	0	0
1.30053e-05	0	0	0
1.30495e-05	0	0	0
1.31215e-05	0	0	0
1.34013e-05	0	0	0
1.38204e-05	0	0	0
1.39987e-05	0	0	0
1.40137e-05	0	0	0
1.40573e-05	0	0	0
1.41672e-05	0	0	0
1.46587e-05	0	0	0
1.47502e-05	0	0	0
1.53045e-05	0	0	0
1.54597e-05	0	0	0
1.5769e-05	0	0	0
1.57772e-05	0	0	0
1.58182e-05	0	0	0
1.60013e-05	0	0	0
1.60661e-05	0	0	0
1.64905e-05	0	0	0
1.66532e-05	0	0	0
1.66649e-05	0	0	0
1.72641e-05	0	0	0
1.73583e-05	0	0	0
1.76544e-05	0	0	0
1.78691e-05	0	0	0
1.81217e-05	0	0	0
1.81521e-05	0	0	0
1.81813e-05	0	0	0
1.83972e-05	0	0	0
1.86411e-05	0	0	0
1.89154e-05	0	0	0
1.90298e-05	0	0	0
1.90884e-05	0	0	0
1.91502e-05	0	0	0
1.97726e-05	0	0	0
1.99485e-05	0	0	0
2.0506e-05	0	0	0
2.10455e-05	0	0	0
2.10553e-05	0	0	0
2.16309e-05	0	0	0
2.17127e-05	0	0	0
2.19182e-05	0	0	0
2.20012e-05	0	0	0
2.26938e-05	0	0	0
2.29354e-05	0	0	0
2.29672e-05	0	0	0
2.32329e-05	0	0	0
2.35247e-05	0	0	0
2.35385e-05	0	0	0
2.3552e-05	0	0	0
2.37146e-05	0	0	0
2.37721e-05	0	0	0
2.38621e-05	0	0	0
2.38956e-05	0	0	0
2.4366e-05	0	0	0
2.49357e-05	0	0	0
2.51547e-05	0	0	0
2.5491e-05	0	0	0
2.5734e-05	0	0	0
2.57888e-05	0	0	0
2.60072e-05	0	0	0
2.61206e-05	0	0	0
2.63076e-05	0	0	0
2.6398e-05	0	0	0
2.65179e-05	0	0	0
2.70553e-05	0	0	0
2.7329e-05	0	0	0
2.74152e-05	0	0	0
2.74778e-05	0	0	0
2.75763e-05	0	0	0
2.79524e-05	0	0	0
2.80049e-05	0	0	0
2.8075e-05	0	0	0
2.81495e-05	0	0	0
2.83381e-05	0	0	0
2.84833e-05	0	0	0
2.86375e-05	0	0	0
2.91399e-05	0	0	0
2.92876e-05	0	0	0
2.95166e-05	0	0	0
3.05838e-05	0	0	0
3.06513e-05	0	0	0
3.10488e-05	0	0	0
3.10648e-05	0	0	0
3.1543e-05	0	0	0
3.2327e-05	0	0	0
3.25342e-05	0	0	0
3.27418e-05	0	0	0
3.27974e-05	0	0	0
3.31545e-05	0	0	0
3.4042e-05	0	0	0
3.40542e-05	0	0	0
3.46796e-05	0	0	0
3.48249e-05	0	0	0
3.50396e-05	0	0	0
3.53314e-05	0	0	0
3.56101e-05	0	0	0
3.58706e-05	0	0	0
3.62875e-05	0	0	0
3.63637e-05	0	0	0
3.66048e-05	0	0	0
3.76768e-05	0	0	0
3.771e-05	0	0	0
3.77417e-05	0	0	0
3.78609e-05	0	0	0
3.82135e-05	0	0	0
3.86555e-05	0	0	0
3.88445e-05	0	0	0
3.88451e-05	0	0	0
3.95698e-05	0	0	0
3.97902e-05	0	0	0
4.00922e-05	0	0	0
4.03398e-05	0	0	0
4.08168e-05	0	0	0
4.14204e-05	0	0	0
4.18082e-05	0	0	0
4.22747e-05	0	0	0
4.26039e-05	0	0	0
4.50861e-05	0	0	0
4.54212e-05	0	0	0
4.57527e-05	0	0	0
4.71412e-05	0	0	0
4.76344e-05	0	0	0
4.82871e-05	0	0	0
4.84932e-05	0	0	0
5.11323e-05	0	0	0
5.12808e-05	0	0	0
5.19306e-05	0	0	0
5.28773e-05	0	0	0
5.35327e-05	0	0	0
5.3961e-05	0	0	0
5.44604e-05	0	0	0
5.54957e-05	0	0	0
5.57846e-05	0	0	0
5.5807e-05	0	0	0
5.65109e-05	0	0	0
5.68585e-05	0	0	0
5.90762e-05	0	0	0
5.9273e-05	0	0	0
5.93393e-05	0	0	0
6.14229e-05	0	0	0
6.21251e-05	0	0	0
6.23633e-05	0	0	0
6.3638e-05	0	0	0
6.38648e-05	0	0	0
6.44013e-05	0	0	0
6.85801e-05	0	0	0
6.95916e-05	0	0	0
6.97811e-05	0	0	0
7.12075e-05	0	0	0
7.18302e-05	0	0	0
7.21435e-05	0	0	0
7.22254e-05	0	0	0
7.32083e-05	0	0	0
7.36929e-05	0	0	0
7.3893e-05	0	0	0
7.81021e-05	0	0	0
7.9013e-05	0	0	0
7.95834e-05	0	0	0
7.9713e-05	0	0	0
8.14978e-05	0	0	0
8.49567e-05	0	0	0
9.08188e-05	0	0	0
9.15382e-05	0	0	0
9.24359e-05	0	0	0
9.56031e-05	0	0	0
0.00010026	0	0	0
0.000101051	0	0	0
0.000104118	0	0	0
0.000108121	0	0	0
0.000110016	0	0	0
0.000111846	0	0	0
0.000116875	0	0	0
0.000118138	0	0	0
0.000118714	0	0	0
0.000119813	0	0	0
0.000126163	0	0	0
0.000129069	0	0	0
0.000137188	0	0	0
0.000137693	0	0	0
0.000139144	0	0	0
0.000140453	0	0	0
0.000146063	0	0	0
0.000154552	0	0	0
0.000180115	0	0	0
0.000182913	0	0	0
0.000232145	0	0	0
0.000257649	0	0	0
0.00463087	0	0	0
0.00761413	0	0	0
0.0322445	0	0	0
0.032453	0	0	0
0.0325332	0.0138198	0.0276396	0
0.0363337	0.0414594	0	0
0.0769237	0.0414594	0	0
0.0772508	0.0414594	0	0
0.0772636	0.0552792	0.0276396	0
0.0772871	0.0829187	0	0
0.100647	0.0829187	0	0
0.101359	0.0829187	0	0
0.101369	0.0967385	0.0276396	0
0.101381	0.0967385	0.0276396	0
0.101417	0.124378	0	0
0.10144	0.124378	0	0
0.101451	0.124378	0	0
0.135749	0.124378	0	0
0.139145	0.124378	0	0
0.139159	0.124378	0	0
0.142103	0.124378	0	0
0.150793	0.124378	0	0
0.151944	0.124378	0	0
0.160516	0.124378	0	0
0.164142	0.124378	0	0
0.164859	0.124378	0	0
0.165161	0.124378	0.0276396	0
0.16529	0.124378	0.0552792	0
0.166743	0.124378	0.0829187	0
0.167781	0.124378	0.110558	0
0.167788	0.138198	0.138198	0
0.167805	0.165837	0.110558	0
0.167806	0.165837	0.110558	0
0.16781	0.193477	0.0829187	0
0.167816	0.221117	0.0552792	0
0.167831	0.248756	0.0276396	0
0.167836	0.276396	0	0
0.16785	0.276396	0	0
0.185979	0.276396	0	0
0.190132	0.276396	0	0
0.193131	0.276396	0	0
0.222379	0.276396	0	0
0.232622	0.276396	0	0.0909918
0.232806	0.276396	0	0.0909918
0.233922	0.276396	0.0276396	0.0909918
0.233922	0.290216	0.0552792	0.0909918
0.233933	0.317855	0.0276396	0.0909918
0.233936	0.317855	0.0276396	0.0909918
0.244913	0.345495	0	0.0909918
0.262206	0.345495	0	0.0909918
0.278002	0.345495	0	0.0909918
0.278193	0.345495	0	0.0909918
0.279855	0.345495	0.0276396	0.0909918
0.279965	0.359315	0.0552792	0.0909918
0.280024	0.386954	0.0276396	0.0909918
0.288716	0.414594	0	0.0909918
0.298282	0.414594	0	0.0909918
0.299285	0.414594	0	0.0909918
0.325877	0.414594	0	0.0909918
0.326261	0.414594	0	0.0909918
0.326348	0.414594	0.0276396	0.0909918
0.326687	0.414594	0.0552792	0.0909918
0.326723	0.414594	0.0829187	0.0909918
0.326734	0.428413	0.110558	0.0909918
0.326765	0.456053	0.0829187	0.0909918
0.326801	0.483693	0.0552792	0.0909918
0.326805	0.511332	0.0276396	0.0909918
0.326833	0.538972	0	0.0909918
0.326854	0.538972	0	0.0909918
0.333981	0.538972	0	0.0909918
0.334268	0.538972	0	0.0909918
0.334392	0.538972	0.0276396	0.0909918
0.334565	0.538972	0.0552792	0.0909918
0.335394	0.538972	0.0829187	0.0909918
0.335417	0.552792	0.110558	0.0909918
0.335456	0.580431	0.0829187	0.0909918
0.335481	0.608071	0.0552792	0.0909918
0.335493	0.63571	0.0276396	0.0909918
0.339074	0.66335	0	0.0909918
0.339284	0.66335	0	0.0909918
0.339313	0.67717	0.0276396	0.0909918
0.339326	0.704809	0	0.0909918
0.362634	0.704809	0	0.0909918
0.385876	0.704809	0	0.0909918
0.392171	0.704809	0	0.0909918
0.399592	0.704809	0	0.0909918
0.462699	0.704809	0	0.0909918
0.462889	0.704809	0	0.0909918
0.462947	0.718629	0.0276396	0.0909918
0.472591	0.746269	0	0.0909918
0.478027	0.746269	0	0.0909918
0.478564	0.746269	0	0.0909918
0.478633	0.760088	0.0276396	0.0909918
0.478669	0.787728	0	0.0909918
0.513099	0.787728	0	0.0909918
0.514457	0.787728	0	0.0909918
0.514472	0.801548	0.0276396	0.0909918
0.514513	0.829187	0	0.0909918
0.514565	0.829187	0	0.0909918
0.516125	0.829187	0	0.0909918
0.517379	0.829187	0	0.0909918
0.517433	0.829187	0	0.0909918
0.52205	0.829187	0	0.0909918
0.525451	0.829187	0	0.0909918
0.529186	0.829187	0	0.0909918
0.555849	0.829187	0	0.0909918
0.556212	0.829187	0	0.0909918
0.556246	0.843007	0.0276396	0.0909918
0.566657	0.870647	0	0.0909918
0.566833	0.870647	0	0.0909918
0.56693	0.884467	0.0276396	0.0909918
0.566964	0.912106	0	0.0909918
0.613286	0.912106	0	0.0909918
0.613304	0.912106	0	0.0909918
0.623088	0.912106	0	0.0909918
0.624852	0.912106	0	0.0909918
0.62491	0.912106	0	0.0909918
0.626269	0.912106	0	0.0909918
0.634028	0.912106	0	0.272975
0.642965	0.912106	0	0.272975
0.649842	0.912106	0	0.272975
0.649992	0.912106	0	0.272975
0.650024	0.925926	0.0276396	0.272975
0.650474	0.953566	0	0.272975
0.658758	0.953566	0	0.272975
0.694161	0.953566	0	0.272975
0.694218	0.953566	0	0.272975
0.715677	0.953566	0	0.272975
0.725869	0.953566	0	0.363967
0.726525	0.953566	0	0.363967
0.726554	0.953566	0.0276396	0.363967
0.726806	0.953566	0.0552792	0.363967
0.727099	0.953566	0.0829187	0.363967
0.727613	0.953566	0.110558	0.363967
0.72808	0.953566	0.138198	0.363967
0.728632	0.953566	0.165837	0.363967
0.729467	0.953566	0.193477	0.363967
0.729704	0.953566	0.221117	0.363967
0.729766	0.953566	0.248756	0.363967
0.729845	0.981205	0.221117	0.363967
0.729885	0.981205	0.248756	0.363967
0.730407	1.00884	0.221117	0.363967
0.730448	1.00884	0.248756	0.363967
0.730464	1.03648	0.221117	0.363967
0.730485	1.03648	0.248756	0.363967
0.730779	1.06412	0.221117	0.363967
0.730888	1.06412	0.248756	0.363967
0.731045	1.09176	0.221117	0.363967
0.731111	1.09176	0.248756	0.363967
0.731553	1.1194	0.221117	0.363967
0.731642	1.1194	0.221117	0.363967
0.731661	1.13322	0.248756	0.363967
0.73202	1.16086	0.221117	0.363967
0.732093	1.16086	0.248756	0.363967
0.764058	1.1885	0.221117	0.363967
0.76406	1.1885	0.221117	0.363967
0.764064	1.21614	0.193477	0.363967
0.764068	1.24378	0.165837	0.363967
0.764139	1.27142	0.138198	0.363967
0.764156	1.29906	0.110558	0.363967
0.76416	1.29906	0.138198	0.363967
0.764532	1.3267	0.110558	0.363967
0.764538	1.3267	0.165837	0.363967
0.764556	1.35434	0.138198	0.363967
0.764563	1.38198	0.110558	0.363967
0.764572	1.40962	0.0829187	0.363967
0.764602	1.43726	0.0552792	0.363967
0.764619	1.4649	0.0276396	0.363967
0.764628	1.49254	0	0.363967
0.772624	1.49254	0	0.363967
0.802601	1.49254	0	0.363967
0.84872	1.49254	0	0.363967
0.861479	1.49254	0	0.454959
0.86152	1.49254	0	0.545951
0.872241	1.49254	0	0.545951
0.877521	1.49254	0	0.636943
0.885382	1.49254	0	0.636943
0.888029	1.49254	0	0.727934
0.888303	1.49254	0	0.727934
0.888661	1.49254	0.0276396	0.727934
0.888672	1.50636	0.0552792	0.727934
0.888742	1.534	0.0276396	0.727934
0.888765	1.56164	0	0.727934
0.888769	1.56164	0	0.727934
0.907343	1.56164	0	0.727934
0.907515	1.56164	0	0.727934
0.907851	1.56164	0	0.727934
0.90786	1.56164	0.0552792	0.727934
0.907894	1.58928	0.0276396	0.727934
0.908122	1.58928	0.0552792	0.727934
0.909317	1.61692	0.0276396	0.727934
0.90962	1.61692	0.0276396	0.818926
0.909624	1.63074	0.0552792	0.818926
0.909705	1.65837	0.0276396	0.818926
0.90979	1.65837	0.0276396	0.818926
0.910636	1.68601	0	0.818926
0.911018	1.68601	0	0.818926
0.911018	1.69983	0.0276396	0.818926
0.917658	1.72747	0	0.818926
0.917658	1.72747	0	0.818926
0.927971	1.72747	0.0276396	0.818926
0.938674	1.72747	0.0276396	0.818926
0.942315	1.72747	0.0276396	0.909918
0.966337	1.72747	0.0276396	1.00091
0.966348	1.72747	0.0276396	1.00091
0.966368	1.72747	0.0829187	1.00091
0.96639	1.75511	0.0552792	1.00091
0.966408	1.78275	0.0276396	1.00091
0.972107	1.81039	0	1.00091
0.972586	1.81039	0	1.00091
0.972675	1.81039	0.0552792	1.00091
0.972694	1.83803	0.0276396	1.00091
0.972733	1.83803	0.0276396	1.00091
0.97274	1.86567	0	1.00091
0.976445	1.86567	0	1.00091
0.990504	1.86567	0	1.00091
1.02119	1.86567	0	1.00091
1.02161	1.86567	0	1.00091
1.02162	1.86567	0.0552792	1.00091
1.02168	1.89331	0.0276396	1.00091
1.02912	1.92095	0	1.00091
1.04105	1.92095	0	1.00091
1.04112	1.92095	0	1.00091
1.04114	1.92095	0	1.00091
1.06259	1.92095	0	1.00091
1.06768	1.92095	0	1.0919
1.06772	1.92095	0	1.0919
1.06801	1.92095	0.0276396	1.0919
1.06802	1.93477	0.0552792	1.0919
1.06804	1.96241	0.0276396	1.0919
1.07995	1.99005	0	1.0919
1.11728	1.99005	0	1.0919
1.12601	1.99005	0	1.0919
1.12612	1.99005	0	1.0919
1.12623	1.99005	0.0276396	1.0919
1.12627	1.99005	0.0552792	1.0919
1.12639	1.99005	0.0829187	1.0919
1.12641	2.00387	0.110558	1.0919
1.12641	2.03151	0.0829187	1.0919
1.12642	2.05915	0.0552792	1.0919
1.12642	2.08679	0.0276396	1.0919
1.12642	2.11443	0	1.0919
1.12649	2.11443	0	1.0919
1.12709	2.11443	0	1.0919
1.12729	2.11443	0	1.0919
1.1273	2.12825	0.0276396	1.0919
1.12737	2.12825	0.0276396	1.0919
1.12864	2.15589	0	1.0919
1.14781	2.15589	0	1.0919
1.1479	2.15589	0	1.0919
1.14791	2.16971	0.0276396	1.0919
1.14801	2.19735	0	1.0919
1.14834	2.19735	0	1.0919
1.14839	2.19735	0.0552792	1.0919
1.14846	2.22499	0.0276396	1.0919
1.16531	2.25263	0	1.0919
1.23836	2.25263	0	1.0919
1.23931	2.25263	0	1.0919
1.23932	2.26645	0.0276396	1.0919
1.25023	2.29409	0	1.0919
1.25072	2.29409	0	1.0919
1.25081	2.29409	0.0276396	1.0919
1.25141	2.29409	0.0552792	1.0919
1.2519	2.29409	0.0829187	1.0919
1.25214	2.29409	0.110558	1.0919
1.25216	2.29409	0.165837	1.0919
1.25216	2.32172	0.138198	1.0919
1.25216	2.34936	0.110558	1.0919
1.25218	2.377	0.0829187	1.0919
1.2522	2.40464	0.0552792	1.0919
1.25224	2.43228	0.0276396	1.0919
1.25749	2.45992	0	1.0919
1.27168	2.45992	0	1.18289
1.27904	2.45992	0	1.18289
1.28706	2.45992	0	1.18289
1.28849	2.45992	0	1.18289
1.28858	2.45992	0.0276396	1.18289
1.28987	2.45992	0.0552792	1.18289
1.28987	2.47374	0.0829187	1.18289
1.28991	2.50138	0.0552792	1.18289
1.28998	2.52902	0.0276396	1.18289
1.32174	2.55666	0	1.18289
1.32198	2.55666	0	1.18289
1.32281	2.55666	0.0276396	1.18289
1.32281	2.57048	0.0552792	1.18289
1.32292	2.59812	0.0276396	1.18289
1.32297	2.62576	0	1.18289
1.32298	2.62576	0	1.18289
1.32883	2.62576	0	1.18289
1.34833	2.62576	0	1.18289
1.35007	2.62576	0	1.27389
1.36307	2.62576	0	1.36488
1.39802	2.62576	0	1.45587
1.39819	2.62576	0	1.45587
1.39847	2.62576	0.0276396	1.45587
1.39847	2.63958	0.0552792	1.45587
1.39855	2.66722	0.0276396	1.45587
1.39855	2.66722	0.0276396	1.45587
1.41704	2.69486	0	1.45587
1.41805	2.69486	0	1.45587
1.41812	2.70868	0.0276396	1.45587
1.43662	2.73632	0	1.45587
1.43678	2.73632	0	1.45587
1.4368	2.73632	0.0552792	1.45587
1.43684	2.76396	0.0276396	1.45587
1.43691	2.7916	0	1.45587
1.44089	2.7916	0	1.45587
1.44193	2.7916	0	1.45587
1.44195	2.7916	0.0552792	1.45587
1.44199	2.81924	0.0276396	1.45587
1.44212	2.84688	0	1.45587
1.45358	2.84688	0	1.54686
1.45705	2.84688	0	1.54686
1.47824	2.84688	0	1.54686
1.4994	2.84688	0	1.54686
1.53069	2.84688	0	1.72884
1.54338	2.84688	0	1.81984
1.54357	2.84688	0	1.81984
1.54494	2.84688	0.0276396	1.81984
1.54555	2.84688	0.0552792	1.81984
1.54585	2.84688	0.0552792	1.91083
1.54639	2.84688	0.0829187	1.91083
1.54791	2.84688	0.110558	1.91083
1.54791	2.8607	0.138198	1.91083
1.54797	2.8607	0.138198	1.91083
1.54798	2.88834	0.110558	1.91083
1.548	2.88834	0.110558	1.91083
1.54801	2.91598	0.0829187	1.91083
1.54802	2.94362	0.0552792	1.91083
1.54803	2.97125	0.0276396	1.91083
1.54806	2.99889	0	1.91083
1.55472	2.99889	0	1.91083
1.55508	2.99889	0	1.91083
1.5562	2.99889	0.0276396	1.91083
1.55678	2.99889	0.0552792	1.91083
1.55686	2.99889	0.0829187	1.91083
1.5582	2.99889	0.110558	1.91083
1.55821	3.01271	0.138198	1.91083
1.55821	3.04035	0.110558	1.91083
1.55821	3.06799	0.0829187	1.91083
1.55824	3.06799	0.0829187	1.91083
1.55842	3.09563	0.0552792	1.91083
1.55853	3.12327	0.0276396	1.91083
1.5608	3.15091	0	1.91083
1.56898	3.15091	0	1.91083
1.57806	3.15091	0	2.00182
1.57846	3.15091	0	2.00182
1.57847	3.16473	0.0276396	2.00182
1.60311	3.19237	0	2.00182
1.60316	3.19237	0	2.00182
1.60337	3.19237	0.0276396	2.00182
1.60342	3.19237	0.0552792	2.00182
1.60416	3.19237	0.0829187	2.00182
1.60422	3.19237	0.110558	2.00182
1.60465	3.19237	0.138198	2.00182
1.60487	3.19237	0.165837	2.00182
1.60487	3.19237	0.193477	2.00182
1.60489	3.19237	0.221117	2.00182
1.60491	3.19237	0.248756	2.00182
1.60636	3.22001	0.221117	2.00182
1.60647	3.22001	0.248756	2.00182
1.60666	3.24765	0.221117	2.00182
1.60671	3.24765	0.248756	2.00182
1.60713	3.27529	0.221117	2.00182
1.60717	3.27529	0.248756	2.00182
1.60717	3.30293	0.221117	2.00182
1.60742	3.30293	0.221117	2.00182
1.60744	3.30293	0.248756	2.00182
1.60766	3.33057	0.221117	2.00182
1.60768	3.33057	0.248756	2.00182
1.60774	3.33057	0.248756	2.00182
1.60845	3.35821	0.221117	2.00182
1.60867	3.35821	0.248756	2.00182
1.60871	3.38585	0.221117	2.00182
1.65318	3.38585	0.221117	2.00182
1.65319	3.38585	0.221117	2.09281
1.65319	3.41349	0.193477	2.09281
1.6532	3.44113	0.165837	2.09281
1.65321	3.46877	0.138198	2.09281
1.65321	3.46877	0.138198	2.09281
1.65321	3.49641	0.110558	2.09281
1.65322	3.52405	0.0829187	2.09281
1.65326	3.52405	0.0829187	2.09281
1.65332	3.55169	0.0552792	2.09281
1.65337	3.57933	0.0276396	2.09281
1.65466	3.60697	0	2.09281
1.69772	3.60697	0	2.09281
1.6983	3.60697	0	2.09281
1.69842	3.60697	0.0276396	2.09281
1.69989	3.60697	0.0552792	2.09281
1.70068	3.60697	0.0829187	2.09281
1.7007	3.62078	0.110558	2.09281
1.70072	3.64842	0.0829187	2.09281
1.70073	3.64842	0.0829187	2.09281
1.70073	3.67606	0.0552792	2.09281
1.70078	3.7037	0.0276396	2.09281
1.7008	3.73134	0	2.09281
1.70915	3.73134	0	2.09281
1.70928	3.73134	0	2.09281
1.71057	3.73134	0	2.09281
1.71062	3.74516	0.0276396	2.09281
1.74145	3.7728	0	2.09281
1.74159	3.7728	0	2.09281
1.74163	3.78662	0.0276396	2.09281
1.74337	3.81426	0	2.09281
1.74409	3.81426	0	2.2748
1.74744	3.81426	0	2.45678
1.75319	3.81426	0	2.54777
1.75341	3.81426	0	2.54777
1.75344	3.81426	0.0552792	2.54777
1.75349	3.8419	0.0276396	2.54777
1.75713	3.86954	0	2.54777
1.75713	3.86954	0	2.54777
1.75717	3.86954	0.0552792	2.54777
1.75727	3.89718	0.0276396	2.54777
1.78496	3.92482	0	2.54777
1.80056	3.92482	0	2.54777
1.8022	3.92482	0	2.63876
1.82255	3.92482	0	2.63876
1.82282	3.92482	0	2.63876
1.82289	3.92482	0.0552792	2.63876
1.82291	3.95246	0.0276396	2.63876
1.82291	3.9801	0	2.63876
1.82292	3.9801	0	2.63876
1.82294	3.9801	0	2.63876
1.82369	3.9801	0	2.63876
1.8241	3.9801	0	2.63876
1.82412	3.9801	0.0276396	2.63876
1.82413	3.99392	0.0552792	2.63876
1.82413	4.02156	0.0276396	2.63876
1.82423	4.0492	0	2.63876
1.82428	4.0492	0	2.63876
1.84662	4.0492	0	2.63876
1.85056	4.0492	0	2.72975
1.89371	4.0492	0	2.72975
1.8938	4.0492	0	2.72975
1.89383	4.06302	0.0276396	2.72975
1.89393	4.09066	0	2.72975
1.89433	4.09066	0	2.72975
1.89484	4.09066	0	2.82075
1.89486	4.10448	0.0276396	2.82075
1.9132	4.13212	0	2.82075
1.91327	4.13212	0	2.82075
1.91331	4.13212	0.0552792	2.82075
1.91332	4.13212	0.0552792	2.82075
1.91334	4.13212	0.0552792	2.82075
1.91339	4.15976	0.0276396	2.82075
1.92455	4.1874	0	2.82075
1.92465	4.1874	0	2.82075
1.9247	4.1874	0.0552792	2.82075
1.92472	4.21504	0.0276396	2.82075
1.92472	4.21504	0.0276396	2.82075
1.94532	4.24268	0	2.82075
1.94904	4.24268	0	2.82075
1.99987	4.24268	0	2.82075
2.00025	4.24268	0	2.82075
2.00025	4.2565	0.0276396	2.82075
2.00055	4.28413	0	2.82075
2.00267	4.28413	0	3.00273
2.01618	4.28413	0	3.09372
2.01635	4.28413	0	3.09372
2.01639	4.29795	0.0276396	3.09372
2.03788	4.32559	0	3.09372
2.04354	4.32559	0	3.09372
2.05258	4.32559	0	3.18471
2.0652	4.32559	0	3.18471
2.07847	4.32559	0	3.3667
2.14265	4.32559	0	3.3667
2.14423	4.32559	0	3.3667
2.1443	4.32559	0.0276396	3.3667
2.14497	4.32559	0.0552792	3.3667
2.14497	4.32559	0.110558	3.3667
2.14497	4.35323	0.0829187	3.3667
2.14498	4.38087	0.0552792	3.3667
2.14501	4.40851	0.0276396	3.3667
2.14502	4.43615	0	3.3667
2.17651	4.43615	0	3.3667
2.17884	4.43615	0	3.3667
2.18235	4.43615	0	3.45769
2.20139	4.43615	0	3.63967
2.21403	4.43615	0	3.63967
2.21409	4.43615	0	3.63967
2.21411	4.44997	0.0276396	3.63967
2.21475	4.47761	0	3.63967
2.2252	4.47761	0	3.73066
2.22583	4.47761	0	3.73066
2.22633	4.47761	0.0276396	3.73066
2.22641	4.47761	0.0552792	3.73066
2.25354	4.47761	0.0829187	3.73066
2.27176	4.47761	0.0829187	3.82166
2.27177	4.47761	0.0829187	3.91265
2.27177	4.50525	0.0552792	3.91265
2.27178	4.53289	0.0276396	3.91265
2.27197	4.53289	0.0276396	3.91265
2.27374	4.56053	0	3.91265
2.2738	4.56053	0	3.91265
2.2739	4.57435	0.0276396	3.91265
2.29491	4.60199	0	3.91265
2.29561	4.60199	0	3.91265
2.29564	4.61581	0.0276396	3.91265
2.30187	4.64345	0	3.91265
2.30233	4.64345	0	3.91265
2.30237	4.65727	0.0276396	3.91265
2.32267	4.68491	0	3.91265
2.32289	4.68491	0	3.91265
2.32294	4.68491	0.0276396	3.91265
2.32301	4.69873	0.0552792	3.91265
2.3231	4.72637	0.0276396	3.91265
2.34804	4.75401	0	3.91265
2.36487	4.75401	0	4.00364
2.37069	4.75401	0	4.09463
2.3916	4.75401	0	4.09463
2.3916	4.75401	0	4.09463
2.39165	4.76783	0.0276396	4.09463
2.39172	4.79547	0	4.09463
2.44343	4.79547	0	4.09463
2.44537	4.79547	0	4.18562
2.4457	4.79547	0	4.18562
2.44574	4.80929	0.0276396	4.18562
2.44583	4.80929	0.0276396	4.18562
2.44586	4.83693	0	4.18562
2.49978	4.83693	0	4.18562
2.50136	4.83693	0	4.18562
2.50143	4.85075	0.0276396	4.18562
2.50594	4.87839	0	4.18562
2.50628	4.87839	0	4.18562
2.50629	4.87839	0.0552792	4.18562
2.50642	4.90603	0.0276396	4.18562
2.56297	4.93367	0	4.18562
2.56362	4.93367	0	4.18562
2.56396	4.93367	0.0276396	4.18562
2.56399	4.94748	0.0552792	4.18562
2.56404	4.97512	0.0276396	4.18562
2.58136	5.00276	0	4.18562
2.58163	5.00276	0	4.18562
2.58244	5.00276	0.0276396	4.18562
2.58247	5.01658	0.0552792	4.18562
2.58248	5.04422	0.0276396	4.18562
2.58397	5.07186	0	4.18562
2.5848	5.07186	0	4.18562
2.58527	5.07186	0.0276396	4.18562
2.58545	5.07186	0.0552792	4.18562
2.58549	5.08568	0.0829187	4.18562
2.58549	5.11332	0.0552792	4.18562
2.58558	5.14096	0.0276396	4.18562
2.60914	5.1686	0	4.18562
2.60956	5.1686	0	4.18562
2.60961	5.18242	0.0276396	4.18562
2.60963	5.21006	0	4.18562
2.62272	5.21006	0	4.18562
2.63351	5.21006	0	4.27662
2.64801	5.21006	0	4.27662
2.65117	5.21006	0	4.36761
2.65208	5.21006	0	4.36761
2.65209	5.22388	0.0276396	4.36761
2.65581	5.25152	0	4.36761
2.65597	5.25152	0	4.36761
2.65602	5.25152	0.0552792	4.36761
2.65608	5.27916	0.0276396	4.36761
2.6857	5.3068	0	4.36761
2.68963	5.3068	0	4.4586
2.69085	5.3068	0	4.4586
2.69101	5.32062	0.0276396	4.4586
2.70138	5.34826	0	4.4586
2.72998	5.34826	0	4.4586
2.74251	5.34826	0	4.54959
2.74339	5.34826	0	4.54959
2.7438	5.34826	0.0276396	4.54959
2.74385	5.36208	0.0552792	4.54959
2.74419	5.38972	0.0276396	4.54959
2.74552	5.41736	0	4.54959
2.75865	5.41736	0	4.54959
2.75883	5.41736	0	4.54959
2.7589	5.41736	0.0552792	4.54959
2.75896	5.445	0.0276396	4.54959
2.75983	5.47264	0	4.54959
2.76807	5.47264	0	4.54959
2.76905	5.47264	0	4.54959
2.76948	5.47264	0.0276396	4.54959
2.77047	5.47264	0.0552792	4.54959
2.7705	5.48646	0.0829187	4.54959
2.77053	5.5141	0.0552792	4.54959
2.77053	5.54174	0.0276396	4.54959
2.77276	5.56938	0	4.54959
2.77935	5.56938	0	4.73157
2.7949	5.56938	0	4.82257
2.79499	5.56938	0	4.82257
2.795	5.5832	0.0276396	4.82257
2.79501	5.5832	0.0276396	4.82257
2.79502	5.5832	0.0276396	4.82257
2.80088	5.61083	0	4.82257
2.82368	5.61083	0	4.91356
2.82532	5.61083	0	4.91356
2.82562	5.61083	0.0276396	4.91356
2.82566	5.62465	0.0552792	4.91356
2.82567	5.65229	0.0276396	4.91356
2.8372	5.67993	0	4.91356
2.83785	5.67993	0	4.91356
2.83793	5.69375	0.0276396	4.91356
2.98616	5.72139	0	4.91356
2.98639	5.72139	0	4.91356
2.9864	5.72139	0.0552792	4.91356
2.98648	5.74903	0.0276396	4.91356
2.98693	5.77667	0	4.91356
2.98997	5.77667	0	5.00455
3.02654	5.77667	0	5.00455
3.02775	5.77667	0	5.18653
3.02806	5.77667	0	5.18653
3.02809	5.79049	0.0276396	5.18653
3.03955	5.81813	0	5.18653
3.05922	5.81813	0	5.27753
3.0595	5.81813	0	5.27753
3.0595	5.81813	0.0276396	5.27753
3.05984	5.84577	0	5.27753
3.05989	5.84577	0	5.27753
3.0599	5.85959	0.0276396	5.27753
3.06884	5.88723	0	5.27753
3.06899	5.88723	0	5.27753
3.06901	5.90105	0.0276396	5.27753
3.07291	5.92869	0	5.27753
3.07615	5.92869	0	5.36852
3.07627	5.92869	0	5.36852
3.07628	5.92869	0.0552792	5.36852
3.07628	5.95633	0.0276396	5.36852
3.07802	5.98397	0	5.36852
3.079	5.98397	0	5.36852
3.07904	5.99779	0.0276396	5.36852
3.09106	6.02543	0	5.36852
3.09301	6.02543	0	5.36852
3.09562	6.02543	0	5.45951
3.11646	6.02543	0	5.5505
3.13436	6.02543	0	5.73248
3.13893	6.02543	0	5.82348
3.16202	6.02543	0	6.00546
3.16213	6.02543	0	6.00546
3.16216	6.03925	0.0276396	6.00546
3.20171	6.06689	0	6.00546
3.20174	6.06689	0	6.00546
3.20175	6.08071	0.0276396	6.00546
3.20176	6.10835	0	6.00546
3.22613	6.10835	0	6.00546
3.2262	6.10835	0	6.00546
3.23175	6.10835	0	6.00546
3.23175	6.10835	0	6.00546
3.23175	6.10835	0.0552792	6.00546
3.2318	6.13599	0.0276396	6.00546
3.23678	6.16363	0	6.00546
3.23745	6.16363	0	6.00546
3.23861	6.16363	0.0276396	6.00546
3.23863	6.17745	0.0552792	6.00546
3.23885	6.20509	0.0276396	6.00546
3.242	6.23273	0	6.00546
3.26236	6.23273	0	6.00546
3.32135	6.23273	0	6.18744
3.32146	6.23273	0	6.18744
3.32235	6.23273	0.0276396	6.18744
3.32245	6.24655	0.0552792	6.18744
3.32245	6.27418	0.0276396	6.18744
3.32268	6.27418	0.0276396	6.18744
3.32443	6.30182	0	6.18744
3.35587	6.30182	0	6.27843
3.35609	6.30182	0	6.27843
3.35648	6.30182	0.0276396	6.27843
3.35652	6.31564	0.0552792	6.27843
3.35653	6.34328	0.0276396	6.27843
3.35856	6.37092	0	6.27843
3.37954	6.37092	0	6.46042
3.3819	6.37092	0	6.55141
3.38234	6.37092	0	6.55141
3.38256	6.37092	0.0276396	6.55141
3.38262	6.38474	0.0552792	6.55141
3.38267	6.41238	0.0276396	6.55141
3.41309	6.44002	0	6.55141
3.43912	6.44002	0	6.73339
3.47283	6.44002	0	6.82439
3.47308	6.44002	0	6.82439
3.47312	6.45384	0.0276396	6.82439
3.50819	6.48148	0	6.82439
3.52943	6.48148	0	6.82439
3.52959	6.48148	0	6.82439
3.52967	6.4953	0.0276396	6.82439
3.60367	6.52294	0	6.82439
3.61039	6.52294	0	6.91538
3.63152	6.52294	0	7.00637
3.63729	6.52294	0	7.18835
3.63747	6.52294	0	7.18835
3.63751	6.52294	0.0276396	7.18835
3.66638	6.55058	0	7.18835
3.67981	6.55058	0	7.27934
3.78563	6.55058	0	7.37034
3.78695	6.55058	0	7.37034
3.78698	6.5644	0.0276396	7.37034
3.78952	6.59204	0	7.37034
3.81607	6.59204	0	7.46133
3.81634	6.59204	0	7.46133
3.81636	6.59204	0.0552792	7.46133
3.81645	6.61968	0.0276396	7.46133
3.83324	6.64732	0	7.46133
3.83326	6.64732	0	7.46133
3.83327	6.66114	0.0276396	7.46133
3.84003	6.68878	0	7.46133
3.85279	6.68878	0	7.64331
3.85327	6.68878	0	7.64331
3.8533	6.7026	0.0276396	7.64331
3.89114	6.73024	0	7.64331
3.94762	6.73024	0	7.64331
3.98563	6.73024	0	7.8253
4.06409	6.73024	0	7.91629
4.06431	6.73024	0	7.91629
4.06486	6.73024	0.0276396	7.91629
4.06487	6.74406	0.0552792	7.91629
4.06488	6.7717	0.0276396	7.91629
4.07349	6.79934	0	7.91629
4.07372	6.79934	0	7.91629
4.07397	6.81316	0.0276396	7.91629
4.07587	6.8408	0	7.91629
4.0769	6.8408	0	7.91629
4.07691	6.8408	0.0552792	7.91629
4.07697	6.86844	0.0276396	7.91629
4.08682	6.89608	0	7.91629
4.10389	6.89608	0	8.09827
4.10411	6.89608	0	8.09827
4.10413	6.90989	0.0276396	8.09827
4.10426	6.93753	0	8.09827
4.10515	6.93753	0	8.09827
4.10521	6.95135	0.0276396	8.09827
4.1246	6.97899	0	8.09827
4.12504	6.97899	0	8.09827
4.12507	6.99281	0.0276396	8.09827
4.16084	7.02045	0	8.09827
4.16104	7.02045	0	8.09827
4.16106	7.03427	0.0276396	8.09827
4.18244	7.06191	0	8.09827
4.18518	7.06191	0	8.28025
4.20089	7.06191	0	8.37125
4.22677	7.06191	0	8.46224
4.22729	7.06191	0	8.46224
4.22814	7.06191	0.0276396	8.46224
4.22859	7.06191	0.0552792	8.46224
4.22859	7.07573	0.0829187	8.46224
4.22859	7.10337	0.0552792	8.46224
4.22862	7.13101	0.0276396	8.46224
4.23365	7.15865	0	8.46224
4.23449	7.15865	0	8.46224
4.2345	7.15865	0.0552792	8.46224
4.23455	7.18629	0.0276396	8.46224
4.23455	7.21393	0	8.46224
4.24039	7.21393	0	8.46224
4.26147	7.21393	0	8.46224
4.2617	7.21393	0	8.46224
4.26263	7.21393	0.0276396	8.46224
4.26307	7.21393	0.0552792	8.46224
4.2634	7.21393	0.0829187	8.46224
4.2634	7.22775	0.110558	8.46224
4.26342	7.25539	0.0829187	8.46224
4.26344	7.28303	0.0552792	8.46224
4.26349	7.31067	0.0276396	8.46224
4.27852	7.33831	0	8.46224
4.28533	7.33831	0	8.55323
4.30692	7.33831	0	8.64422
4.30973	7.33831	0	8.82621
4.30992	7.33831	0	8.82621
4.30998	7.35213	0.0276396	8.82621
4.35879	7.37977	0	8.82621
4.38763	7.37977	0	8.9172
4.38791	7.37977	0	8.9172
4.38803	7.39359	0.0276396	8.9172
4.38805	7.42123	0	8.9172
4.47071	7.42123	0	8.9172
4.47082	7.42123	0	8.9172
4.47082	7.42123	0.0552792	8.9172
4.47093	7.44887	0.0276396	8.9172
4.50344	7.47651	0	8.9172
4.51353	7.47651	0	8.9172
4.51362	7.47651	0	8.9172
4.51366	7.47651	0.0552792	8.9172
4.51375	7.50415	0.0276396	8.9172
4.51928	7.53179	0	8.9172
4.5197	7.53179	0	8.9172
4.51993	7.53179	0.0276396	8.9172
4.53745	7.55943	0	8.9172
4.53748	7.55943	0	8.9172
4.5375	7.55943	0.0276396	8.9172
4.5375	7.57324	0.0552792	8.9172
4.53751	7.57324	0.0552792	8.9172
4.53773	7.60088	0.0276396	8.9172
4.53925	7.62852	0	8.9172
4.53977	7.62852	0	8.9172
4.53979	7.62852	0.0276396	8.9172
4.5398	7.64234	0.0552792	8.9172
4.53986	7.66998	0.0276396	8.9172
4.54508	7.69762	0	8.9172
4.54589	7.69762	0	8.9172
4.54594	7.71144	0.0276396	8.9172
4.58603	7.73908	0	8.9172
4.59026	7.73908	0	9.09918
4.59619	7.73908	0	9.19017
4.61125	7.73908	0	9.28116
4.61142	7.73908	0	9.28116
4.61145	7.7529	0.0276396	9.28116
4.61523	7.78054	0	9.28116
4.6393	7.78054	0	9.28116
4.72919	7.78054	0	9.28116
4.72933	7.78054	0	9.28116
4.72936	7.78054	0.0552792	9.28116
4.72942	7.80818	0.0276396	9.28116
4.72961	7.83582	0	9.28116
4.74611	7.83582	0	9.28116
4.7523	7.83582	0	9.37216
4.75333	7.83582	0	9.37216
4.75378	7.83582	0.0276396	9.37216
4.75378	7.84964	0.0552792	9.37216
4.7538	7.87728	0.0276396	9.37216
4.75382	7.87728	0.0276396	9.37216
4.75384	7.87728	0.0276396	9.37216
4.75388	7.87728	0.0276396	9.37216
4.75832	7.90492	0	9.37216
4.79152	7.90492	0	9.46315
4.79192	7.90492	0	9.46315
4.79218	7.90492	0.0276396	9.46315
4.79344	7.90492	0.0552792	9.46315
4.79347	7.91874	0.0829187	9.46315
4.7935	7.94638	0.0552792	9.46315
4.79353	7.97402	0.0276396	9.46315
4.81072	8.00166	0	9.46315
4.8145	8.00166	0	9.46315
4.85946	8.00166	0	9.46315
4.86005	8.00166	0	9.46315
4.86015	8.01548	0.0276396	9.46315
4.8744	8.04312	0	9.46315
4.87454	8.04312	0	9.46315
4.87529	8.04312	0.0276396	9.46315
4.87538	8.05694	0.0552792	9.46315
4.87541	8.08458	0.0276396	9.46315
4.9473	8.11222	0	9.46315
4.94745	8.11222	0	9.46315
4.94752	8.12604	0.0276396	9.46315
4.95269	8.15368	0	9.46315
4.96297	8.15368	0	9.55414
4.96419	8.15368	0	9.55414
4.96467	8.15368	0.0276396	9.55414
4.96494	8.15368	0.0552792	9.55414
4.96497	8.1675	0.0829187	9.55414
4.96499	8.19514	0.0552792	9.55414
4.965	8.22278	0.0276396	9.55414
4.965	8.22278	0.0276396	9.55414
4.96514	8.22278	0.0276396	9.55414
4.99457	8.25041	0	9.55414
5.00145	8.25041	0	9.64513
5.02121	8.25041	0	9.82712
5.02189	8.25041	0	9.82712
5.0236	8.25041	0.0276396	9.82712
5.02361	8.26423	0.0552792	9.82712
5.02371	8.29187	0.0276396	9.82712
5.04083	8.31951	0	9.82712
5.0411	8.31951	0	9.82712
5.0411	8.31951	0.0552792	9.82712
5.04112	8.34715	0.0276396	9.82712
5.04506	8.37479	0	9.82712
5.05878	8.37479	0	10.0091
5.08114	8.37479	0	10.0091
5.11002	8.37479	0	10.1911
5.11755	8.37479	0	10.1911
5.11772	8.37479	0	10.1911
5.11777	8.38861	0.0276396	10.1911
5.12173	8.41625	0	10.1911
5.13179	8.41625	0	10.1911
5.15151	8.41625	0	10.2821
5.22373	8.41625	0	10.3731
5.23603	8.41625	0	10.3731
5.23622	8.41625	0	10.3731
5.23663	8.41625	0.0276396	10.3731
5.23679	8.41625	0.0552792	10.3731
5.23696	8.41625	0.0829187	10.3731
5.23708	8.41625	0.110558	10.3731
5.23714	8.41625	0.138198	10.3731
5.2379	8.41625	0.165837	10.3731
5.23925	8.41625	0.193477	10.3731
5.23928	8.41625	0.221117	10.3731
5.23957	8.41625	0.248756	10.3731
5.23993	8.44389	0.221117	10.3731
5.24009	8.44389	0.248756	10.3731
5.24027	8.47153	0.221117	10.3731
5.2403	8.47153	0.248756	10.3731
5.24085	8.49917	0.221117	10.3731
5.2409	8.49917	0.248756	10.3731
5.24113	8.52681	0.221117	10.3731
5.24115	8.52681	0.248756	10.3731
5.24115	8.52681	0.276396	10.3731
5.24115	8.52681	0.276396	10.3731
5.24116	8.55445	0.248756	10.3731
5.24196	8.58209	0.221117	10.3731
5.24198	8.58209	0.248756	10.3731
5.26724	8.60973	0.221117	10.3731
5.26724	8.60973	0.221117	10.3731
5.26726	8.63737	0.193477	10.3731
5.26728	8.63737	0.193477	10.3731
5.26728	8.66501	0.165837	10.3731
5.26729	8.66501	0.165837	10.3731
5.2673	8.69265	0.138198	10.3731
5.2673	8.72029	0.110558	10.3731
5.26732	8.74793	0.0829187	10.3731
5.26735	8.77557	0.0552792	10.3731
5.26751	8.80321	0.0276396	10.3731
5.26754	8.83085	0	10.3731
5.26782	8.83085	0	10.3731
5.26785	8.84467	0.0276396	10.3731
5.30609	8.87231	0	10.3731
5.32434	8.87231	0	10.5551
5.3266	8.87231	0	10.646
5.32671	8.87231	0	10.646
5.32673	8.88612	0.0276396	10.646
5.32675	8.91376	0	10.646
5.33349	8.91376	0	10.646
5.3336	8.91376	0	10.646
5.33363	8.92758	0.0276396	10.646
5.37226	8.95522	0	10.646
5.37329	8.95522	0	10.646
5.37334	8.96904	0.0276396	10.646
5.37529	8.99668	0	10.646
5.37579	8.99668	0	10.646
5.37579	8.99668	0.0552792	10.646
5.37581	9.02432	0.0276396	10.646
5.37846	9.05196	0	10.646
5.37934	9.05196	0	10.646
5.37948	9.05196	0.0276396	10.646
5.37956	9.06578	0.0552792	10.646
5.37957	9.09342	0.0276396	10.646
5.38946	9.12106	0	10.646
5.38959	9.12106	0	10.646
5.38959	9.13488	0.0276396	10.646
5.39411	9.16252	0	10.646
5.39443	9.16252	0	10.646
5.39455	9.17634	0.0276396	10.646
5.39937	9.20398	0	10.646
5.41273	9.20398	0	10.737
5.44341	9.20398	0	10.828
5.44688	9.20398	0	10.919
5.45923	9.20398	0	10.919
5.46904	9.20398	0	11.01
5.48029	9.20398	0	11.101
5.49647	9.20398	0	11.192
5.53466	9.20398	0	11.283
5.56736	9.20398	0	11.374
5.58471	9.20398	0	11.465
5.58544	9.20398	0	11.465
5.58551	9.2178	0.0276396	11.465
5.61452	9.24544	0	11.465
5.61477	9.24544	0	11.465
5.61482	9.24544	0.0552792	11.465
5.6149	9.27308	0.0276396	11.465
5.61493	9.30072	0	11.465
5.62144	9.30072	0	11.465
5.6217	9.30072	0	11.465
5.6217	9.30072	0.0276396	11.465
5.63379	9.32836	0	11.465
5.63395	9.32836	0	11.465
5.63396	9.32836	0.0552792	11.465
5.63397	9.356	0.0276396	11.465
5.64244	9.38364	0	11.465
5.64396	9.38364	0	11.465
5.64401	9.38364	0.0276396	11.465
5.64819	9.41128	0	11.465
5.64885	9.41128	0	11.465
5.64904	9.4251	0.0276396	11.465
5.65498	9.45274	0	11.465
5.65514	9.45274	0	11.465
5.65522	9.46656	0.0276396	11.465
5.67259	9.4942	0	11.465
5.68098	9.4942	0	11.556
5.6813	9.4942	0	11.556
5.68131	9.4942	0.0552792	11.556
5.68134	9.52184	0.0276396	11.556
5.68781	9.54947	0	11.556
5.69406	9.54947	0	11.7379
5.69475	9.54947	0	11.7379
5.69477	9.56329	0.0276396	11.7379
5.6948	9.59093	0	11.7379
5.69481	9.59093	0	11.7379
5.7168	9.59093	0	11.7379
5.71734	9.59093	0	11.7379
5.71736	9.60475	0.0276396	11.7379
5.71741	9.63239	0	11.7379
5.72324	9.63239	0	11.7379
5.75981	9.63239	0	11.8289
5.7602	9.63239	0	11.8289
5.76039	9.64621	0.0276396	11.8289
5.78006	9.67385	0	11.8289
5.78528	9.67385	0	12.0109
5.80267	9.67385	0	12.1019
5.83576	9.67385	0	12.1929
5.84383	9.67385	0	12.1929
5.84401	9.67385	0	12.1929
5.84416	9.67385	0.0276396	12.1929
5.84446	9.67385	0.0552792	12.1929
5.84773	9.67385	0.0829187	12.1929
5.84812	9.67385	0.110558	12.1929
5.84934	9.67385	0.138198	12.1929
5.84939	9.67385	0.165837	12.1929
5.8496	9.67385	0.193477	12.1929
5.85076	9.67385	0.221117	12.1929
5.85081	9.67385	0.248756	12.1929
5.85082	9.67385	0.276396	12.1929
5.85084	9.70149	0.248756	12.1929
5.85089	9.70149	0.248756	12.1929
5.85115	9.72913	0.221117	12.1929
5.85119	9.72913	0.248756	12.1929
5.85119	9.72913	0.276396	12.1929
5.85123	9.72913	0.304035	12.1929
5.85125	9.72913	0.304035	12.1929
5.85126	9.72913	0.331675	12.1929
5.85128	9.75677	0.304035	12.1929
5.85133	9.78441	0.276396	12.1929
5.85134	9.81205	0.248756	12.1929
5.85313	9.83969	0.221117	12.1929
5.85317	9.83969	0.248756	12.1929
5.85318	9.83969	0.248756	12.1929
5.85319	9.86733	0.221117	12.1929
5.85671	9.86733	0.221117	12.1929
5.85743	9.86733	0.221117	12.3749
5.86322	9.86733	0.221117	12.5569
5.86414	9.86733	0.221117	12.5569
5.86415	9.86733	0.276396	12.5569
5.86416	9.89497	0.248756	12.5569
5.93354	9.92261	0.221117	12.5569
5.93354	9.92261	0.221117	12.5569
5.93355	9.92261	0.221117	12.5569
5.93359	9.92261	0.221117	12.5569
5.9336	9.95025	0.193477	12.5569
5.93361	9.97789	0.165837	12.5569
5.93362	10.0055	0.138198	12.5569
5.93438	10.0332	0.110558	12.5569
5.93441	10.0332	0.138198	12.5569
5.93444	10.0332	0.138198	12.5569
5.93446	10.0332	0.138198	12.5569
5.93447	10.0608	0.110558	12.5569
5.93448	10.0746	0.138198	12.5569
5.93448	10.1023	0.110558	12.5569
5.93452	10.1299	0.0829187	12.5569
5.93454	10.1299	0.0829187	12.5569
5.93454	10.1575	0.0552792	12.5569
5.93455	10.1575	0.0552792	12.5569
5.93455	10.1852	0.0276396	12.5569
5.93456	10.1852	0.0276396	12.5569
5.93457	10.1852	0.0276396	12.5569
5.9411	10.2128	0	12.5569
5.95906	10.2128	0	12.6479
5.96037	10.2128	0	12.8298
5.97027	10.2128	0	13.0118
5.98614	10.2128	0	13.1028
5.98689	10.2128	0	13.1028
5.98696	10.2266	0.0276396	13.1028
5.98858	10.2543	0	13.1028
5.98864	10.2543	0	13.1028
5.98869	10.2681	0.0276396	13.1028
5.99096	10.2957	0	13.1028
5.99108	10.2957	0	13.1028
5.9912	10.3096	0.0276396	13.1028
6.02285	10.3372	0	13.1028
6.05658	10.3372	0	13.2848
6.05702	10.3372	0	13.2848
6.05704	10.3372	0.0552792	13.2848
6.05708	10.3648	0.0276396	13.2848
6.06727	10.3925	0	13.2848
6.09237	10.3925	0	13.4668
6.10276	10.3925	0	13.5578
6.10289	10.3925	0	13.5578
6.10304	10.4063	0.0276396	13.5578
6.18883	10.4339	0	13.5578
6.19469	10.4339	0	13.7398
6.19515	10.4339	0	13.7398
6.19618	10.4339	0.0276396	13.7398
6.19618	10.4478	0.0552792	13.7398
6.19619	10.4754	0.0276396	13.7398
6.19839	10.503	0	13.7398
6.3432	10.503	0	13.9217
6.34397	10.503	0	13.9217
6.34441	10.503	0.0276396	13.9217
6.34443	10.5169	0.0552792	13.9217
6.34448	10.5445	0.0276396	13.9217
6.4023	10.5721	0	13.9217
6.40266	10.5721	0	13.9217
6.40355	10.5721	0.0276396	13.9217
6.40359	10.586	0.0552792	13.9217
6.40372	10.6136	0.0276396	13.9217
6.44194	10.6412	0	13.9217
6.44266	10.6412	0	13.9217
6.44285	10.6551	0.0276396	13.9217
6.45713	10.6827	0	13.9217
6.45761	10.6827	0	13.9217
6.45763	10.6965	0.0276396	13.9217
6.46876	10.7242	0	13.9217
6.48536	10.7242	0	14.0127
6.49008	10.7242	0	14.0127
6.49509	10.7242	0	14.0127
6.56975	10.7242	0	14.0127
6.57056	10.7242	0	14.0127
6.57122	10.7242	0.0276396	14.0127
6.57142	10.7242	0.0552792	14.0127
6.57142	10.738	0.0829187	14.0127
6.57148	10.7656	0.0552792	14.0127
6.57155	10.7933	0.0276396	14.0127
6.62652	10.8209	0	14.0127
6.62666	10.8209	0	14.0127
6.62688	10.8209	0.0276396	14.0127
6.6269	10.8347	0.0552792	14.0127
6.62693	10.8624	0.0276396	14.0127
6.631	10.89	0	14.0127
6.63381	10.89	0	14.0127
6.63396	10.89	0	14.0127
6.63409	10.89	0.0552792	14.0127
6.63411	10.9176	0.0276396	14.0127
6.65148	10.9453	0	14.0127
6.65164	10.9453	0	14.0127
6.65168	10.9591	0.0276396	14.0127
6.66916	10.9867	0	14.0127
6.66952	10.9867	0	14.0127
6.66955	10.9867	0.0276396	14.0127
6.70387	11.0144	0	14.0127
6.70396	11.0144	0	14.0127
6.70404	11.0144	0.0552792	14.0127
6.70408	11.042	0.0276396	14.0127
6.71817	11.0697	0	14.0127
6.71833	11.0697	0	14.0127
6.71898	11.0697	0.0276396	14.0127
6.71901	11.0835	0.0552792	14.0127
6.71908	11.1111	0.0276396	14.0127
6.76631	11.1388	0	14.0127
6.767	11.1388	0	14.0127
6.76719	11.1388	0.0276396	14.0127
6.76821	11.1388	0.0552792	14.0127
6.76863	11.1388	0.0829187	14.0127
6.76867	11.1388	0.110558	14.0127
6.76867	11.1388	0.165837	14.0127
6.76869	11.1664	0.138198	14.0127
6.76872	11.194	0.110558	14.0127
6.76872	11.2217	0.0829187	14.0127
6.76874	11.2493	0.0552792	14.0127
6.76888	11.2769	0.0276396	14.0127
6.80414	11.3046	0	14.0127
6.80507	11.3046	0	14.0127
6.80553	11.3046	0.0276396	14.0127
6.80557	11.3184	0.0552792	14.0127
6.80558	11.346	0.0276396	14.0127
6.82671	11.3737	0	14.0127
6.8985	11.3737	0	14.1037
6.89855	11.3737	0	14.1037
6.89859	11.3737	0.0552792	14.1037
6.89862	11.4013	0.0276396	14.1037
6.91765	11.429	0	14.1037
6.91792	11.429	0	14.1037
6.91808	11.429	0.0552792	14.1037
6.9181	11.4566	0.0276396	14.1037
6.9341	11.4842	0	14.1037
6.93732	11.4842	0	14.1947
6.93752	11.4842	0	14.1947
6.93757	11.4981	0.0276396	14.1947
6.94778	11.5257	0	14.1947
6.99126	11.5257	0	14.1947
7.00262	11.5257	0	14.3767
7.04042	11.5257	0	14.4677
7.05156	11.5257	0	14.5587
7.05157	11.5257	0	14.5587
7.05173	11.5395	0.0276396	14.5587
7.06161	11.5672	0	14.5587
7.10044	11.5672	0	14.6497
7.10082	11.5672	0	14.6497
7.10132	11.5672	0.0276396	14.6497
7.10133	11.581	0.0552792	14.6497
7.10135	11.6086	0.0276396	14.6497
7.10862	11.6363	0	14.6497
7.13793	11.6363	0	14.8317
7.14308	11.6363	0	15.0136
7.14414	11.6363	0	15.0136
7.14468	11.6363	0.0276396	15.0136
7.1447	11.6501	0.0552792	15.0136
7.14496	11.6777	0.0276396	15.0136
7.16087	11.7054	0	15.0136
7.16115	11.7054	0	15.0136
7.16116	11.7192	0.0276396	15.0136
7.16215	11.7468	0	15.0136
7.16228	11.7468	0	15.0136
7.16236	11.7606	0.0276396	15.0136
7.21157	11.7883	0	15.0136
7.21174	11.7883	0	15.0136
7.21176	11.7883	0.0552792	15.0136
7.2118	11.8159	0.0276396	15.0136
7.23804	11.8436	0	15.0136
7.23824	11.8436	0	15.0136
7.23831	11.8574	0.0276396	15.0136
7.24134	11.885	0	15.0136
7.24559	11.885	0	15.1956
7.24586	11.885	0	15.1956
7.30019	11.885	0.0276396	15.1956
7.3002	11.885	0.0276396	15.1956
7.30022	11.9127	0	15.1956
7.30031	11.9265	0.0276396	15.1956
7.30682	11.9541	0	15.1956
7.30958	11.9541	0	15.2866
7.32186	11.9541	0	15.4686
7.32872	11.9541	0	15.4686
7.32873	11.9541	0	15.4686
7.32884	11.9679	0.0276396	15.4686
7.42022	11.9956	0	15.4686
7.42117	11.9956	0	15.4686
7.42117	11.9956	0.0552792	15.4686
7.42118	12.0232	0.0276396	15.4686
7.44243	12.0509	0	15.4686
7.44278	12.0509	0	15.4686
7.44279	12.0509	0.0552792	15.4686
7.44286	12.0785	0.0276396	15.4686
7.4711	12.1061	0	15.4686
7.47163	12.1061	0	15.4686
7.4725	12.1061	0.0276396	15.4686
7.47251	12.12	0.0552792	15.4686
7.47258	12.1476	0.0276396	15.4686
7.5086	12.1752	0	15.4686
7.59001	12.1752	0	15.5596
7.59064	12.1752	0	15.5596
7.59086	12.1752	0.0276396	15.5596
7.59089	12.1891	0.0552792	15.5596
7.5909	12.2167	0.0276396	15.5596
7.59111	12.2443	0	15.5596
7.59165	12.2443	0	15.5596
7.59166	12.2443	0.0552792	15.5596
7.59175	12.272	0.0276396	15.5596
7.71979	12.2996	0	15.5596
7.72969	12.2996	0	15.6506
7.72971	12.2996	0	15.6506
7.73094	12.2996	0.0276396	15.6506
7.74188	12.2996	0.0552792	15.6506
7.74221	12.2996	0.0552792	15.6506
7.74221	12.3134	0.0829187	15.6506
7.74532	12.3411	0.0552792	15.6506
7.82438	12.3411	0.0552792	15.8326
7.8244	12.3411	0.0552792	15.8326
7.82448	12.3687	0.0276396	15.8326
7.82448	12.3964	0	15.8326
7.82453	12.3964	0.0552792	15.8326
7.82455	12.424	0.0276396	15.8326
7.84067	12.4516	0	15.8326
7.85132	12.4516	0	16.0146
7.85163	12.4516	0	16.0146
7.85165	12.4655	0.0276396	16.0146
7.88013	12.4931	0	16.0146
7.88133	12.4931	0	16.1965
7.88168	12.4931	0	16.1965
7.88175	12.4931	0.0552792	16.1965
7.88179	12.5207	0.0276396	16.1965
7.896	12.5484	0	16.1965
7.89655	12.5484	0	16.1965
7.89679	12.5484	0.0276396	16.1965
7.89681	12.5622	0.0552792	16.1965
7.89683	12.5898	0.0276396	16.1965
7.91399	12.6175	0	16.1965
7.93614	12.6175	0	16.3785
7.93679	12.6175	0	16.3785
7.93719	12.6175	0.0276396	16.3785
7.93721	12.6175	0.0829187	16.3785
7.93729	12.6451	0.0552792	16.3785
7.93733	12.6727	0.0276396	16.3785
7.95082	12.7004	0	16.3785
7.95085	12.7004	0	16.3785
7.9509	12.7004	0.0276396	16.3785
7.9509	12.7142	0.0552792	16.3785
7.95096	12.7418	0.0276396	16.3785
8.00685	12.7695	0	16.3785
8.08075	12.7695	0	16.3785
8.08113	12.7695	0	16.3785
8.08113	12.7695	0.0552792	16.3785
8.08117	12.7971	0.0276396	16.3785
8.09749	12.8248	0	16.3785
8.09764	12.8248	0	16.3785
8.09781	12.8386	0.0276396	16.3785
8.1681	12.8662	0	16.3785
8.16827	12.8662	0	16.3785
8.16882	12.8662	0.0276396	16.3785
8.16973	12.8662	0.0552792	16.3785
8.17102	12.8662	0.0829187	16.3785
8.17104	12.88	0.110558	16.3785
8.17105	12.9077	0.0829187	16.3785
8.17106	12.9353	0.0552792	16.3785
8.17106	12.963	0.0276396	16.3785
8.19041	12.9906	0	16.3785
8.1911	12.9906	0	16.3785
8.19114	13.0044	0.0276396	16.3785
8.19245	13.0321	0	16.3785
8.19318	13.0321	0	16.3785
8.19325	13.0459	0.0276396	16.3785
8.19335	13.0459	0.0276396	16.3785
8.19393	13.0735	0	16.3785
8.19403	13.0873	0.0276396	16.3785
8.20391	13.115	0	16.3785
8.20592	13.115	0	16.3785
8.20595	13.115	0.0552792	16.3785
8.20604	13.1426	0.0276396	16.3785
8.21118	13.1703	0	16.3785
8.29547	13.1703	0	16.4695
8.29619	13.1703	0	16.4695
8.2962	13.1841	0.0276396	16.4695
8.30798	13.2117	0	16.4695
8.30836	13.2117	0	16.4695
8.30843	13.2117	0.0276396	16.4695
8.30844	13.2255	0.0552792	16.4695
8.30854	13.2532	0.0276396	16.4695
8.31474	13.2808	0	16.4695
8.33709	13.2808	0	16.6515
8.33762	13.2808	0	16.6515
8.33766	13.2808	0.0552792	16.6515
8.33768	13.3085	0.0276396	16.6515
8.34038	13.3361	0	16.6515
8.34115	13.3361	0	16.8335
8.3424	13.3361	0	16.9245
8.34275	13.3361	0	16.9245
8.34409	13.3361	0.0276396	16.9245
8.34415	13.3361	0.0552792	16.9245
8.34417	13.3499	0.0829187	16.9245
8.34418	13.3776	0.0552792	16.9245
8.3442	13.4052	0.0276396	16.9245
8.42161	13.4328	0	16.9245
8.43165	13.4328	0	17.1065
8.43225	13.4328	0	17.1065
8.43259	13.4328	0.0276396	17.1065
8.43259	13.4467	0.0552792	17.1065
8.43268	13.4743	0.0276396	17.1065
8.54115	13.5019	0	17.1065
8.55675	13.5019	0	17.1975
8.6553	13.5019	0	17.3794
8.65539	13.5019	0	17.4704
8.65798	13.5019	0	17.4704
8.6652	13.5019	0	17.6524
8.66539	13.5019	0	17.6524
8.66542	13.5158	0.0276396	17.6524
8.66773	13.5434	0	17.6524
8.6681	13.5434	0	17.6524
8.66813	13.5434	0.0276396	17.6524
8.66815	13.5572	0.0552792	17.6524
8.66816	13.5849	0.0276396	17.6524
8.74244	13.6125	0	17.6524
8.76553	13.6125	0	17.8344
8.76595	13.6125	0	17.8344
8.76597	13.6125	0.0552792	17.8344
8.76599	13.6401	0.0276396	17.8344
8.78407	13.6678	0	17.8344
8.7846	13.6678	0	17.8344
8.78469	13.6816	0.0276396	17.8344
8.80591	13.7092	0	17.8344
8.80611	13.7092	0	17.8344
8.80611	13.7092	0.0552792	17.8344
8.80615	13.7369	0.0276396	17.8344
8.83368	13.7645	0	17.8344
8.83378	13.7645	0	17.8344
8.83383	13.7645	0	17.8344
8.8339	13.7783	0.0276396	17.8344
8.83412	13.806	0	17.8344
8.83415	13.8198	0.0276396	17.8344
8.83583	13.8474	0	17.8344
8.84458	13.8474	0	17.9254
8.84525	13.8474	0	17.9254
8.84528	13.8474	0.0276396	17.9254
8.84565	13.8474	0.0552792	17.9254
8.84663	13.8474	0.0829187	17.9254
8.84676	13.8474	0.0829187	17.9254
8.84679	13.8474	0.110558	17.9254
8.847	13.8474	0.138198	17.9254
8.84704	13.8612	0.165837	17.9254
8.84736	13.8889	0.138198	17.9254
8.84736	13.9027	0.165837	17.9254
8.8474	13.9303	0.138198	17.9254
8.84741	13.958	0.110558	17.9254
8.84742	13.9856	0.0829187	17.9254
8.84749	14.0133	0.0552792	17.9254
8.8475	14.0409	0.0276396	17.9254
8.93131	14.0685	0	17.9254
8.93135	14.0685	0	17.9254
8.93139	14.0824	0.0276396	17.9254
8.93459	14.11	0	17.9254
8.94627	14.11	0	18.1074
8.95063	14.11	0	18.2894
8.95894	14.11	0	18.4713
8.97793	14.11	0	18.6533
8.97821	14.11	0	18.6533
8.97822	14.1238	0.0276396	18.6533
9.01629	14.1515	0	18.6533
9.1338	14.1515	0	18.8353
9.15296	14.1515	0	18.8353
9.18961	14.1515	0	19.0173
9.18962	14.1515	0	19.0173
9.18972	14.1653	0.0276396	19.0173
9.19202	14.1929	0	19.0173
9.1931	14.1929	0	19.0173
9.22147	14.1929	0	19.1083
9.22938	14.1929	0	19.1993
9.23062	14.1929	0	19.1993
9.23071	14.1929	0.0552792	19.1993
9.23074	14.2206	0.0276396	19.1993
9.27329	14.2482	0	19.1993
9.3229	14.2482	0	19.3813
9.32398	14.2482	0	19.3813
9.324	14.2482	0.0276396	19.3813
9.38074	14.2758	0	19.3813
9.40528	14.2758	0	19.5632
9.44761	14.2758	0	19.7452
9.4487	14.2758	0	19.9272
9.44874	14.2758	0	19.9272
9.44876	14.2758	0.0552792	19.9272
9.44882	14.3035	0.0276396	19.9272
9.46094	14.3311	0	19.9272
9.46121	14.3311	0	19.9272
9.46126	14.3311	0.0552792	19.9272
9.46128	14.3588	0.0276396	19.9272
9.52199	14.3864	0	19.9272
9.5228	14.3864	0	19.9272
9.52388	14.3864	0.0276396	19.9272
9.5239	14.4002	0.0552792	19.9272
9.52426	14.4279	0.0276396	19.9272
9.54107	14.4555	0	19.9272
9.54128	14.4555	0	19.9272
9.54128	14.4555	0.0552792	19.9272
9.54145	14.4831	0.0276396	19.9272
9.57929	14.5108	0	19.9272
9.58145	14.5108	0	19.9272
9.58178	14.5108	0.0276396	19.9272
9.58179	14.5246	0.0552792	19.9272
9.58202	14.5522	0.0276396	19.9272
9.62603	14.5799	0	19.9272
9.627	14.5799	0	19.9272
9.62701	14.5799	0.0552792	19.9272
9.62703	14.6075	0.0276396	19.9272
9.68283	14.6352	0	19.9272
9.68304	14.6352	0	19.9272
9.68305	14.649	0.0276396	19.9272
9.70941	14.6766	0	19.9272
9.72059	14.6766	0	20.1092
9.72111	14.6766	0	20.1092
9.72112	14.6904	0.0276396	20.1092
9.74487	14.7181	0	20.1092
9.79144	14.7181	0	20.2912
9.79149	14.7181	0	20.2912
9.79152	14.7181	0.0552792	20.2912
9.79157	14.7457	0.0276396	20.2912
9.81284	14.7734	0	20.2912
9.85983	14.7734	0	20.3822
9.85994	14.7734	0	20.3822
9.85999	14.7872	0.0276396	20.3822
9.87191	14.8148	0	20.3822
9.91429	14.8148	0	20.5641
9.91446	14.8148	0	20.5641
9.91479	14.8148	0.0276396	20.5641
9.91479	14.8286	0.0552792	20.5641
9.91482	14.8563	0.0276396	20.5641
9.9529	14.8839	0	20.5641
9.98766	14.8839	0	20.7461
9.98792	14.8839	0	20.7461
9.98804	14.8977	0.0276396	20.7461
10.0055	14.9254	0	20.7461
10.0063	14.9254	0	20.7461
10.0067	14.9254	0.0276396	20.7461
10.0067	14.9254	0.0829187	20.7461
10.0067	14.953	0.0552792	20.7461
10.0067	14.953	0.0552792	20.7461
10.0068	14.9807	0.0276396	20.7461
10.0303	15.0083	0	20.7461
10.1912	15.0083	0	20.9281
10.1914	15.0083	0	20.9281
10.1915	15.0083	0.0276396	20.9281
10.1915	15.0221	0.0552792	20.9281
10.1916	15.0498	0.0276396	20.9281
10.1916	15.0774	0	20.9281
10.2087	15.0774	0	20.9281
10.2092	15.0774	0	20.9281
10.2092	15.0912	0.0276396	20.9281
10.2278	15.1189	0	20.9281
10.2283	15.1189	0	20.9281
10.2288	15.1189	0.0276396	20.9281
10.2288	15.1327	0.0552792	20.9281
10.2289	15.1603	0.0276396	20.9281
10.2407	15.1879	0	20.9281
10.2409	15.1879	0	20.9281
10.241	15.1879	0.0552792	20.9281
10.241	15.2156	0.0276396	20.9281
10.2478	15.2432	0	20.9281
10.254	15.2432	0	21.1101
10.2589	15.2432	0	21.2921
10.2858	15.2432	0	21.4741
10.288	15.2432	0	21.6561
10.2885	15.2432	0	21.6561
10.2885	15.257	0.0276396	21.6561
10.3346	15.2847	0	21.6561
10.3347	15.2847	0	21.6561
10.3348	15.2847	0.0276396	21.6561
10.3349	15.2985	0.0552792	21.6561
10.3349	15.3261	0.0276396	21.6561
10.3375	15.3538	0	21.6561
10.3385	15.3538	0	21.6561
10.3386	15.3676	0.0276396	21.6561
10.373	15.3952	0	21.6561
10.3834	15.3952	0	21.747
10.3841	15.3952	0	21.747
10.3841	15.4091	0.0276396	21.747
10.4692	15.4367	0	21.747
10.4704	15.4367	0	21.747
10.4704	15.4505	0.0276396	21.747
10.4849	15.4782	0	21.747
10.5463	15.4782	0	21.929
10.5468	15.4782	0	21.929
10.6553	15.4782	0.0276396	21.929
10.6553	15.4782	0.0276396	21.929
10.6554	15.5058	0	21.929
10.6554	15.5058	0.0552792	21.929
10.6554	15.5334	0.0276396	21.929
10.6724	15.5611	0	21.929
10.6726	15.5611	0	21.929
10.6726	15.5611	0.0552792	21.929
10.6727	15.5887	0.0276396	21.929
10.6764	15.6164	0	21.929
10.6769	15.6164	0	21.929
10.6769	15.6164	0.0552792	21.929
10.677	15.644	0.0276396	21.929
10.7282	15.6716	0	21.929
10.7284	15.6716	0	21.929
10.7284	15.6855	0.0276396	21.929
10.7284	15.6855	0.0276396	21.929
10.7284	15.6855	0.0276396	21.929
10.7882	15.7131	0	21.929
10.8736	15.7131	0	22.02
10.8793	15.7131	0	22.111
10.8885	15.7131	0	22.293
10.8888	15.7131	0	22.293
10.8888	15.7131	0.0552792	22.293
10.8888	15.7407	0.0276396	22.293
10.9449	15.7684	0	22.293
10.9449	15.7684	0	22.293
10.945	15.7822	0.0276396	22.293
10.9543	15.8098	0	22.293
11.0815	15.8098	0	22.475
11.0822	15.8098	0	22.475
11.0822	15.8098	0.0552792	22.475
11.0823	15.8375	0.0276396	22.475
11.0975	15.8651	0	22.475
11.0984	15.8651	0	22.475
11.0985	15.8651	0.0276396	22.475
11.1545	15.8651	0.0552792	22.475
11.1545	15.8651	0.0552792	22.657
11.1545	15.8928	0.0276396	22.657
11.1947	15.9204	0	22.657
11.1948	15.9204	0	22.657
11.1948	15.9204	0.0552792	22.657
11.195	15.948	0.0276396	22.657
11.2183	15.9757	0	22.657
11.2188	15.9757	0	22.657
11.2197	15.9757	0.0276396	22.657
11.2198	15.9757	0.0552792	22.657
11.2198	16.0033	0.0276396	22.657
11.2345	16.031	0	22.657
11.2354	16.031	0	22.657
11.2355	16.0448	0.0276396	22.657
11.255	16.0724	0	22.657
11.2553	16.0724	0	22.657
11.2553	16.0862	0.0276396	22.657
11.2677	16.1139	0	22.657
11.3189	16.1139	0	22.8389
11.3211	16.1139	0	22.8389
11.3217	16.1139	0.0276396	22.8389
11.3217	16.1277	0.0552792	22.8389
11.3218	16.1553	0.0276396	22.8389
11.3407	16.183	0	22.8389
11.4084	16.183	0	23.0209
11.4085	16.183	0	23.0209
11.4086	16.183	0.0552792	23.0209
11.4086	16.2106	0.0276396	23.0209
11.442	16.2383	0	23.0209
11.4424	16.2383	0	23.0209
11.4424	16.2521	0.0276396	23.0209
11.4694	16.2797	0	23.0209
11.4699	16.2797	0	23.0209
11.4699	16.2935	0.0276396	23.0209
11.4803	16.3212	0	23.0209
11.481	16.3212	0	23.0209
11.481	16.3212	0.0552792	23.0209
11.481	16.3488	0.0276396	23.0209
11.4867	16.3765	0	23.0209
11.4877	16.3765	0	23.0209
11.4877	16.3903	0.0276396	23.0209
11.671	16.4179	0	23.0209
11.6712	16.4179	0	23.0209
11.672	16.4179	0.0276396	23.0209
11.672	16.4317	0.0552792	23.0209
11.672	16.4594	0.0276396	23.0209
11.749	16.487	0	23.0209
11.7492	16.487	0	23.0209
11.7492	16.487	0.0552792	23.0209
11.7492	16.5146	0.0276396	23.0209
11.7825	16.5423	0	23.0209
11.7828	16.5423	0	23.0209
11.7828	16.5423	0.0552792	23.0209
11.783	16.5699	0.0276396	23.0209
11.7838	16.5976	0	23.0209
11.7842	16.5976	0	23.0209
11.7844	16.6114	0.0276396	23.0209
11.8275	16.639	0	23.0209
11.8276	16.639	0	23.0209
11.8287	16.639	0.0276396	23.0209
11.8288	16.6528	0.0552792	23.0209
11.8288	16.6805	0.0276396	23.0209
11.8695	16.7081	0	23.0209
11.8698	16.7081	0	23.0209
11.8699	16.7219	0.0276396	23.0209
11.9525	16.7496	0	23.0209
11.9668	16.7496	0	23.2029
11.9673	16.7496	0	23.2029
11.9674	16.7496	0.0276396	23.2029
11.9816	16.7772	0	23.2029
11.9823	16.7772	0	23.2029
11.9823	16.791	0.0276396	23.2029
12.0213	16.8187	0	23.2029
12.0214	16.8187	0	23.2029
12.0214	16.8325	0.0276396	23.2029
12.0978	16.8601	0	23.2029
12.098	16.8601	0	23.2029
12.098	16.8601	0.0552792	23.2029
12.098	16.8878	0.0276396	23.2029
12.1066	16.9154	0	23.2029
12.107	16.9154	0	23.2029
12.107	16.9292	0.0276396	23.2029
12.1071	16.9569	0	23.2029
12.2504	16.9569	0	23.2029
12.2889	16.9569	0	23.2939
12.2956	16.9569	0	23.4759
12.4088	16.9569	0	23.6579
12.409	16.9569	0	23.6579
12.409	16.9707	0.0276396	23.6579
12.4399	16.9983	0	23.6579
12.4404	16.9983	0	23.6579
12.4404	16.9983	0.0552792	23.6579
12.4405	17.026	0.0276396	23.6579
12.4592	17.0536	0	23.6579
12.4595	17.0536	0	23.6579
12.4595	17.0674	0.0276396	23.6579
12.4707	17.0951	0	23.6579
12.4709	17.0951	0	23.6579
12.4709	17.0951	0.0552792	23.6579
12.4709	17.1227	0.0276396	23.6579
12.4736	17.1504	0	23.6579
12.4739	17.1504	0	23.6579
12.4739	17.1504	0.0552792	23.6579
12.4742	17.178	0.0276396	23.6579
12.5344	17.2056	0	23.6579
12.5364	17.2056	0	23.6579
12.5365	17.2056	0.0552792	23.6579
12.5365	17.2333	0.0276396	23.6579
12.6584	17.2609	0	23.6579
12.6588	17.2609	0	23.7489
12.6588	17.2609	0	23.7489
12.6588	17.2747	0.0276396	23.7489
12.6844	17.3024	0	23.7489
12.6849	17.3024	0	23.7489
12.685	17.3162	0.0276396	23.7489
12.7423	17.3438	0	23.7489
12.7428	17.3438	0	23.7489
12.7428	17.3577	0.0276396	23.7489
12.7988	17.3853	0	23.7489
12.7996	17.3853	0	23.7489
12.7996	17.3853	0	23.7489
12.7997	17.3853	0.0276396	23.7489
12.7998	17.3853	0.0552792	23.7489
12.7999	17.3991	0.0829187	23.7489
12.7999	17.4268	0.0552792	23.7489
12.8002	17.4268	0.0829187	23.7489
12.8887	17.4544	0.0552792	23.7489
12.8887	17.4544	0.0552792	23.9308
12.8888	17.482	0.0276396	23.9308
12.8911	17.5097	0	23.9308
12.8912	17.5097	0	23.9308
12.8913	17.5097	0.0276396	23.9308
12.8913	17.5235	0.0552792	23.9308
12.8913	17.5511	0.0276396	23.9308
13.0536	17.5788	0	23.9308
13.0544	17.5788	0	23.9308
13.0544	17.5926	0.0276396	23.9308
13.1124	17.6202	0	23.9308
13.1128	17.6202	0	23.9308
13.1129	17.6341	0.0276396	23.9308
13.1511	17.6617	0	23.9308
13.1524	17.6617	0	23.9308
13.1525	17.6755	0.0276396	23.9308
13.2056	17.7032	0	23.9308
13.2445	17.7032	0	24.1128
13.2446	17.7032	0	24.1128
13.245	17.7032	0.0276396	24.1128
13.2451	17.717	0.0552792	24.1128
13.2452	17.7446	0.0276396	24.1128
13.2453	17.7722	0	24.1128
13.2456	17.7722	0	24.1128
13.2457	17.7861	0.0276396	24.1128
13.3373	17.8137	0	24.1128
13.3374	17.8137	0	24.1128
13.3375	17.8137	0.0276396	24.1128
13.3375	17.8275	0.0552792	24.1128
13.3376	17.8552	0.0276396	24.1128
13.6206	17.8828	0	24.1128
13.6212	17.8828	0	24.1128
13.6212	17.8966	0.0276396	24.1128
13.6851	17.9243	0	24.1128
13.6857	17.9243	0	24.1128
13.6858	17.9381	0.0276396	24.1128
13.6996	17.9657	0	24.1128
13.6998	17.9657	0	24.1128
13.6998	17.9657	0.0552792	24.1128
13.6998	17.9934	0.0276396	24.1128
13.7146	18.021	0	24.1128
13.7155	18.021	0	24.1128
13.7155	18.021	0.0552792	24.1128
13.7155	18.0486	0.0276396	24.1128
13.7242	18.0763	0	24.1128
13.756	18.0763	0	24.2948
13.7568	18.0763	0	24.2948
13.7568	18.0763	0.0552792	24.2948
13.7569	18.1039	0.0276396	24.2948
13.7817	18.1316	0	24.2948
13.8258	18.1316	0	24.4768
13.8262	18.1316	0	24.4768
13.8262	18.1316	0.0552792	24.4768
13.8263	18.1592	0.0276396	24.4768
13.835	18.1868	0	24.4768
13.8356	18.1868	0	24.4768
13.8356	18.1868	0.0552792	24.4768
13.8357	18.2145	0.0276396	24.4768
13.9268	18.2421	0	24.4768
13.9284	18.2421	0	24.6588
13.9286	18.2421	0	24.6588
13.9286	18.2421	0.0552792	24.6588
13.9287	18.2698	0.0276396	24.6588
13.9917	18.2974	0	24.6588
13.9919	18.2974	0	24.6588
13.992	18.2974	0.0552792	24.6588
13.9923	18.325	0.0276396	24.6588
14.013	18.3527	0	24.6588
14.0132	18.3527	0	24.6588
14.014	18.3527	0.0276396	24.6588
14.014	18.3665	0.0552792	24.6588
14.0142	18.3941	0.0276396	24.6588
14.0142	18.4218	0	24.6588
14.035	18.4218	0	24.6588
14.036	18.4218	0	24.6588
14.0363	18.4218	0.0276396	24.6588
14.0364	18.4218	0.0552792	24.6588
14.0364	18.4218	0.0829187	24.6588
14.0366	18.4218	0.110558	24.6588
14.0369	18.4218	0.138198	24.6588
14.0373	18.4218	0.165837	24.6588
14.0381	18.4218	0.193477	24.6588
14.0382	18.4218	0.221117	24.6588
14.0383	18.4218	0.248756	24.6588
14.0387	18.4494	0.221117	24.6588
14.0387	18.4494	0.248756	24.6588
14.0387	18.4771	0.221117	24.6588
14.0388	18.4771	0.248756	24.6588
14.0388	18.5047	0.221117	24.6588
14.0388	18.5047	0.248756	24.6588
14.0388	18.5047	0.276396	24.6588
14.0388	18.5323	0.248756	24.6588
14.0393	18.56	0.221117	24.6588
14.0396	18.56	0.221117	24.6588
14.0396	18.56	0.276396	24.6588
14.0398	18.5876	0.248756	24.6588
14.0453	18.6153	0.221117	24.6588
14.0916	18.6153	0.221117	24.8408
14.0916	18.6153	0.221117	24.8408
14.0916	18.6429	0.193477	24.8408
14.0916	18.6705	0.165837	24.8408
14.0916	18.6982	0.138198	24.8408
14.0916	18.7258	0.110558	24.8408
14.0917	18.7535	0.0829187	24.8408
14.0917	18.7811	0.0552792	24.8408
14.0919	18.8087	0.0276396	24.8408
14.0923	18.8364	0	24.8408
14.0923	18.8502	0.0276396	24.8408
14.1171	18.8778	0	24.8408
14.1181	18.8778	0	24.8408
14.1181	18.8917	0.0276396	24.8408
14.1245	18.9193	0	24.8408
14.1252	18.9193	0	24.8408
14.1252	18.9331	0.0276396	24.8408
14.2028	18.9608	0	24.8408
14.2031	18.9608	0	24.8408
14.2033	18.9608	0.0276396	24.8408
14.2034	18.9746	0.0552792	24.8408
14.2034	19.0022	0.0276396	24.8408
14.2085	19.0299	0	24.8408
14.2087	19.0299	0	24.8408
14.2087	19.0299	0.0552792	24.8408
14.2089	19.0575	0.0276396	24.8408
14.3664	19.0851	0	24.8408
14.368	19.0851	0	24.8408
14.4344	19.0851	0.0276396	24.8408
14.4344	19.0851	0.0276396	25.0227
14.4345	19.1128	0	25.0227
14.4985	19.1128	0	25.0227
14.499	19.1128	0	25.0227
14.4991	19.1266	0.0276396	25.0227
14.5033	19.1542	0	25.0227
14.5036	19.1542	0	25.0227
14.5036	19.1542	0.0276396	25.0227
14.5596	19.1819	0	25.0227
14.5597	19.1819	0	25.0227
14.5598	19.1957	0.0276396	25.0227
14.57	19.2233	0	25.0227
14.6119	19.2233	0	25.1137
14.6127	19.2233	0	25.1137
14.6129	19.2371	0.0276396	25.1137
14.6529	19.2648	0	25.1137
14.7956	19.2648	0	25.2957
14.8284	19.2648	0	25.4777
14.9079	19.2648	0	25.6597
14.9155	19.2648	0	25.7507
14.9157	19.2648	0	25.7507
14.9157	19.2786	0.0276396	25.7507
14.9234	19.3062	0	25.7507
14.9234	19.3062	0	25.7507
14.9235	19.3062	0.0276396	25.7507
14.9236	19.3201	0.0552792	25.7507
14.9237	19.3477	0.0276396	25.7507
15.0908	19.3753	0	25.7507
15.0911	19.3753	0	25.7507
15.0911	19.3753	0.0552792	25.7507
15.0912	19.403	0.0276396	25.7507
15.2333	19.4306	0	25.7507
15.2338	19.4306	0	25.7507
15.2339	19.4444	0.0276396	25.7507
15.2384	19.4721	0	25.7507
15.3753	19.4721	0	25.9327
15.3763	19.4721	0	25.9327
15.3763	19.4859	0.0276396	25.9327
15.4169	19.5135	0	25.9327
15.4175	19.5135	0	25.9327
15.4175	19.5135	0.0552792	25.9327
15.4176	19.5412	0.0276396	25.9327
15.4839	19.5688	0	25.9327
15.4842	19.5688	0	25.9327
15.4842	19.5826	0.0276396	25.9327
15.6252	19.6103	0	25.9327
15.6253	19.6103	0	25.9327
15.6253	19.6103	0.0552792	25.9327
15.6253	19.6103	0.0552792	25.9327
15.6255	19.6379	0.0276396	25.9327
15.6256	19.6656	0	25.9327
15.6256	19.6794	0.0276396	25.9327
15.6576	19.707	0	25.9327
15.658	19.707	0	25.9327
15.6584	19.707	0.0276396	25.9327
15.6585	19.7208	0.0552792	25.9327
15.6585	19.7485	0.0276396	25.9327
15.6809	19.7761	0	25.9327
15.8486	19.7761	0	26.1146
15.8718	19.7761	0	26.2966
15.8721	19.7761	0	26.2966
15.8723	19.7899	0.0276396	26.2966
15.9181	19.8176	0	26.2966
15.9189	19.8176	0	26.2966
15.919	19.8314	0.0276396	26.2966
16.0494	19.859	0	26.2966
16.0497	19.859	0	26.2966
16.0502	19.859	0.0276396	26.2966
16.0502	19.8729	0.0552792	26.2966
16.0502	19.9005	0.0276396	26.2966
16.1442	19.9281	0	26.2966
16.1467	19.9281	0	26.2966
16.1475	19.9281	0.0276396	26.2966
16.1475	19.942	0.0552792	26.2966
16.1475	19.9696	0.0276396	26.2966
16.244	19.9972	0	26.2966
16.2453	19.9972	0	26.2966
16.2479	19.9972	0.0276396	26.2966
16.2479	20.0111	0.0552792	26.2966
16.2479	20.0387	0.0276396	26.2966
16.2581	20.0663	0	26.2966
16.2582	20.0663	0	26.2966
16.2582	20.0663	0.0552792	26.2966
16.2584	20.094	0.0276396	26.2966
16.2952	20.1216	0	26.2966
16.2963	20.1216	0	26.2966
16.2963	20.1354	0.0276396	26.2966
16.6924	20.1631	0	26.2966
16.7761	20.1631	0	26.4786
16.7761	20.1631	0	26.4786
16.7762	20.1769	0.0276396	26.4786
16.857	20.2045	0	26.4786
16.8577	20.2045	0	26.4786
16.8577	20.2184	0.0276396	26.4786
16.8632	20.246	0	26.4786
16.8644	20.246	0	26.4786
16.8644	20.2598	0.0276396	26.4786
16.9646	20.2875	0	26.4786
16.9646	20.2875	0	26.4786
16.9646	20.3013	0.0276396	26.4786
17.0126	20.3289	0	26.4786
17.0128	20.3289	0	26.4786
17.0128	20.3427	0.0276396	26.4786
17.0806	20.3704	0	26.4786
17.2719	20.3704	0	26.6606
17.2721	20.3704	0	26.6606
17.2722	20.3842	0.0276396	26.6606
17.2911	20.4118	0	26.6606
17.2913	20.4118	0	26.6606
17.2913	20.4118	0.0276396	26.6606
17.2913	20.4256	0.0552792	26.6606
17.2913	20.4533	0.0276396	26.6606
17.3273	20.4809	0	26.6606
17.3287	20.4809	0	26.6606
17.3287	20.4809	0.0552792	26.6606
17.3287	20.5086	0.0276396	26.6606
17.4535	20.5362	0	26.6606
17.4536	20.5362	0	26.6606
17.4536	20.5362	0.0552792	26.6606
17.4536	20.5638	0.0276396	26.6606
17.4538	20.5915	0	26.6606
17.4553	20.5915	0	26.6606
17.4554	20.6053	0.0276396	26.6606
17.5959	20.6329	0	26.6606
17.5965	20.6329	0	26.6606
17.5965	20.6329	0.0276396	26.6606
17.5966	20.6468	0.0552792	26.6606
17.5966	20.6744	0.0276396	26.6606
17.7997	20.702	0	26.6606
17.8002	20.702	0	26.6606
17.8002	20.702	0.0552792	26.6606
17.8002	20.7297	0.0276396	26.6606
17.8407	20.7573	0	26.6606
17.8418	20.7573	0	26.6606
17.8418	20.7711	0.0276396	26.6606
17.9384	20.7988	0	26.6606
18.1332	20.7988	0	26.8426
18.1338	20.7988	0	26.8426
18.1339	20.8126	0.0276396	26.8426
18.2071	20.8402	0	26.8426
18.2073	20.8402	0	26.8426
18.2074	20.8541	0.0276396	26.8426
18.2627	20.8817	0	26.8426
18.2632	20.8817	0	26.8426
18.2632	20.8955	0.0276396	26.8426
18.283	20.9232	0	26.8426
18.2839	20.9232	0	26.8426
18.2839	20.9232	0.0276396	26.8426
18.2839	20.937	0.0552792	26.8426
18.2839	20.9646	0.0276396	26.8426
18.2996	20.9923	0	26.8426
18.3806	20.9923	0	27.0246
18.4091	20.9923	0	27.2066
18.4097	20.9923	0	27.2066
18.4097	20.9923	0.0276396	27.2066
18.4097	21.0061	0.0552792	27.2066
18.4098	21.0337	0.0276396	27.2066
18.4387	21.0614	0	27.2066
18.555	21.0614	0	27.3885
18.5565	21.0614	0	27.3885
18.5569	21.0614	0.0276396	27.3885
18.5569	21.0752	0.0552792	27.3885
18.557	21.1028	0.0276396	27.3885
18.6394	21.1305	0	27.3885
18.64	21.1305	0	27.3885
18.6401	21.1443	0.0276396	27.3885
18.8345	21.1719	0	27.3885
18.8346	21.1719	0	27.3885
18.8347	21.1719	0.0552792	27.3885
18.8347	21.1996	0.0276396	27.3885
19.0424	21.2272	0	27.3885
19.0424	21.2272	0	27.3885
19.0438	21.2272	0.0276396	27.3885
19.0438	21.241	0.0552792	27.3885
19.0438	21.2687	0.0276396	27.3885
19.1006	21.2963	0	27.3885
19.1009	21.2963	0	27.3885
19.1009	21.3101	0.0276396	27.3885
19.1037	21.3378	0	27.3885
19.1037	21.3378	0	27.3885
19.1038	21.3378	0.0552792	27.3885
19.1038	21.3654	0.0276396	27.3885
19.1221	21.393	0	27.3885
19.1225	21.393	0	27.3885
19.123	21.393	0.0276396	27.3885
19.1233	21.393	0.0552792	27.3885
19.124	21.393	0.0829187	27.3885
19.1246	21.393	0.110558	27.3885
19.1246	21.393	0.138198	27.3885
19.1246	21.4069	0.165837	27.3885
19.1247	21.4345	0.138198	27.3885
19.1247	21.4621	0.110558	27.3885
19.1247	21.4898	0.0829187	27.3885
19.1247	21.5174	0.0552792	27.3885
19.1247	21.5451	0.0276396	27.3885
19.162	21.5727	0	27.3885
19.1621	21.5727	0	27.3885
19.1621	21.5727	0.0552792	27.3885
19.1622	21.6003	0.0276396	27.3885
19.3008	21.628	0	27.3885
19.303	21.628	0	27.3885
19.303	21.628	0.0552792	27.3885
19.303	21.6556	0.0276396	27.3885
19.7386	21.6833	0	27.3885
19.7386	21.6833	0	27.3885
19.7387	21.6833	0.0276396	27.3885
20.048	21.6833	0.0552792	27.3885
20.048	21.6833	0.0552792	27.5705
20.0481	21.7109	0.0276396	27.5705
20.0481	21.7109	0.0276396	27.5705
20.107	21.7385	0	27.5705
20.1074	21.7385	0	27.5705
20.1075	21.7523	0.0276396	27.5705
20.2104	21.78	0	27.5705
20.2113	21.78	0	27.5705
20.2114	21.7938	0.0276396	27.5705
20.2856	21.8214	0	27.5705
20.2856	21.8214	0	27.5705
20.2856	21.8353	0.0276396	27.5705
20.5186	21.8629	0	27.5705
20.5186	21.8629	0	27.5705
20.5187	21.8767	0.0276396	27.5705
20.7131	21.9044	0	27.5705
20.7134	21.9044	0	27.5705
20.7927	21.9044	0.0276396	27.5705
20.7927	21.9044	0.0276396	27.5705
20.7932	21.932	0	27.5705
20.7933	21.9458	0.0276396	27.5705
21.0342	21.9735	0	27.5705
21.0344	21.9735	0	27.5705
21.0353	21.9735	0.0276396	27.5705
21.0353	21.9873	0.0552792	27.5705
21.0353	22.0149	0.0276396	27.5705
21.1164	22.0426	0	27.5705
21.1166	22.0426	0	27.5705
21.1166	22.0564	0.0276396	27.5705
21.1178	22.084	0	27.5705
21.2291	22.084	0	27.7525
21.2296	22.084	0	27.7525
21.2296	22.0978	0.0276396	27.7525
21.2782	22.1255	0	27.7525
21.2786	22.1255	0	27.7525
21.2787	22.1393	0.0276396	27.7525
21.3246	22.1669	0	27.7525
21.325	22.1669	0	27.7525
21.325	22.1669	0.0552792	27.7525
21.325	22.1946	0.0276396	27.7525
21.353	22.2222	0	27.7525
21.3531	22.2222	0	27.7525
21.3541	22.2222	0.0276396	27.7525
21.3543	22.2222	0.0552792	27.7525
21.3543	22.2222	0.0829187	27.7525
21.3547	22.2222	0.110558	27.7525
21.3552	22.2222	0.138198	27.7525
21.3558	22.2222	0.165837	27.7525
21.3559	22.2222	0.193477	27.7525
21.3572	22.2222	0.221117	27.7525
21.3572	22.2222	0.248756	27.7525
21.3573	22.2222	0.276396	27.7525
21.3574	22.2499	0.248756	27.7525
21.3577	22.2775	0.221117	27.7525
21.3577	22.2775	0.248756	27.7525
21.3586	22.3051	0.221117	27.7525
21.3586	22.3051	0.248756	27.7525
21.3588	22.3328	0.221117	27.7525
21.3589	22.3328	0.248756	27.7525
21.3589	22.3604	0.221117	27.7525
21.359	22.3604	0.248756	27.7525
21.3592	22.3881	0.221117	27.7525
21.3594	22.3881	0.248756	27.7525
21.4305	22.4157	0.221117	27.7525
21.4305	22.4157	0.221117	27.9345
21.4305	22.4433	0.193477	27.9345
21.4305	22.471	0.165837	27.9345
21.4305	22.4986	0.138198	27.9345
21.4305	22.5263	0.110558	27.9345
21.4305	22.5539	0.0829187	27.9345
21.4305	22.5815	0.0552792	27.9345
21.4306	22.6092	0.0276396	27.9345
21.5274	22.6368	0	27.9345
21.5275	22.6368	0	27.9345
21.5278	22.6506	0.0276396	27.9345
21.5533	22.6783	0	27.9345
21.5543	22.6783	0	27.9345
21.5543	22.6783	0.0552792	27.9345
21.5544	22.7059	0.0276396	27.9345
21.6113	22.7336	0	27.9345
21.6118	22.7336	0	27.9345
21.6118	22.7474	0.0276396	27.9345
21.7195	22.775	0	27.9345
21.72	22.775	0	27.9345
21.72	22.775	0.0552792	27.9345
21.72	22.8027	0.0276396	27.9345
21.8196	22.8303	0	27.9345
21.8203	22.8303	0	27.9345
21.8203	22.8303	0.0552792	27.9345
21.8203	22.8579	0.0276396	27.9345
22.1091	22.8856	0	27.9345
22.1093	22.8856	0	27.9345
22.1093	22.8856	0.0552792	27.9345
22.1094	22.9132	0.0276396	27.9345
22.2062	22.9409	0	27.9345
22.2074	22.9409	0	27.9345
22.2075	22.9547	0.0276396	27.9345
22.2231	22.9823	0	27.9345
22.2236	22.9823	0	27.9345
22.2236	22.9961	0.0276396	27.9345
22.2535	23.0238	0	27.9345
22.254	23.0238	0	27.9345
22.254	23.0238	0.0552792	27.9345
22.2541	23.0514	0.0276396	27.9345
22.2984	23.079	0	27.9345
22.2988	23.079	0	27.9345
22.2988	23.079	0.0552792	27.9345
22.2988	23.1067	0.0276396	27.9345
22.4167	23.1343	0	27.9345
22.4169	23.1343	0	27.9345
22.4169	23.1343	0.0552792	27.9345
22.4169	23.162	0.0276396	27.9345
23.0826	23.1896	0	27.9345
23.0829	23.1896	0	27.9345
23.083	23.2034	0.0276396	27.9345
23.2487	23.2311	0	27.9345
23.413	23.2311	0	28.1165
23.4131	23.2311	0	28.1165
23.4142	23.2311	0.0276396	28.1165
23.4142	23.2449	0.0552792	28.1165
23.4142	23.2725	0.0276396	28.1165
23.5496	23.3002	0	28.1165
23.5514	23.3002	0	28.1165
23.5515	23.314	0.0276396	28.1165
23.5702	23.3416	0	28.1165
23.5709	23.3416	0	28.1165
23.571	23.3554	0.0276396	28.1165
23.728	23.3831	0	28.1165
23.7281	23.3831	0	28.1165
23.7283	23.3831	0.0276396	28.1165
23.7289	23.3831	0.0552792	28.1165
23.7289	23.3831	0.0829187	28.1165
23.7289	23.3969	0.110558	28.1165
23.729	23.4245	0.0829187	28.1165
23.729	23.4522	0.0552792	28.1165
23.729	23.4798	0.0276396	28.1165
24.1915	23.5075	0	28.1165
24.192	23.5075	0	28.1165
24.192	23.5213	0.0276396	28.1165
24.4238	23.5489	0	28.1165
24.4245	23.5489	0	28.1165
24.4247	23.5489	0.0276396	28.1165
24.4248	23.5627	0.0552792	28.1165
24.4248	23.5904	0.0276396	28.1165
24.5129	23.618	0	28.1165
24.5129	23.618	0	28.2985
24.5148	23.618	0	28.2985
24.5148	23.618	0.0552792	28.2985
24.5149	23.6457	0.0276396	28.2985
24.5199	23.6733	0	28.2985
24.5203	23.6733	0	28.2985
24.5204	23.6871	0.0276396	28.2985
24.5965	23.7148	0	28.2985
24.5966	23.7148	0	28.2985
24.5967	23.7286	0.0276396	28.2985
24.6288	23.7562	0	28.2985
24.6295	23.7562	0	28.2985
24.6295	23.77	0.0276396	28.2985
24.8034	23.7977	0	28.2985
24.8034	23.7977	0	28.2985
24.8034	23.8115	0.0276396	28.2985
24.9575	23.8391	0	28.2985
25.1177	23.8391	0	28.4804
25.118	23.8391	0	28.4804
25.174	23.8391	0.0276396	28.4804
25.174	23.8391	0.0276396	28.4804
25.1754	23.8668	0	28.4804
25.1754	23.8806	0.0276396	28.4804
25.2188	23.9082	0	28.4804
25.219	23.9082	0	28.4804
25.2198	23.9082	0.0276396	28.4804
25.2198	23.9221	0.0552792	28.4804
25.2199	23.9497	0.0276396	28.4804
25.3127	23.9773	0	28.4804
25.3127	23.9773	0	28.4804
25.3128	23.9773	0.0552792	28.4804
25.3129	24.005	0.0276396	28.4804
25.3829	24.0326	0	28.4804
25.383	24.0326	0	28.4804
25.383	24.0464	0.0276396	28.4804
25.4023	24.0741	0	28.4804
25.4032	24.0741	0	28.4804
25.4036	24.0741	0.0276396	28.4804
25.4036	24.0879	0.0552792	28.4804
25.404	24.1155	0.0276396	28.4804
25.4151	24.1432	0	28.4804
25.4196	24.1432	0	28.6624
25.4202	24.1432	0	28.6624
25.4203	24.157	0.0276396	28.6624
25.529	24.1846	0	28.6624
25.5294	24.1846	0	28.6624
25.5294	24.1985	0.0276396	28.6624
25.5908	24.2261	0	28.6624
25.591	24.2261	0	28.6624
25.5911	24.2399	0.0276396	28.6624
25.8035	24.2676	0	28.6624
25.8035	24.2676	0	28.6624
25.8035	24.2676	0.0552792	28.6624
25.8036	24.2952	0.0276396	28.6624
25.8292	24.3228	0	28.6624
25.8302	24.3228	0	28.6624
25.8302	24.3228	0.0552792	28.6624
25.8302	24.3505	0.0276396	28.6624
25.8307	24.3781	0	28.6624
25.8324	24.3781	0	28.6624
25.8324	24.3781	0.0552792	28.6624
25.8325	24.4057	0.0276396	28.6624
25.8974	24.4334	0	28.6624
25.8984	24.4334	0	28.6624
25.8985	24.4334	0.0276396	28.6624
26.3496	24.4334	0.0552792	28.6624
26.3498	24.4334	0.0552792	28.6624
26.3498	24.461	0.0276396	28.6624
26.3502	24.4887	0	28.6624
26.3503	24.4887	0.0552792	28.6624
26.3503	24.5163	0.0276396	28.6624
26.3931	24.5439	0	28.6624
26.3934	24.5439	0	28.6624
26.3935	24.5439	0.0552792	28.6624
26.3935	24.5716	0.0276396	28.6624
26.4625	24.5992	0	28.6624
26.5749	24.5992	0	28.7534
26.5753	24.5992	0	28.7534
26.5756	24.5992	0.0276396	28.7534
26.5758	24.5992	0.0552792	28.7534
26.5758	24.5992	0.110558	28.7534
26.5758	24.6269	0.0829187	28.7534
26.5759	24.6545	0.0552792	28.7534
26.576	24.6821	0.0276396	28.7534
26.6545	24.7098	0	28.7534
26.6547	24.7098	0	28.7534
26.6547	24.7236	0.0276396	28.7534
26.9066	24.7512	0	28.7534
26.9091	24.7512	0	28.7534
26.9091	24.7651	0.0276396	28.7534
27.3557	24.7927	0	28.7534
27.3572	24.7927	0	28.7534
27.3572	24.7927	0.0552792	28.7534
27.3573	24.8203	0.0276396	28.7534
27.7427	24.848	0	28.7534
27.7428	24.848	0	28.7534
27.7432	24.848	0.0276396	28.7534
27.7433	24.8618	0.0552792	28.7534
27.7433	24.8894	0.0276396	28.7534
27.7724	24.9171	0	28.7534
27.8172	24.9171	0	28.9354
27.8181	24.9171	0	28.9354
27.8197	24.9171	0.0276396	28.9354
28.2976	24.9171	0.0552792	28.9354
28.2977	24.9171	0.0552792	28.9354
28.2977	24.9447	0.0276396	28.9354
28.2983	24.9724	0	28.9354
28.2983	24.9724	0.0552792	28.9354
28.2983	25	0.0276396	28.9354
28.5279	25.0276	0	28.9354
28.5283	25.0276	0	28.9354
28.5284	25.0276	0.0552792	28.9354
28.5284	25.0553	0.0276396	28.9354
28.5604	25.0829	0	28.9354
28.561	25.0829	0	28.9354
28.5621	25.0829	0.0276396	28.9354
28.5621	25.0967	0.0552792	28.9354
28.5621	25.1244	0.0276396	28.9354
28.9748	25.152	0	28.9354
28.9751	25.152	0	28.9354
28.9751	25.152	0.0552792	28.9354
28.9751	25.1797	0.0276396	28.9354
29.0571	25.2073	0	28.9354
29.0579	25.2073	0	28.9354
29.058	25.2073	0.0276396	28.9354
29.058	25.2211	0.0552792	28.9354
29.0583	25.2488	0.0276396	28.9354
29.4974	25.2764	0	28.9354
29.4975	25.2764	0	28.9354
29.4975	25.2764	0.0552792	28.9354
29.4975	25.304	0.0276396	28.9354
29.6917	25.3317	0	28.9354
29.6918	25.3317	0	28.9354
29.6918	25.3317	0.0552792	28.9354
29.6918	25.3593	0.0276396	28.9354
29.91	25.387	0	28.9354
29.91	25.387	0	28.9354
29.9101	25.4008	0.0276396	28.9354
30.0899	25.4284	0	28.9354
30.0903	25.4284	0	28.9354
30.0904	25.4422	0.0276396	28.9354
30.6089	25.4699	0	28.9354
30.6091	25.4699	0	28.9354
30.6091	25.4699	0.0552792	28.9354
30.6092	25.4975	0.0276396	28.9354
30.7705	25.5252	0	28.9354
30.7718	25.5252	0	28.9354
30.7719	25.539	0.0276396	28.9354
30.853	25.5666	0	28.9354
30.8531	25.5666	0	28.9354
30.8531	25.5666	0.0552792	28.9354
30.8532	25.5943	0.0276396	28.9354
30.919	25.6219	0	28.9354
30.9195	25.6219	0	28.9354
30.9196	25.6219	0.0552792	28.9354
30.9197	25.6495	0.0276396	28.9354
31.0375	25.6772	0	28.9354
31.0377	25.6772	0	28.9354
31.0377	25.691	0.0276396	28.9354
31.1255	25.7186	0	28.9354
31.126	25.7186	0	28.9354
32.4395	25.7186	0.0276396	28.9354
32.4396	25.7186	0.0276396	28.9354
32.4399	25.7463	0	28.9354
32.44	25.7463	0.0552792	28.9354
32.44	25.7739	0.0276396	28.9354
32.4533	25.8015	0	28.9354
32.4534	25.8015	0	28.9354
32.4534	25.8015	0.0552792	28.9354
32.4535	25.8292	0.0276396	28.9354
32.5664	25.8568	0	28.9354
32.567	25.8568	0	28.9354
32.567	25.8568	0.0552792	28.9354
32.5671	25.8845	0.0276396	28.9354
33.0407	25.9121	0	28.9354
33.0407	25.9121	0	28.9354
33.0408	25.9259	0.0276396	28.9354
33.6318	25.9536	0	28.9354
33.6325	25.9536	0	28.9354
33.6327	25.9536	0.0276396	28.9354
33.6327	25.9674	0.0552792	28.9354
33.6327	25.995	0.0276396	28.9354
33.7157	26.0227	0	28.9354
33.7161	26.0227	0	28.9354
33.7162	26.0227	0.0552792	28.9354
33.7162	26.0503	0.0276396	28.9354
33.9414	26.0779	0	28.9354
33.9414	26.0779	0	28.9354
33.9414	26.0779	0.0552792	28.9354
33.9414	26.1056	0.0276396	28.9354
34.7191	26.1332	0	28.9354
34.72	26.1332	0	28.9354
34.7201	26.1332	0.0552792	28.9354
34.7201	26.1609	0.0276396	28.9354
34.8887	26.1885	0	28.9354
34.8891	26.1885	0	28.9354
34.8891	26.1885	0.0552792	28.9354
34.8891	26.2161	0.0276396	28.9354
34.9296	26.2438	0	28.9354
34.9307	26.2438	0	28.9354
36.6386	26.2438	0.0276396	28.9354
36.6386	26.2438	0.0276396	28.9354
36.6387	26.2714	0	28.9354
36.6388	26.2852	0.0276396	28.9354
36.8302	26.3129	0	28.9354
36.8305	26.3129	0	28.9354
36.8306	26.3267	0.0276396	28.9354
37.0838	26.3543	0	28.9354
37.0845	26.3543	0	28.9354
37.0845	26.3543	0.0552792	28.9354
37.0846	26.382	0.0276396	28.9354
37.2057	26.4096	0	28.9354
37.2066	26.4096	0	28.9354
37.2066	26.4096	0.0552792	28.9354
37.2067	26.4373	0.0276396	28.9354
37.2251	26.4649	0	28.9354
37.2252	26.4649	0	28.9354
37.2253	26.4649	0.0276396	28.9354
37.2254	26.4787	0.0552792	28.9354
37.2254	26.5064	0.0276396	28.9354
37.6521	26.534	0	28.9354
37.653	26.534	0	28.9354
37.653	26.5478	0.0276396	28.9354
37.9003	26.5755	0	28.9354
37.9004	26.5755	0	28.9354
37.9005	26.5755	0.0552792	28.9354
37.9005	26.6031	0.0276396	28.9354
38.2098	26.6307	0	28.9354
38.2098	26.6307	0	28.9354
38.2098	26.6446	0.0276396	28.9354
39.0024	26.6722	0	28.9354
39.003	26.6722	0	28.9354
39.0033	26.6722	0.0276396	28.9354
39.0033	26.686	0.0552792	28.9354
39.0033	26.7137	0.0276396	28.9354
40.5181	26.7413	0	28.9354
40.5182	26.7413	0	28.9354
40.5182	26.7413	0.0552792	28.9354
40.5183	26.7689	0.0276396	28.9354
40.8138	26.7966	0	28.9354
40.814	26.7966	0	28.9354
40.815	26.7966	0.0276396	28.9354
40.815	26.8104	0.0552792	28.9354
40.815	26.838	0.0276396	28.9354
41.2896	26.8657	0	28.9354
41.2897	26.8657	0	28.9354
41.2897	26.8657	0.0552792	28.9354
41.2897	26.8933	0.0276396	28.9354
41.3548	26.921	0	28.9354
41.3552	26.921	0	28.9354
41.3552	26.9348	0.0276396	28.9354
41.4938	26.9624	0	28.9354
41.4939	26.9624	0	28.9354
41.494	26.9624	0.0276396	28.9354
41.494	26.9762	0.0552792	28.9354
41.494	27.0039	0.0276396	28.9354
41.6559	27.0315	0	28.9354
41.656	27.0315	0	28.9354
41.6562	27.0453	0.0276396	28.9354
42.5662	27.073	0	28.9354
42.5675	27.073	0	28.9354
42.5675	27.073	0.0552792	28.9354
42.5676	27.1006	0.0276396	28.9354
42.6398	27.1282	0	28.9354
42.641	27.1282	0	28.9354
42.641	27.1282	0.0552792	28.9354
42.6411	27.1559	0.0276396	28.9354
43.0572	27.1835	0	28.9354
43.0577	27.1835	0	28.9354
43.0577	27.1835	0.0552792	28.9354
43.0578	27.2112	0.0276396	28.9354
43.6175	27.2388	0	28.9354
43.618	27.2388	0	28.9354
43.6181	27.2526	0.0276396	28.9354
44.1612	27.2803	0	28.9354
44.1616	27.2803	0	28.9354
44.1616	27.2941	0.0276396	28.9354
44.3392	27.3217	0	28.9354
44.3394	27.3217	0	28.9354
44.3395	27.3217	0.0276396	28.9354
44.3396	27.3355	0.0552792	28.9354
44.3398	27.3632	0.0276396	28.9354
44.7721	27.3908	0	28.9354
44.7727	27.3908	0	28.9354
44.7727	27.4046	0.0276396	28.9354
45.7379	27.4323	0	28.9354
45.7387	27.4323	0	28.9354
45.7387	27.4461	0.0276396	28.9354
46.8324	27.4737	0	28.9354
46.8328	27.4737	0	28.9354
46.8329	27.4737	0.0552792	28.9354
46.8329	27.5014	0.0276396	28.9354
47.1732	27.529	0	28.9354
47.1735	27.529	0	28.9354
47.174	27.529	0.0276396	28.9354
47.2266	27.529	0.0552792	28.9354
47.2267	27.529	0.0552792	28.9354
47.2267	27.5567	0.0276396	28.9354
47.2272	27.5843	0	28.9354
47.2273	27.5843	0.0552792	28.9354
47.2273	27.6119	0.0276396	28.9354
47.7934	27.6396	0	28.9354
47.7934	27.6396	0	28.9354
47.7935	27.6534	0.0276396	28.9354
47.8507	27.681	0	28.9354
47.851	27.681	0	28.9354
47.851	27.681	0.0552792	28.9354
47.8511	27.7087	0.0276396	28.9354
48.2082	27.7363	0	28.9354
48.2111	27.7363	0	28.9354
48.2111	27.7363	0.0552792	28.9354
48.2114	27.764	0.0276396	28.9354
49.5872	27.7916	0	28.9354
49.5883	27.7916	0	28.9354
50.8805	27.7916	0.0276396	28.9354
50.8806	27.7916	0.0276396	28.9354
50.8808	27.8192	0	28.9354
50.8808	27.8192	0.0552792	28.9354
50.8808	27.8469	0.0276396	28.9354
56.2998	27.8745	0	28.9354
56.3	27.8745	0	28.9354
56.3	27.8745	0.0552792	28.9354
56.3	27.9022	0.0276396	28.9354
57.2962	27.9298	0	28.9354
57.2963	27.9298	0	28.9354
57.2963	27.9298	0.0552792	28.9354
57.2963	27.9574	0.0276396	28.9354
58.8781	27.9851	0	28.9354
58.8781	27.9851	0	28.9354
58.8782	27.9989	0.0276396	28.9354
59.742	28.0265	0	28.9354
59.7422	28.0265	0	28.9354
59.7423	28.0265	0.0552792	28.9354
59.7424	28.0542	0.0276396	28.9354
61.7456	28.0818	0	28.9354
61.7472	28.0818	0	28.9354
61.7472	28.0956	0.0276396	28.9354
66.6493	28.1233	0	28.9354
66.6496	28.1233	0	28.9354
66.6496	28.1233	0.0552792	28.9354
66.6497	28.1509	0.0276396	28.9354
68.9971	28.1786	0	28.9354
68.9973	28.1786	0	28.9354
68.9973	28.1786	0.0552792	28.9354
68.9973	28.2062	0.0276396	28.9354
70.9352	28.2338	0	28.9354
70.9357	28.2338	0	28.9354
70.9358	28.2338	0.0552792	28.9354
70.9358	28.2615	0.0276396	28.9354
73.9481	28.2891	0	28.9354
73.9482	28.2891	0	28.9354
73.9483	28.2891	0.0552792	28.9354
73.9484	28.3167	0.0276396	28.9354
74.744	28.3444	0	28.9354
74.7443	28.3444	0	28.9354
74.7445	28.3444	0.0276396	28.9354
79.6841	28.3444	0.0552792	28.9354
79.6842	28.3444	0.0552792	28.9354
79.6843	28.372	0.0276396	28.9354
79.6852	28.3997	0	28.9354
79.6853	28.3997	0.0552792	28.9354
79.6853	28.4273	0.0276396	28.9354
81.2227	28.4549	0	28.9354
81.2237	28.4549	0	28.9354
81.2242	28.4549	0.0276396	28.9354
81.2249	28.4549	0.0552792	28.9354
81.2262	28.4549	0.0829187	28.9354
81.2266	28.4549	0.110558	28.9354
81.228	28.4549	0.138198	28.9354
81.228	28.4549	0.165837	28.9354
81.2285	28.4549	0.193477	28.9354
81.2287	28.4549	0.221117	28.9354
81.2287	28.4549	0.248756	28.9354
81.2293	28.4826	0.221117	28.9354
81.2293	28.4826	0.248756	28.9354
81.2294	28.5102	0.221117	28.9354
81.2296	28.5102	0.248756	28.9354
81.2296	28.5102	0.276396	28.9354
81.2296	28.5379	0.248756	28.9354
81.2304	28.5655	0.221117	28.9354
81.2305	28.5655	0.248756	28.9354
81.2306	28.5931	0.221117	28.9354
81.2306	28.5931	0.248756	28.9354
81.2309	28.6208	0.221117	28.9354
81.2309	28.6208	0.248756	28.9354
95.0787	28.6484	0.221117	28.9354
95.0787	28.6484	0.221117	28.9354
95.0787	28.6761	0.193477	28.9354
95.0787	28.7037	0.165837	28.9354
95.0788	28.7313	0.138198	28.9354
95.0788	28.759	0.110558	28.9354
95.0788	28.7866	0.0829187	28.9354
95.0788	28.7866	0.138198	28.9354
95.0788	28.8143	0.110558	28.9354
95.0789	28.8419	0.0829187	28.9354
95.0789	28.8695	0.0552792	28.9354
95.0789	28.8972	0.0276396	28.9354
96.3807	28.9248	0	28.9354
96.3813	28.9248	0	28.9354
