1.20304e-09	0	0	0
2.68572e-09	0	0	0
2.90447e-09	0	0	0
3.22349e-09	0	0	0
3.39248e-09	0	0	0
3.6956e-09	0	0	0
4.47697e-09	0	0	0
4.71975e-09	0	0	0
5.04204e-09	0	0	0
5.43237e-09	0	0	0
5.5617e-09	0	0	0
5.67404e-09	0	0	0
6.87304e-09	0	0	0
8.00342e-09	0	0	0
8.03693e-09	0	0	0
8.49953e-09	0	0	0
9.96683e-09	0	0	0
1.14042e-08	0	0	0
1.1603e-08	0	0	0
1.1651e-08	0	0	0
1.19432e-08	0	0	0
1.22366e-08	0	0	0
1.32376e-08	0	0	0
1.38588e-08	0	0	0
1.41663e-08	0	0	0
1.43877e-08	0	0	0
1.53946e-08	0	0	0
1.57338e-08	0	0	0
1.61489e-08	0	0	0
1.69828e-08	0	0	0
1.84789e-08	0	0	0
2.2207e-08	0	0	0
2.28821e-08	0	0	0
2.39916e-08	0	0	0
2.50028e-08	0	0	0
2.76184e-08	0	0	0
2.78862e-08	0	0	0
3.15268e-08	0	0	0
3.2041e-08	0	0	0
3.37377e-08	0	0	0
3.46776e-08	0	0	0
3.76703e-08	0	0	0
3.98028e-08	0	0	0
4.29192e-08	0	0	0
4.29316e-08	0	0	0
4.29663e-08	0	0	0
4.33726e-08	0	0	0
4.87131e-08	0	0	0
4.90056e-08	0	0	0
5.41325e-08	0	0	0
5.93119e-08	0	0	0
5.95618e-08	0	0	0
6.79402e-08	0	0	0
7.45948e-08	0	0	0
8.46684e-08	0	0	0
8.48329e-08	0	0	0
9.59147e-08	0	0	0
1.11819e-07	0	0	0
1.14231e-07	0	0	0
1.40464e-07	0	0	0
2.25704e-07	0	0	0
2.73551e-07	0	0	0
3.62351e-07	0	0	0
3.74514e-07	0	0	0
4.19775e-07	0	0	0
4.46766e-07	0	0	0
5.00328e-07	0	0	0
5.21123e-07	0	0	0
5.81834e-07	0	0	0
6.1682e-07	0	0	0
6.2218e-07	0	0	0
6.51533e-07	0	0	0
6.87086e-07	0	0	0
7.1109e-07	0	0	0
7.65575e-07	0	0	0
7.71283e-07	0	0	0
8.41026e-07	0	0	0
9.56244e-07	0	0	0
1.14997e-06	0	0	0
1.22873e-06	0	0	0
1.26724e-06	0	0	0
1.28832e-06	0	0	0
1.32588e-06	0	0	0
1.33445e-06	0	0	0
1.35041e-06	0	0	0
1.3713e-06	0	0	0
1.49164e-06	0	0	0
1.58392e-06	0	0	0
1.62745e-06	0	0	0
1.62953e-06	0	0	0
1.66685e-06	0	0	0
1.70417e-06	0	0	0
1.76229e-06	0	0	0
1.78792e-06	0	0	0
1.85107e-06	0	0	0
1.92181e-06	0	0	0
1.98351e-06	0	0	0
2.02713e-06	0	0	0
2.04173e-06	0	0	0
2.15137e-06	0	0	0
2.27461e-06	0	0	0
2.3137e-06	0	0	0
2.32153e-06	0	0	0
2.33434e-06	0	0	0
2.3388e-06	0	0	0
2.34054e-06	0	0	0
2.40926e-06	0	0	0
2.41661e-06	0	0	0
2.449e-06	0	0	0
2.44919e-06	0	0	0
2.53924e-06	0	0	0
2.56971e-06	0	0	0
2.63778e-06	0	0	0
2.97587e-06	0	0	0
3.07799e-06	0	0	0
3.22946e-06	0	0	0
3.26671e-06	0	0	0
3.45842e-06	0	0	0
3.48589e-06	0	0	0
3.67697e-06	0	0	0
3.71102e-06	0	0	0
3.73309e-06	0	0	0
3.73893e-06	0	0	0
3.75323e-06	0	0	0
3.82495e-06	0	0	0
3.92923e-06	0	0	0
3.958e-06	0	0	0
4.00239e-06	0	0	0
4.06415e-06	0	0	0
4.06663e-06	0	0	0
4.1138e-06	0	0	0
4.38841e-06	0	0	0
4.44749e-06	0	0	0
4.48762e-06	0	0	0
4.60491e-06	0	0	0
4.60901e-06	0	0	0
4.61288e-06	0	0	0
4.64459e-06	0	0	0
4.67571e-06	0	0	0
4.71179e-06	0	0	0
4.73778e-06	0	0	0
4.77555e-06	0	0	0
4.8624e-06	0	0	0
4.96786e-06	0	0	0
5.08015e-06	0	0	0
5.11593e-06	0	0	0
5.18281e-06	0	0	0
5.19167e-06	0	0	0
5.39747e-06	0	0	0
5.39972e-06	0	0	0
5.50669e-06	0	0	0
5.5263e-06	0	0	0
5.60637e-06	0	0	0
5.65322e-06	0	0	0
5.74143e-06	0	0	0
5.83667e-06	0	0	0
5.85573e-06	0	0	0
5.85808e-06	0	0	0
5.87038e-06	0	0	0
6.1898e-06	0	0	0
6.2837e-06	0	0	0
6.45137e-06	0	0	0
6.74693e-06	0	0	0
6.83907e-06	0	0	0
6.8426e-06	0	0	0
6.9081e-06	0	0	0
6.91447e-06	0	0	0
6.91891e-06	0	0	0
6.94584e-06	0	0	0
6.9653e-06	0	0	0
7.01826e-06	0	0	0
7.0953e-06	0	0	0
7.20194e-06	0	0	0
7.2332e-06	0	0	0
7.28742e-06	0	0	0
7.30389e-06	0	0	0
7.53548e-06	0	0	0
7.55202e-06	0	0	0
7.63857e-06	0	0	0
7.66846e-06	0	0	0
7.76252e-06	0	0	0
7.85033e-06	0	0	0
7.87539e-06	0	0	0
7.88163e-06	0	0	0
7.93935e-06	0	0	0
7.95618e-06	0	0	0
7.98696e-06	0	0	0
8.28023e-06	0	0	0
8.30284e-06	0	0	0
8.31089e-06	0	0	0
8.33616e-06	0	0	0
8.39206e-06	0	0	0
8.47329e-06	0	0	0
8.56248e-06	0	0	0
8.61991e-06	0	0	0
8.76342e-06	0	0	0
8.77672e-06	0	0	0
8.94024e-06	0	0	0
9.09743e-06	0	0	0
9.10338e-06	0	0	0
9.14646e-06	0	0	0
9.15374e-06	0	0	0
9.17405e-06	0	0	0
9.55994e-06	0	0	0
9.58526e-06	0	0	0
9.60261e-06	0	0	0
9.6294e-06	0	0	0
9.85175e-06	0	0	0
1.00862e-05	0	0	0
1.01081e-05	0	0	0
1.01743e-05	0	0	0
1.0286e-05	0	0	0
1.03798e-05	0	0	0
1.03842e-05	0	0	0
1.06295e-05	0	0	0
1.06693e-05	0	0	0
1.1293e-05	0	0	0
1.14501e-05	0	0	0
1.18573e-05	0	0	0
1.18589e-05	0	0	0
1.20559e-05	0	0	0
1.20774e-05	0	0	0
1.22414e-05	0	0	0
1.23236e-05	0	0	0
1.23276e-05	0	0	0
1.27259e-05	0	0	0
1.27735e-05	0	0	0
1.28655e-05	0	0	0
1.30903e-05	0	0	0
1.32439e-05	0	0	0
1.32642e-05	0	0	0
1.35399e-05	0	0	0
1.35619e-05	0	0	0
1.35638e-05	0	0	0
1.3851e-05	0	0	0
1.38942e-05	0	0	0
1.40288e-05	0	0	0
1.43034e-05	0	0	0
1.4423e-05	0	0	0
1.44527e-05	0	0	0
1.44722e-05	0	0	0
1.44899e-05	0	0	0
1.4679e-05	0	0	0
1.48439e-05	0	0	0
1.52391e-05	0	0	0
1.52504e-05	0	0	0
1.52725e-05	0	0	0
1.52783e-05	0	0	0
1.52972e-05	0	0	0
1.54308e-05	0	0	0
1.5503e-05	0	0	0
1.5634e-05	0	0	0
1.5635e-05	0	0	0
1.56388e-05	0	0	0
1.56752e-05	0	0	0
1.56903e-05	0	0	0
1.61396e-05	0	0	0
1.62414e-05	0	0	0
1.64906e-05	0	0	0
1.65001e-05	0	0	0
1.65008e-05	0	0	0
1.66166e-05	0	0	0
1.69132e-05	0	0	0
1.69741e-05	0	0	0
1.701e-05	0	0	0
1.7022e-05	0	0	0
1.70549e-05	0	0	0
1.73826e-05	0	0	0
1.74443e-05	0	0	0
1.76565e-05	0	0	0
1.78802e-05	0	0	0
1.83811e-05	0	0	0
1.841e-05	0	0	0
1.85234e-05	0	0	0
1.85611e-05	0	0	0
1.87651e-05	0	0	0
1.88223e-05	0	0	0
1.98767e-05	0	0	0
2.01021e-05	0	0	0
2.0222e-05	0	0	0
2.03426e-05	0	0	0
2.06515e-05	0	0	0
2.06823e-05	0	0	0
2.07815e-05	0	0	0
2.09315e-05	0	0	0
2.14511e-05	0	0	0
2.16264e-05	0	0	0
2.17189e-05	0	0	0
2.18466e-05	0	0	0
2.19706e-05	0	0	0
2.20692e-05	0	0	0
2.2299e-05	0	0	0
2.24019e-05	0	0	0
2.31262e-05	0	0	0
2.34885e-05	0	0	0
2.36537e-05	0	0	0
2.39184e-05	0	0	0
2.40342e-05	0	0	0
2.40619e-05	0	0	0
2.43499e-05	0	0	0
2.44353e-05	0	0	0
2.46929e-05	0	0	0
2.49038e-05	0	0	0
2.51928e-05	0	0	0
2.557e-05	0	0	0
2.58161e-05	0	0	0
2.58369e-05	0	0	0
2.61471e-05	0	0	0
2.6306e-05	0	0	0
2.64139e-05	0	0	0
2.65816e-05	0	0	0
2.67438e-05	0	0	0
2.70778e-05	0	0	0
2.73149e-05	0	0	0
2.73598e-05	0	0	0
2.75458e-05	0	0	0
2.7785e-05	0	0	0
2.83086e-05	0	0	0
2.85024e-05	0	0	0
2.88688e-05	0	0	0
2.90672e-05	0	0	0
2.93668e-05	0	0	0
2.98936e-05	0	0	0
2.99187e-05	0	0	0
3.01507e-05	0	0	0
3.05269e-05	0	0	0
3.06107e-05	0	0	0
3.09727e-05	0	0	0
3.11747e-05	0	0	0
3.13259e-05	0	0	0
3.15508e-05	0	0	0
3.15946e-05	0	0	0
3.16779e-05	0	0	0
3.21667e-05	0	0	0
3.23878e-05	0	0	0
3.24564e-05	0	0	0
3.25826e-05	0	0	0
3.26837e-05	0	0	0
3.31782e-05	0	0	0
3.36243e-05	0	0	0
3.3734e-05	0	0	0
3.38704e-05	0	0	0
3.38785e-05	0	0	0
3.45075e-05	0	0	0
3.4893e-05	0	0	0
3.49104e-05	0	0	0
3.52965e-05	0	0	0
3.54663e-05	0	0	0
3.55007e-05	0	0	0
3.55227e-05	0	0	0
3.61774e-05	0	0	0
3.62104e-05	0	0	0
3.62691e-05	0	0	0
3.67862e-05	0	0	0
3.68406e-05	0	0	0
3.68424e-05	0	0	0
3.70036e-05	0	0	0
3.71258e-05	0	0	0
3.73519e-05	0	0	0
3.73936e-05	0	0	0
3.76475e-05	0	0	0
3.77079e-05	0	0	0
3.78415e-05	0	0	0
3.79447e-05	0	0	0
3.80385e-05	0	0	0
3.81544e-05	0	0	0
3.82789e-05	0	0	0
3.87294e-05	0	0	0
3.88011e-05	0	0	0
3.9515e-05	0	0	0
3.96309e-05	0	0	0
3.97759e-05	0	0	0
4.01536e-05	0	0	0
4.02649e-05	0	0	0
4.05275e-05	0	0	0
4.0583e-05	0	0	0
4.07971e-05	0	0	0
4.10972e-05	0	0	0
4.15517e-05	0	0	0
4.15933e-05	0	0	0
4.16832e-05	0	0	0
4.17887e-05	0	0	0
4.18425e-05	0	0	0
4.25613e-05	0	0	0
4.29113e-05	0	0	0
4.37252e-05	0	0	0
4.43297e-05	0	0	0
4.47081e-05	0	0	0
4.54089e-05	0	0	0
4.56231e-05	0	0	0
4.61496e-05	0	0	0
4.67255e-05	0	0	0
4.67593e-05	0	0	0
4.76814e-05	0	0	0
4.80982e-05	0	0	0
4.82003e-05	0	0	0
4.89765e-05	0	0	0
4.90116e-05	0	0	0
4.96884e-05	0	0	0
4.96996e-05	0	0	0
4.98161e-05	0	0	0
5.03989e-05	0	0	0
5.06129e-05	0	0	0
5.128e-05	0	0	0
5.19604e-05	0	0	0
5.30004e-05	0	0	0
5.32794e-05	0	0	0
5.38888e-05	0	0	0
5.47884e-05	0	0	0
5.50129e-05	0	0	0
5.56135e-05	0	0	0
5.57752e-05	0	0	0
5.57892e-05	0	0	0
5.58444e-05	0	0	0
5.66543e-05	0	0	0
5.68548e-05	0	0	0
5.71141e-05	0	0	0
5.92268e-05	0	0	0
5.94844e-05	0	0	0
5.97637e-05	0	0	0
6.02003e-05	0	0	0
6.03969e-05	0	0	0
6.06111e-05	0	0	0
6.09184e-05	0	0	0
6.25079e-05	0	0	0
6.2736e-05	0	0	0
6.35211e-05	0	0	0
6.37471e-05	0	0	0
6.45307e-05	0	0	0
6.51641e-05	0	0	0
6.59274e-05	0	0	0
6.6313e-05	0	0	0
6.65868e-05	0	0	0
6.80573e-05	0	0	0
6.99432e-05	0	0	0
7.04415e-05	0	0	0
7.2966e-05	0	0	0
7.50292e-05	0	0	0
7.58802e-05	0	0	0
7.78886e-05	0	0	0
7.7929e-05	0	0	0
7.8371e-05	0	0	0
7.92953e-05	0	0	0
7.94861e-05	0	0	0
7.97503e-05	0	0	0
8.20195e-05	0	0	0
8.22081e-05	0	0	0
8.22109e-05	0	0	0
8.35179e-05	0	0	0
8.4064e-05	0	0	0
8.46715e-05	0	0	0
8.5135e-05	0	0	0
8.51701e-05	0	0	0
8.53604e-05	0	0	0
9.07927e-05	0	0	0
9.27353e-05	0	0	0
9.32054e-05	0	0	0
9.4232e-05	0	0	0
9.46136e-05	0	0	0
9.55735e-05	0	0	0
9.58239e-05	0	0	0
9.601e-05	0	0	0
9.60222e-05	0	0	0
9.63352e-05	0	0	0
9.71259e-05	0	0	0
0.000103528	0	0	0
0.0001042	0	0	0
0.000104593	0	0	0
0.00010656	0	0	0
0.000106648	0	0	0
0.000109229	0	0	0
0.000118659	0	0	0
0.000127741	0	0	0
0.000129283	0	0	0
0.000129663	0	0	0
0.000132571	0	0	0
0.000134095	0	0	0
0.000137829	0	0	0
0.000141245	0	0	0
0.000146997	0	0	0
0.000149976	0	0	0
0.000192478	0	0	0
0.000210516	0	0	0
0.0121657	0	0	0
0.0298577	0	0	0.0909918
0.0308089	0	0	0.0909918
0.0308332	0.0138198	0.0276396	0.0909918
0.0308455	0.0138198	0.0276396	0.0909918
0.0448424	0.0414594	0	0.0909918
0.0455252	0.0414594	0	0.0909918
0.0455296	0.0414594	0	0.0909918
0.0455344	0.0414594	0	0.0909918
0.0516846	0.0414594	0	0.0909918
0.078015	0.0414594	0	0.0909918
0.0785756	0.0414594	0	0.0909918
0.0785843	0.0552792	0.0276396	0.0909918
0.0800865	0.0829187	0	0.0909918
0.0802345	0.0829187	0	0.0909918
0.0802712	0.0829187	0.0552792	0.0909918
0.0802733	0.110558	0.0276396	0.0909918
0.0933961	0.138198	0	0.0909918
0.120773	0.138198	0	0.0909918
0.139656	0.138198	0	0.0909918
0.139863	0.138198	0	0.0909918
0.139868	0.152018	0.0276396	0.0909918
0.144114	0.179657	0	0.0909918
0.144451	0.179657	0	0.0909918
0.144459	0.193477	0.0276396	0.0909918
0.144476	0.221117	0	0.0909918
0.158226	0.221117	0	0.0909918
0.170349	0.221117	0	0.0909918
0.197263	0.221117	0	0.0909918
0.197269	0.221117	0	0.0909918
0.199631	0.221117	0	0.0909918
0.205023	0.221117	0	0.181984
0.207626	0.221117	0	0.181984
0.207639	0.234936	0.0276396	0.181984
0.207708	0.262576	0	0.181984
0.217144	0.262576	0	0.181984
0.21715	0.262576	0	0.181984
0.217216	0.276396	0.0276396	0.181984
0.232075	0.304035	0	0.181984
0.232075	0.304035	0	0.181984
0.232773	0.304035	0.0276396	0.181984
0.232806	0.317855	0.0552792	0.181984
0.23281	0.345495	0.0276396	0.181984
0.246016	0.373134	0	0.181984
0.250267	0.373134	0	0.181984
0.25093	0.373134	0	0.181984
0.250938	0.373134	0.0552792	0.181984
0.250962	0.400774	0.0276396	0.181984
0.250979	0.428413	0	0.181984
0.253667	0.428413	0	0.181984
0.26941	0.428413	0	0.181984
0.269555	0.428413	0	0.181984
0.269615	0.442233	0.0276396	0.181984
0.293569	0.469873	0	0.181984
0.293815	0.469873	0	0.181984
0.293846	0.483693	0.0276396	0.181984
0.30518	0.511332	0	0.181984
0.305538	0.511332	0	0.181984
0.305549	0.511332	0.0276396	0.181984
0.305581	0.525152	0.0552792	0.181984
0.305608	0.552792	0.0276396	0.181984
0.305626	0.552792	0.0276396	0.181984
0.324754	0.580431	0	0.181984
0.331258	0.580431	0	0.181984
0.331309	0.580431	0	0.181984
0.331397	0.594251	0.0276396	0.181984
0.332662	0.621891	0	0.181984
0.338538	0.621891	0	0.181984
0.33867	0.621891	0	0.181984
0.346534	0.621891	0	0.181984
0.347168	0.621891	0	0.181984
0.347187	0.63571	0.0276396	0.181984
0.362796	0.66335	0	0.181984
0.365802	0.66335	0	0.181984
0.366462	0.66335	0	0.181984
0.366681	0.66335	0.0276396	0.181984
0.366715	0.67717	0.0552792	0.181984
0.36672	0.67717	0.0552792	0.181984
0.366757	0.704809	0.0276396	0.181984
0.377837	0.732449	0	0.181984
0.378199	0.732449	0	0.181984
0.378206	0.732449	0.0552792	0.181984
0.378213	0.760088	0.0276396	0.181984
0.386205	0.787728	0	0.181984
0.386504	0.787728	0	0.181984
0.386961	0.787728	0	0.181984
0.388447	0.787728	0.0276396	0.181984
0.388822	0.787728	0.0552792	0.181984
0.389008	0.787728	0.0829187	0.181984
0.398202	0.787728	0.110558	0.181984
0.400857	0.787728	0.110558	0.181984
0.432241	0.787728	0.110558	0.272975
0.432244	0.787728	0.110558	0.272975
0.432245	0.815368	0.0829187	0.272975
0.432255	0.843007	0.0552792	0.272975
0.43226	0.870647	0.0276396	0.272975
0.432267	0.870647	0.0276396	0.272975
0.432287	0.898286	0	0.272975
0.432533	0.898286	0	0.272975
0.432612	0.912106	0.0276396	0.272975
0.446565	0.939746	0	0.272975
0.451076	0.939746	0	0.272975
0.456964	0.939746	0	0.272975
0.469807	0.939746	0	0.272975
0.471412	0.939746	0	0.272975
0.471861	0.939746	0.0276396	0.272975
0.471863	0.953566	0.0552792	0.272975
0.471871	0.981205	0.0276396	0.272975
0.471934	1.00884	0	0.272975
0.487124	1.00884	0	0.272975
0.489265	1.00884	0	0.272975
0.489273	1.02266	0.0276396	0.272975
0.489306	1.0503	0	0.272975
0.489359	1.0503	0	0.272975
0.50257	1.0503	0	0.272975
0.50295	1.0503	0	0.272975
0.502953	1.06412	0.0276396	0.272975
0.517415	1.09176	0	0.272975
0.518613	1.09176	0	0.272975
0.51862	1.10558	0.0276396	0.272975
0.518639	1.13322	0	0.272975
0.518641	1.13322	0	0.272975
0.532216	1.13322	0	0.272975
0.532762	1.13322	0	0.272975
0.533243	1.13322	0.0276396	0.272975
0.533277	1.14704	0.0552792	0.272975
0.533278	1.17468	0.0276396	0.272975
0.533311	1.20232	0	0.272975
0.538832	1.20232	0	0.272975
0.568469	1.20232	0	0.272975
0.571018	1.20232	0	0.272975
0.589657	1.20232	0	0.363967
0.590536	1.20232	0	0.363967
0.59065	1.20232	0.0276396	0.363967
0.590917	1.20232	0.0552792	0.363967
0.59092	1.20232	0.110558	0.363967
0.590933	1.22996	0.0829187	0.363967
0.590971	1.2576	0.0552792	0.363967
0.591066	1.28524	0.0276396	0.363967
0.596124	1.31288	0	0.363967
0.596201	1.31288	0	0.363967
0.596218	1.31288	0	0.363967
0.596708	1.31288	0	0.363967
0.596917	1.31288	0.0276396	0.363967
0.597007	1.31288	0.0552792	0.363967
0.597328	1.31288	0.0829187	0.363967
0.597381	1.31288	0.110558	0.363967
0.59739	1.31288	0.138198	0.363967
0.597393	1.34052	0.110558	0.363967
0.597402	1.36816	0.0829187	0.363967
0.597441	1.36816	0.0829187	0.363967
0.597445	1.36816	0.0829187	0.363967
0.597491	1.3958	0.0552792	0.363967
0.597516	1.42344	0.0276396	0.363967
0.597524	1.45108	0	0.363967
0.597581	1.45108	0	0.363967
0.599977	1.45108	0	0.363967
0.603817	1.45108	0	0.363967
0.614109	1.45108	0	0.363967
0.614668	1.45108	0	0.363967
0.614732	1.45108	0.0276396	0.363967
0.615327	1.45108	0.0552792	0.363967
0.615529	1.45108	0.0829187	0.363967
0.615548	1.4649	0.110558	0.363967
0.615558	1.49254	0.0829187	0.363967
0.615582	1.52018	0.0552792	0.363967
0.61562	1.54782	0.0276396	0.363967
0.626199	1.57546	0	0.363967
0.627409	1.57546	0	0.363967
0.627434	1.58928	0.0276396	0.363967
0.645329	1.61692	0	0.363967
0.645359	1.61692	0	0.363967
0.645405	1.63074	0.0276396	0.363967
0.645457	1.65837	0	0.363967
0.654186	1.65837	0	0.363967
0.654932	1.65837	0	0.363967
0.672171	1.65837	0	0.363967
0.672611	1.65837	0	0.363967
0.67301	1.65837	0.0276396	0.363967
0.673023	1.67219	0.0552792	0.363967
0.673026	1.67219	0.0552792	0.363967
0.673041	1.69983	0.0276396	0.363967
0.673051	1.72747	0	0.363967
0.674038	1.72747	0	0.363967
0.674194	1.72747	0	0.363967
0.674233	1.72747	0.0552792	0.363967
0.674319	1.75511	0.0276396	0.363967
0.685344	1.78275	0	0.363967
0.687834	1.78275	0	0.363967
0.687885	1.78275	0.0552792	0.363967
0.687887	1.81039	0.0276396	0.363967
0.695632	1.83803	0	0.363967
0.696853	1.83803	0	0.363967
0.696875	1.85185	0.0276396	0.363967
0.718756	1.87949	0	0.363967
0.727091	1.87949	0	0.363967
0.756215	1.87949	0	0.363967
0.756712	1.87949	0	0.363967
0.818585	1.87949	0.0276396	0.363967
0.818679	1.87949	0.0276396	0.363967
0.818682	1.87949	0.0276396	0.363967
0.824419	1.90713	0	0.363967
0.824989	1.90713	0	0.363967
0.825008	1.92095	0.0276396	0.363967
0.870463	1.94859	0	0.363967
0.905644	1.94859	0	0.363967
0.916862	1.94859	0	0.454959
0.917022	1.94859	0	0.454959
0.917071	1.96241	0.0276396	0.454959
0.917177	1.96241	0.0276396	0.454959
0.917663	1.99005	0	0.454959
0.917752	1.99005	0	0.454959
0.917775	1.99005	0	0.454959
0.931476	1.99005	0	0.454959
0.935762	1.99005	0	0.545951
0.936818	1.99005	0	0.545951
0.936839	1.99005	0.0552792	0.545951
0.93688	2.01769	0.0276396	0.545951
0.940297	2.04533	0	0.545951
0.940379	2.04533	0	0.545951
0.940384	2.05915	0.0276396	0.545951
0.940414	2.08679	0	0.545951
0.945072	2.08679	0	0.545951
0.960625	2.08679	0	0.545951
0.980601	2.08679	0	0.545951
0.980646	2.08679	0	0.545951
0.980736	2.10061	0.0276396	0.545951
0.98531	2.12825	0	0.545951
0.993988	2.12825	0	0.636943
0.996199	2.12825	0	0.636943
0.996205	2.14207	0.0276396	0.636943
0.996283	2.14207	0.0276396	0.636943
1.02294	2.16971	0	0.636943
1.02305	2.16971	0	0.636943
1.02316	2.16971	0.0276396	0.636943
1.02319	2.18353	0.0552792	0.636943
1.02322	2.21117	0.0276396	0.636943
1.0377	2.23881	0	0.636943
1.03988	2.23881	0	0.636943
1.04586	2.23881	0	0.636943
1.05533	2.23881	0	0.818926
1.0558	2.23881	0	0.818926
1.05587	2.25263	0.0276396	0.818926
1.05981	2.28027	0	0.818926
1.0634	2.28027	0	0.818926
1.06413	2.28027	0	0.818926
1.06461	2.28027	0.0276396	0.818926
1.06461	2.29409	0.0552792	0.818926
1.06461	2.32172	0.0276396	0.818926
1.06462	2.32172	0.0276396	0.818926
1.06463	2.34936	0	0.818926
1.07209	2.34936	0	0.818926
1.08372	2.34936	0	0.818926
1.08374	2.34936	0	0.909918
1.08375	2.34936	0	0.909918
1.08376	2.34936	0	0.909918
1.09936	2.34936	0	0.909918
1.11857	2.34936	0	0.909918
1.12696	2.34936	0	0.909918
1.12752	2.34936	0	0.909918
1.12845	2.34936	0.0276396	0.909918
1.12851	2.34936	0.0552792	0.909918
1.12937	2.34936	0.0829187	0.909918
1.12938	2.34936	0.138198	0.909918
1.12939	2.377	0.110558	0.909918
1.1294	2.40464	0.0829187	0.909918
1.12943	2.43228	0.0552792	0.909918
1.12943	2.45992	0.0276396	0.909918
1.12945	2.45992	0.0276396	0.909918
1.12947	2.45992	0.0276396	0.909918
1.12947	2.48756	0	0.909918
1.13281	2.48756	0	0.909918
1.139	2.48756	0	0.909918
1.15649	2.48756	0	0.909918
1.15694	2.48756	0	0.909918
1.15696	2.48756	0.0552792	0.909918
1.15697	2.5152	0.0276396	0.909918
1.1666	2.54284	0	0.909918
1.1695	2.54284	0	1.00091
1.1739	2.54284	0	1.00091
1.18077	2.54284	0	1.00091
1.18078	2.54284	0	1.0919
1.20272	2.54284	0	1.0919
1.24833	2.54284	0	1.18289
1.25242	2.54284	0	1.18289
1.25462	2.54284	0	1.18289
1.25866	2.54284	0	1.36488
1.25883	2.54284	0	1.36488
1.25892	2.54284	0.0276396	1.36488
1.25892	2.55666	0.0552792	1.36488
1.25898	2.5843	0.0276396	1.36488
1.28199	2.61194	0	1.36488
1.28975	2.61194	0	1.36488
1.30762	2.61194	0	1.45587
1.31203	2.61194	0	1.45587
1.32197	2.61194	0	1.54686
1.32249	2.61194	0	1.54686
1.32249	2.62576	0.0276396	1.54686
1.33718	2.6534	0	1.54686
1.33732	2.6534	0	1.54686
1.33734	2.66722	0.0276396	1.54686
1.34243	2.69486	0	1.54686
1.34278	2.69486	0	1.54686
1.34347	2.69486	0.0276396	1.54686
1.34354	2.69486	0.0552792	1.54686
1.34397	2.69486	0.0552792	1.54686
1.34398	2.70868	0.0829187	1.54686
1.34417	2.73632	0.0552792	1.54686
1.34469	2.73632	0.0829187	1.54686
1.34494	2.73632	0.110558	1.54686
1.39172	2.73632	0.138198	1.54686
1.39172	2.73632	0.138198	1.54686
1.39172	2.76396	0.110558	1.54686
1.39173	2.76396	0.110558	1.54686
1.39174	2.7916	0.0829187	1.54686
1.39174	2.81924	0.0552792	1.54686
1.39177	2.81924	0.0552792	1.54686
1.3918	2.84688	0.0276396	1.54686
1.40768	2.87452	0	1.54686
1.41042	2.87452	0	1.54686
1.42267	2.87452	0	1.54686
1.4415	2.87452	0	1.54686
1.44576	2.87452	0	1.72884
1.49075	2.87452	0	1.72884
1.49113	2.87452	0	1.72884
1.49114	2.88834	0.0276396	1.72884
1.49725	2.91598	0	1.72884
1.49751	2.91598	0	1.72884
1.49843	2.91598	0.0276396	1.72884
1.49845	2.9298	0.0552792	1.72884
1.49846	2.95744	0.0276396	1.72884
1.4985	2.98507	0	1.72884
1.50192	2.98507	0	1.72884
1.50256	2.98507	0	1.72884
1.50257	2.99889	0.0276396	1.72884
1.52135	3.02653	0	1.72884
1.52162	3.02653	0	1.72884
1.52162	3.04035	0.0276396	1.72884
1.55736	3.06799	0	1.72884
1.55747	3.06799	0	1.72884
1.5575	3.08181	0.0276396	1.72884
1.56073	3.10945	0	1.72884
1.56093	3.10945	0	1.91083
1.56405	3.10945	0	1.91083
1.56411	3.10945	0	1.91083
1.56416	3.10945	0.0552792	1.91083
1.5642	3.13709	0.0276396	1.91083
1.58606	3.16473	0	1.91083
1.58608	3.16473	0	1.91083
1.58621	3.17855	0.0276396	1.91083
1.58624	3.17855	0.0276396	2.00182
1.58624	3.17855	0.0276396	2.00182
1.58626	3.17855	0.0276396	2.00182
1.59719	3.20619	0	2.00182
1.59738	3.20619	0	2.00182
1.59743	3.20619	0.0276396	2.00182
1.59748	3.22001	0.0552792	2.00182
1.59749	3.22001	0.0552792	2.00182
1.59754	3.24765	0.0276396	2.00182
1.60222	3.27529	0	2.00182
1.60283	3.27529	0	2.00182
1.60285	3.27529	0.0276396	2.00182
1.60982	3.30293	0	2.00182
1.64316	3.30293	0	2.09281
1.64408	3.30293	0	2.09281
1.64409	3.31675	0.0276396	2.09281
1.6609	3.34439	0	2.09281
1.66091	3.34439	0	2.09281
1.66094	3.34439	0	2.09281
1.67633	3.34439	0	2.09281
1.67648	3.34439	0	2.09281
1.67648	3.34439	0.0552792	2.09281
1.67651	3.37203	0.0276396	2.09281
1.68442	3.39967	0	2.09281
1.68927	3.39967	0	2.09281
1.68974	3.39967	0	2.09281
1.69492	3.39967	0.0276396	2.09281
1.69523	3.39967	0.0276396	2.09281
1.70082	3.41349	0.0552792	2.09281
1.70975	3.41349	0.0552792	2.1838
1.74108	3.41349	0.0552792	2.36579
1.7411	3.41349	0.0552792	2.36579
1.74114	3.44113	0.0276396	2.36579
1.7417	3.46877	0	2.36579
1.74171	3.48259	0.0276396	2.36579
1.7826	3.51023	0	2.36579
1.78615	3.51023	0	2.36579
1.78615	3.51023	0.0276396	2.36579
1.82953	3.53787	0	2.36579
1.82962	3.53787	0	2.36579
1.82968	3.55169	0.0276396	2.36579
1.83849	3.57933	0	2.36579
1.84763	3.57933	0	2.45678
1.84775	3.57933	0	2.45678
1.84776	3.57933	0.0276396	2.45678
1.86817	3.60697	0	2.45678
1.86881	3.60697	0	2.45678
1.86883	3.60697	0.0552792	2.45678
1.86886	3.6346	0.0276396	2.45678
1.86911	3.66224	0	2.45678
1.86922	3.66224	0	2.45678
1.86923	3.67606	0.0276396	2.45678
1.87526	3.7037	0	2.45678
1.88327	3.7037	0	2.45678
1.88991	3.7037	0	2.45678
1.90408	3.7037	0	2.45678
1.90462	3.7037	0	2.45678
1.90465	3.71752	0.0276396	2.45678
1.91434	3.74516	0	2.45678
1.91439	3.74516	0	2.45678
1.91472	3.74516	0.0276396	2.45678
1.91477	3.75898	0.0552792	2.45678
1.91492	3.78662	0.0276396	2.45678
1.91817	3.81426	0	2.45678
1.92599	3.81426	0	2.63876
1.92628	3.81426	0	2.63876
1.92631	3.82808	0.0276396	2.63876
1.92674	3.85572	0	2.63876
1.92729	3.85572	0	2.63876
1.92731	3.86954	0.0276396	2.63876
1.931	3.89718	0	2.63876
1.93579	3.89718	0	2.82075
1.93592	3.89718	0	2.82075
1.93593	3.911	0.0276396	2.82075
1.93597	3.911	0.0276396	2.82075
1.95639	3.93864	0	2.82075
1.95715	3.93864	0	2.82075
1.95716	3.93864	0.0552792	2.82075
1.95718	3.96628	0.0276396	2.82075
1.96179	3.99392	0	2.82075
1.96306	3.99392	0	3.00273
1.9711	3.99392	0	3.09372
1.9712	3.99392	0	3.09372
1.97138	3.99392	0.0276396	3.09372
1.97139	4.00774	0.0552792	3.09372
1.97143	4.03538	0.0276396	3.09372
1.97434	4.06302	0	3.09372
1.99776	4.06302	0	3.18471
2.03193	4.06302	0	3.27571
2.07231	4.06302	0	3.45769
2.09395	4.06302	0	3.45769
2.09488	4.06302	0	3.45769
2.11312	4.06302	0	3.54868
2.12824	4.06302	0	3.54868
2.14351	4.06302	0	3.63967
2.14361	4.06302	0	3.63967
2.1437	4.06302	0.0276396	3.63967
2.14371	4.07684	0.0552792	3.63967
2.14371	4.10448	0.0276396	3.63967
2.14375	4.10448	0.0276396	3.63967
2.20289	4.13212	0	3.63967
2.22257	4.13212	0	3.63967
2.24771	4.13212	0	3.63967
2.26689	4.13212	0	3.82166
2.28457	4.13212	0	3.82166
2.3056	4.13212	0	3.82166
2.31124	4.13212	0	4.00364
2.34565	4.13212	0	4.09463
2.34865	4.13212	0	4.18562
2.37331	4.13212	0	4.27662
2.37332	4.13212	0	4.27662
2.37333	4.13212	0.0552792	4.27662
2.37348	4.15976	0.0276396	4.27662
2.41289	4.1874	0	4.27662
2.41726	4.1874	0	4.27662
2.41855	4.1874	0	4.27662
2.41925	4.1874	0.0276396	4.27662
2.41928	4.20122	0.0552792	4.27662
2.41931	4.22886	0.0276396	4.27662
2.42492	4.2565	0	4.27662
2.45452	4.2565	0	4.36761
2.47272	4.2565	0	4.36761
2.48773	4.2565	0	4.54959
2.50115	4.2565	0	4.73157
2.50554	4.2565	0	4.73157
2.50612	4.2565	0	4.73157
2.50621	4.27032	0.0276396	4.73157
2.53873	4.29795	0	4.73157
2.53971	4.29795	0	4.82257
2.57144	4.29795	0	4.91356
2.57228	4.29795	0	4.91356
2.57228	4.31177	0.0276396	4.91356
2.57272	4.33941	0	4.91356
2.5734	4.33941	0	4.91356
2.57357	4.33941	0.0276396	4.91356
2.57357	4.33941	0.0829187	4.91356
2.57358	4.36705	0.0552792	4.91356
2.57364	4.39469	0.0276396	4.91356
2.58258	4.42233	0	4.91356
2.58263	4.42233	0	4.91356
2.58265	4.43615	0.0276396	4.91356
2.58352	4.46379	0	4.91356
2.5853	4.46379	0	4.91356
2.62233	4.46379	0	5.09554
2.62309	4.46379	0	5.09554
2.6231	4.47761	0.0276396	5.09554
2.62443	4.50525	0	5.09554
2.62942	4.50525	0	5.27753
2.65267	4.50525	0	5.36852
2.65274	4.50525	0	5.36852
2.65277	4.51907	0.0276396	5.36852
2.71045	4.54671	0	5.36852
2.76278	4.54671	0	5.45951
2.76295	4.54671	0	5.45951
2.76387	4.54671	0.0276396	5.45951
2.76436	4.54671	0.0552792	5.45951
2.76459	4.54671	0.0552792	5.5505
2.76461	4.54671	0.110558	5.5505
2.76461	4.57435	0.0829187	5.5505
2.76466	4.60199	0.0552792	5.5505
2.76469	4.62963	0.0276396	5.5505
2.80454	4.65727	0	5.5505
2.80455	4.65727	0	5.64149
2.81788	4.65727	0	5.64149
2.81829	4.65727	0	5.64149
2.81834	4.67109	0.0276396	5.64149
2.81837	4.69873	0	5.64149
2.82529	4.69873	0	5.73248
2.82634	4.69873	0	5.73248
2.82644	4.71255	0.0276396	5.73248
2.84382	4.74019	0	5.73248
2.84556	4.74019	0	5.82348
2.87978	4.74019	0	5.82348
2.90235	4.74019	0	5.82348
2.90235	4.74019	0	5.82348
2.90236	4.75401	0.0276396	5.82348
2.9032	4.78165	0	5.82348
2.95294	4.78165	0	5.91447
2.96156	4.78165	0	6.09645
2.99842	4.78165	0	6.27843
3.00113	4.78165	0	6.27843
3.00172	4.78165	0	6.27843
3.00175	4.79547	0.0276396	6.27843
3.02159	4.82311	0	6.27843
3.02176	4.82311	0	6.27843
3.02868	4.82311	0.0276396	6.27843
3.02931	4.82311	0.0276396	6.27843
3.02952	4.82311	0.0276396	6.27843
3.02958	4.83693	0.0552792	6.27843
3.03069	4.86457	0.0276396	6.27843
3.03075	4.87839	0.0552792	6.27843
3.03252	4.90603	0.0276396	6.27843
3.03254	4.90603	0.0276396	6.46042
3.11229	4.90603	0.0276396	6.46042
3.11229	4.90603	0.0276396	6.46042
3.11235	4.93367	0	6.46042
3.11235	4.94748	0.0276396	6.46042
3.11616	4.97512	0	6.46042
3.11666	4.97512	0	6.55141
3.12311	4.97512	0	6.73339
3.1232	4.97512	0	6.73339
3.12358	4.97512	0.0276396	6.73339
3.12358	4.98894	0.0552792	6.73339
3.12361	5.01658	0.0276396	6.73339
3.15151	5.04422	0	6.73339
3.15175	5.04422	0	6.73339
3.15179	5.05804	0.0276396	6.73339
3.15179	5.08568	0	6.73339
3.19719	5.08568	0	6.73339
3.1976	5.08568	0	6.73339
3.19768	5.0995	0.0276396	6.73339
3.21289	5.12714	0	6.73339
3.21302	5.12714	0	6.73339
3.21304	5.12714	0.0552792	6.73339
3.21305	5.15478	0.0276396	6.73339
3.21643	5.18242	0	6.73339
3.21806	5.18242	0	6.82439
3.21834	5.18242	0	6.82439
3.21837	5.19624	0.0276396	6.82439
3.24401	5.22388	0	6.82439
3.24408	5.22388	0	6.82439
3.24988	5.22388	0	6.82439
3.25082	5.22388	0	6.82439
3.25091	5.2377	0.0276396	6.82439
3.25814	5.26534	0	6.82439
3.25824	5.26534	0	6.82439
3.29456	5.26534	0.0276396	6.82439
3.29457	5.26534	0.0276396	6.82439
3.2952	5.29298	0	6.82439
3.29821	5.29298	0	6.82439
3.29834	5.29298	0	6.82439
3.29845	5.29298	0.0276396	6.82439
3.29845	5.29298	0.0552792	6.82439
3.29854	5.29298	0.0829187	6.82439
3.29856	5.29298	0.110558	6.82439
3.29857	5.32062	0.0829187	6.82439
3.29858	5.34826	0.0552792	6.82439
3.2987	5.3759	0.0276396	6.82439
3.33622	5.40354	0	6.82439
3.33656	5.40354	0	6.82439
3.33657	5.41736	0.0276396	6.82439
3.35279	5.445	0	6.82439
3.35295	5.445	0	7.00637
3.37894	5.445	0	7.00637
3.37894	5.445	0	7.09736
3.39573	5.445	0	7.09736
3.39614	5.445	0	7.09736
3.39634	5.445	0.0276396	7.09736
3.39644	5.45882	0.0552792	7.09736
3.39652	5.48646	0.0276396	7.09736
3.42182	5.5141	0	7.09736
3.42196	5.5141	0	7.09736
3.42206	5.52792	0.0276396	7.09736
3.45247	5.55556	0	7.09736
3.45905	5.55556	0	7.09736
3.53591	5.55556	0	7.09736
3.54281	5.55556	0	7.09736
3.54329	5.55556	0	7.09736
3.54332	5.56938	0.0276396	7.09736
3.57616	5.59701	0	7.09736
3.57638	5.59701	0	7.09736
3.5764	5.59701	0.0552792	7.09736
3.57647	5.62465	0.0276396	7.09736
3.61364	5.65229	0	7.09736
3.61433	5.65229	0	7.09736
3.61545	5.65229	0.0276396	7.09736
3.61547	5.66611	0.0552792	7.09736
3.61549	5.69375	0.0276396	7.09736
3.62467	5.72139	0	7.09736
3.62493	5.72139	0	7.09736
3.62523	5.72139	0.0276396	7.09736
3.62524	5.73521	0.0552792	7.09736
3.62525	5.76285	0.0276396	7.09736
3.63601	5.79049	0	7.09736
3.64618	5.79049	0	7.18835
3.64677	5.79049	0	7.18835
3.64708	5.79049	0.0276396	7.18835
3.64711	5.80431	0.0552792	7.18835
3.64714	5.83195	0.0276396	7.18835
3.66088	5.85959	0	7.18835
3.66441	5.85959	0	7.27934
3.6727	5.85959	0	7.37034
3.67354	5.85959	0	7.37034
3.6736	5.87341	0.0276396	7.37034
3.68446	5.90105	0	7.37034
3.69572	5.90105	0	7.55232
3.69842	5.90105	0	7.55232
3.69869	5.90105	0	7.55232
3.69886	5.91487	0.0276396	7.55232
3.71031	5.94251	0	7.55232
3.72364	5.94251	0	7.64331
3.72719	5.94251	0	7.64331
3.72721	5.94251	0.0552792	7.64331
3.72722	5.97015	0.0276396	7.64331
3.7424	5.99779	0	7.64331
3.74359	5.99779	0	7.64331
3.74359	5.99779	0.0552792	7.64331
3.74362	6.02543	0.0276396	7.64331
3.75311	6.05307	0	7.64331
3.76946	6.05307	0	7.7343
3.7785	6.05307	0	7.91629
3.77985	6.05307	0	7.91629
3.78056	6.05307	0.0276396	7.91629
3.78057	6.05307	0.0829187	7.91629
3.78057	6.08071	0.0552792	7.91629
3.78059	6.10835	0.0276396	7.91629
3.78062	6.10835	0.0276396	7.91629
3.78063	6.13599	0	7.91629
3.8193	6.13599	0	7.91629
3.82004	6.13599	0	7.91629
3.82007	6.14981	0.0276396	7.91629
3.83211	6.17745	0	7.91629
3.83227	6.17745	0	7.91629
3.83233	6.19127	0.0276396	7.91629
3.83391	6.21891	0	7.91629
3.83399	6.21891	0	7.91629
3.83401	6.23273	0.0276396	7.91629
3.85797	6.26036	0	7.91629
3.87691	6.26036	0	8.09827
3.87745	6.26036	0	8.09827
3.87746	6.27418	0.0276396	8.09827
3.89358	6.30182	0	8.09827
3.90372	6.30182	0	8.28025
3.90412	6.30182	0	8.28025
3.90566	6.30182	0.0276396	8.28025
3.90568	6.31564	0.0552792	8.28025
3.90573	6.34328	0.0276396	8.28025
3.90574	6.34328	0.0276396	8.28025
3.94661	6.37092	0	8.28025
3.97085	6.37092	0	8.37125
3.99419	6.37092	0	8.46224
3.99563	6.37092	0	8.46224
3.99593	6.37092	0.0276396	8.46224
3.99595	6.37092	0.0552792	8.46224
3.99677	6.37092	0.0829187	8.46224
3.99701	6.37092	0.110558	8.46224
3.99701	6.37092	0.165837	8.46224
3.99701	6.39856	0.138198	8.46224
3.99702	6.4262	0.110558	8.46224
3.99703	6.45384	0.0829187	8.46224
3.99705	6.45384	0.0829187	8.46224
3.99706	6.48148	0.0552792	8.46224
3.99716	6.50912	0.0276396	8.46224
4.00934	6.53676	0	8.46224
4.01019	6.53676	0	8.46224
4.01594	6.53676	0.0276396	8.46224
4.01687	6.53676	0.0276396	8.46224
4.01777	6.53676	0.0552792	8.46224
4.01778	6.55058	0.0829187	8.46224
4.01784	6.57822	0.0552792	8.46224
4.02791	6.60586	0.0276396	8.46224
4.07223	6.60586	0.0276396	8.46224
4.07234	6.60586	0.0276396	8.46224
4.07237	6.6335	0	8.46224
4.07238	6.64732	0.0276396	8.46224
4.08374	6.67496	0	8.46224
4.085	6.67496	0	8.46224
4.08501	6.67496	0.0276396	8.46224
4.08506	6.68878	0.0552792	8.46224
4.08513	6.71642	0.0276396	8.46224
4.09435	6.74406	0	8.46224
4.10422	6.74406	0	8.46224
4.10487	6.74406	0	8.46224
4.10489	6.75788	0.0276396	8.46224
4.11729	6.78552	0	8.46224
4.1177	6.78552	0	8.55323
4.12196	6.78552	0	8.64422
4.12248	6.78552	0	8.64422
4.12347	6.78552	0.0276396	8.64422
4.12362	6.78552	0.0552792	8.64422
4.1238	6.78552	0.0829187	8.64422
4.14636	6.78552	0.110558	8.64422
4.14644	6.78552	0.110558	8.64422
4.14666	6.78552	0.138198	8.64422
4.14667	6.79934	0.165837	8.64422
4.14668	6.82698	0.138198	8.64422
4.14668	6.85462	0.110558	8.64422
4.14669	6.88226	0.0829187	8.64422
4.1467	6.90989	0.0552792	8.64422
4.1467	6.93753	0.0276396	8.64422
4.14673	6.93753	0.0276396	8.64422
4.14676	6.93753	0.0276396	8.64422
4.14765	6.96517	0	8.64422
4.16531	6.96517	0	8.64422
4.20841	6.96517	0	8.64422
4.20862	6.96517	0	8.64422
4.2099	6.96517	0.0276396	8.64422
4.21023	6.96517	0.0552792	8.64422
4.21023	6.96517	0.110558	8.64422
4.21024	6.99281	0.0829187	8.64422
4.21024	7.02045	0.0552792	8.64422
4.21024	7.04809	0.0276396	8.64422
4.21027	7.07573	0	8.64422
4.22075	7.07573	0	8.64422
4.23126	7.07573	0	8.82621
4.23225	7.07573	0	8.82621
4.23664	7.07573	0.0276396	8.82621
4.25097	7.07573	0.0276396	8.9172
4.2954	7.07573	0.0276396	8.9172
4.29543	7.07573	0.0276396	9.00819
4.30271	7.10337	0	9.00819
4.30304	7.10337	0	9.00819
4.30312	7.11719	0.0276396	9.00819
4.31652	7.14483	0	9.00819
4.31664	7.14483	0	9.00819
4.31694	7.14483	0.0276396	9.00819
4.31697	7.14483	0.0829187	9.00819
4.31699	7.17247	0.0552792	9.00819
4.31705	7.20011	0.0276396	9.00819
4.32676	7.22775	0	9.00819
4.32681	7.22775	0	9.00819
4.32747	7.22775	0.0276396	9.00819
4.32747	7.22775	0.0829187	9.00819
4.32748	7.25539	0.0552792	9.00819
4.32751	7.25539	0.0552792	9.00819
4.32752	7.28303	0.0276396	9.00819
4.34076	7.31067	0	9.00819
4.34078	7.31067	0	9.00819
4.34163	7.31067	0.0276396	9.00819
4.34168	7.31067	0.0552792	9.00819
4.34182	7.31067	0.0829187	9.00819
4.34183	7.31067	0.138198	9.00819
4.34184	7.33831	0.110558	9.00819
4.34185	7.36595	0.0829187	9.00819
4.34187	7.39359	0.0552792	9.00819
4.34189	7.42123	0.0276396	9.00819
4.34985	7.44887	0	9.00819
4.35021	7.44887	0	9.00819
4.35026	7.46269	0.0276396	9.00819
4.3869	7.49033	0	9.00819
4.38744	7.49033	0	9.00819
4.38745	7.49033	0.0552792	9.00819
4.38745	7.51797	0.0276396	9.00819
4.39021	7.54561	0	9.00819
4.3905	7.54561	0	9.00819
4.39051	7.55943	0.0276396	9.00819
4.39646	7.58706	0	9.00819
4.39677	7.58706	0	9.00819
4.39677	7.60088	0.0276396	9.00819
4.40474	7.62852	0	9.00819
4.40487	7.62852	0	9.00819
4.40488	7.64234	0.0276396	9.00819
4.41939	7.66998	0	9.00819
4.45566	7.66998	0	9.00819
4.50421	7.66998	0	9.00819
4.514	7.66998	0	9.09918
4.51415	7.66998	0	9.09918
4.51442	7.6838	0.0276396	9.09918
4.51626	7.71144	0	9.09918
4.5256	7.71144	0	9.19017
4.53375	7.71144	0	9.37216
4.54551	7.71144	0	9.46315
4.54561	7.71144	0	9.46315
4.54564	7.72526	0.0276396	9.46315
4.54794	7.7529	0	9.46315
4.548	7.7529	0	9.46315
4.54803	7.7529	0.0552792	9.46315
4.54811	7.78054	0.0276396	9.46315
4.55367	7.80818	0	9.46315
4.5761	7.80818	0	9.64513
4.58246	7.80818	0	9.64513
4.58296	7.80818	0	9.64513
4.58302	7.822	0.0276396	9.64513
4.61177	7.84964	0	9.64513
4.63437	7.84964	0	9.82712
4.63461	7.84964	0	9.82712
4.63465	7.86346	0.0276396	9.82712
4.63475	7.8911	0	9.82712
4.64794	7.8911	0	9.82712
4.6484	7.8911	0	9.82712
4.64841	7.8911	0	9.82712
4.64842	7.90492	0.0276396	9.82712
4.64873	7.93256	0	9.82712
4.64877	7.93256	0.0552792	9.82712
4.64899	7.9602	0.0276396	9.82712
4.66252	7.98784	0	9.82712
4.66481	7.98784	0	10.0091
4.66527	7.98784	0	10.0091
4.66528	7.98784	0.0552792	10.0091
4.66537	8.01548	0.0276396	10.0091
4.66538	8.04312	0	10.0091
4.6855	8.04312	0	10.0091
4.68569	8.04312	0	10.0091
4.68596	8.04312	0.0276396	10.0091
4.68596	8.05694	0.0552792	10.0091
4.68601	8.08458	0.0276396	10.0091
4.70082	8.11222	0	10.0091
4.70811	8.11222	0	10.1001
4.72114	8.11222	0	10.1911
4.73209	8.11222	0	10.2821
4.73324	8.11222	0	10.2821
4.73422	8.11222	0.0276396	10.2821
4.73423	8.12604	0.0552792	10.2821
4.73424	8.15368	0.0276396	10.2821
4.7518	8.18132	0	10.2821
4.75181	8.18132	0	10.2821
4.75195	8.18132	0.0276396	10.2821
4.75196	8.19514	0.0552792	10.2821
4.75197	8.22278	0.0276396	10.2821
4.75197	8.25041	0	10.2821
4.75256	8.25041	0	10.2821
4.75266	8.25041	0	10.2821
4.75267	8.26423	0.0276396	10.2821
4.77165	8.29187	0	10.2821
4.82032	8.29187	0	10.4641
4.82108	8.29187	0	10.4641
4.8211	8.30569	0.0276396	10.4641
4.82976	8.33333	0	10.4641
4.83004	8.33333	0	10.4641
4.83005	8.34715	0.0276396	10.4641
4.88913	8.37479	0	10.4641
4.89435	8.37479	0	10.5551
4.90462	8.37479	0	10.5551
4.90935	8.37479	0	10.737
4.92972	8.37479	0	10.828
4.95411	8.37479	0	10.919
4.95452	8.37479	0	10.919
4.95454	8.37479	0.0552792	10.919
4.95465	8.40243	0.0276396	10.919
4.99296	8.43007	0	10.919
4.99356	8.43007	0	10.919
4.99356	8.43007	0.0552792	10.919
4.99365	8.45771	0.0276396	10.919
4.9937	8.48535	0	10.919
4.9952	8.48535	0	10.919
5.00115	8.48535	0	11.01
5.02799	8.48535	0	11.01
5.02813	8.48535	0	11.01
5.02833	8.48535	0	11.01
5.02841	8.48535	0.0276396	11.01
5.02841	8.49917	0.0552792	11.01
5.02841	8.52681	0.0276396	11.01
5.02885	8.55445	0	11.01
5.02906	8.55445	0	11.01
5.02927	8.55445	0.0276396	11.01
5.02929	8.55445	0.0552792	11.01
5.02934	8.58209	0.0276396	11.01
5.02934	8.60973	0	11.01
5.04652	8.60973	0	11.01
5.05622	8.60973	0	11.192
5.05629	8.60973	0	11.192
5.05632	8.62355	0.0276396	11.192
5.06217	8.65119	0	11.192
5.08412	8.65119	0	11.283
5.08449	8.65119	0	11.283
5.08465	8.65119	0.0276396	11.283
5.08466	8.66501	0.0552792	11.283
5.08467	8.66501	0.0552792	11.283
5.08469	8.69265	0.0276396	11.283
5.09874	8.72029	0	11.283
5.12152	8.72029	0	11.465
5.12285	8.72029	0	11.465
5.12418	8.72029	0.0276396	11.465
5.12419	8.73411	0.0552792	11.465
5.12419	8.76175	0.0276396	11.465
5.14235	8.78939	0	11.465
5.14252	8.78939	0	11.465
5.14255	8.80321	0.0276396	11.465
5.17319	8.83085	0	11.465
5.20803	8.83085	0	11.556
5.22641	8.83085	0	11.7379
5.22662	8.83085	0	11.7379
5.22666	8.84467	0.0276396	11.7379
5.2695	8.87231	0	11.7379
5.27719	8.87231	0	11.8289
5.28698	8.87231	0	11.9199
5.28762	8.87231	0	11.9199
5.28805	8.87231	0.0276396	11.9199
5.28807	8.88612	0.0552792	11.9199
5.28812	8.91376	0.0276396	11.9199
5.28814	8.9414	0	11.9199
5.28916	8.9414	0	11.9199
5.28916	8.95522	0.0276396	11.9199
5.3021	8.98286	0	11.9199
5.30244	8.98286	0	11.9199
5.30247	8.99668	0.0276396	11.9199
5.30803	9.02432	0	11.9199
5.31481	9.02432	0	12.0109
5.31515	9.02432	0	12.0109
5.31524	9.03814	0.0276396	12.0109
5.33702	9.06578	0	12.0109
5.33796	9.06578	0	12.0109
5.33799	9.0796	0.0276396	12.0109
5.35742	9.10724	0	12.0109
5.35816	9.10724	0	12.0109
5.35829	9.12106	0.0276396	12.0109
5.37	9.1487	0	12.0109
5.37028	9.1487	0	12.0109
5.37093	9.1487	0.0276396	12.0109
5.37115	9.1487	0.0552792	12.0109
5.37158	9.1487	0.0829187	12.0109
5.37182	9.1487	0.110558	12.0109
5.37213	9.1487	0.138198	12.0109
5.37214	9.16252	0.165837	12.0109
5.37215	9.19016	0.138198	12.0109
5.37216	9.2178	0.110558	12.0109
5.37222	9.24544	0.0829187	12.0109
5.37226	9.27308	0.0552792	12.0109
5.37236	9.30072	0.0276396	12.0109
5.43519	9.32836	0	12.0109
5.46638	9.32836	0	12.1019
5.49578	9.32836	0	12.1019
5.49593	9.32836	0	12.1019
5.49676	9.32836	0.0276396	12.1019
5.49677	9.34218	0.0552792	12.1019
5.49679	9.36982	0.0276396	12.1019
5.49981	9.39746	0	12.1019
5.50034	9.39746	0	12.1019
5.50047	9.39746	0	12.1019
5.50176	9.39746	0.0276396	12.1019
5.50272	9.39746	0.0552792	12.1019
5.50279	9.41128	0.0829187	12.1019
5.50281	9.43892	0.0552792	12.1019
5.52458	9.46656	0.0276396	12.1019
5.5246	9.46656	0.0276396	12.1929
5.59917	9.4942	0	12.1929
5.59938	9.4942	0	12.1929
5.59939	9.50802	0.0276396	12.1929
5.61039	9.53566	0	12.1929
5.61044	9.53566	0	12.1929
5.61046	9.54947	0.0276396	12.1929
5.63313	9.57711	0	12.1929
5.63413	9.57711	0	12.1929
5.63421	9.57711	0.0276396	12.1929
5.67362	9.60475	0	12.1929
5.67362	9.60475	0	12.1929
5.67368	9.61857	0.0276396	12.1929
5.7359	9.64621	0	12.1929
5.76546	9.64621	0	12.3749
5.76621	9.64621	0	12.3749
5.76627	9.64621	0.0552792	12.3749
5.7663	9.67385	0.0276396	12.3749
5.76856	9.70149	0	12.3749
5.76941	9.70149	0	12.3749
5.77019	9.70149	0.0276396	12.3749
5.77022	9.71531	0.0552792	12.3749
5.77022	9.74295	0.0276396	12.3749
5.78163	9.77059	0	12.3749
5.78243	9.77059	0	12.3749
5.78246	9.78441	0.0276396	12.3749
5.82269	9.81205	0	12.3749
5.82336	9.81205	0	12.3749
5.82342	9.82587	0.0276396	12.3749
5.82676	9.85351	0	12.3749
5.82687	9.85351	0	12.5569
5.83144	9.85351	0	12.5569
5.83155	9.85351	0	12.5569
5.8322	9.85351	0.0276396	12.5569
5.83328	9.85351	0.0552792	12.5569
5.84715	9.85351	0.0829187	12.5569
5.84718	9.85351	0.0829187	12.5569
5.84723	9.85351	0.138198	12.5569
5.84726	9.88115	0.110558	12.5569
5.84728	9.90879	0.0829187	12.5569
5.85685	9.90879	0.0829187	12.5569
5.85685	9.90879	0.0829187	12.6479
5.85685	9.90879	0.0829187	12.6479
5.85686	9.93643	0.0552792	12.6479
5.85694	9.96407	0.0276396	12.6479
5.85694	9.99171	0	12.6479
5.92063	9.99171	0	12.6479
5.93571	9.99171	0	12.8298
5.9613	9.99171	0	12.9208
5.98253	9.99171	0	13.0118
5.99048	9.99171	0	13.1028
5.99148	9.99171	0	13.1028
5.99163	10.0055	0.0276396	13.1028
5.99181	10.0332	0	13.1028
5.99193	10.0332	0	13.1028
5.99207	10.047	0.0276396	13.1028
6.01932	10.0746	0	13.1028
6.01933	10.0746	0	13.1028
6.01934	10.0884	0.0276396	13.1028
6.03151	10.1161	0	13.1028
6.03155	10.1161	0	13.1028
6.03508	10.1161	0	13.1028
6.07837	10.1161	0	13.2848
6.15741	10.1161	0	13.2848
6.15763	10.1161	0	13.2848
6.15766	10.1299	0.0276396	13.2848
6.18735	10.1575	0	13.2848
6.18851	10.1575	0	13.2848
6.19293	10.1575	0.0276396	13.2848
6.19293	10.1714	0.0552792	13.2848
6.193	10.199	0.0276396	13.2848
6.20226	10.2266	0	13.2848
6.21397	10.2266	0	13.4668
6.21406	10.2266	0	13.4668
6.21417	10.2405	0.0276396	13.4668
6.22004	10.2681	0	13.4668
6.22005	10.2681	0	13.5578
6.22006	10.2681	0	13.5578
6.22399	10.2681	0	13.5578
6.23051	10.2681	0	13.5578
6.23124	10.2681	0	13.5578
6.23125	10.2819	0.0276396	13.5578
6.23444	10.3096	0	13.5578
6.23447	10.3096	0	13.5578
6.23451	10.3234	0.0276396	13.5578
6.27715	10.351	0	13.5578
6.27775	10.351	0	13.5578
6.27804	10.351	0.0276396	13.5578
6.27811	10.3648	0.0552792	13.5578
6.27812	10.3925	0.0276396	13.5578
6.29996	10.4201	0	13.5578
6.3136	10.4201	0	13.6488
6.32162	10.4201	0	13.7398
6.32199	10.4201	0	13.7398
6.322	10.4201	0.0552792	13.7398
6.3221	10.4478	0.0276396	13.7398
6.35936	10.4754	0	13.7398
6.35942	10.4754	0	13.7398
6.35944	10.4754	0.0552792	13.7398
6.35945	10.503	0.0276396	13.7398
6.3875	10.5307	0	13.7398
6.39044	10.5307	0	13.9217
6.45261	10.5307	0	13.9217
6.45261	10.5307	0	13.9217
6.45264	10.5445	0.0276396	13.9217
6.52191	10.5721	0	13.9217
6.52193	10.5721	0	13.9217
6.52194	10.5721	0.0552792	13.9217
6.52194	10.5721	0.0552792	13.9217
6.52195	10.5998	0.0276396	13.9217
6.52542	10.6274	0	13.9217
6.52548	10.6274	0	13.9217
6.5255	10.6274	0.0276396	13.9217
6.5368	10.6551	0	13.9217
6.55038	10.6551	0	13.9217
6.55114	10.6551	0	14.1037
6.5514	10.6551	0	14.1037
6.55146	10.6689	0.0276396	14.1037
6.55259	10.6965	0	14.1037
6.56045	10.6965	0	14.1947
6.56083	10.6965	0	14.1947
6.56094	10.6965	0.0276396	14.1947
6.56096	10.7103	0.0552792	14.1947
6.56115	10.738	0.0276396	14.1947
6.57123	10.7656	0	14.1947
6.57155	10.7656	0	14.2857
6.5716	10.7656	0	14.2857
6.57174	10.7794	0.0276396	14.2857
6.57454	10.8071	0	14.2857
6.57483	10.8071	0	14.2857
6.57484	10.8071	0.0552792	14.2857
6.57484	10.8347	0.0276396	14.2857
6.6806	10.8624	0	14.2857
6.6807	10.8624	0	14.2857
6.68078	10.8624	0.0276396	14.2857
6.6808	10.8624	0.0552792	14.2857
6.6808	10.89	0.0276396	14.2857
6.70517	10.9176	0	14.2857
6.70525	10.9176	0	14.2857
6.70594	10.9176	0.0276396	14.2857
6.70595	10.9315	0.0552792	14.2857
6.706	10.9591	0.0276396	14.2857
6.70671	10.9867	0	14.2857
6.76292	10.9867	0	14.3767
6.77488	10.9867	0	14.5587
6.777	10.9867	0	14.5587
6.77703	10.9867	0.0552792	14.5587
6.77713	11.0144	0.0276396	14.5587
6.80032	11.042	0	14.5587
6.82775	11.042	0	14.6497
6.84011	11.042	0	14.8317
6.8406	11.042	0	14.8317
6.84066	11.0558	0.0276396	14.8317
6.89408	11.0835	0	14.8317
6.89419	11.0835	0	14.8317
6.89473	11.0835	0.0276396	14.8317
6.89474	11.0973	0.0552792	14.8317
6.8948	11.1249	0.0276396	14.8317
6.93316	11.1526	0	14.8317
6.95206	11.1526	0	14.8317
6.95222	11.1526	0	14.8317
6.95223	11.1664	0.0276396	14.8317
6.96477	11.194	0	14.8317
6.96489	11.194	0	14.8317
6.9649	11.2078	0.0276396	14.8317
6.9989	11.2355	0	14.8317
6.99957	11.2355	0	14.8317
6.99957	11.2355	0.0276396	14.8317
7.04842	11.2631	0	14.8317
7.06474	11.2631	0	15.0136
7.06535	11.2631	0	15.0136
7.07279	11.2631	0.0276396	15.0136
7.07279	11.2631	0.0276396	15.0136
7.0728	11.2631	0.0829187	15.0136
7.07284	11.2908	0.0552792	15.0136
7.09896	11.3184	0.0276396	15.0136
7.09903	11.3184	0.0276396	15.1956
7.10634	11.346	0	15.1956
7.10648	11.346	0	15.1956
7.10663	11.346	0.0276396	15.1956
7.10717	11.346	0.0552792	15.1956
7.10717	11.3599	0.0829187	15.1956
7.10718	11.3875	0.0552792	15.1956
7.10721	11.4151	0.0276396	15.1956
7.11089	11.4428	0	15.1956
7.11183	11.4428	0	15.1956
7.11187	11.4566	0.0276396	15.1956
7.21051	11.4842	0	15.1956
7.21068	11.4842	0	15.1956
7.21071	11.4981	0.0276396	15.1956
7.30801	11.5257	0	15.1956
7.30846	11.5257	0	15.1956
7.30849	11.5257	0.0552792	15.1956
7.30851	11.5533	0.0276396	15.1956
7.30911	11.581	0	15.1956
7.30923	11.581	0	15.1956
7.30927	11.5948	0.0276396	15.1956
7.33746	11.6224	0	15.1956
7.34495	11.6224	0	15.3776
7.3454	11.6224	0	15.3776
7.34541	11.6224	0.0552792	15.3776
7.34545	11.6501	0.0276396	15.3776
7.41199	11.6777	0	15.3776
7.41216	11.6777	0	15.3776
7.4122	11.6777	0	15.4686
7.41221	11.6915	0.0276396	15.4686
7.41395	11.7192	0	15.4686
7.42228	11.7192	0	15.6506
7.45458	11.7192	0	15.8326
7.45463	11.7192	0	15.8326
7.45464	11.733	0.0276396	15.8326
7.51802	11.7606	0	15.8326
7.51826	11.7606	0	15.8326
7.51927	11.7606	0.0276396	15.8326
7.51929	11.7745	0.0552792	15.8326
7.51931	11.8021	0.0276396	15.8326
7.66263	11.8297	0	15.8326
7.66312	11.8297	0	15.8326
7.66312	11.8297	0.0552792	15.8326
7.66317	11.8574	0.0276396	15.8326
7.67572	11.885	0	15.8326
7.67638	11.885	0	15.8326
7.67641	11.8988	0.0276396	15.8326
7.75022	11.9265	0	15.8326
7.75115	11.9265	0	15.8326
7.75115	11.9265	0.0552792	15.8326
7.75119	11.9541	0.0276396	15.8326
7.76378	11.9818	0	15.8326
7.76445	11.9818	0	15.8326
7.76446	11.9818	0.0552792	15.8326
7.76448	12.0094	0.0276396	15.8326
7.82044	12.037	0	15.8326
7.82059	12.037	0	15.8326
7.82059	12.0509	0.0276396	15.8326
7.87258	12.0785	0	15.8326
7.94743	12.0785	0	15.9236
7.94763	12.0785	0	15.9236
7.94769	12.0785	0.0276396	15.9236
7.94769	12.0923	0.0552792	15.9236
7.94771	12.12	0.0276396	15.9236
7.9774	12.1476	0	15.9236
7.97816	12.1476	0	15.9236
7.9782	12.1614	0.0276396	15.9236
7.98395	12.1891	0	15.9236
7.98453	12.1891	0	15.9236
7.98461	12.1891	0.0276396	15.9236
7.98498	12.1891	0.0552792	15.9236
7.98499	12.2029	0.0829187	15.9236
7.98499	12.2305	0.0552792	15.9236
7.985	12.2582	0.0276396	15.9236
8.00574	12.2858	0	15.9236
8.00589	12.2858	0	15.9236
8.00591	12.2996	0.0276396	15.9236
8.03685	12.3273	0	15.9236
8.03717	12.3273	0	15.9236
8.03718	12.3411	0.0276396	15.9236
8.04721	12.3687	0	15.9236
8.05201	12.3687	0	16.0146
8.09972	12.3687	0	16.1056
8.12483	12.3687	0	16.1965
8.12521	12.3687	0	16.1965
8.12524	12.3825	0.0276396	16.1965
8.15767	12.4102	0	16.1965
8.1654	12.4102	0	16.3785
8.16552	12.4102	0	16.3785
8.16552	12.4102	0.0552792	16.3785
8.16559	12.4378	0.0276396	16.3785
8.17833	12.4655	0	16.3785
8.17949	12.4655	0	16.5605
8.21583	12.4655	0	16.5605
8.22309	12.4655	0	16.5605
8.22334	12.4655	0	16.5605
8.22365	12.4655	0.0276396	16.5605
8.22377	12.4655	0.0552792	16.5605
8.2244	12.4655	0.0829187	16.5605
8.22574	12.4655	0.110558	16.5605
8.25346	12.4655	0.138198	16.5605
8.25346	12.4655	0.138198	16.6515
8.25346	12.4931	0.110558	16.6515
8.25347	12.5207	0.0829187	16.6515
8.25351	12.5484	0.0552792	16.6515
8.25353	12.576	0.0276396	16.6515
8.26195	12.6036	0	16.6515
8.26237	12.6036	0	16.6515
8.26237	12.6175	0.0276396	16.6515
8.31546	12.6451	0	16.6515
8.33871	12.6451	0	16.8335
8.3388	12.6451	0	16.8335
8.33883	12.6451	0.0552792	16.8335
8.33884	12.6727	0.0276396	16.8335
8.42195	12.7004	0	16.8335
8.43581	12.7004	0	17.0155
8.43596	12.7004	0	17.0155
8.43598	12.7004	0.0276396	17.0155
8.43599	12.7142	0.0552792	17.0155
8.436	12.7418	0.0276396	17.0155
8.44518	12.7695	0	17.0155
8.44855	12.7695	0	17.1975
8.44964	12.7695	0	17.1975
8.44965	12.7833	0.0276396	17.1975
8.47556	12.8109	0	17.1975
8.47696	12.8109	0	17.1975
8.47718	12.8109	0.0276396	17.1975
8.47718	12.8248	0.0552792	17.1975
8.4772	12.8524	0.0276396	17.1975
8.48008	12.88	0	17.1975
8.48035	12.88	0	17.1975
8.49473	12.88	0.0276396	17.1975
8.55651	12.88	0.0276396	17.3794
8.55651	12.88	0.0276396	17.3794
8.62047	12.9077	0	17.3794
8.67068	12.9077	0	17.5614
8.70385	12.9077	0	17.7434
8.70527	12.9077	0	17.7434
8.70576	12.9077	0.0276396	17.7434
8.70577	12.9215	0.0552792	17.7434
8.70582	12.9491	0.0276396	17.7434
8.72104	12.9768	0	17.7434
8.72121	12.9768	0	17.7434
8.72241	12.9768	0.0276396	17.7434
8.72244	12.9768	0.0552792	17.7434
8.72248	13.0044	0.0276396	17.7434
8.73881	13.0321	0	17.7434
8.75177	13.0321	0	17.9254
8.75257	13.0321	0	17.9254
8.75257	13.0459	0.0276396	17.9254
8.77199	13.0735	0	17.9254
8.78456	13.0735	0	18.1074
8.78538	13.0735	0	18.1074
8.78546	13.0873	0.0276396	18.1074
8.79113	13.115	0	18.1074
8.79131	13.115	0	18.1074
8.9318	13.115	0.0276396	18.1074
8.93181	13.115	0.0276396	18.1074
8.93184	13.1426	0	18.1074
8.93184	13.1426	0.0552792	18.1074
8.93184	13.1703	0.0276396	18.1074
8.99215	13.1979	0	18.1074
9.02357	13.1979	0	18.1984
9.03519	13.1979	0	18.3803
9.08438	13.1979	0	18.4713
9.08564	13.1979	0	18.5623
9.08644	13.1979	0	18.5623
9.08646	13.1979	0.0552792	18.5623
9.08661	13.2255	0.0276396	18.5623
9.16191	13.2532	0	18.5623
9.16201	13.2532	0	18.5623
9.16204	13.267	0.0276396	18.5623
9.17756	13.2946	0	18.5623
9.17965	13.2946	0	18.5623
9.1806	13.2946	0.0276396	18.5623
9.18062	13.3085	0.0552792	18.5623
9.18075	13.3361	0.0276396	18.5623
9.20563	13.3637	0	18.5623
9.20573	13.3637	0	18.6533
9.21038	13.3637	0	18.6533
9.21048	13.3637	0	18.6533
9.2105	13.3776	0.0276396	18.6533
9.27659	13.4052	0	18.6533
9.27677	13.4052	0	18.6533
9.27677	13.419	0.0276396	18.6533
9.32927	13.4467	0	18.6533
9.3369	13.4467	0	18.8353
9.33806	13.4467	0	18.8353
9.33807	13.4605	0.0276396	18.8353
9.34609	13.4881	0	18.8353
9.34617	13.4881	0	18.8353
9.34649	13.4881	0.0276396	18.8353
9.3465	13.4881	0.0552792	18.8353
9.34652	13.5158	0.0276396	18.8353
9.35118	13.5434	0	18.8353
9.35126	13.5434	0	18.8353
9.35132	13.5572	0.0276396	18.8353
9.38386	13.5849	0	18.8353
9.40111	13.5849	0	19.0173
9.40131	13.5849	0	19.0173
9.40136	13.5987	0.0276396	19.0173
9.43778	13.6263	0	19.0173
9.44186	13.6263	0	19.1083
9.44223	13.6263	0	19.1083
9.44226	13.6263	0.0552792	19.1083
9.44228	13.654	0.0276396	19.1083
9.51021	13.6816	0	19.1083
9.5104	13.6816	0	19.1083
9.51199	13.6816	0.0276396	19.1083
9.51203	13.6954	0.0552792	19.1083
9.51204	13.7231	0.0276396	19.1083
9.59106	13.7507	0	19.1083
9.59202	13.7507	0	19.1083
9.59228	13.7507	0.0276396	19.1083
9.59231	13.7507	0.0829187	19.1083
9.59234	13.7783	0.0552792	19.1083
9.59237	13.806	0.0276396	19.1083
9.60812	13.8336	0	19.1083
9.60857	13.8336	0	19.1083
9.60924	13.8336	0.0276396	19.1083
9.60925	13.8474	0.0552792	19.1083
9.60937	13.8751	0.0276396	19.1083
9.61164	13.9027	0	19.1083
9.61213	13.9027	0	19.1083
9.61216	13.9027	0.0552792	19.1083
9.61216	13.9303	0.0276396	19.1083
9.63502	13.958	0	19.1083
9.64363	13.958	0	19.2903
9.67676	13.958	0	19.2903
9.68138	13.958	0	19.4722
9.68166	13.958	0	19.4722
9.68169	13.9718	0.0276396	19.4722
9.73457	13.9994	0	19.4722
9.73474	13.9994	0	19.4722
9.73483	13.9994	0.0552792	19.4722
9.73488	14.0271	0.0276396	19.4722
9.74219	14.0547	0	19.4722
9.74306	14.0547	0	19.4722
9.74308	14.0685	0.0276396	19.4722
9.80283	14.0962	0	19.4722
9.80309	14.0962	0	19.4722
9.80311	14.11	0.0276396	19.4722
9.84305	14.1376	0	19.4722
9.8434	14.1376	0	19.4722
9.84344	14.1376	0.0276396	19.4722
9.84355	14.1376	0.0552792	19.4722
9.84355	14.1515	0.0829187	19.4722
9.84356	14.1791	0.0552792	19.4722
9.84359	14.2067	0.0276396	19.4722
9.85445	14.2344	0	19.4722
9.85483	14.2344	0	19.4722
9.8562	14.2344	0.0276396	19.4722
9.85624	14.2482	0.0552792	19.4722
9.85625	14.2758	0.0276396	19.4722
9.8618	14.3035	0	19.4722
9.88919	14.3035	0	19.5632
9.88926	14.3035	0	19.5632
9.88995	14.3035	0.0276396	19.5632
9.88995	14.3173	0.0552792	19.5632
9.89	14.3449	0.0276396	19.5632
9.89141	14.3726	0	19.5632
9.93769	14.3726	0	19.7452
9.93858	14.3726	0	19.7452
9.93859	14.3864	0.0276396	19.7452
9.961	14.414	0	19.7452
9.97566	14.414	0	19.9272
9.97577	14.414	0	19.9272
9.9758	14.414	0.0552792	19.9272
9.97582	14.4417	0.0276396	19.9272
10.0042	14.4693	0	19.9272
10.0042	14.4693	0	19.9272
10.0043	14.4831	0.0276396	19.9272
10.0255	14.5108	0	19.9272
10.0258	14.5108	0	19.9272
10.0258	14.5108	0.0552792	19.9272
10.0258	14.5384	0.0276396	19.9272
10.0554	14.5661	0	19.9272
10.0572	14.5661	0	20.0182
10.168	14.5661	0	20.2002
10.1682	14.5661	0	20.2002
10.1683	14.5661	0.0552792	20.2002
10.1683	14.5937	0.0276396	20.2002
10.185	14.6213	0	20.2002
10.331	14.6213	0	20.2912
10.3311	14.6213	0	20.2912
10.3312	14.6352	0.0276396	20.2912
10.3566	14.6628	0	20.2912
10.3937	14.6628	0	20.3822
10.5201	14.6628	0	20.4732
10.5205	14.6628	0	20.4732
10.5206	14.6628	0.0276396	20.4732
10.5206	14.6766	0.0552792	20.4732
10.5206	14.7043	0.0276396	20.4732
10.7403	14.7319	0	20.4732
10.7416	14.7319	0	20.4732
10.7417	14.7319	0.0552792	20.4732
10.7417	14.7595	0.0276396	20.4732
10.7923	14.7872	0	20.4732
10.9373	14.7872	0	20.5641
10.9379	14.7872	0	20.5641
10.9393	14.7872	0.0276396	20.5641
10.9394	14.801	0.0552792	20.5641
10.9395	14.8286	0.0276396	20.5641
11.0279	14.8563	0	20.5641
11.028	14.8563	0	20.5641
11.028	14.8563	0.0276396	20.5641
11.0629	14.8839	0	20.5641
11.066	14.8839	0	20.7461
11.066	14.8839	0	20.7461
11.066	14.8839	0.0552792	20.7461
11.066	14.9116	0.0276396	20.7461
11.1278	14.9392	0	20.7461
11.1286	14.9392	0	20.7461
11.1286	14.9392	0.0552792	20.7461
11.1286	14.9668	0.0276396	20.7461
11.1412	14.9945	0	20.7461
11.1414	14.9945	0	20.7461
11.1415	15.0083	0.0276396	20.7461
11.182	15.0359	0	20.7461
11.1824	15.0359	0	20.7461
11.1824	15.0359	0.0552792	20.7461
11.1826	15.0636	0.0276396	20.7461
11.219	15.0912	0	20.7461
11.2194	15.0912	0	20.7461
11.2194	15.0912	0.0552792	20.7461
11.2195	15.1189	0.0276396	20.7461
11.2595	15.1465	0	20.7461
11.2903	15.1465	0	20.9281
11.2903	15.1465	0	20.9281
11.2904	15.1465	0.0552792	20.9281
11.2904	15.1741	0.0276396	20.9281
11.4179	15.2018	0	20.9281
11.4188	15.2018	0	20.9281
11.4189	15.2018	0.0552792	20.9281
11.4189	15.2294	0.0276396	20.9281
11.4206	15.257	0	20.9281
11.4207	15.257	0	20.9281
11.4208	15.2709	0.0276396	20.9281
11.4741	15.2985	0	20.9281
11.4743	15.2985	0	20.9281
11.4743	15.3123	0.0276396	20.9281
11.5362	15.34	0	20.9281
11.5371	15.34	0	20.9281
11.5375	15.34	0.0276396	20.9281
11.5375	15.3538	0.0552792	20.9281
11.5375	15.3814	0.0276396	20.9281
11.5738	15.4091	0	20.9281
11.6186	15.4091	0	21.1101
11.6402	15.4091	0	21.2921
11.6407	15.4091	0	21.2921
11.6408	15.4091	0.0552792	21.2921
11.6409	15.4367	0.0276396	21.2921
11.6864	15.4643	0	21.2921
11.7045	15.4643	0	21.4741
11.7457	15.4643	0	21.5651
11.8802	15.4643	0	21.747
11.8803	15.4643	0	21.747
11.8804	15.4643	0.0552792	21.747
11.8804	15.492	0.0276396	21.747
11.8825	15.5196	0	21.747
11.8841	15.5196	0	21.747
11.8842	15.5334	0.0276396	21.747
11.9617	15.5611	0	21.747
11.9643	15.5611	0	21.747
11.9643	15.5749	0.0276396	21.747
11.977	15.6025	0	21.747
11.9776	15.6025	0	21.747
11.9779	15.6025	0.0276396	21.747
11.9779	15.6164	0.0552792	21.747
11.978	15.644	0.0276396	21.747
11.985	15.6716	0	21.747
11.9856	15.6716	0	21.747
12.0394	15.6716	0.0276396	21.747
12.0395	15.6716	0.0276396	21.747
12.0411	15.6993	0	21.747
12.0411	15.7131	0.0276396	21.747
12.0523	15.7407	0	21.747
12.0529	15.7407	0	21.747
12.0529	15.7546	0.0276396	21.747
12.0541	15.7822	0	21.747
12.0543	15.7822	0	21.747
12.0543	15.796	0.0276396	21.747
12.1001	15.8237	0	21.747
12.1008	15.8237	0	21.747
12.1009	15.8375	0.0276396	21.747
12.1094	15.8651	0	21.747
12.1143	15.8651	0	21.838
12.1144	15.8651	0	21.838
12.1144	15.8789	0.0276396	21.838
12.1388	15.9066	0	21.838
12.1391	15.9066	0	21.838
12.1404	15.9066	0.0276396	21.838
12.1404	15.9066	0.0829187	21.838
12.1404	15.9342	0.0552792	21.838
12.1405	15.9619	0.0276396	21.838
12.3125	15.9895	0	21.838
12.337	15.9895	0	21.929
12.3371	15.9895	0	21.929
12.3386	15.9895	0.0276396	21.929
12.3386	16.0033	0.0552792	21.929
12.3386	16.031	0.0276396	21.929
12.3968	16.0586	0	21.929
12.4551	16.0586	0	22.111
12.4554	16.0586	0	22.111
12.4555	16.0586	0.0552792	22.111
12.4555	16.0862	0.0276396	22.111
12.4721	16.1139	0	22.111
12.4724	16.1139	0	22.111
12.4724	16.1139	0.0552792	22.111
12.4725	16.1415	0.0276396	22.111
12.5118	16.1692	0	22.111
12.5135	16.1692	0	22.111
12.5136	16.183	0.0276396	22.111
12.5736	16.2106	0	22.111
12.614	16.2106	0	22.293
12.6142	16.2106	0	22.293
12.6142	16.2106	0.0552792	22.293
12.6142	16.2383	0.0276396	22.293
12.6529	16.2659	0	22.293
12.6534	16.2659	0	22.293
12.6535	16.2659	0.0552792	22.293
12.6535	16.2935	0.0276396	22.293
12.6614	16.3212	0	22.293
12.6622	16.3212	0	22.293
12.6622	16.335	0.0276396	22.293
12.702	16.3626	0	22.293
12.7023	16.3626	0	22.293
12.7023	16.3626	0.0552792	22.293
12.7023	16.3903	0.0276396	22.293
12.7294	16.4179	0	22.293
12.7295	16.4179	0	22.293
12.7295	16.4317	0.0276396	22.293
12.7578	16.4594	0	22.293
12.7583	16.4594	0	22.293
12.7583	16.4732	0.0276396	22.293
12.8214	16.5008	0	22.293
12.8214	16.5008	0	22.293
12.8215	16.5008	0.0276396	22.293
12.8215	16.5146	0.0552792	22.293
12.8216	16.5423	0.0276396	22.293
12.9107	16.5699	0	22.293
12.9604	16.5699	0	22.475
12.9615	16.5699	0	22.475
12.9615	16.5837	0.0276396	22.475
13.0259	16.6114	0	22.475
13.0274	16.6114	0	22.475
13.0275	16.6114	0.0552792	22.475
13.0275	16.639	0.0276396	22.475
13.0299	16.6667	0	22.475
13.034	16.6667	0	22.657
13.0345	16.6667	0	22.657
13.0345	16.6667	0.0552792	22.657
13.0346	16.6943	0.0276396	22.657
13.059	16.7219	0	22.657
13.0592	16.7219	0	22.657
13.0592	16.7219	0.0552792	22.657
13.0592	16.7496	0.0276396	22.657
13.0592	16.7496	0.0276396	22.8389
13.0956	16.7772	0	22.8389
13.0963	16.7772	0	22.8389
13.1214	16.7772	0.0276396	22.8389
13.1215	16.7772	0.0276396	23.0209
13.1944	16.8049	0	23.0209
13.1947	16.8049	0	23.0209
13.1947	16.8187	0.0276396	23.0209
13.2889	16.8463	0	23.0209
13.2906	16.8463	0	23.0209
13.2907	16.8601	0.0276396	23.0209
13.326	16.8878	0	23.0209
13.3721	16.8878	0	23.2029
13.374	16.8878	0	23.2029
13.374	16.9016	0.0276396	23.2029
13.4075	16.9292	0	23.2029
13.4652	16.9292	0	23.3849
13.4655	16.9292	0	23.3849
13.4655	16.9431	0.0276396	23.3849
13.568	16.9707	0	23.3849
13.5685	16.9707	0	23.3849
13.569	16.9707	0.0276396	23.3849
13.569	16.9845	0.0552792	23.3849
13.569	17.0122	0.0276396	23.3849
13.5711	17.0398	0	23.3849
13.5712	17.0398	0	23.3849
13.5712	17.0536	0.0276396	23.3849
13.5869	17.0813	0	23.3849
13.5894	17.0813	0	23.3849
13.5895	17.0951	0.0276396	23.3849
13.6273	17.1227	0	23.3849
13.7982	17.1227	0	23.5669
13.8099	17.1227	0	23.7489
13.8102	17.1227	0	23.7489
13.8103	17.1365	0.0276396	23.7489
13.8888	17.1642	0	23.7489
13.9157	17.1642	0	23.9308
13.9158	17.1642	0	23.9308
13.9158	17.178	0.0276396	23.9308
13.9465	17.2056	0	23.9308
13.947	17.2056	0	23.9308
13.9471	17.2056	0.0552792	23.9308
13.9471	17.2333	0.0276396	23.9308
13.9918	17.2609	0	23.9308
13.9919	17.2609	0	23.9308
13.9919	17.2747	0.0276396	23.9308
13.9979	17.3024	0	23.9308
13.9979	17.3024	0	23.9308
13.9981	17.3024	0.0276396	23.9308
13.9981	17.3162	0.0552792	23.9308
13.9981	17.3438	0.0276396	23.9308
14.2154	17.3715	0	23.9308
14.2165	17.3715	0	24.1128
14.2171	17.3715	0	24.1128
14.2171	17.3715	0.0552792	24.1128
14.2172	17.3991	0.0276396	24.1128
14.2172	17.4268	0	24.1128
14.2312	17.4268	0	24.2948
14.2313	17.4268	0	24.4768
14.2324	17.4268	0	24.4768
14.4633	17.4268	0	24.6588
14.4812	17.4268	0	24.8408
14.4821	17.4268	0	24.8408
14.4821	17.4268	0.0552792	24.8408
14.4822	17.4544	0.0276396	24.8408
14.4849	17.482	0	24.8408
14.4852	17.482	0	24.8408
14.4852	17.4959	0.0276396	24.8408
14.5249	17.5235	0	24.8408
14.5251	17.5235	0	24.8408
14.5251	17.5373	0.0276396	24.8408
14.6752	17.565	0	24.8408
14.6763	17.565	0	24.8408
14.6763	17.565	0.0552792	24.8408
14.6763	17.5926	0.0276396	24.8408
14.6979	17.6202	0	24.8408
14.6992	17.6202	0	24.8408
14.6992	17.6341	0.0276396	24.8408
14.7765	17.6617	0	24.8408
14.7767	17.6617	0	24.8408
14.7768	17.6755	0.0276396	24.8408
14.8529	17.7032	0	24.8408
14.8537	17.7032	0	24.8408
14.8537	17.717	0.0276396	24.8408
14.9513	17.7446	0	24.8408
14.9514	17.7446	0	24.8408
14.9516	17.7446	0.0276396	24.8408
14.9516	17.7584	0.0552792	24.8408
14.9516	17.7861	0.0276396	24.8408
15.0065	17.8137	0	24.8408
15.0069	17.8137	0	24.8408
15.0071	17.8275	0.0276396	24.8408
15.012	17.8552	0	24.8408
15.0125	17.8552	0	24.8408
15.0126	17.869	0.0276396	24.8408
15.1324	17.8966	0	24.8408
15.1329	17.8966	0	24.8408
15.133	17.9104	0.0276396	24.8408
15.1803	17.9381	0	24.8408
15.3147	17.9381	0	24.9318
15.3148	17.9381	0	24.9318
15.3148	17.9519	0.0276396	24.9318
15.3262	17.9795	0	24.9318
15.3262	17.9795	0	24.9318
15.3262	17.9934	0.0276396	24.9318
15.3759	18.021	0	24.9318
15.3771	18.021	0	24.9318
15.3772	18.021	0.0276396	24.9318
15.3772	18.0348	0.0552792	24.9318
15.3773	18.0625	0.0276396	24.9318
15.4143	18.0901	0	24.9318
15.4152	18.0901	0	24.9318
15.4153	18.1039	0.0276396	24.9318
15.4444	18.1316	0	24.9318
15.4445	18.1316	0	24.9318
15.4445	18.1316	0.0552792	24.9318
15.4445	18.1592	0.0276396	24.9318
15.6623	18.1868	0	24.9318
15.6624	18.1868	0	24.9318
15.6639	18.1868	0.0276396	24.9318
15.6639	18.2007	0.0552792	24.9318
15.6639	18.2283	0.0276396	24.9318
15.7014	18.2559	0	24.9318
15.7018	18.2559	0	24.9318
15.7018	18.2698	0.0276396	24.9318
15.8006	18.2974	0	24.9318
15.8006	18.2974	0	24.9318
15.8006	18.2974	0.0552792	24.9318
15.8007	18.325	0.0276396	24.9318
15.8452	18.3527	0	24.9318
15.8455	18.3527	0	24.9318
15.8455	18.3665	0.0276396	24.9318
15.8991	18.3941	0	24.9318
15.8999	18.3941	0	24.9318
15.8999	18.3941	0.0276396	24.9318
15.9117	18.4218	0	24.9318
15.912	18.4218	0	24.9318
15.912	18.4356	0.0276396	24.9318
15.9207	18.4632	0	24.9318
15.9225	18.4632	0	24.9318
15.9226	18.4771	0.0276396	24.9318
16.0329	18.5047	0	24.9318
16.0332	18.5047	0	24.9318
16.0337	18.5047	0.0276396	24.9318
16.0338	18.5185	0.0552792	24.9318
16.0338	18.5462	0.0276396	24.9318
16.0422	18.5738	0	24.9318
16.0433	18.5738	0	24.9318
16.0433	18.5738	0.0552792	24.9318
16.0433	18.6014	0.0276396	24.9318
16.127	18.6291	0	24.9318
16.1271	18.6291	0	24.9318
16.1273	18.6291	0.0276396	24.9318
16.1273	18.6291	0.0829187	24.9318
16.1273	18.6567	0.0552792	24.9318
16.1275	18.6844	0.0276396	24.9318
16.1286	18.712	0	24.9318
16.1291	18.712	0	24.9318
16.1291	18.7258	0.0276396	24.9318
16.146	18.7535	0	24.9318
16.1461	18.7535	0	24.9318
16.1461	18.7673	0.0276396	24.9318
16.1477	18.7949	0	24.9318
16.3456	18.7949	0	25.1137
16.3456	18.7949	0	25.1137
16.3456	18.8087	0.0276396	25.1137
16.4438	18.8364	0	25.1137
16.4439	18.8364	0	25.1137
16.4439	18.8502	0.0276396	25.1137
16.4729	18.8778	0	25.1137
16.474	18.8778	0	25.1137
16.4748	18.8778	0.0276396	25.1137
16.4748	18.8917	0.0552792	25.1137
16.4748	18.9193	0.0276396	25.1137
16.486	18.9469	0	25.1137
16.4862	18.9469	0	25.1137
16.4862	18.9608	0.0276396	25.1137
16.6947	18.9884	0	25.1137
16.9196	18.9884	0	25.2957
17.0958	18.9884	0	25.4777
17.0983	18.9884	0	25.6597
17.1653	18.9884	0	25.8417
17.1661	18.9884	0	25.8417
17.1662	18.9884	0.0552792	25.8417
17.1662	19.016	0.0276396	25.8417
17.198	19.0437	0	25.8417
17.1981	19.0437	0	25.8417
17.1981	19.0575	0.0276396	25.8417
17.2214	19.0851	0	25.8417
17.2215	19.0851	0	25.8417
17.2215	19.0851	0.0552792	25.8417
17.2215	19.1128	0.0276396	25.8417
17.2299	19.1404	0	25.8417
17.2305	19.1404	0	25.8417
17.2305	19.1404	0.0552792	25.8417
17.2305	19.168	0.0276396	25.8417
17.2754	19.1957	0	25.8417
17.2754	19.1957	0	25.9327
17.3412	19.1957	0	25.9327
17.3417	19.1957	0	25.9327
17.3417	19.2095	0.0276396	25.9327
17.4893	19.2371	0	25.9327
17.4898	19.2371	0	25.9327
17.4898	19.251	0.0276396	25.9327
17.5061	19.2786	0	25.9327
17.5271	19.2786	0	26.1146
17.5273	19.2786	0	26.1146
17.5273	19.2924	0.0276396	26.1146
17.5746	19.3201	0	26.1146
17.5746	19.3201	0	26.1146
17.575	19.3201	0.0276396	26.1146
17.575	19.3339	0.0552792	26.1146
17.575	19.3615	0.0276396	26.1146
17.6359	19.3892	0	26.1146
17.6361	19.3892	0	26.1146
17.6361	19.403	0.0276396	26.1146
17.6577	19.4306	0	26.1146
17.6578	19.4306	0	26.1146
17.6579	19.4306	0.0552792	26.1146
17.6579	19.4583	0.0276396	26.1146
17.6807	19.4859	0	26.1146
17.6812	19.4859	0	26.1146
17.6813	19.4997	0.0276396	26.1146
17.6937	19.5274	0	26.1146
17.7339	19.5274	0	26.2966
17.7348	19.5274	0	26.2966
17.7348	19.5412	0.0276396	26.2966
17.7619	19.5688	0	26.2966
17.7621	19.5688	0	26.2966
17.7623	19.5688	0.0276396	26.2966
17.763	19.5688	0.0552792	26.2966
17.7635	19.5688	0.0829187	26.2966
17.7641	19.5688	0.110558	26.2966
17.7645	19.5688	0.138198	26.2966
17.7657	19.5688	0.165837	26.2966
17.7657	19.5826	0.193477	26.2966
17.7657	19.6103	0.165837	26.2966
17.7657	19.6379	0.138198	26.2966
17.7657	19.6656	0.110558	26.2966
17.7658	19.6932	0.0829187	26.2966
17.7658	19.7208	0.0552792	26.2966
17.7658	19.7485	0.0276396	26.2966
17.9083	19.7761	0	26.2966
17.9169	19.7761	0	26.4786
17.9181	19.7761	0	26.4786
17.9185	19.7761	0.0276396	26.4786
17.9185	19.7899	0.0552792	26.4786
17.9185	19.8176	0.0276396	26.4786
17.9641	19.8452	0	26.4786
17.9642	19.8452	0	26.4786
18.187	19.8452	0.0276396	26.4786
18.1871	19.8452	0.0276396	26.6606
18.2282	19.8729	0	26.6606
18.2283	19.8729	0	26.6606
18.2492	19.8729	0.0276396	26.6606
18.2505	19.8729	0.0276396	26.6606
18.2506	19.8867	0.0552792	26.6606
18.2764	19.9143	0.0276396	26.6606
18.2764	19.9143	0.0276396	26.6606
18.2769	19.942	0	26.6606
18.2769	19.942	0.0552792	26.6606
18.2769	19.9696	0.0276396	26.6606
18.3071	19.9972	0	26.6606
18.3089	19.9972	0	26.6606
18.309	20.0111	0.0276396	26.6606
18.3519	20.0387	0	26.6606
18.3896	20.0387	0	26.8426
18.3908	20.0387	0	26.8426
18.3909	20.0525	0.0276396	26.8426
18.4858	20.0802	0	26.8426
18.486	20.0802	0	26.8426
18.486	20.0802	0.0552792	26.8426
18.486	20.1078	0.0276396	26.8426
18.4987	20.1354	0	26.8426
18.5005	20.1354	0	26.8426
18.5005	20.1354	0.0552792	26.8426
18.5005	20.1631	0.0276396	26.8426
18.528	20.1907	0	26.8426
18.5281	20.1907	0	26.8426
18.5281	20.1907	0.0552792	26.8426
18.5281	20.2184	0.0276396	26.8426
18.5711	20.246	0	26.8426
18.5713	20.246	0	26.8426
18.5714	20.246	0.0552792	26.8426
18.5714	20.2736	0.0276396	26.8426
18.7399	20.3013	0	26.8426
18.74	20.3013	0	26.8426
18.7401	20.3013	0.0552792	26.8426
18.7401	20.3289	0.0276396	26.8426
18.7416	20.3566	0	26.8426
18.7427	20.3566	0	26.8426
18.7428	20.3704	0.0276396	26.8426
18.9249	20.398	0	26.8426
18.9251	20.398	0	26.8426
18.9251	20.4118	0.0276396	26.8426
19.0383	20.4395	0	26.8426
19.0396	20.4395	0	26.8426
19.0396	20.4533	0.0276396	26.8426
19.1418	20.4809	0	26.8426
19.143	20.4809	0	26.8426
19.143	20.4947	0.0276396	26.8426
19.1475	20.5224	0	26.8426
19.1477	20.5224	0	26.8426
19.1478	20.5362	0.0276396	26.8426
19.1826	20.5638	0	26.8426
19.1827	20.5638	0	26.8426
19.1828	20.5638	0.0276396	26.8426
19.1829	20.5638	0.0552792	26.8426
19.1829	20.5638	0.110558	26.8426
19.1829	20.5915	0.0829187	26.8426
19.1829	20.6191	0.0552792	26.8426
19.183	20.6468	0.0276396	26.8426
19.2145	20.6744	0	26.8426
19.2151	20.6744	0	26.8426
19.2151	20.6744	0.0552792	26.8426
19.2151	20.702	0.0276396	26.8426
19.284	20.7297	0	26.8426
19.2841	20.7297	0	26.8426
19.2841	20.7297	0.0552792	26.8426
19.2841	20.7573	0.0276396	26.8426
19.3045	20.785	0	26.8426
19.3053	20.785	0	26.8426
19.3053	20.7988	0.0276396	26.8426
19.3149	20.8264	0	26.8426
19.3151	20.8264	0	26.8426
19.3152	20.8402	0.0276396	26.8426
19.3458	20.8679	0	26.8426
19.3707	20.8679	0	27.0246
19.371	20.8679	0	27.0246
19.371	20.8817	0.0276396	27.0246
19.4115	20.9093	0	27.0246
19.413	20.9093	0	27.0246
19.413	20.9232	0.0276396	27.0246
19.4152	20.9508	0	27.0246
19.4514	20.9508	0	27.2066
19.4515	20.9508	0	27.2066
19.4515	20.9646	0.0276396	27.2066
19.4882	20.9923	0	27.2066
19.4882	20.9923	0	27.2066
19.4883	20.9923	0.0276396	27.2066
19.6387	21.0199	0	27.2066
19.6394	21.0199	0	27.2066
19.6399	21.0199	0.0276396	27.2066
19.6401	21.0199	0.0552792	27.2066
19.6413	21.0199	0.0829187	27.2066
19.6413	21.0337	0.110558	27.2066
19.6414	21.0614	0.0829187	27.2066
19.6414	21.089	0.0552792	27.2066
19.6415	21.1166	0.0276396	27.2066
19.7941	21.1443	0	27.2066
19.7943	21.1443	0	27.2066
19.7944	21.1581	0.0276396	27.2066
19.8549	21.1857	0	27.2066
19.8564	21.1857	0	27.2066
19.8564	21.1857	0.0552792	27.2066
19.8565	21.2134	0.0276396	27.2066
20.0029	21.241	0	27.2066
20.0034	21.241	0	27.2066
20.0037	21.241	0.0276396	27.2066
20.0037	21.241	0.0829187	27.2066
20.0037	21.2687	0.0552792	27.2066
20.0037	21.2963	0.0276396	27.2066
20.0218	21.3239	0	27.2066
20.0221	21.3239	0	27.2066
20.0221	21.3239	0.0552792	27.2066
20.0222	21.3516	0.0276396	27.2066
20.0555	21.3792	0	27.2066
20.0565	21.3792	0	27.2066
20.0565	21.393	0.0276396	27.2066
20.1052	21.4207	0	27.2066
20.1066	21.4207	0	27.2066
20.1067	21.4345	0.0276396	27.2066
20.1481	21.4621	0	27.2066
20.1535	21.4621	0	27.3885
20.1538	21.4621	0	27.3885
20.1538	21.4621	0.0552792	27.3885
20.1538	21.4898	0.0276396	27.3885
20.161	21.5174	0	27.3885
20.1612	21.5174	0	27.3885
20.1613	21.5312	0.0276396	27.3885
20.2066	21.5589	0	27.3885
20.2068	21.5589	0	27.3885
20.2069	21.5589	0.0276396	27.3885
20.2069	21.5727	0.0552792	27.3885
20.207	21.6003	0.0276396	27.3885
20.3543	21.628	0	27.3885
20.3548	21.628	0	27.3885
20.3548	21.628	0.0552792	27.3885
20.3548	21.6556	0.0276396	27.3885
20.4236	21.6833	0	27.3885
20.424	21.6833	0	27.3885
20.424	21.6971	0.0276396	27.3885
20.4846	21.7247	0	27.3885
20.4846	21.7247	0	27.3885
20.4846	21.7385	0.0276396	27.3885
20.5719	21.7662	0	27.3885
20.5725	21.7662	0	27.3885
20.5725	21.7662	0.0552792	27.3885
20.5725	21.7938	0.0276396	27.3885
20.6704	21.8214	0	27.3885
20.6997	21.8214	0	27.5705
20.7	21.8214	0	27.5705
20.7001	21.8214	0.0276396	27.5705
20.7021	21.8214	0.0552792	27.5705
20.7025	21.8214	0.0829187	27.5705
20.7025	21.8353	0.110558	27.5705
20.7025	21.8629	0.0829187	27.5705
20.7025	21.8905	0.0552792	27.5705
20.7025	21.9182	0.0276396	27.5705
20.82	21.9458	0	27.5705
20.8202	21.9458	0	27.5705
20.8202	21.9458	0.0552792	27.5705
20.8203	21.9735	0.0276396	27.5705
20.991	22.0011	0	27.5705
21.0506	22.0011	0	27.7525
21.0506	22.0011	0	27.7525
21.0512	22.0011	0.0276396	27.7525
21.0512	22.0149	0.0552792	27.7525
21.0512	22.0426	0.0276396	27.7525
21.17	22.0702	0	27.7525
21.1714	22.0702	0	27.7525
21.1714	22.084	0.0276396	27.7525
21.3044	22.1117	0	27.7525
21.3047	22.1117	0	27.7525
21.3047	22.1117	0.0552792	27.7525
21.3048	22.1393	0.0276396	27.7525
21.7885	22.1669	0	27.7525
21.7888	22.1669	0	27.7525
21.7888	22.1808	0.0276396	27.7525
22.1272	22.2084	0	27.7525
22.1274	22.2084	0	27.7525
22.4513	22.2084	0.0276396	27.7525
22.4513	22.2084	0.0276396	27.7525
22.4515	22.236	0	27.7525
22.4515	22.236	0.0552792	27.7525
22.4515	22.2637	0.0276396	27.7525
22.6913	22.2913	0	27.7525
22.6932	22.2913	0	27.7525
22.6933	22.2913	0.0276396	27.7525
22.6933	22.3051	0.0552792	27.7525
22.6933	22.3328	0.0276396	27.7525
22.747	22.3604	0	27.7525
22.747	22.3604	0	27.7525
22.747	22.3742	0.0276396	27.7525
22.7654	22.4019	0	27.7525
22.7654	22.4019	0	27.7525
22.7655	22.4157	0.0276396	27.7525
22.8649	22.4433	0	27.7525
22.8651	22.4433	0	27.7525
22.8652	22.4572	0.0276396	27.7525
22.9426	22.4848	0	27.7525
22.9435	22.4848	0	27.7525
22.9435	22.4986	0.0276396	27.7525
22.9785	22.5263	0	27.7525
22.9785	22.5263	0	27.7525
22.9785	22.5263	0.0552792	27.7525
22.9785	22.5539	0.0276396	27.7525
23.1376	22.5815	0	27.7525
23.139	22.5815	0	27.7525
23.1391	22.5815	0.0276396	27.7525
23.1715	22.5815	0.0552792	27.7525
23.1715	22.5815	0.0552792	27.7525
23.1715	22.6092	0.0276396	27.7525
23.1722	22.6368	0	27.7525
23.1724	22.6368	0.0276396	27.7525
23.1724	22.6506	0.0552792	27.7525
23.1724	22.6783	0.0276396	27.7525
23.2011	22.7059	0	27.7525
23.2013	22.7059	0	27.7525
23.2026	22.7059	0.0276396	27.7525
23.2026	22.7197	0.0552792	27.7525
23.2026	22.7474	0.0276396	27.7525
23.5691	22.775	0	27.7525
23.5692	22.775	0	27.7525
23.5692	22.7888	0.0276396	27.7525
23.6428	22.8165	0	27.7525
23.643	22.8165	0	27.7525
23.643	22.8303	0.0276396	27.7525
23.7213	22.8579	0	27.7525
23.722	22.8579	0	27.7525
23.7227	22.8579	0.0276396	27.7525
23.7227	22.8718	0.0552792	27.7525
23.7227	22.8994	0.0276396	27.7525
23.8417	22.927	0	27.7525
23.8424	22.927	0	27.7525
24.433	22.927	0.0276396	27.7525
24.433	22.927	0.0276396	27.7525
24.4335	22.9547	0	27.7525
24.4336	22.9685	0.0276396	27.7525
24.5296	22.9961	0	27.7525
24.5298	22.9961	0	27.7525
24.5304	22.9961	0.0276396	27.7525
24.5305	23.01	0.0552792	27.7525
24.5305	23.0376	0.0276396	27.7525
24.6078	23.0652	0	27.7525
24.608	23.0652	0	27.7525
24.608	23.079	0.0276396	27.7525
24.6375	23.1067	0	27.7525
24.6377	23.1067	0	27.7525
24.638	23.1067	0.0276396	27.7525
24.638	23.1205	0.0552792	27.7525
24.638	23.1481	0.0276396	27.7525
24.874	23.1758	0	27.7525
24.8741	23.1758	0	27.7525
24.8742	23.1758	0.0552792	27.7525
24.8743	23.2034	0.0276396	27.7525
25.0178	23.2311	0	27.7525
25.0178	23.2311	0	27.7525
25.0178	23.2311	0.0552792	27.7525
25.0179	23.2587	0.0276396	27.7525
25.0305	23.2863	0	27.7525
25.3545	23.2863	0	27.9345
25.3547	23.2863	0	27.9345
25.3547	23.3002	0.0276396	27.9345
25.4332	23.3278	0	27.9345
25.4339	23.3278	0	27.9345
25.4346	23.3278	0.0276396	27.9345
25.4346	23.3416	0.0552792	27.9345
25.4346	23.3693	0.0276396	27.9345
25.4715	23.3969	0	27.9345
25.4722	23.3969	0	27.9345
25.4723	23.3969	0.0552792	27.9345
25.4724	23.4245	0.0276396	27.9345
25.4782	23.4522	0	27.9345
25.4792	23.4522	0	27.9345
25.4792	23.466	0.0276396	27.9345
25.5029	23.4936	0	27.9345
25.5033	23.4936	0	27.9345
25.5038	23.4936	0.0276396	27.9345
25.5038	23.5075	0.0552792	27.9345
25.5038	23.5351	0.0276396	27.9345
25.8314	23.5627	0	27.9345
25.8318	23.5627	0	27.9345
25.8318	23.5766	0.0276396	27.9345
25.9267	23.6042	0	27.9345
26.0317	23.6042	0	28.1165
26.032	23.6042	0	28.1165
26.032	23.6042	0.0552792	28.1165
26.032	23.6318	0.0276396	28.1165
26.0757	23.6595	0	28.1165
26.0763	23.6595	0	28.1165
26.0763	23.6733	0.0276396	28.1165
26.128	23.7009	0	28.1165
26.1281	23.7009	0	28.1165
26.1282	23.7009	0.0552792	28.1165
26.1282	23.7286	0.0276396	28.1165
26.2067	23.7562	0	28.1165
26.2901	23.7562	0	28.2985
26.4442	23.7562	0	28.4804
26.4445	23.7562	0	28.4804
26.4445	23.7562	0.0552792	28.4804
26.4445	23.7839	0.0276396	28.4804
26.5285	23.8115	0	28.4804
26.5295	23.8115	0	28.4804
26.5295	23.8115	0.0552792	28.4804
26.5295	23.8391	0.0276396	28.4804
26.6744	23.8668	0	28.4804
26.6745	23.8668	0	28.4804
26.675	23.8668	0.0276396	28.4804
26.675	23.8806	0.0552792	28.4804
26.675	23.9082	0.0276396	28.4804
26.8429	23.9359	0	28.4804
26.8439	23.9359	0	28.4804
26.8439	23.9497	0.0276396	28.4804
26.957	23.9773	0	28.4804
26.9584	23.9773	0	28.4804
26.9586	23.9773	0.0276396	28.4804
26.9586	23.9912	0.0552792	28.4804
26.9587	24.0188	0.0276396	28.4804
26.9714	24.0464	0	28.4804
26.973	24.0464	0	28.4804
26.9731	24.0603	0.0276396	28.4804
27.0849	24.0879	0	28.4804
27.0853	24.0879	0	28.4804
27.0854	24.1017	0.0276396	28.4804
27.4903	24.1294	0	28.4804
27.4906	24.1294	0	28.4804
27.491	24.1294	0.0276396	28.4804
27.491	24.1432	0.0552792	28.4804
27.4911	24.1708	0.0276396	28.4804
27.5188	24.1985	0	28.4804
27.5192	24.1985	0	28.4804
27.5192	24.1985	0.0552792	28.4804
27.5192	24.2261	0.0276396	28.4804
27.5901	24.2537	0	28.4804
27.5902	24.2537	0	28.4804
27.5902	24.2537	0.0552792	28.4804
27.5902	24.2814	0.0276396	28.4804
27.7162	24.309	0	28.4804
27.7163	24.309	0	28.4804
27.7163	24.3228	0.0276396	28.4804
28.098	24.3505	0	28.4804
28.0984	24.3505	0	28.4804
28.0984	24.3643	0.0276396	28.4804
28.6658	24.3919	0	28.4804
28.6664	24.3919	0	28.4804
28.6664	24.3919	0.0552792	28.4804
28.6665	24.4196	0.0276396	28.4804
28.889	24.4472	0	28.4804
28.8891	24.4472	0	28.4804
28.8891	24.4472	0.0552792	28.4804
28.8891	24.4748	0.0276396	28.4804
29.0291	24.5025	0	28.4804
29.0294	24.5025	0	28.4804
29.03	24.5025	0.0276396	28.4804
29.03	24.5163	0.0552792	28.4804
29.03	24.5439	0.0276396	28.4804
29.2462	24.5716	0	28.4804
29.247	24.5716	0	28.4804
29.247	24.5716	0.0552792	28.4804
29.2471	24.5992	0.0276396	28.4804
29.2567	24.6269	0	28.4804
29.2578	24.6269	0	28.4804
29.2578	24.6407	0.0276396	28.4804
29.2953	24.6683	0	28.4804
29.296	24.6683	0	28.4804
29.2964	24.6683	0.0276396	28.4804
29.8152	24.6683	0.0552792	28.4804
29.8152	24.6683	0.0552792	28.4804
29.8152	24.696	0.0276396	28.4804
29.8153	24.7236	0	28.4804
29.8153	24.7374	0.0276396	28.4804
29.8584	24.7651	0	28.4804
29.8587	24.7651	0	28.4804
30.43	24.7651	0.0276396	28.4804
30.43	24.7651	0.0276396	28.4804
30.4301	24.7927	0	28.4804
30.4307	24.7927	0.0276396	28.4804
30.4308	24.8065	0.0552792	28.4804
30.4308	24.8342	0.0276396	28.4804
30.5453	24.8618	0	28.4804
30.546	24.8618	0	28.4804
30.546	24.8756	0.0276396	28.4804
30.8442	24.9033	0	28.4804
30.8444	24.9033	0	28.4804
30.8444	24.9171	0.0276396	28.4804
30.8962	24.9447	0	28.4804
30.8968	24.9447	0	28.4804
30.8968	24.9585	0.0276396	28.4804
31.2363	24.9862	0	28.4804
31.2364	24.9862	0	28.4804
31.2366	24.9862	0.0276396	28.4804
31.237	24.9862	0.0552792	28.4804
31.5111	24.9862	0.0829187	28.4804
31.5111	24.9862	0.0829187	28.6624
31.5111	25.0138	0.0552792	28.6624
31.5112	25.0415	0.0276396	28.6624
31.9339	25.0691	0	28.6624
31.9347	25.0691	0	28.6624
31.9349	25.0691	0.0276396	28.6624
31.9349	25.0829	0.0552792	28.6624
31.9349	25.1106	0.0276396	28.6624
32.0182	25.1382	0	28.6624
32.0182	25.1382	0	28.6624
32.0199	25.1382	0.0276396	28.6624
32.0199	25.152	0.0552792	28.6624
32.0199	25.1797	0.0276396	28.6624
32.2065	25.2073	0	28.6624
32.2073	25.2073	0	28.6624
32.2073	25.2073	0.0552792	28.6624
32.2073	25.2349	0.0276396	28.6624
32.5221	25.2626	0	28.6624
32.5233	25.2626	0	28.6624
32.5233	25.2626	0.0552792	28.6624
32.5233	25.2902	0.0276396	28.6624
33.021	25.3179	0	28.6624
33.022	25.3179	0	28.6624
33.022	25.3317	0.0276396	28.6624
33.8942	25.3593	0	28.6624
33.8944	25.3593	0	28.6624
33.8947	25.3593	0.0276396	28.6624
33.8947	25.3731	0.0552792	28.6624
33.8948	25.4008	0.0276396	28.6624
34.0403	25.4284	0	28.6624
34.0411	25.4284	0	28.6624
34.0412	25.4422	0.0276396	28.6624
34.1552	25.4699	0	28.6624
34.1554	25.4699	0	28.6624
34.1554	25.4837	0.0276396	28.6624
34.5165	25.5113	0	28.6624
34.5166	25.5113	0	28.6624
34.5167	25.5252	0.0276396	28.6624
35.0294	25.5528	0	28.6624
35.031	25.5528	0	28.6624
35.031	25.5528	0.0552792	28.6624
35.031	25.5804	0.0276396	28.6624
35.315	25.6081	0	28.6624
35.3152	25.6081	0	28.6624
35.3152	25.6081	0.0552792	28.6624
35.3152	25.6357	0.0276396	28.6624
35.4044	25.6633	0	28.6624
35.4045	25.6633	0	28.6624
35.4046	25.6772	0.0276396	28.6624
35.5118	25.7048	0	28.6624
35.512	25.7048	0	28.6624
35.512	25.7186	0.0276396	28.6624
35.7562	25.7463	0	28.6624
35.7566	25.7463	0	28.6624
35.7566	25.7463	0.0552792	28.6624
35.7566	25.7739	0.0276396	28.6624
35.8066	25.8015	0	28.6624
35.8073	25.8015	0	28.6624
35.8073	25.8154	0.0276396	28.6624
35.863	25.843	0	28.6624
35.8648	25.843	0	28.6624
35.8654	25.843	0.0276396	28.6624
35.8654	25.8568	0.0552792	28.6624
35.8655	25.8845	0.0276396	28.6624
36.5845	25.9121	0	28.6624
36.5855	25.9121	0	28.6624
36.5856	25.9259	0.0276396	28.6624
36.7225	25.9536	0	28.6624
36.7226	25.9536	0	28.6624
36.7226	25.9536	0.0552792	28.6624
36.7227	25.9812	0.0276396	28.6624
36.799	26.0088	0	28.6624
36.7994	26.0088	0	28.6624
36.7994	26.0088	0.0276396	28.6624
37.5112	26.0365	0	28.6624
37.5112	26.0365	0	28.6624
37.5112	26.0365	0.0552792	28.6624
37.5113	26.0641	0.0276396	28.6624
37.5325	26.0918	0	28.6624
37.5327	26.0918	0	28.6624
37.5328	26.1056	0.0276396	28.6624
37.6364	26.1332	0	28.6624
37.6376	26.1332	0	28.6624
37.6376	26.147	0.0276396	28.6624
37.66	26.1747	0	28.6624
37.6605	26.1747	0	28.6624
37.6606	26.1885	0.0276396	28.6624
38.1335	26.2161	0	28.6624
38.1337	26.2161	0	28.6624
38.1337	26.23	0.0276396	28.6624
38.63	26.2576	0	28.6624
38.6325	26.2576	0	28.6624
38.6325	26.2576	0.0552792	28.6624
38.6326	26.2852	0.0276396	28.6624
38.7773	26.3129	0	28.6624
38.7775	26.3129	0	28.6624
38.7775	26.3129	0.0552792	28.6624
38.7775	26.3405	0.0276396	28.6624
40.5868	26.3682	0	28.6624
40.5876	26.3682	0	28.6624
40.5876	26.382	0.0276396	28.6624
41.3754	26.4096	0	28.6624
41.3756	26.4096	0	28.6624
41.3757	26.4096	0.0552792	28.6624
41.3757	26.4373	0.0276396	28.6624
41.4199	26.4649	0	28.6624
41.42	26.4649	0	28.6624
41.42	26.4787	0.0276396	28.6624
41.4212	26.5064	0	28.6624
41.4212	26.5064	0	28.6624
41.4213	26.5202	0.0276396	28.6624
42.9983	26.5478	0	28.6624
42.9985	26.5478	0	28.6624
42.9989	26.5478	0.0276396	28.6624
42.9989	26.5616	0.0552792	28.6624
42.999	26.5893	0.0276396	28.6624
43.2268	26.6169	0	28.6624
43.2278	26.6169	0	28.6624
43.5037	26.6169	0.0276396	28.6624
43.5037	26.6169	0.0276396	28.6624
43.5039	26.6446	0	28.6624
43.5039	26.6446	0.0552792	28.6624
43.504	26.6722	0.0276396	28.6624
44.1491	26.6998	0	28.6624
44.1491	26.6998	0	28.6624
44.1491	26.6998	0.0552792	28.6624
44.1492	26.7275	0.0276396	28.6624
45.1268	26.7551	0	28.6624
45.1268	26.7551	0	28.6624
45.1268	26.7551	0.0552792	28.6624
45.1268	26.7828	0.0276396	28.6624
46.0177	26.8104	0	28.6624
46.6954	26.8104	0	28.8444
46.6958	26.8104	0	28.8444
46.6958	26.8104	0.0552792	28.8444
46.6959	26.838	0.0276396	28.8444
47.3017	26.8657	0	28.8444
47.3017	26.8657	0	28.8444
47.3017	26.8657	0.0552792	28.8444
47.3018	26.8933	0.0276396	28.8444
47.7225	26.921	0	28.8444
47.7227	26.921	0	28.8444
47.7227	26.9348	0.0276396	28.8444
48.0517	26.9624	0	28.8444
48.0518	26.9624	0	28.8444
48.0519	26.9762	0.0276396	28.8444
48.6185	27.0039	0	28.8444
48.6188	27.0039	0	28.8444
48.6188	27.0039	0.0552792	28.8444
48.6188	27.0315	0.0276396	28.8444
49.942	27.0591	0	28.8444
49.9425	27.0591	0	28.8444
49.9429	27.0591	0.0276396	28.8444
49.9429	27.073	0.0552792	28.8444
49.9429	27.1006	0.0276396	28.8444
50.059	27.1282	0	28.8444
50.0599	27.1282	0	28.8444
50.0599	27.1282	0.0552792	28.8444
50.06	27.1559	0.0276396	28.8444
50.8355	27.1835	0	28.8444
50.8357	27.1835	0	28.8444
50.8358	27.1835	0.0276396	28.8444
50.8358	27.1973	0.0552792	28.8444
50.8358	27.225	0.0276396	28.8444
50.8374	27.2526	0	28.8444
50.8379	27.2526	0	28.8444
50.8379	27.2664	0.0276396	28.8444
51.0178	27.2941	0	28.8444
51.0181	27.2941	0	28.8444
51.0182	27.2941	0.0552792	28.8444
51.0182	27.3217	0.0276396	28.8444
51.5548	27.3494	0	28.8444
51.5552	27.3494	0	28.8444
51.5553	27.3632	0.0276396	28.8444
51.6857	27.3908	0	28.8444
51.6859	27.3908	0	28.8444
51.686	27.3908	0.0552792	28.8444
51.686	27.4185	0.0276396	28.8444
52.4933	27.4461	0	28.8444
52.4937	27.4461	0	28.8444
52.4937	27.4461	0.0552792	28.8444
52.4937	27.4737	0.0276396	28.8444
53.1966	27.5014	0	28.8444
53.197	27.5014	0	28.8444
53.197	27.5014	0.0552792	28.8444
53.197	27.529	0.0276396	28.8444
53.446	27.5567	0	28.8444
53.4469	27.5567	0	28.8444
53.4469	27.5705	0.0276396	28.8444
53.4712	27.5981	0	28.8444
53.4718	27.5981	0	28.8444
53.4719	27.6119	0.0276396	28.8444
53.5008	27.6396	0	28.8444
53.5019	27.6396	0	28.8444
53.502	27.6534	0.0276396	28.8444
54.1888	27.681	0	28.8444
54.1891	27.681	0	28.8444
54.1891	27.681	0.0552792	28.8444
54.1891	27.7087	0.0276396	28.8444
54.2636	27.7363	0	28.8444
54.2638	27.7363	0	28.8444
54.2638	27.7363	0.0552792	28.8444
54.2639	27.764	0.0276396	28.8444
54.3692	27.7916	0	28.8444
54.3698	27.7916	0	28.8444
54.3699	27.7916	0.0552792	28.8444
54.3699	27.8192	0.0276396	28.8444
54.8274	27.8469	0	28.8444
54.8286	27.8469	0	28.8444
54.8287	27.8607	0.0276396	28.8444
54.9428	27.8883	0	28.8444
54.9431	27.8883	0	28.8444
54.9437	27.8883	0.0276396	28.8444
54.9438	27.9022	0.0552792	28.8444
54.9438	27.9298	0.0276396	28.8444
55.9493	27.9574	0	28.8444
55.9496	27.9574	0	28.8444
55.9496	27.9574	0.0552792	28.8444
55.9496	27.9851	0.0276396	28.8444
56.0618	28.0127	0	28.8444
56.0623	28.0127	0	28.8444
56.0623	28.0265	0.0276396	28.8444
57.0278	28.0542	0	28.8444
57.0278	28.0542	0	28.8444
57.0279	28.0542	0.0552792	28.8444
57.0279	28.0818	0.0276396	28.8444
58.9092	28.1095	0	28.8444
58.9096	28.1095	0	28.8444
58.9096	28.1095	0.0552792	28.8444
58.9096	28.1371	0.0276396	28.8444
60.6175	28.1647	0	28.8444
60.6186	28.1647	0	28.8444
60.6186	28.1647	0.0552792	28.8444
60.6186	28.1924	0.0276396	28.8444
61.7325	28.22	0	28.8444
61.7339	28.22	0	28.8444
61.7339	28.22	0.0552792	28.8444
61.7339	28.2477	0.0276396	28.8444
63.754	28.2753	0	28.8444
63.754	28.2753	0	28.8444
63.754	28.2753	0.0552792	28.8444
63.7541	28.3029	0.0276396	28.8444
65.4661	28.3306	0	28.8444
65.4663	28.3306	0	28.8444
65.4664	28.3444	0.0276396	28.8444
65.8931	28.372	0	28.8444
65.8935	28.372	0	28.8444
65.8935	28.372	0.0552792	28.8444
65.8935	28.3997	0.0276396	28.8444
69.35	28.4273	0	28.8444
69.3501	28.4273	0	28.8444
69.3502	28.4273	0.0552792	28.8444
69.3502	28.4549	0.0276396	28.8444
70.7459	28.4826	0	28.8444
70.7462	28.4826	0	28.8444
70.7463	28.4826	0.0552792	28.8444
70.7463	28.5102	0.0276396	28.8444
75.5216	28.5379	0	28.8444
75.5233	28.5379	0	28.8444
75.5233	28.5379	0.0552792	28.8444
75.5233	28.5655	0.0276396	28.8444
76.343	28.5931	0	28.8444
76.343	28.5931	0	28.8444
76.343	28.5931	0.0552792	28.8444
76.3431	28.6208	0.0276396	28.8444
77.812	28.6484	0	28.8444
77.8122	28.6484	0	28.8444
77.8123	28.6484	0.0552792	28.8444
77.8123	28.6761	0.0276396	28.8444
85.3829	28.7037	0	28.8444
85.3837	28.7037	0	28.8444
85.3837	28.7037	0.0552792	28.8444
85.3837	28.7313	0.0276396	28.8444
85.712	28.759	0	28.8444
85.7122	28.759	0	28.8444
85.7122	28.759	0.0552792	28.8444
85.7122	28.7866	0.0276396	28.8444
105.574	28.8143	0	28.8444
105.575	28.8143	0	28.8444
105.575	28.8143	0.0552792	28.8444
105.575	28.8419	0.0276396	28.8444
109.96	28.8695	0	28.8444
109.96	28.8695	0	28.8444
109.96	28.8695	0.0552792	28.8444
109.96	28.8972	0.0276396	28.8444
126.687	28.9248	0	28.8444
126.688	28.9248	0	28.8444
126.688	28.9248	0.0552792	28.8444
126.688	28.9525	0.0276396	28.8444
