4.31208e-11	0	0	0
1.13194e-10	0	0	0
2.39302e-10	0	0	0
1.35142e-09	0	0	0
1.59235e-09	0	0	0
1.68417e-09	0	0	0
2.09252e-09	0	0	0
2.22016e-09	0	0	0
2.40798e-09	0	0	0
3.46227e-09	0	0	0
3.65067e-09	0	0	0
4.10615e-09	0	0	0
4.18737e-09	0	0	0
6.67435e-09	0	0	0
7.05857e-09	0	0	0
7.72725e-09	0	0	0
7.94203e-09	0	0	0
8.59668e-09	0	0	0
9.10657e-09	0	0	0
9.31659e-09	0	0	0
9.42994e-09	0	0	0
9.66454e-09	0	0	0
1.05198e-08	0	0	0
1.05469e-08	0	0	0
1.05678e-08	0	0	0
1.1411e-08	0	0	0
1.16524e-08	0	0	0
1.27551e-08	0	0	0
1.27617e-08	0	0	0
1.36665e-08	0	0	0
1.49061e-08	0	0	0
1.49606e-08	0	0	0
1.54437e-08	0	0	0
1.67573e-08	0	0	0
1.74408e-08	0	0	0
1.88231e-08	0	0	0
1.95693e-08	0	0	0
1.9998e-08	0	0	0
2.10312e-08	0	0	0
2.22245e-08	0	0	0
2.25599e-08	0	0	0
2.36759e-08	0	0	0
3.59564e-08	0	0	0
3.95299e-08	0	0	0
4.33346e-08	0	0	0
4.82398e-08	0	0	0
5.49571e-08	0	0	0
5.53906e-08	0	0	0
5.97608e-08	0	0	0
6.12409e-08	0	0	0
6.27875e-08	0	0	0
6.44095e-08	0	0	0
6.48663e-08	0	0	0
7.45422e-08	0	0	0
7.7086e-08	0	0	0
8.28513e-08	0	0	0
8.75277e-08	0	0	0
9.29748e-08	0	0	0
9.5714e-08	0	0	0
1.05104e-07	0	0	0
1.10789e-07	0	0	0
1.57351e-07	0	0	0
1.90187e-07	0	0	0
2.08277e-07	0	0	0
2.69593e-07	0	0	0
2.79199e-07	0	0	0
4.12209e-07	0	0	0
4.24984e-07	0	0	0
4.69443e-07	0	0	0
4.72952e-07	0	0	0
4.77468e-07	0	0	0
6.05054e-07	0	0	0
6.29456e-07	0	0	0
6.54749e-07	0	0	0
6.74962e-07	0	0	0
7.05472e-07	0	0	0
7.11083e-07	0	0	0
7.36381e-07	0	0	0
8.30799e-07	0	0	0
8.35981e-07	0	0	0
8.56518e-07	0	0	0
8.73095e-07	0	0	0
1.01484e-06	0	0	0
1.07228e-06	0	0	0
1.08175e-06	0	0	0
1.1541e-06	0	0	0
1.2034e-06	0	0	0
1.24848e-06	0	0	0
1.25619e-06	0	0	0
1.27152e-06	0	0	0
1.31428e-06	0	0	0
1.3181e-06	0	0	0
1.37118e-06	0	0	0
1.3836e-06	0	0	0
1.38964e-06	0	0	0
1.46534e-06	0	0	0
1.49852e-06	0	0	0
1.50908e-06	0	0	0
1.51198e-06	0	0	0
1.52588e-06	0	0	0
1.55252e-06	0	0	0
1.56931e-06	0	0	0
1.60954e-06	0	0	0
1.67421e-06	0	0	0
1.6926e-06	0	0	0
1.70745e-06	0	0	0
1.77517e-06	0	0	0
1.79155e-06	0	0	0
1.89937e-06	0	0	0
1.9843e-06	0	0	0
2.08483e-06	0	0	0
2.11282e-06	0	0	0
2.16712e-06	0	0	0
2.2248e-06	0	0	0
2.25323e-06	0	0	0
2.59504e-06	0	0	0
2.82365e-06	0	0	0
2.82526e-06	0	0	0
2.9164e-06	0	0	0
2.9253e-06	0	0	0
2.94816e-06	0	0	0
3.01805e-06	0	0	0
3.03898e-06	0	0	0
3.06413e-06	0	0	0
3.21522e-06	0	0	0
3.28224e-06	0	0	0
3.4156e-06	0	0	0
3.5372e-06	0	0	0
3.56197e-06	0	0	0
3.65631e-06	0	0	0
3.6628e-06	0	0	0
3.84428e-06	0	0	0
3.887e-06	0	0	0
4.00745e-06	0	0	0
4.03384e-06	0	0	0
4.13104e-06	0	0	0
4.1384e-06	0	0	0
4.41269e-06	0	0	0
4.47924e-06	0	0	0
4.63534e-06	0	0	0
4.67792e-06	0	0	0
4.92414e-06	0	0	0
5.12036e-06	0	0	0
5.1608e-06	0	0	0
5.18187e-06	0	0	0
5.26162e-06	0	0	0
5.31331e-06	0	0	0
5.35276e-06	0	0	0
5.3789e-06	0	0	0
5.42131e-06	0	0	0
5.45031e-06	0	0	0
5.54428e-06	0	0	0
5.61325e-06	0	0	0
5.72455e-06	0	0	0
5.84486e-06	0	0	0
5.89612e-06	0	0	0
5.93291e-06	0	0	0
5.95457e-06	0	0	0
6.15695e-06	0	0	0
6.27811e-06	0	0	0
6.28652e-06	0	0	0
6.3415e-06	0	0	0
6.3431e-06	0	0	0
6.48426e-06	0	0	0
6.50302e-06	0	0	0
6.53334e-06	0	0	0
6.63905e-06	0	0	0
6.84476e-06	0	0	0
7.04595e-06	0	0	0
7.04684e-06	0	0	0
7.06412e-06	0	0	0
7.19409e-06	0	0	0
7.23484e-06	0	0	0
7.28397e-06	0	0	0
7.35713e-06	0	0	0
7.39911e-06	0	0	0
7.42562e-06	0	0	0
7.45091e-06	0	0	0
7.64229e-06	0	0	0
7.69014e-06	0	0	0
7.82318e-06	0	0	0
7.86537e-06	0	0	0
7.96669e-06	0	0	0
8.02635e-06	0	0	0
8.05196e-06	0	0	0
8.06943e-06	0	0	0
8.13482e-06	0	0	0
8.35022e-06	0	0	0
8.4169e-06	0	0	0
8.44494e-06	0	0	0
8.51957e-06	0	0	0
8.71209e-06	0	0	0
8.73952e-06	0	0	0
8.77021e-06	0	0	0
8.81885e-06	0	0	0
9.01765e-06	0	0	0
9.18918e-06	0	0	0
9.25374e-06	0	0	0
9.2947e-06	0	0	0
9.41425e-06	0	0	0
9.42267e-06	0	0	0
9.94928e-06	0	0	0
1.01625e-05	0	0	0
1.01974e-05	0	0	0
1.02595e-05	0	0	0
1.06805e-05	0	0	0
1.08447e-05	0	0	0
1.10162e-05	0	0	0
1.13608e-05	0	0	0
1.13669e-05	0	0	0
1.17319e-05	0	0	0
1.17664e-05	0	0	0
1.18498e-05	0	0	0
1.18767e-05	0	0	0
1.19703e-05	0	0	0
1.20479e-05	0	0	0
1.20487e-05	0	0	0
1.2093e-05	0	0	0
1.21058e-05	0	0	0
1.22112e-05	0	0	0
1.26002e-05	0	0	0
1.26108e-05	0	0	0
1.26569e-05	0	0	0
1.27201e-05	0	0	0
1.29091e-05	0	0	0
1.29371e-05	0	0	0
1.29702e-05	0	0	0
1.32243e-05	0	0	0
1.32252e-05	0	0	0
1.3332e-05	0	0	0
1.34712e-05	0	0	0
1.35372e-05	0	0	0
1.355e-05	0	0	0
1.37245e-05	0	0	0
1.39526e-05	0	0	0
1.3954e-05	0	0	0
1.3955e-05	0	0	0
1.40445e-05	0	0	0
1.40743e-05	0	0	0
1.42663e-05	0	0	0
1.42792e-05	0	0	0
1.43363e-05	0	0	0
1.43401e-05	0	0	0
1.43464e-05	0	0	0
1.46682e-05	0	0	0
1.47609e-05	0	0	0
1.48308e-05	0	0	0
1.50176e-05	0	0	0
1.51745e-05	0	0	0
1.566e-05	0	0	0
1.56846e-05	0	0	0
1.57134e-05	0	0	0
1.61257e-05	0	0	0
1.6277e-05	0	0	0
1.69996e-05	0	0	0
1.72007e-05	0	0	0
1.72482e-05	0	0	0
1.72845e-05	0	0	0
1.73195e-05	0	0	0
1.74014e-05	0	0	0
1.77767e-05	0	0	0
1.78922e-05	0	0	0
1.83554e-05	0	0	0
1.84161e-05	0	0	0
1.85897e-05	0	0	0
1.87482e-05	0	0	0
1.88019e-05	0	0	0
1.90377e-05	0	0	0
1.90779e-05	0	0	0
1.91764e-05	0	0	0
1.9297e-05	0	0	0
1.95127e-05	0	0	0
1.96487e-05	0	0	0
1.96871e-05	0	0	0
2.01385e-05	0	0	0
2.02923e-05	0	0	0
2.06763e-05	0	0	0
2.08623e-05	0	0	0
2.08716e-05	0	0	0
2.11888e-05	0	0	0
2.14467e-05	0	0	0
2.18021e-05	0	0	0
2.22744e-05	0	0	0
2.26848e-05	0	0	0
2.29596e-05	0	0	0
2.33621e-05	0	0	0
2.36316e-05	0	0	0
2.41067e-05	0	0	0
2.42365e-05	0	0	0
2.43386e-05	0	0	0
2.48861e-05	0	0	0
2.50574e-05	0	0	0
2.55848e-05	0	0	0
2.5828e-05	0	0	0
2.58756e-05	0	0	0
2.59303e-05	0	0	0
2.61775e-05	0	0	0
2.62098e-05	0	0	0
2.64408e-05	0	0	0
2.69328e-05	0	0	0
2.70427e-05	0	0	0
2.7082e-05	0	0	0
2.72598e-05	0	0	0
2.7346e-05	0	0	0
2.76351e-05	0	0	0
2.77096e-05	0	0	0
2.78426e-05	0	0	0
2.82854e-05	0	0	0
2.8382e-05	0	0	0
2.8415e-05	0	0	0
2.87934e-05	0	0	0
2.93106e-05	0	0	0
2.93411e-05	0	0	0
2.96804e-05	0	0	0
2.98723e-05	0	0	0
3.04544e-05	0	0	0
3.08319e-05	0	0	0
3.18304e-05	0	0	0
3.18829e-05	0	0	0
3.20325e-05	0	0	0
3.23133e-05	0	0	0
3.2379e-05	0	0	0
3.25689e-05	0	0	0
3.27583e-05	0	0	0
3.28396e-05	0	0	0
3.31081e-05	0	0	0
3.33936e-05	0	0	0
3.48915e-05	0	0	0
3.50284e-05	0	0	0
3.58035e-05	0	0	0
3.5863e-05	0	0	0
3.59453e-05	0	0	0
3.65937e-05	0	0	0
3.6648e-05	0	0	0
3.68741e-05	0	0	0
3.7186e-05	0	0	0
3.79455e-05	0	0	0
3.80932e-05	0	0	0
3.83874e-05	0	0	0
3.86951e-05	0	0	0
3.93874e-05	0	0	0
3.97223e-05	0	0	0
3.98545e-05	0	0	0
4.01355e-05	0	0	0
4.01975e-05	0	0	0
4.03943e-05	0	0	0
4.06306e-05	0	0	0
4.11429e-05	0	0	0
4.14603e-05	0	0	0
4.16281e-05	0	0	0
4.18239e-05	0	0	0
4.19339e-05	0	0	0
4.2271e-05	0	0	0
4.24262e-05	0	0	0
4.26234e-05	0	0	0
4.29158e-05	0	0	0
4.31348e-05	0	0	0
4.32039e-05	0	0	0
4.41506e-05	0	0	0
4.46071e-05	0	0	0
4.4865e-05	0	0	0
4.50637e-05	0	0	0
4.53815e-05	0	0	0
4.63056e-05	0	0	0
4.63655e-05	0	0	0
4.65554e-05	0	0	0
4.69298e-05	0	0	0
4.71157e-05	0	0	0
4.72552e-05	0	0	0
4.74797e-05	0	0	0
4.8027e-05	0	0	0
4.826e-05	0	0	0
4.87696e-05	0	0	0
4.89506e-05	0	0	0
4.91677e-05	0	0	0
4.93669e-05	0	0	0
4.96087e-05	0	0	0
4.99243e-05	0	0	0
5.00611e-05	0	0	0
5.0395e-05	0	0	0
5.06259e-05	0	0	0
5.0654e-05	0	0	0
5.12156e-05	0	0	0
5.12443e-05	0	0	0
5.19908e-05	0	0	0
5.22291e-05	0	0	0
5.28087e-05	0	0	0
5.30953e-05	0	0	0
5.31428e-05	0	0	0
5.4347e-05	0	0	0
5.47264e-05	0	0	0
5.53737e-05	0	0	0
5.6548e-05	0	0	0
5.70877e-05	0	0	0
5.71954e-05	0	0	0
5.75467e-05	0	0	0
5.91096e-05	0	0	0
5.93639e-05	0	0	0
5.98879e-05	0	0	0
6.09797e-05	0	0	0
6.15533e-05	0	0	0
6.33408e-05	0	0	0
6.55539e-05	0	0	0
6.59707e-05	0	0	0
6.73189e-05	0	0	0
6.91449e-05	0	0	0
6.95029e-05	0	0	0
6.97129e-05	0	0	0
7.04052e-05	0	0	0
7.10809e-05	0	0	0
7.11728e-05	0	0	0
7.13055e-05	0	0	0
7.18835e-05	0	0	0
7.24734e-05	0	0	0
7.28706e-05	0	0	0
7.45496e-05	0	0	0
7.50006e-05	0	0	0
7.76697e-05	0	0	0
8.00284e-05	0	0	0
8.09409e-05	0	0	0
8.10117e-05	0	0	0
8.17087e-05	0	0	0
8.40097e-05	0	0	0
8.62762e-05	0	0	0
9.13913e-05	0	0	0
9.48675e-05	0	0	0
0.000103119	0	0	0
0.000103236	0	0	0
0.000104626	0	0	0
0.000106182	0	0	0
0.000107567	0	0	0
0.000107722	0	0	0
0.000108093	0	0	0
0.000108154	0	0	0
0.00011115	0	0	0
0.000117633	0	0	0
0.000119116	0	0	0
0.00011952	0	0	0
0.000119784	0	0	0
0.000120879	0	0	0
0.000122472	0	0	0
0.00012461	0	0	0
0.00012589	0	0	0
0.000129172	0	0	0
0.000129833	0	0	0
0.000145589	0	0	0
0.000148111	0	0	0
0.000149398	0	0	0
0.000150555	0	0	0
0.000151119	0	0	0
0.000152412	0	0	0
0.000153332	0	0	0
0.000160521	0	0	0
0.000170439	0	0	0
0.000187539	0	0	0
0.000223322	0	0	0
0.000234312	0	0	0
0.000239355	0	0	0
0.000263758	0	0	0
0.000389442	0	0	0
0.00759478	0	0	0
0.00763553	0	0	0
0.00766132	0.0138198	0.0276396	0
0.0136722	0.0414594	0	0
0.0147171	0.0414594	0	0
0.0147349	0.0414594	0	0
0.0174466	0.0414594	0	0
0.0174503	0.0414594	0	0
0.0175047	0.0414594	0	0
0.0175305	0.0414594	0	0
0.025899	0.0414594	0	0
0.0258991	0.0414594	0	0
0.0528073	0.0414594	0	0
0.0702153	0.0414594	0	0
0.0703623	0.0414594	0	0
0.0772605	0.0414594	0	0
0.100126	0.0414594	0	0
0.100752	0.0414594	0	0
0.100843	0.0552792	0.0276396	0
0.108496	0.0829187	0	0
0.10854	0.0829187	0	0
0.10856	0.0967385	0.0276396	0
0.108561	0.124378	0	0
0.117385	0.124378	0	0
0.119921	0.124378	0	0.0909918
0.130998	0.124378	0	0.0909918
0.131043	0.124378	0	0.0909918
0.131062	0.124378	0.0552792	0.0909918
0.131071	0.152018	0.0276396	0.0909918
0.138549	0.179657	0	0.0909918
0.138752	0.179657	0	0.0909918
0.138782	0.179657	0.0552792	0.0909918
0.13882	0.207297	0.0276396	0.0909918
0.174183	0.234936	0	0.0909918
0.174568	0.234936	0	0.0909918
0.176074	0.234936	0.0276396	0.0909918
0.17608	0.248756	0.0552792	0.0909918
0.176213	0.276396	0.0276396	0.0909918
0.178928	0.304035	0	0.0909918
0.179268	0.304035	0	0.0909918
0.17995	0.304035	0.0276396	0.0909918
0.179987	0.317855	0.0552792	0.0909918
0.180003	0.345495	0.0276396	0.0909918
0.233511	0.373134	0	0.0909918
0.233951	0.373134	0	0.0909918
0.234019	0.386954	0.0276396	0.0909918
0.23715	0.414594	0	0.0909918
0.260142	0.414594	0	0.0909918
0.261765	0.414594	0	0.0909918
0.263183	0.414594	0	0.0909918
0.264535	0.414594	0	0.0909918
0.265663	0.414594	0.0276396	0.0909918
0.26567	0.414594	0.0552792	0.0909918
0.265847	0.414594	0.0829187	0.0909918
0.265856	0.428413	0.110558	0.0909918
0.265858	0.456053	0.0829187	0.0909918
0.265863	0.456053	0.0829187	0.0909918
0.265865	0.483693	0.0552792	0.0909918
0.265891	0.483693	0.0552792	0.0909918
0.265897	0.511332	0.0276396	0.0909918
0.265929	0.538972	0	0.0909918
0.265936	0.538972	0	0.0909918
0.267168	0.538972	0	0.0909918
0.267935	0.538972	0	0.0909918
0.268475	0.538972	0	0.0909918
0.268486	0.552792	0.0276396	0.0909918
0.268518	0.552792	0.0276396	0.0909918
0.276038	0.580431	0	0.0909918
0.276525	0.580431	0	0.181984
0.277005	0.580431	0	0.181984
0.282257	0.580431	0	0.272975
0.282464	0.580431	0	0.272975
0.2825	0.594251	0.0276396	0.272975
0.294578	0.621891	0	0.272975
0.298713	0.621891	0	0.272975
0.298755	0.621891	0	0.272975
0.298761	0.63571	0.0276396	0.272975
0.298796	0.66335	0	0.272975
0.303824	0.66335	0	0.272975
0.3042	0.66335	0	0.272975
0.304224	0.66335	0.0552792	0.272975
0.304245	0.66335	0.0552792	0.272975
0.304297	0.690989	0.0276396	0.272975
0.401732	0.718629	0	0.272975
0.402208	0.718629	0	0.272975
0.40222	0.732449	0.0276396	0.272975
0.425366	0.760088	0	0.272975
0.425494	0.760088	0	0.272975
0.4255	0.760088	0	0.272975
0.441567	0.760088	0	0.272975
0.441634	0.760088	0	0.272975
0.442274	0.760088	0.0276396	0.272975
0.442768	0.760088	0.0552792	0.272975
0.442804	0.760088	0.0829187	0.272975
0.443531	0.760088	0.110558	0.272975
0.443714	0.760088	0.138198	0.272975
0.445516	0.760088	0.165837	0.272975
0.445779	0.760088	0.193477	0.272975
0.445832	0.760088	0.221117	0.272975
0.445882	0.760088	0.248756	0.272975
0.445896	0.787728	0.221117	0.272975
0.445924	0.787728	0.248756	0.272975
0.445944	0.815368	0.221117	0.272975
0.446286	0.815368	0.221117	0.272975
0.446312	0.815368	0.248756	0.272975
0.44633	0.843007	0.221117	0.272975
0.448539	0.843007	0.221117	0.272975
0.44854	0.843007	0.248756	0.272975
0.448542	0.870647	0.221117	0.272975
0.448543	0.870647	0.221117	0.272975
0.448553	0.898286	0.193477	0.272975
0.448563	0.925926	0.165837	0.272975
0.448564	0.925926	0.165837	0.272975
0.448567	0.953566	0.138198	0.272975
0.44857	0.981205	0.110558	0.272975
0.448582	1.00884	0.0829187	0.272975
0.448588	1.03648	0.0552792	0.272975
0.448704	1.06412	0.0276396	0.272975
0.448731	1.09176	0	0.272975
0.461922	1.09176	0	0.272975
0.462332	1.09176	0	0.272975
0.462364	1.10558	0.0276396	0.272975
0.462419	1.13322	0	0.272975
0.464154	1.13322	0	0.272975
0.465148	1.13322	0	0.272975
0.466139	1.13322	0.0276396	0.272975
0.466553	1.13322	0.0552792	0.272975
0.466555	1.13322	0.0829187	0.272975
0.466602	1.16086	0.0552792	0.272975
0.466658	1.1885	0.0276396	0.272975
0.477828	1.21614	0	0.272975
0.477921	1.21614	0	0.272975
0.478003	1.21614	0.0276396	0.272975
0.478126	1.21614	0.0552792	0.272975
0.480594	1.21614	0.0829187	0.272975
0.480595	1.21614	0.138198	0.272975
0.480596	1.24378	0.110558	0.272975
0.480604	1.27142	0.0829187	0.272975
0.480617	1.27142	0.0829187	0.272975
0.480634	1.29906	0.0552792	0.272975
0.480644	1.3267	0.0276396	0.272975
0.513717	1.35434	0	0.272975
0.514701	1.35434	0	0.272975
0.514725	1.35434	0.0276396	0.272975
0.514794	1.38198	0	0.272975
0.53484	1.38198	0	0.272975
0.540218	1.38198	0	0.272975
0.540315	1.38198	0	0.272975
0.540398	1.3958	0.0276396	0.272975
0.54326	1.42344	0	0.272975
0.569971	1.42344	0	0.363967
0.570125	1.42344	0	0.363967
0.57015	1.42344	0.0276396	0.363967
0.570174	1.43726	0.0552792	0.363967
0.570176	1.43726	0.0552792	0.363967
0.570238	1.4649	0.0276396	0.363967
0.582609	1.49254	0	0.363967
0.582788	1.49254	0	0.363967
0.582838	1.50636	0.0276396	0.363967
0.604816	1.534	0	0.363967
0.610788	1.534	0	0.363967
0.632376	1.534	0	0.363967
0.632422	1.534	0	0.363967
0.632463	1.534	0	0.363967
0.646872	1.534	0	0.363967
0.647179	1.534	0	0.363967
0.647226	1.54782	0.0276396	0.363967
0.648114	1.57546	0	0.363967
0.665246	1.57546	0	0.363967
0.682294	1.57546	0	0.363967
0.682589	1.57546	0	0.363967
0.682965	1.57546	0.0276396	0.363967
0.682992	1.57546	0.0552792	0.363967
0.682996	1.58928	0.0829187	0.363967
0.682996	1.61692	0.0552792	0.363967
0.683005	1.61692	0.0552792	0.363967
0.68301	1.64456	0.0276396	0.363967
0.683013	1.67219	0	0.363967
0.717106	1.67219	0	0.363967
0.719489	1.67219	0	0.363967
0.732463	1.67219	0	0.363967
0.74091	1.67219	0	0.363967
0.741957	1.67219	0	0.363967
0.741962	1.68601	0.0276396	0.363967
0.746175	1.71365	0	0.363967
0.746792	1.71365	0	0.363967
0.7468	1.72747	0.0276396	0.363967
0.74809	1.75511	0	0.363967
0.765917	1.75511	0	0.454959
0.766536	1.75511	0	0.454959
0.766661	1.75511	0	0.636943
0.766682	1.75511	0.0552792	0.636943
0.766684	1.78275	0.0276396	0.636943
0.784258	1.81039	0	0.636943
0.804724	1.81039	0	0.727934
0.805541	1.81039	0	0.727934
0.805547	1.81039	0.0552792	0.727934
0.805583	1.83803	0.0276396	0.727934
0.80563	1.83803	0.0276396	0.727934
0.805647	1.86567	0	0.727934
0.814626	1.86567	0	0.727934
0.820046	1.86567	0	0.909918
0.820167	1.86567	0	0.909918
0.820223	1.87949	0.0276396	0.909918
0.820294	1.87949	0.0276396	0.909918
0.833705	1.90713	0	0.909918
0.834047	1.90713	0	0.909918
0.835209	1.90713	0.0276396	0.909918
0.836056	1.90713	0.0552792	0.909918
0.836118	1.90713	0.0829187	0.909918
0.836133	1.90713	0.110558	0.909918
0.836243	1.90713	0.110558	0.909918
0.836247	1.92095	0.138198	0.909918
0.836255	1.94859	0.110558	0.909918
0.83626	1.94859	0.110558	0.909918
0.836275	1.97623	0.0829187	0.909918
0.836298	2.00387	0.0552792	0.909918
0.836333	2.03151	0.0276396	0.909918
0.836344	2.03151	0.0276396	0.909918
0.836391	2.05915	0	0.909918
0.83711	2.05915	0	0.909918
0.842361	2.05915	0	0.909918
0.842959	2.05915	0	0.909918
0.843099	2.05915	0.0276396	0.909918
0.843247	2.05915	0.0552792	0.909918
0.843276	2.07297	0.0829187	0.909918
0.843292	2.10061	0.0552792	0.909918
0.843293	2.12825	0.0276396	0.909918
0.843295	2.12825	0.0276396	0.909918
0.843299	2.12825	0.0276396	0.909918
0.843318	2.12825	0.0276396	0.909918
0.843377	2.15589	0	0.909918
0.858523	2.15589	0	0.909918
0.86256	2.15589	0	1.00091
0.862567	2.15589	0	1.00091
0.862766	2.15589	0	1.00091
0.862815	2.15589	0	1.00091
0.885209	2.15589	0	1.00091
0.892269	2.15589	0	1.0919
0.895091	2.15589	0	1.0919
0.895619	2.15589	0	1.0919
0.903397	2.15589	0	1.0919
0.915621	2.15589	0	1.0919
0.91579	2.15589	0	1.0919
0.915944	2.16971	0.0276396	1.0919
0.92445	2.19735	0	1.0919
0.929306	2.19735	0	1.0919
0.929307	2.19735	0	1.0919
0.929319	2.21117	0.0276396	1.0919
0.932424	2.23881	0	1.0919
0.932461	2.23881	0	1.0919
0.932477	2.23881	0.0552792	1.0919
0.932578	2.26645	0.0276396	1.0919
0.95415	2.29409	0	1.0919
0.954805	2.29409	0	1.0919
0.95487	2.3079	0.0276396	1.0919
0.959356	2.33554	0	1.0919
0.964916	2.33554	0	1.0919
1.02596	2.33554	0	1.18289
1.02664	2.33554	0	1.18289
1.02665	2.33554	0.0552792	1.18289
1.02667	2.36318	0.0276396	1.18289
1.02938	2.39082	0	1.18289
1.05042	2.39082	0	1.27389
1.05119	2.39082	0	1.27389
1.05119	2.39082	0.0552792	1.27389
1.05123	2.41846	0.0276396	1.27389
1.05988	2.4461	0	1.27389
1.06267	2.4461	0	1.36488
1.07953	2.4461	0	1.36488
1.08109	2.4461	0	1.45587
1.08111	2.4461	0	1.45587
1.08111	2.4461	0	1.45587
1.08112	2.4461	0	1.45587
1.09405	2.4461	0	1.45587
1.11599	2.4461	0	1.45587
1.11605	2.4461	0	1.45587
1.11605	2.4461	0.0276396	1.45587
1.11606	2.45992	0.0552792	1.45587
1.11607	2.48756	0.0276396	1.45587
1.13734	2.5152	0	1.45587
1.13764	2.5152	0	1.45587
1.14392	2.5152	0	1.63785
1.14398	2.5152	0	1.63785
1.14398	2.5152	0	1.63785
1.14398	2.5152	0	1.63785
1.14402	2.5152	0	1.63785
1.14412	2.5152	0	1.63785
1.14412	2.5152	0	1.63785
1.15272	2.5152	0	1.63785
1.21759	2.5152	0	1.72884
1.22935	2.5152	0	1.72884
1.24316	2.5152	0	1.72884
1.24364	2.5152	0	1.72884
1.24568	2.5152	0.0276396	1.72884
1.24736	2.5152	0.0552792	1.72884
1.2476	2.5152	0.0829187	1.72884
1.24763	2.52902	0.110558	1.72884
1.24763	2.55666	0.0829187	1.72884
1.24763	2.5843	0.0552792	1.72884
1.24764	2.61194	0.0276396	1.72884
1.2477	2.61194	0.0276396	1.72884
1.25039	2.63958	0	1.72884
1.25045	2.63958	0	1.72884
1.25048	2.63958	0.0276396	1.72884
1.25068	2.63958	0.0552792	1.72884
1.25193	2.63958	0.0829187	1.72884
1.2523	2.63958	0.110558	1.72884
1.25241	2.63958	0.138198	1.72884
1.25242	2.63958	0.165837	1.72884
1.25245	2.66722	0.138198	1.72884
1.25247	2.69486	0.110558	1.72884
1.25247	2.7225	0.0829187	1.72884
1.25248	2.7225	0.0829187	1.72884
1.25249	2.75014	0.0552792	1.72884
1.25249	2.77778	0.0276396	1.72884
1.25251	2.77778	0.0276396	1.72884
1.25253	2.77778	0.0276396	1.72884
1.25865	2.80542	0	1.72884
1.2799	2.80542	0	1.81984
1.28008	2.80542	0	1.81984
1.28008	2.81924	0.0276396	1.81984
1.3007	2.84688	0	1.81984
1.30115	2.84688	0	1.81984
1.30116	2.8607	0.0276396	1.81984
1.30117	2.88834	0	1.81984
1.31305	2.88834	0	1.81984
1.31308	2.88834	0	1.91083
1.31311	2.88834	0	1.91083
1.31753	2.88834	0	1.91083
1.31777	2.88834	0	1.91083
1.31804	2.88834	0.0276396	1.91083
1.31809	2.88834	0.0829187	1.91083
1.31814	2.91598	0.0552792	1.91083
1.31815	2.94362	0.0276396	1.91083
1.32078	2.97125	0	1.91083
1.32568	2.97125	0	1.91083
1.32616	2.97125	0	1.91083
1.32625	2.97125	0.0552792	1.91083
1.32629	2.99889	0.0276396	1.91083
1.34531	3.02653	0	1.91083
1.34587	3.02653	0	1.91083
1.34588	3.04035	0.0276396	1.91083
1.34589	3.04035	0.0276396	1.91083
1.35526	3.06799	0	1.91083
1.35554	3.06799	0	1.91083
1.35555	3.08181	0.0276396	1.91083
1.39524	3.10945	0	1.91083
1.39987	3.10945	0	1.91083
1.39991	3.10945	0	1.91083
1.39994	3.10945	0.0276396	1.91083
1.39995	3.10945	0.0552792	1.91083
1.39998	3.10945	0.0829187	1.91083
1.40009	3.10945	0.110558	1.91083
1.4001	3.10945	0.138198	1.91083
1.4001	3.13709	0.110558	1.91083
1.40011	3.16473	0.0829187	1.91083
1.40014	3.19237	0.0552792	1.91083
1.40019	3.22001	0.0276396	1.91083
1.4253	3.24765	0	1.91083
1.42823	3.24765	0	1.91083
1.42838	3.24765	0	1.91083
1.42838	3.24765	0.0552792	1.91083
1.42843	3.24765	0.0552792	1.91083
1.42861	3.27529	0.0276396	1.91083
1.43387	3.30293	0	1.91083
1.44495	3.30293	0	2.09281
1.44496	3.30293	0	2.1838
1.45418	3.30293	0	2.1838
1.45474	3.30293	0	2.1838
1.4548	3.30293	0.0276396	2.1838
1.4556	3.30293	0.0552792	2.1838
1.45705	3.30293	0.0829187	2.1838
1.45705	3.31675	0.110558	2.1838
1.45706	3.34439	0.0829187	2.1838
1.45707	3.34439	0.0829187	2.1838
1.45707	3.34439	0.0829187	2.1838
1.45708	3.37203	0.0552792	2.1838
1.45711	3.39967	0.0276396	2.1838
1.45713	3.42731	0	2.1838
1.45716	3.42731	0	2.1838
1.45721	3.42731	0	2.1838
1.45748	3.42731	0	2.1838
1.45802	3.42731	0	2.1838
1.45803	3.44113	0.0276396	2.1838
1.4582	3.46877	0	2.1838
1.45835	3.48259	0.0276396	2.1838
1.45927	3.51023	0	2.1838
1.46763	3.51023	0	2.2748
1.46838	3.51023	0	2.2748
1.46845	3.52405	0.0276396	2.2748
1.47816	3.55169	0	2.2748
1.49774	3.55169	0	2.36579
1.49842	3.55169	0	2.36579
1.49844	3.56551	0.0276396	2.36579
1.49955	3.59315	0	2.36579
1.49982	3.59315	0	2.36579
1.49982	3.59315	0.0552792	2.36579
1.49985	3.62078	0.0276396	2.36579
1.50465	3.64842	0	2.36579
1.50964	3.64842	0	2.36579
1.50985	3.64842	0	2.36579
1.51086	3.64842	0.0276396	2.36579
1.51314	3.64842	0.0552792	2.36579
1.51419	3.64842	0.0829187	2.36579
1.51479	3.64842	0.110558	2.36579
1.51538	3.64842	0.138198	2.36579
1.51781	3.64842	0.165837	2.36579
1.52161	3.64842	0.193477	2.36579
1.53581	3.64842	0.193477	2.45678
1.54283	3.64842	0.193477	2.54777
1.54294	3.64842	0.193477	2.54777
1.54296	3.66224	0.221117	2.54777
1.54561	3.68988	0.193477	2.54777
1.57837	3.68988	0.193477	2.72975
1.57838	3.68988	0.193477	2.72975
1.57838	3.71752	0.165837	2.72975
1.57838	3.74516	0.138198	2.72975
1.5784	3.7728	0.110558	2.72975
1.5784	3.80044	0.0829187	2.72975
1.57841	3.82808	0.0552792	2.72975
1.57842	3.85572	0.0276396	2.72975
1.58285	3.88336	0	2.72975
1.58322	3.88336	0	2.72975
1.58331	3.89718	0.0276396	2.72975
1.58679	3.92482	0	2.72975
1.63529	3.92482	0	2.72975
1.63537	3.92482	0	2.72975
1.63543	3.92482	0	2.72975
1.63557	3.92482	0	2.72975
1.63731	3.92482	0	2.72975
1.63761	3.92482	0	2.72975
1.63762	3.93864	0.0276396	2.72975
1.63834	3.96628	0	2.72975
1.63863	3.96628	0	2.72975
1.66677	3.96628	0	2.91174
1.6669	3.96628	0	2.91174
1.66693	3.96628	0.0552792	2.91174
1.66699	3.99392	0.0276396	2.91174
1.66699	3.99392	0.0276396	2.91174
1.6673	4.02156	0	2.91174
1.66736	4.03538	0.0276396	2.91174
1.66803	4.06302	0	2.91174
1.67145	4.06302	0	3.00273
1.67153	4.06302	0	3.00273
1.67158	4.07684	0.0276396	3.00273
1.67161	4.10448	0	3.00273
1.67521	4.10448	0	3.00273
1.69829	4.10448	0	3.00273
1.69869	4.10448	0	3.09372
1.71934	4.10448	0	3.09372
1.71937	4.10448	0	3.09372
1.71938	4.10448	0	3.09372
1.7194	4.10448	0	3.09372
1.71941	4.10448	0	3.09372
1.71943	4.10448	0	3.09372
1.71948	4.10448	0	3.09372
1.71952	4.10448	0	3.09372
1.72859	4.10448	0	3.09372
1.73038	4.10448	0	3.09372
1.73041	4.1183	0.0276396	3.09372
1.73417	4.14594	0	3.09372
1.73422	4.14594	0	3.09372
1.7343	4.15976	0.0276396	3.09372
1.74221	4.1874	0	3.09372
1.74423	4.1874	0	3.18471
1.74476	4.1874	0	3.18471
1.74512	4.1874	0.0276396	3.18471
1.74533	4.1874	0.0552792	3.18471
1.74535	4.20122	0.0829187	3.18471
1.74535	4.22886	0.0552792	3.18471
1.74537	4.2565	0.0276396	3.18471
1.74585	4.28413	0	3.18471
1.78454	4.28413	0	3.18471
1.78505	4.28413	0	3.18471
1.78522	4.28413	0.0276396	3.18471
1.78524	4.29795	0.0552792	3.18471
1.78528	4.32559	0.0276396	3.18471
1.79583	4.35323	0	3.18471
1.80041	4.35323	0	3.18471
1.81407	4.35323	0	3.18471
1.81989	4.35323	0	3.27571
1.84535	4.35323	0	3.27571
1.84969	4.35323	0	3.27571
1.85285	4.35323	0	3.3667
1.87735	4.35323	0	3.3667
1.88387	4.35323	0	3.45769
1.88387	4.35323	0	3.45769
1.8839	4.36705	0.0276396	3.45769
1.89343	4.39469	0	3.45769
1.89722	4.39469	0	3.54868
1.9047	4.39469	0	3.54868
1.91559	4.39469	0	3.63967
1.92844	4.39469	0	3.63967
1.93686	4.39469	0	3.63967
1.93775	4.39469	0	3.63967
1.93777	4.39469	0.0552792	3.63967
1.93791	4.42233	0.0276396	3.63967
1.94132	4.44997	0	3.63967
1.94147	4.44997	0	3.63967
1.94148	4.44997	0.0552792	3.63967
1.94149	4.47761	0.0276396	3.63967
1.9803	4.50525	0	3.63967
1.99649	4.50525	0	3.63967
1.99684	4.50525	0	3.63967
1.99741	4.50525	0.0276396	3.63967
1.99867	4.50525	0.0552792	3.63967
1.99912	4.50525	0.0829187	3.63967
1.99912	4.50525	0.110558	3.63967
1.99914	4.53289	0.0829187	3.63967
1.99914	4.56053	0.0552792	3.63967
1.99915	4.58817	0.0276396	3.63967
1.99916	4.61581	0	3.63967
2.01087	4.61581	0	3.63967
2.01108	4.61581	0	3.63967
2.01108	4.62963	0.0276396	3.63967
2.01809	4.65727	0	3.63967
2.01909	4.65727	0	3.63967
2.02042	4.65727	0.0276396	3.63967
2.02047	4.67109	0.0552792	3.63967
2.02047	4.69873	0.0276396	3.63967
2.02786	4.72637	0	3.63967
2.02853	4.72637	0	3.73066
2.02869	4.72637	0	3.73066
2.0287	4.72637	0.0552792	3.73066
2.02873	4.75401	0.0276396	3.73066
2.04197	4.78165	0	3.73066
2.04346	4.78165	0	3.73066
2.04353	4.78165	0.0552792	3.73066
2.04356	4.80929	0.0276396	3.73066
2.05344	4.83693	0	3.73066
2.05347	4.83693	0	3.73066
2.05351	4.85075	0.0276396	3.73066
2.05824	4.87839	0	3.73066
2.08688	4.87839	0	3.82166
2.09416	4.87839	0	3.82166
2.09478	4.87839	0	3.82166
2.09485	4.87839	0.0276396	3.82166
2.09526	4.87839	0.0552792	3.82166
2.0953	4.87839	0.0829187	3.82166
2.12028	4.87839	0.110558	3.82166
2.13706	4.87839	0.110558	3.91265
2.1371	4.87839	0.110558	3.91265
2.1371	4.90603	0.0829187	3.91265
2.13711	4.93367	0.0552792	3.91265
2.13711	4.9613	0.0276396	3.91265
2.13718	4.9613	0.0276396	3.91265
2.13731	4.98894	0	3.91265
2.13923	4.98894	0	4.00364
2.14463	4.98894	0	4.09463
2.18232	4.98894	0	4.09463
2.1836	4.98894	0	4.09463
2.18362	5.00276	0.0276396	4.09463
2.19144	5.0304	0	4.09463
2.23279	5.0304	0	4.09463
2.23357	5.0304	0	4.09463
2.23359	5.04422	0.0276396	4.09463
2.2426	5.07186	0	4.09463
2.2428	5.07186	0	4.09463
2.24296	5.07186	0.0276396	4.09463
2.243	5.08568	0.0552792	4.09463
2.24317	5.11332	0.0276396	4.09463
2.25498	5.14096	0	4.09463
2.26462	5.14096	0	4.18562
2.2755	5.14096	0	4.36761
2.28684	5.14096	0	4.4586
2.28695	5.14096	0	4.4586
2.28698	5.14096	0.0276396	4.4586
2.287	5.15478	0.0552792	4.4586
2.28701	5.18242	0.0276396	4.4586
2.30972	5.21006	0	4.4586
2.34064	5.21006	0	4.4586
2.34081	5.21006	0	4.4586
2.34116	5.21006	0.0276396	4.4586
2.34118	5.22388	0.0552792	4.4586
2.34125	5.25152	0.0276396	4.4586
2.37162	5.27916	0	4.4586
2.37212	5.27916	0	4.4586
2.37213	5.27916	0.0552792	4.4586
2.37214	5.3068	0.0276396	4.4586
2.3768	5.33444	0	4.4586
2.37758	5.33444	0	4.4586
2.37766	5.33444	0.0552792	4.4586
2.37766	5.36208	0.0276396	4.4586
2.38405	5.38972	0	4.4586
2.38415	5.38972	0	4.4586
2.3843	5.38972	0.0276396	4.4586
2.39929	5.41736	0	4.4586
2.40394	5.41736	0	4.54959
2.4042	5.41736	0	4.54959
2.40424	5.43118	0.0276396	4.54959
2.40464	5.45882	0	4.54959
2.40672	5.45882	0	4.54959
2.40685	5.45882	0.0276396	4.54959
2.40686	5.47264	0.0552792	4.54959
2.40691	5.50028	0.0276396	4.54959
2.41068	5.52792	0	4.54959
2.41205	5.52792	0	4.54959
2.41207	5.54174	0.0276396	4.54959
2.44422	5.56938	0	4.54959
2.44423	5.56938	0	4.54959
2.44425	5.5832	0.0276396	4.54959
2.45122	5.61083	0	4.54959
2.46418	5.61083	0	4.73157
2.46443	5.61083	0	4.73157
2.46443	5.62465	0.0276396	4.73157
2.46596	5.65229	0	4.73157
2.55014	5.65229	0	4.82257
2.55048	5.65229	0	4.82257
2.55048	5.65229	0.0552792	4.82257
2.55052	5.67993	0.0276396	4.82257
2.55949	5.70757	0	4.82257
2.56281	5.70757	0	4.82257
2.56321	5.70757	0	4.82257
2.56323	5.72139	0.0276396	4.82257
2.56621	5.74903	0	4.82257
2.59374	5.74903	0	4.82257
2.61853	5.74903	0	4.82257
2.61891	5.74903	0	4.82257
2.61892	5.76285	0.0276396	4.82257
2.63026	5.79049	0	4.82257
2.63511	5.79049	0	4.82257
2.63811	5.79049	0	4.91356
2.63836	5.79049	0	4.91356
2.63846	5.79049	0	4.91356
2.63849	5.80431	0.0276396	4.91356
2.66981	5.83195	0	4.91356
2.67081	5.83195	0	4.91356
2.67094	5.84577	0.0276396	4.91356
2.67829	5.87341	0	4.91356
2.75253	5.87341	0	5.09554
2.7625	5.87341	0	5.09554
2.8026	5.87341	0	5.18653
2.81658	5.87341	0	5.27753
2.81672	5.87341	0	5.27753
2.81679	5.87341	0.0276396	5.27753
2.81679	5.88723	0.0552792	5.27753
2.81684	5.91487	0.0276396	5.27753
2.83998	5.94251	0	5.27753
2.84051	5.94251	0	5.27753
2.84052	5.95633	0.0276396	5.27753
2.84256	5.98397	0	5.27753
2.86021	5.98397	0	5.36852
2.86044	5.98397	0	5.36852
2.86051	5.98397	0.0552792	5.36852
2.86075	6.01161	0.0276396	5.36852
2.88428	6.03925	0	5.36852
2.885	6.03925	0	5.36852
2.885	6.03925	0.0552792	5.36852
2.88501	6.06689	0.0276396	5.36852
2.88799	6.09453	0	5.36852
2.89137	6.09453	0	5.45951
2.8915	6.09453	0	5.45951
2.8919	6.09453	0.0276396	5.45951
2.89317	6.09453	0.0552792	5.45951
2.89317	6.10835	0.0829187	5.45951
2.89322	6.13599	0.0552792	5.45951
2.89322	6.16363	0.0276396	5.45951
2.93367	6.19127	0	5.45951
2.94044	6.19127	0	5.45951
2.9405	6.19127	0	5.45951
2.9405	6.20509	0.0276396	5.45951
2.94318	6.23273	0	5.45951
2.9435	6.23273	0	5.45951
2.94429	6.23273	0.0276396	5.45951
2.94429	6.24655	0.0552792	5.45951
2.94435	6.27418	0.0276396	5.45951
2.95218	6.30182	0	5.45951
2.96707	6.30182	0	5.64149
2.98613	6.30182	0	5.73248
2.99281	6.30182	0	5.82348
2.99707	6.30182	0	5.91447
2.99823	6.30182	0	5.91447
2.99829	6.30182	0.0276396	5.91447
2.99829	6.31564	0.0552792	5.91447
2.99829	6.34328	0.0276396	5.91447
3.01464	6.37092	0	5.91447
3.0152	6.37092	0	5.91447
3.01531	6.38474	0.0276396	5.91447
3.03525	6.41238	0	5.91447
3.03544	6.41238	0	5.91447
3.03546	6.4262	0.0276396	5.91447
3.05397	6.45384	0	5.91447
3.05416	6.45384	0	5.91447
3.05418	6.46766	0.0276396	5.91447
3.08008	6.4953	0	5.91447
3.0801	6.4953	0	5.91447
3.0803	6.4953	0.0276396	5.91447
3.08032	6.50912	0.0552792	5.91447
3.08044	6.53676	0.0276396	5.91447
3.09448	6.5644	0	5.91447
3.12173	6.5644	0	5.91447
3.12252	6.5644	0	5.91447
3.12291	6.5644	0	5.91447
3.12321	6.5644	0.0276396	5.91447
3.12323	6.57822	0.0552792	5.91447
3.12325	6.60586	0.0276396	5.91447
3.12418	6.6335	0	5.91447
3.1242	6.6335	0.0552792	5.91447
3.12425	6.66114	0.0276396	5.91447
3.13143	6.68878	0	5.91447
3.13225	6.68878	0	5.91447
3.13314	6.68878	0.0276396	5.91447
3.13314	6.7026	0.0552792	5.91447
3.13315	6.73024	0.0276396	5.91447
3.13316	6.73024	0.0276396	5.91447
3.13317	6.75788	0	5.91447
3.14965	6.75788	0	5.91447
3.15007	6.75788	0	5.91447
3.15009	6.75788	0.0552792	5.91447
3.15009	6.78552	0.0276396	5.91447
3.18093	6.81316	0	5.91447
3.18103	6.81316	0	5.91447
3.18112	6.81316	0.0276396	5.91447
3.18115	6.82698	0.0552792	5.91447
3.18118	6.85462	0.0276396	5.91447
3.18264	6.88226	0	5.91447
3.18759	6.88226	0	6.00546
3.18793	6.88226	0	6.00546
3.18805	6.89608	0.0276396	6.00546
3.1893	6.92371	0	6.00546
3.19294	6.92371	0	6.00546
3.22364	6.92371	0	6.00546
3.22379	6.92371	0	6.00546
3.22384	6.93753	0.0276396	6.00546
3.22898	6.96517	0	6.00546
3.235	6.96517	0	6.18744
3.23522	6.96517	0	6.18744
3.23536	6.96517	0.0276396	6.18744
3.23546	6.96517	0.0276396	6.18744
3.2355	6.96517	0.0829187	6.18744
3.23552	6.99281	0.0552792	6.18744
3.23699	7.02045	0.0276396	6.18744
3.23702	7.03427	0.0552792	6.18744
3.23703	7.06191	0.0276396	6.18744
3.24172	7.08955	0	6.18744
3.24322	7.08955	0	6.18744
3.24328	7.10337	0.0276396	6.18744
3.25954	7.13101	0	6.18744
3.2694	7.13101	0	6.27843
3.26972	7.13101	0	6.27843
3.26972	7.14483	0.0276396	6.27843
3.30375	7.17247	0	6.27843
3.3584	7.17247	0	6.36943
3.35844	7.17247	0	6.36943
3.35845	7.17247	0.0552792	6.36943
3.35845	7.20011	0.0276396	6.36943
3.37763	7.22775	0	6.36943
3.37766	7.22775	0	6.36943
3.37767	7.24157	0.0276396	6.36943
3.38966	7.26921	0	6.36943
3.38986	7.26921	0	6.36943
3.38989	7.28303	0.0276396	6.36943
3.41407	7.31067	0	6.36943
3.41436	7.31067	0	6.36943
3.41438	7.32449	0.0276396	6.36943
3.4635	7.35213	0	6.36943
3.46641	7.35213	0	6.46042
3.47666	7.35213	0	6.55141
3.49215	7.35213	0	6.6424
3.49251	7.35213	0	6.6424
3.49267	7.35213	0.0276396	6.6424
3.49424	7.35213	0.0552792	6.6424
3.49435	7.35213	0.0829187	6.6424
3.49486	7.35213	0.0829187	6.73339
3.49486	7.36595	0.110558	6.73339
3.4949	7.39359	0.0829187	6.73339
3.49491	7.42123	0.0552792	6.73339
3.49501	7.44887	0.0276396	6.73339
3.51303	7.47651	0	6.73339
3.51358	7.47651	0	6.73339
3.51361	7.49033	0.0276396	6.73339
3.52947	7.51797	0	6.73339
3.52992	7.51797	0	6.73339
3.52995	7.51797	0.0276396	6.73339
3.53043	7.54561	0	6.73339
3.55952	7.54561	0	6.82439
3.56	7.54561	0	6.82439
3.56005	7.55943	0.0276396	6.82439
3.56235	7.58706	0	6.82439
3.56245	7.58706	0	6.82439
3.56262	7.58706	0	6.82439
3.56263	7.60088	0.0276396	6.82439
3.56299	7.62852	0	6.82439
3.56301	7.62852	0.0552792	6.82439
3.56307	7.65616	0.0276396	6.82439
3.56776	7.6838	0	6.82439
3.56837	7.6838	0	6.82439
3.56845	7.69762	0.0276396	6.82439
3.62818	7.72526	0	6.82439
3.62832	7.72526	0	6.82439
3.62885	7.72526	0.0276396	6.82439
3.62931	7.72526	0.0552792	6.82439
3.62933	7.72526	0.110558	6.82439
3.62936	7.7529	0.0829187	6.82439
3.62937	7.78054	0.0552792	6.82439
3.6294	7.80818	0.0276396	6.82439
3.63285	7.83582	0	6.82439
3.63356	7.83582	0	6.82439
3.63524	7.83582	0.0276396	6.82439
3.63534	7.83582	0.0552792	6.82439
3.63654	7.83582	0.0829187	6.82439
3.63655	7.83582	0.138198	6.82439
3.63657	7.86346	0.110558	6.82439
3.63657	7.8911	0.0829187	6.82439
3.63664	7.91874	0.0552792	6.82439
3.63664	7.94638	0.0276396	6.82439
3.63732	7.97402	0	6.82439
3.63736	7.97402	0	6.82439
3.63743	7.97402	0.0552792	6.82439
3.63749	8.00166	0.0276396	6.82439
3.63751	8.00166	0.0276396	6.82439
3.63751	8.00166	0.0276396	6.82439
3.63756	8.00166	0.0276396	6.82439
3.69504	8.0293	0	6.82439
3.71593	8.0293	0	6.91538
3.71616	8.0293	0	6.91538
3.71621	8.04312	0.0276396	6.91538
3.71708	8.07076	0	6.91538
3.71714	8.07076	0	6.91538
3.71726	8.07076	0.0276396	6.91538
3.71735	8.07076	0.0276396	6.91538
3.71741	8.07076	0.0552792	6.91538
3.71745	8.08458	0.0829187	6.91538
3.71746	8.11222	0.0552792	6.91538
3.71766	8.13986	0.0276396	6.91538
3.71772	8.15368	0.0552792	6.91538
3.71773	8.18132	0.0276396	6.91538
3.71778	8.20896	0	6.91538
3.75497	8.20896	0	6.91538
3.75559	8.20896	0	7.09736
3.80695	8.20896	0	7.18835
3.80742	8.20896	0	7.18835
3.80742	8.22278	0.0276396	7.18835
3.81299	8.25041	0	7.18835
3.82844	8.25041	0	7.27934
3.82854	8.25041	0	7.27934
3.82857	8.25041	0.0552792	7.27934
3.82858	8.27805	0.0276396	7.27934
3.85471	8.30569	0	7.27934
3.87045	8.30569	0	7.27934
3.87145	8.30569	0	7.27934
3.8715	8.31951	0.0276396	7.27934
3.87965	8.34715	0	7.27934
3.87977	8.34715	0	7.27934
3.87978	8.34715	0.0552792	7.27934
3.87979	8.37479	0.0276396	7.27934
3.91509	8.40243	0	7.27934
3.94565	8.40243	0	7.37034
3.95285	8.40243	0	7.46133
3.95527	8.40243	0	7.64331
3.97549	8.40243	0	7.7343
3.99343	8.40243	0	7.8253
3.99575	8.40243	0	8.00728
3.99593	8.40243	0	8.00728
3.99597	8.40243	0.0276396	8.00728
3.99614	8.40243	0.0552792	8.00728
3.99615	8.40243	0.110558	8.00728
3.99615	8.43007	0.0829187	8.00728
3.99615	8.45771	0.0552792	8.00728
3.99618	8.48535	0.0276396	8.00728
4.0399	8.51299	0	8.00728
4.04035	8.51299	0	8.00728
4.0404	8.52681	0.0276396	8.00728
4.04785	8.55445	0	8.00728
4.06528	8.55445	0	8.00728
4.06529	8.55445	0	8.00728
4.06537	8.56827	0.0276396	8.00728
4.06717	8.59591	0	8.00728
4.06755	8.59591	0	8.00728
4.06759	8.60973	0.0276396	8.00728
4.0983	8.63737	0	8.00728
4.09844	8.63737	0	8.00728
4.09844	8.63737	0.0552792	8.00728
4.0985	8.66501	0.0276396	8.00728
4.09853	8.69265	0	8.00728
4.10174	8.69265	0	8.00728
4.13891	8.69265	0	8.18926
4.14031	8.69265	0	8.28025
4.14111	8.69265	0	8.28025
4.1412	8.69265	0.0276396	8.28025
4.14137	8.69265	0.0552792	8.28025
4.14143	8.70647	0.0829187	8.28025
4.14148	8.73411	0.0552792	8.28025
4.1416	8.76175	0.0276396	8.28025
4.15998	8.78939	0	8.28025
4.16021	8.78939	0	8.28025
4.16023	8.78939	0.0552792	8.28025
4.16026	8.81703	0.0276396	8.28025
4.16763	8.84467	0	8.28025
4.1684	8.84467	0	8.28025
4.16844	8.84467	0.0552792	8.28025
4.16851	8.87231	0.0276396	8.28025
4.17306	8.89994	0	8.28025
4.17327	8.89994	0	8.28025
4.17328	8.91376	0.0276396	8.28025
4.18539	8.9414	0	8.28025
4.18636	8.9414	0	8.28025
4.18796	8.9414	0.0276396	8.28025
4.18801	8.95522	0.0552792	8.28025
4.18803	8.98286	0.0276396	8.28025
4.25107	9.0105	0	8.28025
4.26151	9.0105	0	8.46224
4.26293	9.0105	0	8.46224
4.26296	9.02432	0.0276396	8.46224
4.2721	9.05196	0	8.46224
4.27221	9.05196	0	8.46224
4.27222	9.06578	0.0276396	8.46224
4.27226	9.06578	0.0276396	8.46224
4.29258	9.09342	0	8.46224
4.29336	9.09342	0	8.46224
4.29349	9.10724	0.0276396	8.46224
4.3197	9.13488	0	8.46224
4.34178	9.13488	0	8.64422
4.43557	9.13488	0	8.73521
4.43566	9.13488	0	8.73521
4.43567	9.1487	0.0276396	8.73521
4.45645	9.17634	0	8.73521
4.45746	9.17634	0	8.73521
4.45962	9.17634	0.0276396	8.73521
4.45965	9.19016	0.0552792	8.73521
4.4597	9.2178	0.0276396	8.73521
4.46339	9.24544	0	8.73521
4.464	9.24544	0	8.73521
4.464	9.24544	0.0552792	8.73521
4.46403	9.27308	0.0276396	8.73521
4.47433	9.30072	0	8.73521
4.47458	9.30072	0	8.73521
4.47459	9.31454	0.0276396	8.73521
4.51052	9.34218	0	8.73521
4.56288	9.34218	0	8.73521
4.56354	9.34218	0	8.73521
4.56356	9.34218	0.0552792	8.73521
4.56358	9.36982	0.0276396	8.73521
4.57075	9.39746	0	8.73521
4.57126	9.39746	0	8.73521
4.57128	9.39746	0.0552792	8.73521
4.5713	9.4251	0.0276396	8.73521
4.60341	9.45274	0	8.73521
4.6185	9.45274	0	8.82621
4.61852	9.45274	0	8.82621
4.61852	9.45274	0.0552792	8.82621
4.61852	9.48038	0.0276396	8.82621
4.64099	9.50802	0	8.82621
4.64101	9.50802	0	8.82621
4.64157	9.50802	0.0276396	8.82621
4.64241	9.50802	0.0552792	8.82621
4.64253	9.50802	0.0829187	8.82621
4.64331	9.50802	0.110558	8.82621
4.6437	9.50802	0.138198	8.82621
4.64497	9.50802	0.165837	8.82621
4.64512	9.50802	0.193477	8.82621
4.64513	9.52184	0.221117	8.82621
4.64513	9.54947	0.193477	8.82621
4.64513	9.57711	0.165837	8.82621
4.64514	9.60475	0.138198	8.82621
4.64514	9.63239	0.110558	8.82621
4.64514	9.66003	0.0829187	8.82621
4.64517	9.68767	0.0552792	8.82621
4.64519	9.71531	0.0276396	8.82621
4.67764	9.74295	0	8.82621
4.68278	9.74295	0	8.9172
4.7458	9.74295	0	8.9172
4.80208	9.74295	0	9.00819
4.80316	9.74295	0	9.00819
4.80327	9.75677	0.0276396	9.00819
4.82163	9.78441	0	9.00819
4.8217	9.78441	0	9.00819
4.82177	9.79823	0.0276396	9.00819
4.82369	9.82587	0	9.00819
4.82433	9.82587	0	9.00819
4.82435	9.82587	0.0552792	9.00819
4.82449	9.85351	0.0276396	9.00819
4.83642	9.88115	0	9.00819
4.83652	9.88115	0	9.00819
4.83655	9.89497	0.0276396	9.00819
4.87197	9.92261	0	9.00819
4.89658	9.92261	0	9.00819
4.89664	9.92261	0	9.00819
4.89671	9.92261	0.0276396	9.00819
4.89672	9.92261	0.0829187	9.00819
4.89673	9.95025	0.0552792	9.00819
4.89685	9.97789	0.0276396	9.00819
4.90468	10.0055	0	9.00819
4.9128	10.0055	0	9.00819
4.92071	10.0055	0	9.00819
4.92248	10.0055	0	9.00819
4.92282	10.0055	0	9.00819
4.92282	10.0055	0.0552792	9.00819
4.92287	10.0332	0.0276396	9.00819
4.96787	10.0608	0	9.00819
4.96893	10.0608	0	9.00819
4.96895	10.0608	0.0552792	9.00819
4.96902	10.0884	0.0276396	9.00819
5.00973	10.1161	0	9.00819
5.04935	10.1161	0	9.09918
5.05172	10.1161	0	9.28116
5.05219	10.1161	0	9.28116
5.08093	10.1161	0.0276396	9.28116
5.08098	10.1161	0.0276396	9.46315
5.1032	10.1437	0	9.46315
5.10348	10.1437	0	9.46315
5.10349	10.1437	0.0552792	9.46315
5.10349	10.1714	0.0276396	9.46315
5.10353	10.199	0	9.46315
5.11874	10.199	0	9.46315
5.13194	10.199	0	9.55414
5.19713	10.199	0	9.64513
5.19714	10.199	0	9.64513
5.19715	10.199	0.0552792	9.64513
5.19721	10.2266	0.0276396	9.64513
5.20175	10.2543	0	9.64513
5.21376	10.2543	0	9.82712
5.22334	10.2543	0	9.91811
5.25536	10.2543	0	10.0091
5.36452	10.2543	0	10.1911
5.3932	10.2543	0	10.3731
5.40097	10.2543	0	10.5551
5.40156	10.2543	0	10.5551
5.40157	10.2681	0.0276396	10.5551
5.43751	10.2957	0	10.5551
5.43799	10.2957	0	10.5551
5.43804	10.3096	0.0276396	10.5551
5.44547	10.3372	0	10.5551
5.47286	10.3372	0	10.646
5.47391	10.3372	0	10.646
5.474	10.351	0.0276396	10.646
5.50712	10.3787	0	10.646
5.5241	10.3787	0	10.828
5.52442	10.3787	0	10.828
5.52533	10.3787	0.0276396	10.828
5.52534	10.3925	0.0552792	10.828
5.52545	10.4201	0.0276396	10.828
5.52864	10.4478	0	10.828
5.53598	10.4478	0	10.828
5.53988	10.4478	0	10.828
5.53996	10.4478	0	10.828
5.54	10.4616	0.0276396	10.828
5.55054	10.4892	0	10.828
5.5506	10.4892	0	10.828
5.5507	10.4892	0.0276396	10.828
5.5507	10.503	0.0552792	10.828
5.55073	10.5307	0.0276396	10.828
5.61237	10.5583	0	10.828
5.63757	10.5583	0	10.828
5.72965	10.5583	0	10.919
5.73951	10.5583	0	11.101
5.74303	10.5583	0	11.101
5.76479	10.5583	0	11.192
5.76506	10.5583	0	11.192
5.7651	10.5721	0.0276396	11.192
5.79979	10.5998	0	11.192
5.80016	10.5998	0	11.192
5.80016	10.6136	0.0276396	11.192
5.86593	10.6412	0	11.192
5.88107	10.6412	0	11.283
5.88156	10.6412	0	11.283
5.88187	10.6412	0.0276396	11.283
5.88212	10.6412	0.0552792	11.283
5.88283	10.6412	0.0829187	11.283
5.88284	10.6412	0.138198	11.283
5.88286	10.6689	0.110558	11.283
5.88287	10.6965	0.0829187	11.283
5.88288	10.7242	0.0552792	11.283
5.88288	10.7518	0.0276396	11.283
5.88555	10.7794	0	11.283
5.88619	10.7794	0	11.283
5.88622	10.7794	0	11.465
5.88709	10.7794	0.0276396	11.465
5.88711	10.7933	0.0552792	11.465
5.88716	10.8209	0.0276396	11.465
5.89025	10.8485	0	11.465
5.89061	10.8485	0	11.465
5.89087	10.8485	0.0276396	11.465
5.89087	10.8624	0.0552792	11.465
5.8909	10.89	0.0276396	11.465
5.92088	10.9176	0	11.465
5.9738	10.9176	0	11.556
5.97432	10.9176	0	11.556
5.97434	10.9315	0.0276396	11.556
5.98648	10.9591	0	11.556
5.98666	10.9591	0	11.647
5.98713	10.9591	0	11.647
5.98713	10.9591	0.0552792	11.647
5.98714	10.9867	0.0276396	11.647
5.99036	11.0144	0	11.647
5.99947	11.0144	0	11.7379
5.99949	11.0144	0	11.7379
5.9995	11.0144	0.0552792	11.7379
5.99958	11.042	0.0276396	11.7379
6.02999	11.0697	0	11.7379
6.03033	11.0697	0	11.7379
6.03036	11.0835	0.0276396	11.7379
6.11119	11.1111	0	11.7379
6.11132	11.1111	0	11.7379
6.11214	11.1111	0.0276396	11.7379
6.11216	11.1249	0.0552792	11.7379
6.11217	11.1526	0.0276396	11.7379
6.11493	11.1802	0	11.7379
6.11512	11.1802	0	11.7379
6.11514	11.1802	0.0552792	11.7379
6.11534	11.2078	0.0276396	11.7379
6.16578	11.2355	0	11.7379
6.16938	11.2355	0	11.7379
6.17018	11.2355	0.0276396	11.7379
6.17018	11.2493	0.0552792	11.7379
6.17019	11.2769	0.0276396	11.7379
6.21492	11.3046	0	11.7379
6.21507	11.3046	0	11.7379
6.21518	11.3184	0.0276396	11.7379
6.21584	11.346	0	11.7379
6.23792	11.346	0	11.8289
6.23802	11.346	0	11.8289
6.23806	11.3599	0.0276396	11.8289
6.2506	11.3875	0	11.8289
6.25131	11.3875	0	11.8289
6.25135	11.3875	0.0552792	11.8289
6.2514	11.4151	0.0276396	11.8289
6.25936	11.4428	0	11.8289
6.25955	11.4428	0	12.0109
6.26904	11.4428	0	12.1019
6.26936	11.4428	0	12.1019
6.26947	11.4566	0.0276396	12.1019
6.28725	11.4842	0	12.1019
6.28804	11.4842	0	12.1019
6.28829	11.4981	0.0276396	12.1019
6.28967	11.5257	0	12.1019
6.2899	11.5257	0	12.1019
6.2905	11.5257	0.0276396	12.1019
6.29052	11.5395	0.0552792	12.1019
6.2906	11.5672	0.0276396	12.1019
6.32888	11.5948	0	12.1019
6.32949	11.5948	0	12.1019
6.32951	11.6086	0.0276396	12.1019
6.34382	11.6363	0	12.1019
6.36322	11.6363	0	12.1929
6.38702	11.6363	0	12.2839
6.40794	11.6363	0	12.4659
6.43023	11.6363	0	12.4659
6.43029	11.6363	0	12.4659
6.4303	11.6501	0.0276396	12.4659
6.43033	11.6501	0.0276396	12.4659
6.43406	11.6777	0	12.4659
6.43596	11.6777	0	12.4659
6.43646	11.6777	0.0276396	12.4659
6.43647	11.6915	0.0552792	12.4659
6.43648	11.7192	0.0276396	12.4659
6.53609	11.7468	0	12.4659
6.54161	11.7468	0	12.4659
6.56504	11.7468	0	12.6479
6.56566	11.7468	0	12.8298
6.5893	11.7468	0	13.0118
6.59006	11.7468	0	13.0118
6.59012	11.7606	0.0276396	13.0118
6.59516	11.7883	0	13.0118
6.59652	11.7883	0	13.0118
6.59657	11.8021	0.0276396	13.0118
6.68574	11.8297	0	13.0118
6.68631	11.8297	0	13.0118
6.68632	11.8436	0.0276396	13.0118
6.72072	11.8712	0	13.0118
6.72099	11.8712	0	13.0118
6.721	11.885	0.0276396	13.0118
6.74057	11.9127	0	13.0118
6.74069	11.9127	0	13.0118
6.74071	11.9265	0.0276396	13.0118
6.7506	11.9541	0	13.0118
6.75095	11.9541	0	13.0118
6.751	11.9679	0.0276396	13.0118
6.77018	11.9956	0	13.0118
6.77063	11.9956	0	13.0118
6.77064	11.9956	0.0276396	13.0118
6.78606	12.0232	0	13.0118
6.78623	12.0232	0	13.0118
6.7864	12.037	0.0276396	13.0118
6.80181	12.0647	0	13.0118
6.80314	12.0647	0	13.0118
6.80336	12.0785	0.0276396	13.0118
6.8352	12.1061	0	13.0118
6.83522	12.1061	0	13.0118
6.83524	12.1061	0.0276396	13.0118
6.83527	12.12	0.0552792	13.0118
6.83528	12.1476	0.0276396	13.0118
6.84307	12.1752	0	13.0118
6.84313	12.1752	0	13.0118
6.84314	12.1752	0.0552792	13.0118
6.84315	12.2029	0.0276396	13.0118
6.85593	12.2305	0	13.0118
6.87629	12.2305	0	13.0118
6.90228	12.2305	0	13.0118
6.91665	12.2305	0	13.1938
6.91786	12.2305	0	13.1938
6.91788	12.2305	0.0552792	13.1938
6.91789	12.2582	0.0276396	13.1938
6.93226	12.2858	0	13.1938
6.93297	12.2858	0	13.1938
6.93297	12.2996	0.0276396	13.1938
6.96333	12.3273	0	13.1938
6.96485	12.3273	0	13.1938
6.96488	12.3411	0.0276396	13.1938
6.99042	12.3687	0	13.1938
6.99145	12.3687	0	13.1938
6.99155	12.3825	0.0276396	13.1938
7.00034	12.4102	0	13.1938
7.05364	12.4102	0	13.3758
7.05417	12.4102	0	13.3758
7.05434	12.424	0.0276396	13.3758
7.06985	12.4516	0	13.3758
7.07904	12.4516	0	13.5578
7.07914	12.4516	0	13.5578
7.07918	12.4516	0.0552792	13.5578
7.07919	12.4793	0.0276396	13.5578
7.09313	12.5069	0	13.5578
7.09329	12.5069	0	13.5578
7.09332	12.5069	0.0276396	13.5578
7.0944	12.5069	0.0552792	13.5578
7.09443	12.5069	0.0829187	13.5578
7.09509	12.5069	0.110558	13.5578
7.09525	12.5069	0.138198	13.5578
7.09582	12.5069	0.165837	13.5578
7.13928	12.5069	0.193477	13.5578
7.1393	12.5069	0.193477	13.6488
7.13931	12.5345	0.165837	13.6488
7.13932	12.5622	0.138198	13.6488
7.13933	12.5898	0.110558	13.6488
7.13934	12.6175	0.0829187	13.6488
7.13934	12.6451	0.0552792	13.6488
7.13937	12.6727	0.0276396	13.6488
7.14414	12.7004	0	13.6488
7.15022	12.7004	0	13.8308
7.15039	12.7004	0	13.8308
7.15043	12.7142	0.0276396	13.8308
7.25463	12.7418	0	13.8308
7.25464	12.7418	0	13.8308
7.25497	12.7418	0.0276396	13.8308
7.25501	12.7557	0.0552792	13.8308
7.25502	12.7833	0.0276396	13.8308
7.25605	12.8109	0	13.8308
7.30423	12.8109	0	13.8308
7.30439	12.8109	0	13.8308
7.3044	12.8248	0.0276396	13.8308
7.31285	12.8524	0	13.8308
7.31296	12.8524	0	13.8308
7.31298	12.8524	0.0552792	13.8308
7.31303	12.88	0.0276396	13.8308
7.33313	12.9077	0	13.8308
7.36034	12.9077	0	13.9217
7.37868	12.9077	0	14.1037
7.40676	12.9077	0	14.2857
7.40713	12.9077	0	14.2857
7.40721	12.9215	0.0276396	14.2857
7.43361	12.9491	0	14.2857
7.43419	12.9491	0	14.2857
7.4342	12.963	0.0276396	14.2857
7.47059	12.9906	0	14.2857
7.51174	12.9906	0	14.3767
7.52033	12.9906	0	14.4677
7.52056	12.9906	0	14.4677
7.52057	12.9906	0.0552792	14.4677
7.52057	13.0182	0.0276396	14.4677
7.57535	13.0459	0	14.4677
7.5777	13.0459	0	14.4677
7.57776	13.0597	0.0276396	14.4677
7.61129	13.0873	0	14.4677
7.61176	13.0873	0	14.4677
7.6118	13.1012	0.0276396	14.4677
7.64725	13.1288	0	14.4677
7.65572	13.1288	0	14.5587
7.69439	13.1288	0	14.7407
7.69447	13.1288	0	14.7407
7.69448	13.1288	0.0552792	14.7407
7.69453	13.1564	0.0276396	14.7407
7.70302	13.1841	0	14.7407
7.7035	13.1841	0	14.7407
7.70357	13.1841	0.0552792	14.7407
7.70361	13.2117	0.0276396	14.7407
7.72226	13.2394	0	14.7407
7.73744	13.2394	0	14.7407
7.73762	13.2394	0	14.7407
7.74331	13.2394	0.0276396	14.7407
7.79915	13.2394	0.0276396	14.9227
7.79935	13.2394	0.0276396	14.9227
7.80022	13.267	0	14.9227
7.80025	13.2808	0.0276396	14.9227
7.84043	13.3085	0	14.9227
7.85864	13.3085	0	15.0136
7.85867	13.3085	0	15.0136
7.86026	13.3085	0.0276396	15.0136
7.86027	13.3223	0.0552792	15.0136
7.86029	13.3499	0.0276396	15.0136
7.87458	13.3776	0	15.0136
7.87575	13.3776	0	15.0136
7.87577	13.3776	0.0552792	15.0136
7.8758	13.4052	0.0276396	15.0136
7.89336	13.4328	0	15.0136
7.89405	13.4328	0	15.0136
7.89407	13.4328	0.0552792	15.0136
7.89409	13.4605	0.0276396	15.0136
7.8941	13.4605	0.0276396	15.0136
7.95787	13.4881	0	15.0136
7.96666	13.4881	0	15.1956
7.96833	13.4881	0	15.1956
7.96834	13.5019	0.0276396	15.1956
8.0233	13.5296	0	15.1956
8.02342	13.5296	0	15.1956
8.0235	13.5296	0.0276396	15.1956
8.1142	13.5572	0	15.1956
8.11457	13.5572	0	15.1956
8.11464	13.571	0.0276396	15.1956
8.12811	13.5987	0	15.1956
8.13465	13.5987	0	15.2866
8.13469	13.5987	0	15.2866
8.1347	13.6125	0.0276396	15.2866
8.13932	13.6401	0	15.2866
8.14018	13.6401	0	15.2866
8.14022	13.654	0.0276396	15.2866
8.1519	13.6816	0	15.2866
8.1614	13.6816	0	15.4686
8.16444	13.6816	0	15.5596
8.211	13.6816	0	15.7416
8.21105	13.6816	0	15.7416
8.21116	13.6816	0.0276396	15.7416
8.21117	13.6816	0.0829187	15.7416
8.21117	13.7092	0.0552792	15.7416
8.21119	13.7369	0.0276396	15.7416
8.26124	13.7645	0	15.7416
8.2615	13.7645	0	15.7416
8.2618	13.7645	0.0276396	15.7416
8.26188	13.7783	0.0552792	15.7416
8.26196	13.806	0.0276396	15.7416
8.27902	13.8336	0	15.7416
8.27964	13.8336	0	15.7416
8.27967	13.8474	0.0276396	15.7416
8.28368	13.8751	0	15.7416
8.28598	13.8751	0	15.9236
8.29604	13.8751	0	16.1056
8.3372	13.8751	0	16.2875
8.3373	13.8751	0	16.2875
8.3374	13.8889	0.0276396	16.2875
8.39731	13.9165	0	16.2875
8.39824	13.9165	0	16.2875
8.39838	13.9303	0.0276396	16.2875
8.40532	13.958	0	16.2875
8.40559	13.958	0	16.2875
8.40559	13.9718	0.0276396	16.2875
8.42171	13.9994	0	16.2875
8.42198	13.9994	0	16.2875
8.42199	13.9994	0.0552792	16.2875
8.42213	14.0271	0.0276396	16.2875
8.43069	14.0547	0	16.2875
8.43138	14.0547	0	16.2875
8.43138	14.0547	0.0552792	16.2875
8.4314	14.0824	0.0276396	16.2875
8.4723	14.11	0	16.2875
8.47231	14.11	0	16.2875
8.47232	14.11	0.0552792	16.2875
8.47253	14.1376	0.0276396	16.2875
8.48029	14.1653	0	16.2875
8.48143	14.1653	0	16.2875
8.4815	14.1791	0.0276396	16.2875
8.49143	14.2067	0	16.2875
8.49205	14.2067	0	16.2875
8.49218	14.2067	0.0276396	16.2875
8.4922	14.2206	0.0552792	16.2875
8.49223	14.2482	0.0276396	16.2875
8.49269	14.2758	0	16.2875
8.55293	14.2758	0	16.3785
8.55384	14.2758	0	16.3785
8.55386	14.2897	0.0276396	16.3785
8.55763	14.3173	0	16.3785
8.56592	14.3173	0	16.5605
8.56645	14.3173	0	16.5605
8.56646	14.3311	0.0276396	16.5605
8.66631	14.3588	0	16.5605
8.6741	14.3588	0	16.6515
8.67431	14.3588	0	16.6515
8.67434	14.3726	0.0276396	16.6515
8.68933	14.4002	0	16.6515
8.69083	14.4002	0	16.6515
8.69086	14.4002	0.0552792	16.6515
8.69087	14.4279	0.0276396	16.6515
8.70136	14.4555	0	16.6515
8.70186	14.4555	0	16.6515
8.70189	14.4555	0.0552792	16.6515
8.70192	14.4831	0.0276396	16.6515
8.75007	14.5108	0	16.6515
8.80954	14.5108	0	16.6515
8.80956	14.5108	0	16.6515
8.80958	14.5108	0.0552792	16.6515
8.80959	14.5384	0.0276396	16.6515
8.84066	14.5661	0	16.6515
8.84997	14.5661	0	16.8335
8.85011	14.5661	0	16.8335
8.85012	14.5661	0.0552792	16.8335
8.85019	14.5937	0.0276396	16.8335
8.85658	14.6213	0	16.8335
8.8566	14.6213	0	16.8335
8.85731	14.6213	0.0276396	16.8335
8.85778	14.6213	0.0276396	17.0155
8.85778	14.6352	0.0552792	17.0155
8.85781	14.6628	0.0276396	17.0155
8.8875	14.6904	0	17.0155
8.88761	14.6904	0	17.0155
8.88769	14.6904	0.0276396	17.0155
8.8877	14.7043	0.0552792	17.0155
8.88787	14.7319	0.0276396	17.0155
8.93009	14.7595	0	17.0155
8.93011	14.7595	0	17.0155
8.93017	14.7734	0.0276396	17.0155
8.94453	14.801	0	17.0155
8.95583	14.801	0	17.1065
8.95615	14.801	0	17.1065
8.95618	14.801	0.0276396	17.1065
8.95716	14.801	0.0552792	17.1065
8.95727	14.801	0.0829187	17.1065
8.9582	14.801	0.110558	17.1065
8.95835	14.801	0.138198	17.1065
8.95848	14.801	0.165837	17.1065
8.95863	14.801	0.193477	17.1065
8.95872	14.801	0.221117	17.1065
8.95873	14.801	0.248756	17.1065
8.95881	14.8286	0.221117	17.1065
8.95883	14.8286	0.248756	17.1065
8.95913	14.8563	0.221117	17.1065
8.95914	14.8563	0.248756	17.1065
8.95918	14.8839	0.221117	17.1065
8.95918	14.8839	0.276396	17.1065
8.95919	14.8839	0.276396	17.1065
8.95919	14.9116	0.248756	17.1065
8.95919	14.9392	0.221117	17.1065
8.9592	14.9668	0.193477	17.1065
8.9592	14.9945	0.165837	17.1065
8.9592	15.0221	0.138198	17.1065
8.95923	15.0498	0.110558	17.1065
8.95923	15.0774	0.0829187	17.1065
8.95923	15.105	0.0552792	17.1065
8.95943	15.105	0.0552792	17.1065
8.95944	15.1327	0.0276396	17.1065
8.97173	15.1603	0	17.1065
8.9723	15.1603	0	17.1065
8.9724	15.1603	0.0552792	17.1065
8.97241	15.1879	0.0276396	17.1065
8.99544	15.2156	0	17.1065
8.99631	15.2156	0	17.1065
8.99632	15.2294	0.0276396	17.1065
9.04058	15.257	0	17.1065
9.12125	15.257	0	17.2884
9.12137	15.257	0	17.2884
9.12139	15.2709	0.0276396	17.2884
9.17181	15.2985	0	17.2884
9.1723	15.2985	0	17.2884
9.17254	15.3123	0.0276396	17.2884
9.1917	15.34	0	17.2884
9.20699	15.34	0	17.4704
9.21894	15.34	0	17.5614
9.29409	15.34	0	17.6524
9.34394	15.34	0	17.8344
9.3445	15.34	0	17.8344
9.34454	15.3538	0.0276396	17.8344
9.39108	15.3814	0	17.8344
9.3983	15.3814	0	18.0164
9.39854	15.3814	0	18.0164
9.39908	15.3814	0.0276396	18.0164
9.39911	15.3952	0.0552792	18.0164
9.39912	15.4229	0.0276396	18.0164
9.46842	15.4505	0	18.0164
9.5246	15.4505	0	18.1984
9.52474	15.4505	0	18.1984
9.52476	15.4643	0.0276396	18.1984
9.53632	15.492	0	18.1984
9.55878	15.492	0	18.3803
9.57735	15.492	0	18.5623
9.57748	15.492	0	18.5623
9.5775	15.492	0.0276396	18.5623
9.57753	15.5058	0.0552792	18.5623
9.57755	15.5334	0.0276396	18.5623
9.5795	15.5611	0	18.5623
9.60537	15.5611	0	18.6533
9.65163	15.5611	0	18.8353
9.65184	15.5611	0	18.8353
9.65188	15.5749	0.0276396	18.8353
9.70491	15.6025	0	18.8353
9.77755	15.6025	0	18.8353
9.77789	15.6025	0	18.8353
9.77789	15.6025	0.0552792	18.8353
9.77794	15.6302	0.0276396	18.8353
9.78059	15.6578	0	18.8353
9.78086	15.6578	0	18.8353
9.78136	15.6578	0.0276396	18.8353
9.78137	15.6716	0.0552792	18.8353
9.78162	15.6993	0.0276396	18.8353
9.78821	15.7269	0	18.8353
9.80121	15.7269	0	19.0173
9.80123	15.7269	0	19.0173
9.80125	15.7407	0.0276396	19.0173
9.83405	15.7684	0	19.0173
9.83473	15.7684	0	19.0173
9.83478	15.7684	0.0552792	19.0173
9.8348	15.796	0.0276396	19.0173
9.84827	15.8237	0	19.0173
9.84834	15.8237	0	19.0173
9.84835	15.8375	0.0276396	19.0173
9.85725	15.8651	0	19.0173
9.85735	15.8651	0	19.0173
9.85736	15.8789	0.0276396	19.0173
9.85738	15.9066	0	19.0173
9.86409	15.9066	0	19.0173
9.86452	15.9066	0	19.0173
9.86457	15.9204	0.0276396	19.0173
9.87811	15.948	0	19.0173
9.96364	15.948	0	19.1083
9.96401	15.948	0	19.1083
9.96402	15.948	0.0552792	19.1083
9.96403	15.9757	0.0276396	19.1083
9.96756	16.0033	0	19.1083
9.96772	16.0033	0	19.1083
9.96772	16.0171	0.0276396	19.1083
9.97264	16.0448	0	19.1083
9.97291	16.0448	0	19.1083
9.97293	16.0586	0.0276396	19.1083
9.97687	16.0862	0	19.1083
9.97688	16.0862	0	19.1083
9.97906	16.0862	0.0276396	19.1083
9.97907	16.1001	0.0552792	19.1083
9.97913	16.1277	0.0276396	19.1083
10.0354	16.1553	0	19.1083
10.0357	16.1553	0	19.1083
10.0357	16.1553	0.0552792	19.1083
10.0358	16.183	0.0276396	19.1083
10.0458	16.2106	0	19.1083
10.0541	16.2106	0	19.2903
10.1265	16.2106	0	19.4722
10.1976	16.2106	0	19.5632
10.2002	16.2106	0	19.6542
10.2252	16.2106	0	19.8362
10.2255	16.2106	0	19.8362
10.2257	16.2106	0.0276396	19.8362
10.2257	16.2244	0.0552792	19.8362
10.2258	16.2521	0.0276396	19.8362
10.2309	16.2797	0	19.8362
10.3115	16.2797	0	19.9272
10.3853	16.2797	0	20.1092
10.4559	16.2797	0	20.2912
10.456	16.2797	0	20.2912
10.4561	16.2935	0.0276396	20.2912
10.4587	16.3212	0	20.2912
10.4587	16.3212	0	20.3822
10.465	16.3212	0	20.3822
10.4653	16.3212	0	20.3822
10.4658	16.3212	0.0276396	20.3822
10.4658	16.335	0.0552792	20.3822
10.4658	16.3626	0.0276396	20.3822
10.499	16.3903	0	20.3822
10.4993	16.3903	0	20.3822
10.4993	16.4041	0.0276396	20.3822
10.5108	16.4317	0	20.3822
10.5108	16.4317	0	20.5641
10.5275	16.4317	0	20.5641
10.5866	16.4317	0	20.5641
10.5961	16.4317	0	20.5641
10.6077	16.4317	0	20.7461
10.6129	16.4317	0	20.9281
10.6361	16.4317	0	21.1101
10.6364	16.4317	0	21.1101
10.6375	16.4317	0.0276396	21.1101
10.6375	16.4456	0.0552792	21.1101
10.6375	16.4732	0.0276396	21.1101
10.6834	16.5008	0	21.1101
10.9142	16.5008	0	21.2011
10.9145	16.5008	0	21.2011
10.9145	16.5146	0.0276396	21.2011
10.9364	16.5423	0	21.2011
10.9403	16.5423	0	21.2921
10.9404	16.5423	0	21.2921
10.9415	16.5423	0.0276396	21.2921
10.9418	16.5423	0.0552792	21.2921
10.9418	16.5423	0.0829187	21.2921
10.9419	16.5699	0.0552792	21.2921
10.9419	16.5976	0.0276396	21.2921
10.9714	16.6252	0	21.2921
10.9721	16.6252	0	21.2921
10.9721	16.6252	0.0552792	21.2921
10.9722	16.6528	0.0276396	21.2921
10.9993	16.6805	0	21.2921
10.9993	16.6805	0	21.2921
10.9993	16.6943	0.0276396	21.2921
11.004	16.7219	0	21.2921
11.0049	16.7219	0	21.2921
11.0049	16.7358	0.0276396	21.2921
11.0094	16.7634	0	21.2921
11.091	16.7634	0	21.4741
11.1596	16.7634	0	21.6561
11.1596	16.7634	0	21.6561
11.1596	16.7634	0.0552792	21.6561
11.1597	16.791	0.0276396	21.6561
11.2316	16.8187	0	21.6561
11.3126	16.8187	0	21.838
11.3126	16.8187	0	21.838
11.3127	16.8187	0.0552792	21.838
11.3127	16.8463	0.0276396	21.838
11.3911	16.874	0	21.838
11.3911	16.874	0	21.838
11.3911	16.874	0.0552792	21.838
11.3911	16.9016	0.0276396	21.838
11.4065	16.9292	0	21.838
11.516	16.9292	0	22.02
11.517	16.9292	0	22.02
11.517	16.9431	0.0276396	22.02
11.526	16.9707	0	22.02
11.5261	16.9707	0	22.02
11.5262	16.9707	0.0276396	22.02
11.5263	16.9707	0.0552792	22.02
11.5263	16.9845	0.0829187	22.02
11.5263	17.0122	0.0552792	22.02
11.5264	17.0398	0.0276396	22.02
11.5567	17.0674	0	22.02
11.5569	17.0674	0	22.02
11.5573	17.0674	0.0276396	22.02
11.5573	17.0813	0.0552792	22.02
11.5573	17.1089	0.0276396	22.02
11.5859	17.1365	0	22.02
11.5903	17.1365	0	22.202
11.5907	17.1365	0	22.202
11.5907	17.1365	0.0552792	22.202
11.5908	17.1642	0.0276396	22.202
11.6066	17.1918	0	22.202
11.6067	17.1918	0	22.202
11.6068	17.2056	0.0276396	22.202
11.6085	17.2333	0	22.202
11.6088	17.2333	0	22.202
11.6089	17.2333	0.0552792	22.202
11.6089	17.2609	0.0276396	22.202
11.6518	17.2886	0	22.202
11.6537	17.2886	0	22.202
11.6537	17.3024	0.0276396	22.202
11.659	17.33	0	22.202
11.7283	17.33	0	22.384
11.7284	17.33	0	22.384
11.7285	17.3438	0.0276396	22.384
11.7698	17.3715	0	22.384
11.7698	17.3715	0	22.384
11.7698	17.3853	0.0276396	22.384
11.7912	17.4129	0	22.384
11.8507	17.4129	0	22.566
11.8511	17.4129	0	22.566
11.8513	17.4268	0.0276396	22.566
11.8671	17.4544	0	22.566
11.9043	17.4544	0	22.657
11.9044	17.4544	0	22.657
11.9045	17.4544	0.0276396	22.657
11.9045	17.4682	0.0552792	22.657
11.9045	17.4959	0.0276396	22.657
12.0145	17.5235	0	22.657
12.0148	17.5235	0	22.657
12.0149	17.5373	0.0276396	22.657
12.0182	17.565	0	22.657
12.0248	17.565	0	22.8389
12.0252	17.565	0	22.8389
12.0253	17.5788	0.0276396	22.8389
12.1151	17.6064	0	22.8389
12.1154	17.6064	0	22.8389
12.1154	17.6202	0.0276396	22.8389
12.1193	17.6479	0	22.8389
12.1228	17.6479	0	23.0209
12.1229	17.6479	0	23.0209
12.1229	17.6479	0.0552792	23.0209
12.1229	17.6755	0.0276396	23.0209
12.162	17.7032	0	23.0209
12.1625	17.7032	0	23.0209
12.1625	17.717	0.0276396	23.0209
12.1858	17.7446	0	23.0209
12.1859	17.7446	0	23.0209
12.1859	17.7584	0.0276396	23.0209
12.1944	17.7861	0	23.0209
12.2386	17.7861	0	23.2029
12.2386	17.7861	0	23.2029
12.2386	17.7861	0.0552792	23.2029
12.2387	17.8137	0.0276396	23.2029
12.2931	17.8413	0	23.2029
12.2932	17.8413	0	23.2029
12.2932	17.8552	0.0276396	23.2029
12.2942	17.8828	0	23.2029
12.2945	17.8828	0	23.2029
12.2945	17.8828	0.0552792	23.2029
12.2946	17.9104	0.0276396	23.2029
12.3132	17.9381	0	23.2029
12.3451	17.9381	0	23.2939
12.3455	17.9381	0	23.2939
12.3455	17.9519	0.0276396	23.2939
12.3622	17.9795	0	23.2939
12.3622	17.9795	0	23.2939
12.3622	17.9934	0.0276396	23.2939
12.3878	18.021	0	23.2939
12.3933	18.021	0	23.4759
12.3935	18.021	0	23.4759
12.3936	18.0348	0.0276396	23.4759
12.4055	18.0625	0	23.4759
12.4056	18.0625	0	23.4759
12.4065	18.0625	0.0276396	23.4759
12.409	18.0625	0.0552792	23.4759
12.4096	18.0625	0.0829187	23.4759
12.4109	18.0625	0.110558	23.4759
12.4109	18.0625	0.138198	23.4759
12.4109	18.0901	0.110558	23.4759
12.4109	18.1177	0.0829187	23.4759
12.411	18.1454	0.0552792	23.4759
12.411	18.173	0.0276396	23.4759
12.4909	18.2007	0	23.4759
12.5033	18.2007	0	23.5669
12.5033	18.2007	0	23.5669
12.5033	18.2145	0.0276396	23.5669
12.704	18.2421	0	23.5669
12.7044	18.2421	0	23.5669
12.7044	18.2559	0.0276396	23.5669
13.0017	18.2836	0	23.5669
13.0018	18.2836	0	23.5669
13.0018	18.2974	0.0276396	23.5669
13.0062	18.325	0	23.5669
13.0069	18.325	0	23.5669
13.0069	18.325	0.0552792	23.5669
13.007	18.3527	0.0276396	23.5669
13.1115	18.3803	0	23.5669
13.1118	18.3803	0	23.5669
13.1119	18.3941	0.0276396	23.5669
13.119	18.4218	0	23.5669
13.1193	18.4218	0	23.5669
13.1196	18.4218	0.0276396	23.5669
13.1198	18.4218	0.0552792	23.5669
13.1203	18.4218	0.0829187	23.5669
13.1203	18.4356	0.110558	23.5669
13.1204	18.4632	0.0829187	23.5669
13.1204	18.4909	0.0552792	23.5669
13.1204	18.5185	0.0276396	23.5669
13.1338	18.5462	0	23.5669
13.1343	18.5462	0	23.5669
13.1343	18.5462	0.0552792	23.5669
13.1344	18.5738	0.0276396	23.5669
13.1532	18.6014	0	23.5669
13.1545	18.6014	0	23.5669
13.1546	18.6014	0.0552792	23.5669
13.1546	18.6291	0.0276396	23.5669
13.2368	18.6567	0	23.5669
13.2849	18.6567	0	23.7489
13.2859	18.6567	0	23.7489
13.286	18.6705	0.0276396	23.7489
13.3391	18.6982	0	23.7489
13.3392	18.6982	0	23.7489
13.3392	18.6982	0.0552792	23.7489
13.3392	18.7258	0.0276396	23.7489
13.3867	18.7535	0	23.7489
13.3874	18.7535	0	23.7489
13.3874	18.7673	0.0276396	23.7489
13.3875	18.7673	0.0276396	23.7489
13.4443	18.7949	0	23.7489
13.4561	18.7949	0	23.9308
13.4572	18.7949	0	23.9308
13.4572	18.8087	0.0276396	23.9308
13.4729	18.8364	0	23.9308
13.4731	18.8364	0	23.9308
13.4732	18.8502	0.0276396	23.9308
13.4759	18.8778	0	23.9308
13.4784	18.8778	0	23.9308
13.4785	18.8917	0.0276396	23.9308
13.5134	18.9193	0	23.9308
13.514	18.9193	0	23.9308
13.5147	18.9193	0.0276396	23.9308
13.5147	18.9331	0.0552792	23.9308
13.5147	18.9608	0.0276396	23.9308
13.515	18.9884	0	23.9308
13.5155	18.9884	0	23.9308
13.5155	19.0022	0.0276396	23.9308
13.532	19.0299	0	23.9308
13.5326	19.0299	0	23.9308
13.5327	19.0437	0.0276396	23.9308
13.5621	19.0713	0	23.9308
13.5625	19.0713	0	23.9308
13.5627	19.0713	0.0276396	23.9308
13.5633	19.0713	0.0552792	23.9308
13.5638	19.0713	0.0829187	23.9308
13.5639	19.0713	0.110558	23.9308
13.5649	19.0713	0.138198	23.9308
13.5652	19.0713	0.165837	23.9308
13.5652	19.0713	0.193477	23.9308
13.8105	19.0713	0.221117	23.9308
13.8105	19.0713	0.221117	24.0218
13.8105	19.0989	0.193477	24.0218
13.8105	19.1266	0.165837	24.0218
13.8105	19.1542	0.138198	24.0218
13.8105	19.1819	0.110558	24.0218
13.8105	19.2095	0.0829187	24.0218
13.8106	19.2371	0.0552792	24.0218
13.8106	19.2648	0.0276396	24.0218
13.8106	19.2648	0.0276396	24.0218
13.9982	19.2924	0	24.0218
13.9983	19.2924	0	24.0218
13.9987	19.2924	0.0276396	24.0218
13.9988	19.2924	0.0552792	24.0218
13.9994	19.2924	0.0829187	24.0218
13.9994	19.2924	0.138198	24.0218
13.9994	19.3201	0.110558	24.0218
13.9994	19.3477	0.0829187	24.0218
13.9994	19.3753	0.0552792	24.0218
13.9995	19.403	0.0276396	24.0218
14.0444	19.4306	0	24.0218
14.1476	19.4306	0	24.2038
14.1483	19.4306	0	24.2038
14.1483	19.4444	0.0276396	24.2038
14.1576	19.4721	0	24.2038
14.1584	19.4721	0	24.2038
14.1584	19.4721	0.0552792	24.2038
14.1585	19.4997	0.0276396	24.2038
14.1802	19.5274	0	24.2038
14.181	19.5274	0	24.2038
14.1813	19.5274	0.0276396	24.2038
14.1815	19.5274	0.0552792	24.2038
14.1821	19.5274	0.0829187	24.2038
14.4187	19.5274	0.110558	24.2038
14.4187	19.5274	0.110558	24.2038
14.4188	19.555	0.0829187	24.2038
14.4188	19.5826	0.0552792	24.2038
14.4189	19.6103	0.0276396	24.2038
14.4197	19.6379	0	24.2038
14.4198	19.6517	0.0276396	24.2038
14.4294	19.6794	0	24.2038
14.4294	19.6794	0	24.2038
14.4295	19.6794	0.0552792	24.2038
14.4295	19.707	0.0276396	24.2038
14.4948	19.7347	0	24.2038
14.4951	19.7347	0	24.2038
14.4951	19.7347	0.0276396	24.2038
14.4951	19.7485	0.0552792	24.2038
14.4952	19.7761	0.0276396	24.2038
14.5022	19.8038	0	24.2038
14.5023	19.8038	0	24.2038
14.5023	19.8176	0.0276396	24.2038
14.5189	19.8452	0	24.2038
14.5193	19.8452	0	24.2038
14.5196	19.8452	0.0276396	24.2038
14.5196	19.859	0.0552792	24.2038
14.5196	19.8867	0.0276396	24.2038
14.581	19.9143	0	24.2038
14.5819	19.9143	0	24.2038
14.5819	19.9143	0.0552792	24.2038
14.5819	19.942	0.0276396	24.2038
14.613	19.9696	0	24.2038
14.6139	19.9696	0	24.3858
14.6146	19.9696	0	24.3858
14.6146	19.9834	0.0276396	24.3858
14.6666	20.0111	0	24.3858
14.7012	20.0111	0	24.5678
14.7018	20.0111	0	24.5678
14.7018	20.0249	0.0276396	24.5678
14.7577	20.0525	0	24.5678
14.8965	20.0525	0	24.7498
14.9164	20.0525	0	24.9318
14.9178	20.0525	0	24.9318
14.9178	20.0525	0.0552792	24.9318
14.9179	20.0802	0.0276396	24.9318
14.9215	20.1078	0	24.9318
14.9216	20.1078	0	24.9318
14.9216	20.1078	0.0552792	24.9318
14.9216	20.1354	0.0276396	24.9318
14.9565	20.1631	0	24.9318
14.9567	20.1631	0	24.9318
14.9567	20.1631	0.0276396	24.9318
14.9959	20.1907	0	24.9318
14.9978	20.1907	0	24.9318
14.9979	20.1907	0.0552792	24.9318
14.9979	20.2184	0.0276396	24.9318
14.9997	20.246	0	24.9318
15.0009	20.246	0	24.9318
15.0011	20.246	0.0276396	24.9318
15.0017	20.246	0.0552792	24.9318
15.0019	20.246	0.0829187	24.9318
15.002	20.246	0.110558	24.9318
15.002	20.2598	0.138198	24.9318
15.002	20.2875	0.110558	24.9318
15.002	20.3151	0.0829187	24.9318
15.002	20.3427	0.0552792	24.9318
15.0021	20.3704	0.0276396	24.9318
15.1443	20.398	0	24.9318
15.1445	20.398	0	24.9318
15.1445	20.4118	0.0276396	24.9318
15.2722	20.4395	0	24.9318
15.2724	20.4395	0	24.9318
15.2724	20.4533	0.0276396	24.9318
15.284	20.4809	0	24.9318
15.3711	20.4809	0	25.1137
15.3715	20.4809	0	25.1137
15.3715	20.4947	0.0276396	25.1137
15.4275	20.5224	0	25.1137
15.4277	20.5224	0	25.1137
15.4277	20.5362	0.0276396	25.1137
15.4402	20.5638	0	25.1137
15.4602	20.5638	0	25.2957
15.5156	20.5638	0	25.4777
15.5161	20.5638	0	25.4777
15.5161	20.5777	0.0276396	25.4777
15.5535	20.6053	0	25.4777
15.5546	20.6053	0	25.4777
15.5546	20.6191	0.0276396	25.4777
15.6019	20.6468	0	25.4777
15.6047	20.6468	0	25.4777
15.6047	20.6468	0.0552792	25.4777
15.6049	20.6744	0.0276396	25.4777
15.6178	20.702	0	25.4777
15.6182	20.702	0	25.4777
15.6182	20.7159	0.0276396	25.4777
15.6418	20.7435	0	25.4777
15.6896	20.7435	0	25.6597
15.6896	20.7435	0	25.6597
15.6903	20.7435	0.0276396	25.6597
15.6904	20.7573	0.0552792	25.6597
15.6904	20.785	0.0276396	25.6597
15.816	20.8126	0	25.6597
15.8161	20.8126	0	25.6597
15.8162	20.8126	0.0552792	25.6597
15.8162	20.8402	0.0276396	25.6597
15.8944	20.8679	0	25.6597
15.8946	20.8679	0	25.6597
15.8946	20.8679	0.0552792	25.6597
15.8947	20.8955	0.0276396	25.6597
15.9948	20.9232	0	25.6597
16.0139	20.9232	0	25.7507
16.0156	20.9232	0	25.7507
16.0156	20.937	0.0276396	25.7507
16.1234	20.9646	0	25.7507
16.124	20.9646	0	25.7507
16.1241	20.9784	0.0276396	25.7507
16.1719	21.0061	0	25.7507
16.1719	21.0061	0	25.7507
16.172	21.0199	0.0276396	25.7507
16.4024	21.0475	0	25.7507
16.4039	21.0475	0	25.7507
16.4039	21.0614	0.0276396	25.7507
16.4754	21.089	0	25.7507
16.4755	21.089	0	25.7507
16.4755	21.1028	0.0276396	25.7507
16.6354	21.1305	0	25.7507
16.6367	21.1305	0	25.7507
16.6367	21.1443	0.0276396	25.7507
16.7709	21.1719	0	25.7507
16.7711	21.1719	0	25.7507
16.7711	21.1719	0.0552792	25.7507
16.7711	21.1996	0.0276396	25.7507
17.0324	21.2272	0	25.7507
17.0326	21.2272	0	25.7507
17.0326	21.241	0.0276396	25.7507
17.2162	21.2687	0	25.7507
17.2165	21.2687	0	25.7507
17.2165	21.2687	0.0552792	25.7507
17.2165	21.2963	0.0276396	25.7507
17.4522	21.3239	0	25.7507
17.4524	21.3239	0	25.7507
17.4524	21.3239	0.0552792	25.7507
17.4524	21.3516	0.0276396	25.7507
17.5015	21.3792	0	25.7507
17.5017	21.3792	0	25.7507
17.5017	21.3792	0.0552792	25.7507
17.5017	21.4069	0.0276396	25.7507
17.5747	21.4345	0	25.7507
17.5749	21.4345	0	25.7507
17.575	21.4345	0.0552792	25.7507
17.575	21.4621	0.0276396	25.7507
17.5769	21.4898	0	25.7507
17.5769	21.4898	0	25.7507
17.577	21.4898	0	25.7507
17.577	21.5036	0.0276396	25.7507
17.5771	21.5312	0	25.7507
17.5772	21.5312	0.0552792	25.7507
17.5772	21.5589	0.0276396	25.7507
17.6087	21.5865	0	25.7507
17.6094	21.5865	0	25.7507
17.6094	21.5865	0.0552792	25.7507
17.6096	21.6142	0.0276396	25.7507
17.8803	21.6418	0	25.7507
17.8804	21.6418	0	25.7507
17.8805	21.6556	0.0276396	25.7507
17.9104	21.6833	0	25.7507
17.9112	21.6833	0	25.7507
17.9112	21.6833	0.0552792	25.7507
17.9113	21.7109	0.0276396	25.7507
18.0863	21.7385	0	25.7507
18.1077	21.7385	0	25.9327
18.1079	21.7385	0	25.9327
18.108	21.7523	0.0276396	25.9327
18.1283	21.78	0	25.9327
18.1287	21.78	0	25.9327
18.1288	21.7938	0.0276396	25.9327
18.138	21.8214	0	25.9327
18.1392	21.8214	0	25.9327
18.1392	21.8214	0.0552792	25.9327
18.1393	21.8491	0.0276396	25.9327
18.2021	21.8767	0	25.9327
18.2022	21.8767	0	25.9327
18.2022	21.8905	0.0276396	25.9327
18.2744	21.9182	0	25.9327
18.3168	21.9182	0	26.1146
18.317	21.9182	0	26.1146
18.3171	21.932	0.0276396	26.1146
18.4564	21.9596	0	26.1146
18.4839	21.9596	0	26.2966
18.5281	21.9596	0	26.4786
18.5295	21.9596	0	26.4786
18.5295	21.9596	0.0552792	26.4786
18.5296	21.9873	0.0276396	26.4786
18.5805	22.0149	0	26.4786
18.5811	22.0149	0	26.4786
18.5824	22.0149	0.0276396	26.4786
18.5824	22.0287	0.0552792	26.4786
18.5824	22.0564	0.0276396	26.4786
18.6115	22.084	0	26.4786
18.6118	22.084	0	26.4786
18.6125	22.084	0.0276396	26.4786
18.6125	22.0978	0.0552792	26.4786
18.6125	22.1255	0.0276396	26.4786
18.6951	22.1531	0	26.4786
18.6954	22.1531	0	26.4786
18.6954	22.1531	0.0552792	26.4786
18.6954	22.1808	0.0276396	26.4786
18.825	22.2084	0	26.4786
18.8252	22.2084	0	26.4786
18.8252	22.2222	0.0276396	26.4786
18.8602	22.2499	0	26.4786
18.8602	22.2499	0	26.4786
18.8605	22.2499	0.0276396	26.4786
18.8606	22.2637	0.0552792	26.4786
18.8606	22.2913	0.0276396	26.4786
18.982	22.319	0	26.4786
18.982	22.319	0	26.4786
18.982	22.3328	0.0276396	26.4786
19.0253	22.3604	0	26.4786
19.0253	22.3604	0	26.4786
19.0254	22.3742	0.0276396	26.4786
19.0441	22.4019	0	26.4786
19.045	22.4019	0	26.4786
19.045	22.4157	0.0276396	26.4786
19.1001	22.4433	0	26.4786
19.1002	22.4433	0	26.4786
19.1006	22.4433	0.0276396	26.4786
19.1006	22.4572	0.0552792	26.4786
19.1006	22.4848	0.0276396	26.4786
19.1544	22.5124	0	26.4786
19.1544	22.5124	0	26.4786
19.1544	22.5124	0.0552792	26.4786
19.1545	22.5401	0.0276396	26.4786
19.2646	22.5677	0	26.4786
19.2647	22.5677	0	26.6606
19.265	22.5677	0	26.6606
19.265	22.5677	0.0552792	26.6606
19.2651	22.5954	0.0276396	26.6606
19.2692	22.623	0	26.6606
19.2694	22.623	0	26.6606
19.2694	22.6368	0.0276396	26.6606
19.4427	22.6645	0	26.6606
19.4433	22.6645	0	26.6606
19.4433	22.6783	0.0276396	26.6606
19.4565	22.7059	0	26.6606
19.4566	22.7059	0	26.6606
19.4567	22.7197	0.0276396	26.6606
19.7304	22.7474	0	26.6606
19.7305	22.7474	0	26.6606
19.7305	22.7474	0.0552792	26.6606
19.7305	22.775	0.0276396	26.6606
19.7686	22.8027	0	26.6606
19.7689	22.8027	0	26.6606
19.769	22.8027	0.0552792	26.6606
19.7691	22.8303	0.0276396	26.6606
19.9122	22.8579	0	26.6606
19.9136	22.8579	0	26.6606
19.9136	22.8718	0.0276396	26.6606
20.1105	22.8994	0	26.6606
20.1606	22.8994	0	26.8426
20.1608	22.8994	0	26.8426
20.1608	22.8994	0.0552792	26.8426
20.1609	22.927	0.0276396	26.8426
20.2537	22.9547	0	26.8426
20.2547	22.9547	0	26.8426
20.2547	22.9547	0.0552792	26.8426
20.2548	22.9823	0.0276396	26.8426
20.2633	23.01	0	26.8426
20.2635	23.01	0	26.8426
20.2635	23.01	0.0552792	26.8426
20.2636	23.0376	0.0276396	26.8426
20.36	23.0652	0	26.8426
20.3601	23.0652	0	26.8426
20.3601	23.0652	0.0552792	26.8426
20.3602	23.0929	0.0276396	26.8426
20.3925	23.1205	0	26.8426
20.3936	23.1205	0	26.8426
20.3936	23.1205	0.0552792	26.8426
20.3937	23.1481	0.0276396	26.8426
20.4078	23.1758	0	26.8426
20.408	23.1758	0	26.8426
20.408	23.1758	0.0552792	26.8426
20.4081	23.2034	0.0276396	26.8426
20.5652	23.2311	0	26.8426
20.5704	23.2311	0	27.0246
20.5705	23.2311	0	27.0246
20.5706	23.2449	0.0276396	27.0246
20.6751	23.2725	0	27.0246
20.6753	23.2725	0	27.0246
20.6754	23.2863	0.0276396	27.0246
20.7794	23.314	0	27.0246
20.7796	23.314	0	27.0246
20.7797	23.3278	0.0276396	27.0246
20.7841	23.3554	0	27.0246
20.7889	23.3554	0	27.2066
20.8872	23.3554	0	27.2975
20.8876	23.3554	0	27.2975
20.8877	23.3554	0.0552792	27.2975
20.8877	23.3831	0.0276396	27.2975
20.8951	23.4107	0	27.2975
20.8966	23.4107	0	27.2975
20.8966	23.4245	0.0276396	27.2975
21.0151	23.4522	0	27.2975
21.0154	23.4522	0	27.2975
21.0268	23.4522	0.0276396	27.2975
21.0268	23.4522	0.0276396	27.2975
21.0268	23.466	0.0552792	27.2975
21.3408	23.4936	0.0276396	27.2975
21.3409	23.4936	0.0276396	27.2975
21.3411	23.5213	0	27.2975
21.3412	23.5213	0.0552792	27.2975
21.3412	23.5489	0.0276396	27.2975
21.3451	23.5766	0	27.2975
21.3453	23.5766	0	27.2975
21.3457	23.5766	0.0276396	27.2975
21.3462	23.5766	0.0552792	27.2975
21.3462	23.5766	0.0829187	27.2975
21.3462	23.6042	0.0552792	27.2975
21.3463	23.6318	0.0276396	27.2975
21.4023	23.6595	0	27.2975
21.4027	23.6595	0	27.2975
21.4028	23.6595	0.0276396	27.2975
21.4028	23.6733	0.0552792	27.2975
21.4028	23.7009	0.0276396	27.2975
22.2465	23.7286	0	27.2975
22.2474	23.7286	0	27.2975
22.2474	23.7424	0.0276396	27.2975
22.3062	23.77	0	27.2975
22.3067	23.77	0	27.2975
22.3067	23.77	0.0552792	27.2975
22.3067	23.7977	0.0276396	27.2975
22.3863	23.8253	0	27.2975
22.3864	23.8253	0	27.2975
22.3869	23.8253	0.0276396	27.2975
22.387	23.8391	0.0552792	27.2975
22.387	23.8668	0.0276396	27.2975
22.5264	23.8944	0	27.2975
22.5269	23.8944	0	27.2975
22.5269	23.8944	0.0552792	27.2975
22.5271	23.9221	0.0276396	27.2975
22.6626	23.9497	0	27.2975
22.6739	23.9497	0	27.4795
22.6739	23.9497	0	27.4795
22.6741	23.9635	0.0276396	27.4795
22.7171	23.9912	0	27.4795
22.7176	23.9912	0	27.4795
22.7176	23.9912	0.0276396	27.4795
22.7177	24.005	0.0552792	27.4795
22.7177	24.0326	0.0276396	27.4795
22.7711	24.0603	0	27.4795
22.7711	24.0603	0	27.4795
22.7711	24.0603	0.0552792	27.4795
22.7712	24.0879	0.0276396	27.4795
22.823	24.1155	0	27.4795
22.8234	24.1155	0	27.4795
22.8234	24.1294	0.0276396	27.4795
23.029	24.157	0	27.4795
23.0295	24.157	0	27.4795
23.0296	24.157	0.0552792	27.4795
23.0296	24.1846	0.0276396	27.4795
23.065	24.2123	0	27.4795
23.0653	24.2123	0	27.4795
23.0654	24.2261	0.0276396	27.4795
23.2792	24.2537	0	27.4795
23.28	24.2537	0	27.4795
23.2801	24.2676	0.0276396	27.4795
23.3357	24.2952	0	27.4795
23.336	24.2952	0	27.4795
23.336	24.2952	0.0552792	27.4795
23.336	24.3228	0.0276396	27.4795
23.4012	24.3505	0	27.4795
23.4016	24.3505	0	27.4795
23.4016	24.3505	0.0552792	27.4795
23.4016	24.3781	0.0276396	27.4795
23.589	24.4057	0	27.4795
23.5893	24.4057	0	27.4795
23.5893	24.4057	0.0552792	27.4795
23.5894	24.4334	0.0276396	27.4795
23.7065	24.461	0	27.4795
23.7065	24.461	0	27.4795
23.7065	24.461	0.0552792	27.4795
23.7066	24.4887	0.0276396	27.4795
23.9142	24.5163	0	27.4795
23.9143	24.5163	0	27.4795
23.9143	24.5301	0.0276396	27.4795
24.0825	24.5578	0	27.4795
24.2853	24.5578	0	27.6615
24.2857	24.5578	0	27.6615
24.2857	24.5578	0.0552792	27.6615
24.2857	24.5854	0.0276396	27.6615
24.4452	24.613	0	27.6615
24.4457	24.613	0	27.6615
24.4462	24.613	0.0276396	27.6615
24.4462	24.6269	0.0552792	27.6615
24.4462	24.6545	0.0276396	27.6615
24.4557	24.6821	0	27.6615
24.7302	24.6821	0	27.8435
24.7304	24.6821	0	27.8435
24.7304	24.696	0.0276396	27.8435
24.9111	24.7236	0	27.8435
24.9113	24.7236	0	27.8435
24.9114	24.7374	0.0276396	27.8435
25.2057	24.7651	0	27.8435
25.2059	24.7651	0	27.8435
25.2059	24.7651	0.0552792	27.8435
25.2059	24.7927	0.0276396	27.8435
25.2549	24.8203	0	27.8435
25.2553	24.8203	0	27.8435
25.2553	24.8203	0.0552792	27.8435
25.2553	24.848	0.0276396	27.8435
25.2996	24.8756	0	27.8435
25.3004	24.8756	0	27.8435
25.3004	24.8756	0.0552792	27.8435
25.3005	24.9033	0.0276396	27.8435
25.5186	24.9309	0	27.8435
25.5186	24.9309	0	27.8435
25.5186	24.9447	0.0276396	27.8435
25.5694	24.9724	0	27.8435
25.5697	24.9724	0	27.8435
25.5697	24.9724	0.0552792	27.8435
25.5697	25	0.0276396	27.8435
25.7447	25.0276	0	27.8435
25.7459	25.0276	0	27.8435
25.7459	25.0415	0.0276396	27.8435
25.8727	25.0691	0	27.8435
25.8732	25.0691	0	27.8435
25.8732	25.0829	0.0276396	27.8435
26.0445	25.1106	0	27.8435
26.0448	25.1106	0	27.8435
26.0469	25.1106	0.0276396	27.8435
26.0469	25.1106	0.0552792	27.8435
26.0475	25.1106	0.0829187	27.8435
26.0481	25.1106	0.110558	27.8435
26.4594	25.1106	0.138198	27.8435
26.4594	25.1106	0.138198	27.8435
26.4594	25.1382	0.110558	27.8435
26.4595	25.1658	0.0829187	27.8435
26.4595	25.1935	0.0552792	27.8435
26.4595	25.2211	0.0276396	27.8435
26.4598	25.2488	0	27.8435
26.4598	25.2488	0.0552792	27.8435
26.46	25.2764	0.0276396	27.8435
26.7104	25.304	0	27.8435
26.7857	25.304	0	28.0255
26.7869	25.304	0	28.0255
26.7869	25.3179	0.0276396	28.0255
26.857	25.3455	0	28.0255
26.857	25.3455	0	28.0255
26.8571	25.3593	0.0276396	28.0255
27.0444	25.387	0	28.0255
27.4663	25.387	0	28.2075
27.4713	25.387	0	28.3894
27.4717	25.387	0	28.3894
27.4719	25.387	0.0276396	28.3894
27.4719	25.4008	0.0552792	28.3894
27.4719	25.4284	0.0276396	28.3894
27.8222	25.4561	0	28.3894
27.8223	25.4561	0	28.3894
27.8224	25.4699	0.0276396	28.3894
27.8438	25.4975	0	28.3894
27.8441	25.4975	0	28.3894
27.8442	25.4975	0.0552792	28.3894
27.8442	25.5252	0.0276396	28.3894
28.0571	25.5528	0	28.3894
28.0585	25.5528	0	28.3894
28.0586	25.5528	0.0552792	28.3894
28.0586	25.5804	0.0276396	28.3894
28.111	25.6081	0	28.3894
28.1117	25.6081	0	28.3894
28.1118	25.6219	0.0276396	28.3894
28.2753	25.6495	0	28.3894
28.2759	25.6495	0	28.3894
28.276	25.6495	0.0276396	28.3894
28.276	25.6633	0.0552792	28.3894
28.2761	25.691	0.0276396	28.3894
28.3324	25.7186	0	28.3894
28.3328	25.7186	0	28.3894
28.3328	25.7324	0.0276396	28.3894
28.3521	25.7601	0	28.3894
28.3527	25.7601	0	28.3894
28.3527	25.7601	0.0552792	28.3894
28.3528	25.7877	0.0276396	28.3894
28.5647	25.8154	0	28.3894
28.5647	25.8154	0	28.3894
28.5648	25.8292	0.0276396	28.3894
28.8106	25.8568	0	28.3894
28.8111	25.8568	0	28.3894
28.8112	25.8706	0.0276396	28.3894
28.9584	25.8983	0	28.3894
28.9585	25.8983	0	28.3894
28.9585	25.9121	0.0276396	28.3894
28.9847	25.9397	0	28.3894
28.985	25.9397	0	28.3894
28.985	25.9397	0.0552792	28.3894
28.985	25.9674	0.0276396	28.3894
29.0402	25.995	0	28.3894
29.0409	25.995	0	28.3894
29.0409	25.995	0.0552792	28.3894
29.0409	26.0227	0.0276396	28.3894
29.0637	26.0503	0	28.3894
29.0637	26.0503	0	28.3894
29.0637	26.0503	0.0552792	28.3894
29.0637	26.0779	0.0276396	28.3894
29.3439	26.1056	0	28.3894
29.467	26.1056	0	28.5714
29.4672	26.1056	0	28.5714
29.4674	26.1056	0.0276396	28.5714
29.4675	26.1056	0.0552792	28.5714
29.4678	26.1056	0.0829187	28.5714
29.4678	26.1056	0.138198	28.5714
29.4678	26.1332	0.110558	28.5714
29.4678	26.1609	0.0829187	28.5714
29.4678	26.1885	0.0552792	28.5714
29.4679	26.2161	0.0276396	28.5714
29.7896	26.2438	0	28.5714
29.7899	26.2438	0	28.5714
29.7899	26.2576	0.0276396	28.5714
29.8431	26.2852	0	28.5714
29.8432	26.2852	0	28.5714
29.8436	26.2852	0.0276396	28.5714
29.8436	26.2991	0.0552792	28.5714
29.8436	26.3267	0.0276396	28.5714
30.0115	26.3543	0	28.5714
30.0116	26.3543	0	28.5714
30.0116	26.3682	0.0276396	28.5714
30.1968	26.3958	0	28.5714
30.1981	26.3958	0	28.5714
30.1982	26.3958	0.0276396	28.5714
30.1982	26.4096	0.0552792	28.5714
30.1983	26.4373	0.0276396	28.5714
30.216	26.4649	0	28.5714
30.2164	26.4649	0	28.5714
30.2165	26.4649	0.0552792	28.5714
30.2165	26.4925	0.0276396	28.5714
30.2526	26.5202	0	28.5714
30.2528	26.5202	0	28.5714
30.2529	26.534	0.0276396	28.5714
30.3295	26.5616	0	28.5714
30.3315	26.5616	0	28.5714
30.3316	26.5755	0.0276396	28.5714
30.4164	26.6031	0	28.5714
30.4173	26.6031	0	28.5714
30.4173	26.6031	0.0552792	28.5714
30.4174	26.6307	0.0276396	28.5714
30.6314	26.6584	0	28.5714
30.6317	26.6584	0	28.5714
30.6317	26.6584	0.0552792	28.5714
30.6317	26.686	0.0276396	28.5714
31.299	26.7137	0	28.5714
31.2995	26.7137	0	28.5714
31.2995	26.7275	0.0276396	28.5714
31.5056	26.7551	0	28.5714
31.5067	26.7551	0	28.5714
31.5067	26.7551	0.0552792	28.5714
31.5067	26.7828	0.0276396	28.5714
31.7352	26.8104	0	28.5714
31.8124	26.8104	0	28.7534
31.8133	26.8104	0	28.7534
31.8134	26.8104	0.0276396	28.7534
31.8134	26.8242	0.0552792	28.7534
31.8135	26.8519	0.0276396	28.7534
32.1812	26.8795	0	28.7534
32.1815	26.8795	0	28.7534
32.1815	26.8795	0.0552792	28.7534
32.1815	26.9071	0.0276396	28.7534
32.5334	26.9348	0	28.7534
32.5336	26.9348	0	28.7534
32.5336	26.9486	0.0276396	28.7534
33.9442	26.9762	0	28.7534
33.9445	26.9762	0	28.7534
33.9446	26.9762	0.0552792	28.7534
33.9446	27.0039	0.0276396	28.7534
35.3174	27.0315	0	28.7534
35.3176	27.0315	0	28.7534
35.3176	27.0315	0.0552792	28.7534
35.3176	27.0591	0.0276396	28.7534
36.1717	27.0868	0	28.7534
36.1718	27.0868	0	28.7534
36.1718	27.0868	0.0552792	28.7534
36.172	27.1144	0.0276396	28.7534
36.7581	27.1421	0	28.7534
36.7582	27.1421	0	28.7534
36.7582	27.1559	0.0276396	28.7534
38.1479	27.1835	0	28.7534
38.1481	27.1835	0	28.7534
38.1481	27.1973	0.0276396	28.7534
38.5644	27.225	0	28.7534
38.5649	27.225	0	28.7534
38.5651	27.2388	0.0276396	28.7534
39.0932	27.2664	0	28.7534
39.0938	27.2664	0	28.7534
39.0939	27.2803	0.0276396	28.7534
39.1117	27.3079	0	28.7534
39.1119	27.3079	0	28.7534
39.1119	27.3217	0.0276396	28.7534
39.1635	27.3494	0	28.7534
39.1635	27.3494	0	28.7534
39.1635	27.3494	0.0552792	28.7534
39.1636	27.377	0.0276396	28.7534
39.833	27.4046	0	28.7534
39.8335	27.4046	0	28.7534
39.8335	27.4046	0.0552792	28.7534
39.8336	27.4323	0.0276396	28.7534
39.8527	27.4599	0	28.7534
39.8531	27.4599	0	28.7534
39.8531	27.4599	0.0552792	28.7534
39.8532	27.4876	0.0276396	28.7534
40.0924	27.5152	0	28.7534
40.0926	27.5152	0	28.7534
40.0926	27.5152	0.0552792	28.7534
40.0928	27.5428	0.0276396	28.7534
40.6803	27.5705	0	28.7534
40.6803	27.5705	0	28.7534
40.6806	27.5705	0.0276396	28.7534
41.2523	27.5705	0.0552792	28.7534
41.2524	27.5705	0.0552792	28.7534
41.2525	27.5981	0.0276396	28.7534
41.2527	27.6258	0	28.7534
41.2529	27.6396	0.0276396	28.7534
41.6775	27.6672	0	28.7534
41.6785	27.6672	0	28.7534
41.6786	27.6672	0.0552792	28.7534
41.6786	27.6949	0.0276396	28.7534
42.5762	27.7225	0	28.7534
42.5768	27.7225	0	28.7534
42.5768	27.7225	0.0552792	28.7534
42.5768	27.7501	0.0276396	28.7534
42.941	27.7778	0	28.7534
42.9413	27.7778	0	28.7534
42.9414	27.7916	0.0276396	28.7534
44.5413	27.8192	0	28.7534
44.5427	27.8192	0	28.7534
44.5427	27.8331	0.0276396	28.7534
44.8543	27.8607	0	28.7534
44.8545	27.8607	0	28.7534
44.8546	27.8607	0.0552792	28.7534
44.8546	27.8883	0.0276396	28.7534
44.9736	27.916	0	28.7534
44.9739	27.916	0	28.7534
44.9739	27.916	0.0552792	28.7534
44.9739	27.9436	0.0276396	28.7534
46.2618	27.9713	0	28.7534
46.2628	27.9713	0	28.7534
46.2628	27.9713	0.0552792	28.7534
46.2628	27.9989	0.0276396	28.7534
46.6173	28.0265	0	28.7534
46.6179	28.0265	0	28.7534
46.618	28.0265	0.0552792	28.7534
46.618	28.0542	0.0276396	28.7534
47.4405	28.0818	0	28.7534
47.4405	28.0818	0	28.7534
47.4405	28.0818	0.0552792	28.7534
47.4406	28.1095	0.0276396	28.7534
48.3714	28.1371	0	28.7534
48.3718	28.1371	0	28.7534
48.3718	28.1371	0.0552792	28.7534
48.3718	28.1647	0.0276396	28.7534
49.1217	28.1924	0	28.7534
49.1228	28.1924	0	28.7534
49.1228	28.2062	0.0276396	28.7534
50.6899	28.2338	0	28.7534
50.69	28.2338	0	28.7534
50.69	28.2338	0.0552792	28.7534
50.6901	28.2615	0.0276396	28.7534
51.9077	28.2891	0	28.7534
51.9078	28.2891	0	28.7534
51.9078	28.3029	0.0276396	28.7534
52.6633	28.3306	0	28.7534
52.6641	28.3306	0	28.7534
52.6641	28.3306	0.0552792	28.7534
52.6641	28.3582	0.0276396	28.7534
53.06	28.3858	0	28.7534
53.0601	28.3858	0	28.7534
53.0601	28.3997	0.0276396	28.7534
54.7152	28.4273	0	28.7534
54.7153	28.4273	0	28.7534
54.7154	28.4273	0.0552792	28.7534
54.7154	28.4549	0.0276396	28.7534
57.5524	28.4826	0	28.7534
57.5537	28.4826	0	28.7534
57.5537	28.4826	0.0552792	28.7534
57.5537	28.5102	0.0276396	28.7534
61.2106	28.5379	0	28.7534
61.211	28.5379	0	28.7534
61.211	28.5379	0.0552792	28.7534
61.2111	28.5655	0.0276396	28.7534
64.168	28.5931	0	28.7534
64.168	28.5931	0	28.7534
64.1681	28.5931	0.0552792	28.7534
64.1681	28.6208	0.0276396	28.7534
64.9719	28.6484	0	28.7534
64.9722	28.6484	0	28.7534
64.9722	28.6484	0.0552792	28.7534
64.9722	28.6761	0.0276396	28.7534
66.7715	28.7037	0	28.7534
66.7717	28.7037	0	28.7534
66.7718	28.7037	0.0552792	28.7534
66.7718	28.7313	0.0276396	28.7534
77.7058	28.759	0	28.7534
77.7059	28.759	0	28.7534
77.7059	28.759	0.0552792	28.7534
77.706	28.7866	0.0276396	28.7534
81.3445	28.8143	0	28.7534
81.3447	28.8143	0	28.7534
81.3447	28.8143	0.0552792	28.7534
81.3447	28.8419	0.0276396	28.7534
92.5147	28.8695	0	28.7534
92.5151	28.8695	0	28.7534
92.5151	28.8695	0.0552792	28.7534
92.5151	28.8972	0.0276396	28.7534
97.0135	28.9248	0	28.7534
97.0141	28.9248	0	28.7534
97.0142	28.9386	0.0276396	28.7534
119.623	28.9663	0	28.7534
119.626	28.9663	0	28.7534
119.626	28.9663	0.0552792	28.7534
119.626	28.9939	0.0276396	28.7534
