1.06564e-10	0	0	0
1.91357e-10	0	0	0
1.0474e-09	0	0	0
1.11469e-09	0	0	0
2.67073e-09	0	0	0
3.66843e-09	0	0	0
3.89402e-09	0	0	0
3.99607e-09	0	0	0
4.65741e-09	0	0	0
5.59478e-09	0	0	0
5.61221e-09	0	0	0
6.53976e-09	0	0	0
8.30455e-09	0	0	0
8.39879e-09	0	0	0
8.54155e-09	0	0	0
1.15804e-08	0	0	0
1.159e-08	0	0	0
1.16724e-08	0	0	0
1.17755e-08	0	0	0
1.38142e-08	0	0	0
1.43071e-08	0	0	0
1.56962e-08	0	0	0
1.61641e-08	0	0	0
1.6291e-08	0	0	0
1.63366e-08	0	0	0
1.63489e-08	0	0	0
1.66261e-08	0	0	0
1.88399e-08	0	0	0
1.96652e-08	0	0	0
2.18632e-08	0	0	0
2.33635e-08	0	0	0
2.35993e-08	0	0	0
2.42821e-08	0	0	0
2.49677e-08	0	0	0
2.58364e-08	0	0	0
2.64465e-08	0	0	0
2.6745e-08	0	0	0
2.68678e-08	0	0	0
2.79469e-08	0	0	0
2.86745e-08	0	0	0
3.10021e-08	0	0	0
3.39063e-08	0	0	0
3.57601e-08	0	0	0
3.87659e-08	0	0	0
3.9099e-08	0	0	0
3.99155e-08	0	0	0
4.07407e-08	0	0	0
4.17021e-08	0	0	0
4.44822e-08	0	0	0
5.03365e-08	0	0	0
5.1493e-08	0	0	0
5.37827e-08	0	0	0
5.85146e-08	0	0	0
6.12261e-08	0	0	0
6.20248e-08	0	0	0
6.41986e-08	0	0	0
6.46645e-08	0	0	0
6.95244e-08	0	0	0
7.27401e-08	0	0	0
7.31902e-08	0	0	0
7.52512e-08	0	0	0
7.88429e-08	0	0	0
8.74154e-08	0	0	0
1.0968e-07	0	0	0
1.15774e-07	0	0	0
1.22316e-07	0	0	0
1.52726e-07	0	0	0
2.17894e-07	0	0	0
2.29927e-07	0	0	0
2.40315e-07	0	0	0
2.67342e-07	0	0	0
3.87537e-07	0	0	0
5.18713e-07	0	0	0
5.9735e-07	0	0	0
6.29075e-07	0	0	0
7.27888e-07	0	0	0
8.84638e-07	0	0	0
9.16655e-07	0	0	0
9.92791e-07	0	0	0
1.04692e-06	0	0	0
1.09575e-06	0	0	0
1.10939e-06	0	0	0
1.13845e-06	0	0	0
1.15624e-06	0	0	0
1.208e-06	0	0	0
1.21392e-06	0	0	0
1.26181e-06	0	0	0
1.30781e-06	0	0	0
1.36679e-06	0	0	0
1.38056e-06	0	0	0
1.40108e-06	0	0	0
1.41395e-06	0	0	0
1.41919e-06	0	0	0
1.45739e-06	0	0	0
1.47006e-06	0	0	0
1.49987e-06	0	0	0
1.61164e-06	0	0	0
1.65019e-06	0	0	0
1.68658e-06	0	0	0
1.69274e-06	0	0	0
1.6965e-06	0	0	0
1.74268e-06	0	0	0
1.90695e-06	0	0	0
1.91936e-06	0	0	0
1.94218e-06	0	0	0
1.94904e-06	0	0	0
1.95585e-06	0	0	0
1.98576e-06	0	0	0
2.12556e-06	0	0	0
2.24277e-06	0	0	0
2.31603e-06	0	0	0
2.33163e-06	0	0	0
2.3872e-06	0	0	0
2.42676e-06	0	0	0
2.42829e-06	0	0	0
2.48967e-06	0	0	0
2.51081e-06	0	0	0
2.56086e-06	0	0	0
2.60255e-06	0	0	0
2.60874e-06	0	0	0
2.61416e-06	0	0	0
2.64649e-06	0	0	0
2.68676e-06	0	0	0
2.87628e-06	0	0	0
2.88393e-06	0	0	0
2.904e-06	0	0	0
2.9116e-06	0	0	0
3.0134e-06	0	0	0
3.022e-06	0	0	0
3.07419e-06	0	0	0
3.0968e-06	0	0	0
3.10202e-06	0	0	0
3.14744e-06	0	0	0
3.2264e-06	0	0	0
3.25914e-06	0	0	0
3.32711e-06	0	0	0
3.35333e-06	0	0	0
3.60906e-06	0	0	0
3.74125e-06	0	0	0
3.76657e-06	0	0	0
3.80641e-06	0	0	0
3.82701e-06	0	0	0
3.85393e-06	0	0	0
3.91594e-06	0	0	0
3.97498e-06	0	0	0
4.14175e-06	0	0	0
4.14926e-06	0	0	0
4.23992e-06	0	0	0
4.26455e-06	0	0	0
4.35547e-06	0	0	0
4.48235e-06	0	0	0
4.69124e-06	0	0	0
4.81277e-06	0	0	0
4.85236e-06	0	0	0
4.8882e-06	0	0	0
5.04144e-06	0	0	0
5.07998e-06	0	0	0
5.1675e-06	0	0	0
5.20012e-06	0	0	0
5.31674e-06	0	0	0
5.48304e-06	0	0	0
5.49024e-06	0	0	0
5.60921e-06	0	0	0
5.73577e-06	0	0	0
5.78019e-06	0	0	0
5.8232e-06	0	0	0
5.85001e-06	0	0	0
5.88372e-06	0	0	0
5.96773e-06	0	0	0
6.0592e-06	0	0	0
6.09703e-06	0	0	0
6.27556e-06	0	0	0
6.29775e-06	0	0	0
6.34111e-06	0	0	0
6.347e-06	0	0	0
6.41048e-06	0	0	0
6.43785e-06	0	0	0
6.44955e-06	0	0	0
6.50592e-06	0	0	0
6.81596e-06	0	0	0
6.86233e-06	0	0	0
6.92495e-06	0	0	0
6.96624e-06	0	0	0
7.17391e-06	0	0	0
7.26454e-06	0	0	0
7.77565e-06	0	0	0
7.92855e-06	0	0	0
8.14745e-06	0	0	0
8.23407e-06	0	0	0
8.35349e-06	0	0	0
8.43309e-06	0	0	0
8.44561e-06	0	0	0
8.60297e-06	0	0	0
8.72106e-06	0	0	0
8.74606e-06	0	0	0
8.75745e-06	0	0	0
8.84369e-06	0	0	0
9.0739e-06	0	0	0
9.24016e-06	0	0	0
9.3482e-06	0	0	0
9.41305e-06	0	0	0
9.62477e-06	0	0	0
9.67802e-06	0	0	0
9.71087e-06	0	0	0
9.76477e-06	0	0	0
1.00278e-05	0	0	0
1.00378e-05	0	0	0
1.01844e-05	0	0	0
1.0278e-05	0	0	0
1.04821e-05	0	0	0
1.05465e-05	0	0	0
1.07487e-05	0	0	0
1.07741e-05	0	0	0
1.0778e-05	0	0	0
1.07955e-05	0	0	0
1.10524e-05	0	0	0
1.11043e-05	0	0	0
1.13384e-05	0	0	0
1.14769e-05	0	0	0
1.14844e-05	0	0	0
1.15837e-05	0	0	0
1.1734e-05	0	0	0
1.21656e-05	0	0	0
1.22934e-05	0	0	0
1.22973e-05	0	0	0
1.26189e-05	0	0	0
1.29138e-05	0	0	0
1.29452e-05	0	0	0
1.29628e-05	0	0	0
1.30972e-05	0	0	0
1.32572e-05	0	0	0
1.32895e-05	0	0	0
1.33584e-05	0	0	0
1.35762e-05	0	0	0
1.37103e-05	0	0	0
1.3736e-05	0	0	0
1.39254e-05	0	0	0
1.40262e-05	0	0	0
1.42652e-05	0	0	0
1.43019e-05	0	0	0
1.4303e-05	0	0	0
1.47682e-05	0	0	0
1.48472e-05	0	0	0
1.49649e-05	0	0	0
1.49997e-05	0	0	0
1.50248e-05	0	0	0
1.53614e-05	0	0	0
1.55069e-05	0	0	0
1.5581e-05	0	0	0
1.6046e-05	0	0	0
1.61135e-05	0	0	0
1.63037e-05	0	0	0
1.63201e-05	0	0	0
1.67435e-05	0	0	0
1.6893e-05	0	0	0
1.7166e-05	0	0	0
1.73071e-05	0	0	0
1.73335e-05	0	0	0
1.78371e-05	0	0	0
1.83205e-05	0	0	0
1.841e-05	0	0	0
1.84505e-05	0	0	0
1.84762e-05	0	0	0
1.84962e-05	0	0	0
1.85834e-05	0	0	0
1.85987e-05	0	0	0
1.8667e-05	0	0	0
1.87877e-05	0	0	0
1.97498e-05	0	0	0
2.02038e-05	0	0	0
2.02986e-05	0	0	0
2.04266e-05	0	0	0
2.06017e-05	0	0	0
2.10045e-05	0	0	0
2.10503e-05	0	0	0
2.10509e-05	0	0	0
2.12859e-05	0	0	0
2.13754e-05	0	0	0
2.13886e-05	0	0	0
2.17642e-05	0	0	0
2.20698e-05	0	0	0
2.26337e-05	0	0	0
2.28062e-05	0	0	0
2.28347e-05	0	0	0
2.30613e-05	0	0	0
2.37278e-05	0	0	0
2.40691e-05	0	0	0
2.41852e-05	0	0	0
2.44636e-05	0	0	0
2.49002e-05	0	0	0
2.62626e-05	0	0	0
2.66788e-05	0	0	0
2.69627e-05	0	0	0
2.73369e-05	0	0	0
2.73751e-05	0	0	0
2.74632e-05	0	0	0
2.87069e-05	0	0	0
2.88068e-05	0	0	0
2.89898e-05	0	0	0
2.90546e-05	0	0	0
2.93632e-05	0	0	0
2.95221e-05	0	0	0
2.99937e-05	0	0	0
2.99987e-05	0	0	0
3.01687e-05	0	0	0
3.07173e-05	0	0	0
3.14368e-05	0	0	0
3.14881e-05	0	0	0
3.14914e-05	0	0	0
3.18059e-05	0	0	0
3.22625e-05	0	0	0
3.23657e-05	0	0	0
3.23694e-05	0	0	0
3.29923e-05	0	0	0
3.37749e-05	0	0	0
3.40611e-05	0	0	0
3.40845e-05	0	0	0
3.4393e-05	0	0	0
3.52274e-05	0	0	0
3.55461e-05	0	0	0
3.6401e-05	0	0	0
3.67789e-05	0	0	0
3.71977e-05	0	0	0
3.80454e-05	0	0	0
3.82662e-05	0	0	0
3.83646e-05	0	0	0
3.90209e-05	0	0	0
3.90507e-05	0	0	0
3.90654e-05	0	0	0
3.92161e-05	0	0	0
3.93134e-05	0	0	0
3.93187e-05	0	0	0
3.96962e-05	0	0	0
4.01524e-05	0	0	0
4.01664e-05	0	0	0
4.04734e-05	0	0	0
4.07847e-05	0	0	0
4.07918e-05	0	0	0
4.17293e-05	0	0	0
4.17957e-05	0	0	0
4.20654e-05	0	0	0
4.23429e-05	0	0	0
4.257e-05	0	0	0
4.32996e-05	0	0	0
4.33529e-05	0	0	0
4.34509e-05	0	0	0
4.43623e-05	0	0	0
4.46106e-05	0	0	0
4.48073e-05	0	0	0
4.57652e-05	0	0	0
4.68505e-05	0	0	0
4.68982e-05	0	0	0
4.70519e-05	0	0	0
4.7484e-05	0	0	0
4.79421e-05	0	0	0
4.82701e-05	0	0	0
4.99162e-05	0	0	0
5.01948e-05	0	0	0
5.03879e-05	0	0	0
5.07272e-05	0	0	0
5.09626e-05	0	0	0
5.1256e-05	0	0	0
5.14675e-05	0	0	0
5.19777e-05	0	0	0
5.23258e-05	0	0	0
5.26061e-05	0	0	0
5.30364e-05	0	0	0
5.36381e-05	0	0	0
5.43026e-05	0	0	0
5.45593e-05	0	0	0
5.68833e-05	0	0	0
5.70977e-05	0	0	0
5.7858e-05	0	0	0
5.85169e-05	0	0	0
5.97402e-05	0	0	0
6.00632e-05	0	0	0
6.06209e-05	0	0	0
6.34978e-05	0	0	0
6.36858e-05	0	0	0
6.37827e-05	0	0	0
6.45645e-05	0	0	0
6.48482e-05	0	0	0
6.60416e-05	0	0	0
6.73392e-05	0	0	0
6.75325e-05	0	0	0
6.77739e-05	0	0	0
6.80154e-05	0	0	0
6.80156e-05	0	0	0
6.95387e-05	0	0	0
7.05327e-05	0	0	0
7.17122e-05	0	0	0
7.33826e-05	0	0	0
7.44768e-05	0	0	0
7.94963e-05	0	0	0
8.22958e-05	0	0	0
9.14102e-05	0	0	0
9.3071e-05	0	0	0
9.4319e-05	0	0	0
9.50845e-05	0	0	0
9.55945e-05	0	0	0
9.63215e-05	0	0	0
9.7839e-05	0	0	0
9.79292e-05	0	0	0
0.000101135	0	0	0
0.000105859	0	0	0
0.000108451	0	0	0
0.000111365	0	0	0
0.000115884	0	0	0
0.000117507	0	0	0
0.000118477	0	0	0
0.000122766	0	0	0
0.000127091	0	0	0
0.00012727	0	0	0
0.000132422	0	0	0
0.000144703	0	0	0
0.000175438	0	0	0
0.000202694	0	0	0
0.00969966	0	0	0
0.0262246	0	0	0
0.0262762	0	0	0
0.0352067	0	0	0
0.0352069	0	0	0
0.0718363	0	0	0
0.0769453	0	0	0
0.0932104	0	0	0
0.0993136	0	0	0
0.111167	0	0	0
0.122986	0	0	0.0909918
0.123009	0	0	0.0909918
0.12375	0	0	0.0909918
0.124384	0	0	0.0909918
0.124384	0.0138198	0.0276396	0.0909918
0.124393	0.0138198	0.0276396	0.0909918
0.157597	0.0414594	0	0.0909918
0.157818	0.0414594	0	0.181984
0.157825	0.0414594	0	0.181984
0.177108	0.0414594	0	0.181984
0.179589	0.0414594	0	0.181984
0.191792	0.0414594	0	0.181984
0.220279	0.0414594	0	0.181984
0.22041	0.0414594	0	0.181984
0.220417	0.0552792	0.0276396	0.181984
0.220422	0.0829187	0	0.181984
0.220426	0.0829187	0	0.181984
0.246916	0.0829187	0	0.181984
0.276068	0.0829187	0	0.181984
0.281847	0.0829187	0	0.272975
0.320685	0.0829187	0	0.272975
0.326786	0.0829187	0	0.272975
0.330369	0.0829187	0	0.363967
0.347302	0.0829187	0	0.454959
0.347324	0.0829187	0	0.454959
0.347334	0.0829187	0	0.454959
0.355715	0.0829187	0	0.454959
0.35573	0.0829187	0	0.454959
0.355736	0.0829187	0	0.454959
0.355742	0.0829187	0	0.454959
0.355764	0.0829187	0	0.454959
0.355813	0.0829187	0	0.454959
0.361096	0.0829187	0	0.454959
0.361117	0.0829187	0	0.454959
0.361117	0.0829187	0.0552792	0.454959
0.361126	0.110558	0.0276396	0.454959
0.361132	0.138198	0	0.454959
0.365142	0.138198	0	0.454959
0.387035	0.138198	0	0.454959
0.387056	0.138198	0	0.454959
0.411683	0.138198	0	0.454959
0.412514	0.138198	0	0.454959
0.418473	0.138198	0	0.545951
0.4284	0.138198	0	0.545951
0.448409	0.138198	0	0.545951
0.450086	0.138198	0	0.545951
0.450294	0.138198	0	0.545951
0.450329	0.138198	0.0276396	0.545951
0.451213	0.138198	0.0552792	0.545951
0.454728	0.138198	0.0829187	0.545951
0.454954	0.138198	0.110558	0.545951
0.455657	0.138198	0.138198	0.545951
0.455664	0.152018	0.165837	0.545951
0.455684	0.179657	0.138198	0.545951
0.455706	0.207297	0.110558	0.545951
0.455738	0.234936	0.0829187	0.545951
0.455747	0.262576	0.0552792	0.545951
0.455851	0.290216	0.0276396	0.545951
0.455868	0.290216	0.0276396	0.545951
0.456919	0.317855	0	0.545951
0.457002	0.317855	0.0276396	0.545951
0.4579	0.317855	0.0552792	0.545951
0.45804	0.317855	0.0829187	0.545951
0.458056	0.317855	0.110558	0.545951
0.458905	0.317855	0.138198	0.545951
0.459188	0.317855	0.165837	0.545951
0.459192	0.317855	0.193477	0.545951
0.459392	0.317855	0.221117	0.545951
0.459425	0.317855	0.248756	0.545951
0.459917	0.345495	0.221117	0.545951
0.459927	0.345495	0.248756	0.545951
0.463171	0.373134	0.221117	0.545951
0.463222	0.373134	0.248756	0.545951
0.463351	0.400774	0.221117	0.545951
0.463357	0.400774	0.248756	0.545951
0.464382	0.428413	0.221117	0.545951
0.464385	0.428413	0.248756	0.545951
0.464389	0.428413	0.276396	0.545951
0.464393	0.456053	0.248756	0.545951
0.464873	0.483693	0.221117	0.545951
0.464883	0.483693	0.248756	0.545951
0.516266	0.511332	0.221117	0.545951
0.516281	0.511332	0.221117	0.545951
0.516305	0.538972	0.193477	0.545951
0.516307	0.566611	0.165837	0.545951
0.516311	0.594251	0.138198	0.545951
0.516342	0.621891	0.110558	0.545951
0.516348	0.64953	0.0829187	0.545951
0.516362	0.67717	0.0552792	0.545951
0.516371	0.704809	0.0276396	0.545951
0.517802	0.732449	0	0.545951
0.520558	0.732449	0	0.545951
0.537957	0.732449	0	0.636943
0.541409	0.732449	0	0.727934
0.55609	0.732449	0	0.727934
0.556165	0.732449	0	0.727934
0.586744	0.732449	0	0.727934
0.58719	0.732449	0	0.727934
0.616088	0.732449	0	0.727934
0.618464	0.732449	0	0.818926
0.618535	0.732449	0	0.818926
0.618558	0.732449	0.0552792	0.818926
0.618593	0.760088	0.0276396	0.818926
0.618609	0.760088	0.0276396	0.818926
0.618627	0.787728	0	0.818926
0.631677	0.787728	0	0.818926
0.634559	0.787728	0	0.818926
0.655073	0.787728	0	0.818926
0.656001	0.787728	0	0.818926
0.656056	0.801548	0.0276396	0.818926
0.662609	0.829187	0	0.818926
0.664777	0.829187	0	0.818926
0.664914	0.829187	0	0.818926
0.665886	0.829187	0.0276396	0.818926
0.665888	0.843007	0.0552792	0.818926
0.665893	0.870647	0.0276396	0.818926
0.665927	0.870647	0.0276396	0.818926
0.665935	0.870647	0.0276396	0.818926
0.665962	0.898286	0	0.818926
0.665965	0.898286	0	0.818926
0.690496	0.898286	0	0.818926
0.69282	0.898286	0	0.818926
0.692884	0.912106	0.0276396	0.818926
0.705909	0.939746	0	0.818926
0.717907	0.939746	0	0.909918
0.732978	0.939746	0	1.00091
0.733262	0.939746	0	1.00091
0.733264	0.953566	0.0276396	1.00091
0.742559	0.981205	0	1.00091
0.747866	0.981205	0	1.00091
0.777623	0.981205	0	1.00091
0.77908	0.981205	0	1.00091
0.803088	0.981205	0.0276396	1.00091
0.803136	0.981205	0.0276396	1.00091
0.803141	0.981205	0.0276396	1.00091
0.803146	1.00884	0	1.00091
0.803167	1.00884	0	1.00091
0.847819	1.00884	0	1.00091
0.889874	1.00884	0	1.00091
0.923055	1.00884	0	1.00091
0.923056	1.00884	0	1.0919
0.932568	1.00884	0	1.0919
0.935227	1.00884	0	1.0919
0.935651	1.00884	0	1.0919
0.93569	1.02266	0.0276396	1.0919
0.966089	1.0503	0	1.0919
0.979246	1.0503	0	1.0919
0.98394	1.0503	0	1.27389
0.990863	1.0503	0	1.27389
1.00093	1.0503	0	1.36488
1.00129	1.0503	0	1.36488
1.00132	1.0503	0.0552792	1.36488
1.00133	1.07794	0.0276396	1.36488
1.00133	1.07794	0.0276396	1.36488
1.00135	1.10558	0	1.36488
1.04156	1.10558	0	1.36488
1.04271	1.10558	0	1.36488
1.05059	1.10558	0	1.36488
1.06322	1.10558	0	1.45587
1.06363	1.10558	0	1.45587
1.06366	1.10558	0.0276396	1.45587
1.06369	1.1194	0.0552792	1.45587
1.06371	1.14704	0.0276396	1.45587
1.06433	1.17468	0	1.45587
1.06969	1.17468	0	1.63785
1.07013	1.17468	0	1.63785
1.07016	1.1885	0.0276396	1.63785
1.08558	1.21614	0	1.63785
1.08568	1.21614	0	1.63785
1.08572	1.21614	0.0552792	1.63785
1.08577	1.24378	0.0276396	1.63785
1.08577	1.27142	0	1.63785
1.10762	1.27142	0	1.63785
1.11143	1.27142	0	1.72884
1.12249	1.27142	0	1.72884
1.12279	1.27142	0	1.72884
1.12284	1.28524	0.0276396	1.72884
1.1283	1.31288	0	1.72884
1.14512	1.31288	0	1.72884
1.18288	1.31288	0	1.91083
1.18597	1.31288	0	1.91083
1.18624	1.31288	0	1.91083
1.18624	1.3267	0.0276396	1.91083
1.18628	1.35434	0	1.91083
1.22051	1.35434	0	1.91083
1.22705	1.35434	0	1.91083
1.22921	1.35434	0	2.00182
1.22928	1.35434	0	2.00182
1.22932	1.35434	0.0552792	2.00182
1.22932	1.38198	0.0276396	2.00182
1.22935	1.40962	0	2.00182
1.25925	1.40962	0	2.00182
1.27118	1.40962	0	2.09281
1.2718	1.40962	0	2.09281
1.27422	1.40962	0	2.09281
1.2745	1.40962	0	2.09281
1.27452	1.42344	0.0276396	2.09281
1.27734	1.45108	0	2.09281
1.28596	1.45108	0	2.09281
1.29798	1.45108	0	2.09281
1.30896	1.45108	0	2.09281
1.30896	1.45108	0	2.09281
1.309	1.45108	0	2.09281
1.3185	1.45108	0	2.09281
1.3386	1.45108	0	2.09281
1.34471	1.45108	0	2.1838
1.34904	1.45108	0	2.2748
1.37344	1.45108	0	2.36579
1.37361	1.45108	0	2.36579
1.37377	1.4649	0.0276396	2.36579
1.39239	1.49254	0	2.36579
1.39301	1.49254	0	2.36579
1.39356	1.49254	0	2.45678
1.39357	1.50636	0.0276396	2.45678
1.39363	1.534	0	2.45678
1.39484	1.534	0	2.45678
1.3951	1.534	0	2.45678
1.39511	1.54782	0.0276396	2.45678
1.39523	1.54782	0.0276396	2.45678
1.40531	1.57546	0	2.45678
1.47255	1.57546	0	2.54777
1.47511	1.57546	0	2.72975
1.47535	1.57546	0	2.72975
1.47541	1.58928	0.0276396	2.72975
1.50138	1.61692	0	2.72975
1.51311	1.61692	0	2.82075
1.51409	1.61692	0	2.82075
1.5141	1.61692	0.0552792	2.82075
1.51412	1.64456	0.0276396	2.82075
1.51844	1.67219	0	2.82075
1.52765	1.67219	0	2.82075
1.52769	1.67219	0	2.82075
1.52769	1.68601	0.0276396	2.82075
1.53426	1.71365	0	2.82075
1.53442	1.71365	0	2.82075
1.53449	1.72747	0.0276396	2.82075
1.5688	1.75511	0	2.82075
1.56884	1.75511	0	2.82075
1.56889	1.75511	0	2.82075
1.57685	1.75511	0	2.82075
1.57709	1.75511	0	2.82075
1.57712	1.75511	0.0276396	2.82075
1.57734	1.75511	0.0552792	2.82075
1.57843	1.75511	0.0829187	2.82075
1.57918	1.75511	0.110558	2.82075
1.57926	1.75511	0.138198	2.82075
1.5797	1.75511	0.165837	2.82075
1.5797	1.76893	0.193477	2.82075
1.57971	1.76893	0.193477	2.82075
1.57972	1.79657	0.165837	2.82075
1.57972	1.79657	0.165837	2.82075
1.57973	1.82421	0.138198	2.82075
1.57974	1.85185	0.110558	2.82075
1.57976	1.87949	0.0829187	2.82075
1.57977	1.90713	0.0552792	2.82075
1.57978	1.93477	0.0276396	2.82075
1.59173	1.96241	0	2.82075
1.59183	1.96241	0	2.91174
1.59199	1.96241	0	2.91174
1.59205	1.96241	0.0552792	2.91174
1.5921	1.99005	0.0276396	2.91174
1.59491	2.01769	0	2.91174
1.59502	2.01769	0	2.91174
1.5952	2.01769	0.0276396	2.91174
1.59521	2.03151	0.0552792	2.91174
1.59521	2.05915	0.0276396	2.91174
1.59522	2.08679	0	2.91174
1.59567	2.08679	0	2.91174
1.60702	2.08679	0	3.00273
1.60706	2.08679	0	3.00273
1.60709	2.10061	0.0276396	3.00273
1.60987	2.12825	0	3.00273
1.64118	2.12825	0	3.00273
1.64292	2.12825	0	3.09372
1.64448	2.12825	0	3.09372
1.64455	2.12825	0	3.18471
1.64457	2.12825	0	3.18471
1.6468	2.12825	0	3.18471
1.67154	2.12825	0	3.18471
1.74078	2.12825	0	3.18471
1.74109	2.12825	0	3.18471
1.74109	2.14207	0.0276396	3.18471
1.74709	2.16971	0	3.18471
1.74709	2.16971	0	3.18471
1.74714	2.18353	0.0276396	3.18471
1.75905	2.21117	0	3.18471
1.75913	2.21117	0	3.18471
1.76001	2.21117	0	3.18471
1.76004	2.21117	0	3.27571
1.76132	2.21117	0	3.27571
1.76133	2.21117	0	3.27571
1.77067	2.21117	0	3.27571
1.77148	2.21117	0	3.27571
1.77228	2.21117	0.0276396	3.27571
1.77229	2.22499	0.0552792	3.27571
1.77238	2.25263	0.0276396	3.27571
1.81794	2.28027	0	3.27571
1.82496	2.28027	0	3.3667
1.83055	2.28027	0	3.45769
1.83101	2.28027	0	3.45769
1.83112	2.29409	0.0276396	3.45769
1.8403	2.32172	0	3.45769
1.84879	2.32172	0	3.54868
1.86718	2.32172	0	3.63967
1.86735	2.32172	0	3.73066
1.88368	2.32172	0	3.91265
1.90694	2.32172	0	3.91265
1.90699	2.32172	0	3.91265
1.90704	2.33554	0.0276396	3.91265
1.90707	2.33554	0.0276396	3.91265
1.95687	2.36318	0	3.91265
2.00657	2.36318	0	4.09463
2.00752	2.36318	0	4.09463
2.00833	2.36318	0	4.09463
2.00835	2.36318	0	4.09463
2.00858	2.36318	0.0276396	4.09463
2.00858	2.377	0.0552792	4.09463
2.00861	2.40464	0.0276396	4.09463
2.07067	2.43228	0	4.09463
2.07102	2.43228	0	4.09463
2.07261	2.43228	0	4.18562
2.07262	2.43228	0.0552792	4.18562
2.07265	2.45992	0.0276396	4.18562
2.09285	2.48756	0	4.18562
2.10174	2.48756	0	4.27662
2.1178	2.48756	0	4.36761
2.11784	2.48756	0	4.36761
2.11787	2.48756	0.0552792	4.36761
2.11788	2.5152	0.0276396	4.36761
2.13499	2.54284	0	4.36761
2.13503	2.54284	0	4.36761
2.13509	2.55666	0.0276396	4.36761
2.13574	2.5843	0	4.36761
2.14623	2.5843	0	4.36761
2.14627	2.5843	0	4.36761
2.14688	2.5843	0.0276396	4.36761
2.14689	2.59812	0.0552792	4.36761
2.14692	2.62576	0.0276396	4.36761
2.14967	2.6534	0	4.36761
2.14982	2.6534	0	4.36761
2.15023	2.6534	0.0276396	4.36761
2.15035	2.6534	0.0552792	4.36761
2.15048	2.6534	0.0829187	4.36761
2.15232	2.6534	0.110558	4.36761
2.15233	2.6534	0.138198	4.36761
2.15233	2.68104	0.110558	4.36761
2.15234	2.70868	0.0829187	4.36761
2.1524	2.73632	0.0552792	4.36761
2.15241	2.76396	0.0276396	4.36761
2.16101	2.7916	0	4.36761
2.17718	2.7916	0	4.4586
2.18904	2.7916	0	4.4586
2.21957	2.7916	0	4.4586
2.21981	2.7916	0	4.4586
2.21982	2.80542	0.0276396	4.4586
2.23426	2.83306	0	4.4586
2.24959	2.83306	0	4.54959
2.27725	2.83306	0	4.64058
2.31967	2.83306	0	4.64058
2.32044	2.83306	0	4.64058
2.32074	2.83306	0.0276396	4.64058
2.32075	2.84688	0.0552792	4.64058
2.32075	2.87452	0.0276396	4.64058
2.33985	2.90216	0	4.64058
2.34245	2.90216	0	4.73157
2.34267	2.90216	0	4.73157
2.34268	2.91598	0.0276396	4.73157
2.3546	2.94362	0	4.73157
2.3548	2.94362	0	4.82257
2.35537	2.94362	0	4.82257
2.35538	2.95744	0.0276396	4.82257
2.35544	2.98507	0	4.82257
2.37659	2.98507	0	4.82257
2.37734	2.98507	0	4.91356
2.39706	2.98507	0	5.09554
2.4103	2.98507	0	5.18653
2.41609	2.98507	0	5.27753
2.41639	2.98507	0	5.27753
2.41639	2.98507	0.0552792	5.27753
2.41664	3.01271	0.0276396	5.27753
2.43058	3.04035	0	5.27753
2.43141	3.04035	0	5.27753
2.43145	3.05417	0.0276396	5.27753
2.44757	3.08181	0	5.27753
2.48179	3.08181	0	5.27753
2.49982	3.08181	0	5.36852
2.50032	3.08181	0	5.36852
2.50033	3.08181	0.0552792	5.36852
2.50034	3.10945	0.0276396	5.36852
2.50704	3.13709	0	5.36852
2.51333	3.13709	0	5.45951
2.51546	3.13709	0	5.5505
2.51547	3.13709	0	5.5505
2.51569	3.13709	0.0276396	5.5505
2.52641	3.13709	0.0552792	5.5505
2.54977	3.13709	0.0552792	5.64149
2.54977	3.13709	0.0552792	5.82348
2.5498	3.16473	0.0276396	5.82348
2.55088	3.19237	0	5.82348
2.55217	3.19237	0	5.82348
2.55218	3.20619	0.0276396	5.82348
2.5686	3.23383	0	5.82348
2.56862	3.23383	0	5.82348
2.56864	3.23383	0	5.82348
2.57785	3.23383	0	5.82348
2.58971	3.23383	0	5.91447
2.58992	3.23383	0	5.91447
2.59027	3.23383	0.0276396	5.91447
2.59032	3.24765	0.0552792	5.91447
2.59033	3.27529	0.0276396	5.91447
2.60507	3.30293	0	5.91447
2.60535	3.30293	0	5.91447
2.60672	3.30293	0.0276396	5.91447
2.60675	3.30293	0.0552792	5.91447
2.60689	3.30293	0.0829187	5.91447
2.60689	3.31675	0.110558	5.91447
2.60691	3.34439	0.0829187	5.91447
2.60691	3.37203	0.0552792	5.91447
2.60703	3.39967	0.0276396	5.91447
2.63398	3.42731	0	5.91447
2.63431	3.42731	0	5.91447
2.63435	3.44113	0.0276396	5.91447
2.63442	3.44113	0.0276396	5.91447
2.66617	3.46877	0	5.91447
2.68735	3.46877	0	6.00546
2.68833	3.46877	0	6.00546
2.68855	3.46877	0	6.00546
2.68985	3.46877	0.0276396	6.00546
2.68985	3.48259	0.0552792	6.00546
2.68987	3.51023	0.0276396	6.00546
2.68987	3.51023	0.0276396	6.00546
2.69	3.51023	0.0276396	6.00546
2.69864	3.53787	0	6.00546
2.6991	3.53787	0	6.00546
2.69912	3.55169	0.0276396	6.00546
2.70769	3.57933	0	6.00546
2.75893	3.57933	0	6.00546
2.80045	3.57933	0	6.00546
2.80048	3.57933	0	6.09645
2.85208	3.57933	0	6.09645
2.86527	3.57933	0	6.09645
2.86527	3.57933	0	6.09645
2.86529	3.59315	0.0276396	6.09645
2.88447	3.62078	0	6.09645
2.89671	3.62078	0	6.18744
2.9246	3.62078	0	6.36943
2.93954	3.62078	0	6.36943
2.93963	3.62078	0	6.36943
2.93988	3.62078	0.0276396	6.36943
2.93991	3.6346	0.0552792	6.36943
2.93992	3.66224	0.0276396	6.36943
2.94906	3.68988	0	6.36943
2.94907	3.68988	0	6.46042
2.95438	3.68988	0	6.46042
2.9544	3.68988	0	6.46042
2.95442	3.7037	0.0276396	6.46042
2.98458	3.73134	0	6.46042
2.99331	3.73134	0	6.55141
2.99397	3.73134	0	6.55141
2.99398	3.74516	0.0276396	6.55141
3.01464	3.7728	0	6.55141
3.01472	3.7728	0	6.55141
3.01485	3.7728	0.0276396	6.55141
3.01485	3.78662	0.0552792	6.55141
3.01498	3.81426	0.0276396	6.55141
3.01523	3.8419	0	6.55141
3.01849	3.8419	0	6.6424
3.01912	3.8419	0	6.6424
3.01912	3.85572	0.0276396	6.6424
3.02631	3.88336	0	6.6424
3.02681	3.88336	0	6.6424
3.02681	3.89718	0.0276396	6.6424
3.02686	3.92482	0	6.6424
3.02979	3.92482	0	6.6424
3.04024	3.92482	0	6.6424
3.07352	3.92482	0	6.73339
3.07367	3.92482	0	6.73339
3.07397	3.92482	0.0276396	6.73339
3.07483	3.92482	0.0276396	6.91538
3.07485	3.93864	0.0552792	6.91538
3.07488	3.96628	0.0276396	6.91538
3.08273	3.99392	0	6.91538
3.08568	3.99392	0	6.91538
3.11888	3.99392	0	7.00637
3.13291	3.99392	0	7.09736
3.14735	3.99392	0	7.18835
3.16462	3.99392	0	7.37034
3.16983	3.99392	0	7.55232
3.17116	3.99392	0	7.55232
3.17229	3.99392	0.0276396	7.55232
3.1723	4.00774	0.0552792	7.55232
3.17232	4.03538	0.0276396	7.55232
3.18762	4.06302	0	7.55232
3.21255	4.06302	0	7.7343
3.2126	4.06302	0	7.7343
3.21261	4.07684	0.0276396	7.7343
3.21364	4.10448	0	7.7343
3.26123	4.10448	0	7.91629
3.26148	4.10448	0	7.91629
3.26149	4.10448	0.0552792	7.91629
3.26152	4.13212	0.0276396	7.91629
3.33785	4.15976	0	7.91629
3.33785	4.15976	0	7.91629
3.39658	4.15976	0	7.91629
3.39659	4.15976	0	8.00728
3.39663	4.15976	0	8.00728
3.41997	4.15976	0	8.00728
3.43272	4.15976	0	8.00728
3.43291	4.15976	0	8.00728
3.43296	4.15976	0.0276396	8.00728
3.43329	4.15976	0.0552792	8.00728
3.4333	4.17358	0.0829187	8.00728
3.43335	4.20122	0.0552792	8.00728
3.43339	4.22886	0.0276396	8.00728
3.43339	4.2565	0	8.00728
3.43835	4.2565	0	8.00728
3.43866	4.2565	0	8.00728
3.43867	4.27032	0.0276396	8.00728
3.43867	4.29795	0	8.00728
3.43872	4.29795	0	8.00728
3.43873	4.29795	0	8.00728
3.44914	4.29795	0	8.00728
3.4504	4.29795	0	8.00728
3.4504	4.29795	0.0276396	8.00728
3.4643	4.32559	0	8.00728
3.48783	4.32559	0	8.09827
3.56985	4.32559	0	8.09827
3.57633	4.32559	0	8.18926
3.57697	4.32559	0	8.18926
3.57705	4.33941	0.0276396	8.18926
3.5821	4.36705	0	8.18926
3.58211	4.36705	0	8.28025
3.62483	4.36705	0	8.28025
3.62488	4.36705	0	8.28025
3.62701	4.36705	0.0276396	8.28025
3.62703	4.38087	0.0552792	8.28025
3.62703	4.40851	0.0276396	8.28025
3.62703	4.43615	0	8.28025
3.6426	4.43615	0	8.28025
3.65562	4.43615	0	8.28025
3.69276	4.43615	0	8.28025
3.69839	4.43615	0	8.37125
3.6988	4.43615	0	8.37125
3.6988	4.43615	0.0552792	8.37125
3.69881	4.46379	0.0276396	8.37125
3.70508	4.49143	0	8.37125
3.70537	4.49143	0	8.37125
3.70538	4.50525	0.0276396	8.37125
3.70908	4.53289	0	8.37125
3.71101	4.53289	0	8.37125
3.71827	4.53289	0	8.46224
3.71843	4.53289	0	8.46224
3.71847	4.53289	0.0552792	8.46224
3.71847	4.56053	0.0276396	8.46224
3.71848	4.56053	0.0276396	8.46224
3.72386	4.58817	0	8.46224
3.72444	4.58817	0	8.46224
3.72456	4.58817	0.0276396	8.46224
3.7252	4.58817	0.0552792	8.46224
3.74753	4.58817	0.0829187	8.46224
3.74754	4.58817	0.0829187	8.46224
3.74754	4.58817	0.0829187	8.46224
3.74754	4.61581	0.0552792	8.46224
3.74757	4.64345	0.0276396	8.46224
3.74772	4.67109	0	8.46224
3.74775	4.68491	0.0276396	8.46224
3.75095	4.71255	0	8.46224
3.75855	4.71255	0	8.64422
3.75865	4.71255	0	8.64422
3.75875	4.72637	0.0276396	8.64422
3.7603	4.75401	0	8.64422
3.79695	4.75401	0	8.82621
3.79745	4.75401	0	8.82621
3.79749	4.76783	0.0276396	8.82621
3.8213	4.79547	0	8.82621
3.82475	4.79547	0	8.82621
3.82534	4.79547	0	8.82621
3.82536	4.79547	0.0552792	8.82621
3.82536	4.82311	0.0276396	8.82621
3.83042	4.85075	0	8.82621
3.83103	4.85075	0	8.82621
3.8311	4.86457	0.0276396	8.82621
3.84024	4.89221	0	8.82621
3.84025	4.89221	0	8.9172
3.8966	4.89221	0	8.9172
3.89772	4.89221	0	8.9172
3.89776	4.89221	0.0276396	8.9172
3.89903	4.91985	0	8.9172
3.90071	4.91985	0	8.9172
3.90074	4.91985	0.0552792	8.9172
3.90078	4.94748	0.0276396	8.9172
3.91257	4.97512	0	8.9172
3.93623	4.97512	0	9.00819
3.93651	4.97512	0	9.00819
3.93651	4.98894	0.0276396	9.00819
3.97809	5.01658	0	9.00819
3.97841	5.01658	0	9.00819
3.97843	5.0304	0.0276396	9.00819
3.98572	5.05804	0	9.00819
4.0139	5.05804	0	9.09918
4.02456	5.05804	0	9.28116
4.02467	5.05804	0	9.37216
4.04642	5.05804	0	9.37216
4.0465	5.05804	0	9.37216
4.0465	5.07186	0.0276396	9.37216
4.05671	5.0995	0	9.37216
4.07385	5.0995	0	9.37216
4.08222	5.0995	0	9.37216
4.09126	5.0995	0	9.55414
4.10963	5.0995	0	9.73612
4.11989	5.0995	0	9.73612
4.14055	5.0995	0	9.82712
4.16034	5.0995	0	10.0091
4.16106	5.0995	0	10.0091
4.1612	5.0995	0.0276396	10.0091
4.16121	5.11332	0.0552792	10.0091
4.16122	5.14096	0.0276396	10.0091
4.16124	5.1686	0	10.0091
4.17582	5.1686	0	10.0091
4.18745	5.1686	0	10.1911
4.18749	5.1686	0	10.1911
4.22197	5.1686	0	10.1911
4.2665	5.1686	0	10.2821
4.26662	5.1686	0	10.2821
4.26663	5.1686	0.0552792	10.2821
4.26666	5.19624	0.0276396	10.2821
4.29731	5.22388	0	10.2821
4.29748	5.22388	0	10.2821
4.29748	5.2377	0.0276396	10.2821
4.30223	5.26534	0	10.2821
4.30282	5.26534	0	10.2821
4.30284	5.27916	0.0276396	10.2821
4.30288	5.3068	0	10.2821
4.30402	5.3068	0	10.2821
4.30481	5.3068	0	10.2821
4.34277	5.3068	0.0276396	10.2821
4.34279	5.3068	0.0276396	10.2821
4.34279	5.33444	0	10.2821
4.3428	5.33444	0	10.2821
4.34381	5.33444	0	10.2821
4.34402	5.33444	0.0276396	10.2821
4.34405	5.34826	0.0552792	10.2821
4.34415	5.3759	0.0276396	10.2821
4.34618	5.40354	0	10.2821
4.38208	5.40354	0	10.4641
4.38223	5.40354	0	10.4641
4.38272	5.40354	0.0276396	10.4641
4.38272	5.41736	0.0552792	10.4641
4.38281	5.445	0.0276396	10.4641
4.38283	5.47264	0	10.4641
4.43005	5.47264	0	10.4641
4.4303	5.47264	0	10.4641
4.43032	5.47264	0.0552792	10.4641
4.43039	5.50028	0.0276396	10.4641
4.46064	5.52792	0	10.4641
4.47044	5.52792	0	10.646
4.50183	5.52792	0	10.737
4.52286	5.52792	0	10.828
4.5233	5.52792	0	10.828
4.52352	5.52792	0.0276396	10.828
4.52354	5.54174	0.0552792	10.828
4.52357	5.56938	0.0276396	10.828
4.52493	5.59701	0	10.828
4.58903	5.59701	0	11.01
4.58979	5.59701	0	11.01
4.59044	5.59701	0.0276396	11.01
4.59044	5.61083	0.0552792	11.01
4.59044	5.63847	0.0276396	11.01
4.64054	5.66611	0	11.01
4.64614	5.66611	0	11.01
4.64631	5.66611	0	11.01
4.64702	5.66611	0.0276396	11.01
4.64704	5.67993	0.0552792	11.01
4.64705	5.70757	0.0276396	11.01
4.65433	5.73521	0	11.01
4.65445	5.73521	0	11.01
4.65447	5.74903	0.0276396	11.01
4.70761	5.77667	0	11.01
4.70781	5.77667	0	11.01
4.70826	5.77667	0	11.01
4.70826	5.79049	0.0276396	11.01
4.70844	5.81813	0	11.01
4.7085	5.83195	0.0276396	11.01
4.71071	5.85959	0	11.01
4.71085	5.85959	0	11.01
4.7109	5.85959	0.0552792	11.01
4.71092	5.85959	0.0552792	11.01
4.71094	5.88723	0.0276396	11.01
4.7187	5.91487	0	11.01
4.71893	5.91487	0	11.01
4.719	5.91487	0.0276396	11.01
4.719	5.92869	0.0552792	11.01
4.71901	5.95633	0.0276396	11.01
4.71906	5.95633	0.0276396	11.01
4.74586	5.98397	0	11.01
4.76658	5.98397	0	11.192
4.81791	5.98397	0	11.374
4.82751	5.98397	0	11.556
4.83216	5.98397	0	11.7379
4.8437	5.98397	0	11.7379
4.86663	5.98397	0	11.8289
4.87092	5.98397	0	11.9199
4.87253	5.98397	0	11.9199
4.92062	5.98397	0.0276396	11.9199
4.92065	5.98397	0.0276396	11.9199
4.92103	6.01161	0	11.9199
4.92104	6.02543	0.0276396	11.9199
4.94032	6.05307	0	11.9199
4.96196	6.05307	0	12.0109
4.96243	6.05307	0	12.1019
4.96697	6.05307	0	12.2839
4.96781	6.05307	0	12.2839
4.96781	6.05307	0.0552792	12.2839
4.96783	6.08071	0.0276396	12.2839
4.98085	6.10835	0	12.2839
4.98097	6.10835	0	12.2839
4.98154	6.10835	0.0276396	12.2839
4.98236	6.10835	0.0552792	12.2839
4.98278	6.10835	0.0829187	12.2839
4.98304	6.10835	0.110558	12.2839
4.98305	6.12217	0.138198	12.2839
4.98305	6.14981	0.110558	12.2839
4.98306	6.17745	0.0829187	12.2839
4.98307	6.20509	0.0552792	12.2839
4.98315	6.23273	0.0276396	12.2839
5.03264	6.26036	0	12.2839
5.03296	6.26036	0	12.2839
5.033	6.27418	0.0276396	12.2839
5.03303	6.30182	0	12.2839
5.16214	6.30182	0	12.2839
5.18078	6.30182	0	12.4659
5.1809	6.30182	0	12.4659
5.18099	6.31564	0.0276396	12.4659
5.19538	6.34328	0	12.4659
5.19588	6.34328	0	12.4659
5.1959	6.3571	0.0276396	12.4659
5.19684	6.38474	0	12.4659
5.20574	6.38474	0	12.6479
5.2058	6.38474	0	12.6479
5.20586	6.39856	0.0276396	12.6479
5.23039	6.4262	0	12.6479
5.33429	6.4262	0	12.8298
5.33631	6.4262	0	13.0118
5.33644	6.4262	0	13.1028
5.33645	6.4262	0	13.1938
5.40559	6.4262	0	13.1938
5.40689	6.4262	0	13.1938
5.40706	6.44002	0.0276396	13.1938
5.4167	6.46766	0	13.1938
5.41672	6.46766	0	13.1938
5.42601	6.46766	0	13.1938
5.42666	6.46766	0	13.1938
5.42669	6.48148	0.0276396	13.1938
5.46976	6.50912	0	13.1938
5.46982	6.50912	0	13.1938
5.46984	6.52294	0.0276396	13.1938
5.47523	6.55058	0	13.1938
5.47552	6.55058	0	13.1938
5.47552	6.5644	0.0276396	13.1938
5.4764	6.59204	0	13.1938
5.48183	6.59204	0	13.2848
5.48207	6.59204	0	13.2848
5.48217	6.60586	0.0276396	13.2848
5.51976	6.6335	0	13.2848
5.52	6.6335	0	13.2848
5.52012	6.6335	0.0552792	13.2848
5.5203	6.66114	0.0276396	13.2848
5.54437	6.68878	0	13.2848
5.54438	6.68878	0	13.2848
5.5444	6.7026	0.0276396	13.2848
5.54703	6.73024	0	13.2848
5.54749	6.73024	0	13.2848
5.55518	6.73024	0.0276396	13.2848
5.55608	6.73024	0.0276396	13.2848
5.55609	6.74406	0.0552792	13.2848
5.55609	6.7717	0.0276396	13.2848
5.58395	6.79934	0	13.2848
5.58797	6.79934	0	13.3758
5.62716	6.79934	0	13.5578
5.62763	6.79934	0	13.5578
5.62805	6.79934	0.0276396	13.5578
5.6281	6.81316	0.0552792	13.5578
5.62816	6.8408	0.0276396	13.5578
5.63092	6.86844	0	13.5578
5.63283	6.86844	0	13.5578
5.63318	6.86844	0.0276396	13.5578
5.63321	6.88226	0.0552792	13.5578
5.63332	6.90989	0.0276396	13.5578
5.64445	6.93753	0	13.5578
5.64452	6.93753	0	13.5578
5.64474	6.93753	0.0276396	13.5578
5.64538	6.93753	0.0552792	13.5578
5.64542	6.93753	0.0829187	13.5578
5.64574	6.93753	0.110558	13.5578
5.64578	6.93753	0.138198	13.5578
5.64578	6.95135	0.165837	13.5578
5.64578	6.97899	0.138198	13.5578
5.6458	6.97899	0.138198	13.5578
5.64581	7.00663	0.110558	13.5578
5.64582	7.03427	0.0829187	13.5578
5.64585	7.06191	0.0552792	13.5578
5.64587	7.08955	0.0276396	13.5578
5.6964	7.11719	0	13.5578
5.77826	7.11719	0	13.6488
5.77904	7.11719	0	13.6488
5.7791	7.11719	0.0552792	13.6488
5.77911	7.14483	0.0276396	13.6488
5.90923	7.17247	0	13.6488
5.90927	7.17247	0	13.6488
5.90956	7.17247	0	13.6488
5.90957	7.18629	0.0276396	13.6488
5.90967	7.21393	0	13.6488
5.91155	7.21393	0.0276396	13.6488
5.91166	7.21393	0.0276396	13.8308
5.9117	7.22775	0.0552792	13.8308
5.9117	7.25539	0.0276396	13.8308
5.94668	7.28303	0	13.8308
5.97009	7.28303	0	13.9217
5.97098	7.28303	0	13.9217
5.97101	7.29685	0.0276396	13.9217
5.97209	7.32449	0	13.9217
5.97916	7.32449	0	14.0127
5.97928	7.32449	0	14.0127
5.97929	7.32449	0.0552792	14.0127
5.9793	7.35213	0.0276396	14.0127
5.98722	7.37977	0	14.0127
5.99698	7.37977	0	14.1947
5.99757	7.37977	0	14.1947
5.99776	7.37977	0	14.2857
5.9984	7.37977	0.0276396	14.2857
5.99843	7.37977	0.0552792	14.2857
5.99874	7.37977	0.0829187	14.2857
5.99885	7.37977	0.110558	14.2857
5.99886	7.39359	0.138198	14.2857
5.99886	7.42123	0.110558	14.2857
5.99888	7.44887	0.0829187	14.2857
5.99889	7.47651	0.0552792	14.2857
5.99889	7.50415	0.0276396	14.2857
6.01198	7.53179	0	14.2857
6.01662	7.53179	0	14.2857
6.02019	7.53179	0	14.4677
6.02033	7.53179	0	14.4677
6.02037	7.54561	0.0276396	14.4677
6.06427	7.57324	0	14.4677
6.07369	7.57324	0	14.5587
6.07874	7.57324	0	14.5587
6.09604	7.57324	0	14.6497
6.09921	7.57324	0	14.7407
6.09986	7.57324	0	14.7407
6.10024	7.57324	0.0276396	14.7407
6.10139	7.57324	0.0552792	14.7407
6.10149	7.57324	0.0829187	14.7407
6.10149	7.57324	0.110558	14.7407
6.10151	7.57324	0.138198	14.7407
6.10194	7.57324	0.165837	14.7407
6.1023	7.57324	0.193477	14.7407
6.10243	7.57324	0.221117	14.7407
6.10249	7.57324	0.248756	14.7407
6.10252	7.60088	0.221117	14.7407
6.10252	7.60088	0.276396	14.7407
6.10252	7.62852	0.248756	14.7407
6.10252	7.65616	0.221117	14.7407
6.10252	7.6838	0.193477	14.7407
6.10253	7.71144	0.165837	14.7407
6.10253	7.73908	0.138198	14.7407
6.10254	7.76672	0.110558	14.7407
6.10254	7.79436	0.0829187	14.7407
6.1026	7.822	0.0552792	14.7407
6.10266	7.84964	0.0276396	14.7407
6.10845	7.87728	0	14.7407
6.14587	7.87728	0	14.9227
6.14594	7.87728	0	14.9227
6.14597	7.8911	0.0276396	14.9227
6.18248	7.91874	0	14.9227
6.18282	7.91874	0	14.9227
6.18285	7.93256	0.0276396	14.9227
6.1898	7.9602	0	14.9227
6.19107	7.9602	0	14.9227
6.19109	7.9602	0.0552792	14.9227
6.19117	7.98784	0.0276396	14.9227
6.1936	8.01548	0	14.9227
6.21819	8.01548	0	14.9227
6.31747	8.01548	0	15.1046
6.31777	8.01548	0	15.1046
6.31777	8.01548	0.0552792	15.1046
6.31777	8.04312	0.0276396	15.1046
6.31825	8.07076	0	15.1046
6.32829	8.07076	0	15.1956
6.32888	8.07076	0	15.1956
6.32888	8.07076	0.0552792	15.1956
6.32891	8.0984	0.0276396	15.1956
6.3583	8.12604	0	15.1956
6.40793	8.12604	0	15.1956
6.40825	8.12604	0	15.1956
6.40833	8.13986	0.0276396	15.1956
6.44238	8.1675	0	15.1956
6.44362	8.1675	0	15.1956
6.44362	8.18132	0.0276396	15.1956
6.47305	8.20896	0	15.1956
6.47308	8.20896	0	15.1956
6.47311	8.22278	0.0276396	15.1956
6.48326	8.25041	0	15.1956
6.53115	8.25041	0	15.1956
6.53133	8.25041	0	15.1956
6.53134	8.26423	0.0276396	15.1956
6.55155	8.29187	0	15.1956
6.55286	8.29187	0	15.1956
6.55319	8.29187	0	15.1956
6.55321	8.29187	0.0552792	15.1956
6.55334	8.31951	0.0276396	15.1956
6.55359	8.34715	0	15.1956
6.55362	8.36097	0.0276396	15.1956
6.59928	8.38861	0	15.1956
6.59945	8.38861	0	15.1956
6.59945	8.38861	0.0276396	15.1956
6.63062	8.41625	0	15.1956
6.6417	8.41625	0	15.2866
6.65558	8.41625	0	15.4686
6.65623	8.41625	0	15.4686
6.65624	8.43007	0.0276396	15.4686
6.66543	8.45771	0	15.4686
6.69685	8.45771	0	15.5596
6.71812	8.45771	0	15.6506
6.71906	8.45771	0	15.6506
6.71907	8.47153	0.0276396	15.6506
6.75399	8.49917	0	15.6506
6.75403	8.49917	0	15.6506
6.75408	8.49917	0.0552792	15.6506
6.75408	8.52681	0.0276396	15.6506
6.76137	8.55445	0	15.6506
6.76533	8.55445	0	15.7416
6.76591	8.55445	0	15.7416
6.76592	8.56827	0.0276396	15.7416
6.77491	8.59591	0	15.7416
6.78259	8.59591	0	15.9236
6.7834	8.59591	0	15.9236
6.78345	8.60973	0.0276396	15.9236
6.80483	8.63737	0	15.9236
6.81329	8.63737	0	16.0146
6.81469	8.63737	0	16.0146
6.81473	8.63737	0.0552792	16.0146
6.81473	8.66501	0.0276396	16.0146
6.85568	8.69265	0	16.0146
6.86449	8.69265	0	16.0146
6.86468	8.69265	0	16.0146
6.86512	8.69265	0.0276396	16.0146
6.86513	8.70647	0.0552792	16.0146
6.8652	8.73411	0.0276396	16.0146
6.87649	8.76175	0	16.0146
6.87668	8.76175	0	16.0146
6.87696	8.76175	0.0276396	16.0146
6.877	8.77557	0.0552792	16.0146
6.87714	8.80321	0.0276396	16.0146
6.88321	8.83085	0	16.0146
6.96705	8.83085	0	16.1965
6.98446	8.83085	0	16.3785
6.98943	8.83085	0	16.4695
6.98945	8.83085	0	16.6515
7.03951	8.83085	0	16.6515
7.04012	8.83085	0	16.6515
7.04017	8.83085	0	16.6515
7.04017	8.84467	0.0276396	16.6515
7.09141	8.87231	0	16.6515
7.0916	8.87231	0	16.7425
7.12629	8.87231	0	16.8335
7.15565	8.87231	0	17.0155
7.17401	8.87231	0	17.1975
7.17439	8.87231	0	17.1975
7.17441	8.88612	0.0276396	17.1975
7.17936	8.91376	0	17.1975
7.17983	8.91376	0	17.1975
7.17985	8.91376	0.0552792	17.1975
7.18001	8.9414	0.0276396	17.1975
7.20094	8.96904	0	17.1975
7.22247	8.96904	0	17.2884
7.22395	8.96904	0	17.2884
7.22398	8.96904	0	17.4704
7.22398	8.98286	0.0276396	17.4704
7.23361	9.0105	0	17.4704
7.23366	9.0105	0	17.4704
7.2337	9.02432	0.0276396	17.4704
7.24358	9.05196	0	17.4704
7.30367	9.05196	0	17.5614
7.30409	9.05196	0	17.5614
7.3041	9.05196	0.0552792	17.5614
7.3041	9.0796	0.0276396	17.5614
7.30459	9.10724	0	17.5614
7.30502	9.10724	0	17.5614
7.30555	9.10724	0.0276396	17.5614
7.30556	9.12106	0.0552792	17.5614
7.30561	9.1487	0.0276396	17.5614
7.30564	9.17634	0	17.5614
7.31876	9.17634	0	17.5614
7.31924	9.17634	0	17.5614
7.31979	9.17634	0.0276396	17.5614
7.32039	9.17634	0.0552792	17.5614
7.32169	9.17634	0.0829187	17.5614
7.32232	9.17634	0.110558	17.5614
7.32254	9.17634	0.138198	17.5614
7.32259	9.17634	0.165837	17.5614
7.32301	9.17634	0.193477	17.5614
7.32355	9.17634	0.221117	17.5614
7.32361	9.17634	0.248756	17.5614
7.325	9.20398	0.221117	17.5614
7.325	9.20398	0.248756	17.5614
7.32504	9.23162	0.221117	17.5614
7.32504	9.23162	0.276396	17.5614
7.32504	9.25926	0.248756	17.5614
7.32506	9.2869	0.221117	17.5614
7.32506	9.31454	0.193477	17.5614
7.32507	9.34218	0.165837	17.5614
7.32507	9.36982	0.138198	17.5614
7.32507	9.39746	0.110558	17.5614
7.32507	9.4251	0.0829187	17.5614
7.32509	9.45274	0.0552792	17.5614
7.3251	9.48038	0.0276396	17.5614
7.34412	9.50802	0	17.5614
7.34423	9.50802	0	17.5614
7.34431	9.52184	0.0276396	17.5614
7.35727	9.54947	0	17.5614
7.3578	9.54947	0	17.5614
7.35855	9.54947	0.0276396	17.5614
7.36011	9.54947	0.0552792	17.5614
7.36041	9.54947	0.0829187	17.5614
7.36099	9.54947	0.110558	17.5614
7.36186	9.54947	0.138198	17.5614
7.36209	9.54947	0.165837	17.5614
7.36239	9.54947	0.193477	17.5614
7.36245	9.54947	0.221117	17.5614
7.36247	9.54947	0.248756	17.5614
7.36261	9.57711	0.221117	17.5614
7.36264	9.57711	0.248756	17.5614
7.36266	9.60475	0.221117	17.5614
7.36275	9.60475	0.221117	17.5614
7.36275	9.60475	0.248756	17.5614
7.3628	9.63239	0.221117	17.5614
7.3628	9.63239	0.248756	17.5614
7.36281	9.66003	0.221117	17.5614
7.3636	9.66003	0.221117	17.5614
7.36367	9.66003	0.248756	17.5614
7.36369	9.68767	0.221117	17.5614
7.36389	9.68767	0.221117	17.5614
7.36392	9.68767	0.248756	17.5614
7.36447	9.71531	0.221117	17.5614
7.36449	9.71531	0.248756	17.5614
7.3645	9.71531	0.248756	17.5614
7.42654	9.74295	0.221117	17.5614
7.42662	9.74295	0.221117	17.5614
7.42662	9.75677	0.248756	17.5614
7.42663	9.78441	0.221117	17.5614
7.42663	9.81205	0.193477	17.5614
7.42663	9.83969	0.165837	17.5614
7.42666	9.86733	0.138198	17.5614
7.42666	9.89497	0.110558	17.5614
7.42666	9.92261	0.0829187	17.5614
7.42667	9.92261	0.0829187	17.5614
7.42667	9.92261	0.0829187	17.5614
7.42668	9.95025	0.0552792	17.5614
7.42669	9.97789	0.0276396	17.5614
7.4267	10.0055	0	17.5614
7.42675	10.0055	0	17.5614
7.42678	10.0055	0	17.5614
7.42678	10.0055	0	17.5614
7.44356	10.0055	0	17.5614
7.48295	10.0055	0	17.6524
7.49268	10.0055	0	17.7434
7.49281	10.0055	0	17.7434
7.49291	10.0055	0.0276396	17.7434
7.49293	10.0055	0.0829187	17.7434
7.49294	10.0332	0.0552792	17.7434
7.49295	10.0608	0.0276396	17.7434
7.54356	10.0884	0	17.7434
7.54432	10.0884	0	17.7434
7.54432	10.1023	0.0276396	17.7434
7.57143	10.1299	0	17.7434
7.57224	10.1299	0	17.7434
7.57224	10.1437	0.0276396	17.7434
7.59512	10.1714	0	17.7434
7.60388	10.1714	0	17.8344
7.60505	10.1714	0	17.8344
7.60506	10.1852	0.0276396	17.8344
7.60507	10.1852	0.0276396	17.8344
7.70151	10.2128	0	17.8344
7.7218	10.2128	0	17.9254
7.73128	10.2128	0	17.9254
7.73149	10.2128	0	17.9254
7.73181	10.2128	0.0276396	17.9254
7.73184	10.2266	0.0552792	17.9254
7.73187	10.2543	0.0276396	17.9254
7.73564	10.2819	0	17.9254
7.75317	10.2819	0	18.0164
7.75324	10.2819	0	18.0164
7.75329	10.2957	0.0276396	18.0164
7.75885	10.3234	0	18.0164
7.76901	10.3234	0	18.1984
7.77027	10.3234	0	18.1984
7.77029	10.3372	0.0276396	18.1984
7.78194	10.3648	0	18.1984
7.80927	10.3648	0	18.3803
7.87058	10.3648	0	18.4713
7.87101	10.3648	0	18.4713
7.87101	10.3648	0.0552792	18.4713
7.87106	10.3925	0.0276396	18.4713
7.8837	10.4201	0	18.4713
7.88453	10.4201	0	18.4713
7.88453	10.4339	0.0276396	18.4713
7.88972	10.4616	0	18.4713
7.88973	10.4616	0	18.4713
7.88999	10.4754	0.0276396	18.4713
7.90208	10.503	0	18.4713
7.90857	10.503	0	18.6533
7.90884	10.503	0	18.6533
7.9089	10.5169	0.0276396	18.6533
7.93681	10.5445	0	18.6533
7.93778	10.5445	0	18.6533
7.93779	10.5445	0	18.6533
7.93781	10.5445	0.0552792	18.6533
7.93784	10.5721	0.0276396	18.6533
7.93791	10.586	0.0552792	18.6533
7.93795	10.6136	0.0276396	18.6533
8.00354	10.6412	0	18.6533
8.00356	10.6412	0	18.6533
8.00394	10.6412	0.0276396	18.6533
8.02179	10.6412	0.0552792	18.6533
8.0224	10.6412	0.0552792	18.6533
8.02244	10.6551	0.0829187	18.6533
8.03047	10.6827	0.0552792	18.6533
8.03059	10.6827	0.0552792	18.6533
8.03065	10.6965	0.0829187	18.6533
8.04311	10.7242	0.0552792	18.6533
8.10495	10.7242	0.0552792	18.7443
8.10496	10.7242	0.0552792	18.7443
8.10508	10.7518	0.0276396	18.7443
8.10534	10.7794	0	18.7443
8.10536	10.7794	0.0552792	18.7443
8.10536	10.8071	0.0276396	18.7443
8.10621	10.8071	0.0276396	18.7443
8.10632	10.8071	0.0552792	18.7443
8.10667	10.8071	0.0829187	18.7443
8.10693	10.8071	0.110558	18.7443
8.10695	10.8071	0.138198	18.7443
8.10714	10.8071	0.138198	18.7443
8.10716	10.8071	0.165837	18.7443
8.10804	10.8347	0.138198	18.7443
8.10857	10.8347	0.165837	18.7443
8.11725	10.8347	0.193477	18.7443
8.14089	10.8347	0.193477	18.9263
8.14089	10.8347	0.193477	18.9263
8.14089	10.8624	0.165837	18.9263
8.14091	10.89	0.138198	18.9263
8.14093	10.9176	0.110558	18.9263
8.14093	10.9453	0.0829187	18.9263
8.14138	10.9729	0.0552792	18.9263
8.1414	10.9867	0.0829187	18.9263
8.1414	11.0144	0.0552792	18.9263
8.14146	11.042	0.0276396	18.9263
8.17645	11.0697	0	18.9263
8.17748	11.0697	0	18.9263
8.17749	11.0835	0.0276396	18.9263
8.21583	11.1111	0	18.9263
8.2167	11.1111	0	18.9263
8.21696	11.1111	0.0276396	18.9263
8.21697	11.1249	0.0552792	18.9263
8.21701	11.1526	0.0276396	18.9263
8.32726	11.1802	0	18.9263
8.42004	11.1802	0	19.0173
8.42011	11.1802	0	19.0173
8.42087	11.1802	0.0276396	19.0173
8.42096	11.1802	0.0552792	19.0173
8.421	11.2078	0.0276396	19.0173
8.42111	11.2355	0	19.0173
8.42639	11.2355	0	19.1993
8.42653	11.2355	0	19.1993
8.42817	11.2355	0	19.3813
8.42818	11.2355	0.0552792	19.3813
8.4282	11.2631	0.0276396	19.3813
8.43599	11.2908	0	19.3813
8.46375	11.2908	0	19.4722
8.46498	11.2908	0	19.4722
8.46503	11.3046	0.0276396	19.4722
8.4877	11.3322	0	19.4722
8.56602	11.3322	0	19.6542
8.56646	11.3322	0	19.6542
8.5665	11.346	0.0276396	19.6542
8.59003	11.3737	0	19.6542
8.59255	11.3737	0	19.8362
8.6128	11.3737	0	19.9272
8.6729	11.3737	0	20.1092
8.77363	11.3737	0	20.2002
8.77369	11.3737	0	20.2002
8.7737	11.3875	0.0276396	20.2002
8.87789	11.4151	0	20.2002
8.87803	11.4151	0	20.2002
8.87818	11.429	0.0276396	20.2002
8.91507	11.4566	0	20.2002
8.95964	11.4566	0	20.3822
8.95992	11.4566	0	20.4732
8.9606	11.4566	0	20.4732
8.96062	11.4704	0.0276396	20.4732
8.97408	11.4981	0	20.4732
8.97542	11.4981	0	20.4732
8.97568	11.4981	0	20.6551
8.97579	11.5119	0.0276396	20.6551
9.04338	11.5395	0	20.6551
9.09883	11.5395	0	20.8371
9.12067	11.5395	0	21.0191
9.13478	11.5395	0	21.2011
9.13561	11.5395	0	21.2011
9.13562	11.5395	0.0552792	21.2011
9.13565	11.5672	0.0276396	21.2011
9.16045	11.5948	0	21.2011
9.16615	11.5948	0	21.2921
9.1665	11.5948	0	21.2921
9.1665	11.6086	0.0276396	21.2921
9.17145	11.6363	0	21.2921
9.1723	11.6363	0	21.2921
9.17323	11.6363	0.0276396	21.2921
9.17529	11.6363	0.0552792	21.2921
9.17545	11.6363	0.0829187	21.2921
9.17597	11.6363	0.110558	21.2921
9.17597	11.6501	0.138198	21.2921
9.17598	11.6777	0.110558	21.2921
9.17598	11.7054	0.0829187	21.2921
9.17599	11.733	0.0552792	21.2921
9.17603	11.7606	0.0276396	21.2921
9.20534	11.7883	0	21.2921
9.20613	11.7883	0	21.2921
9.20613	11.7883	0.0552792	21.2921
9.20613	11.8159	0.0276396	21.2921
9.21472	11.8436	0	21.2921
9.21544	11.8436	0	21.2921
9.21545	11.8436	0.0552792	21.2921
9.21546	11.8712	0.0276396	21.2921
9.21619	11.8988	0	21.2921
9.21641	11.8988	0	21.2921
9.21644	11.9127	0.0276396	21.2921
9.21699	11.9403	0	21.2921
9.21704	11.9403	0	21.2921
9.21706	11.9403	0.0552792	21.2921
9.21707	11.9679	0.0276396	21.2921
9.23518	11.9956	0	21.2921
9.23589	11.9956	0	21.4741
9.23589	11.9956	0	21.4741
9.236	11.9956	0.0276396	21.4741
9.23602	12.0094	0.0552792	21.4741
9.23602	12.037	0.0276396	21.4741
9.24016	12.0647	0	21.4741
9.24044	12.0647	0	21.4741
9.24047	12.0785	0.0276396	21.4741
9.31567	12.1061	0	21.4741
9.31703	12.1061	0	21.4741
9.31704	12.1061	0.0552792	21.4741
9.31709	12.1338	0.0276396	21.4741
9.348	12.1614	0	21.4741
9.34893	12.1614	0	21.4741
9.34894	12.1614	0.0552792	21.4741
9.34901	12.1891	0.0276396	21.4741
9.37678	12.2167	0	21.4741
9.42695	12.2167	0	21.5651
9.427	12.2167	0	21.5651
9.48642	12.2167	0.0276396	21.5651
9.48643	12.2167	0.0276396	21.747
9.48645	12.2443	0	21.747
9.49067	12.2443	0	21.747
9.55022	12.2443	0	21.929
9.55054	12.2443	0	21.929
9.55055	12.2443	0	21.929
9.5507	12.2443	0.0276396	21.929
9.55071	12.2582	0.0552792	21.929
9.56574	12.2858	0.0276396	21.929
9.58762	12.2858	0.0276396	22.111
9.58762	12.2858	0.0276396	22.202
9.61054	12.3134	0	22.202
9.61086	12.3134	0	22.202
9.61086	12.3134	0.0552792	22.202
9.61087	12.3411	0.0276396	22.202
9.65039	12.3687	0	22.202
9.65086	12.3687	0	22.202
9.65087	12.3825	0.0276396	22.202
9.66966	12.4102	0	22.202
9.67011	12.4102	0	22.202
9.67024	12.424	0.0276396	22.202
9.76	12.4516	0	22.202
9.76004	12.4516	0	22.202
9.76101	12.4516	0.0276396	22.202
9.76101	12.4655	0.0552792	22.202
9.76101	12.4931	0.0276396	22.202
9.78795	12.5207	0	22.202
9.78862	12.5207	0	22.202
9.79099	12.5207	0.0276396	22.202
9.79102	12.5207	0.0829187	22.202
9.79102	12.5484	0.0552792	22.202
9.79105	12.576	0.0276396	22.202
9.83484	12.6036	0	22.202
9.84312	12.6036	0	22.384
9.84424	12.6036	0	22.384
9.84427	12.6175	0.0276396	22.384
9.84708	12.6451	0	22.384
9.84753	12.6451	0	22.384
9.8912	12.6451	0.0276396	22.384
9.89122	12.6451	0.0276396	22.384
9.89147	12.6727	0	22.384
9.89153	12.6866	0.0276396	22.384
9.91616	12.7142	0	22.384
9.91709	12.7142	0	22.384
9.91734	12.7142	0	22.384
9.91739	12.7142	0.0552792	22.384
9.91739	12.7418	0.0276396	22.384
9.91769	12.7695	0	22.384
9.91783	12.7833	0.0276396	22.384
10.0303	12.8109	0	22.384
10.0303	12.8109	0	22.384
10.0303	12.8109	0.0552792	22.384
10.0303	12.8386	0.0276396	22.384
10.0367	12.8662	0	22.384
10.075	12.8662	0	22.566
10.0751	12.8662	0	22.566
10.0752	12.8662	0.0552792	22.566
10.0752	12.8939	0.0276396	22.566
10.0985	12.9215	0	22.566
10.1737	12.9215	0	22.748
10.1753	12.9215	0	22.748
10.1754	12.9215	0.0276396	22.748
10.1769	12.9215	0.0552792	22.748
10.1769	12.9215	0.110558	22.748
10.177	12.9491	0.0829187	22.748
10.177	12.9768	0.0552792	22.748
10.1772	13.0044	0.0276396	22.748
10.2033	13.0321	0	22.748
10.2685	13.0321	0	22.9299
10.2691	13.0321	0	22.9299
10.2692	13.0459	0.0276396	22.9299
10.2991	13.0735	0	22.9299
10.3016	13.0735	0	23.0209
10.3017	13.0735	0	23.0209
10.3017	13.0735	0.0552792	23.0209
10.3018	13.1012	0.0276396	23.0209
10.3225	13.1288	0	23.0209
10.3228	13.1288	0	23.0209
10.3228	13.1288	0.0552792	23.0209
10.3228	13.1564	0.0276396	23.0209
10.3302	13.1841	0	23.0209
10.3521	13.1841	0	23.1119
10.3529	13.1841	0	23.1119
10.3534	13.1841	0.0276396	23.1119
10.3535	13.1841	0.0552792	23.1119
10.3542	13.1841	0.0829187	23.1119
10.3542	13.1841	0.110558	23.1119
10.3546	13.1841	0.138198	23.1119
10.3546	13.1841	0.165837	23.1119
10.3549	13.1841	0.193477	23.1119
10.355	13.1841	0.221117	23.1119
10.355	13.1841	0.248756	23.1119
10.3559	13.2117	0.221117	23.1119
10.3559	13.2117	0.248756	23.1119
10.3583	13.2394	0.221117	23.1119
10.4492	13.2394	0.221117	23.2939
10.4492	13.2394	0.221117	23.4759
10.4492	13.267	0.193477	23.4759
10.4492	13.2946	0.165837	23.4759
10.4492	13.3223	0.138198	23.4759
10.4492	13.3499	0.110558	23.4759
10.4492	13.3776	0.0829187	23.4759
10.4493	13.4052	0.0552792	23.4759
10.4493	13.4328	0.0276396	23.4759
10.4883	13.4605	0	23.4759
10.4898	13.4605	0	23.4759
10.4899	13.4743	0.0276396	23.4759
10.5256	13.5019	0	23.4759
10.526	13.5019	0	23.4759
10.526	13.5158	0.0276396	23.4759
10.551	13.5434	0	23.4759
10.5529	13.5434	0	23.4759
10.5536	13.5434	0.0276396	23.4759
10.5537	13.5572	0.0552792	23.4759
10.5537	13.5849	0.0276396	23.4759
10.5708	13.6125	0	23.4759
10.5793	13.6125	0	23.6579
10.5795	13.6125	0	23.6579
10.5796	13.6125	0.0276396	23.6579
10.5818	13.6125	0.0552792	23.6579
10.5831	13.6125	0.0829187	23.6579
10.5834	13.6125	0.110558	23.6579
10.5836	13.6125	0.110558	23.6579
10.5836	13.6125	0.138198	23.6579
10.5837	13.6263	0.165837	23.6579
10.5844	13.654	0.138198	23.6579
10.5845	13.654	0.165837	23.6579
10.5847	13.654	0.193477	23.6579
10.5855	13.654	0.221117	23.6579
10.5855	13.654	0.248756	23.6579
10.5864	13.6816	0.221117	23.6579
10.5865	13.6816	0.248756	23.6579
10.587	13.7092	0.221117	23.6579
10.587	13.7092	0.248756	23.6579
10.5876	13.7369	0.221117	23.6579
10.5876	13.7369	0.248756	23.6579
10.5877	13.7645	0.221117	23.6579
10.5877	13.7645	0.248756	23.6579
10.6327	13.7922	0.221117	23.6579
10.6327	13.7922	0.221117	23.6579
10.6327	13.8198	0.193477	23.6579
10.6327	13.8474	0.165837	23.6579
10.6327	13.8751	0.138198	23.6579
10.6327	13.9027	0.110558	23.6579
10.6328	13.9303	0.0829187	23.6579
10.6328	13.958	0.0552792	23.6579
10.6328	13.9856	0.0276396	23.6579
10.6339	14.0133	0	23.6579
10.6339	14.0133	0.0552792	23.6579
10.634	14.0409	0.0276396	23.6579
10.6884	14.0685	0	23.6579
10.6885	14.0685	0	23.6579
10.6885	14.0824	0.0276396	23.6579
10.7066	14.11	0	23.6579
10.7074	14.11	0	23.6579
10.7074	14.1238	0.0276396	23.6579
10.764	14.1515	0	23.6579
10.7645	14.1515	0	23.6579
10.7645	14.1653	0.0276396	23.6579
10.8027	14.1929	0	23.6579
10.8029	14.1929	0	23.6579
10.8029	14.2067	0.0276396	23.6579
10.8102	14.2344	0	23.6579
10.8129	14.2344	0	23.8399
10.8698	14.2344	0	24.0218
10.8815	14.2344	0	24.1128
10.8815	14.2344	0	24.1128
10.8816	14.2344	0.0552792	24.1128
10.8816	14.262	0.0276396	24.1128
10.8908	14.2897	0	24.1128
10.8927	14.2897	0	24.1128
10.8927	14.3035	0.0276396	24.1128
10.907	14.3311	0	24.1128
10.9083	14.3311	0	24.1128
10.9084	14.3449	0.0276396	24.1128
10.9633	14.3726	0	24.1128
10.9638	14.3726	0	24.1128
10.9721	14.3726	0.0276396	24.1128
10.9722	14.3726	0.0276396	24.1128
10.9722	14.3726	0.0552792	24.1128
10.9757	14.4002	0.0276396	24.1128
10.9762	14.4002	0.0276396	24.1128
10.9762	14.414	0.0552792	24.1128
10.9908	14.4417	0.0276396	24.1128
10.9909	14.4417	0.0276396	24.2038
11.0411	14.4693	0	24.2038
11.1201	14.4693	0	24.3858
11.1206	14.4693	0	24.3858
11.1207	14.4693	0.0276396	24.3858
11.1208	14.4693	0.0552792	24.3858
11.1208	14.4693	0.110558	24.3858
11.1208	14.497	0.0829187	24.3858
11.1208	14.5246	0.0552792	24.3858
11.1209	14.5522	0.0276396	24.3858
11.1332	14.5799	0	24.3858
11.1333	14.5799	0	24.3858
11.1338	14.5799	0.0276396	24.3858
11.1342	14.5799	0.0552792	24.3858
11.1345	14.5799	0.0829187	24.3858
11.1345	14.5799	0.138198	24.3858
11.1345	14.6075	0.110558	24.3858
11.1345	14.6352	0.0829187	24.3858
11.1345	14.6628	0.0552792	24.3858
11.1345	14.6904	0.0276396	24.3858
11.1953	14.7181	0	24.3858
11.1963	14.7181	0	24.3858
11.1963	14.7319	0.0276396	24.3858
11.2533	14.7595	0	24.3858
11.316	14.7595	0	24.5678
11.3161	14.7595	0	24.5678
11.3162	14.7734	0.0276396	24.5678
11.3754	14.801	0	24.5678
11.3761	14.801	0	24.5678
11.3776	14.801	0.0276396	24.5678
11.3776	14.8148	0.0552792	24.5678
11.3776	14.8425	0.0276396	24.5678
11.3905	14.8701	0	24.5678
11.3914	14.8701	0	24.5678
11.3916	14.8701	0.0276396	24.5678
11.3916	14.8839	0.0552792	24.5678
11.3916	14.9116	0.0276396	24.5678
11.3999	14.9392	0	24.5678
11.4	14.9392	0	24.7498
11.4104	14.9392	0	24.7498
11.4112	14.9392	0	24.7498
11.4112	14.953	0.0276396	24.7498
11.4722	14.9807	0	24.7498
11.4722	14.9807	0	24.7498
11.4722	14.9807	0.0552792	24.7498
11.4722	15.0083	0.0276396	24.7498
11.4951	15.0359	0	24.7498
11.4962	15.0359	0	24.7498
11.4962	15.0359	0.0552792	24.7498
11.4964	15.0636	0.0276396	24.7498
11.51	15.0912	0	24.7498
11.5104	15.0912	0	24.7498
11.5105	15.105	0.0276396	24.7498
11.5473	15.1327	0	24.7498
11.5474	15.1327	0	24.7498
11.5474	15.1465	0.0276396	24.7498
11.5642	15.1741	0	24.7498
11.5647	15.1741	0	24.7498
11.5648	15.1879	0.0276396	24.7498
11.5722	15.2156	0	24.7498
11.6107	15.2156	0	24.9318
11.6107	15.2156	0	24.9318
11.6108	15.2294	0.0276396	24.9318
11.6227	15.257	0	24.9318
11.6559	15.257	0	25.1137
11.6561	15.257	0	25.1137
11.6577	15.257	0.0276396	25.1137
11.6577	15.2709	0.0552792	25.1137
11.6577	15.2985	0.0276396	25.1137
11.7095	15.3261	0	25.1137
11.7097	15.3261	0	25.1137
11.7097	15.34	0.0276396	25.1137
11.7315	15.3676	0	25.1137
11.8405	15.3676	0	25.2957
11.8806	15.3676	0	25.4777
11.8836	15.3676	0	25.4777
11.8857	15.3676	0.0276396	25.4777
12.0427	15.3676	0.0276396	25.6597
12.0427	15.3676	0.0276396	25.6597
12.0427	15.3952	0	25.6597
12.0429	15.3952	0	25.6597
12.0431	15.3952	0.0276396	25.6597
12.0438	15.3952	0.0552792	25.6597
12.0439	15.4091	0.0829187	25.6597
12.0439	15.4367	0.0552792	25.6597
12.044	15.4643	0.0276396	25.6597
12.1283	15.492	0	25.6597
12.1285	15.492	0	25.6597
12.1285	15.5058	0.0276396	25.6597
12.1313	15.5334	0	25.6597
12.1315	15.5334	0	25.6597
12.1318	15.5334	0.0276396	25.6597
12.1318	15.5473	0.0552792	25.6597
12.1319	15.5749	0.0276396	25.6597
12.155	15.6025	0	25.6597
12.1551	15.6025	0	25.6597
12.1551	15.6025	0.0552792	25.6597
12.1551	15.6302	0.0276396	25.6597
12.1571	15.6578	0	25.6597
12.1573	15.6578	0	25.6597
12.1574	15.6578	0.0552792	25.6597
12.1574	15.6855	0.0276396	25.6597
12.1643	15.7131	0	25.6597
12.1647	15.7131	0	25.6597
12.1647	15.7131	0.0276396	25.6597
12.1647	15.7269	0.0552792	25.6597
12.1648	15.7546	0.0276396	25.6597
12.2145	15.7822	0	25.6597
12.2157	15.7822	0	25.6597
12.2158	15.796	0.0276396	25.6597
12.3401	15.8237	0	25.6597
12.3402	15.8237	0	25.6597
12.3402	15.8375	0.0276396	25.6597
12.3455	15.8651	0	25.6597
12.3466	15.8651	0	25.6597
12.3476	15.8651	0.0276396	25.6597
12.3476	15.8651	0.0552792	25.6597
12.3476	15.8651	0.0829187	25.6597
12.3476	15.8928	0.0552792	25.6597
12.3476	15.8928	0.0552792	25.6597
12.3476	15.9204	0.0276396	25.6597
12.3477	15.9204	0.0276396	25.6597
12.3808	15.948	0	25.6597
12.3811	15.948	0	25.6597
12.3811	15.9619	0.0276396	25.6597
12.5152	15.9895	0	25.6597
12.5166	15.9895	0	25.6597
12.5167	16.0033	0.0276396	25.6597
12.5861	16.031	0	25.6597
12.5869	16.031	0	25.6597
12.587	16.0448	0.0276396	25.6597
12.6317	16.0724	0	25.6597
12.6321	16.0724	0	25.6597
12.6322	16.0724	0.0552792	25.6597
12.6322	16.1001	0.0276396	25.6597
12.6984	16.1277	0	25.6597
12.6989	16.1277	0	25.6597
12.699	16.1415	0.0276396	25.6597
12.7601	16.1692	0	25.6597
12.7607	16.1692	0	25.6597
12.7607	16.183	0.0276396	25.6597
12.8407	16.2106	0	25.6597
12.8412	16.2106	0	25.6597
12.8413	16.2244	0.0276396	25.6597
12.8579	16.2521	0	25.6597
12.8584	16.2521	0	25.6597
12.8584	16.2521	0.0552792	25.6597
12.8584	16.2797	0.0276396	25.6597
12.8706	16.3074	0	25.6597
12.8922	16.3074	0	25.8417
13.0049	16.3074	0	26.0237
13.005	16.3074	0	26.0237
13.0057	16.3074	0	26.2056
13.0057	16.3074	0.0552792	26.2056
13.0058	16.335	0.0276396	26.2056
13.091	16.3626	0	26.2056
13.0913	16.3626	0	26.2056
13.0914	16.3765	0.0276396	26.2056
13.1101	16.4041	0	26.2056
13.1104	16.4041	0	26.2056
13.1105	16.4041	0.0552792	26.2056
13.1107	16.4317	0.0276396	26.2056
13.1279	16.4594	0	26.2056
13.1281	16.4594	0	26.2056
13.1281	16.4732	0.0276396	26.2056
13.1971	16.5008	0	26.2056
13.1974	16.5008	0	26.2056
13.1975	16.5008	0.0552792	26.2056
13.1976	16.5285	0.0276396	26.2056
13.2487	16.5561	0	26.2056
13.2489	16.5561	0	26.2056
13.2489	16.5561	0.0552792	26.2056
13.2489	16.5837	0.0276396	26.2056
13.3386	16.6114	0	26.2056
13.3595	16.6114	0	26.3876
13.36	16.6114	0	26.3876
13.3601	16.6252	0.0276396	26.3876
13.5498	16.6528	0	26.3876
13.5599	16.6528	0	26.5696
13.56	16.6528	0	26.5696
13.5601	16.6667	0.0276396	26.5696
13.5882	16.6943	0	26.5696
13.589	16.6943	0	26.5696
13.589	16.6943	0.0276396	26.5696
13.5891	16.7081	0.0552792	26.5696
13.5891	16.7358	0.0276396	26.5696
13.6874	16.7634	0	26.5696
13.6878	16.7634	0	26.5696
13.6878	16.7772	0.0276396	26.5696
13.7836	16.8049	0	26.5696
13.7842	16.8049	0	26.5696
13.7846	16.8049	0.0276396	26.5696
13.7846	16.8187	0.0552792	26.5696
13.7846	16.8463	0.0276396	26.5696
13.7851	16.874	0	26.5696
13.863	16.874	0	26.7516
13.8633	16.874	0	26.7516
13.8635	16.874	0.0276396	26.7516
13.8635	16.8878	0.0552792	26.7516
13.8635	16.9154	0.0276396	26.7516
13.8863	16.9431	0	26.7516
13.8864	16.9431	0	26.7516
13.8865	16.9569	0.0276396	26.7516
13.9177	16.9845	0	26.7516
13.9177	16.9845	0	26.7516
13.9182	16.9845	0	26.7516
13.9185	16.9845	0.0276396	26.7516
13.9185	16.9983	0.0552792	26.7516
13.9185	17.026	0.0276396	26.7516
13.9185	17.0536	0	26.7516
13.9186	17.0674	0.0276396	26.7516
13.9589	17.0951	0	26.7516
13.9597	17.0951	0	26.7516
13.9597	17.0951	0.0552792	26.7516
13.9597	17.1227	0.0276396	26.7516
14.0075	17.1504	0	26.7516
14.0078	17.1504	0	26.7516
14.0079	17.1504	0.0552792	26.7516
14.0079	17.178	0.0276396	26.7516
14.0128	17.2056	0	26.7516
14.0128	17.2056	0	26.7516
14.0131	17.2056	0.0276396	26.7516
14.0131	17.2195	0.0552792	26.7516
14.0132	17.2471	0.0276396	26.7516
14.1761	17.2747	0	26.7516
14.1771	17.2747	0	26.7516
14.1773	17.2747	0.0276396	26.7516
14.1773	17.2886	0.0552792	26.7516
14.1773	17.3162	0.0276396	26.7516
14.2206	17.3438	0	26.7516
14.2357	17.3438	0	26.9336
14.2569	17.3438	0	27.1156
14.2587	17.3438	0	27.1156
14.2587	17.3577	0.0276396	27.1156
14.3241	17.3853	0	27.1156
14.325	17.3853	0	27.1156
14.3271	17.3853	0.0276396	27.1156
14.3271	17.3991	0.0552792	27.1156
14.3271	17.4268	0.0276396	27.1156
14.3271	17.4268	0.0276396	27.1156
14.5072	17.4544	0	27.1156
14.5073	17.4544	0	27.1156
14.5073	17.4682	0.0276396	27.1156
14.5142	17.4959	0	27.1156
14.6065	17.4959	0	27.2975
14.7088	17.4959	0	27.4795
14.709	17.4959	0	27.4795
14.7092	17.5097	0.0276396	27.4795
14.7584	17.5373	0	27.4795
14.7585	17.5373	0	27.4795
14.7586	17.5511	0.0276396	27.4795
14.8014	17.5788	0	27.4795
14.8024	17.5788	0	27.4795
14.8024	17.5788	0.0552792	27.4795
14.8026	17.6064	0.0276396	27.4795
14.8059	17.6341	0	27.4795
14.806	17.6341	0	27.4795
14.806	17.6341	0.0552792	27.4795
14.806	17.6617	0.0276396	27.4795
14.8778	17.6893	0	27.4795
14.878	17.6893	0	27.4795
14.878	17.6893	0.0552792	27.4795
14.878	17.717	0.0276396	27.4795
14.9109	17.7446	0	27.4795
14.9112	17.7446	0	27.4795
14.9114	17.7446	0.0276396	27.4795
14.9122	17.7446	0.0552792	27.4795
14.9123	17.7446	0.0829187	27.4795
14.9123	17.7584	0.110558	27.4795
14.9123	17.7861	0.0829187	27.4795
14.9123	17.8137	0.0552792	27.4795
14.9124	17.8413	0.0276396	27.4795
14.9247	17.869	0	27.4795
14.9248	17.869	0	27.4795
14.9257	17.869	0.0276396	27.4795
14.9257	17.8828	0.0552792	27.4795
14.9257	17.9104	0.0276396	27.4795
15.1979	17.9381	0	27.4795
15.1979	17.9381	0	27.4795
15.1979	17.9381	0.0276396	27.4795
15.1981	17.9381	0.0552792	27.4795
15.1982	17.9519	0.0829187	27.4795
15.1982	17.9795	0.0552792	27.4795
15.1983	18.0072	0.0276396	27.4795
15.2467	18.0348	0	27.4795
15.3896	18.0348	0	27.6615
15.4006	18.0348	0	27.8435
15.4008	18.0348	0	27.8435
15.4012	18.0348	0.0276396	27.8435
15.4021	18.0348	0.0552792	27.8435
15.4028	18.0348	0.0829187	27.8435
15.4031	18.0348	0.110558	27.8435
15.4472	18.0348	0.138198	27.8435
15.4472	18.0348	0.138198	28.0255
15.4473	18.0625	0.110558	28.0255
15.4473	18.0901	0.0829187	28.0255
15.4473	18.0901	0.0829187	28.0255
15.4473	18.1177	0.0552792	28.0255
15.4473	18.1177	0.0552792	28.0255
15.4473	18.1454	0.0276396	28.0255
15.4748	18.173	0	28.0255
15.4749	18.173	0	28.0255
15.4749	18.173	0.0552792	28.0255
15.4749	18.2007	0.0276396	28.0255
15.6031	18.2283	0	28.0255
15.6034	18.2283	0	28.0255
15.6034	18.2283	0.0552792	28.0255
15.6035	18.2559	0.0276396	28.0255
15.6035	18.2836	0	28.0255
15.6035	18.2836	0	28.0255
15.604	18.2836	0	28.0255
15.6044	18.2836	0.0276396	28.0255
15.6045	18.2974	0.0552792	28.0255
15.6045	18.325	0.0276396	28.0255
15.656	18.3527	0	28.0255
15.6562	18.3527	0	28.0255
15.6562	18.3527	0.0552792	28.0255
15.6562	18.3803	0.0276396	28.0255
15.6647	18.408	0	28.0255
15.6651	18.408	0	28.0255
15.6652	18.4218	0.0276396	28.0255
15.6652	18.4494	0	28.0255
15.9217	18.4494	0	28.0255
15.9224	18.4494	0	28.0255
15.9224	18.4494	0.0552792	28.0255
15.9224	18.4771	0.0276396	28.0255
15.944	18.5047	0	28.0255
16.13	18.5047	0	28.2075
16.1301	18.5047	0	28.2075
16.1301	18.5185	0.0276396	28.2075
16.4862	18.5462	0	28.2075
16.487	18.5462	0	28.2075
16.487	18.56	0.0276396	28.2075
16.5275	18.5876	0	28.2075
16.6246	18.5876	0	28.3894
16.6251	18.5876	0	28.3894
16.6253	18.5876	0.0276396	28.3894
16.6253	18.6014	0.0552792	28.3894
16.6254	18.6291	0.0276396	28.3894
16.7448	18.6567	0	28.3894
16.7458	18.6567	0	28.5714
16.746	18.6567	0	28.5714
16.746	18.6705	0.0276396	28.5714
16.9371	18.6982	0	28.5714
16.9376	18.6982	0	28.5714
16.9731	18.6982	0.0276396	28.5714
16.9733	18.6982	0.0276396	28.5714
16.9733	18.712	0.0552792	28.5714
16.9806	18.7396	0.0276396	28.5714
16.9826	18.7396	0.0276396	28.5714
17.0177	18.7396	0.0552792	28.5714
17.0177	18.7396	0.0552792	28.5714
17.0178	18.7673	0.0276396	28.5714
17.0207	18.7673	0.0552792	28.5714
17.0207	18.7673	0.0829187	28.5714
17.0211	18.7673	0.110558	28.5714
17.0211	18.7673	0.165837	28.5714
17.0211	18.7949	0.138198	28.5714
17.0211	18.8226	0.110558	28.5714
17.0211	18.8502	0.0829187	28.5714
17.0211	18.8778	0.0552792	28.5714
17.0211	18.9055	0.0276396	28.5714
17.1718	18.9331	0	28.5714
17.1731	18.9331	0	28.5714
17.1735	18.9331	0.0276396	28.5714
17.1735	18.9469	0.0552792	28.5714
17.1735	18.9746	0.0276396	28.5714
17.1898	19.0022	0	28.5714
17.1902	19.0022	0	28.5714
17.1902	19.0022	0.0552792	28.5714
17.1902	19.0299	0.0276396	28.5714
17.2509	19.0575	0	28.5714
17.251	19.0575	0	28.5714
17.251	19.0575	0.0552792	28.5714
17.2511	19.0851	0.0276396	28.5714
17.5605	19.1128	0	28.5714
17.5608	19.1128	0	28.5714
17.5609	19.1128	0.0276396	28.5714
17.6952	19.1404	0	28.5714
17.6956	19.1404	0	28.5714
17.6957	19.1542	0.0276396	28.5714
17.7318	19.1819	0	28.5714
17.7321	19.1819	0	28.5714
17.7324	19.1819	0.0276396	28.5714
17.7324	19.1957	0.0552792	28.5714
17.7325	19.2233	0.0276396	28.5714
17.7556	19.251	0	28.5714
17.7562	19.251	0	28.5714
17.7562	19.2648	0.0276396	28.5714
17.9224	19.2924	0	28.5714
17.9229	19.2924	0	28.5714
17.9229	19.3062	0.0276396	28.5714
18.0724	19.3339	0	28.5714
18.0731	19.3339	0	28.5714
18.0732	19.3339	0.0276396	28.5714
18.0732	19.3339	0.0552792	28.5714
18.0739	19.3339	0.0829187	28.5714
18.0743	19.3339	0.110558	28.5714
18.0749	19.3339	0.138198	28.5714
18.0749	19.3477	0.165837	28.5714
18.0749	19.3753	0.138198	28.5714
18.0749	19.403	0.110558	28.5714
18.075	19.4306	0.0829187	28.5714
18.075	19.4583	0.0552792	28.5714
18.075	19.4859	0.0276396	28.5714
18.1117	19.5135	0	28.5714
18.1121	19.5135	0	28.5714
18.1122	19.5135	0.0552792	28.5714
18.1122	19.5412	0.0276396	28.5714
18.1122	19.5688	0	28.5714
18.2177	19.5688	0	28.5714
18.2194	19.5688	0	28.5714
18.2214	19.5688	0.0276396	28.5714
18.2215	19.5826	0.0552792	28.5714
18.2215	19.6103	0.0276396	28.5714
18.4293	19.6379	0	28.5714
18.4296	19.6379	0	28.5714
18.4296	19.6379	0.0552792	28.5714
18.4298	19.6656	0.0276396	28.5714
18.4403	19.6932	0	28.5714
18.4403	19.6932	0	28.5714
18.4404	19.707	0.0276396	28.5714
18.4559	19.7347	0	28.5714
18.4565	19.7347	0	28.5714
18.4565	19.7485	0.0276396	28.5714
18.5431	19.7761	0	28.5714
18.5435	19.7761	0	28.5714
18.5435	19.7899	0.0276396	28.5714
18.5483	19.8176	0	28.5714
18.5484	19.8176	0	28.5714
18.5484	19.8176	0.0552792	28.5714
18.5485	19.8452	0.0276396	28.5714
18.5998	19.8729	0	28.5714
18.6001	19.8729	0	28.5714
18.87	19.8729	0.0276396	28.5714
18.87	19.8729	0.0276396	28.6624
18.9075	19.9005	0	28.6624
18.908	19.9005	0	28.6624
18.9081	19.9005	0.0552792	28.6624
18.9081	19.9281	0.0276396	28.6624
18.9595	19.9558	0	28.6624
18.9601	19.9558	0	28.6624
18.9602	19.9696	0.0276396	28.6624
19.0171	19.9972	0	28.6624
19.0174	19.9972	0	28.6624
19.0174	19.9972	0.0552792	28.6624
19.0174	20.0249	0.0276396	28.6624
19.0671	20.0525	0	28.6624
19.0672	20.0525	0	28.6624
19.0672	20.0663	0.0276396	28.6624
19.0932	20.094	0	28.6624
19.0933	20.094	0	28.6624
19.0933	20.094	0.0552792	28.6624
19.0933	20.1216	0.0276396	28.6624
19.0966	20.1493	0	28.6624
19.0969	20.1493	0	28.6624
19.0969	20.1493	0.0552792	28.6624
19.0969	20.1769	0.0276396	28.6624
19.1139	20.2045	0	28.6624
19.1141	20.2045	0	28.6624
19.1142	20.2184	0.0276396	28.6624
19.7108	20.246	0	28.6624
19.7111	20.246	0	28.6624
19.7114	20.246	0.0276396	28.6624
19.7114	20.2598	0.0552792	28.6624
19.7114	20.2875	0.0276396	28.6624
19.73	20.3151	0	28.6624
19.73	20.3151	0	28.6624
19.7303	20.3151	0.0276396	28.6624
19.7303	20.3289	0.0552792	28.6624
19.7304	20.3566	0.0276396	28.6624
19.8275	20.3842	0	28.6624
19.8276	20.3842	0	28.6624
19.828	20.3842	0.0276396	28.6624
19.828	20.3842	0.0552792	28.6624
19.8286	20.3842	0.0829187	28.6624
19.8286	20.3842	0.138198	28.6624
19.8286	20.4118	0.110558	28.6624
19.8286	20.4395	0.0829187	28.6624
19.8286	20.4671	0.0552792	28.6624
19.8287	20.4947	0.0276396	28.6624
20.0112	20.5224	0	28.6624
20.0114	20.5224	0	28.6624
20.0114	20.5224	0.0552792	28.6624
20.0114	20.55	0.0276396	28.6624
20.015	20.5777	0	28.6624
20.0158	20.5777	0	28.6624
20.0158	20.5777	0.0552792	28.6624
20.0159	20.6053	0.0276396	28.6624
20.0368	20.6329	0	28.6624
20.0375	20.6329	0	28.6624
20.0376	20.6468	0.0276396	28.6624
20.2982	20.6744	0	28.6624
20.2989	20.6744	0	28.6624
20.299	20.6882	0.0276396	28.6624
20.3036	20.7159	0	28.6624
20.5972	20.7159	0	28.8444
20.5975	20.7159	0	28.8444
20.5975	20.7297	0.0276396	28.8444
20.8296	20.7573	0	28.8444
20.8297	20.7573	0	28.8444
20.8297	20.7711	0.0276396	28.8444
20.9258	20.7988	0	28.8444
20.9259	20.7988	0	28.8444
20.926	20.8126	0.0276396	28.8444
21.0525	20.8402	0	28.8444
21.0533	20.8402	0	28.8444
21.0534	20.8402	0.0276396	28.8444
21.0828	20.8679	0	28.8444
21.0833	20.8679	0	28.8444
21.0833	20.8817	0.0276396	28.8444
21.1719	20.9093	0	28.8444
21.1727	20.9093	0	28.8444
21.1727	20.9232	0.0276396	28.8444
21.2317	20.9508	0	28.8444
21.2319	20.9508	0	28.8444
21.232	20.9646	0.0276396	28.8444
21.2492	20.9923	0	28.8444
21.2497	20.9923	0	28.8444
21.2497	20.9923	0.0552792	28.8444
21.2497	21.0199	0.0276396	28.8444
21.3005	21.0475	0	28.8444
21.3011	21.0475	0	28.8444
21.3012	21.0614	0.0276396	28.8444
21.3359	21.089	0	28.8444
21.3365	21.089	0	28.8444
21.3365	21.1028	0.0276396	28.8444
21.3961	21.1305	0	28.8444
21.3962	21.1305	0	28.8444
21.3962	21.1443	0.0276396	28.8444
21.5688	21.1719	0	28.8444
21.5691	21.1719	0	28.8444
21.5691	21.1719	0.0552792	28.8444
21.5692	21.1996	0.0276396	28.8444
21.6156	21.2272	0	28.8444
21.6158	21.2272	0	28.8444
21.6158	21.241	0.0276396	28.8444
21.7015	21.2687	0	28.8444
21.7031	21.2687	0	28.8444
21.7035	21.2687	0.0276396	28.8444
21.7036	21.2825	0.0552792	28.8444
21.7036	21.3101	0.0276396	28.8444
21.7173	21.3378	0	28.8444
21.718	21.3378	0	28.8444
21.7181	21.3516	0.0276396	28.8444
21.8584	21.3792	0	28.8444
21.8594	21.3792	0	28.8444
21.8594	21.393	0.0276396	28.8444
21.8797	21.4207	0	28.8444
21.8799	21.4207	0	28.8444
21.88	21.4207	0.0276396	28.8444
21.88	21.4345	0.0552792	28.8444
21.88	21.4621	0.0276396	28.8444
21.9969	21.4898	0	28.8444
21.9979	21.4898	0	28.8444
21.998	21.4898	0.0552792	28.8444
21.998	21.5174	0.0276396	28.8444
22.0342	21.5451	0	28.8444
22.0348	21.5451	0	28.8444
22.0349	21.5589	0.0276396	28.8444
22.269	21.5865	0	28.8444
22.2917	21.5865	0	29.0264
22.2918	21.5865	0	29.0264
22.2919	21.6003	0.0276396	29.0264
22.2946	21.628	0	29.0264
22.2947	21.628	0	29.0264
22.3255	21.628	0.0276396	29.0264
22.3257	21.628	0.0276396	29.0264
22.3257	21.628	0.0829187	29.0264
22.3257	21.6556	0.0552792	29.0264
22.3257	21.6833	0.0276396	29.0264
22.4122	21.7109	0	29.0264
22.4125	21.7109	0	29.0264
22.4125	21.7109	0.0552792	29.0264
22.4125	21.7385	0.0276396	29.0264
22.4153	21.7662	0	29.0264
22.4163	21.7662	0	29.0264
22.4163	21.7662	0.0552792	29.0264
22.4164	21.7938	0.0276396	29.0264
22.492	21.8214	0	29.0264
22.4924	21.8214	0	29.0264
22.4925	21.8353	0.0276396	29.0264
22.5221	21.8629	0	29.0264
22.5223	21.8629	0	29.0264
22.5224	21.8767	0.0276396	29.0264
22.9904	21.9044	0	29.0264
22.9921	21.9044	0	29.0264
22.9921	21.9044	0.0552792	29.0264
22.9921	21.932	0.0276396	29.0264
23.0766	21.9596	0	29.0264
23.0771	21.9596	0	29.0264
23.0783	21.9596	0.0276396	29.0264
23.0783	21.9735	0.0552792	29.0264
23.0783	22.0011	0.0276396	29.0264
23.1201	22.0287	0	29.0264
23.1203	22.0287	0	29.0264
23.1206	22.0287	0.0276396	29.0264
23.1206	22.0426	0.0552792	29.0264
23.1206	22.0702	0.0276396	29.0264
23.7716	22.0978	0	29.0264
23.7717	22.0978	0	29.0264
23.7717	22.1117	0.0276396	29.0264
23.8582	22.1393	0	29.0264
23.8588	22.1393	0	29.0264
23.8589	22.1531	0.0276396	29.0264
24.4368	22.1808	0	29.0264
24.4376	22.1808	0	29.0264
24.4387	22.1808	0.0276396	29.0264
24.4388	22.1808	0.0552792	29.0264
24.4391	22.1808	0.0829187	29.0264
24.4391	22.1946	0.110558	29.0264
24.4392	22.2222	0.0829187	29.0264
24.4392	22.2499	0.0552792	29.0264
24.4392	22.2775	0.0276396	29.0264
24.6148	22.3051	0	29.0264
24.6149	22.3051	0	29.0264
24.6151	22.3051	0.0276396	29.0264
24.6802	22.3051	0.0552792	29.0264
24.6803	22.3051	0.0552792	29.0264
24.6803	22.3328	0.0276396	29.0264
24.6811	22.3604	0	29.0264
24.6811	22.3604	0.0552792	29.0264
24.6811	22.3881	0.0276396	29.0264
24.6974	22.4157	0	29.0264
24.6985	22.4157	0	29.0264
24.6985	22.4295	0.0276396	29.0264
24.709	22.4572	0	29.0264
24.7094	22.4572	0	29.0264
24.7094	22.4572	0.0552792	29.0264
24.7095	22.4848	0.0276396	29.0264
24.7918	22.5124	0	29.0264
25.0887	22.5124	0	29.2084
25.0893	22.5124	0	29.2084
25.0893	22.5263	0.0276396	29.2084
25.6799	22.5539	0	29.2084
25.6802	22.5539	0	29.2084
25.6802	22.5539	0.0552792	29.2084
25.6803	22.5815	0.0276396	29.2084
25.7247	22.6092	0	29.2084
25.7252	22.6092	0	29.2084
25.7252	22.6092	0.0276396	29.2084
25.7252	22.623	0.0552792	29.2084
25.7253	22.6506	0.0276396	29.2084
25.8584	22.6783	0	29.2084
25.8591	22.6783	0	29.2084
25.8594	22.6921	0.0276396	29.2084
26.0194	22.7197	0	29.2084
26.0195	22.7197	0	29.2084
26.0195	22.7197	0.0552792	29.2084
26.0196	22.7474	0.0276396	29.2084
26.0256	22.775	0	29.2084
26.0257	22.775	0	29.2084
26.0257	22.7888	0.0276396	29.2084
26.3021	22.8165	0	29.2084
26.3029	22.8165	0	29.2084
26.3029	22.8303	0.0276396	29.2084
26.3375	22.8579	0	29.2084
26.3377	22.8579	0	29.2084
26.8595	22.8579	0.0276396	29.2084
26.8596	22.8579	0.0276396	29.2084
26.8598	22.8856	0	29.2084
26.8598	22.8994	0.0276396	29.2084
26.9226	22.927	0	29.2084
26.9229	22.927	0	29.2084
26.9229	22.927	0.0552792	29.2084
26.9229	22.9547	0.0276396	29.2084
27.1521	22.9823	0	29.2084
27.1522	22.9823	0	29.2084
27.1522	22.9823	0.0552792	29.2084
27.1522	23.01	0.0276396	29.2084
27.2783	23.0376	0	29.2084
27.2783	23.0376	0	29.2084
27.2789	23.0376	0.0276396	29.2084
27.2789	23.0514	0.0552792	29.2084
27.2789	23.079	0.0276396	29.2084
27.3673	23.1067	0	29.2084
27.3691	23.1067	0	29.2084
27.3692	23.1205	0.0276396	29.2084
27.6438	23.1481	0	29.2084
27.6444	23.1481	0	29.2084
27.6445	23.1481	0.0552792	29.2084
27.6445	23.1758	0.0276396	29.2084
27.721	23.2034	0	29.2084
27.7216	23.2034	0	29.2084
27.7217	23.2034	0.0552792	29.2084
27.7218	23.2311	0.0276396	29.2084
27.7357	23.2587	0	29.2084
27.736	23.2587	0	29.2084
27.7361	23.2587	0.0552792	29.2084
27.7361	23.2863	0.0276396	29.2084
27.8613	23.314	0	29.2084
27.8615	23.314	0	29.2084
27.8615	23.314	0.0552792	29.2084
27.8615	23.3416	0.0276396	29.2084
28.5418	23.3693	0	29.2084
28.5419	23.3693	0	29.2084
28.5422	23.3693	0.0276396	29.2084
28.5422	23.3831	0.0552792	29.2084
28.5422	23.4107	0.0276396	29.2084
28.5447	23.4384	0	29.2084
28.5462	23.4384	0	29.2084
28.5468	23.4384	0.0276396	29.2084
28.5469	23.4522	0.0552792	29.2084
28.5469	23.4798	0.0276396	29.2084
28.6331	23.5075	0	29.2084
28.6334	23.5075	0	29.2084
28.6334	23.5075	0.0552792	29.2084
28.6334	23.5351	0.0276396	29.2084
28.7967	23.5627	0	29.2084
28.7969	23.5627	0	29.2084
28.797	23.5766	0.0276396	29.2084
29.0582	23.6042	0	29.2084
29.0587	23.6042	0	29.2084
29.0587	23.618	0.0276396	29.2084
29.0705	23.6457	0	29.2084
29.0707	23.6457	0	29.2084
29.0707	23.6457	0.0552792	29.2084
29.0707	23.6733	0.0276396	29.2084
29.9855	23.7009	0	29.2084
29.9858	23.7009	0	29.2084
29.988	23.7009	0.0276396	29.2084
29.9881	23.7148	0.0552792	29.2084
29.9881	23.7424	0.0276396	29.2084
30.0543	23.77	0	29.2084
30.0545	23.77	0	29.2084
30.0546	23.7839	0.0276396	29.2084
30.0557	23.8115	0	29.2084
30.0558	23.8115	0	29.2084
30.0558	23.8253	0.0276396	29.2084
30.4857	23.853	0	29.2084
30.4868	23.853	0	29.2084
30.4868	23.853	0.0552792	29.2084
30.4869	23.8806	0.0276396	29.2084
30.9179	23.9082	0	29.2084
30.9185	23.9082	0	29.2084
31.301	23.9082	0.0276396	29.2084
31.3011	23.9082	0.0276396	29.2084
31.3014	23.9359	0	29.2084
31.302	23.9359	0.0276396	29.2084
31.3022	23.9359	0.0552792	29.2084
31.3023	23.9359	0.0829187	29.2084
31.3023	23.9635	0.0552792	29.2084
31.3024	23.9912	0.0276396	29.2084
31.4617	24.0188	0	29.2084
31.463	24.0188	0	29.2084
31.463	24.0188	0.0552792	29.2084
31.463	24.0464	0.0276396	29.2084
31.8346	24.0741	0	29.2084
31.8346	24.0741	0	29.2084
31.8353	24.0741	0.0276396	29.2084
31.8353	24.0879	0.0552792	29.2084
31.8353	24.1155	0.0276396	29.2084
32.1762	24.1432	0	29.2084
32.1767	24.1432	0	29.2084
32.1768	24.157	0.0276396	29.2084
32.3832	24.1846	0	29.2084
32.3836	24.1846	0	29.2084
32.3836	24.1846	0.0552792	29.2084
32.3836	24.2123	0.0276396	29.2084
32.6412	24.2399	0	29.2084
32.6413	24.2399	0	29.2084
32.6413	24.2537	0.0276396	29.2084
32.796	24.2814	0	29.2084
32.7961	24.2814	0	29.2084
32.8775	24.2814	0.0276396	29.2084
32.8775	24.2814	0.0276396	29.2084
32.8775	24.2814	0.0552792	29.2084
32.8776	24.2814	0.0829187	29.2084
32.8777	24.309	0.0552792	29.2084
32.8781	24.309	0.0829187	29.2084
32.8805	24.309	0.110558	29.2084
32.8812	24.309	0.138198	29.2084
33.1133	24.309	0.165837	29.2084
33.1133	24.309	0.165837	29.2084
33.1133	24.3367	0.138198	29.2084
33.1133	24.3643	0.110558	29.2084
33.1134	24.3919	0.0829187	29.2084
33.1134	24.4196	0.0552792	29.2084
33.1134	24.4472	0.0276396	29.2084
33.1137	24.4748	0	29.2084
34.1461	24.4748	0.0276396	29.2084
34.1462	24.4748	0.0276396	29.2084
34.1463	24.5025	0	29.2084
34.1463	24.5025	0.0552792	29.2084
34.1465	24.5301	0.0276396	29.2084
34.2549	24.5578	0	29.2084
34.2549	24.5578	0	29.2084
34.2549	24.5716	0.0276396	29.2084
34.3961	24.5992	0	29.2084
34.3966	24.5992	0	29.2084
34.3966	24.613	0.0276396	29.2084
35.1986	24.6407	0	29.2084
35.1988	24.6407	0	29.2084
35.1989	24.6407	0.0276396	29.2084
35.5496	24.6683	0	29.2084
35.5502	24.6683	0	29.2084
35.5503	24.6821	0.0276396	29.2084
35.5694	24.7098	0	29.2084
35.5695	24.7098	0	29.2084
35.5696	24.7236	0.0276396	29.2084
36.0311	24.7512	0	29.2084
36.0316	24.7512	0	29.2084
36.0317	24.7651	0.0276396	29.2084
36.0408	24.7927	0	29.2084
36.0421	24.7927	0	29.2084
36.0421	24.8065	0.0276396	29.2084
36.2521	24.8342	0	29.2084
36.2524	24.8342	0	29.2084
36.2527	24.8342	0.0276396	29.2084
36.4033	24.8342	0.0552792	29.2084
36.4034	24.8342	0.0552792	29.2084
36.4034	24.8618	0.0276396	29.2084
36.4034	24.8756	0.0552792	29.2084
36.4035	24.9033	0.0276396	29.2084
36.5527	24.9309	0	29.2084
36.554	24.9309	0	29.2084
36.554	24.9309	0.0552792	29.2084
36.554	24.9585	0.0276396	29.2084
36.704	24.9862	0	29.2084
36.7043	24.9862	0	29.2084
36.7044	25	0.0276396	29.2084
37.12	25.0276	0	29.2084
37.1202	25.0276	0	29.2084
37.1202	25.0276	0.0552792	29.2084
37.1203	25.0553	0.0276396	29.2084
37.2455	25.0829	0	29.2084
37.248	25.0829	0	29.2084
37.248	25.0829	0.0552792	29.2084
37.248	25.1106	0.0276396	29.2084
37.5577	25.1382	0	29.2084
37.5581	25.1382	0	29.2084
37.5582	25.152	0.0276396	29.2084
37.7533	25.1797	0	29.2084
37.7556	25.1797	0	29.2084
37.7563	25.1797	0.0276396	29.2084
37.7572	25.1797	0.0552792	29.2084
37.7572	25.1797	0.110558	29.2084
37.7572	25.2073	0.0829187	29.2084
37.7572	25.2349	0.0552792	29.2084
37.7573	25.2626	0.0276396	29.2084
38.4031	25.2902	0	29.2084
38.4048	25.2902	0	29.2084
38.4048	25.2902	0.0552792	29.2084
38.4049	25.3179	0.0276396	29.2084
38.7328	25.3455	0	29.2084
38.7333	25.3455	0	29.2084
38.7336	25.3455	0.0276396	29.2084
38.7359	25.3455	0.0552792	29.2084
38.7359	25.3593	0.0829187	29.2084
38.7359	25.387	0.0552792	29.2084
38.7359	25.4146	0.0276396	29.2084
39.3705	25.4422	0	29.2084
39.3707	25.4422	0	29.2084
39.3725	25.4422	0.0276396	29.2084
39.3725	25.4561	0.0552792	29.2084
39.3726	25.4837	0.0276396	29.2084
39.5048	25.5113	0	29.2084
39.505	25.5113	0	29.2084
39.505	25.5252	0.0276396	29.2084
39.8184	25.5528	0	29.2084
39.819	25.5528	0	29.2084
39.819	25.5666	0.0276396	29.2084
39.86	25.5943	0	29.2084
40.1885	25.5943	0	29.3904
40.1891	25.5943	0	29.3904
40.1891	25.6081	0.0276396	29.3904
40.2465	25.6357	0	29.3904
40.2469	25.6357	0	29.3904
40.2471	25.6495	0.0276396	29.3904
40.271	25.6772	0	29.3904
40.2712	25.6772	0	29.3904
40.2712	25.6772	0.0552792	29.3904
40.2713	25.7048	0.0276396	29.3904
40.8347	25.7324	0	29.3904
40.8354	25.7324	0	29.3904
40.8354	25.7463	0.0276396	29.3904
41.8908	25.7739	0	29.3904
41.8911	25.7739	0	29.3904
41.8911	25.7739	0.0552792	29.3904
41.8912	25.8015	0.0276396	29.3904
42.926	25.8292	0	29.3904
42.9261	25.8292	0	29.3904
42.9261	25.8292	0.0552792	29.3904
42.9262	25.8568	0.0276396	29.3904
43.1413	25.8845	0	29.3904
43.1418	25.8845	0	29.3904
43.1418	25.8983	0.0276396	29.3904
43.2569	25.9259	0	29.3904
43.2578	25.9259	0	29.3904
43.2578	25.9259	0.0552792	29.3904
43.2578	25.9536	0.0276396	29.3904
43.428	25.9812	0	29.3904
43.4282	25.9812	0	29.3904
43.4282	25.9812	0.0552792	29.3904
43.4283	26.0088	0.0276396	29.3904
43.7897	26.0365	0	29.3904
43.79	26.0365	0	29.3904
44.1621	26.0365	0.0276396	29.3904
44.1622	26.0365	0.0276396	29.3904
44.1639	26.0641	0	29.3904
44.164	26.0779	0.0276396	29.3904
44.2324	26.1056	0	29.3904
44.2326	26.1056	0	29.3904
44.2326	26.1194	0.0276396	29.3904
44.4844	26.147	0	29.3904
44.4865	26.147	0	29.3904
44.4865	26.1609	0.0276396	29.3904
44.8429	26.1885	0	29.3904
44.8437	26.1885	0	29.3904
44.8438	26.2023	0.0276396	29.3904
45.6304	26.23	0	29.3904
45.6304	26.23	0	29.3904
45.6304	26.23	0.0552792	29.3904
45.6305	26.2576	0.0276396	29.3904
45.9664	26.2852	0	29.3904
45.9665	26.2852	0	29.3904
45.9665	26.2852	0.0552792	29.3904
45.9665	26.3129	0.0276396	29.3904
46.2496	26.3405	0	29.3904
46.2498	26.3405	0	29.3904
46.2498	26.3543	0.0276396	29.3904
46.4396	26.382	0	29.3904
46.4398	26.382	0	29.3904
46.4398	26.382	0.0552792	29.3904
46.4398	26.4096	0.0276396	29.3904
47.4258	26.4373	0	29.3904
47.4282	26.4373	0	29.3904
47.4282	26.4373	0.0552792	29.3904
47.4282	26.4649	0.0276396	29.3904
49.2616	26.4925	0	29.3904
49.2622	26.4925	0	29.3904
49.2622	26.4925	0.0552792	29.3904
49.2623	26.5202	0.0276396	29.3904
49.4552	26.5478	0	29.3904
49.4552	26.5478	0	29.3904
49.4553	26.5478	0.0552792	29.3904
49.4554	26.5755	0.0276396	29.3904
49.5712	26.6031	0	29.3904
49.5716	26.6031	0	29.3904
49.5716	26.6031	0.0552792	29.3904
49.5716	26.6307	0.0276396	29.3904
50.525	26.6584	0	29.3904
50.5258	26.6584	0	29.3904
50.5259	26.6722	0.0276396	29.3904
50.9471	26.6998	0	29.3904
50.9475	26.6998	0	29.3904
50.9475	26.6998	0.0552792	29.3904
50.9475	26.7275	0.0276396	29.3904
51.4955	26.7551	0	29.3904
51.4956	26.7551	0	29.3904
51.4956	26.7551	0.0552792	29.3904
51.4956	26.7828	0.0276396	29.3904
52.739	26.8104	0	29.3904
52.7394	26.8104	0	29.3904
52.7394	26.8242	0.0276396	29.3904
53.6336	26.8519	0	29.3904
53.6342	26.8519	0	29.3904
53.6344	26.8657	0.0276396	29.3904
54.0509	26.8933	0	29.3904
54.0515	26.8933	0	29.3904
54.0516	26.8933	0.0552792	29.3904
54.0517	26.921	0.0276396	29.3904
54.4515	26.9486	0	29.3904
54.4518	26.9486	0	29.3904
54.4519	26.9486	0.0552792	29.3904
54.4519	26.9762	0.0276396	29.3904
55.069	27.0039	0	29.3904
55.0692	27.0039	0	29.3904
55.0692	27.0039	0.0552792	29.3904
55.0692	27.0315	0.0276396	29.3904
55.2449	27.0591	0	29.3904
55.2449	27.0591	0	29.3904
55.245	27.0591	0.0552792	29.3904
55.245	27.0868	0.0276396	29.3904
55.3238	27.1144	0	29.3904
55.3241	27.1144	0	29.3904
55.3241	27.1144	0.0552792	29.3904
55.3242	27.1421	0.0276396	29.3904
55.4217	27.1697	0	29.3904
55.4222	27.1697	0	29.3904
56.6253	27.1697	0.0276396	29.3904
56.6254	27.1697	0.0276396	29.3904
56.6259	27.1973	0	29.3904
56.626	27.1973	0.0552792	29.3904
56.626	27.225	0.0276396	29.3904
57.3093	27.2526	0	29.3904
57.3093	27.2526	0	29.3904
57.3094	27.2664	0.0276396	29.3904
58.0142	27.2941	0	29.3904
58.0152	27.2941	0	29.3904
58.0152	27.3079	0.0276396	29.3904
58.1226	27.3355	0	29.3904
58.1231	27.3355	0	29.3904
58.1231	27.3355	0.0276396	29.3904
58.1231	27.3494	0.0552792	29.3904
58.1232	27.377	0.0276396	29.3904
58.2183	27.4046	0	29.3904
58.2191	27.4046	0	29.3904
58.2191	27.4046	0.0552792	29.3904
58.2192	27.4323	0.0276396	29.3904
59.9802	27.4599	0	29.3904
59.9811	27.4599	0	29.3904
59.9811	27.4599	0.0552792	29.3904
59.9811	27.4876	0.0276396	29.3904
60.3268	27.5152	0	29.3904
60.3271	27.5152	0	29.3904
60.3272	27.529	0.0276396	29.3904
61.2634	27.5567	0	29.3904
61.2634	27.5567	0	29.3904
61.2635	27.5705	0.0276396	29.3904
63.3949	27.5981	0	29.3904
63.395	27.5981	0	29.3904
63.395	27.5981	0.0552792	29.3904
63.395	27.6258	0.0276396	29.3904
63.6406	27.6534	0	29.3904
63.6408	27.6534	0	29.3904
63.6409	27.6534	0.0552792	29.3904
63.6409	27.681	0.0276396	29.3904
64.3893	27.7087	0	29.3904
64.3894	27.7087	0	29.3904
64.3894	27.7087	0.0552792	29.3904
64.3894	27.7363	0.0276396	29.3904
65.1565	27.764	0	29.3904
65.1568	27.764	0	29.3904
65.1568	27.764	0.0552792	29.3904
65.1568	27.7916	0.0276396	29.3904
67.0029	27.8192	0	29.3904
67.0034	27.8192	0	29.3904
67.0034	27.8192	0.0552792	29.3904
67.0034	27.8469	0.0276396	29.3904
70.5459	27.8745	0	29.3904
70.5463	27.8745	0	29.3904
70.5463	27.8745	0.0552792	29.3904
70.5463	27.9022	0.0276396	29.3904
71.0441	27.9298	0	29.3904
71.045	27.9298	0	29.3904
71.045	27.9298	0.0552792	29.3904
71.045	27.9574	0.0276396	29.3904
72.7746	27.9851	0	29.3904
72.7748	27.9851	0	29.3904
72.7748	27.9851	0.0552792	29.3904
72.7749	28.0127	0.0276396	29.3904
73.843	28.0404	0	29.3904
73.8431	28.0404	0	29.3904
73.8431	28.0404	0.0552792	29.3904
73.8431	28.068	0.0276396	29.3904
74.523	28.0956	0	29.3904
74.5231	28.0956	0	29.3904
74.5231	28.0956	0.0552792	29.3904
74.5231	28.1233	0.0276396	29.3904
79.6064	28.1509	0	29.3904
79.6075	28.1509	0	29.3904
79.6076	28.1647	0.0276396	29.3904
80.596	28.1924	0	29.3904
80.5974	28.1924	0	29.3904
80.5979	28.1924	0.0276396	29.3904
80.5979	28.1924	0.0552792	29.3904
80.5997	28.1924	0.0829187	29.3904
80.5997	28.1924	0.110558	29.3904
83.4256	28.1924	0.138198	29.3904
83.4256	28.1924	0.138198	29.3904
83.4256	28.22	0.110558	29.3904
83.4256	28.2477	0.0829187	29.3904
83.4256	28.2753	0.0552792	29.3904
83.4256	28.3029	0.0276396	29.3904
83.4267	28.3306	0	29.3904
83.4267	28.3444	0.0276396	29.3904
86.7393	28.372	0	29.3904
86.7395	28.372	0	29.3904
86.7395	28.372	0.0552792	29.3904
86.7396	28.3997	0.0276396	29.3904
88.4473	28.4273	0	29.3904
88.4476	28.4273	0	29.3904
88.4477	28.4273	0.0276396	29.3904
88.4482	28.4273	0.0552792	29.3904
88.4482	28.4411	0.0829187	29.3904
88.4482	28.4688	0.0552792	29.3904
88.4482	28.4964	0.0276396	29.3904
95.0962	28.524	0	29.3904
95.0966	28.524	0	29.3904
95.0967	28.524	0.0552792	29.3904
95.0967	28.5517	0.0276396	29.3904
96.3042	28.5793	0	29.3904
96.3046	28.5793	0	29.3904
96.3047	28.5793	0.0552792	29.3904
96.3047	28.607	0.0276396	29.3904
99.0916	28.6346	0	29.3904
99.0938	28.6346	0	29.3904
99.0938	28.6346	0.0552792	29.3904
99.0939	28.6622	0.0276396	29.3904
99.3775	28.6899	0	29.3904
99.3779	28.6899	0	29.3904
99.3779	28.6899	0.0552792	29.3904
99.3779	28.7175	0.0276396	29.3904
99.6158	28.7452	0	29.3904
99.6159	28.7452	0	29.3904
99.6159	28.7452	0.0552792	29.3904
99.616	28.7728	0.0276396	29.3904
118.494	28.8004	0	29.3904
118.494	28.8004	0	29.3904
118.494	28.8004	0.0552792	29.3904
118.494	28.8281	0.0276396	29.3904
125.63	28.8557	0	29.3904
125.631	28.8557	0	29.3904
125.631	28.8557	0.0552792	29.3904
125.631	28.8834	0.0276396	29.3904
166.391	28.911	0	29.3904
166.391	28.911	0	29.3904
166.391	28.911	0.0552792	29.3904
166.391	28.9386	0.0276396	29.3904
239.894	28.9663	0	29.3904
239.894	28.9663	0	29.3904
239.894	28.9663	0.0552792	29.3904
239.894	28.9939	0.0276396	29.3904
