9.71504684	1.73147432	0.00035768	0.52139952	0.00000374	0.09000000	0.90000000	0.90000000	0.00476561	0.00800627
#a619:
#9.71504684	1.73147432	0.00035768	0.52139952	0.00000374	0.09000000	0.90000000	0.90000000	0.00476561	0.00800627
#cal3:
#9.71504684	1.73147432	0.00035768	0.52139952	0.00000374	0.09000000	0.90000000	0.90000000	0.00387826	0.00994185
#cal2:
#9.71504684	1.73147432	0.00035768	0.52139952	0.00000374	0.09000000	0.90000000	0.90000000	0.00500683	0.00928131
#cal1:
#9.71504684	1.73147432	0.00035768	0.52139952	0.00000374	0.09000000	0.90000000	0.90000000	0.00571119	0.00993591
#9.71504684  1.73147432  0.00035768  0.52139952  0.00000374  0.09000000  0.90000000  0.90000000  0.00619000  0.00990000
#0.00006089  0.00723885  0.0000005  0.01787938  0.00000391  0.09000000  0.90000000  0.90000000  0.00619000  0.00990000
#1  1  1  1  0.00000132  0.09000000  0.90000000  0.90000000	0.0319  0.0099
#1	1	1	1	0	0	0	0
#0.00495397  0.00516797  0.00511689  0.00353970  0.00000001  0.09000000  0.90000000  0.90000000
#Nocrystalparams0.00650365  0.00363453  0.00215880  0.00106727  0.00000001  0.09000000  0.90000000  0.90000000
#3.193e-05       0.117646        0.06588 0.00594545      1e-08   0.09    0.9     0.9
#AWESOMEPARAMS 0.00495397  0.00516797  0.00511689  0.00353970  0.00000001  0.09000000  0.90000000  0.90000000
#0        0        0   1	1e-6        0.09    0.9     0.9
#0.0329913       0.00119966      0.00848796      0.00252987      5e-09   0.09     0.9       0.9
#GOODPARAMS0.0329913       0.00119966      0.00848796      0.00252987      5e-09   0.09     0.9       0.9
#4.93898 16.5338 17.4785 20.0394 0.0341748       0.09    0.9     0.9
#0.0155469       0.000340896     0.00627501      0.0021164       4.5e-09 0.09    0.9     0.9
#0.0137327       0.00036174      0.00990348      0.00260187      5e-09   0.1     1       1.00000000
#0.0122069       0.00036174      0.00990348      0.00260187      5e-09   0.0295367       0.1     1       1.00000000
#0.0476315       0.00146542      0.00125193      0.00398602      1.6261e-06      0.0268251       0.1   1   1
#0.5	0.5	0.5	0.5	0	0.01	0.1	0.1
#0.0314784       0.00096074      0.00169004      0.00362386      1.1682e-06      0.0265732       0.025   0.025   0.02500000
#0.0476315       0.00146542      0.00125193      0.00398602      1.6261e-06      0.0268251       0.025   0.025   0.02500000
#0.0327002       0.00288898      0.000509655     0.00102728      2.15107e-06     0.0268251       0.025   0.025   0.02500000
#GOOD PARAMS 0.0476315       0.00146542      0.00125193      0.00398602      1.6261e-06      0.0268251       0.025   0.025   0.02500000
#0       0      0      0.00398602      1.6261e-06      0.0268251       0.025   0.025   0.02500000
#0.0476315       0.00146542      0.00125193      0.00398602      1.6261e-06      0.0268251       0.025   0.025   0.02500000
#0.0476315       0.00146542      0.00125193      0.00398602      1.6261e-06      0.0268251       0.025   0.025   0.02500000
#0.0393728       0.00134579      0.00173485      0.00563575      1e-06       0.0268251       0.025   0.025   0.02500000
#0.0391278       0.00345079      0.00180985      0.00254075      5e-06   0.0299051       0.025   0.025   0.02500000
#0.01       0.01      0.01      0.01       0.01      0.01       0.01   0.01   0.01
#0.0385218       0.00418613      0.00155162      0.0028888       0.00124531      0.0231777       0.025   0.025   0.02500000
#0.037786        0.005342        0.00073 0.002625        0.000985        0.027971        0.025   0.025   0.02500000
#0.035536        0.000177        0.002195        0.00259 0.00095 0.030076        0.025   0.025   0.02500000
#0.034276        0.002277        0.001595        0.00264 0.00036 0.024876        0.025   0.025   0.02500000
#0.03541 0.000122        0.00465 0.002436        0       0.024601        0.025   0.025   0.02500000
#0.035426        0.002642        0.00646 0.003345        0.000545        0.024191        0.025   0.025   0.02500000
#0.03455 0.00165 0.00575 0.00285 5e-05   0.0233  0.025   0.025   0.02500000
#0.03555 0.00265 0.00675 0.00385 0.00105 0.0243  0.025   0.025   0.02500000
#0.03655 0.00165 0.00575 0.00485 0.00205 0.0238  0.025   0.025   0.02500000
#0.03555 0.00265 0.00675 0.00385 0.00105 0.0243  0.025   0.025   0.02500000
#0.0002  0.0008  0.01955 0.0029  0       0.0322  0.025   0.025   0.02500000
#0.01055 0.0109  0.02465 0.00505  0.00105  0.01775 0.025   0.025   0.02500000
#0.02155 0.006   0.00565 0.1004  0.0054  0.01565 0.025   0.025   0.02500000
#0.1145 0.0067  0.00065 0.013085  0.001  0.00985 0.025   0.025   0.02500000
#0.01145 0.0067  0.00065 0.1085  0.0135  0.00985 0.025   0.025   0.02500000
#0.02155 0.001   0.00065 0.1054  0.0104  0.01565 0.025   0.025   0.02500000
#0.01653 0.000995        0.00066 0.12037 0.02537 0.025645        0.025   0.025   0.02500000
#0.0232  0.00185 0.0007  0.10695 0.02695 0.01675 0.025   0.025   0.02500000
#0.01755 0.00945 0.00065 0.09939 0.01939 0.02564 0.025   0.025   0.0250000
#0.017  0.01  0.001  0.1  0.020  0.025  0.025  0.025  0.025
#1 1 1 1 1 1 1 1 1
#0.01725 0.0015 0.000 0.0015 0.02025 0.025 0.025 0.025 0.025
#0.069  0.006  0.000  0.006  0.081  0.100  0.100  0.100  0.100
#0.005   0       0       0.055   0.126   0.1   0.1   0.1   0.1
#0.005	0.005	0.005	0.05	0.125	0.1	0.01	0.01	0.01
#k1 >>	k2 >>	k3  >> 	k4	>>	k5 	>> inhib_cellobiose_EG >>	inhib_cellobiose_CBH >>	inhib_glucose_BGL  >> crystal_modifier_cellu >> crystal_modifier_hemi