1.63481e-10	0	0	0
7.74309e-10	0	0	0
1.07081e-09	0	0	0
1.39907e-09	0	0	0
1.65964e-09	0	0	0
2.0717e-09	0	0	0
2.3155e-09	0	0	0
2.63416e-09	0	0	0
3.13517e-09	0	0	0
3.14793e-09	0	0	0
3.94856e-09	0	0	0
4.09379e-09	0	0	0
5.12621e-09	0	0	0
5.37846e-09	0	0	0
6.49815e-09	0	0	0
6.51942e-09	0	0	0
7.08137e-09	0	0	0
7.15373e-09	0	0	0
7.75103e-09	0	0	0
8.70647e-09	0	0	0
8.84141e-09	0	0	0
9.40501e-09	0	0	0
9.46973e-09	0	0	0
9.79058e-09	0	0	0
1.01485e-08	0	0	0
1.06857e-08	0	0	0
1.11727e-08	0	0	0
1.24322e-08	0	0	0
1.2628e-08	0	0	0
1.36297e-08	0	0	0
1.48595e-08	0	0	0
1.51328e-08	0	0	0
1.69786e-08	0	0	0
1.75891e-08	0	0	0
1.82339e-08	0	0	0
1.96613e-08	0	0	0
2.1376e-08	0	0	0
2.15866e-08	0	0	0
2.22791e-08	0	0	0
2.24281e-08	0	0	0
2.30105e-08	0	0	0
2.45909e-08	0	0	0
2.51271e-08	0	0	0
2.58954e-08	0	0	0
3.15178e-08	0	0	0
3.3639e-08	0	0	0
3.54325e-08	0	0	0
3.69469e-08	0	0	0
3.69896e-08	0	0	0
3.91504e-08	0	0	0
4.11722e-08	0	0	0
4.21038e-08	0	0	0
4.47745e-08	0	0	0
4.66602e-08	0	0	0
4.67669e-08	0	0	0
4.79787e-08	0	0	0
4.82491e-08	0	0	0
5.20036e-08	0	0	0
5.39294e-08	0	0	0
5.4099e-08	0	0	0
5.57649e-08	0	0	0
5.61701e-08	0	0	0
5.82418e-08	0	0	0
6.12654e-08	0	0	0
6.28436e-08	0	0	0
6.35582e-08	0	0	0
6.3848e-08	0	0	0
6.83224e-08	0	0	0
6.95029e-08	0	0	0
7.15482e-08	0	0	0
8.28283e-08	0	0	0
8.61826e-08	0	0	0
9.15471e-08	0	0	0
9.65623e-08	0	0	0
1.05206e-07	0	0	0
1.14571e-07	0	0	0
1.35376e-07	0	0	0
1.48007e-07	0	0	0
1.53286e-07	0	0	0
1.57101e-07	0	0	0
1.65378e-07	0	0	0
1.89639e-07	0	0	0
1.9929e-07	0	0	0
2.12932e-07	0	0	0
2.34981e-07	0	0	0
2.50366e-07	0	0	0
2.79025e-07	0	0	0
2.99391e-07	0	0	0
3.67783e-07	0	0	0
3.92229e-07	0	0	0
4.44466e-07	0	0	0
5.51645e-07	0	0	0
5.56459e-07	0	0	0
5.68789e-07	0	0	0
5.69223e-07	0	0	0
5.92935e-07	0	0	0
6.20854e-07	0	0	0
7.34193e-07	0	0	0
7.70643e-07	0	0	0
7.73314e-07	0	0	0
8.12026e-07	0	0	0
8.83731e-07	0	0	0
9.29596e-07	0	0	0
9.88011e-07	0	0	0
1.38652e-06	0	0	0
1.61567e-06	0	0	0
1.73204e-06	0	0	0
1.90702e-06	0	0	0
2.43195e-06	0	0	0
3.26327e-06	0	0	0
3.77483e-06	0	0	0
4.14563e-06	0	0	0
9.87128e-06	0	0	0
1.00753e-05	0	0	0
1.11764e-05	0	0	0
1.55592e-05	0	0	0
1.6258e-05	0	0	0
1.92393e-05	0	0	0
3.13439e-05	0	0	0
