3.13661e-10	0	0	0
1.23156e-09	0	0	0
1.31669e-09	0	0	0
1.63958e-09	0	0	0
2.80085e-09	0	0	0
2.95331e-09	0	0	0
3.13617e-09	0	0	0
3.62062e-09	0	0	0
4.01123e-09	0	0	0
4.81632e-09	0	0	0
4.87382e-09	0	0	0
5.08326e-09	0	0	0
5.39661e-09	0	0	0
5.52135e-09	0	0	0
8.17137e-09	0	0	0
8.89682e-09	0	0	0
9.04774e-09	0	0	0
9.76986e-09	0	0	0
1.07554e-08	0	0	0
1.08377e-08	0	0	0
1.11499e-08	0	0	0
1.18721e-08	0	0	0
1.20945e-08	0	0	0
1.35564e-08	0	0	0
1.37375e-08	0	0	0
1.39047e-08	0	0	0
1.60301e-08	0	0	0
1.60578e-08	0	0	0
1.69469e-08	0	0	0
1.88159e-08	0	0	0
1.90856e-08	0	0	0
1.93495e-08	0	0	0
1.96348e-08	0	0	0
2.07149e-08	0	0	0
2.13645e-08	0	0	0
2.13975e-08	0	0	0
2.14435e-08	0	0	0
2.32083e-08	0	0	0
2.37462e-08	0	0	0
2.50922e-08	0	0	0
2.62346e-08	0	0	0
2.63798e-08	0	0	0
2.67609e-08	0	0	0
2.75365e-08	0	0	0
3.08137e-08	0	0	0
3.59123e-08	0	0	0
3.68007e-08	0	0	0
3.78125e-08	0	0	0
3.8219e-08	0	0	0
3.9876e-08	0	0	0
4.1596e-08	0	0	0
4.21413e-08	0	0	0
4.61079e-08	0	0	0
4.6562e-08	0	0	0
4.67703e-08	0	0	0
4.68291e-08	0	0	0
4.79041e-08	0	0	0
5.09952e-08	0	0	0
5.45733e-08	0	0	0
5.55167e-08	0	0	0
5.64698e-08	0	0	0
5.98898e-08	0	0	0
6.61718e-08	0	0	0
6.65308e-08	0	0	0
6.74537e-08	0	0	0
7.02598e-08	0	0	0
7.1047e-08	0	0	0
7.10482e-08	0	0	0
7.48476e-08	0	0	0
8.06684e-08	0	0	0
9.14769e-08	0	0	0
1.05402e-07	0	0	0
1.10104e-07	0	0	0
1.10251e-07	0	0	0
1.11266e-07	0	0	0
1.19758e-07	0	0	0
1.26423e-07	0	0	0
1.37271e-07	0	0	0
1.5348e-07	0	0	0
1.55236e-07	0	0	0
1.56194e-07	0	0	0
1.72298e-07	0	0	0
2.12214e-07	0	0	0
2.14735e-07	0	0	0
2.37195e-07	0	0	0
2.76816e-07	0	0	0
3.35063e-07	0	0	0
3.55082e-07	0	0	0
3.59877e-07	0	0	0
3.66039e-07	0	0	0
3.72099e-07	0	0	0
4.06131e-07	0	0	0
4.20145e-07	0	0	0
4.95647e-07	0	0	0
5.96923e-07	0	0	0
6.03069e-07	0	0	0
6.17948e-07	0	0	0
7.00634e-07	0	0	0
7.34672e-07	0	0	0
9.85573e-07	0	0	0
1.3952e-06	0	0	0
1.66923e-06	0	0	0
1.95639e-06	0	0	0
2.33027e-06	0	0	0
2.54353e-06	0	0	0
3.67215e-06	0	0	0
4.05834e-06	0	0	0
4.22007e-06	0	0	0
6.00184e-06	0	0	0
1.08104e-05	0	0	0
6.48796e-05	0	0	0
7.3636e-05	0	0	0
