9.55393e-11	0	0	0
3.35412e-10	0	0	0
6.55087e-10	0	0	0
7.2356e-10	0	0	0
7.29559e-10	0	0	0
7.40614e-10	0	0	0
1.29696e-09	0	0	0
2.41357e-09	0	0	0
3.48115e-09	0	0	0
3.9497e-09	0	0	0
3.95942e-09	0	0	0
3.96416e-09	0	0	0
4.06739e-09	0	0	0
4.86461e-09	0	0	0
5.79278e-09	0	0	0
5.92787e-09	0	0	0
6.03834e-09	0	0	0
6.04967e-09	0	0	0
6.08369e-09	0	0	0
6.34484e-09	0	0	0
6.58989e-09	0	0	0
6.61202e-09	0	0	0
7.20988e-09	0	0	0
8.42723e-09	0	0	0
8.72124e-09	0	0	0
8.74259e-09	0	0	0
8.75131e-09	0	0	0
8.82174e-09	0	0	0
9.13975e-09	0	0	0
9.43431e-09	0	0	0
9.57233e-09	0	0	0
1.09234e-08	0	0	0
1.15e-08	0	0	0
1.16784e-08	0	0	0
1.17517e-08	0	0	0
1.27262e-08	0	0	0
1.30843e-08	0	0	0
1.31926e-08	0	0	0
1.43882e-08	0	0	0
1.46569e-08	0	0	0
1.55303e-08	0	0	0
1.68721e-08	0	0	0
1.7969e-08	0	0	0
2.10704e-08	0	0	0
2.24519e-08	0	0	0
2.34893e-08	0	0	0
2.36071e-08	0	0	0
2.47993e-08	0	0	0
2.57294e-08	0	0	0
3.05212e-08	0	0	0
3.18123e-08	0	0	0
3.21066e-08	0	0	0
3.2694e-08	0	0	0
3.51749e-08	0	0	0
4.06021e-08	0	0	0
4.23452e-08	0	0	0
4.52454e-08	0	0	0
4.83144e-08	0	0	0
5.45905e-08	0	0	0
5.94005e-08	0	0	0
6.01068e-08	0	0	0
6.42704e-08	0	0	0
7.15779e-08	0	0	0
7.82361e-08	0	0	0
7.9673e-08	0	0	0
9.30716e-08	0	0	0
1.14209e-07	0	0	0
1.1534e-07	0	0	0
1.17542e-07	0	0	0
1.23633e-07	0	0	0
1.48091e-07	0	0	0
1.56198e-07	0	0	0
1.57855e-07	0	0	0
1.7217e-07	0	0	0
1.89954e-07	0	0	0
1.92827e-07	0	0	0
2.05824e-07	0	0	0
2.05932e-07	0	0	0
2.21831e-07	0	0	0
2.27169e-07	0	0	0
2.31016e-07	0	0	0
2.75315e-07	0	0	0
2.83278e-07	0	0	0
4.28274e-07	0	0	0
4.28688e-07	0	0	0
4.59401e-07	0	0	0
5.34651e-07	0	0	0
5.71895e-07	0	0	0
6.0159e-07	0	0	0
7.67926e-07	0	0	0
9.7211e-07	0	0	0
1.08814e-06	0	0	0
1.14408e-06	0	0	0
1.23115e-06	0	0	0
1.2873e-06	0	0	0
1.31218e-06	0	0	0
1.55104e-06	0	0	0
1.99372e-06	0	0	0
2.01924e-06	0	0	0
2.09839e-06	0	0	0
2.46002e-06	0	0	0
4.0151e-06	0	0	0
7.8329e-06	0	0	0
1.53426e-05	0	0	0
1.83632e-05	0	0	0
1.93476e-05	0	0	0
