1.34598e-10	0	0	0
2.62359e-10	0	0	0
2.45156e-09	0	0	0
2.76949e-09	0	0	0
2.92659e-09	0	0	0
3.08595e-09	0	0	0
3.09989e-09	0	0	0
3.26107e-09	0	0	0
3.6812e-09	0	0	0
4.68561e-09	0	0	0
5.05756e-09	0	0	0
5.46976e-09	0	0	0
5.82227e-09	0	0	0
6.09741e-09	0	0	0
7.44148e-09	0	0	0
8.02646e-09	0	0	0
8.50642e-09	0	0	0
8.59954e-09	0	0	0
8.93763e-09	0	0	0
9.78641e-09	0	0	0
1.01892e-08	0	0	0
1.07848e-08	0	0	0
1.0831e-08	0	0	0
1.08818e-08	0	0	0
1.1044e-08	0	0	0
1.11564e-08	0	0	0
1.14131e-08	0	0	0
1.16155e-08	0	0	0
1.3003e-08	0	0	0
1.34609e-08	0	0	0
1.3593e-08	0	0	0
1.42925e-08	0	0	0
1.62044e-08	0	0	0
1.87038e-08	0	0	0
1.92229e-08	0	0	0
1.92677e-08	0	0	0
1.9662e-08	0	0	0
2.01365e-08	0	0	0
2.07137e-08	0	0	0
2.09716e-08	0	0	0
2.14836e-08	0	0	0
2.17585e-08	0	0	0
2.1772e-08	0	0	0
2.68391e-08	0	0	0
2.86371e-08	0	0	0
3.03663e-08	0	0	0
3.35698e-08	0	0	0
3.36936e-08	0	0	0
3.37247e-08	0	0	0
3.83413e-08	0	0	0
3.843e-08	0	0	0
3.86823e-08	0	0	0
3.96435e-08	0	0	0
4.31312e-08	0	0	0
4.73769e-08	0	0	0
5.20629e-08	0	0	0
5.47365e-08	0	0	0
5.51979e-08	0	0	0
5.54872e-08	0	0	0
5.72509e-08	0	0	0
5.80331e-08	0	0	0
6.07858e-08	0	0	0
6.12045e-08	0	0	0
6.19242e-08	0	0	0
6.3296e-08	0	0	0
6.50626e-08	0	0	0
7.11347e-08	0	0	0
7.72186e-08	0	0	0
8.37942e-08	0	0	0
8.732e-08	0	0	0
8.92447e-08	0	0	0
9.25354e-08	0	0	0
9.41574e-08	0	0	0
9.89033e-08	0	0	0
1.00727e-07	0	0	0
1.1183e-07	0	0	0
1.15501e-07	0	0	0
1.16807e-07	0	0	0
1.24859e-07	0	0	0
1.28363e-07	0	0	0
1.31863e-07	0	0	0
1.43184e-07	0	0	0
1.76214e-07	0	0	0
1.78284e-07	0	0	0
1.84801e-07	0	0	0
2.1353e-07	0	0	0
2.44597e-07	0	0	0
2.55219e-07	0	0	0
2.83516e-07	0	0	0
3.08093e-07	0	0	0
3.19983e-07	0	0	0
3.47022e-07	0	0	0
3.78111e-07	0	0	0
4.86543e-07	0	0	0
5.19551e-07	0	0	0
6.30972e-07	0	0	0
7.23031e-07	0	0	0
9.00196e-07	0	0	0
9.82979e-07	0	0	0
9.85755e-07	0	0	0
1.10552e-06	0	0	0
1.4576e-06	0	0	0
1.75442e-06	0	0	0
2.08508e-06	0	0	0
2.59035e-06	0	0	0
2.89987e-06	0	0	0
4.12921e-06	0	0	0
5.24514e-06	0	0	0
6.04475e-06	0	0	0
6.94623e-06	0	0	0
1.11947e-05	0	0	0
4.40144e-05	0	0	0
