3.65761e-10	0	0	0
4.18554e-10	0	0	0
4.80466e-10	0	0	0
5.26699e-10	0	0	0
5.39226e-10	0	0	0
6.48657e-10	0	0	0
7.9171e-10	0	0	0
8.78106e-10	0	0	0
1.22639e-09	0	0	0
2.97034e-09	0	0	0
3.21645e-09	0	0	0
3.90738e-09	0	0	0
4.61034e-09	0	0	0
4.7811e-09	0	0	0
5.56638e-09	0	0	0
5.77257e-09	0	0	0
6.05916e-09	0	0	0
7.86123e-09	0	0	0
7.8829e-09	0	0	0
8.57891e-09	0	0	0
8.64199e-09	0	0	0
8.68672e-09	0	0	0
1.01941e-08	0	0	0
1.04999e-08	0	0	0
1.18679e-08	0	0	0
1.19124e-08	0	0	0
1.21631e-08	0	0	0
1.26051e-08	0	0	0
1.29795e-08	0	0	0
1.30454e-08	0	0	0
1.30731e-08	0	0	0
1.41385e-08	0	0	0
1.65135e-08	0	0	0
1.69524e-08	0	0	0
1.75058e-08	0	0	0
1.776e-08	0	0	0
1.8943e-08	0	0	0
1.93432e-08	0	0	0
1.9345e-08	0	0	0
2.02103e-08	0	0	0
2.23897e-08	0	0	0
2.53268e-08	0	0	0
2.60405e-08	0	0	0
2.63285e-08	0	0	0
2.64067e-08	0	0	0
2.82367e-08	0	0	0
3.187e-08	0	0	0
3.40739e-08	0	0	0
3.41128e-08	0	0	0
3.4972e-08	0	0	0
3.58232e-08	0	0	0
3.61036e-08	0	0	0
3.74386e-08	0	0	0
3.82442e-08	0	0	0
4.06378e-08	0	0	0
4.12458e-08	0	0	0
4.41535e-08	0	0	0
4.42416e-08	0	0	0
4.79428e-08	0	0	0
5.1293e-08	0	0	0
5.215e-08	0	0	0
5.35743e-08	0	0	0
5.77692e-08	0	0	0
5.95217e-08	0	0	0
6.12892e-08	0	0	0
6.46742e-08	0	0	0
6.7207e-08	0	0	0
7.25284e-08	0	0	0
7.26393e-08	0	0	0
7.74215e-08	0	0	0
7.84741e-08	0	0	0
8.01553e-08	0	0	0
8.19105e-08	0	0	0
8.41604e-08	0	0	0
9.24669e-08	0	0	0
9.33186e-08	0	0	0
9.88433e-08	0	0	0
1.20086e-07	0	0	0
1.31245e-07	0	0	0
1.34998e-07	0	0	0
1.56878e-07	0	0	0
1.57939e-07	0	0	0
1.59283e-07	0	0	0
1.70656e-07	0	0	0
2.9477e-07	0	0	0
3.94311e-07	0	0	0
4.13739e-07	0	0	0
4.42549e-07	0	0	0
4.96446e-07	0	0	0
6.61168e-07	0	0	0
6.86404e-07	0	0	0
8.04612e-07	0	0	0
8.45579e-07	0	0	0
8.78444e-07	0	0	0
9.18185e-07	0	0	0
9.90729e-07	0	0	0
1.03059e-06	0	0	0
1.66616e-06	0	0	0
1.76072e-06	0	0	0
1.88848e-06	0	0	0
2.15255e-06	0	0	0
2.25964e-06	0	0	0
2.59849e-06	0	0	0
2.90301e-06	0	0	0
5.72958e-06	0	0	0
9.0297e-06	0	0	0
1.29024e-05	0	0	0
