1.03961e-09	0	0	0
1.56968e-09	0	0	0
1.69957e-09	0	0	0
1.7499e-09	0	0	0
1.75305e-09	0	0	0
1.7916e-09	0	0	0
2.59432e-09	0	0	0
2.74026e-09	0	0	0
2.92662e-09	0	0	0
3.86277e-09	0	0	0
4.57691e-09	0	0	0
4.77846e-09	0	0	0
4.78423e-09	0	0	0
5.74309e-09	0	0	0
5.78861e-09	0	0	0
5.80876e-09	0	0	0
5.92786e-09	0	0	0
6.38338e-09	0	0	0
6.80962e-09	0	0	0
6.92055e-09	0	0	0
7.15183e-09	0	0	0
7.61676e-09	0	0	0
8.52171e-09	0	0	0
8.89817e-09	0	0	0
9.37194e-09	0	0	0
9.48675e-09	0	0	0
9.77235e-09	0	0	0
1.09539e-08	0	0	0
1.19212e-08	0	0	0
1.29711e-08	0	0	0
1.35174e-08	0	0	0
1.36042e-08	0	0	0
1.38037e-08	0	0	0
1.38319e-08	0	0	0
1.38978e-08	0	0	0
1.59291e-08	0	0	0
1.63953e-08	0	0	0
1.80804e-08	0	0	0
1.83072e-08	0	0	0
1.92487e-08	0	0	0
2.27308e-08	0	0	0
2.37012e-08	0	0	0
2.54562e-08	0	0	0
2.55479e-08	0	0	0
2.58309e-08	0	0	0
2.60594e-08	0	0	0
2.77627e-08	0	0	0
2.96984e-08	0	0	0
3.27565e-08	0	0	0
3.40919e-08	0	0	0
3.47239e-08	0	0	0
3.47322e-08	0	0	0
3.65462e-08	0	0	0
3.71888e-08	0	0	0
3.86277e-08	0	0	0
4.12367e-08	0	0	0
4.12386e-08	0	0	0
4.16679e-08	0	0	0
4.43431e-08	0	0	0
4.93206e-08	0	0	0
5.92154e-08	0	0	0
6.9295e-08	0	0	0
6.95755e-08	0	0	0
7.38291e-08	0	0	0
7.67293e-08	0	0	0
8.03118e-08	0	0	0
8.23844e-08	0	0	0
8.29363e-08	0	0	0
9.09934e-08	0	0	0
9.19036e-08	0	0	0
9.30558e-08	0	0	0
1.05254e-07	0	0	0
1.12315e-07	0	0	0
1.2741e-07	0	0	0
1.38538e-07	0	0	0
1.39225e-07	0	0	0
1.43801e-07	0	0	0
1.5568e-07	0	0	0
1.64125e-07	0	0	0
1.75039e-07	0	0	0
2.03804e-07	0	0	0
2.20468e-07	0	0	0
2.38719e-07	0	0	0
2.73853e-07	0	0	0
2.81187e-07	0	0	0
3.04159e-07	0	0	0
3.30152e-07	0	0	0
3.64104e-07	0	0	0
3.64569e-07	0	0	0
3.78971e-07	0	0	0
3.83181e-07	0	0	0
4.51632e-07	0	0	0
5.15083e-07	0	0	0
5.58785e-07	0	0	0
5.69022e-07	0	0	0
5.77642e-07	0	0	0
5.96487e-07	0	0	0
6.733e-07	0	0	0
7.0801e-07	0	0	0
7.20657e-07	0	0	0
9.25262e-07	0	0	0
1.0751e-06	0	0	0
1.11129e-06	0	0	0
1.15895e-06	0	0	0
1.39832e-06	0	0	0
1.55697e-06	0	0	0
1.589e-06	0	0	0
1.65502e-06	0	0	0
1.71653e-06	0	0	0
2.73731e-06	0	0	0
2.82769e-06	0	0	0
6.7888e-06	0	0	0
7.59047e-06	0	0	0
9.67886e-06	0	0	0
7.6012e-05	0	0	0
