3.16365e-10	0	0	0
3.6922e-10	0	0	0
6.10704e-10	0	0	0
1.56703e-09	0	0	0
1.5918e-09	0	0	0
2.09525e-09	0	0	0
2.50212e-09	0	0	0
2.55539e-09	0	0	0
2.5952e-09	0	0	0
2.68023e-09	0	0	0
2.95029e-09	0	0	0
4.5311e-09	0	0	0
4.63009e-09	0	0	0
4.97374e-09	0	0	0
5.1146e-09	0	0	0
5.87538e-09	0	0	0
6.10297e-09	0	0	0
6.19883e-09	0	0	0
6.33347e-09	0	0	0
7.46931e-09	0	0	0
7.85446e-09	0	0	0
8.09254e-09	0	0	0
8.59527e-09	0	0	0
8.75503e-09	0	0	0
9.63124e-09	0	0	0
9.96542e-09	0	0	0
1.01134e-08	0	0	0
1.06109e-08	0	0	0
1.16293e-08	0	0	0
1.30648e-08	0	0	0
1.51672e-08	0	0	0
1.66006e-08	0	0	0
1.73628e-08	0	0	0
1.79144e-08	0	0	0
1.79183e-08	0	0	0
2.16175e-08	0	0	0
2.20788e-08	0	0	0
2.24507e-08	0	0	0
2.51776e-08	0	0	0
2.55672e-08	0	0	0
2.75462e-08	0	0	0
2.84273e-08	0	0	0
2.92806e-08	0	0	0
3.05736e-08	0	0	0
3.18079e-08	0	0	0
3.24814e-08	0	0	0
3.50801e-08	0	0	0
3.63373e-08	0	0	0
3.71842e-08	0	0	0
3.8973e-08	0	0	0
3.92686e-08	0	0	0
4.00286e-08	0	0	0
4.45681e-08	0	0	0
4.61007e-08	0	0	0
4.77591e-08	0	0	0
4.8643e-08	0	0	0
5.15922e-08	0	0	0
5.18197e-08	0	0	0
5.61335e-08	0	0	0
5.85261e-08	0	0	0
5.91431e-08	0	0	0
6.20827e-08	0	0	0
6.5026e-08	0	0	0
6.72554e-08	0	0	0
7.27423e-08	0	0	0
7.45994e-08	0	0	0
8.06599e-08	0	0	0
8.31815e-08	0	0	0
8.43568e-08	0	0	0
9.2813e-08	0	0	0
9.6114e-08	0	0	0
9.84454e-08	0	0	0
9.88282e-08	0	0	0
1.00975e-07	0	0	0
1.32076e-07	0	0	0
1.33257e-07	0	0	0
1.34846e-07	0	0	0
1.3926e-07	0	0	0
1.47897e-07	0	0	0
1.50215e-07	0	0	0
1.60863e-07	0	0	0
1.65898e-07	0	0	0
1.6627e-07	0	0	0
1.68097e-07	0	0	0
1.70732e-07	0	0	0
2.08093e-07	0	0	0
2.18392e-07	0	0	0
2.18662e-07	0	0	0
2.36834e-07	0	0	0
2.43988e-07	0	0	0
2.86675e-07	0	0	0
3.39363e-07	0	0	0
3.44486e-07	0	0	0
4.35973e-07	0	0	0
5.22021e-07	0	0	0
5.31055e-07	0	0	0
5.85696e-07	0	0	0
6.08102e-07	0	0	0
7.51016e-07	0	0	0
8.39747e-07	0	0	0
9.05453e-07	0	0	0
1.66358e-06	0	0	0
2.07711e-06	0	0	0
2.21027e-06	0	0	0
1.26294e-05	0	0	0
2.64027e-05	0	0	0
7.47298e-05	0	0	0
0.000103199	0	0	0
