3.36061e-10	0	0	0
5.10419e-10	0	0	0
7.24508e-10	0	0	0
8.91434e-10	0	0	0
9.55802e-10	0	0	0
1.25877e-09	0	0	0
1.34199e-09	0	0	0
2.42472e-09	0	0	0
2.72e-09	0	0	0
3.03405e-09	0	0	0
3.72016e-09	0	0	0
4.03119e-09	0	0	0
4.53815e-09	0	0	0
4.83063e-09	0	0	0
4.93284e-09	0	0	0
5.12848e-09	0	0	0
5.27482e-09	0	0	0
5.37234e-09	0	0	0
5.49198e-09	0	0	0
5.86993e-09	0	0	0
6.44472e-09	0	0	0
7.17673e-09	0	0	0
7.87342e-09	0	0	0
8.38107e-09	0	0	0
8.8214e-09	0	0	0
1.04315e-08	0	0	0
1.18082e-08	0	0	0
1.22389e-08	0	0	0
1.34809e-08	0	0	0
1.39846e-08	0	0	0
1.46592e-08	0	0	0
1.53621e-08	0	0	0
1.53902e-08	0	0	0
1.59884e-08	0	0	0
1.69079e-08	0	0	0
1.98138e-08	0	0	0
2.00012e-08	0	0	0
2.08038e-08	0	0	0
2.24131e-08	0	0	0
2.31724e-08	0	0	0
2.46472e-08	0	0	0
2.55257e-08	0	0	0
2.62971e-08	0	0	0
2.72286e-08	0	0	0
2.94848e-08	0	0	0
2.97871e-08	0	0	0
3.04269e-08	0	0	0
3.38455e-08	0	0	0
3.4364e-08	0	0	0
3.46749e-08	0	0	0
4.22437e-08	0	0	0
4.27082e-08	0	0	0
4.45226e-08	0	0	0
4.49815e-08	0	0	0
4.83028e-08	0	0	0
4.84969e-08	0	0	0
4.9276e-08	0	0	0
5.35106e-08	0	0	0
5.43315e-08	0	0	0
5.60705e-08	0	0	0
6.2301e-08	0	0	0
6.60437e-08	0	0	0
6.83308e-08	0	0	0
6.8925e-08	0	0	0
7.36725e-08	0	0	0
7.50705e-08	0	0	0
7.56478e-08	0	0	0
7.73224e-08	0	0	0
8.27209e-08	0	0	0
8.46288e-08	0	0	0
8.47097e-08	0	0	0
8.66364e-08	0	0	0
8.90192e-08	0	0	0
9.37203e-08	0	0	0
9.53145e-08	0	0	0
1.03478e-07	0	0	0
1.19897e-07	0	0	0
1.31408e-07	0	0	0
1.62163e-07	0	0	0
1.79878e-07	0	0	0
1.87612e-07	0	0	0
1.90977e-07	0	0	0
2.32334e-07	0	0	0
2.70418e-07	0	0	0
3.23138e-07	0	0	0
4.03631e-07	0	0	0
4.98862e-07	0	0	0
5.317e-07	0	0	0
5.65646e-07	0	0	0
5.9649e-07	0	0	0
7.3591e-07	0	0	0
8.70631e-07	0	0	0
9.00837e-07	0	0	0
9.77416e-07	0	0	0
9.90929e-07	0	0	0
1.17696e-06	0	0	0
1.41848e-06	0	0	0
1.77848e-06	0	0	0
2.45531e-06	0	0	0
2.4604e-06	0	0	0
1.34415e-05	0	0	0
3.2842e-05	0	0	0
