1.21944e-11	0	0	0
3.21404e-10	0	0	0
6.13377e-10	0	0	0
6.54773e-10	0	0	0
7.22138e-10	0	0	0
7.62305e-10	0	0	0
1.41279e-09	0	0	0
1.63082e-09	0	0	0
1.70773e-09	0	0	0
2.74987e-09	0	0	0
3.37024e-09	0	0	0
3.57192e-09	0	0	0
4.51094e-09	0	0	0
5.07055e-09	0	0	0
5.12068e-09	0	0	0
6.14869e-09	0	0	0
8.02208e-09	0	0	0
8.16448e-09	0	0	0
8.17978e-09	0	0	0
8.69218e-09	0	0	0
1.00029e-08	0	0	0
1.07899e-08	0	0	0
1.24264e-08	0	0	0
1.30539e-08	0	0	0
1.31628e-08	0	0	0
1.43104e-08	0	0	0
1.74179e-08	0	0	0
1.79767e-08	0	0	0
2.01119e-08	0	0	0
2.38301e-08	0	0	0
2.42102e-08	0	0	0
2.4434e-08	0	0	0
2.46575e-08	0	0	0
2.61476e-08	0	0	0
2.65709e-08	0	0	0
2.67352e-08	0	0	0
2.69593e-08	0	0	0
2.75721e-08	0	0	0
3.00384e-08	0	0	0
3.07428e-08	0	0	0
3.13959e-08	0	0	0
3.1862e-08	0	0	0
3.26085e-08	0	0	0
3.50659e-08	0	0	0
3.71401e-08	0	0	0
3.73193e-08	0	0	0
3.7787e-08	0	0	0
3.84221e-08	0	0	0
3.99106e-08	0	0	0
4.11687e-08	0	0	0
4.28868e-08	0	0	0
4.33424e-08	0	0	0
4.42325e-08	0	0	0
4.66899e-08	0	0	0
4.69546e-08	0	0	0
4.71304e-08	0	0	0
4.83381e-08	0	0	0
4.89628e-08	0	0	0
4.953e-08	0	0	0
5.04042e-08	0	0	0
5.4489e-08	0	0	0
5.52352e-08	0	0	0
5.53716e-08	0	0	0
5.64102e-08	0	0	0
5.85555e-08	0	0	0
5.93307e-08	0	0	0
6.90781e-08	0	0	0
7.28597e-08	0	0	0
7.33738e-08	0	0	0
8.51382e-08	0	0	0
8.724e-08	0	0	0
9.89598e-08	0	0	0
1.06737e-07	0	0	0
1.15856e-07	0	0	0
1.20463e-07	0	0	0
1.28289e-07	0	0	0
1.40529e-07	0	0	0
1.55198e-07	0	0	0
1.60615e-07	0	0	0
1.65235e-07	0	0	0
1.68563e-07	0	0	0
1.71055e-07	0	0	0
1.89086e-07	0	0	0
2.30506e-07	0	0	0
2.63554e-07	0	0	0
2.76591e-07	0	0	0
3.00399e-07	0	0	0
3.10811e-07	0	0	0
3.71683e-07	0	0	0
4.03352e-07	0	0	0
4.32249e-07	0	0	0
4.35654e-07	0	0	0
4.77441e-07	0	0	0
5.02624e-07	0	0	0
5.72374e-07	0	0	0
5.72777e-07	0	0	0
8.81472e-07	0	0	0
9.42288e-07	0	0	0
9.87134e-07	0	0	0
1.08632e-06	0	0	0
1.16463e-06	0	0	0
1.21549e-06	0	0	0
1.52328e-06	0	0	0
1.73041e-06	0	0	0
3.08759e-06	0	0	0
3.10985e-06	0	0	0
0.000153691	0	0	0
