2.35953e-10	0	0	0
6.73756e-10	0	0	0
9.0994e-10	0	0	0
1.00315e-09	0	0	0
1.13644e-09	0	0	0
1.49103e-09	0	0	0
1.53962e-09	0	0	0
1.60824e-09	0	0	0
2.54224e-09	0	0	0
2.86673e-09	0	0	0
2.89141e-09	0	0	0
3.76394e-09	0	0	0
4.55987e-09	0	0	0
5.05575e-09	0	0	0
5.14432e-09	0	0	0
5.34142e-09	0	0	0
5.45387e-09	0	0	0
5.81347e-09	0	0	0
5.90675e-09	0	0	0
6.29799e-09	0	0	0
6.87154e-09	0	0	0
7.99883e-09	0	0	0
8.27441e-09	0	0	0
8.65042e-09	0	0	0
9.05652e-09	0	0	0
1.03868e-08	0	0	0
1.08695e-08	0	0	0
1.15206e-08	0	0	0
1.15917e-08	0	0	0
1.31895e-08	0	0	0
1.34905e-08	0	0	0
1.46793e-08	0	0	0
1.47433e-08	0	0	0
1.61068e-08	0	0	0
1.73337e-08	0	0	0
1.98609e-08	0	0	0
2.02563e-08	0	0	0
2.09616e-08	0	0	0
2.12203e-08	0	0	0
2.15915e-08	0	0	0
2.24554e-08	0	0	0
2.26883e-08	0	0	0
2.5382e-08	0	0	0
2.71045e-08	0	0	0
2.71255e-08	0	0	0
2.82024e-08	0	0	0
2.83069e-08	0	0	0
2.86046e-08	0	0	0
2.96217e-08	0	0	0
3.04528e-08	0	0	0
3.10819e-08	0	0	0
3.36252e-08	0	0	0
3.97975e-08	0	0	0
4.08416e-08	0	0	0
4.09133e-08	0	0	0
4.65637e-08	0	0	0
4.68272e-08	0	0	0
4.94291e-08	0	0	0
5.06569e-08	0	0	0
5.10738e-08	0	0	0
5.20689e-08	0	0	0
5.47519e-08	0	0	0
5.55515e-08	0	0	0
6.46947e-08	0	0	0
6.82438e-08	0	0	0
7.52902e-08	0	0	0
7.65973e-08	0	0	0
8.40133e-08	0	0	0
8.54611e-08	0	0	0
8.92035e-08	0	0	0
9.21009e-08	0	0	0
9.93003e-08	0	0	0
1.00168e-07	0	0	0
1.01965e-07	0	0	0
1.29691e-07	0	0	0
1.39196e-07	0	0	0
1.48663e-07	0	0	0
1.55942e-07	0	0	0
1.6051e-07	0	0	0
1.76052e-07	0	0	0
1.7764e-07	0	0	0
2.11133e-07	0	0	0
2.1157e-07	0	0	0
2.25645e-07	0	0	0
2.32884e-07	0	0	0
2.34346e-07	0	0	0
2.49854e-07	0	0	0
2.55345e-07	0	0	0
2.75045e-07	0	0	0
3.37697e-07	0	0	0
3.45537e-07	0	0	0
3.93999e-07	0	0	0
4.07453e-07	0	0	0
4.25826e-07	0	0	0
4.79437e-07	0	0	0
4.92969e-07	0	0	0
5.44596e-07	0	0	0
6.10338e-07	0	0	0
7.2481e-07	0	0	0
1.931e-06	0	0	0
2.201e-06	0	0	0
3.08954e-06	0	0	0
3.57675e-06	0	0	0
1.26359e-05	0	0	0
1.57406e-05	0	0	0
2.49167e-05	0	0	0
4.75001e-05	0	0	0
6.04704e-05	0	0	0
