3.40107e-11	0	0	0
1.21923e-10	0	0	0
2.25778e-10	0	0	0
6.854e-10	0	0	0
8.12919e-10	0	0	0
1.17136e-09	0	0	0
1.4154e-09	0	0	0
1.50302e-09	0	0	0
2.04437e-09	0	0	0
2.42837e-09	0	0	0
2.46416e-09	0	0	0
2.61568e-09	0	0	0
2.86795e-09	0	0	0
4.0405e-09	0	0	0
4.46086e-09	0	0	0
4.49719e-09	0	0	0
4.95477e-09	0	0	0
5.82015e-09	0	0	0
6.43547e-09	0	0	0
6.88842e-09	0	0	0
7.0248e-09	0	0	0
7.52168e-09	0	0	0
7.94369e-09	0	0	0
9.17891e-09	0	0	0
9.66061e-09	0	0	0
1.05794e-08	0	0	0
1.12567e-08	0	0	0
1.17838e-08	0	0	0
1.21804e-08	0	0	0
1.33077e-08	0	0	0
1.55476e-08	0	0	0
1.55519e-08	0	0	0
1.61968e-08	0	0	0
1.67733e-08	0	0	0
1.9311e-08	0	0	0
1.99784e-08	0	0	0
2.08399e-08	0	0	0
2.31216e-08	0	0	0
2.32323e-08	0	0	0
2.36535e-08	0	0	0
2.38114e-08	0	0	0
2.46322e-08	0	0	0
2.52917e-08	0	0	0
2.56239e-08	0	0	0
2.64205e-08	0	0	0
2.73997e-08	0	0	0
3.0169e-08	0	0	0
3.01826e-08	0	0	0
3.35699e-08	0	0	0
3.4485e-08	0	0	0
3.70448e-08	0	0	0
3.79224e-08	0	0	0
4.24146e-08	0	0	0
4.26856e-08	0	0	0
4.38178e-08	0	0	0
4.52447e-08	0	0	0
4.52533e-08	0	0	0
4.6031e-08	0	0	0
4.67385e-08	0	0	0
4.79186e-08	0	0	0
4.97008e-08	0	0	0
5.26812e-08	0	0	0
5.80952e-08	0	0	0
6.78526e-08	0	0	0
7.4025e-08	0	0	0
7.83199e-08	0	0	0
8.21509e-08	0	0	0
8.7899e-08	0	0	0
9.07808e-08	0	0	0
9.67069e-08	0	0	0
9.75772e-08	0	0	0
1.02942e-07	0	0	0
1.12108e-07	0	0	0
1.22622e-07	0	0	0
1.35838e-07	0	0	0
1.36919e-07	0	0	0
1.60296e-07	0	0	0
2.09987e-07	0	0	0
2.19201e-07	0	0	0
2.21738e-07	0	0	0
2.23614e-07	0	0	0
2.29174e-07	0	0	0
2.42643e-07	0	0	0
2.63884e-07	0	0	0
2.68019e-07	0	0	0
2.73365e-07	0	0	0
2.76614e-07	0	0	0
3.09666e-07	0	0	0
3.46176e-07	0	0	0
4.92251e-07	0	0	0
7.84145e-07	0	0	0
8.76571e-07	0	0	0
8.90596e-07	0	0	0
1.35925e-06	0	0	0
2.24536e-06	0	0	0
2.95184e-06	0	0	0
3.39516e-06	0	0	0
4.27071e-06	0	0	0
1.82303e-05	0	0	0
