2.88768e-08	0	0	0
5.56391e-07	0	0	0
8.28314e-07	0	0	0
9.0288e-07	0	0	0
9.23781e-07	0	0	0
1.08212e-06	0	0	0
1.20363e-06	0	0	0
1.51179e-06	0	0	0
1.7612e-06	0	0	0
1.92454e-06	0	0	0
1.93374e-06	0	0	0
1.94611e-06	0	0	0
2.4813e-06	0	0	0
2.51104e-06	0	0	0
2.82985e-06	0	0	0
2.93442e-06	0	0	0
2.96433e-06	0	0	0
3.19855e-06	0	0	0
3.48164e-06	0	0	0
3.5508e-06	0	0	0
3.55814e-06	0	0	0
3.62179e-06	0	0	0
3.63785e-06	0	0	0
3.6457e-06	0	0	0
3.73845e-06	0	0	0
3.90259e-06	0	0	0
3.98643e-06	0	0	0
4.36179e-06	0	0	0
4.36345e-06	0	0	0
4.49841e-06	0	0	0
4.62598e-06	0	0	0
4.65303e-06	0	0	0
4.70618e-06	0	0	0
4.76479e-06	0	0	0
4.81664e-06	0	0	0
5.06488e-06	0	0	0
5.083e-06	0	0	0
5.30506e-06	0	0	0
5.31165e-06	0	0	0
5.32958e-06	0	0	0
5.35873e-06	0	0	0
5.3673e-06	0	0	0
5.48464e-06	0	0	0
5.51691e-06	0	0	0
5.6208e-06	0	0	0
5.9483e-06	0	0	0
6.11648e-06	0	0	0
6.15021e-06	0	0	0
6.27396e-06	0	0	0
6.78915e-06	0	0	0
7.05995e-06	0	0	0
7.23414e-06	0	0	0
7.25273e-06	0	0	0
7.3003e-06	0	0	0
7.45222e-06	0	0	0
7.5352e-06	0	0	0
7.55878e-06	0	0	0
7.7045e-06	0	0	0
7.73634e-06	0	0	0
7.78783e-06	0	0	0
7.93104e-06	0	0	0
7.98776e-06	0	0	0
8.3018e-06	0	0	0
8.33414e-06	0	0	0
8.40945e-06	0	0	0
8.52584e-06	0	0	0
8.61028e-06	0	0	0
8.67698e-06	0	0	0
8.68572e-06	0	0	0
8.79396e-06	0	0	0
8.94508e-06	0	0	0
9.08757e-06	0	0	0
9.11755e-06	0	0	0
9.19836e-06	0	0	0
9.20783e-06	0	0	0
9.30511e-06	0	0	0
9.42854e-06	0	0	0
9.54841e-06	0	0	0
1.0624e-05	0	0	0
1.072e-05	0	0	0
1.08682e-05	0	0	0
1.10165e-05	0	0	0
1.10866e-05	0	0	0
1.12503e-05	0	0	0
1.13397e-05	0	0	0
1.15004e-05	0	0	0
1.15506e-05	0	0	0
1.1641e-05	0	0	0
1.16981e-05	0	0	0
1.17024e-05	0	0	0
1.18026e-05	0	0	0
1.20352e-05	0	0	0
1.22891e-05	0	0	0
1.23661e-05	0	0	0
1.25573e-05	0	0	0
1.26108e-05	0	0	0
1.31697e-05	0	0	0
1.32038e-05	0	0	0
1.33085e-05	0	0	0
1.3428e-05	0	0	0
1.34388e-05	0	0	0
1.36345e-05	0	0	0
1.37763e-05	0	0	0
1.3801e-05	0	0	0
1.41271e-05	0	0	0
1.42808e-05	0	0	0
1.46117e-05	0	0	0
1.46298e-05	0	0	0
1.47197e-05	0	0	0
1.49458e-05	0	0	0
1.52988e-05	0	0	0
1.53065e-05	0	0	0
1.54832e-05	0	0	0
1.55986e-05	0	0	0
1.59965e-05	0	0	0
1.61173e-05	0	0	0
1.64065e-05	0	0	0
1.68307e-05	0	0	0
1.71747e-05	0	0	0
1.72686e-05	0	0	0
1.73825e-05	0	0	0
1.74612e-05	0	0	0
1.76559e-05	0	0	0
1.76695e-05	0	0	0
1.77082e-05	0	0	0
1.77431e-05	0	0	0
1.78057e-05	0	0	0
1.78135e-05	0	0	0
1.79686e-05	0	0	0
1.80215e-05	0	0	0
1.85374e-05	0	0	0
1.87621e-05	0	0	0
1.98444e-05	0	0	0
1.9947e-05	0	0	0
2.00154e-05	0	0	0
2.03197e-05	0	0	0
2.04427e-05	0	0	0
2.05469e-05	0	0	0
2.05565e-05	0	0	0
2.10913e-05	0	0	0
2.11041e-05	0	0	0
2.12802e-05	0	0	0
2.18169e-05	0	0	0
2.18799e-05	0	0	0
2.21984e-05	0	0	0
2.28249e-05	0	0	0
2.2955e-05	0	0	0
2.33164e-05	0	0	0
2.38025e-05	0	0	0
2.38181e-05	0	0	0
2.40722e-05	0	0	0
2.45519e-05	0	0	0
2.49095e-05	0	0	0
2.50088e-05	0	0	0
2.50658e-05	0	0	0
2.53316e-05	0	0	0
2.58899e-05	0	0	0
2.59562e-05	0	0	0
2.61305e-05	0	0	0
2.63038e-05	0	0	0
2.63893e-05	0	0	0
2.70088e-05	0	0	0
2.70506e-05	0	0	0
2.74628e-05	0	0	0
2.75529e-05	0	0	0
2.77602e-05	0	0	0
2.78385e-05	0	0	0
2.79964e-05	0	0	0
2.8278e-05	0	0	0
2.82837e-05	0	0	0
2.84969e-05	0	0	0
2.85846e-05	0	0	0
2.86687e-05	0	0	0
2.87285e-05	0	0	0
2.91341e-05	0	0	0
2.92105e-05	0	0	0
2.92598e-05	0	0	0
2.92698e-05	0	0	0
2.93421e-05	0	0	0
2.95575e-05	0	0	0
2.95857e-05	0	0	0
2.96379e-05	0	0	0
2.96782e-05	0	0	0
2.9737e-05	0	0	0
3.01467e-05	0	0	0
3.0212e-05	0	0	0
3.06441e-05	0	0	0
3.06724e-05	0	0	0
3.07164e-05	0	0	0
3.12266e-05	0	0	0
3.12315e-05	0	0	0
3.13008e-05	0	0	0
3.13223e-05	0	0	0
3.18671e-05	0	0	0
3.22426e-05	0	0	0
3.25787e-05	0	0	0
3.26386e-05	0	0	0
3.30947e-05	0	0	0
3.35106e-05	0	0	0
3.36031e-05	0	0	0
3.37711e-05	0	0	0
3.38202e-05	0	0	0
3.47982e-05	0	0	0
3.52515e-05	0	0	0
3.55127e-05	0	0	0
3.56216e-05	0	0	0
3.60153e-05	0	0	0
3.6151e-05	0	0	0
3.61845e-05	0	0	0
3.62178e-05	0	0	0
3.64566e-05	0	0	0
3.66431e-05	0	0	0
3.67523e-05	0	0	0
3.73033e-05	0	0	0
3.76158e-05	0	0	0
3.76372e-05	0	0	0
3.77282e-05	0	0	0
3.77639e-05	0	0	0
3.84455e-05	0	0	0
3.86244e-05	0	0	0
3.93643e-05	0	0	0
3.94336e-05	0	0	0
3.95599e-05	0	0	0
3.96504e-05	0	0	0
3.9669e-05	0	0	0
4.00736e-05	0	0	0
4.00789e-05	0	0	0
4.01892e-05	0	0	0
4.02369e-05	0	0	0
4.05463e-05	0	0	0
4.06846e-05	0	0	0
4.07241e-05	0	0	0
4.08629e-05	0	0	0
4.15921e-05	0	0	0
4.16712e-05	0	0	0
4.19767e-05	0	0	0
4.2175e-05	0	0	0
4.23758e-05	0	0	0
4.24079e-05	0	0	0
4.3011e-05	0	0	0
4.30498e-05	0	0	0
4.30577e-05	0	0	0
4.3125e-05	0	0	0
4.33922e-05	0	0	0
4.34272e-05	0	0	0
4.40679e-05	0	0	0
4.41155e-05	0	0	0
4.44241e-05	0	0	0
4.46122e-05	0	0	0
4.47609e-05	0	0	0
4.47736e-05	0	0	0
4.47802e-05	0	0	0
4.50525e-05	0	0	0
4.50959e-05	0	0	0
4.554e-05	0	0	0
4.55541e-05	0	0	0
4.59487e-05	0	0	0
4.60961e-05	0	0	0
4.66347e-05	0	0	0
4.67072e-05	0	0	0
4.76944e-05	0	0	0
4.77504e-05	0	0	0
4.86179e-05	0	0	0
4.88089e-05	0	0	0
4.88932e-05	0	0	0
4.88955e-05	0	0	0
4.92068e-05	0	0	0
4.96479e-05	0	0	0
4.96896e-05	0	0	0
5.07841e-05	0	0	0
5.09786e-05	0	0	0
5.14787e-05	0	0	0
5.18599e-05	0	0	0
5.18788e-05	0	0	0
5.24164e-05	0	0	0
5.26339e-05	0	0	0
5.28614e-05	0	0	0
5.31339e-05	0	0	0
5.34343e-05	0	0	0
5.34942e-05	0	0	0
5.37096e-05	0	0	0
5.42649e-05	0	0	0
5.44601e-05	0	0	0
5.45602e-05	0	0	0
5.47879e-05	0	0	0
5.50853e-05	0	0	0
5.53188e-05	0	0	0
5.55301e-05	0	0	0
5.56062e-05	0	0	0
5.59592e-05	0	0	0
5.61456e-05	0	0	0
5.65059e-05	0	0	0
5.69318e-05	0	0	0
5.71538e-05	0	0	0
5.83039e-05	0	0	0
5.84495e-05	0	0	0
5.86416e-05	0	0	0
5.89176e-05	0	0	0
5.90132e-05	0	0	0
5.90769e-05	0	0	0
6.06106e-05	0	0	0
6.12209e-05	0	0	0
6.13083e-05	0	0	0
6.13757e-05	0	0	0
6.14936e-05	0	0	0
6.1667e-05	0	0	0
6.22972e-05	0	0	0
6.23459e-05	0	0	0
6.32589e-05	0	0	0
6.37819e-05	0	0	0
6.43853e-05	0	0	0
6.44619e-05	0	0	0
6.4748e-05	0	0	0
6.50111e-05	0	0	0
6.51462e-05	0	0	0
6.52994e-05	0	0	0
6.6484e-05	0	0	0
6.69205e-05	0	0	0
6.73028e-05	0	0	0
6.77793e-05	0	0	0
6.86917e-05	0	0	0
7.0228e-05	0	0	0
7.03361e-05	0	0	0
7.05893e-05	0	0	0
7.07984e-05	0	0	0
7.0807e-05	0	0	0
7.10125e-05	0	0	0
7.10647e-05	0	0	0
7.16854e-05	0	0	0
7.1875e-05	0	0	0
7.32658e-05	0	0	0
7.35192e-05	0	0	0
7.35939e-05	0	0	0
7.3977e-05	0	0	0
7.39899e-05	0	0	0
7.41657e-05	0	0	0
7.418e-05	0	0	0
7.54605e-05	0	0	0
7.5651e-05	0	0	0
7.6595e-05	0	0	0
7.72732e-05	0	0	0
7.73022e-05	0	0	0
7.74076e-05	0	0	0
7.78963e-05	0	0	0
7.7943e-05	0	0	0
7.80798e-05	0	0	0
7.85649e-05	0	0	0
7.88009e-05	0	0	0
7.88343e-05	0	0	0
7.88564e-05	0	0	0
7.9357e-05	0	0	0
8.00535e-05	0	0	0
8.01764e-05	0	0	0
8.02981e-05	0	0	0
8.05359e-05	0	0	0
8.08527e-05	0	0	0
8.11194e-05	0	0	0
8.11507e-05	0	0	0
8.17733e-05	0	0	0
8.19872e-05	0	0	0
8.21528e-05	0	0	0
8.23455e-05	0	0	0
8.27371e-05	0	0	0
8.2951e-05	0	0	0
8.40869e-05	0	0	0
8.44545e-05	0	0	0
8.50105e-05	0	0	0
8.51902e-05	0	0	0
8.58507e-05	0	0	0
8.59854e-05	0	0	0
8.64061e-05	0	0	0
8.64407e-05	0	0	0
8.67673e-05	0	0	0
8.74116e-05	0	0	0
8.75766e-05	0	0	0
8.83084e-05	0	0	0
8.97145e-05	0	0	0
9.00783e-05	0	0	0
9.05455e-05	0	0	0
9.18167e-05	0	0	0
9.1937e-05	0	0	0
9.19553e-05	0	0	0
9.25386e-05	0	0	0
9.30065e-05	0	0	0
9.30572e-05	0	0	0
9.34475e-05	0	0	0
9.40529e-05	0	0	0
9.45787e-05	0	0	0
9.47565e-05	0	0	0
9.49357e-05	0	0	0
9.64743e-05	0	0	0
9.65777e-05	0	0	0
9.72909e-05	0	0	0
9.7761e-05	0	0	0
9.89759e-05	0	0	0
9.99523e-05	0	0	0
0.000100951	0	0	0
0.000101582	0	0	0
0.000101932	0	0	0
0.000103374	0	0	0
0.000103725	0	0	0
0.00010379	0	0	0
0.000104456	0	0	0
0.000105027	0	0	0
0.000105111	0	0	0
0.000106253	0	0	0
0.000106408	0	0	0
0.000107647	0	0	0
0.000107953	0	0	0
0.000109385	0	0	0
0.000110242	0	0	0
0.000110695	0	0	0
0.000110752	0	0	0
0.000110857	0	0	0
0.000110885	0	0	0
0.000111515	0	0	0
0.000111975	0	0	0
0.000112137	0	0	0
0.000112373	0	0	0
0.000112414	0	0	0
0.00011332	0	0	0
0.000113822	0	0	0
0.000114535	0	0	0
0.000114953	0	0	0
0.000115362	0	0	0
0.000116324	0	0	0
0.00011685	0	0	0
0.000117036	0	0	0
0.000117481	0	0	0
0.00011757	0	0	0
0.000118162	0	0	0
0.000118246	0	0	0
0.0001189	0	0	0
0.000119335	0	0	0
0.000119758	0	0	0
0.00012007	0	0	0
0.000120751	0	0	0
0.000121188	0	0	0
0.00012245	0	0	0
0.000123177	0	0	0
0.000123959	0	0	0
0.000124612	0	0	0
0.000125206	0	0	0
0.000126465	0	0	0
0.000126621	0	0	0
0.000127572	0	0	0
0.00012789	0	0	0
0.000128028	0	0	0
0.000129131	0	0	0
0.000129404	0	0	0
0.000129805	0	0	0
0.000130857	0	0	0
0.000131071	0	0	0
0.000131073	0	0	0
0.0001314	0	0	0
0.000131573	0	0	0
0.000134763	0	0	0
0.000134915	0	0	0
0.000135285	0	0	0
0.000135652	0	0	0
0.000135904	0	0	0
0.000136339	0	0	0
0.000136677	0	0	0
0.0001379	0	0	0
0.000138248	0	0	0
0.000138722	0	0	0
0.000139324	0	0	0
0.000141644	0	0	0
0.000142996	0	0	0
0.000143802	0	0	0
0.000144651	0	0	0
0.000144948	0	0	0
0.000146026	0	0	0
0.000146162	0	0	0
0.000146787	0	0	0
0.000147453	0	0	0
0.000147552	0	0	0
0.00014818	0	0	0
0.000148319	0	0	0
0.000149468	0	0	0
0.000149547	0	0	0
0.000149552	0	0	0
0.000150011	0	0	0
0.00015042	0	0	0
0.000150566	0	0	0
0.000150715	0	0	0
0.0001508	0	0	0
0.000152264	0	0	0
0.000153076	0	0	0
0.000154342	0	0	0
0.000154452	0	0	0
0.000155138	0	0	0
0.000155769	0	0	0
0.000155875	0	0	0
0.000158329	0	0	0
0.000158555	0	0	0
0.000159392	0	0	0
0.000160177	0	0	0
0.000160842	0	0	0
0.000160924	0	0	0
0.000161508	0	0	0
0.000161888	0	0	0
0.000162206	0	0	0
0.000162808	0	0	0
0.000162841	0	0	0
0.000163768	0	0	0
0.000163822	0	0	0
0.000164103	0	0	0
0.000164748	0	0	0
0.000164928	0	0	0
0.000164973	0	0	0
0.000166783	0	0	0
0.000168428	0	0	0
0.000168962	0	0	0
0.000171549	0	0	0
0.00017246	0	0	0
0.000174105	0	0	0
0.000174411	0	0	0
0.000174702	0	0	0
0.000175864	0	0	0
0.000176697	0	0	0
0.000177972	0	0	0
0.000178113	0	0	0
0.00017859	0	0	0
0.000180006	0	0	0
0.000180046	0	0	0
0.000180369	0	0	0
0.000181288	0	0	0
0.000184552	0	0	0
0.000184955	0	0	0
0.000185402	0	0	0
0.000187288	0	0	0
0.000188167	0	0	0
0.000188571	0	0	0
0.000188582	0	0	0
0.000190122	0	0	0
0.000191662	0	0	0
0.000193367	0	0	0
0.000194087	0	0	0
0.000194523	0	0	0
0.000195343	0	0	0
0.000195596	0	0	0
0.000195847	0	0	0
0.000195944	0	0	0
0.000196114	0	0	0
0.000197683	0	0	0
0.000197872	0	0	0
0.000200402	0	0	0
0.000202394	0	0	0
0.000202565	0	0	0
0.000203171	0	0	0
0.000203494	0	0	0
0.000203526	0	0	0
0.000204017	0	0	0
0.000204518	0	0	0
0.000204899	0	0	0
0.00020658	0	0	0
0.000208033	0	0	0
0.000208559	0	0	0
0.000208717	0	0	0
0.000210317	0	0	0
0.000211716	0	0	0
0.00021181	0	0	0
0.000215661	0	0	0
0.000215937	0	0	0
0.000216087	0	0	0
0.00021673	0	0	0
0.000216974	0	0	0
0.000217102	0	0	0
0.000217917	0	0	0
0.000223069	0	0	0
0.000223388	0	0	0
0.000223577	0	0	0
0.000224718	0	0	0
0.000225206	0	0	0
0.000225997	0	0	0
0.000226059	0	0	0
0.000228064	0	0	0
0.00022884	0	0	0
0.000229591	0	0	0
0.000229596	0	0	0
0.000231878	0	0	0
0.000232441	0	0	0
0.000234979	0	0	0
0.000235365	0	0	0
0.000239355	0	0	0
0.000242355	0	0	0
0.000242653	0	0	0
0.00024273	0	0	0
0.000246718	0	0	0
0.000247536	0	0	0
0.00024792	0	0	0
0.00025104	0	0	0
0.000252522	0	0	0
0.000254455	0	0	0
0.000254526	0	0	0
0.000258567	0	0	0
0.000266395	0	0	0
0.000267827	0	0	0
0.000268305	0	0	0
0.000268538	0	0	0
0.00027078	0	0	0
0.00027169	0	0	0
0.000272159	0	0	0
0.000272738	0	0	0
0.000274928	0	0	0
0.000275052	0	0	0
0.000276174	0	0	0
0.000281197	0	0	0
0.000281237	0	0	0
0.000283768	0	0	0
0.000289642	0	0	0
0.000291452	0	0	0
0.000299165	0	0	0
0.000300643	0	0	0
0.000300856	0	0	0
0.000301646	0	0	0
0.000302247	0	0	0
0.000305979	0	0	0
0.000306446	0	0	0
0.000309364	0	0	0
0.000313702	0	0	0
0.000318418	0	0	0
0.000318505	0	0	0
0.00031869	0	0	0
0.000320262	0	0	0
0.000320881	0	0	0
0.000321067	0	0	0
0.00032376	0	0	0
0.000324414	0	0	0
0.000329717	0	0	0
0.000330392	0	0	0
0.00033102	0	0	0
0.000331807	0	0	0
0.000332035	0	0	0
0.000341384	0	0	0
0.000343239	0	0	0
0.000344467	0	0	0
0.00034802	0	0	0
0.000354635	0	0	0
0.000355896	0	0	0
0.000359221	0	0	0
0.000363415	0	0	0
0.000367157	0	0	0
0.000367663	0	0	0
0.000375892	0	0	0
0.000376041	0	0	0
0.000377057	0	0	0
0.000379823	0	0	0
0.00038058	0	0	0
0.000384732	0	0	0
0.000390317	0	0	0
0.000396372	0	0	0
0.000396736	0	0	0
0.000412129	0	0	0
0.000412463	0	0	0
0.000419332	0	0	0
0.000422095	0	0	0
0.000423291	0	0	0
0.000429759	0	0	0
0.000433578	0	0	0
0.000437937	0	0	0
0.000452717	0	0	0
0.000456343	0	0	0
0.000456724	0	0	0
0.000459391	0	0	0
0.000467614	0	0	0
0.000470344	0	0	0
0.000480934	0	0	0
0.00048164	0	0	0
0.000501901	0	0	0
0.000517273	0	0	0
0.000535788	0	0	0
0.000550257	0	0	0
0.000578201	0	0	0
0.000581338	0	0	0
0.000584139	0	0	0
0.000586484	0	0	0
0.000594788	0	0	0
0.00060797	0	0	0
0.000612584	0	0	0
0.000631953	0	0	0
0.00064378	0	0	0
0.000672482	0	0	0
0.000726756	0	0	0
0.000736009	0	0	0
0.000772238	0	0	0
0.000773471	0	0	0
0.000790811	0	0	0
0.000796731	0	0	0
0.000815764	0	0	0
0.000857709	0	0	0
0.000883495	0	0	0
0.000888273	0	0	0
0.000924904	0	0	0
0.000947171	0	0	0
0.00122205	0	0	0
0.0012505	0	0	0
0.00130802	0	0	0
0.00133822	0	0	0
0.00147244	0	0	0
0.00171428	0	0	0
