2.46347e-08	0	0	0
2.23108e-07	0	0	0
2.41949e-07	0	0	0
2.45462e-07	0	0	0
2.62147e-07	0	0	0
4.07812e-07	0	0	0
4.71354e-07	0	0	0
8.52168e-07	0	0	0
1.00329e-06	0	0	0
1.04936e-06	0	0	0
1.12452e-06	0	0	0
1.205e-06	0	0	0
1.67367e-06	0	0	0
1.85259e-06	0	0	0
1.856e-06	0	0	0
1.89398e-06	0	0	0
1.94315e-06	0	0	0
1.95985e-06	0	0	0
1.98168e-06	0	0	0
1.98187e-06	0	0	0
2.08178e-06	0	0	0
2.1689e-06	0	0	0
2.28973e-06	0	0	0
2.36704e-06	0	0	0
2.43516e-06	0	0	0
2.62808e-06	0	0	0
2.67436e-06	0	0	0
2.93012e-06	0	0	0
4.11942e-06	0	0	0
4.33546e-06	0	0	0
4.7133e-06	0	0	0
4.75593e-06	0	0	0
4.79748e-06	0	0	0
4.81762e-06	0	0	0
5.02437e-06	0	0	0
5.25266e-06	0	0	0
5.29875e-06	0	0	0
5.30655e-06	0	0	0
5.6024e-06	0	0	0
5.66397e-06	0	0	0
5.69425e-06	0	0	0
6.00681e-06	0	0	0
6.04778e-06	0	0	0
6.14095e-06	0	0	0
6.32364e-06	0	0	0
6.36847e-06	0	0	0
6.48333e-06	0	0	0
6.57745e-06	0	0	0
6.60891e-06	0	0	0
6.80984e-06	0	0	0
7.14836e-06	0	0	0
7.22691e-06	0	0	0
7.25165e-06	0	0	0
7.3093e-06	0	0	0
7.37575e-06	0	0	0
7.92928e-06	0	0	0
8.58156e-06	0	0	0
8.70347e-06	0	0	0
8.74266e-06	0	0	0
8.94846e-06	0	0	0
9.0077e-06	0	0	0
9.22813e-06	0	0	0
9.29804e-06	0	0	0
9.3774e-06	0	0	0
9.52304e-06	0	0	0
1.00026e-05	0	0	0
1.01432e-05	0	0	0
1.01954e-05	0	0	0
1.04613e-05	0	0	0
1.07895e-05	0	0	0
1.09137e-05	0	0	0
1.09639e-05	0	0	0
1.10884e-05	0	0	0
1.12382e-05	0	0	0
1.15932e-05	0	0	0
1.21098e-05	0	0	0
1.22679e-05	0	0	0
1.27288e-05	0	0	0
1.28211e-05	0	0	0
1.30469e-05	0	0	0
1.30956e-05	0	0	0
1.32424e-05	0	0	0
1.34106e-05	0	0	0
1.34163e-05	0	0	0
1.36624e-05	0	0	0
1.36868e-05	0	0	0
1.37165e-05	0	0	0
1.38613e-05	0	0	0
1.40173e-05	0	0	0
1.40912e-05	0	0	0
1.41846e-05	0	0	0
1.43193e-05	0	0	0
1.4461e-05	0	0	0
1.4525e-05	0	0	0
1.47497e-05	0	0	0
1.48675e-05	0	0	0
1.49525e-05	0	0	0
1.50244e-05	0	0	0
1.51109e-05	0	0	0
1.56462e-05	0	0	0
1.57619e-05	0	0	0
1.59535e-05	0	0	0
1.59726e-05	0	0	0
1.59805e-05	0	0	0
1.60043e-05	0	0	0
1.60284e-05	0	0	0
1.60939e-05	0	0	0
1.63652e-05	0	0	0
1.66181e-05	0	0	0
1.66235e-05	0	0	0
1.67507e-05	0	0	0
1.68716e-05	0	0	0
1.71511e-05	0	0	0
1.74035e-05	0	0	0
1.74798e-05	0	0	0
1.78998e-05	0	0	0
1.79288e-05	0	0	0
1.7995e-05	0	0	0
1.86431e-05	0	0	0
1.86941e-05	0	0	0
1.86964e-05	0	0	0
1.88421e-05	0	0	0
1.9004e-05	0	0	0
1.90925e-05	0	0	0
1.93001e-05	0	0	0
2.01153e-05	0	0	0
2.01339e-05	0	0	0
2.01464e-05	0	0	0
2.01955e-05	0	0	0
2.07477e-05	0	0	0
2.08975e-05	0	0	0
2.1028e-05	0	0	0
2.14563e-05	0	0	0
2.15022e-05	0	0	0
2.21973e-05	0	0	0
2.25583e-05	0	0	0
2.32896e-05	0	0	0
2.34162e-05	0	0	0
2.35242e-05	0	0	0
2.40194e-05	0	0	0
2.42199e-05	0	0	0
2.45576e-05	0	0	0
2.46992e-05	0	0	0
2.53032e-05	0	0	0
2.5336e-05	0	0	0
2.547e-05	0	0	0
2.58401e-05	0	0	0
2.59514e-05	0	0	0
2.61848e-05	0	0	0
2.65557e-05	0	0	0
2.70963e-05	0	0	0
2.71449e-05	0	0	0
2.74982e-05	0	0	0
2.75379e-05	0	0	0
2.7708e-05	0	0	0
2.77306e-05	0	0	0
2.7785e-05	0	0	0
2.82663e-05	0	0	0
2.83248e-05	0	0	0
2.83292e-05	0	0	0
2.89281e-05	0	0	0
2.90326e-05	0	0	0
2.90897e-05	0	0	0
2.93874e-05	0	0	0
2.98498e-05	0	0	0
2.99389e-05	0	0	0
3.00703e-05	0	0	0
3.11225e-05	0	0	0
3.15013e-05	0	0	0
3.15101e-05	0	0	0
3.17449e-05	0	0	0
3.1985e-05	0	0	0
3.1986e-05	0	0	0
3.19949e-05	0	0	0
3.20755e-05	0	0	0
3.20786e-05	0	0	0
3.23001e-05	0	0	0
3.23137e-05	0	0	0
3.26386e-05	0	0	0
3.26605e-05	0	0	0
3.28134e-05	0	0	0
3.31344e-05	0	0	0
3.34216e-05	0	0	0
3.34889e-05	0	0	0
3.35885e-05	0	0	0
3.42878e-05	0	0	0
3.43018e-05	0	0	0
3.43298e-05	0	0	0
3.46628e-05	0	0	0
3.47908e-05	0	0	0
3.47988e-05	0	0	0
3.48834e-05	0	0	0
3.50619e-05	0	0	0
3.59344e-05	0	0	0
3.63826e-05	0	0	0
3.65675e-05	0	0	0
3.67996e-05	0	0	0
3.72326e-05	0	0	0
3.75813e-05	0	0	0
3.77291e-05	0	0	0
3.79102e-05	0	0	0
3.81043e-05	0	0	0
3.82065e-05	0	0	0
3.82768e-05	0	0	0
3.83392e-05	0	0	0
3.86084e-05	0	0	0
3.87052e-05	0	0	0
3.92463e-05	0	0	0
3.93052e-05	0	0	0
3.94051e-05	0	0	0
3.96731e-05	0	0	0
3.96838e-05	0	0	0
3.97662e-05	0	0	0
4.00169e-05	0	0	0
4.00498e-05	0	0	0
4.00793e-05	0	0	0
4.02069e-05	0	0	0
4.02397e-05	0	0	0
4.02963e-05	0	0	0
4.07723e-05	0	0	0
4.08544e-05	0	0	0
4.09724e-05	0	0	0
4.16419e-05	0	0	0
4.16628e-05	0	0	0
4.17369e-05	0	0	0
4.19409e-05	0	0	0
4.27161e-05	0	0	0
4.32426e-05	0	0	0
4.33528e-05	0	0	0
4.34486e-05	0	0	0
4.35325e-05	0	0	0
4.39694e-05	0	0	0
4.41891e-05	0	0	0
4.42102e-05	0	0	0
4.42933e-05	0	0	0
4.43499e-05	0	0	0
4.44606e-05	0	0	0
4.46473e-05	0	0	0
4.47279e-05	0	0	0
4.48274e-05	0	0	0
4.49686e-05	0	0	0
4.50345e-05	0	0	0
4.54345e-05	0	0	0
4.55036e-05	0	0	0
4.561e-05	0	0	0
4.59443e-05	0	0	0
4.63558e-05	0	0	0
4.64468e-05	0	0	0
4.65531e-05	0	0	0
4.68751e-05	0	0	0
4.6976e-05	0	0	0
4.71535e-05	0	0	0
4.76656e-05	0	0	0
4.81028e-05	0	0	0
4.84373e-05	0	0	0
4.87464e-05	0	0	0
4.87611e-05	0	0	0
4.89654e-05	0	0	0
4.91239e-05	0	0	0
4.91991e-05	0	0	0
4.92025e-05	0	0	0
5.05035e-05	0	0	0
5.07925e-05	0	0	0
5.10331e-05	0	0	0
5.14988e-05	0	0	0
5.15631e-05	0	0	0
5.17161e-05	0	0	0
5.1803e-05	0	0	0
5.38238e-05	0	0	0
5.38435e-05	0	0	0
5.39554e-05	0	0	0
5.45202e-05	0	0	0
5.47953e-05	0	0	0
5.52045e-05	0	0	0
5.55104e-05	0	0	0
5.5717e-05	0	0	0
5.57231e-05	0	0	0
5.63456e-05	0	0	0
5.66451e-05	0	0	0
5.70461e-05	0	0	0
5.7226e-05	0	0	0
5.72328e-05	0	0	0
5.73251e-05	0	0	0
5.73462e-05	0	0	0
5.77902e-05	0	0	0
5.78298e-05	0	0	0
5.78901e-05	0	0	0
5.78962e-05	0	0	0
5.79837e-05	0	0	0
5.8471e-05	0	0	0
5.88316e-05	0	0	0
5.88895e-05	0	0	0
5.91343e-05	0	0	0
5.95736e-05	0	0	0
5.9888e-05	0	0	0
6.01471e-05	0	0	0
6.0269e-05	0	0	0
6.11531e-05	0	0	0
6.12123e-05	0	0	0
6.12505e-05	0	0	0
6.14877e-05	0	0	0
6.15714e-05	0	0	0
6.18652e-05	0	0	0
6.22517e-05	0	0	0
6.25631e-05	0	0	0
6.39853e-05	0	0	0
6.39912e-05	0	0	0
6.40538e-05	0	0	0
6.45857e-05	0	0	0
6.47374e-05	0	0	0
6.47989e-05	0	0	0
6.51707e-05	0	0	0
6.53115e-05	0	0	0
6.60162e-05	0	0	0
6.6204e-05	0	0	0
6.63212e-05	0	0	0
6.67264e-05	0	0	0
6.70296e-05	0	0	0
6.85672e-05	0	0	0
6.87997e-05	0	0	0
6.91849e-05	0	0	0
6.94188e-05	0	0	0
6.9886e-05	0	0	0
7.07797e-05	0	0	0
7.11519e-05	0	0	0
7.13069e-05	0	0	0
7.14497e-05	0	0	0
7.15319e-05	0	0	0
7.19083e-05	0	0	0
7.1927e-05	0	0	0
7.20101e-05	0	0	0
7.21165e-05	0	0	0
7.2236e-05	0	0	0
7.25304e-05	0	0	0
7.26987e-05	0	0	0
7.32378e-05	0	0	0
7.34149e-05	0	0	0
7.36722e-05	0	0	0
7.37068e-05	0	0	0
7.39794e-05	0	0	0
7.42206e-05	0	0	0
7.44151e-05	0	0	0
7.49189e-05	0	0	0
7.60349e-05	0	0	0
7.65797e-05	0	0	0
7.70338e-05	0	0	0
7.74544e-05	0	0	0
7.74714e-05	0	0	0
7.78901e-05	0	0	0
7.80358e-05	0	0	0
7.81918e-05	0	0	0
7.9963e-05	0	0	0
8.07627e-05	0	0	0
8.15651e-05	0	0	0
8.17627e-05	0	0	0
8.21649e-05	0	0	0
8.23034e-05	0	0	0
8.24981e-05	0	0	0
8.33811e-05	0	0	0
8.4511e-05	0	0	0
8.5165e-05	0	0	0
8.51736e-05	0	0	0
8.5429e-05	0	0	0
8.55084e-05	0	0	0
8.57018e-05	0	0	0
8.60823e-05	0	0	0
8.75043e-05	0	0	0
8.77172e-05	0	0	0
8.78897e-05	0	0	0
8.80572e-05	0	0	0
8.80666e-05	0	0	0
8.80748e-05	0	0	0
8.84025e-05	0	0	0
8.84044e-05	0	0	0
8.85499e-05	0	0	0
8.88381e-05	0	0	0
9.03456e-05	0	0	0
9.12539e-05	0	0	0
9.15278e-05	0	0	0
9.16016e-05	0	0	0
9.18243e-05	0	0	0
9.24656e-05	0	0	0
9.26543e-05	0	0	0
9.46787e-05	0	0	0
9.50899e-05	0	0	0
9.55332e-05	0	0	0
9.57624e-05	0	0	0
9.69814e-05	0	0	0
9.69975e-05	0	0	0
9.72009e-05	0	0	0
9.73245e-05	0	0	0
9.73965e-05	0	0	0
9.75943e-05	0	0	0
9.77519e-05	0	0	0
9.82138e-05	0	0	0
9.86809e-05	0	0	0
9.92907e-05	0	0	0
0.000100346	0	0	0
0.000100562	0	0	0
0.000100636	0	0	0
0.000100897	0	0	0
0.000101152	0	0	0
0.000102353	0	0	0
0.000102821	0	0	0
0.00010374	0	0	0
0.000104039	0	0	0
0.000105057	0	0	0
0.000106222	0	0	0
0.000110024	0	0	0
0.000110149	0	0	0
0.000110175	0	0	0
0.000110573	0	0	0
0.000111395	0	0	0
0.000111604	0	0	0
0.000112179	0	0	0
0.000112507	0	0	0
0.000112548	0	0	0
0.000114615	0	0	0
0.00011557	0	0	0
0.000115871	0	0	0
0.000115948	0	0	0
0.000118094	0	0	0
0.000118778	0	0	0
0.000119114	0	0	0
0.000120089	0	0	0
0.000120684	0	0	0
0.000120708	0	0	0
0.000122641	0	0	0
0.00012342	0	0	0
0.000126247	0	0	0
0.000127164	0	0	0
0.000127469	0	0	0
0.000129015	0	0	0
0.00013249	0	0	0
0.000132818	0	0	0
0.000133855	0	0	0
0.000134055	0	0	0
0.000135626	0	0	0
0.000137811	0	0	0
0.000138508	0	0	0
0.000138677	0	0	0
0.000139225	0	0	0
0.000142884	0	0	0
0.000143449	0	0	0
0.000144073	0	0	0
0.000144149	0	0	0
0.000144262	0	0	0
0.000144927	0	0	0
0.000148443	0	0	0
0.000149533	0	0	0
0.00015001	0	0	0
0.000154985	0	0	0
0.0001551	0	0	0
0.000155349	0	0	0
0.000155415	0	0	0
0.000155596	0	0	0
0.000155647	0	0	0
0.000156356	0	0	0
0.000156918	0	0	0
0.000157261	0	0	0
0.000157502	0	0	0
0.000158364	0	0	0
0.000158706	0	0	0
0.000159424	0	0	0
0.000159643	0	0	0
0.000159953	0	0	0
0.000161852	0	0	0
0.000162375	0	0	0
0.000164468	0	0	0
0.000165766	0	0	0
0.00016584	0	0	0
0.000166537	0	0	0
0.000166746	0	0	0
0.000167015	0	0	0
0.000167345	0	0	0
0.00016757	0	0	0
0.00016837	0	0	0
0.000168754	0	0	0
0.000169087	0	0	0
0.00016943	0	0	0
0.000169668	0	0	0
0.000169798	0	0	0
0.000170197	0	0	0
0.000171415	0	0	0
0.000171527	0	0	0
0.000172784	0	0	0
0.000173742	0	0	0
0.000174082	0	0	0
0.00017446	0	0	0
0.000174699	0	0	0
0.000176307	0	0	0
0.000176338	0	0	0
0.000177829	0	0	0
0.000179214	0	0	0
0.0001803	0	0	0
0.000180981	0	0	0
0.000183087	0	0	0
0.000183875	0	0	0
0.000185981	0	0	0
0.000186509	0	0	0
0.000186684	0	0	0
0.000187108	0	0	0
0.000188408	0	0	0
0.000189299	0	0	0
0.00018948	0	0	0
0.00019167	0	0	0
0.000193128	0	0	0
0.000195253	0	0	0
0.000197134	0	0	0
0.000197212	0	0	0
0.000200549	0	0	0
0.000201276	0	0	0
0.000201445	0	0	0
0.000201824	0	0	0
0.000202562	0	0	0
0.000203184	0	0	0
0.000203228	0	0	0
0.00020532	0	0	0
0.000205431	0	0	0
0.000205742	0	0	0
0.000205888	0	0	0
0.000206757	0	0	0
0.000207043	0	0	0
0.000207897	0	0	0
0.000208601	0	0	0
0.000210042	0	0	0
0.000212618	0	0	0
0.000214083	0	0	0
0.000215645	0	0	0
0.0002159	0	0	0
0.000216328	0	0	0
0.000216601	0	0	0
0.000218943	0	0	0
0.000220334	0	0	0
0.00022166	0	0	0
0.000221789	0	0	0
0.000223544	0	0	0
0.000223851	0	0	0
0.000224135	0	0	0
0.000224916	0	0	0
0.000225328	0	0	0
0.000226116	0	0	0
0.00022624	0	0	0
0.0002274	0	0	0
0.000228518	0	0	0
0.000232764	0	0	0
0.000234691	0	0	0
0.000235085	0	0	0
0.000235404	0	0	0
0.000237337	0	0	0
0.000237762	0	0	0
0.000238245	0	0	0
0.000239549	0	0	0
0.000240166	0	0	0
0.000240979	0	0	0
0.000242686	0	0	0
0.00024299	0	0	0
0.000245692	0	0	0
0.00024601	0	0	0
0.000247928	0	0	0
0.000251508	0	0	0
0.000253923	0	0	0
0.000254008	0	0	0
0.000254808	0	0	0
0.000254813	0	0	0
0.000255098	0	0	0
0.000255099	0	0	0
0.000255658	0	0	0
0.000257955	0	0	0
0.000262149	0	0	0
0.000262946	0	0	0
0.000263818	0	0	0
0.000266571	0	0	0
0.000266881	0	0	0
0.000268918	0	0	0
0.000269589	0	0	0
0.000270883	0	0	0
0.000271462	0	0	0
0.000272875	0	0	0
0.000273744	0	0	0
0.000274125	0	0	0
0.000275162	0	0	0
0.000275525	0	0	0
0.000275737	0	0	0
0.00027736	0	0	0
0.000278554	0	0	0
0.00027975	0	0	0
0.000279871	0	0	0
0.000280096	0	0	0
0.000280891	0	0	0
0.000281407	0	0	0
0.000281791	0	0	0
0.000283355	0	0	0
0.00028348	0	0	0
0.000283675	0	0	0
0.000292745	0	0	0
0.000293511	0	0	0
0.000294086	0	0	0
0.000296517	0	0	0
0.000296962	0	0	0
0.000301415	0	0	0
0.000302253	0	0	0
0.000302329	0	0	0
0.000306342	0	0	0
0.000307747	0	0	0
0.00030795	0	0	0
0.000309032	0	0	0
0.000309787	0	0	0
0.000310939	0	0	0
0.000311985	0	0	0
0.000314091	0	0	0
0.000316917	0	0	0
0.000317679	0	0	0
0.000317768	0	0	0
0.000320074	0	0	0
0.00032094	0	0	0
0.000320956	0	0	0
0.000322147	0	0	0
0.000326879	0	0	0
0.000327331	0	0	0
0.000327673	0	0	0
0.000328171	0	0	0
0.000328483	0	0	0
0.000329664	0	0	0
0.000334381	0	0	0
0.00034476	0	0	0
0.000349678	0	0	0
0.000350837	0	0	0
0.00035486	0	0	0
0.000356665	0	0	0
0.000356678	0	0	0
0.000357801	0	0	0
0.000358094	0	0	0
0.000364722	0	0	0
0.000365906	0	0	0
0.000366657	0	0	0
0.00036698	0	0	0
0.000367685	0	0	0
0.0003699	0	0	0
0.000377183	0	0	0
0.000381284	0	0	0
0.000383302	0	0	0
0.000384393	0	0	0
0.000387108	0	0	0
0.000387839	0	0	0
0.00038805	0	0	0
0.000390078	0	0	0
0.000398626	0	0	0
0.000399877	0	0	0
0.000400781	0	0	0
0.000401533	0	0	0
0.000402706	0	0	0
0.000408305	0	0	0
0.000411167	0	0	0
0.000411243	0	0	0
0.000413296	0	0	0
0.000413692	0	0	0
0.000414479	0	0	0
0.000416063	0	0	0
0.000417588	0	0	0
0.000417644	0	0	0
0.000418698	0	0	0
0.000420062	0	0	0
0.000422401	0	0	0
0.000423223	0	0	0
0.000424737	0	0	0
0.000426263	0	0	0
0.000426862	0	0	0
0.000428645	0	0	0
0.000433447	0	0	0
0.000441669	0	0	0
0.000446419	0	0	0
0.000447325	0	0	0
0.000447392	0	0	0
0.000456703	0	0	0
0.000457395	0	0	0
0.000461983	0	0	0
0.000470917	0	0	0
0.000472104	0	0	0
0.000474587	0	0	0
0.000487754	0	0	0
0.000494295	0	0	0
0.000495356	0	0	0
0.000502904	0	0	0
0.000509804	0	0	0
0.000512506	0	0	0
0.00051844	0	0	0
0.00052309	0	0	0
0.000544037	0	0	0
0.000545278	0	0	0
0.000547721	0	0	0
0.000549616	0	0	0
0.000579346	0	0	0
0.000588708	0	0	0
0.000594794	0	0	0
0.000595574	0	0	0
0.000619451	0	0	0
0.000624123	0	0	0
0.000626727	0	0	0
0.000626747	0	0	0
0.000634981	0	0	0
0.000636714	0	0	0
0.000638448	0	0	0
0.000640567	0	0	0
0.000645089	0	0	0
0.000653451	0	0	0
0.00068207	0	0	0
0.000694859	0	0	0
0.000695701	0	0	0
0.000697902	0	0	0
0.000698805	0	0	0
0.000699278	0	0	0
0.0007124	0	0	0
0.000721668	0	0	0
0.000724076	0	0	0
0.000726202	0	0	0
0.000727133	0	0	0
0.000733584	0	0	0
0.000754926	0	0	0
0.000765741	0	0	0
0.000770569	0	0	0
0.00077497	0	0	0
0.000793185	0	0	0
0.000813986	0	0	0
0.000818635	0	0	0
0.000828469	0	0	0
0.000831963	0	0	0
0.000843953	0	0	0
0.000852338	0	0	0
0.000875976	0	0	0
0.000876371	0	0	0
0.000904392	0	0	0
0.000904785	0	0	0
0.000929291	0	0	0
0.000930689	0	0	0
0.000935669	0	0	0
0.000959268	0	0	0
0.000967898	0	0	0
0.000970906	0	0	0
0.000971327	0	0	0
0.000988711	0	0	0
0.000992859	0	0	0
0.00108051	0	0	0
0.00110667	0	0	0
0.00112399	0	0	0
0.00114601	0	0	0
0.00129853	0	0	0
0.00130554	0	0	0
0.00137429	0	0	0
0.00139516	0	0	0
0.00165277	0	0	0
0.00206522	0	0	0
0.00207863	0	0	0
