3.5367e-08	0	0	0
2.66207e-07	0	0	0
2.84155e-07	0	0	0
3.14738e-07	0	0	0
3.43769e-07	0	0	0
4.74331e-07	0	0	0
4.90708e-07	0	0	0
6.55856e-07	0	0	0
1.08227e-06	0	0	0
1.26266e-06	0	0	0
1.57728e-06	0	0	0
1.59816e-06	0	0	0
1.89674e-06	0	0	0
2.05944e-06	0	0	0
2.1993e-06	0	0	0
2.26632e-06	0	0	0
2.28552e-06	0	0	0
2.36269e-06	0	0	0
2.66516e-06	0	0	0
2.84537e-06	0	0	0
2.85879e-06	0	0	0
3.02312e-06	0	0	0
3.03349e-06	0	0	0
3.14613e-06	0	0	0
3.17137e-06	0	0	0
3.22761e-06	0	0	0
3.70442e-06	0	0	0
3.88653e-06	0	0	0
4.10311e-06	0	0	0
4.42011e-06	0	0	0
4.55914e-06	0	0	0
4.69514e-06	0	0	0
5.09378e-06	0	0	0
5.10564e-06	0	0	0
5.19868e-06	0	0	0
5.37121e-06	0	0	0
5.37895e-06	0	0	0
5.3922e-06	0	0	0
5.61972e-06	0	0	0
5.75031e-06	0	0	0
5.88896e-06	0	0	0
6.168e-06	0	0	0
6.24169e-06	0	0	0
6.27459e-06	0	0	0
6.30354e-06	0	0	0
6.39471e-06	0	0	0
6.44555e-06	0	0	0
6.51297e-06	0	0	0
6.51453e-06	0	0	0
6.64587e-06	0	0	0
6.94516e-06	0	0	0
6.95152e-06	0	0	0
6.98239e-06	0	0	0
7.30264e-06	0	0	0
7.35241e-06	0	0	0
7.453e-06	0	0	0
7.7178e-06	0	0	0
8.05934e-06	0	0	0
8.26398e-06	0	0	0
8.3412e-06	0	0	0
8.42366e-06	0	0	0
9.07726e-06	0	0	0
9.11268e-06	0	0	0
9.32134e-06	0	0	0
9.50379e-06	0	0	0
9.79239e-06	0	0	0
9.96381e-06	0	0	0
1.01814e-05	0	0	0
1.03189e-05	0	0	0
1.04404e-05	0	0	0
1.08747e-05	0	0	0
1.09384e-05	0	0	0
1.10328e-05	0	0	0
1.10458e-05	0	0	0
1.12486e-05	0	0	0
1.12989e-05	0	0	0
1.15984e-05	0	0	0
1.18246e-05	0	0	0
1.18722e-05	0	0	0
1.20545e-05	0	0	0
1.22733e-05	0	0	0
1.29777e-05	0	0	0
1.30406e-05	0	0	0
1.31247e-05	0	0	0
1.32221e-05	0	0	0
1.32742e-05	0	0	0
1.34177e-05	0	0	0
1.35269e-05	0	0	0
1.36877e-05	0	0	0
1.37403e-05	0	0	0
1.38754e-05	0	0	0
1.39007e-05	0	0	0
1.43642e-05	0	0	0
1.44372e-05	0	0	0
1.45083e-05	0	0	0
1.49213e-05	0	0	0
1.50347e-05	0	0	0
1.52661e-05	0	0	0
1.54551e-05	0	0	0
1.54947e-05	0	0	0
1.5845e-05	0	0	0
1.60386e-05	0	0	0
1.63226e-05	0	0	0
1.6381e-05	0	0	0
1.68565e-05	0	0	0
1.71279e-05	0	0	0
1.74687e-05	0	0	0
1.75808e-05	0	0	0
1.78702e-05	0	0	0
1.80946e-05	0	0	0
1.82477e-05	0	0	0
1.82934e-05	0	0	0
1.84889e-05	0	0	0
1.88385e-05	0	0	0
1.89762e-05	0	0	0
1.91426e-05	0	0	0
1.92665e-05	0	0	0
1.95226e-05	0	0	0
1.96503e-05	0	0	0
1.96975e-05	0	0	0
1.97789e-05	0	0	0
1.98505e-05	0	0	0
2.03898e-05	0	0	0
2.07332e-05	0	0	0
2.08693e-05	0	0	0
2.09659e-05	0	0	0
2.1999e-05	0	0	0
2.20523e-05	0	0	0
2.25578e-05	0	0	0
2.27392e-05	0	0	0
2.27435e-05	0	0	0
2.32567e-05	0	0	0
2.32983e-05	0	0	0
2.38727e-05	0	0	0
2.40101e-05	0	0	0
2.40143e-05	0	0	0
2.43098e-05	0	0	0
2.44145e-05	0	0	0
2.44228e-05	0	0	0
2.45206e-05	0	0	0
2.46662e-05	0	0	0
2.50309e-05	0	0	0
2.50543e-05	0	0	0
2.52499e-05	0	0	0
2.54555e-05	0	0	0
2.5635e-05	0	0	0
2.57214e-05	0	0	0
2.58698e-05	0	0	0
2.59191e-05	0	0	0
2.60719e-05	0	0	0
2.61807e-05	0	0	0
2.62082e-05	0	0	0
2.64334e-05	0	0	0
2.66345e-05	0	0	0
2.70263e-05	0	0	0
2.7621e-05	0	0	0
2.78251e-05	0	0	0
2.79282e-05	0	0	0
2.79549e-05	0	0	0
2.82243e-05	0	0	0
2.82973e-05	0	0	0
2.88067e-05	0	0	0
2.93626e-05	0	0	0
2.96432e-05	0	0	0
2.98891e-05	0	0	0
3.03954e-05	0	0	0
3.083e-05	0	0	0
3.08652e-05	0	0	0
3.11663e-05	0	0	0
3.14896e-05	0	0	0
3.16606e-05	0	0	0
3.17433e-05	0	0	0
3.20441e-05	0	0	0
3.25953e-05	0	0	0
3.27281e-05	0	0	0
3.31381e-05	0	0	0
3.36193e-05	0	0	0
3.39852e-05	0	0	0
3.41146e-05	0	0	0
3.42542e-05	0	0	0
3.44819e-05	0	0	0
3.46787e-05	0	0	0
3.50029e-05	0	0	0
3.54434e-05	0	0	0
3.55323e-05	0	0	0
3.55756e-05	0	0	0
3.62193e-05	0	0	0
3.6532e-05	0	0	0
3.67896e-05	0	0	0
3.7019e-05	0	0	0
3.70573e-05	0	0	0
3.74585e-05	0	0	0
3.77606e-05	0	0	0
3.80924e-05	0	0	0
3.85589e-05	0	0	0
3.86425e-05	0	0	0
4.00208e-05	0	0	0
4.01453e-05	0	0	0
4.07456e-05	0	0	0
4.13849e-05	0	0	0
4.18794e-05	0	0	0
4.21958e-05	0	0	0
4.29804e-05	0	0	0
4.30117e-05	0	0	0
4.3087e-05	0	0	0
4.34937e-05	0	0	0
4.368e-05	0	0	0
4.41841e-05	0	0	0
4.45377e-05	0	0	0
4.46834e-05	0	0	0
4.5022e-05	0	0	0
4.51409e-05	0	0	0
4.58904e-05	0	0	0
4.6017e-05	0	0	0
4.68831e-05	0	0	0
4.70692e-05	0	0	0
4.79462e-05	0	0	0
4.80467e-05	0	0	0
4.82133e-05	0	0	0
4.82665e-05	0	0	0
4.95749e-05	0	0	0
4.97631e-05	0	0	0
4.97708e-05	0	0	0
4.9873e-05	0	0	0
4.99187e-05	0	0	0
5.00539e-05	0	0	0
5.01088e-05	0	0	0
5.01307e-05	0	0	0
5.01869e-05	0	0	0
5.03428e-05	0	0	0
5.04077e-05	0	0	0
5.23316e-05	0	0	0
5.24116e-05	0	0	0
5.32476e-05	0	0	0
5.33698e-05	0	0	0
5.37681e-05	0	0	0
5.42066e-05	0	0	0
5.43118e-05	0	0	0
5.44562e-05	0	0	0
5.55221e-05	0	0	0
5.62658e-05	0	0	0
5.74173e-05	0	0	0
5.82706e-05	0	0	0
5.84794e-05	0	0	0
5.90284e-05	0	0	0
5.94203e-05	0	0	0
5.9429e-05	0	0	0
6.08665e-05	0	0	0
6.11023e-05	0	0	0
6.24674e-05	0	0	0
6.30768e-05	0	0	0
6.31973e-05	0	0	0
6.41058e-05	0	0	0
6.48912e-05	0	0	0
6.54027e-05	0	0	0
6.54314e-05	0	0	0
6.74101e-05	0	0	0
6.74353e-05	0	0	0
6.76357e-05	0	0	0
7.03947e-05	0	0	0
7.05328e-05	0	0	0
7.10034e-05	0	0	0
7.15752e-05	0	0	0
7.22461e-05	0	0	0
7.28264e-05	0	0	0
7.29077e-05	0	0	0
7.49266e-05	0	0	0
7.4965e-05	0	0	0
7.53216e-05	0	0	0
7.55255e-05	0	0	0
7.58438e-05	0	0	0
7.65067e-05	0	0	0
7.839e-05	0	0	0
7.91603e-05	0	0	0
7.96543e-05	0	0	0
7.97042e-05	0	0	0
8.02751e-05	0	0	0
8.1343e-05	0	0	0
8.15061e-05	0	0	0
8.26328e-05	0	0	0
8.30264e-05	0	0	0
8.30625e-05	0	0	0
8.33242e-05	0	0	0
8.34605e-05	0	0	0
8.36599e-05	0	0	0
8.40595e-05	0	0	0
8.40811e-05	0	0	0
8.47635e-05	0	0	0
8.67628e-05	0	0	0
8.70839e-05	0	0	0
8.81263e-05	0	0	0
8.8759e-05	0	0	0
8.94436e-05	0	0	0
9.02989e-05	0	0	0
9.03493e-05	0	0	0
9.06473e-05	0	0	0
9.07215e-05	0	0	0
9.10708e-05	0	0	0
9.20061e-05	0	0	0
9.22873e-05	0	0	0
9.41469e-05	0	0	0
9.54961e-05	0	0	0
9.62795e-05	0	0	0
9.63282e-05	0	0	0
9.68257e-05	0	0	0
9.71605e-05	0	0	0
9.73194e-05	0	0	0
9.74157e-05	0	0	0
9.75788e-05	0	0	0
9.7614e-05	0	0	0
9.80619e-05	0	0	0
9.82131e-05	0	0	0
9.945e-05	0	0	0
9.98821e-05	0	0	0
9.99417e-05	0	0	0
0.000102206	0	0	0
0.000103205	0	0	0
0.000103536	0	0	0
0.000103951	0	0	0
0.000104751	0	0	0
0.000105302	0	0	0
0.000106758	0	0	0
0.000107252	0	0	0
0.000107847	0	0	0
0.00011006	0	0	0
0.000110319	0	0	0
0.00011032	0	0	0
0.000110441	0	0	0
0.000110488	0	0	0
0.000110841	0	0	0
0.000111461	0	0	0
0.000111744	0	0	0
0.000111782	0	0	0
0.000112263	0	0	0
0.000112287	0	0	0
0.000113284	0	0	0
0.000113411	0	0	0
0.000113661	0	0	0
0.000113827	0	0	0
0.00011388	0	0	0
0.000113915	0	0	0
0.000114674	0	0	0
0.000115147	0	0	0
0.000116417	0	0	0
0.000116849	0	0	0
0.000118558	0	0	0
0.000118781	0	0	0
0.000118808	0	0	0
0.000119249	0	0	0
0.000119843	0	0	0
0.00012033	0	0	0
0.000121164	0	0	0
0.000121195	0	0	0
0.000121696	0	0	0
0.000121717	0	0	0
0.000122747	0	0	0
0.000123957	0	0	0
0.00012453	0	0	0
0.000128551	0	0	0
0.000128701	0	0	0
0.000129949	0	0	0
0.000132819	0	0	0
0.000134411	0	0	0
0.000135595	0	0	0
0.000136097	0	0	0
0.000137142	0	0	0
0.000137455	0	0	0
0.000138507	0	0	0
0.000138872	0	0	0
0.000140656	0	0	0
0.000141078	0	0	0
0.000143033	0	0	0
0.000143362	0	0	0
0.000144071	0	0	0
0.000144631	0	0	0
0.000146567	0	0	0
0.000146917	0	0	0
0.000147582	0	0	0
0.000148034	0	0	0
0.000148349	0	0	0
0.000148717	0	0	0
0.000148811	0	0	0
0.00014907	0	0	0
0.000152209	0	0	0
0.000153441	0	0	0
0.000155694	0	0	0
0.00015859	0	0	0
0.000160527	0	0	0
0.000160867	0	0	0
0.000161184	0	0	0
0.000163266	0	0	0
0.000163549	0	0	0
0.000165156	0	0	0
0.000165342	0	0	0
0.000165372	0	0	0
0.000169179	0	0	0
0.000169636	0	0	0
0.00017259	0	0	0
0.000174001	0	0	0
0.00017549	0	0	0
0.000177679	0	0	0
0.000178254	0	0	0
0.000178985	0	0	0
0.000179747	0	0	0
0.000181182	0	0	0
0.000181604	0	0	0
0.00018242	0	0	0
0.000185746	0	0	0
0.000188396	0	0	0
0.000188822	0	0	0
0.000189115	0	0	0
0.000189308	0	0	0
0.000189955	0	0	0
0.000191517	0	0	0
0.000191807	0	0	0
0.00019368	0	0	0
0.000193736	0	0	0
0.000195099	0	0	0
0.000197878	0	0	0
0.000203509	0	0	0
0.000203854	0	0	0
0.000206923	0	0	0
0.000210164	0	0	0
0.000210765	0	0	0
0.000214507	0	0	0
0.000215015	0	0	0
0.000215038	0	0	0
0.000217195	0	0	0
0.000218254	0	0	0
0.000219346	0	0	0
0.000220766	0	0	0
0.000221404	0	0	0
0.000222568	0	0	0
0.000223728	0	0	0
0.000228097	0	0	0
0.000229063	0	0	0
0.000231526	0	0	0
0.000232593	0	0	0
0.000233494	0	0	0
0.00023364	0	0	0
0.000234888	0	0	0
0.000235365	0	0	0
0.000237349	0	0	0
0.000240163	0	0	0
0.00024038	0	0	0
0.0002488	0	0	0
0.000249405	0	0	0
0.000253461	0	0	0
0.000254913	0	0	0
0.000255255	0	0	0
0.00025768	0	0	0
0.000259439	0	0	0
0.000260701	0	0	0
0.000261663	0	0	0
0.00026401	0	0	0
0.000264628	0	0	0
0.000265056	0	0	0
0.00026512	0	0	0
0.000266445	0	0	0
0.000268103	0	0	0
0.000268114	0	0	0
0.000268351	0	0	0
0.000268425	0	0	0
0.000268583	0	0	0
0.000272431	0	0	0
0.000272544	0	0	0
0.000272677	0	0	0
0.000273802	0	0	0
0.000274489	0	0	0
0.000275007	0	0	0
0.000276607	0	0	0
0.000281102	0	0	0
0.000282459	0	0	0
0.000283508	0	0	0
0.00028356	0	0	0
0.000284271	0	0	0
0.00028429	0	0	0
0.000284353	0	0	0
0.000284754	0	0	0
0.000286147	0	0	0
0.000288477	0	0	0
0.000289271	0	0	0
0.00029009	0	0	0
0.000290531	0	0	0
0.000291161	0	0	0
0.000292223	0	0	0
0.00029467	0	0	0
0.0002956	0	0	0
0.000299476	0	0	0
0.000301256	0	0	0
0.000302981	0	0	0
0.000305053	0	0	0
0.000306233	0	0	0
0.000308205	0	0	0
0.000310981	0	0	0
0.000311507	0	0	0
0.000318467	0	0	0
0.000322657	0	0	0
0.000325353	0	0	0
0.000326082	0	0	0
0.000329952	0	0	0
0.000330547	0	0	0
0.000338136	0	0	0
0.000338873	0	0	0
0.000340308	0	0	0
0.000340986	0	0	0
0.000342834	0	0	0
0.000343421	0	0	0
0.000347155	0	0	0
0.000350868	0	0	0
0.000351633	0	0	0
0.000352237	0	0	0
0.000352846	0	0	0
0.000355124	0	0	0
0.00035523	0	0	0
0.000356323	0	0	0
0.000365287	0	0	0
0.000367864	0	0	0
0.00036948	0	0	0
0.000370871	0	0	0
0.000372181	0	0	0
0.000374713	0	0	0
0.000378446	0	0	0
0.000381154	0	0	0
0.00038287	0	0	0
0.000384461	0	0	0
0.00038505	0	0	0
0.000390094	0	0	0
0.000390949	0	0	0
0.000391685	0	0	0
0.000393915	0	0	0
0.0003951	0	0	0
0.000397967	0	0	0
0.000401587	0	0	0
0.00040831	0	0	0
0.000408903	0	0	0
0.000409251	0	0	0
0.000421674	0	0	0
0.000425404	0	0	0
0.000428003	0	0	0
0.000436332	0	0	0
0.000437713	0	0	0
0.000442916	0	0	0
0.00044697	0	0	0
0.000449631	0	0	0
0.000453562	0	0	0
0.000455611	0	0	0
0.000457091	0	0	0
0.000459839	0	0	0
0.000462522	0	0	0
0.000469438	0	0	0
0.000472685	0	0	0
0.000475537	0	0	0
0.00047731	0	0	0
0.000477407	0	0	0
0.000478839	0	0	0
0.000478874	0	0	0
0.000482416	0	0	0
0.000485257	0	0	0
0.000487655	0	0	0
0.000490701	0	0	0
0.000504473	0	0	0
0.000504812	0	0	0
0.000509779	0	0	0
0.00050986	0	0	0
0.000510771	0	0	0
0.000514297	0	0	0
0.000516901	0	0	0
0.000532146	0	0	0
0.000533687	0	0	0
0.000534522	0	0	0
0.000535446	0	0	0
0.000536064	0	0	0
0.000536188	0	0	0
0.000537926	0	0	0
0.000540037	0	0	0
0.000541236	0	0	0
0.000569643	0	0	0
0.000575448	0	0	0
0.000578028	0	0	0
0.000579503	0	0	0
0.000583502	0	0	0
0.000586495	0	0	0
0.000589988	0	0	0
0.000596477	0	0	0
0.000602637	0	0	0
0.000607363	0	0	0
0.000607469	0	0	0
0.000611902	0	0	0
0.000614601	0	0	0
0.00063527	0	0	0
0.00063569	0	0	0
0.000660751	0	0	0
0.000665994	0	0	0
0.000667509	0	0	0
0.000690135	0	0	0
0.000694802	0	0	0
0.000698099	0	0	0
0.000706081	0	0	0
0.000719005	0	0	0
0.000733219	0	0	0
0.000767207	0	0	0
0.00085154	0	0	0
0.000919065	0	0	0
0.000981961	0	0	0
0.00100344	0	0	0
0.00100797	0	0	0
0.00101795	0	0	0
0.00104379	0	0	0
0.00110322	0	0	0
0.00115162	0	0	0
0.00124383	0	0	0
0.00137778	0	0	0
0.00145449	0	0	0
