4.17859e-09	0	0	0
3.93417e-08	0	0	0
7.50634e-08	0	0	0
2.50822e-07	0	0	0
4.88827e-07	0	0	0
9.30874e-07	0	0	0
1.17404e-06	0	0	0
1.45412e-06	0	0	0
1.64475e-06	0	0	0
1.7027e-06	0	0	0
1.93139e-06	0	0	0
1.9649e-06	0	0	0
2.04006e-06	0	0	0
2.08092e-06	0	0	0
2.32822e-06	0	0	0
2.39741e-06	0	0	0
2.40867e-06	0	0	0
2.43622e-06	0	0	0
2.67167e-06	0	0	0
2.95398e-06	0	0	0
3.13908e-06	0	0	0
3.32371e-06	0	0	0
3.35241e-06	0	0	0
3.41289e-06	0	0	0
3.41606e-06	0	0	0
3.42328e-06	0	0	0
3.48738e-06	0	0	0
3.63197e-06	0	0	0
3.67992e-06	0	0	0
3.7955e-06	0	0	0
3.83125e-06	0	0	0
3.90838e-06	0	0	0
4.07836e-06	0	0	0
4.16079e-06	0	0	0
4.32581e-06	0	0	0
4.62452e-06	0	0	0
4.63429e-06	0	0	0
4.65607e-06	0	0	0
5.06255e-06	0	0	0
5.14425e-06	0	0	0
5.17446e-06	0	0	0
5.36546e-06	0	0	0
5.58118e-06	0	0	0
5.64521e-06	0	0	0
5.85524e-06	0	0	0
5.97346e-06	0	0	0
6.03739e-06	0	0	0
6.04432e-06	0	0	0
6.13263e-06	0	0	0
6.21184e-06	0	0	0
6.51105e-06	0	0	0
6.57614e-06	0	0	0
6.79207e-06	0	0	0
6.81274e-06	0	0	0
6.85878e-06	0	0	0
6.882e-06	0	0	0
6.93424e-06	0	0	0
7.17437e-06	0	0	0
7.22249e-06	0	0	0
7.31937e-06	0	0	0
7.32871e-06	0	0	0
7.39012e-06	0	0	0
7.76762e-06	0	0	0
8.00983e-06	0	0	0
8.10218e-06	0	0	0
8.11817e-06	0	0	0
8.29106e-06	0	0	0
8.39087e-06	0	0	0
8.75846e-06	0	0	0
8.87187e-06	0	0	0
8.95047e-06	0	0	0
9.10567e-06	0	0	0
9.16746e-06	0	0	0
9.52406e-06	0	0	0
9.95821e-06	0	0	0
1.01141e-05	0	0	0
1.01953e-05	0	0	0
1.0204e-05	0	0	0
1.02087e-05	0	0	0
1.07864e-05	0	0	0
1.08504e-05	0	0	0
1.17641e-05	0	0	0
1.21269e-05	0	0	0
1.214e-05	0	0	0
1.22216e-05	0	0	0
1.2277e-05	0	0	0
1.24038e-05	0	0	0
1.24735e-05	0	0	0
1.25866e-05	0	0	0
1.27263e-05	0	0	0
1.27317e-05	0	0	0
1.27737e-05	0	0	0
1.30667e-05	0	0	0
1.3185e-05	0	0	0
1.33249e-05	0	0	0
1.33836e-05	0	0	0
1.34163e-05	0	0	0
1.3624e-05	0	0	0
1.37757e-05	0	0	0
1.38749e-05	0	0	0
1.40798e-05	0	0	0
1.43469e-05	0	0	0
1.43564e-05	0	0	0
1.43731e-05	0	0	0
1.44722e-05	0	0	0
1.45267e-05	0	0	0
1.49341e-05	0	0	0
1.49876e-05	0	0	0
1.53273e-05	0	0	0
1.55346e-05	0	0	0
1.57166e-05	0	0	0
1.57265e-05	0	0	0
1.57704e-05	0	0	0
1.59965e-05	0	0	0
1.61442e-05	0	0	0
1.63942e-05	0	0	0
1.64696e-05	0	0	0
1.66955e-05	0	0	0
1.67315e-05	0	0	0
1.74216e-05	0	0	0
1.76347e-05	0	0	0
1.76406e-05	0	0	0
1.76677e-05	0	0	0
1.77576e-05	0	0	0
1.78074e-05	0	0	0
1.78654e-05	0	0	0
1.79102e-05	0	0	0
1.79474e-05	0	0	0
1.81682e-05	0	0	0
1.83142e-05	0	0	0
1.84019e-05	0	0	0
1.89147e-05	0	0	0
1.892e-05	0	0	0
1.93282e-05	0	0	0
1.94149e-05	0	0	0
1.95744e-05	0	0	0
1.96383e-05	0	0	0
1.98865e-05	0	0	0
1.98949e-05	0	0	0
1.99759e-05	0	0	0
2.03667e-05	0	0	0
2.0378e-05	0	0	0
2.08424e-05	0	0	0
2.10987e-05	0	0	0
2.11871e-05	0	0	0
2.12606e-05	0	0	0
2.17226e-05	0	0	0
2.17374e-05	0	0	0
2.19904e-05	0	0	0
2.21565e-05	0	0	0
2.30187e-05	0	0	0
2.33011e-05	0	0	0
2.34569e-05	0	0	0
2.35398e-05	0	0	0
2.36676e-05	0	0	0
2.3835e-05	0	0	0
2.40088e-05	0	0	0
2.42366e-05	0	0	0
2.43286e-05	0	0	0
2.44816e-05	0	0	0
2.45098e-05	0	0	0
2.48802e-05	0	0	0
2.51326e-05	0	0	0
2.53388e-05	0	0	0
2.55278e-05	0	0	0
2.553e-05	0	0	0
2.56031e-05	0	0	0
2.57972e-05	0	0	0
2.58068e-05	0	0	0
2.58493e-05	0	0	0
2.59196e-05	0	0	0
2.60271e-05	0	0	0
2.60654e-05	0	0	0
2.61838e-05	0	0	0
2.65209e-05	0	0	0
2.66224e-05	0	0	0
2.70958e-05	0	0	0
2.74432e-05	0	0	0
2.74643e-05	0	0	0
2.76221e-05	0	0	0
2.76377e-05	0	0	0
2.77744e-05	0	0	0
2.78262e-05	0	0	0
2.8053e-05	0	0	0
2.81717e-05	0	0	0
2.8373e-05	0	0	0
2.84504e-05	0	0	0
2.84839e-05	0	0	0
2.85911e-05	0	0	0
2.9047e-05	0	0	0
2.91375e-05	0	0	0
2.93586e-05	0	0	0
2.93716e-05	0	0	0
2.94086e-05	0	0	0
2.94142e-05	0	0	0
2.95492e-05	0	0	0
2.96496e-05	0	0	0
2.9778e-05	0	0	0
2.99307e-05	0	0	0
3.06791e-05	0	0	0
3.11046e-05	0	0	0
3.11218e-05	0	0	0
3.13573e-05	0	0	0
3.21654e-05	0	0	0
3.24937e-05	0	0	0
3.25137e-05	0	0	0
3.27074e-05	0	0	0
3.28959e-05	0	0	0
3.31712e-05	0	0	0
3.33874e-05	0	0	0
3.45465e-05	0	0	0
3.48989e-05	0	0	0
3.50908e-05	0	0	0
3.53644e-05	0	0	0
3.60887e-05	0	0	0
3.62946e-05	0	0	0
3.64337e-05	0	0	0
3.68828e-05	0	0	0
3.7173e-05	0	0	0
3.7762e-05	0	0	0
3.82212e-05	0	0	0
3.82903e-05	0	0	0
3.83208e-05	0	0	0
3.84484e-05	0	0	0
3.87842e-05	0	0	0
3.91727e-05	0	0	0
3.99467e-05	0	0	0
3.99984e-05	0	0	0
4.03809e-05	0	0	0
4.04678e-05	0	0	0
4.05577e-05	0	0	0
4.10747e-05	0	0	0
4.12364e-05	0	0	0
4.14505e-05	0	0	0
4.14582e-05	0	0	0
4.15414e-05	0	0	0
4.20597e-05	0	0	0
4.22774e-05	0	0	0
4.23222e-05	0	0	0
4.23305e-05	0	0	0
4.24425e-05	0	0	0
4.24867e-05	0	0	0
4.25182e-05	0	0	0
4.27246e-05	0	0	0
4.29542e-05	0	0	0
4.31773e-05	0	0	0
4.32209e-05	0	0	0
4.35216e-05	0	0	0
4.36538e-05	0	0	0
4.36953e-05	0	0	0
4.47222e-05	0	0	0
4.48557e-05	0	0	0
4.502e-05	0	0	0
4.56476e-05	0	0	0
4.58175e-05	0	0	0
4.58181e-05	0	0	0
4.5938e-05	0	0	0
4.68756e-05	0	0	0
4.70575e-05	0	0	0
4.72229e-05	0	0	0
4.77935e-05	0	0	0
4.78278e-05	0	0	0
4.805e-05	0	0	0
4.81505e-05	0	0	0
4.81948e-05	0	0	0
4.82465e-05	0	0	0
4.89891e-05	0	0	0
4.97211e-05	0	0	0
4.97899e-05	0	0	0
4.98782e-05	0	0	0
4.99616e-05	0	0	0
5.0178e-05	0	0	0
5.07928e-05	0	0	0
5.11439e-05	0	0	0
5.11507e-05	0	0	0
5.14425e-05	0	0	0
5.15695e-05	0	0	0
5.1683e-05	0	0	0
5.1916e-05	0	0	0
5.22011e-05	0	0	0
5.23133e-05	0	0	0
5.26167e-05	0	0	0
5.27648e-05	0	0	0
5.35195e-05	0	0	0
5.36591e-05	0	0	0
5.36938e-05	0	0	0
5.38419e-05	0	0	0
5.40749e-05	0	0	0
5.42673e-05	0	0	0
5.43874e-05	0	0	0
5.44345e-05	0	0	0
5.44637e-05	0	0	0
5.44815e-05	0	0	0
5.46849e-05	0	0	0
5.50293e-05	0	0	0
5.51816e-05	0	0	0
5.57125e-05	0	0	0
5.57739e-05	0	0	0
5.6318e-05	0	0	0
5.64104e-05	0	0	0
5.66098e-05	0	0	0
5.6704e-05	0	0	0
5.724e-05	0	0	0
5.7319e-05	0	0	0
5.75414e-05	0	0	0
5.79048e-05	0	0	0
5.79503e-05	0	0	0
5.79694e-05	0	0	0
5.80368e-05	0	0	0
5.81634e-05	0	0	0
5.82875e-05	0	0	0
5.86881e-05	0	0	0
5.87909e-05	0	0	0
5.8845e-05	0	0	0
5.90139e-05	0	0	0
5.94862e-05	0	0	0
5.95118e-05	0	0	0
5.98188e-05	0	0	0
5.9879e-05	0	0	0
6.08003e-05	0	0	0
6.08398e-05	0	0	0
6.08748e-05	0	0	0
6.15902e-05	0	0	0
6.20705e-05	0	0	0
6.21866e-05	0	0	0
6.27863e-05	0	0	0
6.28514e-05	0	0	0
6.31605e-05	0	0	0
6.37772e-05	0	0	0
6.42533e-05	0	0	0
6.44785e-05	0	0	0
6.49204e-05	0	0	0
6.50206e-05	0	0	0
6.53215e-05	0	0	0
6.55046e-05	0	0	0
6.60341e-05	0	0	0
6.61255e-05	0	0	0
6.86622e-05	0	0	0
6.87666e-05	0	0	0
6.88135e-05	0	0	0
6.9152e-05	0	0	0
7.03675e-05	0	0	0
7.0599e-05	0	0	0
7.14454e-05	0	0	0
7.14694e-05	0	0	0
7.14809e-05	0	0	0
7.15237e-05	0	0	0
7.15748e-05	0	0	0
7.19038e-05	0	0	0
7.19848e-05	0	0	0
7.20326e-05	0	0	0
7.21661e-05	0	0	0
7.2418e-05	0	0	0
7.27798e-05	0	0	0
7.28316e-05	0	0	0
7.33835e-05	0	0	0
7.38423e-05	0	0	0
7.40109e-05	0	0	0
7.42501e-05	0	0	0
7.42981e-05	0	0	0
7.50314e-05	0	0	0
7.51671e-05	0	0	0
7.71104e-05	0	0	0
7.71777e-05	0	0	0
7.75946e-05	0	0	0
7.76085e-05	0	0	0
7.77497e-05	0	0	0
7.82719e-05	0	0	0
7.82941e-05	0	0	0
7.83533e-05	0	0	0
7.89152e-05	0	0	0
7.99559e-05	0	0	0
8.13003e-05	0	0	0
8.13118e-05	0	0	0
8.18856e-05	0	0	0
8.18997e-05	0	0	0
8.21421e-05	0	0	0
8.22377e-05	0	0	0
8.23878e-05	0	0	0
8.26575e-05	0	0	0
8.30655e-05	0	0	0
8.35404e-05	0	0	0
8.38516e-05	0	0	0
8.38974e-05	0	0	0
8.46112e-05	0	0	0
8.46583e-05	0	0	0
8.52142e-05	0	0	0
8.55921e-05	0	0	0
8.60157e-05	0	0	0
8.62066e-05	0	0	0
8.65933e-05	0	0	0
8.66645e-05	0	0	0
8.67901e-05	0	0	0
8.70116e-05	0	0	0
8.74041e-05	0	0	0
8.74501e-05	0	0	0
8.77299e-05	0	0	0
8.82073e-05	0	0	0
8.8952e-05	0	0	0
8.9145e-05	0	0	0
8.93088e-05	0	0	0
8.95996e-05	0	0	0
9.02797e-05	0	0	0
9.07056e-05	0	0	0
9.09657e-05	0	0	0
9.13802e-05	0	0	0
9.15883e-05	0	0	0
9.3136e-05	0	0	0
9.4885e-05	0	0	0
9.55402e-05	0	0	0
9.63122e-05	0	0	0
9.63279e-05	0	0	0
9.64098e-05	0	0	0
9.71733e-05	0	0	0
9.71805e-05	0	0	0
9.72943e-05	0	0	0
9.79202e-05	0	0	0
9.83663e-05	0	0	0
9.8841e-05	0	0	0
9.95689e-05	0	0	0
9.97344e-05	0	0	0
0.000100438	0	0	0
0.000100679	0	0	0
0.00010076	0	0	0
0.00010078	0	0	0
0.000101424	0	0	0
0.000102438	0	0	0
0.000102543	0	0	0
0.000102678	0	0	0
0.0001037	0	0	0
0.000104436	0	0	0
0.000104557	0	0	0
0.00010482	0	0	0
0.000105038	0	0	0
0.000105056	0	0	0
0.000105297	0	0	0
0.000105302	0	0	0
0.000105312	0	0	0
0.000106191	0	0	0
0.000106781	0	0	0
0.000106782	0	0	0
0.000107057	0	0	0
0.000107173	0	0	0
0.000107214	0	0	0
0.000107392	0	0	0
0.000108449	0	0	0
0.000108717	0	0	0
0.000108769	0	0	0
0.00010914	0	0	0
0.000109983	0	0	0
0.000110025	0	0	0
0.000110032	0	0	0
0.000110118	0	0	0
0.000110496	0	0	0
0.000110501	0	0	0
0.000112224	0	0	0
0.000112341	0	0	0
0.000112347	0	0	0
0.000113458	0	0	0
0.000114829	0	0	0
0.000115683	0	0	0
0.000116026	0	0	0
0.000117131	0	0	0
0.000118488	0	0	0
0.00011874	0	0	0
0.000119491	0	0	0
0.000119735	0	0	0
0.000120276	0	0	0
0.000120378	0	0	0
0.000120791	0	0	0
0.000121147	0	0	0
0.0001213	0	0	0
0.000121584	0	0	0
0.00012166	0	0	0
0.000122042	0	0	0
0.000122478	0	0	0
0.000122845	0	0	0
0.000123698	0	0	0
0.000123807	0	0	0
0.000124848	0	0	0
0.000125167	0	0	0
0.000126767	0	0	0
0.000126789	0	0	0
0.000127153	0	0	0
0.000128101	0	0	0
0.000128478	0	0	0
0.000128974	0	0	0
0.000129355	0	0	0
0.000130088	0	0	0
0.00013079	0	0	0
0.000131485	0	0	0
0.000131584	0	0	0
0.000131689	0	0	0
0.000131761	0	0	0
0.000132337	0	0	0
0.000132551	0	0	0
0.000132568	0	0	0
0.000133522	0	0	0
0.000133586	0	0	0
0.000134188	0	0	0
0.000134719	0	0	0
0.000134823	0	0	0
0.000134858	0	0	0
0.00013792	0	0	0
0.000139573	0	0	0
0.00013971	0	0	0
0.000139807	0	0	0
0.000140264	0	0	0
0.000140493	0	0	0
0.000140521	0	0	0
0.000140569	0	0	0
0.000142218	0	0	0
0.000142369	0	0	0
0.000142681	0	0	0
0.00014333	0	0	0
0.000143597	0	0	0
0.000144647	0	0	0
0.000145278	0	0	0
0.00014556	0	0	0
0.000146764	0	0	0
0.000147561	0	0	0
0.000147754	0	0	0
0.000148098	0	0	0
0.000148434	0	0	0
0.000148516	0	0	0
0.000148895	0	0	0
0.000148938	0	0	0
0.00014895	0	0	0
0.000149774	0	0	0
0.00015079	0	0	0
0.000152283	0	0	0
0.000152983	0	0	0
0.000153126	0	0	0
0.000154085	0	0	0
0.000154312	0	0	0
0.00015478	0	0	0
0.000155154	0	0	0
0.0001555	0	0	0
0.000156438	0	0	0
0.000157991	0	0	0
0.000158894	0	0	0
0.00015907	0	0	0
0.000159124	0	0	0
0.000159473	0	0	0
0.000159682	0	0	0
0.000160541	0	0	0
0.000161068	0	0	0
0.000161111	0	0	0
0.000161588	0	0	0
0.00016259	0	0	0
0.000162604	0	0	0
0.000162926	0	0	0
0.000163324	0	0	0
0.000163433	0	0	0
0.000164342	0	0	0
0.000165089	0	0	0
0.000166205	0	0	0
0.000167156	0	0	0
0.000169369	0	0	0
0.000169666	0	0	0
0.000170123	0	0	0
0.000170312	0	0	0
0.000172191	0	0	0
0.000172699	0	0	0
0.000172863	0	0	0
0.000174402	0	0	0
0.000174884	0	0	0
0.000176783	0	0	0
0.000178448	0	0	0
0.000179803	0	0	0
0.000180252	0	0	0
0.000180568	0	0	0
0.000181345	0	0	0
0.000182061	0	0	0
0.000182351	0	0	0
0.00018354	0	0	0
0.000183839	0	0	0
0.000184072	0	0	0
0.000185271	0	0	0
0.000186418	0	0	0
0.000186682	0	0	0
0.000187238	0	0	0
0.000188185	0	0	0
0.000189192	0	0	0
0.000189594	0	0	0
0.00019007	0	0	0
0.0001904	0	0	0
0.000190885	0	0	0
0.000191624	0	0	0
0.000192774	0	0	0
0.000194373	0	0	0
0.000197768	0	0	0
0.000198518	0	0	0
0.000198535	0	0	0
0.000198922	0	0	0
0.000199479	0	0	0
0.00020032	0	0	0
0.000201397	0	0	0
0.000202031	0	0	0
0.000205662	0	0	0
0.000207401	0	0	0
0.000207509	0	0	0
0.000207815	0	0	0
0.0002084	0	0	0
0.000208777	0	0	0
0.000209643	0	0	0
0.000209781	0	0	0
0.000210026	0	0	0
0.000211005	0	0	0
0.000211024	0	0	0
0.00021129	0	0	0
0.000215049	0	0	0
0.000215096	0	0	0
0.000215626	0	0	0
0.000217874	0	0	0
0.000219622	0	0	0
0.000220211	0	0	0
0.000220333	0	0	0
0.000220381	0	0	0
0.000222226	0	0	0
0.000224049	0	0	0
0.000224453	0	0	0
0.000224817	0	0	0
0.000225689	0	0	0
0.000226729	0	0	0
0.000226791	0	0	0
0.00022944	0	0	0
0.000230217	0	0	0
0.000230271	0	0	0
0.000231943	0	0	0
0.000232518	0	0	0
0.000232566	0	0	0
0.00023264	0	0	0
0.000232881	0	0	0
0.000233834	0	0	0
0.00023562	0	0	0
0.00023675	0	0	0
0.000238441	0	0	0
0.000238934	0	0	0
0.000239032	0	0	0
0.000241385	0	0	0
0.0002414	0	0	0
0.000241811	0	0	0
0.000241915	0	0	0
0.000242553	0	0	0
0.000243678	0	0	0
0.000244313	0	0	0
0.000244984	0	0	0
0.000245107	0	0	0
0.000245775	0	0	0
0.000246312	0	0	0
0.000246322	0	0	0
0.000248134	0	0	0
0.000251757	0	0	0
0.000252808	0	0	0
0.000255105	0	0	0
0.000256121	0	0	0
0.000256283	0	0	0
0.000256485	0	0	0
0.000256963	0	0	0
0.000257281	0	0	0
0.000257687	0	0	0
0.000258365	0	0	0
0.000258684	0	0	0
0.000262248	0	0	0
0.000262511	0	0	0
0.000263798	0	0	0
0.000265008	0	0	0
0.0002651	0	0	0
0.000268053	0	0	0
0.000268846	0	0	0
0.000269213	0	0	0
0.000270315	0	0	0
0.000271263	0	0	0
0.000272828	0	0	0
0.00027501	0	0	0
0.000275848	0	0	0
0.000276337	0	0	0
0.00027867	0	0	0
0.000279771	0	0	0
0.000281179	0	0	0
0.000281351	0	0	0
0.000281495	0	0	0
0.000281632	0	0	0
0.000281864	0	0	0
0.000283359	0	0	0
0.000284088	0	0	0
0.000284646	0	0	0
0.000287501	0	0	0
0.000287613	0	0	0
0.000289536	0	0	0
0.000290472	0	0	0
0.000290699	0	0	0
0.000293594	0	0	0
0.000298788	0	0	0
0.000300779	0	0	0
0.00030328	0	0	0
0.000303337	0	0	0
0.000304827	0	0	0
0.000305807	0	0	0
0.000307572	0	0	0
0.000309091	0	0	0
0.000309406	0	0	0
0.000312217	0	0	0
0.000312723	0	0	0
0.000313305	0	0	0
0.000313597	0	0	0
0.000314837	0	0	0
0.00031523	0	0	0
0.000315589	0	0	0
0.000320226	0	0	0
0.00032232	0	0	0
0.00032355	0	0	0
0.000324585	0	0	0
0.000324617	0	0	0
0.000324759	0	0	0
0.00032569	0	0	0
0.000327814	0	0	0
0.000329148	0	0	0
0.000332615	0	0	0
0.000334081	0	0	0
0.000339248	0	0	0
0.000341562	0	0	0
0.000341962	0	0	0
0.000342952	0	0	0
0.000349623	0	0	0
0.000350066	0	0	0
0.000353249	0	0	0
0.000353674	0	0	0
0.000354149	0	0	0
0.000354155	0	0	0
0.000354889	0	0	0
0.000354928	0	0	0
0.000358702	0	0	0
0.000359008	0	0	0
0.000363983	0	0	0
0.000364007	0	0	0
0.000364419	0	0	0
0.000364955	0	0	0
0.000367943	0	0	0
0.000368714	0	0	0
0.000368838	0	0	0
0.000369876	0	0	0
0.000375186	0	0	0
0.000386237	0	0	0
0.000393648	0	0	0
0.00040173	0	0	0
0.000402139	0	0	0
0.000402411	0	0	0
0.00040317	0	0	0
0.000404045	0	0	0
0.000412896	0	0	0
0.00041712	0	0	0
0.000421179	0	0	0
0.000425694	0	0	0
0.000429833	0	0	0
0.000434645	0	0	0
0.000435551	0	0	0
0.000449167	0	0	0
0.000468131	0	0	0
0.000481065	0	0	0
0.000483198	0	0	0
0.000484228	0	0	0
0.000494094	0	0	0
0.00049922	0	0	0
0.000501577	0	0	0
0.00050353	0	0	0
0.000508064	0	0	0
0.000512719	0	0	0
0.000517071	0	0	0
0.000523177	0	0	0
0.00053133	0	0	0
0.000533033	0	0	0
0.000534638	0	0	0
0.000540169	0	0	0
0.000546597	0	0	0
0.000546777	0	0	0
0.000547194	0	0	0
0.000579112	0	0	0
0.000581061	0	0	0
0.000587154	0	0	0
0.000596905	0	0	0
0.000597855	0	0	0
0.000600885	0	0	0
0.000606854	0	0	0
0.000609781	0	0	0
0.00063417	0	0	0
0.000641394	0	0	0
0.000648588	0	0	0
0.000648779	0	0	0
0.00064977	0	0	0
0.000718286	0	0	0
0.000730362	0	0	0
0.000742003	0	0	0
0.000749574	0	0	0
0.000820466	0	0	0
0.000822455	0	0	0
0.00082501	0	0	0
0.000843107	0	0	0
0.000919791	0	0	0
0.00106701	0	0	0
0.00109181	0	0	0
0.00110504	0	0	0
0.00114689	0	0	0
0.00115516	0	0	0
0.00119143	0	0	0
0.00119892	0	0	0
0.00144744	0	0	0
0.00169286	0	0	0
