2.97837e-07	0	0	0
5.99584e-07	0	0	0
6.49018e-07	0	0	0
7.31888e-07	0	0	0
8.39878e-07	0	0	0
8.45412e-07	0	0	0
8.68205e-07	0	0	0
1.02688e-06	0	0	0
1.42781e-06	0	0	0
1.48166e-06	0	0	0
1.49704e-06	0	0	0
1.50766e-06	0	0	0
1.54266e-06	0	0	0
1.69749e-06	0	0	0
1.87836e-06	0	0	0
1.92251e-06	0	0	0
2.03111e-06	0	0	0
2.25742e-06	0	0	0
2.28092e-06	0	0	0
2.298e-06	0	0	0
2.35027e-06	0	0	0
2.37679e-06	0	0	0
2.43925e-06	0	0	0
2.48876e-06	0	0	0
2.50545e-06	0	0	0
3.01968e-06	0	0	0
3.09046e-06	0	0	0
3.11771e-06	0	0	0
3.54023e-06	0	0	0
3.82843e-06	0	0	0
3.87725e-06	0	0	0
4.01402e-06	0	0	0
4.08945e-06	0	0	0
4.11138e-06	0	0	0
4.44867e-06	0	0	0
4.71321e-06	0	0	0
4.89571e-06	0	0	0
5.0137e-06	0	0	0
5.57181e-06	0	0	0
5.62875e-06	0	0	0
5.79003e-06	0	0	0
5.89208e-06	0	0	0
5.96255e-06	0	0	0
6.17665e-06	0	0	0
6.23493e-06	0	0	0
6.25399e-06	0	0	0
6.25491e-06	0	0	0
6.35431e-06	0	0	0
6.40838e-06	0	0	0
6.4983e-06	0	0	0
6.7641e-06	0	0	0
6.8372e-06	0	0	0
6.97332e-06	0	0	0
6.98948e-06	0	0	0
7.06083e-06	0	0	0
7.12671e-06	0	0	0
7.18595e-06	0	0	0
7.26179e-06	0	0	0
7.41937e-06	0	0	0
7.92435e-06	0	0	0
8.17439e-06	0	0	0
8.43643e-06	0	0	0
8.49328e-06	0	0	0
8.6047e-06	0	0	0
8.63123e-06	0	0	0
8.67127e-06	0	0	0
8.76664e-06	0	0	0
8.77271e-06	0	0	0
8.79741e-06	0	0	0
9.08755e-06	0	0	0
9.08822e-06	0	0	0
9.11325e-06	0	0	0
9.23778e-06	0	0	0
9.36157e-06	0	0	0
9.60204e-06	0	0	0
9.80775e-06	0	0	0
9.81249e-06	0	0	0
9.91514e-06	0	0	0
9.93459e-06	0	0	0
9.97186e-06	0	0	0
1.00011e-05	0	0	0
1.01016e-05	0	0	0
1.03066e-05	0	0	0
1.03819e-05	0	0	0
1.04743e-05	0	0	0
1.0493e-05	0	0	0
1.05481e-05	0	0	0
1.06365e-05	0	0	0
1.06451e-05	0	0	0
1.07347e-05	0	0	0
1.0737e-05	0	0	0
1.08726e-05	0	0	0
1.09036e-05	0	0	0
1.09641e-05	0	0	0
1.1036e-05	0	0	0
1.11096e-05	0	0	0
1.12817e-05	0	0	0
1.14183e-05	0	0	0
1.1437e-05	0	0	0
1.14516e-05	0	0	0
1.19415e-05	0	0	0
1.21872e-05	0	0	0
1.21906e-05	0	0	0
1.22502e-05	0	0	0
1.24271e-05	0	0	0
1.27859e-05	0	0	0
1.28784e-05	0	0	0
1.29333e-05	0	0	0
1.34158e-05	0	0	0
1.34282e-05	0	0	0
1.3495e-05	0	0	0
1.38104e-05	0	0	0
1.43201e-05	0	0	0
1.43936e-05	0	0	0
1.44123e-05	0	0	0
1.44689e-05	0	0	0
1.44718e-05	0	0	0
1.4543e-05	0	0	0
1.46312e-05	0	0	0
1.48469e-05	0	0	0
1.48678e-05	0	0	0
1.5065e-05	0	0	0
1.50936e-05	0	0	0
1.54104e-05	0	0	0
1.54975e-05	0	0	0
1.55443e-05	0	0	0
1.55773e-05	0	0	0
1.56355e-05	0	0	0
1.57174e-05	0	0	0
1.6051e-05	0	0	0
1.60552e-05	0	0	0
1.61689e-05	0	0	0
1.62968e-05	0	0	0
1.63799e-05	0	0	0
1.65074e-05	0	0	0
1.67118e-05	0	0	0
1.69448e-05	0	0	0
1.70292e-05	0	0	0
1.70385e-05	0	0	0
1.71101e-05	0	0	0
1.73042e-05	0	0	0
1.74306e-05	0	0	0
1.75269e-05	0	0	0
1.75481e-05	0	0	0
1.75721e-05	0	0	0
1.79523e-05	0	0	0
1.81854e-05	0	0	0
1.82789e-05	0	0	0
1.83501e-05	0	0	0
1.84164e-05	0	0	0
1.87438e-05	0	0	0
1.90482e-05	0	0	0
1.91034e-05	0	0	0
1.9188e-05	0	0	0
1.9364e-05	0	0	0
1.94102e-05	0	0	0
1.96953e-05	0	0	0
1.97794e-05	0	0	0
1.99818e-05	0	0	0
2.02081e-05	0	0	0
2.03814e-05	0	0	0
2.08962e-05	0	0	0
2.18068e-05	0	0	0
2.19453e-05	0	0	0
2.20877e-05	0	0	0
2.21172e-05	0	0	0
2.21882e-05	0	0	0
2.22237e-05	0	0	0
2.25508e-05	0	0	0
2.2675e-05	0	0	0
2.27712e-05	0	0	0
2.30546e-05	0	0	0
2.30616e-05	0	0	0
2.3377e-05	0	0	0
2.35205e-05	0	0	0
2.44142e-05	0	0	0
2.48447e-05	0	0	0
2.48472e-05	0	0	0
2.49323e-05	0	0	0
2.50349e-05	0	0	0
2.51532e-05	0	0	0
2.51658e-05	0	0	0
2.53707e-05	0	0	0
2.56839e-05	0	0	0
2.58147e-05	0	0	0
2.58215e-05	0	0	0
2.58483e-05	0	0	0
2.58919e-05	0	0	0
2.60655e-05	0	0	0
2.6301e-05	0	0	0
2.69358e-05	0	0	0
2.70933e-05	0	0	0
2.73091e-05	0	0	0
2.75317e-05	0	0	0
2.7583e-05	0	0	0
2.76437e-05	0	0	0
2.77551e-05	0	0	0
2.7802e-05	0	0	0
2.78958e-05	0	0	0
2.80571e-05	0	0	0
2.82781e-05	0	0	0
2.85548e-05	0	0	0
2.85771e-05	0	0	0
2.86996e-05	0	0	0
2.98248e-05	0	0	0
2.98322e-05	0	0	0
3.03136e-05	0	0	0
3.08721e-05	0	0	0
3.08962e-05	0	0	0
3.10002e-05	0	0	0
3.10456e-05	0	0	0
3.11138e-05	0	0	0
3.14007e-05	0	0	0
3.1484e-05	0	0	0
3.15175e-05	0	0	0
3.16051e-05	0	0	0
3.17132e-05	0	0	0
3.17235e-05	0	0	0
3.19395e-05	0	0	0
3.19788e-05	0	0	0
3.20212e-05	0	0	0
3.21413e-05	0	0	0
3.22654e-05	0	0	0
3.22827e-05	0	0	0
3.2436e-05	0	0	0
3.26151e-05	0	0	0
3.26585e-05	0	0	0
3.27841e-05	0	0	0
3.27946e-05	0	0	0
3.29323e-05	0	0	0
3.29524e-05	0	0	0
3.32349e-05	0	0	0
3.45606e-05	0	0	0
3.46503e-05	0	0	0
3.47206e-05	0	0	0
3.47249e-05	0	0	0
3.51538e-05	0	0	0
3.52417e-05	0	0	0
3.52765e-05	0	0	0
3.54958e-05	0	0	0
3.57742e-05	0	0	0
3.57976e-05	0	0	0
3.60131e-05	0	0	0
3.60216e-05	0	0	0
3.60928e-05	0	0	0
3.62851e-05	0	0	0
3.63856e-05	0	0	0
3.64659e-05	0	0	0
3.65169e-05	0	0	0
3.65483e-05	0	0	0
3.69876e-05	0	0	0
3.70143e-05	0	0	0
3.72559e-05	0	0	0
3.75759e-05	0	0	0
3.77382e-05	0	0	0
3.78593e-05	0	0	0
3.79474e-05	0	0	0
3.83133e-05	0	0	0
3.87577e-05	0	0	0
3.88264e-05	0	0	0
3.90623e-05	0	0	0
3.91378e-05	0	0	0
3.9411e-05	0	0	0
3.94119e-05	0	0	0
3.94539e-05	0	0	0
3.95116e-05	0	0	0
3.99771e-05	0	0	0
4.00608e-05	0	0	0
4.05258e-05	0	0	0
4.09619e-05	0	0	0
4.10957e-05	0	0	0
4.12628e-05	0	0	0
4.1379e-05	0	0	0
4.14434e-05	0	0	0
4.15316e-05	0	0	0
4.16764e-05	0	0	0
4.16938e-05	0	0	0
4.17886e-05	0	0	0
4.18986e-05	0	0	0
4.19115e-05	0	0	0
4.22581e-05	0	0	0
4.23306e-05	0	0	0
4.25854e-05	0	0	0
4.26156e-05	0	0	0
4.27142e-05	0	0	0
4.33878e-05	0	0	0
4.34812e-05	0	0	0
4.37497e-05	0	0	0
4.38833e-05	0	0	0
4.41396e-05	0	0	0
4.41821e-05	0	0	0
4.505e-05	0	0	0
4.50787e-05	0	0	0
4.52079e-05	0	0	0
4.53588e-05	0	0	0
4.55455e-05	0	0	0
4.56514e-05	0	0	0
4.60204e-05	0	0	0
4.66146e-05	0	0	0
4.68739e-05	0	0	0
4.70188e-05	0	0	0
4.75029e-05	0	0	0
4.75467e-05	0	0	0
4.77398e-05	0	0	0
4.77408e-05	0	0	0
4.82405e-05	0	0	0
4.83596e-05	0	0	0
4.91819e-05	0	0	0
4.92405e-05	0	0	0
4.93617e-05	0	0	0
4.97914e-05	0	0	0
4.97924e-05	0	0	0
5.01055e-05	0	0	0
5.0302e-05	0	0	0
5.04674e-05	0	0	0
5.07123e-05	0	0	0
5.10226e-05	0	0	0
5.11288e-05	0	0	0
5.13254e-05	0	0	0
5.14852e-05	0	0	0
5.18514e-05	0	0	0
5.20406e-05	0	0	0
5.21281e-05	0	0	0
5.21307e-05	0	0	0
5.23959e-05	0	0	0
5.24283e-05	0	0	0
5.25328e-05	0	0	0
5.26326e-05	0	0	0
5.27604e-05	0	0	0
5.27683e-05	0	0	0
5.27769e-05	0	0	0
5.28547e-05	0	0	0
5.31845e-05	0	0	0
5.32507e-05	0	0	0
5.33457e-05	0	0	0
5.33927e-05	0	0	0
5.34113e-05	0	0	0
5.34217e-05	0	0	0
5.36225e-05	0	0	0
5.36573e-05	0	0	0
5.40827e-05	0	0	0
5.45528e-05	0	0	0
5.45552e-05	0	0	0
5.4619e-05	0	0	0
5.48202e-05	0	0	0
5.50232e-05	0	0	0
5.5098e-05	0	0	0
5.57214e-05	0	0	0
5.58491e-05	0	0	0
5.60968e-05	0	0	0
5.63547e-05	0	0	0
5.69895e-05	0	0	0
5.71455e-05	0	0	0
5.71576e-05	0	0	0
5.74312e-05	0	0	0
5.75223e-05	0	0	0
5.80503e-05	0	0	0
5.8488e-05	0	0	0
5.88747e-05	0	0	0
5.90452e-05	0	0	0
5.91934e-05	0	0	0
5.94052e-05	0	0	0
5.96884e-05	0	0	0
6.04726e-05	0	0	0
6.21381e-05	0	0	0
6.22644e-05	0	0	0
6.24194e-05	0	0	0
6.24713e-05	0	0	0
6.30896e-05	0	0	0
6.31707e-05	0	0	0
6.37978e-05	0	0	0
6.41464e-05	0	0	0
6.43359e-05	0	0	0
6.43924e-05	0	0	0
6.44487e-05	0	0	0
6.45218e-05	0	0	0
6.54282e-05	0	0	0
6.5445e-05	0	0	0
6.55319e-05	0	0	0
6.56833e-05	0	0	0
6.56983e-05	0	0	0
6.57897e-05	0	0	0
6.58941e-05	0	0	0
6.6139e-05	0	0	0
6.6235e-05	0	0	0
6.64016e-05	0	0	0
6.69418e-05	0	0	0
6.7078e-05	0	0	0
6.72391e-05	0	0	0
6.76122e-05	0	0	0
6.78194e-05	0	0	0
6.81152e-05	0	0	0
6.8209e-05	0	0	0
6.9078e-05	0	0	0
6.9224e-05	0	0	0
6.9691e-05	0	0	0
7.05574e-05	0	0	0
7.06873e-05	0	0	0
7.08874e-05	0	0	0
7.14443e-05	0	0	0
7.24702e-05	0	0	0
7.25626e-05	0	0	0
7.30846e-05	0	0	0
7.35043e-05	0	0	0
7.37192e-05	0	0	0
7.40504e-05	0	0	0
7.41612e-05	0	0	0
7.41699e-05	0	0	0
7.44856e-05	0	0	0
7.46425e-05	0	0	0
7.58039e-05	0	0	0
7.63138e-05	0	0	0
7.70836e-05	0	0	0
7.75093e-05	0	0	0
7.80206e-05	0	0	0
7.83835e-05	0	0	0
7.88505e-05	0	0	0
7.88517e-05	0	0	0
7.94189e-05	0	0	0
8.03331e-05	0	0	0
8.06559e-05	0	0	0
8.09225e-05	0	0	0
8.09666e-05	0	0	0
8.13054e-05	0	0	0
8.18075e-05	0	0	0
8.18615e-05	0	0	0
8.19799e-05	0	0	0
8.22526e-05	0	0	0
8.33257e-05	0	0	0
8.39244e-05	0	0	0
8.44928e-05	0	0	0
8.45394e-05	0	0	0
8.56427e-05	0	0	0
8.571e-05	0	0	0
8.57549e-05	0	0	0
8.61965e-05	0	0	0
8.63598e-05	0	0	0
8.69541e-05	0	0	0
8.72769e-05	0	0	0
8.73792e-05	0	0	0
8.79933e-05	0	0	0
8.80084e-05	0	0	0
8.86992e-05	0	0	0
8.88252e-05	0	0	0
8.95808e-05	0	0	0
9.01043e-05	0	0	0
9.03223e-05	0	0	0
9.04939e-05	0	0	0
9.12437e-05	0	0	0
9.1587e-05	0	0	0
9.16596e-05	0	0	0
9.25259e-05	0	0	0
9.3003e-05	0	0	0
9.33813e-05	0	0	0
9.3586e-05	0	0	0
9.38025e-05	0	0	0
9.45044e-05	0	0	0
9.4676e-05	0	0	0
9.48679e-05	0	0	0
9.53514e-05	0	0	0
9.76932e-05	0	0	0
9.79746e-05	0	0	0
9.81071e-05	0	0	0
9.91119e-05	0	0	0
9.98835e-05	0	0	0
9.98873e-05	0	0	0
0.000100154	0	0	0
0.000100675	0	0	0
0.00010122	0	0	0
0.000101673	0	0	0
0.000101778	0	0	0
0.000101788	0	0	0
0.000103087	0	0	0
0.000103404	0	0	0
0.000103512	0	0	0
0.000104516	0	0	0
0.00010497	0	0	0
0.000105082	0	0	0
0.000105786	0	0	0
0.000105927	0	0	0
0.000105979	0	0	0
0.000106634	0	0	0
0.000106779	0	0	0
0.000106963	0	0	0
0.000107412	0	0	0
0.000108737	0	0	0
0.000108828	0	0	0
0.00010943	0	0	0
0.000109818	0	0	0
0.0001106	0	0	0
0.000110684	0	0	0
0.000110866	0	0	0
0.000111339	0	0	0
0.000111639	0	0	0
0.000111731	0	0	0
0.000111964	0	0	0
0.00011211	0	0	0
0.000112363	0	0	0
0.000112766	0	0	0
0.000112787	0	0	0
0.000113162	0	0	0
0.000113316	0	0	0
0.00011395	0	0	0
0.000114192	0	0	0
0.000114398	0	0	0
0.000114712	0	0	0
0.000115053	0	0	0
0.00011512	0	0	0
0.000115225	0	0	0
0.000116021	0	0	0
0.000117174	0	0	0
0.000117439	0	0	0
0.000117739	0	0	0
0.000117911	0	0	0
0.000117929	0	0	0
0.000118334	0	0	0
0.000118737	0	0	0
0.000119766	0	0	0
0.000119857	0	0	0
0.000119899	0	0	0
0.000119976	0	0	0
0.000121312	0	0	0
0.000121885	0	0	0
0.000122146	0	0	0
0.000123951	0	0	0
0.000124072	0	0	0
0.000124101	0	0	0
0.000124255	0	0	0
0.000124408	0	0	0
0.000124462	0	0	0
0.000124516	0	0	0
0.000124689	0	0	0
0.00012513	0	0	0
0.000125545	0	0	0
0.000125673	0	0	0
0.000126921	0	0	0
0.000127718	0	0	0
0.000127965	0	0	0
0.000129092	0	0	0
0.000129094	0	0	0
0.000129644	0	0	0
0.000131584	0	0	0
0.000131802	0	0	0
0.000132117	0	0	0
0.000132118	0	0	0
0.000132563	0	0	0
0.000132668	0	0	0
0.000132895	0	0	0
0.000133214	0	0	0
0.000133254	0	0	0
0.000133797	0	0	0
0.000135733	0	0	0
0.000137784	0	0	0
0.000138226	0	0	0
0.000138507	0	0	0
0.000138553	0	0	0
0.000138946	0	0	0
0.000139206	0	0	0
0.000140087	0	0	0
0.000141441	0	0	0
0.000142297	0	0	0
0.000142729	0	0	0
0.000143011	0	0	0
0.000143219	0	0	0
0.000143225	0	0	0
0.000144469	0	0	0
0.000145572	0	0	0
0.000147033	0	0	0
0.000147199	0	0	0
0.000147721	0	0	0
0.000148815	0	0	0
0.00014902	0	0	0
0.000149312	0	0	0
0.000151096	0	0	0
0.000151556	0	0	0
0.000151806	0	0	0
0.000151864	0	0	0
0.000152645	0	0	0
0.000153033	0	0	0
0.00015447	0	0	0
0.00015477	0	0	0
0.000155616	0	0	0
0.000155977	0	0	0
0.000157772	0	0	0
0.000158951	0	0	0
0.000159497	0	0	0
0.000159501	0	0	0
0.000159566	0	0	0
0.000159975	0	0	0
0.000160496	0	0	0
0.000160599	0	0	0
0.000160667	0	0	0
0.000160757	0	0	0
0.000161126	0	0	0
0.000161515	0	0	0
0.000162728	0	0	0
0.000163772	0	0	0
0.000164053	0	0	0
0.000164479	0	0	0
0.000164878	0	0	0
0.000165399	0	0	0
0.000167512	0	0	0
0.000168189	0	0	0
0.000169266	0	0	0
0.000170221	0	0	0
0.000170642	0	0	0
0.000171308	0	0	0
0.000171786	0	0	0
0.000171837	0	0	0
0.000171887	0	0	0
0.000173314	0	0	0
0.000173504	0	0	0
0.000173802	0	0	0
0.000174584	0	0	0
0.00017485	0	0	0
0.00017684	0	0	0
0.000177082	0	0	0
0.000177302	0	0	0
0.000177443	0	0	0
0.000178204	0	0	0
0.000179627	0	0	0
0.000179938	0	0	0
0.000180076	0	0	0
0.0001801	0	0	0
0.000180622	0	0	0
0.000181161	0	0	0
0.000181439	0	0	0
0.000182334	0	0	0
0.00018309	0	0	0
0.000183449	0	0	0
0.000183659	0	0	0
0.000183852	0	0	0
0.000183992	0	0	0
0.000184168	0	0	0
0.000184627	0	0	0
0.000185778	0	0	0
0.000188428	0	0	0
0.000189473	0	0	0
0.000189757	0	0	0
0.000190069	0	0	0
0.00019033	0	0	0
0.000192074	0	0	0
0.000192847	0	0	0
0.000194428	0	0	0
0.000195512	0	0	0
0.000196388	0	0	0
0.000196426	0	0	0
0.000196933	0	0	0
0.000199693	0	0	0
0.00020072	0	0	0
0.000204021	0	0	0
0.000205287	0	0	0
0.000206526	0	0	0
0.000206661	0	0	0
0.00020715	0	0	0
0.000207197	0	0	0
0.000207362	0	0	0
0.00020765	0	0	0
0.000207863	0	0	0
0.000208254	0	0	0
0.000208685	0	0	0
0.000209136	0	0	0
0.000209774	0	0	0
0.000210895	0	0	0
0.000212862	0	0	0
0.000213832	0	0	0
0.000214073	0	0	0
0.000214553	0	0	0
0.000215422	0	0	0
0.00021608	0	0	0
0.000216133	0	0	0
0.000216188	0	0	0
0.000216268	0	0	0
0.000216677	0	0	0
0.000216704	0	0	0
0.000217491	0	0	0
0.000219569	0	0	0
0.000219662	0	0	0
0.000219837	0	0	0
0.000220411	0	0	0
0.000222265	0	0	0
0.00022242	0	0	0
0.000222464	0	0	0
0.000222771	0	0	0
0.000224095	0	0	0
0.000224984	0	0	0
0.000225788	0	0	0
0.000225894	0	0	0
0.00022674	0	0	0
0.00022676	0	0	0
0.000227744	0	0	0
0.000228	0	0	0
0.000229214	0	0	0
0.00023047	0	0	0
0.000232509	0	0	0
0.000233614	0	0	0
0.000235192	0	0	0
0.000235913	0	0	0
0.000235985	0	0	0
0.000237034	0	0	0
0.000238664	0	0	0
0.000239097	0	0	0
0.000242133	0	0	0
0.00024224	0	0	0
0.00024234	0	0	0
0.000243497	0	0	0
0.000244276	0	0	0
0.000246632	0	0	0
0.000248166	0	0	0
0.000248234	0	0	0
0.000248953	0	0	0
0.000249585	0	0	0
0.000249626	0	0	0
0.000249632	0	0	0
0.000252786	0	0	0
0.000254089	0	0	0
0.000255414	0	0	0
0.00025683	0	0	0
0.000257468	0	0	0
0.000260252	0	0	0
0.000261321	0	0	0
0.000264414	0	0	0
0.000264581	0	0	0
0.000266251	0	0	0
0.000266359	0	0	0
0.000266918	0	0	0
0.000268946	0	0	0
0.000269883	0	0	0
0.000269915	0	0	0
0.000270949	0	0	0
0.00027122	0	0	0
0.000273511	0	0	0
0.00027374	0	0	0
0.000275231	0	0	0
0.000275424	0	0	0
0.000275733	0	0	0
0.000276049	0	0	0
0.000276643	0	0	0
0.000276668	0	0	0
0.000277546	0	0	0
0.000277913	0	0	0
0.000277934	0	0	0
0.00027948	0	0	0
0.000284007	0	0	0
0.000284948	0	0	0
0.000286395	0	0	0
0.000286555	0	0	0
0.000286559	0	0	0
0.000287091	0	0	0
0.000287362	0	0	0
0.000290166	0	0	0
0.000290373	0	0	0
0.000290795	0	0	0
0.000290849	0	0	0
0.000292129	0	0	0
0.000294296	0	0	0
0.000294617	0	0	0
0.000294661	0	0	0
0.000296848	0	0	0
0.000298042	0	0	0
0.000298821	0	0	0
0.000298971	0	0	0
0.000299168	0	0	0
0.000299272	0	0	0
0.000301555	0	0	0
0.000302087	0	0	0
0.00030238	0	0	0
0.00030313	0	0	0
0.000303728	0	0	0
0.000303954	0	0	0
0.000304444	0	0	0
0.000308105	0	0	0
0.000308343	0	0	0
0.000308927	0	0	0
0.000312055	0	0	0
0.00031428	0	0	0
0.000314552	0	0	0
0.000315069	0	0	0
0.000315589	0	0	0
0.000317662	0	0	0
0.000320784	0	0	0
0.00032412	0	0	0
0.000324177	0	0	0
0.000324443	0	0	0
0.00032874	0	0	0
0.000329343	0	0	0
0.000332021	0	0	0
0.000334557	0	0	0
0.000335468	0	0	0
0.000335774	0	0	0
0.000336506	0	0	0
0.00033814	0	0	0
0.000340642	0	0	0
0.000340968	0	0	0
0.000342134	0	0	0
0.000343075	0	0	0
0.000344033	0	0	0
0.00034433	0	0	0
0.000347877	0	0	0
0.000349467	0	0	0
0.000349488	0	0	0
0.000351893	0	0	0
0.000353652	0	0	0
0.000356905	0	0	0
0.000358487	0	0	0
0.000358941	0	0	0
0.000358945	0	0	0
0.000359093	0	0	0
0.000359865	0	0	0
0.000369356	0	0	0
0.000370024	0	0	0
0.000371704	0	0	0
0.000372772	0	0	0
0.000374331	0	0	0
0.000375128	0	0	0
0.000378284	0	0	0
0.000380076	0	0	0
0.000380717	0	0	0
0.000384145	0	0	0
0.0003892	0	0	0
0.000390294	0	0	0
0.000395276	0	0	0
0.000395494	0	0	0
0.000400792	0	0	0
0.000401259	0	0	0
0.000402181	0	0	0
0.000405264	0	0	0
0.000405799	0	0	0
0.000407593	0	0	0
0.000409586	0	0	0
0.000412032	0	0	0
0.000413772	0	0	0
0.000414156	0	0	0
0.000415034	0	0	0
0.000415592	0	0	0
0.000416251	0	0	0
0.000418341	0	0	0
0.000419439	0	0	0
0.000421267	0	0	0
0.000427521	0	0	0
0.00043032	0	0	0
0.000432749	0	0	0
0.000433075	0	0	0
0.00043717	0	0	0
0.00043835	0	0	0
0.000442952	0	0	0
0.000446063	0	0	0
0.000447477	0	0	0
0.000450445	0	0	0
0.000451415	0	0	0
0.000454456	0	0	0
0.000460681	0	0	0
0.000468513	0	0	0
0.000468977	0	0	0
0.00047376	0	0	0
0.000474517	0	0	0
0.000477362	0	0	0
0.000477448	0	0	0
0.000489129	0	0	0
0.000498725	0	0	0
0.000500767	0	0	0
0.000501625	0	0	0
0.000501915	0	0	0
0.000504087	0	0	0
0.000510466	0	0	0
0.000511826	0	0	0
0.000514537	0	0	0
0.000527667	0	0	0
0.000529143	0	0	0
0.000532116	0	0	0
0.000537602	0	0	0
0.000537857	0	0	0
0.000539969	0	0	0
0.000540615	0	0	0
0.000540759	0	0	0
0.000541458	0	0	0
0.000546165	0	0	0
0.000549435	0	0	0
0.00055048	0	0	0
0.00055313	0	0	0
0.000553368	0	0	0
0.000553958	0	0	0
0.000555014	0	0	0
0.000556079	0	0	0
0.000569323	0	0	0
0.000572368	0	0	0
0.000579	0	0	0
0.000580118	0	0	0
0.000583123	0	0	0
0.000584761	0	0	0
0.00058943	0	0	0
0.000590687	0	0	0
0.0005908	0	0	0
0.00059463	0	0	0
0.000594953	0	0	0
0.000598667	0	0	0
0.000598829	0	0	0
0.000599331	0	0	0
0.000601678	0	0	0
0.000602912	0	0	0
0.000603169	0	0	0
0.00060891	0	0	0
0.000614585	0	0	0
0.000615516	0	0	0
0.000617119	0	0	0
0.000632341	0	0	0
0.000646154	0	0	0
0.000651757	0	0	0
0.000661094	0	0	0
0.000667505	0	0	0
0.000668778	0	0	0
0.000672049	0	0	0
0.000672265	0	0	0
0.000672755	0	0	0
0.000673094	0	0	0
0.000684962	0	0	0
0.000685604	0	0	0
0.000686919	0	0	0
0.000690131	0	0	0
0.000691001	0	0	0
0.000704787	0	0	0
0.000708974	0	0	0
0.000752012	0	0	0
0.000757133	0	0	0
0.000759508	0	0	0
0.000762146	0	0	0
0.000792406	0	0	0
0.000813613	0	0	0
0.000830164	0	0	0
0.000834015	0	0	0
0.000836178	0	0	0
0.000890758	0	0	0
0.000898296	0	0	0
0.000898661	0	0	0
0.000906346	0	0	0
0.00092102	0	0	0
0.000948529	0	0	0
0.000951524	0	0	0
0.000986078	0	0	0
0.0010779	0	0	0
0.00123969	0	0	0
0.00179703	0	0	0
0.0021523	0	0	0
