7.27733e-09	0	0	0
4.2035e-07	0	0	0
4.98553e-07	0	0	0
6.04323e-07	0	0	0
6.22138e-07	0	0	0
7.8922e-07	0	0	0
9.33765e-07	0	0	0
9.68507e-07	0	0	0
1.00927e-06	0	0	0
1.42748e-06	0	0	0
1.43052e-06	0	0	0
1.50934e-06	0	0	0
1.56613e-06	0	0	0
1.64964e-06	0	0	0
1.6817e-06	0	0	0
2.25617e-06	0	0	0
2.3235e-06	0	0	0
2.36337e-06	0	0	0
2.61533e-06	0	0	0
2.85365e-06	0	0	0
3.23857e-06	0	0	0
3.42045e-06	0	0	0
3.64741e-06	0	0	0
4.22296e-06	0	0	0
4.60853e-06	0	0	0
4.98175e-06	0	0	0
5.0409e-06	0	0	0
5.18401e-06	0	0	0
5.47637e-06	0	0	0
5.51212e-06	0	0	0
5.51613e-06	0	0	0
5.62126e-06	0	0	0
5.91728e-06	0	0	0
6.00165e-06	0	0	0
6.03054e-06	0	0	0
6.05862e-06	0	0	0
6.23407e-06	0	0	0
6.39437e-06	0	0	0
6.61133e-06	0	0	0
6.66186e-06	0	0	0
7.05532e-06	0	0	0
7.09937e-06	0	0	0
7.48462e-06	0	0	0
7.59415e-06	0	0	0
7.62806e-06	0	0	0
7.74562e-06	0	0	0
7.84781e-06	0	0	0
8.36082e-06	0	0	0
8.725e-06	0	0	0
8.76442e-06	0	0	0
9.00623e-06	0	0	0
9.05729e-06	0	0	0
9.4476e-06	0	0	0
9.58126e-06	0	0	0
1.00959e-05	0	0	0
1.02444e-05	0	0	0
1.02891e-05	0	0	0
1.03796e-05	0	0	0
1.05539e-05	0	0	0
1.06047e-05	0	0	0
1.0717e-05	0	0	0
1.08015e-05	0	0	0
1.08173e-05	0	0	0
1.1354e-05	0	0	0
1.14795e-05	0	0	0
1.14833e-05	0	0	0
1.15387e-05	0	0	0
1.15653e-05	0	0	0
1.15704e-05	0	0	0
1.18564e-05	0	0	0
1.18847e-05	0	0	0
1.19408e-05	0	0	0
1.23034e-05	0	0	0
1.23383e-05	0	0	0
1.2476e-05	0	0	0
1.29109e-05	0	0	0
1.29109e-05	0	0	0
1.29475e-05	0	0	0
1.31355e-05	0	0	0
1.31731e-05	0	0	0
1.3239e-05	0	0	0
1.34751e-05	0	0	0
1.35034e-05	0	0	0
1.37569e-05	0	0	0
1.37759e-05	0	0	0
1.40201e-05	0	0	0
1.41572e-05	0	0	0
1.45236e-05	0	0	0
1.46657e-05	0	0	0
1.46701e-05	0	0	0
1.49231e-05	0	0	0
1.51392e-05	0	0	0
1.52107e-05	0	0	0
1.53176e-05	0	0	0
1.55491e-05	0	0	0
1.57481e-05	0	0	0
1.58754e-05	0	0	0
1.6163e-05	0	0	0
1.62708e-05	0	0	0
1.65263e-05	0	0	0
1.71038e-05	0	0	0
1.71324e-05	0	0	0
1.78147e-05	0	0	0
1.78501e-05	0	0	0
1.78969e-05	0	0	0
1.81953e-05	0	0	0
1.8507e-05	0	0	0
1.90797e-05	0	0	0
1.95092e-05	0	0	0
1.95779e-05	0	0	0
2.00894e-05	0	0	0
2.02038e-05	0	0	0
2.02866e-05	0	0	0
2.06804e-05	0	0	0
2.10578e-05	0	0	0
2.14983e-05	0	0	0
2.16295e-05	0	0	0
2.17376e-05	0	0	0
2.18173e-05	0	0	0
2.19221e-05	0	0	0
2.19626e-05	0	0	0
2.23507e-05	0	0	0
2.31483e-05	0	0	0
2.32088e-05	0	0	0
2.32157e-05	0	0	0
2.33393e-05	0	0	0
2.34012e-05	0	0	0
2.34199e-05	0	0	0
2.38739e-05	0	0	0
2.40309e-05	0	0	0
2.43691e-05	0	0	0
2.49227e-05	0	0	0
2.49373e-05	0	0	0
2.49429e-05	0	0	0
2.60295e-05	0	0	0
2.64501e-05	0	0	0
2.65929e-05	0	0	0
2.66127e-05	0	0	0
2.66609e-05	0	0	0
2.67984e-05	0	0	0
2.71481e-05	0	0	0
2.7205e-05	0	0	0
2.72092e-05	0	0	0
2.74518e-05	0	0	0
2.80213e-05	0	0	0
2.80264e-05	0	0	0
2.81303e-05	0	0	0
2.83706e-05	0	0	0
2.84739e-05	0	0	0
2.85176e-05	0	0	0
2.95653e-05	0	0	0
2.98145e-05	0	0	0
3.03506e-05	0	0	0
3.04051e-05	0	0	0
3.06193e-05	0	0	0
3.06386e-05	0	0	0
3.06649e-05	0	0	0
3.07412e-05	0	0	0
3.09579e-05	0	0	0
3.1392e-05	0	0	0
3.14584e-05	0	0	0
3.20124e-05	0	0	0
3.2074e-05	0	0	0
3.23538e-05	0	0	0
3.27348e-05	0	0	0
3.28972e-05	0	0	0
3.30308e-05	0	0	0
3.30873e-05	0	0	0
3.35844e-05	0	0	0
3.36626e-05	0	0	0
3.42283e-05	0	0	0
3.42574e-05	0	0	0
3.49732e-05	0	0	0
3.51488e-05	0	0	0
3.53241e-05	0	0	0
3.54782e-05	0	0	0
3.55713e-05	0	0	0
3.65212e-05	0	0	0
3.6814e-05	0	0	0
3.70444e-05	0	0	0
3.73267e-05	0	0	0
3.7633e-05	0	0	0
3.81627e-05	0	0	0
3.83443e-05	0	0	0
3.84369e-05	0	0	0
3.85251e-05	0	0	0
3.8879e-05	0	0	0
3.90924e-05	0	0	0
3.91769e-05	0	0	0
3.92916e-05	0	0	0
3.94324e-05	0	0	0
3.98842e-05	0	0	0
4.07673e-05	0	0	0
4.10504e-05	0	0	0
4.11713e-05	0	0	0
4.13716e-05	0	0	0
4.14718e-05	0	0	0
4.25836e-05	0	0	0
4.37578e-05	0	0	0
4.38023e-05	0	0	0
4.40429e-05	0	0	0
4.46354e-05	0	0	0
4.47001e-05	0	0	0
4.49199e-05	0	0	0
4.53656e-05	0	0	0
4.57917e-05	0	0	0
4.60491e-05	0	0	0
4.60668e-05	0	0	0
4.66063e-05	0	0	0
4.676e-05	0	0	0
4.69227e-05	0	0	0
4.69506e-05	0	0	0
4.70466e-05	0	0	0
4.76509e-05	0	0	0
4.78933e-05	0	0	0
4.81003e-05	0	0	0
4.83328e-05	0	0	0
4.87437e-05	0	0	0
4.9199e-05	0	0	0
4.94359e-05	0	0	0
5.04166e-05	0	0	0
5.04425e-05	0	0	0
5.09685e-05	0	0	0
5.23557e-05	0	0	0
5.25911e-05	0	0	0
5.28762e-05	0	0	0
5.29345e-05	0	0	0
5.29928e-05	0	0	0
5.37067e-05	0	0	0
5.39687e-05	0	0	0
5.41439e-05	0	0	0
5.42066e-05	0	0	0
5.44508e-05	0	0	0
5.45946e-05	0	0	0
5.46715e-05	0	0	0
5.51862e-05	0	0	0
5.54799e-05	0	0	0
5.61385e-05	0	0	0
5.62203e-05	0	0	0
5.63604e-05	0	0	0
5.66471e-05	0	0	0
5.66946e-05	0	0	0
5.68835e-05	0	0	0
5.73382e-05	0	0	0
5.74103e-05	0	0	0
5.77066e-05	0	0	0
5.85537e-05	0	0	0
5.88e-05	0	0	0
5.90653e-05	0	0	0
6.08246e-05	0	0	0
6.13323e-05	0	0	0
6.15768e-05	0	0	0
6.17533e-05	0	0	0
6.19584e-05	0	0	0
6.2365e-05	0	0	0
6.25181e-05	0	0	0
6.29854e-05	0	0	0
6.34608e-05	0	0	0
6.46448e-05	0	0	0
6.64462e-05	0	0	0
6.70068e-05	0	0	0
6.73183e-05	0	0	0
6.74483e-05	0	0	0
6.80499e-05	0	0	0
6.88596e-05	0	0	0
6.91486e-05	0	0	0
7.03642e-05	0	0	0
7.05013e-05	0	0	0
7.05084e-05	0	0	0
7.10952e-05	0	0	0
7.20849e-05	0	0	0
7.25617e-05	0	0	0
7.25753e-05	0	0	0
7.3354e-05	0	0	0
7.35338e-05	0	0	0
7.36378e-05	0	0	0
7.36785e-05	0	0	0
7.38775e-05	0	0	0
7.41019e-05	0	0	0
7.54905e-05	0	0	0
7.58635e-05	0	0	0
7.58663e-05	0	0	0
7.63365e-05	0	0	0
7.66624e-05	0	0	0
7.70018e-05	0	0	0
7.70621e-05	0	0	0
7.71427e-05	0	0	0
7.76601e-05	0	0	0
7.79478e-05	0	0	0
7.9141e-05	0	0	0
8.0853e-05	0	0	0
8.19371e-05	0	0	0
8.25715e-05	0	0	0
8.28286e-05	0	0	0
8.32859e-05	0	0	0
8.41768e-05	0	0	0
8.42829e-05	0	0	0
8.45614e-05	0	0	0
8.60031e-05	0	0	0
8.61936e-05	0	0	0
8.73178e-05	0	0	0
8.89526e-05	0	0	0
8.89892e-05	0	0	0
8.92899e-05	0	0	0
8.93129e-05	0	0	0
8.9469e-05	0	0	0
8.97938e-05	0	0	0
9.02122e-05	0	0	0
9.0612e-05	0	0	0
9.06503e-05	0	0	0
9.31967e-05	0	0	0
9.38692e-05	0	0	0
9.41052e-05	0	0	0
9.42371e-05	0	0	0
9.55754e-05	0	0	0
9.8384e-05	0	0	0
9.92001e-05	0	0	0
9.92201e-05	0	0	0
9.9564e-05	0	0	0
9.98786e-05	0	0	0
0.000100003	0	0	0
0.00010017	0	0	0
0.000100459	0	0	0
0.000101559	0	0	0
0.000101774	0	0	0
0.000102192	0	0	0
0.000102345	0	0	0
0.000102532	0	0	0
0.000102692	0	0	0
0.000102735	0	0	0
0.000103	0	0	0
0.000104041	0	0	0
0.000107574	0	0	0
0.000107786	0	0	0
0.000108061	0	0	0
0.000108316	0	0	0
0.000108348	0	0	0
0.000108931	0	0	0
0.000109851	0	0	0
0.000109906	0	0	0
0.000110252	0	0	0
0.00011041	0	0	0
0.000113612	0	0	0
0.000113798	0	0	0
0.000114468	0	0	0
0.000114475	0	0	0
0.000114573	0	0	0
0.000115521	0	0	0
0.000116187	0	0	0
0.000116588	0	0	0
0.000117345	0	0	0
0.000118738	0	0	0
0.000118858	0	0	0
0.000119843	0	0	0
0.000119912	0	0	0
0.000120467	0	0	0
0.000120923	0	0	0
0.000121472	0	0	0
0.000121644	0	0	0
0.000121802	0	0	0
0.000122384	0	0	0
0.000123051	0	0	0
0.000123173	0	0	0
0.00012328	0	0	0
0.000123815	0	0	0
0.000125029	0	0	0
0.000125079	0	0	0
0.00012538	0	0	0
0.000126018	0	0	0
0.000126188	0	0	0
0.000126845	0	0	0
0.000128944	0	0	0
0.000129165	0	0	0
0.000131471	0	0	0
0.000131836	0	0	0
0.000132632	0	0	0
0.000133334	0	0	0
0.000133415	0	0	0
0.000135365	0	0	0
0.000135466	0	0	0
0.000135484	0	0	0
0.000137813	0	0	0
0.000138052	0	0	0
0.00013849	0	0	0
0.000139021	0	0	0
0.000139432	0	0	0
0.000139449	0	0	0
0.000140271	0	0	0
0.000140792	0	0	0
0.000141831	0	0	0
0.00014213	0	0	0
0.000142885	0	0	0
0.000144306	0	0	0
0.000146449	0	0	0
0.000147486	0	0	0
0.000148658	0	0	0
0.00014866	0	0	0
0.000149027	0	0	0
0.000149303	0	0	0
0.000150538	0	0	0
0.00015146	0	0	0
0.000151578	0	0	0
0.000152584	0	0	0
0.000154582	0	0	0
0.000154608	0	0	0
0.00015509	0	0	0
0.000157261	0	0	0
0.000159171	0	0	0
0.000159627	0	0	0
0.000159844	0	0	0
0.000160503	0	0	0
0.000161827	0	0	0
0.000163349	0	0	0
0.000163554	0	0	0
0.000163815	0	0	0
0.000165366	0	0	0
0.00016575	0	0	0
0.000168673	0	0	0
0.00016916	0	0	0
0.00017409	0	0	0
0.000175774	0	0	0
0.00017823	0	0	0
0.000179409	0	0	0
0.000180386	0	0	0
0.000180816	0	0	0
0.000181023	0	0	0
0.000181457	0	0	0
0.000181546	0	0	0
0.000181724	0	0	0
0.000184271	0	0	0
0.000184808	0	0	0
0.000185214	0	0	0
0.000185413	0	0	0
0.000186028	0	0	0
0.000187181	0	0	0
0.0001883	0	0	0
0.00019051	0	0	0
0.000190558	0	0	0
0.000193105	0	0	0
0.000194231	0	0	0
0.000196699	0	0	0
0.000197725	0	0	0
0.000199504	0	0	0
0.000199789	0	0	0
0.000200996	0	0	0
0.000201569	0	0	0
0.0002021	0	0	0
0.000202363	0	0	0
0.000202442	0	0	0
0.000208304	0	0	0
0.000208334	0	0	0
0.000210538	0	0	0
0.000211174	0	0	0
0.000211664	0	0	0
0.0002126	0	0	0
0.000213284	0	0	0
0.000213973	0	0	0
0.000216765	0	0	0
0.000217273	0	0	0
0.000218377	0	0	0
0.000219545	0	0	0
0.000220573	0	0	0
0.000221163	0	0	0
0.000223773	0	0	0
0.000225088	0	0	0
0.00022536	0	0	0
0.000228246	0	0	0
0.000229532	0	0	0
0.000229611	0	0	0
0.000230933	0	0	0
0.000231798	0	0	0
0.000232508	0	0	0
0.000233525	0	0	0
0.000241137	0	0	0
0.000241252	0	0	0
0.000243815	0	0	0
0.000245152	0	0	0
0.000246227	0	0	0
0.000247955	0	0	0
0.000248013	0	0	0
0.000250395	0	0	0
0.000252065	0	0	0
0.000252174	0	0	0
0.000252379	0	0	0
0.0002537	0	0	0
0.000253894	0	0	0
0.00025518	0	0	0
0.000257037	0	0	0
0.000258974	0	0	0
0.000259288	0	0	0
0.000259555	0	0	0
0.000259752	0	0	0
0.000260156	0	0	0
0.000262324	0	0	0
0.000264226	0	0	0
0.000265296	0	0	0
0.000266698	0	0	0
0.000266795	0	0	0
0.000268318	0	0	0
0.00026851	0	0	0
0.000270965	0	0	0
0.000271185	0	0	0
0.000271469	0	0	0
0.000271536	0	0	0
0.000273664	0	0	0
0.000274237	0	0	0
0.000279405	0	0	0
0.000285812	0	0	0
0.000288407	0	0	0
0.000292241	0	0	0
0.000295005	0	0	0
0.000295457	0	0	0
0.000298677	0	0	0
0.000300821	0	0	0
0.00030101	0	0	0
0.000301335	0	0	0
0.000302654	0	0	0
0.000302801	0	0	0
0.000305605	0	0	0
0.000308283	0	0	0
0.000311044	0	0	0
0.000312922	0	0	0
0.000320002	0	0	0
0.000322782	0	0	0
0.000323776	0	0	0
0.000323917	0	0	0
0.000327364	0	0	0
0.000327536	0	0	0
0.000328315	0	0	0
0.000328878	0	0	0
0.000332458	0	0	0
0.00033633	0	0	0
0.000339576	0	0	0
0.000339715	0	0	0
0.000340939	0	0	0
0.00034135	0	0	0
0.000346182	0	0	0
0.00034704	0	0	0
0.000349045	0	0	0
0.000350943	0	0	0
0.000351656	0	0	0
0.000352561	0	0	0
0.000353409	0	0	0
0.000356204	0	0	0
0.000356874	0	0	0
0.000364604	0	0	0
0.000364665	0	0	0
0.000364707	0	0	0
0.000370203	0	0	0
0.000378461	0	0	0
0.000380057	0	0	0
0.000380749	0	0	0
0.000384377	0	0	0
0.000387555	0	0	0
0.000390759	0	0	0
0.000392052	0	0	0
0.000392865	0	0	0
0.000399441	0	0	0
0.000400556	0	0	0
0.000401257	0	0	0
0.000403048	0	0	0
0.000405076	0	0	0
0.000407801	0	0	0
0.000416554	0	0	0
0.000419408	0	0	0
0.000421686	0	0	0
0.000422122	0	0	0
0.000424392	0	0	0
0.000425625	0	0	0
0.000426101	0	0	0
0.00042618	0	0	0
0.00042823	0	0	0
0.000432348	0	0	0
0.000439674	0	0	0
0.000440933	0	0	0
0.000443494	0	0	0
0.000445201	0	0	0
0.00044969	0	0	0
0.000450863	0	0	0
0.000455694	0	0	0
0.000461666	0	0	0
0.000463704	0	0	0
0.000464536	0	0	0
0.000466005	0	0	0
0.000466719	0	0	0
0.000467965	0	0	0
0.000468395	0	0	0
0.000474676	0	0	0
0.000480323	0	0	0
0.000486023	0	0	0
0.000487748	0	0	0
0.000488652	0	0	0
0.0004985	0	0	0
0.000500597	0	0	0
0.000500884	0	0	0
0.000502548	0	0	0
0.000503777	0	0	0
0.000519947	0	0	0
0.00052158	0	0	0
0.000524828	0	0	0
0.000535438	0	0	0
0.000544704	0	0	0
0.000545785	0	0	0
0.000548054	0	0	0
0.000558863	0	0	0
0.000576666	0	0	0
0.000595103	0	0	0
0.000612077	0	0	0
0.00061738	0	0	0
0.000624148	0	0	0
0.000626797	0	0	0
0.000627811	0	0	0
0.000644396	0	0	0
0.000652971	0	0	0
0.000653398	0	0	0
0.000664179	0	0	0
0.000667018	0	0	0
0.000670913	0	0	0
0.000673713	0	0	0
0.000678159	0	0	0
0.000687869	0	0	0
0.000705701	0	0	0
0.000729022	0	0	0
0.000741374	0	0	0
0.000741985	0	0	0
0.000759756	0	0	0
0.000761247	0	0	0
0.00078279	0	0	0
0.000784299	0	0	0
0.00083731	0	0	0
0.000858412	0	0	0
0.000877226	0	0	0
0.000882106	0	0	0
0.000935366	0	0	0
0.000986355	0	0	0
0.000990495	0	0	0
0.0010138	0	0	0
0.0010625	0	0	0
0.00107909	0	0	0
0.00108915	0	0	0
0.00120326	0	0	0
0.00125357	0	0	0
0.00138828	0	0	0
0.00140373	0	0	0
0.00178515	0	0	0
0.00242006	0	0	0
