8.66361e-08	0	0	0
1.43202e-07	0	0	0
2.17476e-07	0	0	0
3.73907e-07	0	0	0
5.34082e-07	0	0	0
6.12164e-07	0	0	0
6.32487e-07	0	0	0
8.74973e-07	0	0	0
1.26347e-06	0	0	0
1.53861e-06	0	0	0
1.65347e-06	0	0	0
1.87116e-06	0	0	0
2.25168e-06	0	0	0
2.38253e-06	0	0	0
2.39081e-06	0	0	0
2.42405e-06	0	0	0
2.57162e-06	0	0	0
2.61224e-06	0	0	0
2.67891e-06	0	0	0
2.77975e-06	0	0	0
2.98748e-06	0	0	0
3.11374e-06	0	0	0
3.22778e-06	0	0	0
3.99809e-06	0	0	0
4.21856e-06	0	0	0
4.27544e-06	0	0	0
4.30348e-06	0	0	0
4.52496e-06	0	0	0
4.89407e-06	0	0	0
5.16139e-06	0	0	0
5.29621e-06	0	0	0
5.56632e-06	0	0	0
5.91649e-06	0	0	0
5.92299e-06	0	0	0
6.16183e-06	0	0	0
6.3131e-06	0	0	0
6.38089e-06	0	0	0
6.43359e-06	0	0	0
6.4659e-06	0	0	0
6.67981e-06	0	0	0
6.69745e-06	0	0	0
6.73455e-06	0	0	0
6.74668e-06	0	0	0
6.78055e-06	0	0	0
6.93732e-06	0	0	0
7.25385e-06	0	0	0
7.75699e-06	0	0	0
8.22544e-06	0	0	0
8.45549e-06	0	0	0
8.55549e-06	0	0	0
9.05891e-06	0	0	0
9.25488e-06	0	0	0
9.38619e-06	0	0	0
1.01854e-05	0	0	0
1.0218e-05	0	0	0
1.02221e-05	0	0	0
1.04853e-05	0	0	0
1.08293e-05	0	0	0
1.10721e-05	0	0	0
1.11415e-05	0	0	0
1.13284e-05	0	0	0
1.14149e-05	0	0	0
1.17429e-05	0	0	0
1.19435e-05	0	0	0
1.23292e-05	0	0	0
1.25433e-05	0	0	0
1.28344e-05	0	0	0
1.31363e-05	0	0	0
1.32285e-05	0	0	0
1.33695e-05	0	0	0
1.36651e-05	0	0	0
1.37376e-05	0	0	0
1.37647e-05	0	0	0
1.38801e-05	0	0	0
1.3923e-05	0	0	0
1.40968e-05	0	0	0
1.41651e-05	0	0	0
1.42996e-05	0	0	0
1.52211e-05	0	0	0
1.57461e-05	0	0	0
1.61908e-05	0	0	0
1.6271e-05	0	0	0
1.6753e-05	0	0	0
1.67839e-05	0	0	0
1.73637e-05	0	0	0
1.76491e-05	0	0	0
1.77401e-05	0	0	0
1.79286e-05	0	0	0
1.79713e-05	0	0	0
1.83947e-05	0	0	0
1.85702e-05	0	0	0
1.91043e-05	0	0	0
1.91099e-05	0	0	0
1.91356e-05	0	0	0
1.91634e-05	0	0	0
1.91944e-05	0	0	0
1.92394e-05	0	0	0
1.92908e-05	0	0	0
1.9421e-05	0	0	0
2.01035e-05	0	0	0
2.01575e-05	0	0	0
2.03319e-05	0	0	0
2.0443e-05	0	0	0
2.06439e-05	0	0	0
2.07022e-05	0	0	0
2.07658e-05	0	0	0
2.10857e-05	0	0	0
2.11399e-05	0	0	0
2.1269e-05	0	0	0
2.14682e-05	0	0	0
2.18878e-05	0	0	0
2.21791e-05	0	0	0
2.24244e-05	0	0	0
2.24744e-05	0	0	0
2.25113e-05	0	0	0
2.26733e-05	0	0	0
2.2898e-05	0	0	0
2.31851e-05	0	0	0
2.39671e-05	0	0	0
2.46814e-05	0	0	0
2.51687e-05	0	0	0
2.52369e-05	0	0	0
2.52867e-05	0	0	0
2.54722e-05	0	0	0
2.55554e-05	0	0	0
2.56697e-05	0	0	0
2.58922e-05	0	0	0
2.58992e-05	0	0	0
2.61975e-05	0	0	0
2.63908e-05	0	0	0
2.70207e-05	0	0	0
2.72816e-05	0	0	0
2.77215e-05	0	0	0
2.81717e-05	0	0	0
2.82736e-05	0	0	0
2.85425e-05	0	0	0
2.8983e-05	0	0	0
2.92308e-05	0	0	0
2.93014e-05	0	0	0
2.94456e-05	0	0	0
2.98101e-05	0	0	0
2.99958e-05	0	0	0
3.00413e-05	0	0	0
3.01522e-05	0	0	0
3.07589e-05	0	0	0
3.08245e-05	0	0	0
3.08274e-05	0	0	0
3.09864e-05	0	0	0
3.10199e-05	0	0	0
3.14156e-05	0	0	0
3.17402e-05	0	0	0
3.18015e-05	0	0	0
3.19522e-05	0	0	0
3.25941e-05	0	0	0
3.29588e-05	0	0	0
3.32464e-05	0	0	0
3.3466e-05	0	0	0
3.35091e-05	0	0	0
3.40801e-05	0	0	0
3.43324e-05	0	0	0
3.46412e-05	0	0	0
3.46547e-05	0	0	0
3.48251e-05	0	0	0
3.49366e-05	0	0	0
3.5092e-05	0	0	0
3.52743e-05	0	0	0
3.55123e-05	0	0	0
3.56821e-05	0	0	0
3.60399e-05	0	0	0
3.6207e-05	0	0	0
3.64243e-05	0	0	0
3.64972e-05	0	0	0
3.70852e-05	0	0	0
3.71084e-05	0	0	0
3.72828e-05	0	0	0
3.73004e-05	0	0	0
3.74509e-05	0	0	0
3.78638e-05	0	0	0
3.85306e-05	0	0	0
3.89058e-05	0	0	0
3.94133e-05	0	0	0
3.94917e-05	0	0	0
3.94996e-05	0	0	0
3.98563e-05	0	0	0
4.04179e-05	0	0	0
4.0515e-05	0	0	0
4.06211e-05	0	0	0
4.08412e-05	0	0	0
4.12666e-05	0	0	0
4.14489e-05	0	0	0
4.14976e-05	0	0	0
4.18723e-05	0	0	0
4.21734e-05	0	0	0
4.25352e-05	0	0	0
4.25472e-05	0	0	0
4.34367e-05	0	0	0
4.40776e-05	0	0	0
4.40894e-05	0	0	0
4.46287e-05	0	0	0
4.48668e-05	0	0	0
4.53039e-05	0	0	0
4.65285e-05	0	0	0
4.67046e-05	0	0	0
4.74397e-05	0	0	0
4.74607e-05	0	0	0
4.79883e-05	0	0	0
4.84407e-05	0	0	0
4.85001e-05	0	0	0
4.85632e-05	0	0	0
4.87772e-05	0	0	0
4.93094e-05	0	0	0
5.10502e-05	0	0	0
5.1598e-05	0	0	0
5.1636e-05	0	0	0
5.16689e-05	0	0	0
5.25301e-05	0	0	0
5.2659e-05	0	0	0
5.3102e-05	0	0	0
5.44594e-05	0	0	0
5.46375e-05	0	0	0
5.52939e-05	0	0	0
5.5524e-05	0	0	0
5.5697e-05	0	0	0
5.58342e-05	0	0	0
5.64588e-05	0	0	0
5.69643e-05	0	0	0
5.71764e-05	0	0	0
5.74124e-05	0	0	0
5.76079e-05	0	0	0
5.79205e-05	0	0	0
5.82197e-05	0	0	0
5.87465e-05	0	0	0
5.92834e-05	0	0	0
6.01766e-05	0	0	0
6.0436e-05	0	0	0
6.05299e-05	0	0	0
6.06101e-05	0	0	0
6.06436e-05	0	0	0
6.09101e-05	0	0	0
6.09526e-05	0	0	0
6.147e-05	0	0	0
6.15537e-05	0	0	0
6.17574e-05	0	0	0
6.17816e-05	0	0	0
6.19186e-05	0	0	0
6.19222e-05	0	0	0
6.23488e-05	0	0	0
6.25034e-05	0	0	0
6.29437e-05	0	0	0
6.43509e-05	0	0	0
6.44048e-05	0	0	0
6.47113e-05	0	0	0
6.47762e-05	0	0	0
6.49535e-05	0	0	0
6.52871e-05	0	0	0
6.52893e-05	0	0	0
6.54942e-05	0	0	0
6.56878e-05	0	0	0
6.57464e-05	0	0	0
6.7401e-05	0	0	0
6.80693e-05	0	0	0
6.81215e-05	0	0	0
6.82259e-05	0	0	0
6.83016e-05	0	0	0
6.83436e-05	0	0	0
6.89669e-05	0	0	0
6.93293e-05	0	0	0
6.93819e-05	0	0	0
6.94695e-05	0	0	0
6.9541e-05	0	0	0
7.11763e-05	0	0	0
7.18428e-05	0	0	0
7.20581e-05	0	0	0
7.21134e-05	0	0	0
7.24806e-05	0	0	0
7.25883e-05	0	0	0
7.27868e-05	0	0	0
7.29487e-05	0	0	0
7.29641e-05	0	0	0
7.55303e-05	0	0	0
7.58203e-05	0	0	0
7.59009e-05	0	0	0
7.62302e-05	0	0	0
7.64124e-05	0	0	0
7.69576e-05	0	0	0
7.79863e-05	0	0	0
7.88041e-05	0	0	0
7.97099e-05	0	0	0
8.03052e-05	0	0	0
8.05691e-05	0	0	0
8.06313e-05	0	0	0
8.06721e-05	0	0	0
8.12815e-05	0	0	0
8.23692e-05	0	0	0
8.60775e-05	0	0	0
8.66452e-05	0	0	0
8.69668e-05	0	0	0
8.75578e-05	0	0	0
8.76001e-05	0	0	0
8.80192e-05	0	0	0
8.83626e-05	0	0	0
8.91153e-05	0	0	0
8.91873e-05	0	0	0
8.92364e-05	0	0	0
9.04078e-05	0	0	0
9.0784e-05	0	0	0
9.3007e-05	0	0	0
9.30248e-05	0	0	0
9.3081e-05	0	0	0
9.36888e-05	0	0	0
9.40367e-05	0	0	0
9.41734e-05	0	0	0
9.46765e-05	0	0	0
9.526e-05	0	0	0
9.52795e-05	0	0	0
9.52906e-05	0	0	0
9.5683e-05	0	0	0
9.6042e-05	0	0	0
9.61862e-05	0	0	0
9.6337e-05	0	0	0
9.81996e-05	0	0	0
9.8247e-05	0	0	0
9.90516e-05	0	0	0
0.00010178	0	0	0
0.000102294	0	0	0
0.000102926	0	0	0
0.000104161	0	0	0
0.000104606	0	0	0
0.000104619	0	0	0
0.000105251	0	0	0
0.000105593	0	0	0
0.000106098	0	0	0
0.000106426	0	0	0
0.000107155	0	0	0
0.000107737	0	0	0
0.000107772	0	0	0
0.000108119	0	0	0
0.000109247	0	0	0
0.000109326	0	0	0
0.000110125	0	0	0
0.000110541	0	0	0
0.000113812	0	0	0
0.000114674	0	0	0
0.00011555	0	0	0
0.000115704	0	0	0
0.000115891	0	0	0
0.000116293	0	0	0
0.000117643	0	0	0
0.000118021	0	0	0
0.000118655	0	0	0
0.000119035	0	0	0
0.000119115	0	0	0
0.000119808	0	0	0
0.000119841	0	0	0
0.00011987	0	0	0
0.000121108	0	0	0
0.000121461	0	0	0
0.000121955	0	0	0
0.000123082	0	0	0
0.000124211	0	0	0
0.00012439	0	0	0
0.000124591	0	0	0
0.000124686	0	0	0
0.00012501	0	0	0
0.000126592	0	0	0
0.000128608	0	0	0
0.000130871	0	0	0
0.000131658	0	0	0
0.000131678	0	0	0
0.000131699	0	0	0
0.000131993	0	0	0
0.000133579	0	0	0
0.000136095	0	0	0
0.000137311	0	0	0
0.0001383	0	0	0
0.000138743	0	0	0
0.000139357	0	0	0
0.000140572	0	0	0
0.000143436	0	0	0
0.000143718	0	0	0
0.000143937	0	0	0
0.000144029	0	0	0
0.000144074	0	0	0
0.000146651	0	0	0
0.000146664	0	0	0
0.000147111	0	0	0
0.000148213	0	0	0
0.000148605	0	0	0
0.000148791	0	0	0
0.000149951	0	0	0
0.00015113	0	0	0
0.000153027	0	0	0
0.000153097	0	0	0
0.000153531	0	0	0
0.000153632	0	0	0
0.000156002	0	0	0
0.000157842	0	0	0
0.000158078	0	0	0
0.000159298	0	0	0
0.000159485	0	0	0
0.00015992	0	0	0
0.000160605	0	0	0
0.000161113	0	0	0
0.000161773	0	0	0
0.000161922	0	0	0
0.00016309	0	0	0
0.000165229	0	0	0
0.000167254	0	0	0
0.000168154	0	0	0
0.000168724	0	0	0
0.00016941	0	0	0
0.000171543	0	0	0
0.000171548	0	0	0
0.000171579	0	0	0
0.00017187	0	0	0
0.000173433	0	0	0
0.000174166	0	0	0
0.000176089	0	0	0
0.000176373	0	0	0
0.000177025	0	0	0
0.000178658	0	0	0
0.000179896	0	0	0
0.00018079	0	0	0
0.000181025	0	0	0
0.000183654	0	0	0
0.000185035	0	0	0
0.000185273	0	0	0
0.000185617	0	0	0
0.000186722	0	0	0
0.00018774	0	0	0
0.000192484	0	0	0
0.000192897	0	0	0
0.000194053	0	0	0
0.000196247	0	0	0
0.000196334	0	0	0
0.000199762	0	0	0
0.0001999	0	0	0
0.000200356	0	0	0
0.000203152	0	0	0
0.000204942	0	0	0
0.000205562	0	0	0
0.000206407	0	0	0
0.000206815	0	0	0
0.00020838	0	0	0
0.000209082	0	0	0
0.0002091	0	0	0
0.000210958	0	0	0
0.000211789	0	0	0
0.000213652	0	0	0
0.000216393	0	0	0
0.000216824	0	0	0
0.000219031	0	0	0
0.000219438	0	0	0
0.000222068	0	0	0
0.000222447	0	0	0
0.000225753	0	0	0
0.000231995	0	0	0
0.000233006	0	0	0
0.000233008	0	0	0
0.000233677	0	0	0
0.000238665	0	0	0
0.000239975	0	0	0
0.000244775	0	0	0
0.000246217	0	0	0
0.000246697	0	0	0
0.000247975	0	0	0
0.000248307	0	0	0
0.000249489	0	0	0
0.000250133	0	0	0
0.000250514	0	0	0
0.000253515	0	0	0
0.000254087	0	0	0
0.000254288	0	0	0
0.00025432	0	0	0
0.000260038	0	0	0
0.000262478	0	0	0
0.000262738	0	0	0
0.000263266	0	0	0
0.000263431	0	0	0
0.000264911	0	0	0
0.000265518	0	0	0
0.000265699	0	0	0
0.000269267	0	0	0
0.000269597	0	0	0
0.000271474	0	0	0
0.000273063	0	0	0
0.000273885	0	0	0
0.000274323	0	0	0
0.000275678	0	0	0
0.000275911	0	0	0
0.000276303	0	0	0
0.000276364	0	0	0
0.000277183	0	0	0
0.000277418	0	0	0
0.000279484	0	0	0
0.000281534	0	0	0
0.000281918	0	0	0
0.000282072	0	0	0
0.000283313	0	0	0
0.000285036	0	0	0
0.000285157	0	0	0
0.00028698	0	0	0
0.000287387	0	0	0
0.000287407	0	0	0
0.000287854	0	0	0
0.000288122	0	0	0
0.000288265	0	0	0
0.000288868	0	0	0
0.000298659	0	0	0
0.00029903	0	0	0
0.000299994	0	0	0
0.000300179	0	0	0
0.000301139	0	0	0
0.000301722	0	0	0
0.000301804	0	0	0
0.000306293	0	0	0
0.000306381	0	0	0
0.000307792	0	0	0
0.000309512	0	0	0
0.000310751	0	0	0
0.000311887	0	0	0
0.000312869	0	0	0
0.000313482	0	0	0
0.000313792	0	0	0
0.000313809	0	0	0
0.000313887	0	0	0
0.000315748	0	0	0
0.00031643	0	0	0
0.000317636	0	0	0
0.000317643	0	0	0
0.000320742	0	0	0
0.000322466	0	0	0
0.000323443	0	0	0
0.000324348	0	0	0
0.000324709	0	0	0
0.000328212	0	0	0
0.000328703	0	0	0
0.000329961	0	0	0
0.000330534	0	0	0
0.000330853	0	0	0
0.000335752	0	0	0
0.000336301	0	0	0
0.000338335	0	0	0
0.000339809	0	0	0
0.000343623	0	0	0
0.000343684	0	0	0
0.000347828	0	0	0
0.000350113	0	0	0
0.00035022	0	0	0
0.000353707	0	0	0
0.000358699	0	0	0
0.000358803	0	0	0
0.000365579	0	0	0
0.000368514	0	0	0
0.000368666	0	0	0
0.000371712	0	0	0
0.000380822	0	0	0
0.000380976	0	0	0
0.000381476	0	0	0
0.000382509	0	0	0
0.000383457	0	0	0
0.000385014	0	0	0
0.000385798	0	0	0
0.00038771	0	0	0
0.00039362	0	0	0
0.000393875	0	0	0
0.000396357	0	0	0
0.000396991	0	0	0
0.000398041	0	0	0
0.000400769	0	0	0
0.000404302	0	0	0
0.00040718	0	0	0
0.000408542	0	0	0
0.000412905	0	0	0
0.000413703	0	0	0
0.000414331	0	0	0
0.000418158	0	0	0
0.00042344	0	0	0
0.000425142	0	0	0
0.000426858	0	0	0
0.000430114	0	0	0
0.000433514	0	0	0
0.000434065	0	0	0
0.000434502	0	0	0
0.00043549	0	0	0
0.000438507	0	0	0
0.000440072	0	0	0
0.000444692	0	0	0
0.000445868	0	0	0
0.000449629	0	0	0
0.000453269	0	0	0
0.000455454	0	0	0
0.000457794	0	0	0
0.000458844	0	0	0
0.000459262	0	0	0
0.000467792	0	0	0
0.000476692	0	0	0
0.000478702	0	0	0
0.000479768	0	0	0
0.000481377	0	0	0
0.000483825	0	0	0
0.000487798	0	0	0
0.000490011	0	0	0
0.000491942	0	0	0
0.000493613	0	0	0
0.000494426	0	0	0
0.000503497	0	0	0
0.000504124	0	0	0
0.000524509	0	0	0
0.000529992	0	0	0
0.000543402	0	0	0
0.000547565	0	0	0
0.000554936	0	0	0
0.00056005	0	0	0
0.00056295	0	0	0
0.000563283	0	0	0
0.000563717	0	0	0
0.000564688	0	0	0
0.000565564	0	0	0
0.000571763	0	0	0
0.000573221	0	0	0
0.000573252	0	0	0
0.000579647	0	0	0
0.000581998	0	0	0
0.000583234	0	0	0
0.000596344	0	0	0
0.00059753	0	0	0
0.000607115	0	0	0
0.000611249	0	0	0
0.000617419	0	0	0
0.000623175	0	0	0
0.000631594	0	0	0
0.000632842	0	0	0
0.00063474	0	0	0
0.000637817	0	0	0
0.000638891	0	0	0
0.000641764	0	0	0
0.00066903	0	0	0
0.000672869	0	0	0
0.00067954	0	0	0
0.000685225	0	0	0
0.000685244	0	0	0
0.000703879	0	0	0
0.000718278	0	0	0
0.000718683	0	0	0
0.000728581	0	0	0
0.000731091	0	0	0
0.000734201	0	0	0
0.000746075	0	0	0
0.000746317	0	0	0
0.000752142	0	0	0
0.000756327	0	0	0
0.000758791	0	0	0
0.000780587	0	0	0
0.000786079	0	0	0
0.000801497	0	0	0
0.000807169	0	0	0
0.000810818	0	0	0
0.000811726	0	0	0
0.000815925	0	0	0
0.000818328	0	0	0
0.000839055	0	0	0
0.000846999	0	0	0
0.00086028	0	0	0
0.000860545	0	0	0
0.000866496	0	0	0
0.000880381	0	0	0
0.000899176	0	0	0
0.000918777	0	0	0
0.000922909	0	0	0
0.000933672	0	0	0
0.000975708	0	0	0
0.00100651	0	0	0
0.00106509	0	0	0
0.00141863	0	0	0
0.00207927	0	0	0
