2.16119e-09	0	0	0
5.01689e-09	0	0	0
5.65653e-09	0	0	0
6.00651e-09	0	0	0
8.50414e-09	0	0	0
8.66273e-09	0	0	0
1.12162e-08	0	0	0
1.24785e-08	0	0	0
1.66319e-08	0	0	0
1.90427e-08	0	0	0
2.14242e-08	0	0	0
2.39608e-08	0	0	0
2.58889e-08	0	0	0
2.6277e-08	0	0	0
2.63264e-08	0	0	0
3.11692e-08	0	0	0
3.44294e-08	0	0	0
4.13002e-08	0	0	0
5.5021e-08	0	0	0
6.12821e-08	0	0	0
7.62462e-08	0	0	0
7.67091e-08	0	0	0
1.05608e-07	0	0	0
1.15019e-07	0	0	0
1.59999e-07	0	0	0
1.85173e-07	0	0	0
2.44508e-07	0	0	0
1.20695e-06	0	0	0
1.33575e-06	0	0	0
1.39938e-06	0	0	0
1.49185e-06	0	0	0
1.61994e-06	0	0	0
1.75699e-06	0	0	0
1.9514e-06	0	0	0
2.084e-06	0	0	0
2.53014e-06	0	0	0
2.79509e-06	0	0	0
2.86591e-06	0	0	0
5.75528e-06	0	0	0
6.82095e-06	0	0	0
7.05388e-06	0	0	0
7.40188e-06	0	0	0
9.64011e-06	0	0	0
