1.37171e-09	0	0	0
2.27626e-09	0	0	0
2.68971e-09	0	0	0
2.83274e-09	0	0	0
5.04382e-09	0	0	0
5.40421e-09	0	0	0
8.08655e-09	0	0	0
8.17943e-09	0	0	0
8.94734e-09	0	0	0
2.1809e-08	0	0	0
2.61227e-08	0	0	0
3.72228e-08	0	0	0
4.02148e-08	0	0	0
4.97744e-08	0	0	0
5.16154e-08	0	0	0
6.15825e-08	0	0	0
6.65674e-08	0	0	0
6.72773e-08	0	0	0
6.87253e-08	0	0	0
7.55861e-08	0	0	0
8.77695e-08	0	0	0
8.92905e-08	0	0	0
9.19673e-08	0	0	0
9.472e-08	0	0	0
1.01548e-07	0	0	0
1.07861e-07	0	0	0
1.43023e-07	0	0	0
1.91922e-07	0	0	0
3.26205e-07	0	0	0
3.41016e-07	0	0	0
4.1195e-07	0	0	0
4.17696e-07	0	0	0
4.22488e-07	0	0	0
4.81104e-07	0	0	0
7.84265e-07	0	0	0
8.03907e-07	0	0	0
2.33918e-06	0	0	0
5.17829e-06	0	0	0
5.20564e-06	0	0	0
8.46997e-06	0	0	0
1.09602e-05	0	0	0
9.90526e-05	0	0	0
