2.97841e-09	0	0	0
4.5201e-09	0	0	0
4.99603e-09	0	0	0
6.52062e-09	0	0	0
7.05197e-09	0	0	0
7.26845e-09	0	0	0
7.50727e-09	0	0	0
1.06616e-08	0	0	0
1.09709e-08	0	0	0
1.38932e-08	0	0	0
1.75868e-08	0	0	0
2.88007e-08	0	0	0
3.58635e-08	0	0	0
3.73435e-08	0	0	0
4.34082e-08	0	0	0
4.84719e-08	0	0	0
5.37207e-08	0	0	0
5.42217e-08	0	0	0
6.29776e-08	0	0	0
7.3012e-08	0	0	0
7.36652e-08	0	0	0
7.39652e-08	0	0	0
7.85552e-08	0	0	0
8.98736e-08	0	0	0
9.38147e-08	0	0	0
1.02183e-07	0	0	0
1.86154e-07	0	0	0
3.14143e-07	0	0	0
3.28863e-07	0	0	0
3.72653e-07	0	0	0
5.52125e-07	0	0	0
6.384e-07	0	0	0
7.13294e-07	0	0	0
8.009e-07	0	0	0
1.7095e-06	0	0	0
1.86613e-06	0	0	0
1.97526e-06	0	0	0
2.08989e-06	0	0	0
3.05983e-06	0	0	0
3.25047e-06	0	0	0
3.85031e-06	0	0	0
4.81496e-06	0	0	0
6.11935e-06	0	0	0
6.75409e-06	0	0	0
4.14587e-05	0	0	0
6.21732e-05	0	0	0
