7.53312e-11	0	0	0
1.88618e-09	0	0	0
3.99723e-09	0	0	0
4.23958e-09	0	0	0
4.74087e-09	0	0	0
5.78689e-09	0	0	0
1.23036e-08	0	0	0
1.2841e-08	0	0	0
1.64715e-08	0	0	0
1.66996e-08	0	0	0
1.70975e-08	0	0	0
2.04472e-08	0	0	0
2.06213e-08	0	0	0
2.31937e-08	0	0	0
2.43097e-08	0	0	0
2.61827e-08	0	0	0
3.20407e-08	0	0	0
3.28076e-08	0	0	0
3.43478e-08	0	0	0
3.56852e-08	0	0	0
4.46096e-08	0	0	0
5.7358e-08	0	0	0
6.28879e-08	0	0	0
6.75272e-08	0	0	0
7.30361e-08	0	0	0
9.85516e-08	0	0	0
1.41456e-07	0	0	0
1.84047e-07	0	0	0
1.85242e-07	0	0	0
3.95546e-07	0	0	0
4.53778e-07	0	0	0
5.02667e-07	0	0	0
6.34757e-07	0	0	0
9.2415e-07	0	0	0
1.01215e-06	0	0	0
1.23197e-06	0	0	0
1.27796e-06	0	0	0
1.37536e-06	0	0	0
2.24321e-06	0	0	0
2.58943e-06	0	0	0
2.70907e-06	0	0	0
2.73585e-06	0	0	0
2.9854e-06	0	0	0
3.13506e-06	0	0	0
3.37233e-06	0	0	0
3.74163e-06	0	0	0
5.31724e-06	0	0	0
6.24793e-06	0	0	0
1.15109e-05	0	0	0
1.19019e-05	0	0	0
1.56773e-05	0	0	0
1.84292e-05	0	0	0
2.70151e-05	0	0	0
