3.44311e-09	0	0	0
4.52441e-09	0	0	0
5.11867e-09	0	0	0
8.0498e-09	0	0	0
8.5667e-09	0	0	0
9.57485e-09	0	0	0
9.68102e-09	0	0	0
9.88219e-09	0	0	0
1.01857e-08	0	0	0
1.97786e-08	0	0	0
2.15322e-08	0	0	0
2.30208e-08	0	0	0
2.33226e-08	0	0	0
2.50202e-08	0	0	0
3.59243e-08	0	0	0
4.28048e-08	0	0	0
4.4179e-08	0	0	0
4.67888e-08	0	0	0
5.01605e-08	0	0	0
5.70799e-08	0	0	0
5.90796e-08	0	0	0
6.1295e-08	0	0	0
6.2035e-08	0	0	0
7.86735e-08	0	0	0
8.56041e-08	0	0	0
1.06123e-07	0	0	0
1.31893e-07	0	0	0
1.34068e-07	0	0	0
1.88889e-07	0	0	0
3.44456e-07	0	0	0
3.47579e-07	0	0	0
9.05571e-07	0	0	0
1.08316e-06	0	0	0
1.73367e-06	0	0	0
1.85559e-06	0	0	0
2.02452e-06	0	0	0
2.0285e-06	0	0	0
2.82499e-06	0	0	0
3.76637e-06	0	0	0
4.52582e-06	0	0	0
7.07541e-06	0	0	0
1.08052e-05	0	0	0
2.16325e-05	0	0	0
