5.39532e-10	0	0	0
5.69664e-09	0	0	0
9.75004e-09	0	0	0
1.01951e-08	0	0	0
1.27982e-08	0	0	0
1.34499e-08	0	0	0
1.4603e-08	0	0	0
1.52546e-08	0	0	0
1.5909e-08	0	0	0
1.60408e-08	0	0	0
1.71173e-08	0	0	0
1.80497e-08	0	0	0
1.88705e-08	0	0	0
2.24688e-08	0	0	0
2.4159e-08	0	0	0
2.82227e-08	0	0	0
4.55999e-08	0	0	0
4.69507e-08	0	0	0
4.87929e-08	0	0	0
6.27102e-08	0	0	0
6.62482e-08	0	0	0
8.22848e-08	0	0	0
8.39462e-08	0	0	0
8.94969e-08	0	0	0
1.13654e-07	0	0	0
1.48559e-07	0	0	0
2.83463e-07	0	0	0
4.33224e-07	0	0	0
5.81065e-07	0	0	0
7.65346e-07	0	0	0
2.126e-06	0	0	0
2.19756e-06	0	0	0
2.26602e-06	0	0	0
2.50461e-06	0	0	0
2.65831e-06	0	0	0
3.68036e-06	0	0	0
4.07628e-06	0	0	0
4.66488e-06	0	0	0
5.50375e-06	0	0	0
6.31757e-06	0	0	0
8.77038e-06	0	0	0
1.21191e-05	0	0	0
1.93273e-05	0	0	0
