1.12199e-09	0	0	0
1.72558e-09	0	0	0
3.66729e-09	0	0	0
4.12387e-09	0	0	0
7.30728e-09	0	0	0
1.13925e-08	0	0	0
1.14651e-08	0	0	0
1.15684e-08	0	0	0
1.20748e-08	0	0	0
1.35944e-08	0	0	0
1.42013e-08	0	0	0
2.77231e-08	0	0	0
2.77927e-08	0	0	0
2.89004e-08	0	0	0
3.04459e-08	0	0	0
3.32902e-08	0	0	0
3.78486e-08	0	0	0
4.48992e-08	0	0	0
4.65979e-08	0	0	0
5.16549e-08	0	0	0
5.2026e-08	0	0	0
5.52411e-08	0	0	0
7.70791e-08	0	0	0
8.46462e-08	0	0	0
1.06639e-07	0	0	0
1.25815e-07	0	0	0
1.56381e-07	0	0	0
3.18044e-07	0	0	0
4.52003e-07	0	0	0
6.34425e-07	0	0	0
7.52114e-07	0	0	0
7.96052e-07	0	0	0
1.76857e-06	0	0	0
1.89779e-06	0	0	0
2.43195e-06	0	0	0
2.80326e-06	0	0	0
3.55651e-06	0	0	0
3.81784e-06	0	0	0
1.23914e-05	0	0	0
2.3787e-05	0	0	0
4.60163e-05	0	0	0
0.000364692	0	0	0
