8.63149e-11	0	0	0
3.46257e-09	0	0	0
3.54588e-09	0	0	0
6.51317e-09	0	0	0
9.20604e-09	0	0	0
9.24011e-09	0	0	0
1.9687e-08	0	0	0
2.15808e-08	0	0	0
2.85348e-08	0	0	0
3.04982e-08	0	0	0
3.22341e-08	0	0	0
3.35788e-08	0	0	0
4.02476e-08	0	0	0
4.29403e-08	0	0	0
4.321e-08	0	0	0
4.9189e-08	0	0	0
4.99435e-08	0	0	0
5.09418e-08	0	0	0
5.32246e-08	0	0	0
6.75129e-08	0	0	0
7.94603e-08	0	0	0
8.40631e-08	0	0	0
1.00754e-07	0	0	0
1.01452e-07	0	0	0
1.19044e-07	0	0	0
1.24604e-07	0	0	0
1.41192e-07	0	0	0
2.16323e-07	0	0	0
3.18163e-07	0	0	0
3.62293e-07	0	0	0
4.76094e-07	0	0	0
7.66215e-07	0	0	0
1.16147e-06	0	0	0
1.19235e-06	0	0	0
1.21262e-06	0	0	0
1.38322e-06	0	0	0
1.75615e-06	0	0	0
1.79584e-06	0	0	0
2.10028e-06	0	0	0
2.157e-06	0	0	0
4.94104e-06	0	0	0
5.03896e-06	0	0	0
8.19099e-06	0	0	0
1.23035e-05	0	0	0
1.35129e-05	0	0	0
2.48266e-05	0	0	0
3.04914e-05	0	0	0
