4.27227e-10	0	0	0
1.40799e-09	0	0	0
2.46272e-09	0	0	0
3.07381e-09	0	0	0
7.06409e-09	0	0	0
1.13802e-08	0	0	0
1.26455e-08	0	0	0
1.42088e-08	0	0	0
1.48891e-08	0	0	0
1.7774e-08	0	0	0
1.89615e-08	0	0	0
2.02136e-08	0	0	0
2.08067e-08	0	0	0
2.12496e-08	0	0	0
2.58828e-08	0	0	0
2.72501e-08	0	0	0
3.67683e-08	0	0	0
3.90803e-08	0	0	0
4.19933e-08	0	0	0
4.31597e-08	0	0	0
7.44108e-08	0	0	0
7.8952e-08	0	0	0
8.20424e-08	0	0	0
1.26772e-07	0	0	0
1.31513e-07	0	0	0
1.42727e-07	0	0	0
1.58276e-07	0	0	0
1.67007e-07	0	0	0
3.70863e-07	0	0	0
4.14302e-07	0	0	0
4.99446e-07	0	0	0
5.42383e-07	0	0	0
5.56162e-07	0	0	0
8.63415e-07	0	0	0
1.57232e-06	0	0	0
1.67189e-06	0	0	0
1.92892e-06	0	0	0
2.41653e-06	0	0	0
3.68794e-06	0	0	0
4.08307e-06	0	0	0
7.08048e-06	0	0	0
9.28541e-06	0	0	0
1.01417e-05	0	0	0
1.10525e-05	0	0	0
1.93888e-05	0	0	0
9.51238e-05	0	0	0
