1.04655e-09	0	0	0
2.48434e-09	0	0	0
3.26698e-09	0	0	0
1.04174e-08	0	0	0
1.08376e-08	0	0	0
1.22693e-08	0	0	0
1.6325e-08	0	0	0
1.66257e-08	0	0	0
1.67984e-08	0	0	0
2.09172e-08	0	0	0
2.21289e-08	0	0	0
2.81949e-08	0	0	0
2.8809e-08	0	0	0
2.88542e-08	0	0	0
3.43618e-08	0	0	0
3.50898e-08	0	0	0
3.9468e-08	0	0	0
4.68829e-08	0	0	0
5.321e-08	0	0	0
6.40666e-08	0	0	0
8.30146e-08	0	0	0
9.0172e-08	0	0	0
9.76941e-08	0	0	0
1.42707e-07	0	0	0
1.69169e-07	0	0	0
1.79663e-07	0	0	0
1.8458e-07	0	0	0
2.56669e-07	0	0	0
2.63267e-07	0	0	0
3.05606e-07	0	0	0
5.87743e-07	0	0	0
1.22451e-06	0	0	0
1.44611e-06	0	0	0
1.52155e-06	0	0	0
2.10896e-06	0	0	0
3.35455e-06	0	0	0
3.66766e-06	0	0	0
4.7388e-06	0	0	0
5.13849e-06	0	0	0
5.33867e-06	0	0	0
1.24479e-05	0	0	0
