5.21962e-09	0	0	0
7.45516e-09	0	0	0
7.67628e-09	0	0	0
8.09759e-09	0	0	0
9.86628e-09	0	0	0
1.04268e-08	0	0	0
1.64168e-08	0	0	0
1.68853e-08	0	0	0
1.69566e-08	0	0	0
1.82031e-08	0	0	0
1.95793e-08	0	0	0
2.04748e-08	0	0	0
2.18858e-08	0	0	0
2.65928e-08	0	0	0
4.05533e-08	0	0	0
4.18261e-08	0	0	0
4.22368e-08	0	0	0
4.34288e-08	0	0	0
4.38207e-08	0	0	0
4.81505e-08	0	0	0
4.87545e-08	0	0	0
6.10285e-08	0	0	0
7.25792e-08	0	0	0
8.79716e-08	0	0	0
9.49964e-08	0	0	0
1.01813e-07	0	0	0
1.91532e-07	0	0	0
4.79269e-07	0	0	0
7.98358e-07	0	0	0
1.04062e-06	0	0	0
1.20655e-06	0	0	0
1.72376e-06	0	0	0
1.88672e-06	0	0	0
1.9097e-06	0	0	0
2.45989e-06	0	0	0
2.67708e-06	0	0	0
2.67923e-06	0	0	0
4.08996e-06	0	0	0
9.85753e-06	0	0	0
1.08027e-05	0	0	0
1.23324e-05	0	0	0
1.42482e-05	0	0	0
2.72093e-05	0	0	0
