2.14002e-09	0	0	0
3.04282e-09	0	0	0
3.44325e-09	0	0	0
4.01468e-09	0	0	0
5.36674e-09	0	0	0
1.04319e-08	0	0	0
1.37847e-08	0	0	0
1.43344e-08	0	0	0
1.77634e-08	0	0	0
1.84036e-08	0	0	0
2.01193e-08	0	0	0
2.12569e-08	0	0	0
3.50225e-08	0	0	0
3.92345e-08	0	0	0
4.02224e-08	0	0	0
4.81888e-08	0	0	0
5.14694e-08	0	0	0
6.17042e-08	0	0	0
7.14145e-08	0	0	0
7.50652e-08	0	0	0
8.49374e-08	0	0	0
8.53402e-08	0	0	0
1.15777e-07	0	0	0
1.43308e-07	0	0	0
1.51102e-07	0	0	0
1.92085e-07	0	0	0
2.11738e-07	0	0	0
2.73239e-07	0	0	0
8.7039e-07	0	0	0
1.2438e-06	0	0	0
1.53024e-06	0	0	0
1.53245e-06	0	0	0
2.39489e-06	0	0	0
2.49051e-06	0	0	0
3.64395e-06	0	0	0
3.69275e-06	0	0	0
3.92942e-06	0	0	0
3.96065e-06	0	0	0
3.98494e-06	0	0	0
6.83277e-06	0	0	0
7.04577e-06	0	0	0
7.46545e-06	0	0	0
1.41699e-05	0	0	0
5.78082e-05	0	0	0
0.0001826	0	0	0
