6.15623e-10	0	0	0
6.8022e-10	0	0	0
9.29779e-10	0	0	0
1.08394e-09	0	0	0
1.97329e-09	0	0	0
2.01804e-09	0	0	0
2.33602e-09	0	0	0
2.77248e-09	0	0	0
2.83422e-09	0	0	0
3.29164e-09	0	0	0
5.38559e-09	0	0	0
5.41894e-09	0	0	0
7.60178e-09	0	0	0
7.88519e-09	0	0	0
7.90558e-09	0	0	0
1.06349e-08	0	0	0
1.12635e-08	0	0	0
1.1521e-08	0	0	0
1.31563e-08	0	0	0
1.41429e-08	0	0	0
1.58572e-08	0	0	0
1.65788e-08	0	0	0
1.66296e-08	0	0	0
1.69772e-08	0	0	0
2.17989e-08	0	0	0
2.30032e-08	0	0	0
2.3257e-08	0	0	0
2.37426e-08	0	0	0
2.42024e-08	0	0	0
2.58218e-08	0	0	0
2.63898e-08	0	0	0
2.66575e-08	0	0	0
2.92647e-08	0	0	0
2.93167e-08	0	0	0
2.94596e-08	0	0	0
2.97341e-08	0	0	0
3.189e-08	0	0	0
3.52563e-08	0	0	0
3.59625e-08	0	0	0
3.66465e-08	0	0	0
3.89791e-08	0	0	0
4.12838e-08	0	0	0
4.13281e-08	0	0	0
4.31741e-08	0	0	0
4.47846e-08	0	0	0
5.01193e-08	0	0	0
5.10163e-08	0	0	0
5.41361e-08	0	0	0
5.64818e-08	0	0	0
5.6687e-08	0	0	0
5.72298e-08	0	0	0
5.75139e-08	0	0	0
6.20228e-08	0	0	0
6.4285e-08	0	0	0
6.76307e-08	0	0	0
7.33355e-08	0	0	0
7.352e-08	0	0	0
7.51733e-08	0	0	0
8.0173e-08	0	0	0
9.16045e-08	0	0	0
9.26727e-08	0	0	0
9.6541e-08	0	0	0
9.74033e-08	0	0	0
9.91793e-08	0	0	0
1.13882e-07	0	0	0
1.15056e-07	0	0	0
1.1655e-07	0	0	0
1.21409e-07	0	0	0
1.36388e-07	0	0	0
1.49283e-07	0	0	0
2.11065e-07	0	0	0
2.14088e-07	0	0	0
2.26775e-07	0	0	0
2.33777e-07	0	0	0
2.38002e-07	0	0	0
2.46997e-07	0	0	0
2.60836e-07	0	0	0
3.50808e-07	0	0	0
3.61615e-07	0	0	0
3.92612e-07	0	0	0
4.0302e-07	0	0	0
4.18458e-07	0	0	0
5.3377e-07	0	0	0
5.35508e-07	0	0	0
5.45604e-07	0	0	0
6.08641e-07	0	0	0
6.22054e-07	0	0	0
6.59222e-07	0	0	0
6.81673e-07	0	0	0
6.86898e-07	0	0	0
7.11401e-07	0	0	0
7.17712e-07	0	0	0
7.58695e-07	0	0	0
8.63901e-07	0	0	0
8.9767e-07	0	0	0
9.40344e-07	0	0	0
1.10965e-06	0	0	0
1.22814e-06	0	0	0
1.32535e-06	0	0	0
1.40341e-06	0	0	0
1.59906e-06	0	0	0
1.64625e-06	0	0	0
1.70406e-06	0	0	0
1.84056e-06	0	0	0
1.89451e-06	0	0	0
2.11356e-06	0	0	0
2.19967e-06	0	0	0
2.24399e-06	0	0	0
2.32865e-06	0	0	0
3.26631e-06	0	0	0
3.46942e-06	0	0	0
3.71547e-06	0	0	0
5.85697e-06	0	0	0
8.67058e-06	0	0	0
9.82061e-06	0	0	0
1.03456e-05	0	0	0
1.77797e-05	0	0	0
4.10531e-05	0	0	0
4.72782e-05	0	0	0
6.22208e-05	0	0	0
6.28291e-05	0	0	0
8.1943e-05	0	0	0
