4.44136e-12	0	0	0
4.02949e-10	0	0	0
9.9973e-10	0	0	0
1.84921e-09	0	0	0
1.93315e-09	0	0	0
2.13705e-09	0	0	0
2.4434e-09	0	0	0
2.51796e-09	0	0	0
4.69924e-09	0	0	0
4.89464e-09	0	0	0
5.24767e-09	0	0	0
5.89528e-09	0	0	0
6.45367e-09	0	0	0
6.59374e-09	0	0	0
6.81929e-09	0	0	0
7.00946e-09	0	0	0
7.90543e-09	0	0	0
8.12794e-09	0	0	0
9.3429e-09	0	0	0
1.14516e-08	0	0	0
1.18294e-08	0	0	0
1.2508e-08	0	0	0
1.43082e-08	0	0	0
1.71707e-08	0	0	0
1.78827e-08	0	0	0
1.88728e-08	0	0	0
1.90496e-08	0	0	0
2.022e-08	0	0	0
2.03833e-08	0	0	0
2.1812e-08	0	0	0
2.19104e-08	0	0	0
2.35405e-08	0	0	0
2.43814e-08	0	0	0
2.55272e-08	0	0	0
2.6048e-08	0	0	0
2.62939e-08	0	0	0
2.64585e-08	0	0	0
2.66908e-08	0	0	0
3.00125e-08	0	0	0
3.14996e-08	0	0	0
3.31156e-08	0	0	0
3.584e-08	0	0	0
3.65767e-08	0	0	0
3.98532e-08	0	0	0
4.16457e-08	0	0	0
4.24199e-08	0	0	0
4.31905e-08	0	0	0
4.65432e-08	0	0	0
4.77561e-08	0	0	0
5.36312e-08	0	0	0
5.52449e-08	0	0	0
6.40273e-08	0	0	0
6.44072e-08	0	0	0
6.51031e-08	0	0	0
6.98595e-08	0	0	0
7.77132e-08	0	0	0
7.83067e-08	0	0	0
8.69604e-08	0	0	0
8.85362e-08	0	0	0
9.35705e-08	0	0	0
9.65266e-08	0	0	0
1.04992e-07	0	0	0
1.1057e-07	0	0	0
1.13138e-07	0	0	0
1.27888e-07	0	0	0
1.30085e-07	0	0	0
1.452e-07	0	0	0
1.48313e-07	0	0	0
1.52358e-07	0	0	0
1.5317e-07	0	0	0
1.70366e-07	0	0	0
1.81299e-07	0	0	0
1.94234e-07	0	0	0
1.94635e-07	0	0	0
1.98636e-07	0	0	0
2.06767e-07	0	0	0
2.18734e-07	0	0	0
2.2352e-07	0	0	0
2.28022e-07	0	0	0
2.35974e-07	0	0	0
2.44671e-07	0	0	0
2.51555e-07	0	0	0
2.58003e-07	0	0	0
2.61284e-07	0	0	0
2.61315e-07	0	0	0
2.64569e-07	0	0	0
2.79413e-07	0	0	0
2.82214e-07	0	0	0
3.01666e-07	0	0	0
3.07306e-07	0	0	0
3.84386e-07	0	0	0
3.94759e-07	0	0	0
4.05067e-07	0	0	0
4.45065e-07	0	0	0
4.55093e-07	0	0	0
4.86807e-07	0	0	0
5.03447e-07	0	0	0
5.51514e-07	0	0	0
6.31711e-07	0	0	0
6.55888e-07	0	0	0
7.15369e-07	0	0	0
8.63832e-07	0	0	0
8.8965e-07	0	0	0
9.81844e-07	0	0	0
9.86677e-07	0	0	0
1.07519e-06	0	0	0
1.07821e-06	0	0	0
1.09335e-06	0	0	0
1.13258e-06	0	0	0
1.15172e-06	0	0	0
1.18086e-06	0	0	0
1.33481e-06	0	0	0
1.59394e-06	0	0	0
1.79739e-06	0	0	0
2.00044e-06	0	0	0
2.00763e-06	0	0	0
2.75216e-06	0	0	0
3.17465e-06	0	0	0
3.23095e-06	0	0	0
4.36549e-06	0	0	0
5.15903e-06	0	0	0
3.01019e-05	0	0	0
7.58052e-05	0	0	0
