1.91027e-10	0	0	0
4.36876e-10	0	0	0
9.66517e-10	0	0	0
9.85921e-10	0	0	0
1.76374e-09	0	0	0
2.73413e-09	0	0	0
3.2658e-09	0	0	0
3.97295e-09	0	0	0
4.19971e-09	0	0	0
5.00759e-09	0	0	0
5.3402e-09	0	0	0
5.60426e-09	0	0	0
5.87266e-09	0	0	0
5.93073e-09	0	0	0
6.41045e-09	0	0	0
7.08615e-09	0	0	0
7.48572e-09	0	0	0
8.34985e-09	0	0	0
8.72199e-09	0	0	0
1.15828e-08	0	0	0
1.1819e-08	0	0	0
1.22048e-08	0	0	0
1.46332e-08	0	0	0
1.6098e-08	0	0	0
1.76971e-08	0	0	0
1.78499e-08	0	0	0
1.81257e-08	0	0	0
1.90673e-08	0	0	0
1.97566e-08	0	0	0
2.16367e-08	0	0	0
2.62727e-08	0	0	0
2.74874e-08	0	0	0
2.91502e-08	0	0	0
3.15881e-08	0	0	0
3.4685e-08	0	0	0
3.71725e-08	0	0	0
4.11726e-08	0	0	0
4.20711e-08	0	0	0
4.311e-08	0	0	0
4.6976e-08	0	0	0
4.76468e-08	0	0	0
4.92285e-08	0	0	0
5.36034e-08	0	0	0
6.22509e-08	0	0	0
6.30306e-08	0	0	0
6.54567e-08	0	0	0
7.14386e-08	0	0	0
7.24382e-08	0	0	0
7.24769e-08	0	0	0
7.86078e-08	0	0	0
8.03084e-08	0	0	0
8.47069e-08	0	0	0
8.71557e-08	0	0	0
1.00746e-07	0	0	0
1.02449e-07	0	0	0
1.06839e-07	0	0	0
1.11629e-07	0	0	0
1.17904e-07	0	0	0
1.25418e-07	0	0	0
1.3212e-07	0	0	0
1.41343e-07	0	0	0
1.57298e-07	0	0	0
1.64761e-07	0	0	0
1.71943e-07	0	0	0
1.8142e-07	0	0	0
1.84759e-07	0	0	0
1.87205e-07	0	0	0
2.06206e-07	0	0	0
2.16941e-07	0	0	0
2.24359e-07	0	0	0
2.29637e-07	0	0	0
2.57495e-07	0	0	0
2.6315e-07	0	0	0
3.20702e-07	0	0	0
3.35471e-07	0	0	0
3.39412e-07	0	0	0
3.77635e-07	0	0	0
3.83045e-07	0	0	0
3.90846e-07	0	0	0
3.93285e-07	0	0	0
4.14321e-07	0	0	0
4.28409e-07	0	0	0
4.29918e-07	0	0	0
4.35306e-07	0	0	0
4.392e-07	0	0	0
4.41078e-07	0	0	0
4.45211e-07	0	0	0
4.82786e-07	0	0	0
4.96177e-07	0	0	0
6.12854e-07	0	0	0
6.18094e-07	0	0	0
6.59774e-07	0	0	0
7.46477e-07	0	0	0
7.51587e-07	0	0	0
8.44226e-07	0	0	0
9.07453e-07	0	0	0
9.81652e-07	0	0	0
9.87085e-07	0	0	0
1.15487e-06	0	0	0
1.16258e-06	0	0	0
1.20233e-06	0	0	0
1.24869e-06	0	0	0
1.26518e-06	0	0	0
1.44486e-06	0	0	0
1.51182e-06	0	0	0
1.52365e-06	0	0	0
1.57691e-06	0	0	0
1.66368e-06	0	0	0
2.14493e-06	0	0	0
2.15763e-06	0	0	0
2.2843e-06	0	0	0
2.31118e-06	0	0	0
2.64833e-06	0	0	0
2.71396e-06	0	0	0
3.06711e-06	0	0	0
3.22508e-06	0	0	0
3.87314e-06	0	0	0
4.22e-06	0	0	0
4.75425e-06	0	0	0
5.82877e-06	0	0	0
1.2078e-05	0	0	0
1.99488e-05	0	0	0
4.09982e-05	0	0	0
