4.57385e-10	0	0	0
7.86273e-10	0	0	0
9.82894e-10	0	0	0
2.19701e-09	0	0	0
3.34613e-09	0	0	0
4.08774e-09	0	0	0
4.60194e-09	0	0	0
4.6757e-09	0	0	0
4.79005e-09	0	0	0
5.04623e-09	0	0	0
5.81747e-09	0	0	0
7.1295e-09	0	0	0
7.40469e-09	0	0	0
9.164e-09	0	0	0
9.1659e-09	0	0	0
9.46391e-09	0	0	0
1.06798e-08	0	0	0
1.10417e-08	0	0	0
1.11913e-08	0	0	0
1.18423e-08	0	0	0
1.22743e-08	0	0	0
1.26071e-08	0	0	0
1.40283e-08	0	0	0
1.48122e-08	0	0	0
1.5165e-08	0	0	0
1.89492e-08	0	0	0
1.91222e-08	0	0	0
1.98364e-08	0	0	0
1.99461e-08	0	0	0
2.27478e-08	0	0	0
2.27854e-08	0	0	0
2.41269e-08	0	0	0
2.41779e-08	0	0	0
2.47353e-08	0	0	0
2.47462e-08	0	0	0
3.04498e-08	0	0	0
3.08484e-08	0	0	0
3.33421e-08	0	0	0
3.65879e-08	0	0	0
3.72069e-08	0	0	0
3.80597e-08	0	0	0
3.8561e-08	0	0	0
4.07859e-08	0	0	0
4.21034e-08	0	0	0
4.40868e-08	0	0	0
4.62507e-08	0	0	0
4.68836e-08	0	0	0
4.96283e-08	0	0	0
5.36014e-08	0	0	0
5.38416e-08	0	0	0
5.6976e-08	0	0	0
5.78166e-08	0	0	0
6.12387e-08	0	0	0
6.69547e-08	0	0	0
7.1164e-08	0	0	0
8.13129e-08	0	0	0
8.36103e-08	0	0	0
8.61488e-08	0	0	0
8.77985e-08	0	0	0
9.98109e-08	0	0	0
1.02896e-07	0	0	0
1.07297e-07	0	0	0
1.0899e-07	0	0	0
1.18541e-07	0	0	0
1.29378e-07	0	0	0
1.32968e-07	0	0	0
1.56549e-07	0	0	0
1.63229e-07	0	0	0
1.6565e-07	0	0	0
1.68478e-07	0	0	0
1.72991e-07	0	0	0
1.73651e-07	0	0	0
1.884e-07	0	0	0
1.91885e-07	0	0	0
1.9495e-07	0	0	0
2.0117e-07	0	0	0
2.06622e-07	0	0	0
2.32002e-07	0	0	0
2.49931e-07	0	0	0
3.40154e-07	0	0	0
3.48917e-07	0	0	0
3.64073e-07	0	0	0
4.14519e-07	0	0	0
4.18712e-07	0	0	0
4.84649e-07	0	0	0
4.99799e-07	0	0	0
5.32495e-07	0	0	0
5.62342e-07	0	0	0
6.55402e-07	0	0	0
6.56436e-07	0	0	0
6.79774e-07	0	0	0
7.96776e-07	0	0	0
8.23521e-07	0	0	0
8.96999e-07	0	0	0
9.31808e-07	0	0	0
9.69709e-07	0	0	0
9.83066e-07	0	0	0
9.91488e-07	0	0	0
1.01903e-06	0	0	0
1.03367e-06	0	0	0
1.21556e-06	0	0	0
1.26106e-06	0	0	0
1.26911e-06	0	0	0
1.29944e-06	0	0	0
1.40354e-06	0	0	0
1.46215e-06	0	0	0
1.49692e-06	0	0	0
1.53305e-06	0	0	0
1.63065e-06	0	0	0
1.92514e-06	0	0	0
2.12088e-06	0	0	0
2.14418e-06	0	0	0
2.19211e-06	0	0	0
2.22608e-06	0	0	0
2.34339e-06	0	0	0
2.54176e-06	0	0	0
2.7214e-06	0	0	0
3.02182e-06	0	0	0
3.22731e-06	0	0	0
3.59429e-06	0	0	0
3.62314e-06	0	0	0
3.69344e-06	0	0	0
3.81743e-06	0	0	0
4.32355e-06	0	0	0
4.51175e-06	0	0	0
5.20942e-06	0	0	0
6.50711e-06	0	0	0
6.99117e-06	0	0	0
7.64179e-06	0	0	0
9.67623e-06	0	0	0
1.04119e-05	0	0	0
1.23239e-05	0	0	0
1.52853e-05	0	0	0
1.68702e-05	0	0	0
1.96674e-05	0	0	0
2.16042e-05	0	0	0
2.23608e-05	0	0	0
2.56489e-05	0	0	0
5.25803e-05	0	0	0
