1.32699e-10	0	0	0
4.03544e-10	0	0	0
8.85406e-10	0	0	0
1.41716e-09	0	0	0
2.70293e-09	0	0	0
4.27438e-09	0	0	0
4.75186e-09	0	0	0
4.86183e-09	0	0	0
5.16219e-09	0	0	0
5.4607e-09	0	0	0
5.8819e-09	0	0	0
5.94799e-09	0	0	0
6.21879e-09	0	0	0
7.53053e-09	0	0	0
8.41089e-09	0	0	0
8.68735e-09	0	0	0
1.01987e-08	0	0	0
1.02116e-08	0	0	0
1.02548e-08	0	0	0
1.08438e-08	0	0	0
1.20972e-08	0	0	0
1.30845e-08	0	0	0
1.35661e-08	0	0	0
1.37914e-08	0	0	0
1.39277e-08	0	0	0
1.41784e-08	0	0	0
1.45423e-08	0	0	0
1.71324e-08	0	0	0
1.71393e-08	0	0	0
1.71725e-08	0	0	0
1.80112e-08	0	0	0
1.80435e-08	0	0	0
1.93538e-08	0	0	0
1.94331e-08	0	0	0
2.17404e-08	0	0	0
2.20162e-08	0	0	0
2.40234e-08	0	0	0
2.84038e-08	0	0	0
2.90312e-08	0	0	0
2.90706e-08	0	0	0
3.03716e-08	0	0	0
3.08493e-08	0	0	0
3.46134e-08	0	0	0
3.46973e-08	0	0	0
4.72318e-08	0	0	0
5.05833e-08	0	0	0
5.08633e-08	0	0	0
5.09247e-08	0	0	0
5.46209e-08	0	0	0
5.46819e-08	0	0	0
5.47359e-08	0	0	0
5.55119e-08	0	0	0
5.96992e-08	0	0	0
5.97709e-08	0	0	0
6.35974e-08	0	0	0
6.4607e-08	0	0	0
6.63578e-08	0	0	0
7.36576e-08	0	0	0
7.44427e-08	0	0	0
8.70065e-08	0	0	0
8.97703e-08	0	0	0
9.27881e-08	0	0	0
9.48798e-08	0	0	0
9.5588e-08	0	0	0
9.95021e-08	0	0	0
1.04555e-07	0	0	0
1.06752e-07	0	0	0
1.1211e-07	0	0	0
1.17487e-07	0	0	0
1.34951e-07	0	0	0
1.51195e-07	0	0	0
1.58162e-07	0	0	0
1.59458e-07	0	0	0
1.81229e-07	0	0	0
1.81854e-07	0	0	0
1.88206e-07	0	0	0
1.94721e-07	0	0	0
1.99229e-07	0	0	0
2.1705e-07	0	0	0
2.23667e-07	0	0	0
2.27205e-07	0	0	0
2.55682e-07	0	0	0
3.32707e-07	0	0	0
4.32961e-07	0	0	0
4.42149e-07	0	0	0
4.88935e-07	0	0	0
5.44561e-07	0	0	0
5.60805e-07	0	0	0
5.65659e-07	0	0	0
6.09505e-07	0	0	0
6.46311e-07	0	0	0
7.32266e-07	0	0	0
8.15348e-07	0	0	0
9.44603e-07	0	0	0
9.76086e-07	0	0	0
1.07273e-06	0	0	0
1.46541e-06	0	0	0
2.45889e-06	0	0	0
2.67759e-06	0	0	0
1.00668e-05	0	0	0
