2.83581e-10	0	0	0
4.28391e-10	0	0	0
7.52532e-10	0	0	0
1.36295e-09	0	0	0
1.44382e-09	0	0	0
1.70751e-09	0	0	0
2.26229e-09	0	0	0
3.37551e-09	0	0	0
4.5058e-09	0	0	0
5.01627e-09	0	0	0
5.03681e-09	0	0	0
6.09751e-09	0	0	0
7.10771e-09	0	0	0
8.42436e-09	0	0	0
8.46817e-09	0	0	0
8.58655e-09	0	0	0
8.64111e-09	0	0	0
1.06663e-08	0	0	0
1.20946e-08	0	0	0
1.29545e-08	0	0	0
1.32471e-08	0	0	0
1.3867e-08	0	0	0
1.54339e-08	0	0	0
1.57041e-08	0	0	0
1.58988e-08	0	0	0
1.66212e-08	0	0	0
1.71835e-08	0	0	0
1.73242e-08	0	0	0
1.81453e-08	0	0	0
1.85899e-08	0	0	0
1.89277e-08	0	0	0
2.01567e-08	0	0	0
2.09109e-08	0	0	0
2.16368e-08	0	0	0
2.23992e-08	0	0	0
2.50691e-08	0	0	0
2.87124e-08	0	0	0
2.90373e-08	0	0	0
3.49514e-08	0	0	0
3.51654e-08	0	0	0
3.68702e-08	0	0	0
3.89101e-08	0	0	0
4.05801e-08	0	0	0
4.12345e-08	0	0	0
4.22486e-08	0	0	0
4.48761e-08	0	0	0
4.69884e-08	0	0	0
4.81294e-08	0	0	0
4.89434e-08	0	0	0
4.97205e-08	0	0	0
4.98452e-08	0	0	0
5.66918e-08	0	0	0
5.96021e-08	0	0	0
6.31844e-08	0	0	0
6.48066e-08	0	0	0
7.7844e-08	0	0	0
8.34243e-08	0	0	0
9.55436e-08	0	0	0
9.62706e-08	0	0	0
1.03904e-07	0	0	0
1.0766e-07	0	0	0
1.24045e-07	0	0	0
1.2849e-07	0	0	0
1.28767e-07	0	0	0
1.37004e-07	0	0	0
1.44761e-07	0	0	0
1.47898e-07	0	0	0
1.51754e-07	0	0	0
1.62542e-07	0	0	0
1.62869e-07	0	0	0
1.66377e-07	0	0	0
1.68889e-07	0	0	0
1.69333e-07	0	0	0
1.80019e-07	0	0	0
1.9729e-07	0	0	0
2.11942e-07	0	0	0
2.25893e-07	0	0	0
2.27821e-07	0	0	0
2.49424e-07	0	0	0
2.60785e-07	0	0	0
2.96155e-07	0	0	0
3.41882e-07	0	0	0
4.75803e-07	0	0	0
5.30953e-07	0	0	0
5.55134e-07	0	0	0
5.97592e-07	0	0	0
6.03566e-07	0	0	0
6.25131e-07	0	0	0
6.45707e-07	0	0	0
6.46098e-07	0	0	0
6.56791e-07	0	0	0
6.95841e-07	0	0	0
7.601e-07	0	0	0
7.96576e-07	0	0	0
8.16735e-07	0	0	0
8.39285e-07	0	0	0
8.91121e-07	0	0	0
9.94499e-07	0	0	0
1.01967e-06	0	0	0
1.0223e-06	0	0	0
1.03681e-06	0	0	0
1.0507e-06	0	0	0
1.05692e-06	0	0	0
1.05895e-06	0	0	0
1.14829e-06	0	0	0
1.21743e-06	0	0	0
1.24258e-06	0	0	0
1.27055e-06	0	0	0
1.28705e-06	0	0	0
1.3001e-06	0	0	0
1.33528e-06	0	0	0
1.37185e-06	0	0	0
1.37618e-06	0	0	0
1.46205e-06	0	0	0
1.60715e-06	0	0	0
1.69179e-06	0	0	0
1.7485e-06	0	0	0
1.76828e-06	0	0	0
1.79803e-06	0	0	0
1.83572e-06	0	0	0
1.85504e-06	0	0	0
1.85779e-06	0	0	0
1.90804e-06	0	0	0
1.91563e-06	0	0	0
1.97711e-06	0	0	0
1.99467e-06	0	0	0
2.00624e-06	0	0	0
2.07902e-06	0	0	0
2.0861e-06	0	0	0
2.09334e-06	0	0	0
2.1189e-06	0	0	0
2.12375e-06	0	0	0
2.15171e-06	0	0	0
2.15587e-06	0	0	0
2.35136e-06	0	0	0
2.38034e-06	0	0	0
2.41956e-06	0	0	0
2.42073e-06	0	0	0
2.48734e-06	0	0	0
2.60281e-06	0	0	0
2.62424e-06	0	0	0
2.64076e-06	0	0	0
2.66468e-06	0	0	0
2.7889e-06	0	0	0
2.85061e-06	0	0	0
2.8633e-06	0	0	0
2.88618e-06	0	0	0
2.90851e-06	0	0	0
2.92007e-06	0	0	0
2.93009e-06	0	0	0
2.983e-06	0	0	0
3.11023e-06	0	0	0
3.11649e-06	0	0	0
3.167e-06	0	0	0
3.16974e-06	0	0	0
3.21731e-06	0	0	0
3.28138e-06	0	0	0
3.34496e-06	0	0	0
3.34695e-06	0	0	0
3.42289e-06	0	0	0
3.44472e-06	0	0	0
3.45005e-06	0	0	0
3.54962e-06	0	0	0
3.65418e-06	0	0	0
3.65959e-06	0	0	0
3.70286e-06	0	0	0
3.71572e-06	0	0	0
3.72222e-06	0	0	0
3.72588e-06	0	0	0
3.89159e-06	0	0	0
3.89241e-06	0	0	0
4.06053e-06	0	0	0
4.08692e-06	0	0	0
4.11579e-06	0	0	0
4.2012e-06	0	0	0
4.26585e-06	0	0	0
4.29235e-06	0	0	0
4.31615e-06	0	0	0
4.35636e-06	0	0	0
4.39319e-06	0	0	0
4.39427e-06	0	0	0
4.3952e-06	0	0	0
4.41147e-06	0	0	0
4.41833e-06	0	0	0
4.45743e-06	0	0	0
4.49801e-06	0	0	0
4.64406e-06	0	0	0
4.66101e-06	0	0	0
4.66804e-06	0	0	0
4.72277e-06	0	0	0
4.73058e-06	0	0	0
4.79579e-06	0	0	0
4.79781e-06	0	0	0
4.82459e-06	0	0	0
4.85122e-06	0	0	0
4.89097e-06	0	0	0
4.92969e-06	0	0	0
5.02253e-06	0	0	0
5.03647e-06	0	0	0
5.16209e-06	0	0	0
5.19497e-06	0	0	0
5.2532e-06	0	0	0
5.26603e-06	0	0	0
5.33331e-06	0	0	0
5.3963e-06	0	0	0
5.43223e-06	0	0	0
5.43908e-06	0	0	0
5.48007e-06	0	0	0
5.4865e-06	0	0	0
5.4987e-06	0	0	0
5.50805e-06	0	0	0
5.54379e-06	0	0	0
5.58345e-06	0	0	0
5.5848e-06	0	0	0
5.75548e-06	0	0	0
5.83644e-06	0	0	0
5.84157e-06	0	0	0
5.85326e-06	0	0	0
6.04028e-06	0	0	0
6.05027e-06	0	0	0
6.07681e-06	0	0	0
6.09425e-06	0	0	0
6.13331e-06	0	0	0
6.16341e-06	0	0	0
6.19097e-06	0	0	0
6.23121e-06	0	0	0
6.27346e-06	0	0	0
6.3189e-06	0	0	0
6.34337e-06	0	0	0
6.42393e-06	0	0	0
6.5338e-06	0	0	0
6.54664e-06	0	0	0
6.58395e-06	0	0	0
6.61086e-06	0	0	0
6.62602e-06	0	0	0
6.65033e-06	0	0	0
6.73414e-06	0	0	0
6.74937e-06	0	0	0
6.765e-06	0	0	0
6.81344e-06	0	0	0
6.88156e-06	0	0	0
6.88955e-06	0	0	0
6.96322e-06	0	0	0
7.03948e-06	0	0	0
7.06513e-06	0	0	0
7.07077e-06	0	0	0
7.1883e-06	0	0	0
7.35198e-06	0	0	0
7.37282e-06	0	0	0
7.44923e-06	0	0	0
7.54596e-06	0	0	0
7.72128e-06	0	0	0
7.81561e-06	0	0	0
7.83259e-06	0	0	0
7.90898e-06	0	0	0
7.96789e-06	0	0	0
7.97955e-06	0	0	0
7.99463e-06	0	0	0
8.03584e-06	0	0	0
8.13057e-06	0	0	0
8.14915e-06	0	0	0
8.20191e-06	0	0	0
8.29518e-06	0	0	0
8.36823e-06	0	0	0
8.40048e-06	0	0	0
8.44442e-06	0	0	0
8.46528e-06	0	0	0
8.49237e-06	0	0	0
8.53002e-06	0	0	0
9.11788e-06	0	0	0
9.12026e-06	0	0	0
9.16941e-06	0	0	0
9.17749e-06	0	0	0
9.31768e-06	0	0	0
9.327e-06	0	0	0
9.38218e-06	0	0	0
9.38343e-06	0	0	0
9.54393e-06	0	0	0
9.57407e-06	0	0	0
9.57628e-06	0	0	0
9.65087e-06	0	0	0
9.68031e-06	0	0	0
9.83092e-06	0	0	0
9.85858e-06	0	0	0
9.9186e-06	0	0	0
9.93591e-06	0	0	0
1.01132e-05	0	0	0
1.01461e-05	0	0	0
1.02249e-05	0	0	0
1.0305e-05	0	0	0
1.04963e-05	0	0	0
1.05036e-05	0	0	0
1.05595e-05	0	0	0
1.06193e-05	0	0	0
1.07865e-05	0	0	0
1.07915e-05	0	0	0
1.08645e-05	0	0	0
1.09213e-05	0	0	0
1.09658e-05	0	0	0
1.10101e-05	0	0	0
1.10542e-05	0	0	0
1.10851e-05	0	0	0
1.11652e-05	0	0	0
1.12397e-05	0	0	0
1.12602e-05	0	0	0
1.1311e-05	0	0	0
1.13745e-05	0	0	0
1.17175e-05	0	0	0
1.18466e-05	0	0	0
1.18939e-05	0	0	0
1.1945e-05	0	0	0
1.1956e-05	0	0	0
1.19949e-05	0	0	0
1.20258e-05	0	0	0
1.20368e-05	0	0	0
1.2074e-05	0	0	0
1.21024e-05	0	0	0
1.21216e-05	0	0	0
1.22154e-05	0	0	0
1.22478e-05	0	0	0
1.2365e-05	0	0	0
1.2389e-05	0	0	0
1.23909e-05	0	0	0
1.24706e-05	0	0	0
1.26991e-05	0	0	0
1.27529e-05	0	0	0
1.28493e-05	0	0	0
1.28791e-05	0	0	0
1.29045e-05	0	0	0
1.31136e-05	0	0	0
1.31424e-05	0	0	0
1.32847e-05	0	0	0
1.33821e-05	0	0	0
1.34095e-05	0	0	0
1.34352e-05	0	0	0
1.35391e-05	0	0	0
1.36416e-05	0	0	0
1.36487e-05	0	0	0
1.36899e-05	0	0	0
1.3813e-05	0	0	0
1.38816e-05	0	0	0
1.39074e-05	0	0	0
1.3919e-05	0	0	0
1.39246e-05	0	0	0
1.40478e-05	0	0	0
1.413e-05	0	0	0
1.41547e-05	0	0	0
1.42238e-05	0	0	0
1.44829e-05	0	0	0
1.46111e-05	0	0	0
1.4702e-05	0	0	0
1.48198e-05	0	0	0
1.49729e-05	0	0	0
1.49906e-05	0	0	0
1.50137e-05	0	0	0
1.51427e-05	0	0	0
1.5161e-05	0	0	0
1.52426e-05	0	0	0
1.52633e-05	0	0	0
1.5337e-05	0	0	0
1.53715e-05	0	0	0
1.54342e-05	0	0	0
1.54358e-05	0	0	0
1.56679e-05	0	0	0
1.56923e-05	0	0	0
1.57337e-05	0	0	0
1.57971e-05	0	0	0
1.58091e-05	0	0	0
1.5926e-05	0	0	0
1.59589e-05	0	0	0
1.61278e-05	0	0	0
1.61641e-05	0	0	0
1.65486e-05	0	0	0
1.65814e-05	0	0	0
1.68378e-05	0	0	0
1.68615e-05	0	0	0
1.68953e-05	0	0	0
1.69325e-05	0	0	0
1.72384e-05	0	0	0
1.73048e-05	0	0	0
1.74829e-05	0	0	0
1.76898e-05	0	0	0
1.78426e-05	0	0	0
1.78658e-05	0	0	0
1.78942e-05	0	0	0
1.81022e-05	0	0	0
1.84808e-05	0	0	0
1.86816e-05	0	0	0
1.87249e-05	0	0	0
1.88074e-05	0	0	0
1.90178e-05	0	0	0
1.92334e-05	0	0	0
1.94005e-05	0	0	0
1.96874e-05	0	0	0
1.97683e-05	0	0	0
1.97943e-05	0	0	0
1.98025e-05	0	0	0
1.98629e-05	0	0	0
2.00253e-05	0	0	0
2.0074e-05	0	0	0
2.01506e-05	0	0	0
2.0264e-05	0	0	0
2.03544e-05	0	0	0
2.0398e-05	0	0	0
2.03994e-05	0	0	0
2.05631e-05	0	0	0
2.05686e-05	0	0	0
2.05919e-05	0	0	0
2.0731e-05	0	0	0
2.10055e-05	0	0	0
2.12326e-05	0	0	0
2.13438e-05	0	0	0
2.13841e-05	0	0	0
2.14997e-05	0	0	0
2.16325e-05	0	0	0
2.16675e-05	0	0	0
2.19383e-05	0	0	0
2.19587e-05	0	0	0
2.22789e-05	0	0	0
2.24448e-05	0	0	0
2.27441e-05	0	0	0
2.27448e-05	0	0	0
2.27609e-05	0	0	0
2.28962e-05	0	0	0
2.29907e-05	0	0	0
2.31499e-05	0	0	0
2.31998e-05	0	0	0
2.33229e-05	0	0	0
2.34584e-05	0	0	0
2.3488e-05	0	0	0
2.35321e-05	0	0	0
2.36311e-05	0	0	0
2.37433e-05	0	0	0
2.38257e-05	0	0	0
2.40503e-05	0	0	0
2.40674e-05	0	0	0
2.41983e-05	0	0	0
2.43174e-05	0	0	0
2.44024e-05	0	0	0
2.44091e-05	0	0	0
2.45186e-05	0	0	0
2.45413e-05	0	0	0
2.4563e-05	0	0	0
2.46313e-05	0	0	0
2.46334e-05	0	0	0
2.47781e-05	0	0	0
2.48287e-05	0	0	0
2.4946e-05	0	0	0
2.49746e-05	0	0	0
2.49869e-05	0	0	0
2.50114e-05	0	0	0
2.50178e-05	0	0	0
2.51486e-05	0	0	0
2.54612e-05	0	0	0
2.56025e-05	0	0	0
2.56033e-05	0	0	0
2.57777e-05	0	0	0
2.57951e-05	0	0	0
2.60984e-05	0	0	0
2.62738e-05	0	0	0
2.63114e-05	0	0	0
2.64121e-05	0	0	0
2.65898e-05	0	0	0
2.66829e-05	0	0	0
2.68687e-05	0	0	0
2.70502e-05	0	0	0
2.71333e-05	0	0	0
2.73298e-05	0	0	0
2.75349e-05	0	0	0
2.76838e-05	0	0	0
2.77647e-05	0	0	0
2.78531e-05	0	0	0
2.80522e-05	0	0	0
2.83059e-05	0	0	0
2.873e-05	0	0	0
2.88185e-05	0	0	0
2.88453e-05	0	0	0
2.89021e-05	0	0	0
2.90858e-05	0	0	0
2.91069e-05	0	0	0
2.9511e-05	0	0	0
2.96393e-05	0	0	0
3.00512e-05	0	0	0
3.06711e-05	0	0	0
3.06794e-05	0	0	0
3.08593e-05	0	0	0
3.09764e-05	0	0	0
3.10416e-05	0	0	0
3.10693e-05	0	0	0
3.11749e-05	0	0	0
3.11785e-05	0	0	0
3.13119e-05	0	0	0
3.14966e-05	0	0	0
3.15769e-05	0	0	0
3.18085e-05	0	0	0
3.19573e-05	0	0	0
3.21444e-05	0	0	0
3.22293e-05	0	0	0
3.23463e-05	0	0	0
3.27656e-05	0	0	0
3.28601e-05	0	0	0
3.30068e-05	0	0	0
3.30114e-05	0	0	0
3.31339e-05	0	0	0
3.32447e-05	0	0	0
3.32655e-05	0	0	0
3.33703e-05	0	0	0
3.34192e-05	0	0	0
3.34951e-05	0	0	0
3.36012e-05	0	0	0
3.36594e-05	0	0	0
3.38585e-05	0	0	0
3.43039e-05	0	0	0
3.46241e-05	0	0	0
3.46834e-05	0	0	0
3.47459e-05	0	0	0
3.50647e-05	0	0	0
3.50828e-05	0	0	0
3.56809e-05	0	0	0
3.5812e-05	0	0	0
3.58779e-05	0	0	0
3.62699e-05	0	0	0
3.65949e-05	0	0	0
3.67096e-05	0	0	0
3.68177e-05	0	0	0
3.71078e-05	0	0	0
3.71878e-05	0	0	0
3.73442e-05	0	0	0
3.75403e-05	0	0	0
3.79966e-05	0	0	0
3.8414e-05	0	0	0
3.85494e-05	0	0	0
3.86023e-05	0	0	0
3.88954e-05	0	0	0
3.89213e-05	0	0	0
3.90044e-05	0	0	0
3.912e-05	0	0	0
3.94644e-05	0	0	0
3.94684e-05	0	0	0
3.97487e-05	0	0	0
3.98056e-05	0	0	0
3.98778e-05	0	0	0
3.98836e-05	0	0	0
4.00975e-05	0	0	0
4.01841e-05	0	0	0
4.03066e-05	0	0	0
4.04253e-05	0	0	0
4.06725e-05	0	0	0
4.13625e-05	0	0	0
4.15847e-05	0	0	0
4.19482e-05	0	0	0
4.19619e-05	0	0	0
4.20012e-05	0	0	0
4.25831e-05	0	0	0
4.28038e-05	0	0	0
4.2912e-05	0	0	0
4.3965e-05	0	0	0
4.40171e-05	0	0	0
4.42663e-05	0	0	0
4.45576e-05	0	0	0
4.47367e-05	0	0	0
4.47372e-05	0	0	0
4.48448e-05	0	0	0
4.4865e-05	0	0	0
4.49026e-05	0	0	0
4.51488e-05	0	0	0
4.54736e-05	0	0	0
4.55801e-05	0	0	0
4.56707e-05	0	0	0
4.57869e-05	0	0	0
4.5926e-05	0	0	0
4.62471e-05	0	0	0
4.67357e-05	0	0	0
4.69887e-05	0	0	0
4.70583e-05	0	0	0
4.7101e-05	0	0	0
4.75908e-05	0	0	0
4.76655e-05	0	0	0
4.80942e-05	0	0	0
4.81134e-05	0	0	0
4.82135e-05	0	0	0
4.8293e-05	0	0	0
4.8325e-05	0	0	0
4.84168e-05	0	0	0
4.87213e-05	0	0	0
4.90223e-05	0	0	0
4.91533e-05	0	0	0
4.92013e-05	0	0	0
4.92019e-05	0	0	0
4.98248e-05	0	0	0
4.98333e-05	0	0	0
4.99167e-05	0	0	0
4.99352e-05	0	0	0
5.01023e-05	0	0	0
5.05238e-05	0	0	0
5.09413e-05	0	0	0
5.10257e-05	0	0	0
5.1042e-05	0	0	0
5.11651e-05	0	0	0
5.13472e-05	0	0	0
5.14318e-05	0	0	0
5.16212e-05	0	0	0
5.22471e-05	0	0	0
5.27145e-05	0	0	0
5.33738e-05	0	0	0
5.3468e-05	0	0	0
5.36273e-05	0	0	0
5.3657e-05	0	0	0
5.38445e-05	0	0	0
5.38657e-05	0	0	0
5.38743e-05	0	0	0
5.40178e-05	0	0	0
5.42913e-05	0	0	0
5.43301e-05	0	0	0
5.48405e-05	0	0	0
5.51247e-05	0	0	0
5.52337e-05	0	0	0
5.53677e-05	0	0	0
5.53744e-05	0	0	0
5.54858e-05	0	0	0
5.56753e-05	0	0	0
5.56801e-05	0	0	0
5.56877e-05	0	0	0
5.57024e-05	0	0	0
5.57438e-05	0	0	0
5.6665e-05	0	0	0
5.68969e-05	0	0	0
5.71109e-05	0	0	0
5.72154e-05	0	0	0
5.79936e-05	0	0	0
5.82392e-05	0	0	0
5.88478e-05	0	0	0
5.88643e-05	0	0	0
5.91035e-05	0	0	0
5.93343e-05	0	0	0
5.93921e-05	0	0	0
5.95587e-05	0	0	0
5.98315e-05	0	0	0
5.99914e-05	0	0	0
6.07972e-05	0	0	0
6.08575e-05	0	0	0
6.14598e-05	0	0	0
6.151e-05	0	0	0
6.19121e-05	0	0	0
6.20555e-05	0	0	0
6.22981e-05	0	0	0
6.33652e-05	0	0	0
6.41888e-05	0	0	0
6.45247e-05	0	0	0
6.46765e-05	0	0	0
6.47728e-05	0	0	0
6.54664e-05	0	0	0
6.57631e-05	0	0	0
6.58284e-05	0	0	0
6.58825e-05	0	0	0
6.59606e-05	0	0	0
6.63858e-05	0	0	0
6.68158e-05	0	0	0
6.68876e-05	0	0	0
6.69798e-05	0	0	0
6.73573e-05	0	0	0
6.75382e-05	0	0	0
6.88159e-05	0	0	0
6.90227e-05	0	0	0
7.00451e-05	0	0	0
7.06138e-05	0	0	0
7.1135e-05	0	0	0
7.12055e-05	0	0	0
7.15444e-05	0	0	0
7.17491e-05	0	0	0
7.19871e-05	0	0	0
7.20695e-05	0	0	0
7.21142e-05	0	0	0
7.21684e-05	0	0	0
7.23805e-05	0	0	0
7.25583e-05	0	0	0
7.26119e-05	0	0	0
7.30821e-05	0	0	0
7.37819e-05	0	0	0
7.38044e-05	0	0	0
7.41059e-05	0	0	0
7.44186e-05	0	0	0
7.4965e-05	0	0	0
7.54153e-05	0	0	0
7.6555e-05	0	0	0
7.66972e-05	0	0	0
7.70876e-05	0	0	0
7.76328e-05	0	0	0
7.86197e-05	0	0	0
7.86577e-05	0	0	0
7.90071e-05	0	0	0
7.92723e-05	0	0	0
7.9606e-05	0	0	0
7.96436e-05	0	0	0
7.99907e-05	0	0	0
8.02185e-05	0	0	0
8.05186e-05	0	0	0
8.07447e-05	0	0	0
8.13901e-05	0	0	0
8.19615e-05	0	0	0
8.20445e-05	0	0	0
8.23466e-05	0	0	0
8.25838e-05	0	0	0
8.33149e-05	0	0	0
8.48314e-05	0	0	0
8.52723e-05	0	0	0
8.53817e-05	0	0	0
8.56047e-05	0	0	0
8.58006e-05	0	0	0
8.71235e-05	0	0	0
8.76332e-05	0	0	0
8.77569e-05	0	0	0
8.81635e-05	0	0	0
8.81899e-05	0	0	0
8.84209e-05	0	0	0
8.89363e-05	0	0	0
8.89492e-05	0	0	0
8.94945e-05	0	0	0
8.95894e-05	0	0	0
8.99322e-05	0	0	0
9.09824e-05	0	0	0
9.24018e-05	0	0	0
9.38231e-05	0	0	0
9.41668e-05	0	0	0
9.4588e-05	0	0	0
9.47275e-05	0	0	0
9.66577e-05	0	0	0
9.67911e-05	0	0	0
9.8154e-05	0	0	0
9.82075e-05	0	0	0
9.98843e-05	0	0	0
0.000100061	0	0	0
0.000100328	0	0	0
0.000100678	0	0	0
0.000100702	0	0	0
0.000100737	0	0	0
0.000101321	0	0	0
0.000101375	0	0	0
0.000102154	0	0	0
0.000102486	0	0	0
0.000104137	0	0	0
0.000104975	0	0	0
0.000105339	0	0	0
0.000106619	0	0	0
0.000106877	0	0	0
0.000107654	0	0	0
0.000108191	0	0	0
0.000108968	0	0	0
0.00010909	0	0	0
0.000109166	0	0	0
0.000109575	0	0	0
0.000109677	0	0	0
0.000110388	0	0	0
0.000110678	0	0	0
0.000111117	0	0	0
0.000111202	0	0	0
0.00011136	0	0	0
0.00011283	0	0	0
0.000113063	0	0	0
0.000113421	0	0	0
0.000113547	0	0	0
0.00011402	0	0	0
0.000114053	0	0	0
0.000114642	0	0	0
0.000114733	0	0	0
0.000116985	0	0	0
0.000117454	0	0	0
0.000117741	0	0	0
0.000117741	0	0	0
0.000118185	0	0	0
0.000119513	0	0	0
0.00012014	0	0	0
0.000120666	0	0	0
0.000122091	0	0	0
0.000123586	0	0	0
0.000123893	0	0	0
0.000124371	0	0	0
0.00012518	0	0	0
0.000125574	0	0	0
0.000125985	0	0	0
0.000126361	0	0	0
0.000127119	0	0	0
0.000127749	0	0	0
0.000128821	0	0	0
0.000129807	0	0	0
0.000131445	0	0	0
0.000131468	0	0	0
0.000131702	0	0	0
0.000131755	0	0	0
0.000132298	0	0	0
0.000134203	0	0	0
0.00013445	0	0	0
0.000138573	0	0	0
0.000139336	0	0	0
0.000139381	0	0	0
0.000139771	0	0	0
0.000140132	0	0	0
0.000140223	0	0	0
0.000140973	0	0	0
0.000142361	0	0	0
0.000142362	0	0	0
0.000142668	0	0	0
0.000142903	0	0	0
0.000144286	0	0	0
0.000145203	0	0	0
0.000145976	0	0	0
0.000147406	0	0	0
0.000147826	0	0	0
0.000148414	0	0	0
0.000148491	0	0	0
0.00014877	0	0	0
0.000149291	0	0	0
0.000150972	0	0	0
0.000151132	0	0	0
0.000152124	0	0	0
0.000152459	0	0	0
0.000155767	0	0	0
0.000156254	0	0	0
0.000159	0	0	0
0.000159569	0	0	0
0.000160959	0	0	0
0.00016148	0	0	0
0.000163085	0	0	0
0.000170924	0	0	0
0.00017171	0	0	0
0.000172236	0	0	0
0.00017512	0	0	0
0.000175941	0	0	0
0.000177111	0	0	0
0.000177142	0	0	0
0.00017773	0	0	0
0.000178496	0	0	0
0.00017856	0	0	0
0.000179027	0	0	0
0.000180139	0	0	0
0.000180173	0	0	0
0.000180843	0	0	0
0.000181215	0	0	0
0.000182362	0	0	0
0.000182677	0	0	0
0.00018283	0	0	0
0.000183058	0	0	0
0.000183713	0	0	0
0.00018482	0	0	0
0.00018772	0	0	0
0.000188943	0	0	0
0.000191259	0	0	0
0.00019259	0	0	0
0.000195657	0	0	0
0.00019881	0	0	0
0.000199403	0	0	0
0.000201226	0	0	0
0.000202485	0	0	0
0.000208461	0	0	0
0.000210227	0	0	0
0.000219262	0	0	0
0.000220916	0	0	0
0.000222571	0	0	0
0.00022613	0	0	0
0.000226257	0	0	0
0.000226463	0	0	0
0.000226493	0	0	0
0.000226515	0	0	0
0.000227228	0	0	0
0.000230207	0	0	0
0.000230754	0	0	0
0.00023158	0	0	0
0.000233361	0	0	0
0.000233735	0	0	0
0.000235045	0	0	0
0.00023532	0	0	0
0.000239627	0	0	0
0.000239639	0	0	0
0.000243173	0	0	0
0.00024399	0	0	0
0.000251121	0	0	0
0.000253199	0	0	0
0.000262214	0	0	0
0.000267893	0	0	0
0.000270088	0	0	0
0.000271018	0	0	0
0.000271592	0	0	0
0.00027616	0	0	0
0.000280304	0	0	0
0.000296408	0	0	0
0.00030453	0	0	0
0.000305087	0	0	0
0.000309447	0	0	0
0.000310786	0	0	0
0.000313113	0	0	0
0.000318036	0	0	0
0.000320028	0	0	0
0.000325592	0	0	0
0.000328869	0	0	0
0.000329535	0	0	0
0.00032991	0	0	0
0.000334254	0	0	0
0.000335894	0	0	0
0.000341915	0	0	0
0.000344733	0	0	0
0.000386867	0	0	0
0.000400552	0	0	0
0.000429992	0	0	0
0.000435181	0	0	0
0.000454938	0	0	0
0.000486867	0	0	0
