1.03746e-09	0	0	0
1.18458e-09	0	0	0
1.81557e-09	0	0	0
2.05281e-09	0	0	0
2.20096e-09	0	0	0
2.20945e-09	0	0	0
2.51501e-09	0	0	0
3.27297e-09	0	0	0
4.31736e-09	0	0	0
4.94354e-09	0	0	0
5.0912e-09	0	0	0
6.6792e-09	0	0	0
7.05924e-09	0	0	0
7.42916e-09	0	0	0
7.48175e-09	0	0	0
7.6022e-09	0	0	0
8.08464e-09	0	0	0
8.18263e-09	0	0	0
8.41582e-09	0	0	0
8.52862e-09	0	0	0
1.04606e-08	0	0	0
1.05032e-08	0	0	0
1.27597e-08	0	0	0
1.43327e-08	0	0	0
1.50078e-08	0	0	0
1.64148e-08	0	0	0
1.66773e-08	0	0	0
1.72991e-08	0	0	0
1.74155e-08	0	0	0
1.82599e-08	0	0	0
1.9095e-08	0	0	0
2.12907e-08	0	0	0
2.16653e-08	0	0	0
2.23856e-08	0	0	0
2.31053e-08	0	0	0
2.40151e-08	0	0	0
2.48076e-08	0	0	0
2.69098e-08	0	0	0
2.95983e-08	0	0	0
2.98777e-08	0	0	0
2.99501e-08	0	0	0
3.5427e-08	0	0	0
3.66092e-08	0	0	0
3.71197e-08	0	0	0
3.7511e-08	0	0	0
3.85851e-08	0	0	0
4.26341e-08	0	0	0
4.40832e-08	0	0	0
4.88002e-08	0	0	0
5.02602e-08	0	0	0
5.38003e-08	0	0	0
5.51508e-08	0	0	0
5.93776e-08	0	0	0
6.02578e-08	0	0	0
6.07151e-08	0	0	0
6.26325e-08	0	0	0
6.28212e-08	0	0	0
6.31984e-08	0	0	0
6.46359e-08	0	0	0
6.95957e-08	0	0	0
7.25297e-08	0	0	0
8.36495e-08	0	0	0
9.15165e-08	0	0	0
9.80637e-08	0	0	0
1.04895e-07	0	0	0
1.10033e-07	0	0	0
1.10983e-07	0	0	0
1.18598e-07	0	0	0
1.38412e-07	0	0	0
1.38806e-07	0	0	0
1.54602e-07	0	0	0
1.67431e-07	0	0	0
1.76343e-07	0	0	0
1.8179e-07	0	0	0
2.24869e-07	0	0	0
2.37696e-07	0	0	0
2.45419e-07	0	0	0
2.56466e-07	0	0	0
2.73471e-07	0	0	0
2.82393e-07	0	0	0
3.02988e-07	0	0	0
3.17166e-07	0	0	0
3.17921e-07	0	0	0
3.29754e-07	0	0	0
3.33157e-07	0	0	0
3.67162e-07	0	0	0
3.87466e-07	0	0	0
4.01814e-07	0	0	0
4.47976e-07	0	0	0
4.53984e-07	0	0	0
5.03615e-07	0	0	0
5.7422e-07	0	0	0
6.04041e-07	0	0	0
6.39785e-07	0	0	0
6.41849e-07	0	0	0
6.53786e-07	0	0	0
6.58768e-07	0	0	0
7.08195e-07	0	0	0
7.08219e-07	0	0	0
7.10596e-07	0	0	0
7.43057e-07	0	0	0
7.43375e-07	0	0	0
7.44785e-07	0	0	0
7.55694e-07	0	0	0
7.76248e-07	0	0	0
7.94845e-07	0	0	0
7.97912e-07	0	0	0
8.13118e-07	0	0	0
8.14898e-07	0	0	0
8.69139e-07	0	0	0
9.20818e-07	0	0	0
1.00676e-06	0	0	0
1.09233e-06	0	0	0
1.18325e-06	0	0	0
1.18818e-06	0	0	0
1.22209e-06	0	0	0
1.2314e-06	0	0	0
1.28917e-06	0	0	0
1.32539e-06	0	0	0
1.33016e-06	0	0	0
1.38194e-06	0	0	0
1.43266e-06	0	0	0
1.4568e-06	0	0	0
1.46739e-06	0	0	0
1.52835e-06	0	0	0
1.5438e-06	0	0	0
1.58707e-06	0	0	0
1.58785e-06	0	0	0
1.62505e-06	0	0	0
1.7569e-06	0	0	0
1.98528e-06	0	0	0
2.05065e-06	0	0	0
2.0556e-06	0	0	0
2.098e-06	0	0	0
2.14916e-06	0	0	0
2.17032e-06	0	0	0
2.2129e-06	0	0	0
2.24399e-06	0	0	0
2.25069e-06	0	0	0
2.27868e-06	0	0	0
2.29469e-06	0	0	0
2.33868e-06	0	0	0
2.4078e-06	0	0	0
2.4339e-06	0	0	0
2.44335e-06	0	0	0
2.44802e-06	0	0	0
2.49652e-06	0	0	0
2.64535e-06	0	0	0
2.67586e-06	0	0	0
2.76826e-06	0	0	0
2.77228e-06	0	0	0
2.82541e-06	0	0	0
2.88445e-06	0	0	0
2.94082e-06	0	0	0
2.94234e-06	0	0	0
2.97808e-06	0	0	0
2.99521e-06	0	0	0
3.02964e-06	0	0	0
3.33412e-06	0	0	0
3.56028e-06	0	0	0
3.58114e-06	0	0	0
3.63347e-06	0	0	0
3.70194e-06	0	0	0
3.83481e-06	0	0	0
3.83824e-06	0	0	0
3.8585e-06	0	0	0
3.97681e-06	0	0	0
4.03876e-06	0	0	0
4.08123e-06	0	0	0
4.20088e-06	0	0	0
4.83195e-06	0	0	0
4.97884e-06	0	0	0
5.17601e-06	0	0	0
5.19647e-06	0	0	0
5.32602e-06	0	0	0
5.38906e-06	0	0	0
5.646e-06	0	0	0
5.64984e-06	0	0	0
5.67072e-06	0	0	0
5.83268e-06	0	0	0
5.90523e-06	0	0	0
5.91383e-06	0	0	0
6.53508e-06	0	0	0
6.80416e-06	0	0	0
6.8602e-06	0	0	0
7.24273e-06	0	0	0
8.36264e-06	0	0	0
8.57459e-06	0	0	0
9.32109e-06	0	0	0
1.09987e-05	0	0	0
1.12498e-05	0	0	0
1.12692e-05	0	0	0
1.23126e-05	0	0	0
1.31316e-05	0	0	0
1.46306e-05	0	0	0
1.61248e-05	0	0	0
1.64491e-05	0	0	0
1.70393e-05	0	0	0
1.87082e-05	0	0	0
1.93918e-05	0	0	0
1.95438e-05	0	0	0
2.09559e-05	0	0	0
2.16126e-05	0	0	0
2.18507e-05	0	0	0
2.27625e-05	0	0	0
3.24411e-05	0	0	0
4.20376e-05	0	0	0
4.53416e-05	0	0	0
4.58557e-05	0	0	0
7.11493e-05	0	0	0
7.87947e-05	0	0	0
8.59249e-05	0	0	0
0.000107455	0	0	0
0.000116771	0	0	0
