1.46666e-10	0	0	0
2.09311e-10	0	0	0
2.93552e-10	0	0	0
4.70384e-10	0	0	0
7.81806e-10	0	0	0
1.0723e-09	0	0	0
1.216e-09	0	0	0
1.57082e-09	0	0	0
2.31098e-09	0	0	0
2.4196e-09	0	0	0
2.54072e-09	0	0	0
3.3771e-09	0	0	0
3.43555e-09	0	0	0
4.06377e-09	0	0	0
4.38498e-09	0	0	0
4.61424e-09	0	0	0
4.94316e-09	0	0	0
6.33287e-09	0	0	0
6.42773e-09	0	0	0
7.16891e-09	0	0	0
8.93085e-09	0	0	0
9.7738e-09	0	0	0
1.11409e-08	0	0	0
1.20003e-08	0	0	0
1.25012e-08	0	0	0
1.30532e-08	0	0	0
1.35e-08	0	0	0
1.49538e-08	0	0	0
1.71776e-08	0	0	0
2.07657e-08	0	0	0
2.19312e-08	0	0	0
2.41489e-08	0	0	0
2.62171e-08	0	0	0
2.6584e-08	0	0	0
2.68643e-08	0	0	0
2.70482e-08	0	0	0
2.93986e-08	0	0	0
3.00894e-08	0	0	0
3.58983e-08	0	0	0
3.80413e-08	0	0	0
4.10539e-08	0	0	0
4.84859e-08	0	0	0
4.90301e-08	0	0	0
5.25132e-08	0	0	0
5.34267e-08	0	0	0
5.60769e-08	0	0	0
5.7061e-08	0	0	0
5.86423e-08	0	0	0
5.88264e-08	0	0	0
6.21775e-08	0	0	0
6.80532e-08	0	0	0
7.04347e-08	0	0	0
7.22365e-08	0	0	0
7.99916e-08	0	0	0
8.12472e-08	0	0	0
8.70602e-08	0	0	0
9.28414e-08	0	0	0
9.66087e-08	0	0	0
1.04319e-07	0	0	0
1.11898e-07	0	0	0
1.33207e-07	0	0	0
1.39357e-07	0	0	0
1.40636e-07	0	0	0
1.47738e-07	0	0	0
1.5018e-07	0	0	0
1.64445e-07	0	0	0
1.7055e-07	0	0	0
1.82857e-07	0	0	0
1.88056e-07	0	0	0
1.93404e-07	0	0	0
2.02229e-07	0	0	0
2.08913e-07	0	0	0
2.16857e-07	0	0	0
2.19584e-07	0	0	0
2.40033e-07	0	0	0
2.52212e-07	0	0	0
2.62109e-07	0	0	0
2.6216e-07	0	0	0
2.70372e-07	0	0	0
2.97218e-07	0	0	0
3.28048e-07	0	0	0
3.39427e-07	0	0	0
3.40737e-07	0	0	0
3.46291e-07	0	0	0
4.01523e-07	0	0	0
4.36793e-07	0	0	0
4.66659e-07	0	0	0
4.68308e-07	0	0	0
4.70756e-07	0	0	0
5.90919e-07	0	0	0
6.00241e-07	0	0	0
6.06998e-07	0	0	0
6.90134e-07	0	0	0
6.95239e-07	0	0	0
7.33975e-07	0	0	0
7.53439e-07	0	0	0
8.44375e-07	0	0	0
8.94555e-07	0	0	0
1.0522e-06	0	0	0
1.18305e-06	0	0	0
1.21218e-06	0	0	0
1.22456e-06	0	0	0
1.28069e-06	0	0	0
1.31071e-06	0	0	0
1.43855e-06	0	0	0
1.49582e-06	0	0	0
1.70008e-06	0	0	0
1.71113e-06	0	0	0
1.72465e-06	0	0	0
1.72679e-06	0	0	0
2.32758e-06	0	0	0
2.36434e-06	0	0	0
2.51695e-06	0	0	0
3.18012e-06	0	0	0
3.61043e-06	0	0	0
4.64883e-06	0	0	0
5.77324e-06	0	0	0
6.56598e-06	0	0	0
8.68011e-06	0	0	0
9.80305e-06	0	0	0
1.0385e-05	0	0	0
1.25476e-05	0	0	0
2.12262e-05	0	0	0
2.27538e-05	0	0	0
2.75516e-05	0	0	0
3.08361e-05	0	0	0
0.00672884	0	0	0
0.0545037	0	0	0
0.0700357	0	0	0
0.124952	0	0	0
0.157785	0	0	0
0.174211	0	0	0
0.179209	0	0	0
0.218012	0	0	0
0.249115	0	0	0
0.326023	0	0	0
0.339252	0	0	0
0.342351	0	0	0
0.345697	0	0	0
0.375039	0	0	0
0.465857	0	0	0
0.488227	0	0	0
0.498387	0	0	0
0.533981	0	0	0.0345543
0.576741	0	0	0.0691085
0.579469	0	0	0.0691085
0.658556	0	0	0.0691085
0.702222	0	0	0.0691085
0.720479	0	0	0.0691085
0.786601	0	0	0.0691085
0.805178	0	0	0.0691085
0.814623	0	0	0.0691085
0.860324	0	0	0.0691085
0.864609	0	0	0.0691085
0.896472	0	0	0.0691085
0.905675	0	0	0.0691085
0.91472	0	0	0.0691085
0.915494	0	0	0.0691085
0.952552	0	0	0.0691085
0.974806	0	0	0.0691085
0.98304	0	0	0.0691085
0.994822	0	0	0.103663
1.0061	0	0	0.103663
1.0071	0	0	0.103663
1.00785	0	0	0.103663
1.02598	0	0	0.103663
1.03218	0	0	0.103663
1.11297	0	0	0.103663
1.1826	0	0	0.103663
1.19868	0	0	0.103663
1.22147	0	0	0.103663
1.23279	0	0	0.103663
1.24008	0	0	0.138217
1.32728	0	0	0.138217
1.33877	0	0	0.138217
1.34096	0	0	0.138217
1.34608	0	0	0.138217
1.36768	0	0	0.138217
1.3961	0	0	0.138217
1.40703	0	0	0.138217
1.44165	0	0	0.138217
1.51267	0	0	0.172771
1.51689	0	0	0.172771
1.54094	0	0	0.172771
1.63402	0	0	0.172771
1.64532	0	0	0.172771
1.7261	0	0	0.207326
1.73635	0	0	0.207326
1.7979	0	0	0.207326
1.84955	0	0	0.207326
1.87087	0	0	0.207326
1.95831	0	0	0.207326
1.99108	0	0	0.207326
2.00444	0	0	0.207326
2.05024	0	0	0.207326
2.08578	0	0	0.207326
2.09147	0	0	0.207326
2.09584	0	0	0.207326
2.10612	0	0	0.207326
2.10704	0	0	0.207326
2.11546	0	0	0.207326
2.14094	0	0	0.207326
2.15807	0	0	0.207326
2.16691	0	0	0.207326
2.2065	0	0	0.207326
2.24373	0	0	0.207326
2.38009	0	0	0.207326
2.39417	0	0	0.207326
2.47125	0	0	0.207326
2.47316	0	0	0.207326
2.47591	0	0	0.207326
2.48452	0	0	0.207326
2.51846	0	0	0.207326
2.55126	0	0	0.207326
2.57528	0	0	0.207326
2.5778	0	0	0.207326
2.58502	0	0	0.207326
2.70155	0	0	0.207326
2.87379	0	0	0.207326
2.89048	0	0	0.207326
2.9194	0	0	0.24188
2.93075	0	0	0.24188
2.94286	0	0	0.24188
2.95452	0	0	0.276434
3.08113	0	0	0.276434
3.13578	0	0	0.276434
3.19696	0	0	0.276434
3.20065	0	0	0.276434
3.26628	0	0	0.276434
3.2879	0	0	0.276434
3.30337	0	0	0.276434
3.35418	0	0	0.276434
3.46051	0	0	0.276434
3.48995	0	0	0.276434
3.50397	0	0	0.276434
3.54203	0	0	0.276434
3.59655	0	0	0.276434
3.61787	0	0	0.276434
3.65426	0	0	0.276434
3.67401	0	0	0.276434
3.72859	0	0	0.310988
3.76319	0	0	0.310988
3.7783	0	0	0.310988
3.79287	0	0	0.345543
3.79845	0	0	0.345543
3.8072	0	0	0.345543
3.83929	0	0	0.345543
3.92824	0	0	0.345543
3.97002	0	0	0.345543
3.97228	0	0	0.345543
3.98324	0	0	0.345543
4.02849	0	0	0.345543
4.0341	0	0	0.345543
4.07457	0	0	0.345543
4.09015	0	0	0.345543
4.11557	0	0	0.345543
4.11864	0	0	0.345543
4.22058	0	0	0.380097
4.23524	0	0	0.380097
4.23945	0	0	0.380097
4.24806	0	0	0.380097
4.28393	0	0	0.380097
4.31359	0	0	0.380097
4.31758	0	0	0.380097
4.36096	0	0	0.380097
4.3687	0	0	0.380097
4.37566	0	0	0.380097
4.47863	0	0	0.414651
4.48417	0	0	0.414651
4.54663	0	0	0.414651
4.57805	0	0	0.449205
4.59845	0	0	0.449205
4.74407	0	0	0.449205
4.75461	0	0	0.449205
4.78465	0	0	0.449205
4.79381	0	0	0.449205
4.88709	0	0	0.449205
4.92362	0	0	0.48376
4.93635	0	0	0.48376
4.98203	0	0	0.48376
4.98351	0	0	0.518314
4.98445	0	0	0.518314
5.01463	0	0	0.518314
5.07144	0	0	0.518314
5.07954	0	0	0.518314
5.15584	0	0	0.518314
5.15642	0	0	0.518314
5.20938	0	0	0.518314
5.28297	0	0	0.552868
5.28545	0	0	0.587422
5.29267	0	0	0.587422
5.31085	0	0	0.587422
5.33664	0	0	0.587422
5.37341	0	0	0.587422
5.38222	0	0	0.587422
5.38493	0	0	0.621977
5.42752	0	0	0.621977
5.49358	0	0	0.621977
5.49708	0	0	0.621977
5.52034	0	0	0.621977
5.52149	0	0	0.621977
5.52634	0	0	0.621977
5.53813	0	0	0.621977
5.54336	0	0	0.621977
5.54943	0	0	0.621977
5.57149	0	0	0.621977
5.64591	0	0	0.621977
5.71076	0	0	0.621977
5.71598	0	0	0.656531
5.72802	0	0	0.691085
5.79557	0	0	0.691085
5.82421	0	0	0.691085
5.83177	0	0	0.691085
5.9065	0	0	0.691085
6.00596	0	0	0.691085
6.0373	0	0	0.691085
6.08125	0	0	0.725639
6.08562	0	0	0.725639
6.17494	0	0	0.725639
6.22049	0	0	0.760194
6.24688	0	0	0.760194
6.25236	0	0	0.794748
6.25712	0	0	0.794748
6.26327	0	0	0.794748
6.28853	0	0	0.794748
6.32685	0	0	0.794748
6.32909	0	0	0.794748
6.38419	0	0	0.794748
6.42405	0	0	0.794748
6.49866	0	0	0.794748
6.51086	0	0	0.794748
6.51385	0	0	0.794748
6.5388	0	0	0.829302
6.54495	0	0	0.829302
6.5877	0	0	0.829302
6.5911	0	0	0.829302
6.66558	0	0	0.829302
6.66604	0	0	0.829302
6.66911	0	0	0.829302
6.671	0	0	0.863856
6.68247	0	0	0.863856
6.76076	0	0	0.898411
6.76389	0	0	0.898411
6.78696	0	0	0.898411
6.87271	0	0	0.898411
6.88046	0	0	0.898411
6.8862	0	0	0.898411
6.90715	0	0	0.898411
6.99355	0	0	0.898411
7.02806	0	0	0.898411
7.04665	0	0	0.898411
7.0827	0	0	0.898411
7.10044	0	0	0.898411
7.10575	0	0	0.932965
7.12413	0	0	0.932965
7.1297	0	0	0.932965
7.139	0	0	0.932965
7.14154	0	0	0.932965
7.15761	0	0	0.932965
7.28314	0	0	0.932965
7.39589	0	0	0.932965
7.4019	0	0	0.932965
7.43557	0	0	0.932965
7.44647	0	0	0.967519
7.46436	0	0	0.967519
7.51074	0	0	1.00207
7.52837	0	0	1.00207
7.56933	0	0	1.00207
7.57996	0	0	1.03663
7.62836	0	0	1.03663
7.63475	0	0	1.03663
7.66735	0	0	1.03663
7.67177	0	0	1.03663
7.70188	0	0	1.03663
7.71007	0	0	1.07118
7.71088	0	0	1.07118
7.72128	0	0	1.07118
7.74731	0	0	1.07118
7.75994	0	0	1.10574
7.79497	0	0	1.10574
7.90425	0	0	1.14029
7.90838	0	0	1.17484
7.91493	0	0	1.2094
7.9237	0	0	1.24395
7.96776	0	0	1.24395
7.96779	0	0	1.24395
7.97265	0	0	1.24395
8.06285	0	0	1.24395
8.10481	0	0	1.24395
8.10896	0	0	1.24395
8.16767	0	0	1.24395
8.2673	0	0	1.24395
8.39933	0	0	1.27851
8.42788	0	0	1.27851
8.47095	0	0	1.31306
8.47496	0	0	1.31306
8.51376	0	0	1.34762
8.57769	0	0	1.38217
8.58061	0	0	1.38217
8.64697	0	0	1.38217
8.67553	0	0	1.38217
8.75848	0	0	1.38217
8.78284	0	0	1.38217
8.79563	0	0	1.38217
8.79976	0	0	1.38217
8.82245	0	0	1.41672
8.85563	0	0	1.41672
8.86193	0	0	1.41672
8.86988	0	0	1.41672
8.96455	0	0	1.41672
9.03357	0	0	1.41672
9.07438	0	0	1.41672
9.09856	0	0	1.41672
9.12445	0	0	1.45128
9.18175	0	0	1.45128
9.18528	0	0	1.45128
9.19036	0	0	1.45128
9.20991	0	0	1.45128
9.21539	0	0	1.48583
9.24299	0	0	1.48583
9.26347	0	0	1.52039
9.29301	0	0	1.55494
9.35789	0	0	1.55494
9.43388	0	0	1.55494
9.48618	0	0	1.55494
9.49887	0	0	1.55494
9.50042	0	0	1.55494
9.507	0	0	1.55494
9.67029	0	0	1.55494
9.69539	0	0	1.55494
9.70091	0	0	1.5895
9.71381	0	0	1.5895
9.74323	0	0	1.62405
9.76216	0	0	1.62405
9.81269	0	0	1.62405
9.82947	0	0	1.62405
9.88668	0	0	1.62405
9.88924	0	0	1.62405
9.89751	0	0	1.62405
9.91568	0	0	1.62405
9.99279	0	0	1.62405
10.1029	0	0	1.62405
10.1275	0	0	1.62405
10.1533	0	0	1.62405
10.3069	0	0	1.62405
10.3147	0	0	1.62405
10.3294	0	0	1.62405
10.3371	0	0	1.62405
10.3969	0	0	1.62405
10.4256	0	0	1.62405
10.4276	0	0	1.62405
10.4326	0	0	1.62405
10.4616	0	0	1.62405
10.5817	0	0	1.62405
10.5841	0	0	1.69316
10.6064	0	0	1.69316
10.6124	0	0	1.69316
10.6678	0	0	1.69316
10.7036	0	0	1.69316
10.739	0	0	1.69316
10.7807	0	0	1.72771
10.8168	0	0	1.72771
10.9284	0	0	1.72771
11.0263	0	0	1.72771
11.0633	0	0	1.72771
11.0922	0	0	1.72771
11.123	0	0	1.72771
11.1261	0	0	1.72771
11.2026	0	0	1.76227
11.2156	0	0	1.76227
11.2427	0	0	1.76227
11.2529	0	0	1.76227
11.2911	0	0	1.76227
11.3206	0	0	1.79682
11.3788	0	0	1.79682
11.3891	0	0	1.79682
11.4113	0	0	1.79682
11.4191	0	0	1.83138
11.4271	0	0	1.83138
11.4864	0	0	1.83138
11.5138	0	0	1.83138
11.5178	0	0	1.86593
11.5565	0	0	1.90048
11.5589	0	0	1.90048
11.6039	0	0	1.90048
11.6262	0	0	1.90048
11.6357	0	0	1.90048
11.6522	0	0	1.93504
11.6734	0	0	1.96959
11.695	0	0	1.96959
11.7391	0	0	1.96959
11.8963	0	0	1.96959
11.9625	0	0	1.96959
11.9789	0	0	1.96959
12.0264	0	0	1.96959
12.0605	0	0	1.96959
12.0931	0	0	1.96959
12.0948	0	0	1.96959
12.097	0	0	1.96959
12.1436	0	0	1.96959
12.232	0	0	1.96959
12.2657	0	0	1.96959
12.3218	0	0	1.96959
12.3537	0	0	1.96959
12.4206	0	0	1.96959
12.4731	0	0	1.96959
12.5051	0	0	1.96959
12.5595	0	0	1.96959
12.5871	0	0	1.96959
12.6387	0	0	1.96959
12.6427	0	0	1.96959
12.6601	0	0	1.96959
12.6723	0	0	1.96959
12.6938	0	0	1.96959
12.7121	0	0	2.00415
12.7162	0	0	2.00415
12.7741	0	0	2.00415
12.8382	0	0	2.00415
12.8426	0	0	2.00415
12.8682	0	0	2.00415
12.882	0	0	2.00415
12.8893	0	0	2.00415
12.9421	0	0	2.00415
12.96	0	0	2.00415
12.998	0	0	2.00415
13.0109	0	0	2.0387
13.0271	0	0	2.0387
13.2226	0	0	2.0387
13.2319	0	0	2.0387
13.3197	0	0	2.0387
13.3943	0	0	2.0387
13.4399	0	0	2.0387
13.5473	0	0	2.0387
13.5666	0	0	2.07326
13.5857	0	0	2.07326
13.6666	0	0	2.07326
13.6766	0	0	2.10781
13.7646	0	0	2.10781
13.7682	0	0	2.10781
13.776	0	0	2.14236
13.8196	0	0	2.14236
13.8367	0	0	2.14236
13.8741	0	0	2.14236
13.8766	0	0	2.14236
13.9272	0	0	2.14236
13.9534	0	0	2.17692
13.9648	0	0	2.17692
13.9708	0	0	2.17692
13.9863	0	0	2.17692
14.0416	0	0	2.21147
14.141	0	0	2.28058
14.1443	0	0	2.28058
14.1464	0	0	2.28058
14.175	0	0	2.28058
14.2185	0	0	2.28058
14.2215	0	0	2.28058
14.3562	0	0	2.28058
14.3787	0	0	2.28058
14.432	0	0	2.28058
14.4884	0	0	2.28058
14.5276	0	0	2.28058
14.5398	0	0	2.34969
14.5555	0	0	2.34969
14.5589	0	0	2.34969
14.6176	0	0	2.34969
14.6479	0	0	2.38424
14.6736	0	0	2.4188
14.674	0	0	2.4188
14.693	0	0	2.4188
14.7529	0	0	2.4188
14.8069	0	0	2.4188
14.8597	0	0	2.45335
14.8975	0	0	2.45335
14.926	0	0	2.48791
14.97	0	0	2.52246
14.9706	0	0	2.52246
15.0007	0	0	2.52246
15.0095	0	0	2.52246
15.0607	0	0	2.52246
15.1097	0	0	2.55701
15.1576	0	0	2.55701
15.1729	0	0	2.55701
15.2203	0	0	2.55701
15.2313	0	0	2.59157
15.2799	0	0	2.62612
15.3492	0	0	2.62612
15.3749	0	0	2.62612
15.3803	0	0	2.62612
15.395	0	0	2.62612
15.3956	0	0	2.66068
15.4059	0	0	2.69523
15.4117	0	0	2.69523
15.437	0	0	2.69523
15.4826	0	0	2.69523
15.4847	0	0	2.72979
15.5871	0	0	2.72979
15.593	0	0	2.72979
15.6186	0	0	2.72979
15.6203	0	0	2.72979
15.681	0	0	2.72979
15.7267	0	0	2.72979
15.763	0	0	2.76434
15.7654	0	0	2.76434
15.8478	0	0	2.76434
15.8583	0	0	2.79889
15.8776	0	0	2.83345
15.8999	0	0	2.83345
15.9254	0	0	2.83345
15.9341	0	0	2.83345
15.9887	0	0	2.83345
16.0054	0	0	2.83345
16.0222	0	0	2.83345
16.026	0	0	2.83345
16.0893	0	0	2.868
16.1057	0	0	2.868
16.1551	0	0	2.90256
16.1632	0	0	2.93711
16.2184	0	0	2.93711
16.2824	0	0	2.93711
16.2988	0	0	2.93711
16.3743	0	0	2.93711
16.4129	0	0	2.93711
16.4287	0	0	2.93711
16.4488	0	0	2.93711
16.4803	0	0	2.97167
16.4987	0	0	2.97167
16.5086	0	0	2.97167
16.5457	0	0	2.97167
16.5565	0	0	2.97167
16.5611	0	0	3.00622
16.6063	0	0	3.04077
16.6422	0	0	3.07533
16.6452	0	0	3.07533
16.6695	0	0	3.10988
16.7047	0	0	3.14444
16.7398	0	0	3.14444
16.7525	0	0	3.17899
16.7553	0	0	3.17899
16.768	0	0	3.17899
16.8133	0	0	3.17899
16.8683	0	0	3.17899
16.9316	0	0	3.17899
17.0411	0	0	3.2481
17.0649	0	0	3.28265
17.0652	0	0	3.28265
17.0986	0	0	3.31721
17.1117	0	0	3.31721
17.2492	0	0	3.31721
17.2806	0	0	3.35176
17.3849	0	0	3.38632
17.3918	0	0	3.38632
17.4313	0	0	3.38632
17.5236	0	0	3.38632
17.6067	0	0	3.38632
17.649	0	0	3.42087
17.7839	0	0	3.42087
17.8163	0	0	3.48998
17.8185	0	0	3.52453
17.8225	0	0	3.52453
17.865	0	0	3.55909
17.899	0	0	3.6282
17.9168	0	0	3.6282
17.9546	0	0	3.6282
17.9667	0	0	3.6282
17.9908	0	0	3.6282
18.0462	0	0	3.66275
18.076	0	0	3.66275
18.0763	0	0	3.66275
18.2265	0	0	3.6973
18.2658	0	0	3.6973
18.2835	0	0	3.6973
18.2944	0	0	3.6973
18.313	0	0	3.73186
18.3179	0	0	3.73186
18.3701	0	0	3.73186
18.3821	0	0	3.73186
18.4708	0	0	3.76641
18.5062	0	0	3.76641
18.513	0	0	3.80097
18.5188	0	0	3.80097
18.5753	0	0	3.80097
18.5781	0	0	3.80097
18.6872	0	0	3.83552
18.6991	0	0	3.87008
18.7153	0	0	3.87008
18.8294	0	0	3.90463
18.845	0	0	3.93918
18.8733	0	0	3.93918
18.8921	0	0	3.93918
18.9307	0	0	3.97374
18.9739	0	0	3.97374
18.9908	0	0	3.97374
18.9971	0	0	3.97374
19.0544	0	0	3.97374
19.1125	0	0	3.97374
19.1129	0	0	3.97374
19.1253	0	0	4.00829
19.14	0	0	4.04285
19.1517	0	0	4.04285
19.1613	0	0	4.04285
19.1682	0	0	4.04285
19.1744	0	0	4.0774
19.1762	0	0	4.0774
19.2054	0	0	4.11196
19.228	0	0	4.11196
19.2349	0	0	4.14651
19.2476	0	0	4.14651
19.258	0	0	4.14651
19.2713	0	0	4.14651
19.3125	0	0	4.14651
19.3137	0	0	4.14651
19.4268	0	0	4.14651
19.4629	0	0	4.18106
19.4641	0	0	4.21562
19.473	0	0	4.21562
19.5273	0	0	4.21562
19.5787	0	0	4.28473
19.6032	0	0	4.28473
19.6089	0	0	4.31928
19.6306	0	0	4.31928
19.6371	0	0	4.35384
19.6915	0	0	4.38839
19.7237	0	0	4.42294
19.7309	0	0	4.42294
19.7511	0	0	4.42294
19.7722	0	0	4.42294
19.776	0	0	4.4575
19.7796	0	0	4.49205
19.7887	0	0	4.49205
19.7978	0	0	4.49205
19.8017	0	0	4.52661
19.8215	0	0	4.56116
19.8376	0	0	4.59572
20.039	0	0	4.59572
20.1097	0	0	4.59572
20.1732	0	0	4.59572
20.2045	0	0	4.59572
20.227	0	0	4.59572
20.2942	0	0	4.59572
20.3148	0	0	4.66482
20.3543	0	0	4.66482
20.3733	0	0	4.66482
20.3956	0	0	4.69938
20.399	0	0	4.73393
20.4422	0	0	4.76849
20.4713	0	0	4.8376
20.4784	0	0	4.8376
20.5269	0	0	4.87215
20.5357	0	0	4.9067
20.536	0	0	4.9067
20.5707	0	0	4.9067
20.6001	0	0	4.9067
20.6048	0	0	4.94126
20.6691	0	0	4.94126
20.6853	0	0	4.97581
20.8083	0	0	5.01037
20.8186	0	0	5.01037
20.9243	0	0	5.04492
20.9441	0	0	5.07947
20.9527	0	0	5.07947
20.9586	0	0	5.11403
20.9787	0	0	5.14858
21.0234	0	0	5.18314
21.0328	0	0	5.18314
21.0524	0	0	5.21769
21.0698	0	0	5.25225
21.0921	0	0	5.25225
21.2082	0	0	5.25225
21.2197	0	0	5.25225
21.247	0	0	5.25225
21.3091	0	0	5.2868
21.3314	0	0	5.32135
21.3346	0	0	5.35591
21.3369	0	0	5.35591
21.3464	0	0	5.39046
21.3722	0	0	5.39046
21.3724	0	0	5.39046
21.4119	0	0	5.39046
21.4347	0	0	5.39046
21.4444	0	0	5.39046
21.4448	0	0	5.39046
21.4512	0	0	5.39046
21.4932	0	0	5.39046
21.5783	0	0	5.39046
21.5877	0	0	5.39046
21.6919	0	0	5.39046
21.7477	0	0	5.42502
21.817	0	0	5.45957
21.835	0	0	5.45957
21.8386	0	0	5.49413
21.8443	0	0	5.52868
21.8748	0	0	5.52868
21.9128	0	0	5.52868
21.9174	0	0	5.56323
21.923	0	0	5.59779
21.932	0	0	5.63234
21.9355	0	0	5.63234
21.9492	0	0	5.63234
21.957	0	0	5.63234
21.9591	0	0	5.6669
21.9835	0	0	5.6669
22.037	0	0	5.70145
22.1001	0	0	5.73601
22.1144	0	0	5.73601
22.1776	0	0	5.73601
22.1798	0	0	5.77056
22.3247	0	0	5.80511
22.3418	0	0	5.83967
22.3663	0	0	5.87422
22.5023	0	0	5.90878
22.5055	0	0	5.90878
22.5083	0	0	5.94333
22.6258	0	0	5.94333
22.6587	0	0	5.97789
22.6664	0	0	5.97789
22.6752	0	0	5.97789
22.696	0	0	5.97789
22.7378	0	0	6.01244
22.7885	0	0	6.01244
22.8561	0	0	6.01244
22.9166	0	0	6.04699
22.9258	0	0	6.04699
22.9716	0	0	6.04699
23.0234	0	0	6.04699
23.0297	0	0	6.04699
23.1077	0	0	6.04699
23.1841	0	0	6.08155
23.2786	0	0	6.1161
23.2912	0	0	6.1161
23.3176	0	0	6.1161
23.3424	0	0	6.1161
23.3935	0	0	6.1161
23.4417	0	0	6.15066
23.561	0	0	6.15066
23.5842	0	0	6.18521
23.6862	0	0	6.21977
23.6998	0	0	6.21977
23.7076	0	0	6.25432
23.7297	0	0	6.25432
23.8081	0	0	6.28887
23.915	0	0	6.28887
23.9621	0	0	6.28887
23.975	0	0	6.32343
24.0283	0	0	6.32343
24.0538	0	0	6.35798
24.0947	0	0	6.35798
24.0997	0	0	6.35798
24.1002	0	0	6.35798
24.1605	0	0	6.35798
24.1776	0	0	6.42709
24.2971	0	0	6.42709
24.3099	0	0	6.42709
24.3567	0	0	6.46164
24.3716	0	0	6.4962
24.4083	0	0	6.53075
24.4287	0	0	6.56531
24.4361	0	0	6.56531
24.457	0	0	6.59986
24.4678	0	0	6.59986
24.5133	0	0	6.63442
24.6262	0	0	6.66897
24.713	0	0	6.66897
24.7846	0	0	6.70352
24.7923	0	0	6.73808
24.7947	0	0	6.77263
24.8312	0	0	6.80719
24.9313	0	0	6.80719
24.9501	0	0	6.80719
24.9594	0	0	6.84174
25	0	0	6.8763
25.0222	0	0	6.8763
25.07	0	0	6.91085
25.0763	0	0	6.91085
25.09	0	0	6.91085
25.2011	0	0	6.9454
25.2059	0	0	6.97996
25.2366	0	0	6.97996
25.3639	0	0	7.01451
25.3964	0	0	7.01451
25.4359	0	0	7.04907
25.4525	0	0	7.04907
25.471	0	0	7.08362
25.4935	0	0	7.08362
25.4942	0	0	7.08362
25.5129	0	0	7.08362
25.7111	0	0	7.11818
25.7371	0	0	7.11818
25.7726	0	0	7.11818
25.8609	0	0	7.15273
25.8757	0	0	7.18728
26.08	0	0	7.25639
26.0938	0	0	7.29095
26.1963	0	0	7.29095
26.1963	0	0	7.3255
26.2667	0	0	7.3255
26.4271	0	0	7.3255
26.5103	0	0	7.3255
26.606	0	0	7.36006
26.621	0	0	7.36006
26.7465	0	0	7.42916
26.75	0	0	7.42916
26.818	0	0	7.46372
26.8713	0	0	7.46372
26.8847	0	0	7.46372
26.9045	0	0	7.49827
27.0687	0	0	7.49827
27.1589	0	0	7.49827
27.2675	0	0	7.53283
27.277	0	0	7.53283
27.3038	0	0	7.53283
27.3241	0	0	7.53283
27.3906	0	0	7.53283
27.4307	0	0	7.53283
27.6002	0	0	7.56738
27.6388	0	0	7.56738
27.6512	0	0	7.56738
27.7026	0	0	7.56738
27.7048	0	0	7.60194
27.7449	0	0	7.63649
27.8222	0	0	7.63649
27.8806	0	0	7.67104
27.894	0	0	7.7056
27.9101	0	0	7.74015
27.9225	0	0	7.77471
27.9422	0	0	7.77471
27.9422	0	0	7.80926
27.9772	0	0	7.80926
28.0255	0	0	7.84381
28.0357	0	0	7.84381
28.0754	0	0	7.84381
28.1217	0	0	7.84381
28.245	0	0	7.87837
28.3031	0	0	7.94748
28.3655	0	0	7.94748
28.4004	0	0	7.98203
28.4632	0	0	8.01659
28.5432	0	0	8.01659
28.5439	0	0	8.08569
28.646	0	0	8.08569
28.6471	0	0	8.12025
28.6497	0	0	8.12025
28.6812	0	0	8.1548
28.7564	0	0	8.1548
28.7656	0	0	8.18936
28.7679	0	0	8.22391
28.7704	0	0	8.22391
28.7888	0	0	8.25847
28.801	0	0	8.25847
28.8335	0	0	8.25847
28.9312	0	0	8.29302
28.9604	0	0	8.29302
28.9672	0	0	8.29302
29.0295	0	0	8.32757
29.0462	0	0	8.36213
29.1093	0	0	8.36213
29.2591	0	0	8.39668
29.2621	0	0	8.43124
29.2936	0	0	8.46579
29.301	0	0	8.46579
29.3059	0	0	8.46579
29.3111	0	0	8.46579
29.3457	0	0	8.50035
29.4263	0	0	8.5349
29.434	0	0	8.5349
29.4659	0	0	8.60401
29.5015	0	0	8.60401
29.6044	0	0	8.63856
29.6872	0	0	8.63856
29.7641	0	0	8.63856
29.8054	0	0	8.67312
29.8338	0	0	8.70767
29.8478	0	0	8.74223
29.8616	0	0	8.74223
29.8883	0	0	8.74223
29.9295	0	0	8.77678
29.9623	0	0	8.81133
30.1302	0	0	8.84589
30.1556	0	0	8.88044
30.1984	0	0	8.915
30.2469	0	0	8.94955
30.2901	0	0	8.94955
30.3418	0	0	9.01866
30.4259	0	0	9.01866
30.4535	0	0	9.01866
30.4816	0	0	9.05321
30.5202	0	0	9.08777
30.6156	0	0	9.15688
30.6444	0	0	9.19143
30.6603	0	0	9.19143
30.6741	0	0	9.19143
30.7291	0	0	9.22598
30.7494	0	0	9.26054
30.7768	0	0	9.29509
30.894	0	0	9.32965
30.8959	0	0	9.3642
30.9067	0	0	9.3642
30.9126	0	0	9.39876
30.9219	0	0	9.39876
30.9529	0	0	9.39876
30.9609	0	0	9.39876
30.9994	0	0	9.43331
31.0592	0	0	9.43331
31.0748	0	0	9.46786
31.0936	0	0	9.50242
31.1242	0	0	9.50242
31.1315	0	0	9.53697
31.3454	0	0	9.57153
31.3822	0	0	9.60608
31.4163	0	0	9.64064
31.4266	0	0	9.67519
31.5588	0	0	9.70974
31.6367	0	0	9.7443
31.6733	0	0	9.7443
31.6856	0	0	9.7443
31.7318	0	0	9.7443
31.7421	0	0	9.77885
31.8042	0	0	9.77885
31.9483	0	0	9.81341
31.9851	0	0	9.81341
31.9936	0	0	9.88252
32.0526	0	0	9.91707
32.0694	0	0	9.91707
32.0844	0	0	9.91707
32.148	0	0	9.91707
32.2201	0	0	9.91707
32.2394	0	0	9.95162
32.2446	0	0	9.95162
32.2798	0	0	9.95162
32.2987	0	0	9.95162
32.32	0	0	9.98618
32.3731	0	0	10.0207
32.413	0	0	10.0553
32.6588	0	0	10.0553
32.6942	0	0	10.0553
32.7258	0	0	10.1244
32.732	0	0	10.1244
32.7623	0	0	10.1935
32.7695	0	0	10.1935
32.7928	0	0	10.1935
32.8533	0	0	10.1935
32.8668	0	0	10.2281
32.8956	0	0	10.2281
32.9315	0	0	10.2281
32.9626	0	0	10.2281
32.9746	0	0	10.2626
33.0146	0	0	10.2626
33.0705	0	0	10.2626
33.0833	0	0	10.2626
33.1014	0	0	10.2972
33.1249	0	0	10.3317
33.1361	0	0	10.3317
33.1367	0	0	10.3663
33.2096	0	0	10.3663
33.2195	0	0	10.3663
33.2414	0	0	10.4354
33.2547	0	0	10.4699
33.3094	0	0	10.5045
33.3578	0	0	10.539
33.4082	0	0	10.5736
33.4193	0	0	10.6082
33.4512	0	0	10.6427
33.4579	0	0	10.6773
33.5687	0	0	10.6773
33.5836	0	0	10.7118
33.7089	0	0	10.7809
33.7527	0	0	10.8155
33.8136	0	0	10.8846
33.9628	0	0	10.8846
33.9894	0	0	10.9191
34.0387	0	0	10.9191
34.0417	0	0	10.9191
34.0879	0	0	10.9191
34.1069	0	0	10.9537
34.1154	0	0	10.9883
34.1375	0	0	11.0228
34.1844	0	0	11.0228
34.1925	0	0	11.0228
34.2225	0	0	11.0228
34.2307	0	0	11.0574
34.3336	0	0	11.0919
34.3365	0	0	11.0919
34.3436	0	0	11.0919
34.3885	0	0	11.1265
34.4418	0	0	11.1265
34.6957	0	0	11.161
34.7546	0	0	11.161
34.7776	0	0	11.1956
34.8592	0	0	11.1956
34.8612	0	0	11.1956
34.8882	0	0	11.2301
35.0055	0	0	11.2647
35.03	0	0	11.2647
35.074	0	0	11.2992
35.2199	0	0	11.3338
35.4351	0	0	11.3338
35.4541	0	0	11.3338
35.4844	0	0	11.3338
35.6712	0	0	11.3338
35.7589	0	0	11.3338
35.803	0	0	11.3683
35.8095	0	0	11.4029
35.8246	0	0	11.4375
35.827	0	0	11.472
35.8357	0	0	11.5066
35.9078	0	0	11.5411
35.9302	0	0	11.5411
35.9955	0	0	11.5411
36.0639	0	0	11.5757
36.1025	0	0	11.5757
36.13	0	0	11.6102
36.1675	0	0	11.6793
36.1964	0	0	11.6793
36.3154	0	0	11.6793
36.3406	0	0	11.7139
36.3826	0	0	11.7139
36.4145	0	0	11.7139
36.4946	0	0	11.783
36.5358	0	0	11.8176
36.5842	0	0	11.8521
36.6222	0	0	11.8867
36.7273	0	0	11.8867
36.7485	0	0	11.8867
36.7566	0	0	11.9558
36.8241	0	0	11.9903
36.8412	0	0	11.9903
36.9396	0	0	12.0249
36.9496	0	0	12.094
36.9718	0	0	12.1285
37.039	0	0	12.1631
37.1106	0	0	12.2322
37.1369	0	0	12.2322
37.1381	0	0	12.2322
37.2041	0	0	12.2322
37.2249	0	0	12.2668
37.2476	0	0	12.3013
37.2796	0	0	12.3013
37.2924	0	0	12.3013
37.3341	0	0	12.3704
37.412	0	0	12.405
37.4183	0	0	12.4741
37.427	0	0	12.4741
37.4863	0	0	12.5432
37.5692	0	0	12.5777
37.621	0	0	12.6123
37.7096	0	0	12.6469
37.7196	0	0	12.6469
37.7382	0	0	12.6469
37.8287	0	0	12.6469
37.8724	0	0	12.6469
37.9228	0	0	12.6469
37.9379	0	0	12.6814
37.9608	0	0	12.716
37.98	0	0	12.7505
37.9893	0	0	12.7505
37.9968	0	0	12.7851
38.017	0	0	12.8196
38.0496	0	0	12.8196
38.0625	0	0	12.8196
38.064	0	0	12.8196
38.1282	0	0	12.8542
38.1726	0	0	12.8887
38.2632	0	0	12.9233
38.2669	0	0	12.9578
38.3211	0	0	12.9578
38.3646	0	0	13.027
38.3812	0	0	13.0615
38.4417	0	0	13.0961
38.5053	0	0	13.1306
38.5395	0	0	13.1652
38.5757	0	0	13.1997
38.633	0	0	13.1997
38.6709	0	0	13.2688
38.7299	0	0	13.3034
38.821	0	0	13.3725
38.9486	0	0	13.407
39.0116	0	0	13.4762
39.0218	0	0	13.5107
39.0484	0	0	13.5107
39.0853	0	0	13.5453
39.1396	0	0	13.5453
39.2585	0	0	13.5798
39.2621	0	0	13.5798
39.3401	0	0	13.6144
39.3974	0	0	13.6489
39.476	0	0	13.6835
39.5123	0	0	13.718
39.5215	0	0	13.718
39.5514	0	0	13.7526
39.6455	0	0	13.8217
39.6544	0	0	13.8563
39.7211	0	0	13.9254
39.7556	0	0	13.9599
39.9234	0	0	13.9599
40.0172	0	0	13.9945
40.038	0	0	14.029
40.1966	0	0	14.0636
40.2174	0	0	14.1327
40.2445	0	0	14.1327
40.325	0	0	14.1672
40.3493	0	0	14.2018
40.3496	0	0	14.2709
40.4704	0	0	14.34
40.5088	0	0	14.3746
40.5195	0	0	14.3746
40.5374	0	0	14.4437
40.5445	0	0	14.4437
40.5583	0	0	14.4437
40.5742	0	0	14.4782
40.5753	0	0	14.5128
40.5899	0	0	14.5128
40.6125	0	0	14.5128
40.6456	0	0	14.5473
40.733	0	0	14.5819
40.7357	0	0	14.5819
40.7718	0	0	14.5819
40.8234	0	0	14.5819
40.8473	0	0	14.5819
40.8844	0	0	14.6164
40.9841	0	0	14.651
40.9946	0	0	14.6856
41.1398	0	0	14.6856
41.2464	0	0	14.7547
41.3014	0	0	14.7892
41.3155	0	0	14.8238
41.3173	0	0	14.8238
41.3373	0	0	14.8583
41.384	0	0	14.8583
41.384	0	0	14.8929
41.397	0	0	14.8929
41.4705	0	0	14.8929
41.5375	0	0	14.9274
41.5752	0	0	14.9965
41.6348	0	0	14.9965
41.7168	0	0	15.0657
41.7238	0	0	15.1002
41.8331	0	0	15.1348
41.8635	0	0	15.1693
41.9249	0	0	15.2039
41.9981	0	0	15.2039
42.1343	0	0	15.273
42.1416	0	0	15.3075
42.2239	0	0	15.3766
42.2241	0	0	15.3766
42.2385	0	0	15.3766
42.3903	0	0	15.4112
42.4254	0	0	15.4803
42.4673	0	0	15.5149
42.4799	0	0	15.5149
42.5446	0	0	15.5494
42.546	0	0	15.5494
42.6192	0	0	15.5494
42.6702	0	0	15.584
42.6793	0	0	15.584
42.7383	0	0	15.6531
42.7497	0	0	15.7222
42.7842	0	0	15.7567
42.7932	0	0	15.7567
42.8192	0	0	15.7567
42.851	0	0	15.7567
42.8806	0	0	15.7567
42.9857	0	0	15.7913
43.0164	0	0	15.8258
43.1434	0	0	15.8604
43.2102	0	0	15.895
43.2155	0	0	15.9641
43.3076	0	0	15.9986
43.3272	0	0	15.9986
43.3447	0	0	16.0332
43.4554	0	0	16.0677
43.4888	0	0	16.1023
43.4898	0	0	16.1368
43.555	0	0	16.1368
43.6535	0	0	16.1368
43.7406	0	0	16.1368
43.7419	0	0	16.1368
43.8776	0	0	16.1368
43.8829	0	0	16.1714
43.904	0	0	16.2059
43.982	0	0	16.2751
43.9826	0	0	16.2751
44.0565	0	0	16.3096
44.1072	0	0	16.3096
44.1596	0	0	16.3096
44.1604	0	0	16.3442
44.1889	0	0	16.3787
44.2593	0	0	16.4478
44.3062	0	0	16.4478
44.309	0	0	16.4478
44.3454	0	0	16.4824
44.3613	0	0	16.5515
44.3639	0	0	16.5515
44.5239	0	0	16.586
44.6707	0	0	16.6551
44.803	0	0	16.6551
44.8776	0	0	16.6897
44.9522	0	0	16.7243
45.0135	0	0	16.7243
45.0186	0	0	16.7588
45.0371	0	0	16.7934
45.1244	0	0	16.8279
45.128	0	0	16.8625
45.1985	0	0	16.8625
45.2525	0	0	16.897
45.2636	0	0	16.9316
45.3022	0	0	16.9661
45.3026	0	0	17.0007
45.3489	0	0	17.0352
45.4589	0	0	17.0352
45.5525	0	0	17.0352
45.5906	0	0	17.0352
45.6102	0	0	17.1044
45.6941	0	0	17.1389
45.7052	0	0	17.1735
45.7492	0	0	17.1735
45.7912	0	0	17.208
45.813	0	0	17.2426
45.8606	0	0	17.2426
45.905	0	0	17.3117
45.9492	0	0	17.3117
46.0708	0	0	17.3462
46.1001	0	0	17.3462
46.1282	0	0	17.3808
46.4181	0	0	17.4153
46.4407	0	0	17.4499
46.473	0	0	17.4845
46.584	0	0	17.5536
46.5983	0	0	17.6227
46.6001	0	0	17.6918
46.6281	0	0	17.7263
46.7082	0	0	17.7263
46.7426	0	0	17.7609
46.7597	0	0	17.7954
46.7988	0	0	17.8645
46.8425	0	0	17.8645
47.0171	0	0	17.9337
47.0326	0	0	17.9337
47.116	0	0	17.9682
47.1239	0	0	17.9682
47.1436	0	0	18.0028
47.2769	0	0	18.0373
47.3428	0	0	18.1064
47.4888	0	0	18.1064
47.6595	0	0	18.141
47.7881	0	0	18.141
47.8419	0	0	18.1755
47.8529	0	0	18.2446
47.9153	0	0	18.2792
47.9193	0	0	18.3138
47.9767	0	0	18.3829
47.9978	0	0	18.452
48.0354	0	0	18.4865
48.0388	0	0	18.5556
48.0901	0	0	18.5902
48.1449	0	0	18.5902
48.1601	0	0	18.5902
48.2148	0	0	18.5902
48.4614	0	0	18.5902
48.4626	0	0	18.6247
48.4633	0	0	18.6938
48.5336	0	0	18.763
48.5848	0	0	18.763
48.6499	0	0	18.7975
48.6627	0	0	18.8321
48.6813	0	0	18.9012
48.8283	0	0	18.9357
48.9818	0	0	18.9357
49.1695	0	0	18.9703
49.2704	0	0	18.9703
49.3241	0	0	18.9703
49.4883	0	0	19.0048
49.5836	0	0	19.0048
49.5934	0	0	19.0394
49.6083	0	0	19.0739
49.7546	0	0	19.0739
49.7715	0	0	19.0739
49.7834	0	0	19.0739
49.8442	0	0	19.1085
49.8586	0	0	19.1085
50.0019	0	0	19.1085
50.02	0	0	19.1085
50.0759	0	0	19.1431
50.1655	0	0	19.1431
50.208	0	0	19.2122
50.4402	0	0	19.2813
50.4418	0	0	19.2813
50.5193	0	0	19.2813
50.5613	0	0	19.3504
50.6296	0	0	19.3504
50.6589	0	0	19.4195
50.6908	0	0	19.4195
50.7249	0	0	19.4195
50.8295	0	0	19.454
51.0746	0	0	19.5232
51.0993	0	0	19.5923
51.1126	0	0	19.6268
51.1445	0	0	19.6614
51.2531	0	0	19.6959
51.3135	0	0	19.7305
51.3381	0	0	19.765
51.3572	0	0	19.8341
51.3641	0	0	19.9032
51.4315	0	0	19.9378
51.4486	0	0	20.0069
51.5039	0	0	20.0069
51.5579	0	0	20.076
51.6198	0	0	20.076
51.6484	0	0	20.1106
51.7767	0	0	20.1451
51.8136	0	0	20.1797
51.9876	0	0	20.2142
51.9958	0	0	20.2142
52.0798	0	0	20.2488
52.1005	0	0	20.2833
52.1156	0	0	20.3179
52.1391	0	0	20.3525
52.2558	0	0	20.387
52.2906	0	0	20.387
52.2956	0	0	20.4216
52.3536	0	0	20.4561
52.4453	0	0	20.4907
52.5047	0	0	20.4907
52.6326	0	0	20.5252
52.6656	0	0	20.5598
52.7534	0	0	20.6289
52.7579	0	0	20.6634
52.901	0	0	20.7326
52.9881	0	0	20.7326
52.9991	0	0	20.7671
53.0247	0	0	20.8017
53.0259	0	0	20.8017
53.0364	0	0	20.8017
53.0672	0	0	20.8362
53.2152	0	0	20.8362
53.2646	0	0	20.8362
53.2854	0	0	20.8708
53.3361	0	0	20.9053
53.356	0	0	20.9399
53.3701	0	0	21.009
53.4457	0	0	21.0435
53.4591	0	0	21.1126
53.4834	0	0	21.1126
53.5902	0	0	21.1472
53.6085	0	0	21.1818
53.7086	0	0	21.2163
53.7576	0	0	21.2854
53.8358	0	0	21.2854
53.8943	0	0	21.32
53.9575	0	0	21.32
53.9623	0	0	21.3891
54.023	0	0	21.4236
54.0526	0	0	21.4927
54.126	0	0	21.4927
54.3076	0	0	21.5619
54.3745	0	0	21.5964
54.4413	0	0	21.5964
54.5461	0	0	21.5964
54.6101	0	0	21.5964
54.7205	0	0	21.631
54.8015	0	0	21.631
54.8369	0	0	21.631
54.8558	0	0	21.631
54.8599	0	0	21.6655
54.8698	0	0	21.7001
54.9039	0	0	21.7692
54.965	0	0	21.8037
55.0484	0	0	21.8383
55.056	0	0	21.9074
55.1145	0	0	21.9419
55.1212	0	0	22.0111
55.1431	0	0	22.0802
55.1558	0	0	22.1147
55.2017	0	0	22.1493
55.3046	0	0	22.1838
55.3202	0	0	22.1838
55.3331	0	0	22.2529
55.4028	0	0	22.2875
55.4748	0	0	22.2875
55.5412	0	0	22.3566
55.5852	0	0	22.3912
55.6714	0	0	22.4603
55.7013	0	0	22.5294
55.72	0	0	22.5639
55.755	0	0	22.5985
55.8531	0	0	22.6676
55.8548	0	0	22.7367
55.8871	0	0	22.8058
55.8925	0	0	22.8404
55.9167	0	0	22.8404
56.046	0	0	22.8749
56.075	0	0	22.8749
56.0846	0	0	22.944
56.0979	0	0	22.944
56.1162	0	0	23.0131
56.2484	0	0	23.0131
56.6494	0	0	23.0822
56.7018	0	0	23.1168
56.7986	0	0	23.1513
56.82	0	0	23.2205
57.0027	0	0	23.255
57.0484	0	0	23.2896
57.0729	0	0	23.3241
57.0742	0	0	23.3587
57.0997	0	0	23.3932
57.165	0	0	23.4623
57.2498	0	0	23.4623
57.2947	0	0	23.4969
57.3096	0	0	23.4969
57.5052	0	0	23.566
57.521	0	0	23.566
57.5716	0	0	23.6006
57.6116	0	0	23.6006
57.6604	0	0	23.6351
57.685	0	0	23.6697
57.6953	0	0	23.7388
57.7777	0	0	23.7733
57.8441	0	0	23.7733
57.9888	0	0	23.8079
58.0218	0	0	23.877
58.0777	0	0	23.9461
58.1374	0	0	23.9461
58.3235	0	0	23.9461
58.3882	0	0	23.9461
58.4488	0	0	23.9806
58.4763	0	0	24.0498
58.5354	0	0	24.0498
58.5711	0	0	24.1189
58.5823	0	0	24.1534
58.6188	0	0	24.2225
58.6689	0	0	24.2916
58.7467	0	0	24.3262
58.7927	0	0	24.3607
58.9042	0	0	24.3607
58.942	0	0	24.3953
59.1858	0	0	24.4299
59.2071	0	0	24.4299
59.242	0	0	24.4644
59.4183	0	0	24.5335
59.442	0	0	24.5681
59.4771	0	0	24.6026
59.516	0	0	24.6372
59.5715	0	0	24.6717
59.7428	0	0	24.7063
59.7555	0	0	24.7063
59.8173	0	0	24.7754
59.9016	0	0	24.8445
59.941	0	0	24.8445
60.0512	0	0	24.8791
60.1108	0	0	24.8791
60.169	0	0	24.9136
60.3671	0	0	24.9482
60.3747	0	0	24.9827
60.4611	0	0	25.0518
60.5687	0	0	25.0864
60.6309	0	0	25.1209
60.7204	0	0	25.19
60.8957	0	0	25.2592
61.0153	0	0	25.2937
61.0282	0	0	25.3628
61.0929	0	0	25.4319
61.1031	0	0	25.4665
61.1283	0	0	25.501
61.1607	0	0	25.5356
61.176	0	0	25.5356
61.19	0	0	25.6047
61.2483	0	0	25.6738
61.2978	0	0	25.7429
61.3143	0	0	25.812
61.3465	0	0	25.812
61.4009	0	0	25.8811
61.41	0	0	25.9502
61.5151	0	0	25.9502
61.5314	0	0	25.9848
61.5992	0	0	26.0194
61.6871	0	0	26.0885
61.6873	0	0	26.123
61.801	0	0	26.1576
61.9394	0	0	26.2267
61.9939	0	0	26.2958
62.1031	0	0	26.3303
62.2767	0	0	26.3649
62.3151	0	0	26.434
62.3268	0	0	26.4686
62.41	0	0	26.5031
62.5342	0	0	26.5031
62.5842	0	0	26.5377
62.683	0	0	26.5722
62.8107	0	0	26.5722
62.8564	0	0	26.6413
63.0343	0	0	26.6413
63.072	0	0	26.6759
63.0964	0	0	26.7104
63.1074	0	0	26.7104
63.1075	0	0	26.7104
63.1759	0	0	26.745
63.2864	0	0	26.7795
63.3266	0	0	26.8487
63.4322	0	0	26.9178
63.4933	0	0	26.9178
63.5993	0	0	26.9869
63.608	0	0	26.9869
63.66	0	0	27.0214
63.9346	0	0	27.056
64.1961	0	0	27.0905
64.3034	0	0	27.1596
64.4121	0	0	27.1942
64.5099	0	0	27.2287
64.534	0	0	27.2979
64.7496	0	0	27.3324
64.7968	0	0	27.367
65.0623	0	0	27.4015
65.0753	0	0	27.4361
65.168	0	0	27.5052
65.1817	0	0	27.5743
65.2839	0	0	27.6088
65.2967	0	0	27.678
65.3301	0	0	27.7125
65.3533	0	0	27.7816
65.4006	0	0	27.8507
65.49	0	0	27.8853
65.5849	0	0	27.9544
65.6178	0	0	27.9544
65.6827	0	0	27.9889
65.6895	0	0	28.0581
65.9325	0	0	28.1272
66.1032	0	0	28.1617
66.1637	0	0	28.2308
66.189	0	0	28.2654
66.2437	0	0	28.2999
66.2439	0	0	28.369
66.2549	0	0	28.4036
66.2746	0	0	28.4381
66.2888	0	0	28.4727
66.3141	0	0	28.5073
66.3882	0	0	28.5764
66.4883	0	0	28.6455
66.5778	0	0	28.7146
66.7579	0	0	28.7146
66.8066	0	0	28.7491
66.8628	0	0	28.7491
66.8842	0	0	28.7491
67.0095	0	0	28.7837
67.0128	0	0	28.8528
67.0277	0	0	28.8528
67.199	0	0	28.9219
67.3222	0	0	28.991
67.3877	0	0	29.0256
67.4536	0	0	29.0256
67.4609	0	0	29.0601
67.4792	0	0	29.0601
67.5047	0	0	29.0601
67.5178	0	0	29.1292
67.572	0	0	29.1638
67.5818	0	0	29.1638
67.5866	0	0	29.2329
67.72	0	0	29.2674
67.7605	0	0	29.2674
67.867	0	0	29.302
67.9663	0	0	29.3711
67.9788	0	0	29.3711
67.9829	0	0	29.3711
68.0678	0	0	29.4402
68.1181	0	0	29.4748
68.133	0	0	29.4748
68.1403	0	0	29.5093
68.2061	0	0	29.5439
68.3573	0	0	29.5784
68.4331	0	0	29.613
68.4756	0	0	29.6475
68.4789	0	0	29.7167
68.4809	0	0	29.7167
68.486	0	0	29.7512
68.5884	0	0	29.7858
68.5988	0	0	29.7858
68.6507	0	0	29.8203
68.6736	0	0	29.8549
68.6971	0	0	29.924
68.7312	0	0	29.9585
68.811	0	0	29.9931
68.8668	0	0	30.0622
68.9242	0	0	30.0968
68.9314	0	0	30.1313
69.0117	0	0	30.2004
69.0133	0	0	30.2695
69.1483	0	0	30.3386
69.3246	0	0	30.3386
69.3877	0	0	30.3732
69.4009	0	0	30.4077
69.4013	0	0	30.4768
69.4078	0	0	30.546
69.4506	0	0	30.5805
69.4924	0	0	30.6151
69.5319	0	0	30.6496
69.6137	0	0	30.6842
69.6879	0	0	30.7187
69.7091	0	0	30.7878
69.8005	0	0	30.8569
69.8024	0	0	30.9261
69.9625	0	0	30.9606
70.0497	0	0	30.9952
70.0615	0	0	31.0297
70.1587	0	0	31.0643
70.1879	0	0	31.1334
70.2243	0	0	31.1679
70.2398	0	0	31.237
70.2487	0	0	31.2716
70.3772	0	0	31.3062
70.6144	0	0	31.3407
70.6206	0	0	31.3407
70.6273	0	0	31.3407
70.644	0	0	31.3407
70.6541	0	0	31.3753
70.7827	0	0	31.4098
70.8306	0	0	31.4444
70.9636	0	0	31.4789
70.9812	0	0	31.548
71.0179	0	0	31.6171
71.1182	0	0	31.6862
71.1278	0	0	31.7208
71.1892	0	0	31.7554
71.2165	0	0	31.7899
71.2428	0	0	31.8245
71.3819	0	0	31.8245
71.5019	0	0	31.859
71.5327	0	0	31.8936
71.533	0	0	31.9281
71.6355	0	0	31.9627
71.679	0	0	31.9972
71.7827	0	0	32.0318
71.7828	0	0	32.0663
71.7962	0	0	32.0663
71.8347	0	0	32.1355
71.8508	0	0	32.2046
71.8969	0	0	32.2737
72.0557	0	0	32.3082
72.2432	0	0	32.3773
72.3274	0	0	32.3773
72.338	0	0	32.3773
72.5103	0	0	32.4464
72.5747	0	0	32.481
72.6753	0	0	32.5501
72.7312	0	0	32.6192
72.7559	0	0	32.6883
72.7972	0	0	32.7229
72.8411	0	0	32.7574
72.8477	0	0	32.792
72.8552	0	0	32.8265
72.9059	0	0	32.8265
72.9152	0	0	32.8611
73.1031	0	0	32.8611
73.1582	0	0	32.8956
73.3294	0	0	32.9648
73.3449	0	0	32.9648
73.3547	0	0	33.0339
73.5069	0	0	33.103
73.5089	0	0	33.1721
73.5372	0	0	33.2066
73.5403	0	0	33.2412
73.836	0	0	33.3103
73.8578	0	0	33.3794
73.9332	0	0	33.414
73.9336	0	0	33.414
74.0063	0	0	33.4485
74.0338	0	0	33.4485
74.0923	0	0	33.4831
74.1172	0	0	33.5176
74.151	0	0	33.5867
74.2182	0	0	33.6213
74.2602	0	0	33.6213
74.2649	0	0	33.6904
74.2668	0	0	33.6904
74.5115	0	0	33.7595
74.6355	0	0	33.8286
74.7206	0	0	33.8286
74.7591	0	0	33.8632
74.8136	0	0	33.8632
74.8616	0	0	33.9323
74.8853	0	0	34.0014
74.8864	0	0	34.0359
75.0103	0	0	34.0705
75.0278	0	0	34.1396
75.121	0	0	34.2087
75.235	0	0	34.2433
75.2384	0	0	34.2778
75.3293	0	0	34.3124
75.331	0	0	34.3124
75.4417	0	0	34.3469
75.4737	0	0	34.3469
75.5105	0	0	34.3815
75.5419	0	0	34.416
75.6167	0	0	34.4851
75.6572	0	0	34.5543
75.7006	0	0	34.6234
75.7107	0	0	34.6925
75.8197	0	0	34.7616
75.8436	0	0	34.7961
75.9388	0	0	34.8652
76.0137	0	0	34.8998
76.079	0	0	34.9689
76.3063	0	0	35.0035
76.4229	0	0	35.038
76.594	0	0	35.0726
76.6156	0	0	35.1417
76.656	0	0	35.2108
76.6728	0	0	35.2453
76.6995	0	0	35.2799
76.7658	0	0	35.2799
76.7712	0	0	35.3144
76.7829	0	0	35.3836
77	0	0	35.3836
77.0353	0	0	35.4181
77.0824	0	0	35.4527
77.0954	0	0	35.4872
77.1044	0	0	35.5563
77.1459	0	0	35.6254
77.2304	0	0	35.66
77.2838	0	0	35.6945
77.4405	0	0	35.7291
77.4977	0	0	35.7291
77.616	0	0	35.7636
77.662	0	0	35.8328
77.6677	0	0	35.8673
77.7111	0	0	35.9019
77.7892	0	0	35.9364
77.828	0	0	35.9364
77.8908	0	0	36.0055
77.9237	0	0	36.0401
77.9883	0	0	36.0746
78.0474	0	0	36.1092
78.1658	0	0	36.1437
78.3842	0	0	36.1437
78.4305	0	0	36.1783
78.4619	0	0	36.2129
78.4835	0	0	36.282
78.5847	0	0	36.3511
78.5858	0	0	36.4202
78.6417	0	0	36.4893
78.6809	0	0	36.4893
78.7144	0	0	36.4893
78.8533	0	0	36.5584
78.8773	0	0	36.6275
78.9615	0	0	36.6621
79.1168	0	0	36.6621
79.1296	0	0	36.7312
79.1569	0	0	36.8003
79.39	0	0	36.8694
79.3916	0	0	36.9385
79.4921	0	0	36.973
79.5572	0	0	36.973
79.5808	0	0	37.0076
79.781	0	0	37.0422
79.9283	0	0	37.0767
79.9635	0	0	37.1113
79.9764	0	0	37.1804
79.9915	0	0	37.2149
80.1581	0	0	37.284
80.1812	0	0	37.3186
80.3253	0	0	37.3877
80.3275	0	0	37.4568
80.4288	0	0	37.4568
80.527	0	0	37.4914
80.9251	0	0	37.5259
81.0169	0	0	37.5605
81.2904	0	0	37.5605
81.3663	0	0	37.5605
81.4033	0	0	37.6296
81.48	0	0	37.6641
81.4909	0	0	37.7332
81.497	0	0	37.8023
81.5354	0	0	37.8715
81.5801	0	0	37.906
82.0764	0	0	37.9751
82.1329	0	0	38.0442
82.3037	0	0	38.0788
82.3474	0	0	38.1133
82.4158	0	0	38.1479
82.4419	0	0	38.1479
82.4497	0	0	38.1479
82.4752	0	0	38.1479
82.5232	0	0	38.217
82.6924	0	0	38.2516
82.7347	0	0	38.3207
82.7743	0	0	38.3898
82.794	0	0	38.3898
82.9039	0	0	38.4589
82.9427	0	0	38.528
82.9788	0	0	38.5971
83.0257	0	0	38.6317
83.0535	0	0	38.6662
83.1616	0	0	38.7008
83.2298	0	0	38.7699
83.2337	0	0	38.8044
83.2436	0	0	38.8735
83.2812	0	0	38.9081
83.2823	0	0	38.9426
83.3641	0	0	38.9772
83.4516	0	0	39.0117
83.4683	0	0	39.0809
83.6087	0	0	39.0809
83.6172	0	0	39.1154
83.6697	0	0	39.15
83.8403	0	0	39.15
83.8609	0	0	39.1845
84.2071	0	0	39.2536
84.2318	0	0	39.2882
84.3215	0	0	39.3573
84.3726	0	0	39.3918
84.7587	0	0	39.4264
84.7759	0	0	39.461
84.79	0	0	39.4955
85.1451	0	0	39.5301
85.1854	0	0	39.5992
85.3124	0	0	39.6337
85.3154	0	0	39.6683
85.4078	0	0	39.7374
85.4208	0	0	39.7374
85.5027	0	0	39.7719
85.5147	0	0	39.8411
85.5849	0	0	39.8756
85.7534	0	0	39.9447
85.7684	0	0	39.9793
85.7727	0	0	40.0138
85.7758	0	0	40.0829
85.9983	0	0	40.152
86.114	0	0	40.2211
86.2128	0	0	40.2211
86.303	0	0	40.2557
86.4384	0	0	40.3248
86.4562	0	0	40.3594
86.5893	0	0	40.3594
86.6429	0	0	40.4285
86.6832	0	0	40.463
86.7062	0	0	40.5321
86.7406	0	0	40.5667
87.0512	0	0	40.6012
87.0824	0	0	40.6358
87.1138	0	0	40.6704
87.1518	0	0	40.7395
87.2833	0	0	40.774
87.3075	0	0	40.8086
87.358	0	0	40.8086
87.3684	0	0	40.8777
87.4414	0	0	40.8777
87.4432	0	0	40.9468
87.4573	0	0	40.9813
87.5838	0	0	40.9813
87.5979	0	0	41.0159
87.6686	0	0	41.0159
87.7896	0	0	41.085
87.9261	0	0	41.1541
87.9825	0	0	41.1887
88.0419	0	0	41.2578
88.0899	0	0	41.3269
88.4014	0	0	41.396
88.4427	0	0	41.4305
88.4437	0	0	41.4997
88.5336	0	0	41.5342
88.6411	0	0	41.6033
88.7271	0	0	41.6724
88.778	0	0	41.7415
88.8629	0	0	41.8106
88.8646	0	0	41.8106
88.8842	0	0	41.8798
88.9692	0	0	41.9143
89.1523	0	0	41.9834
89.2025	0	0	42.018
89.3176	0	0	42.0525
89.3198	0	0	42.0871
89.3547	0	0	42.1216
89.5401	0	0	42.1907
89.5656	0	0	42.2253
89.7673	0	0	42.2598
89.8313	0	0	42.329
89.9013	0	0	42.3981
89.9829	0	0	42.4326
89.9976	0	0	42.4672
90.0147	0	0	42.5017
90.093	0	0	42.5363
90.3122	0	0	42.6054
90.3144	0	0	42.6745
90.419	0	0	42.7091
90.4299	0	0	42.7782
90.5418	0	0	42.7782
90.7179	0	0	42.8127
90.9349	0	0	42.8127
90.9791	0	0	42.8473
90.9991	0	0	42.8818
91.1826	0	0	42.9509
91.2136	0	0	42.9509
91.2567	0	0	43.02
91.2885	0	0	43.0891
91.3545	0	0	43.0891
91.5553	0	0	43.1237
91.5998	0	0	43.1583
91.6072	0	0	43.2274
91.6508	0	0	43.2274
91.948	0	0	43.2965
91.9679	0	0	43.331
91.9792	0	0	43.3656
92.1613	0	0	43.4001
92.1651	0	0	43.4347
92.3105	0	0	43.4692
92.3286	0	0	43.5038
92.4648	0	0	43.5384
92.4913	0	0	43.6075
92.6281	0	0	43.6766
92.7759	0	0	43.7457
92.7909	0	0	43.8148
92.7985	0	0	43.8493
92.9012	0	0	43.8839
93.0093	0	0	43.9185
93.0302	0	0	43.9876
93.1307	0	0	44.0221
93.1377	0	0	44.0567
93.1886	0	0	44.0912
93.307	0	0	44.1258
93.4164	0	0	44.1603
93.5753	0	0	44.2294
93.7624	0	0	44.2985
93.8809	0	0	44.3331
94.1437	0	0	44.4022
94.2827	0	0	44.4713
94.3424	0	0	44.5404
94.3436	0	0	44.5404
94.5095	0	0	44.575
94.5331	0	0	44.6441
94.5738	0	0	44.6786
94.6675	0	0	44.7478
94.8021	0	0	44.7823
94.9472	0	0	44.8514
95.0398	0	0	44.886
95.0825	0	0	44.9551
95.0942	0	0	45.0242
95.1177	0	0	45.0587
95.19	0	0	45.0933
95.2549	0	0	45.1279
95.2619	0	0	45.197
95.3419	0	0	45.2315
95.3445	0	0	45.2315
95.4846	0	0	45.2661
95.5351	0	0	45.3352
95.5675	0	0	45.3697
95.6207	0	0	45.4043
95.6746	0	0	45.4388
95.692	0	0	45.4734
95.8065	0	0	45.5425
95.8935	0	0	45.5425
95.8947	0	0	45.5771
95.897	0	0	45.5771
95.9057	0	0	45.6462
96.0133	0	0	45.6807
96.1115	0	0	45.7153
96.2089	0	0	45.7498
96.3573	0	0	45.8189
96.3796	0	0	45.888
96.4716	0	0	45.9572
96.5421	0	0	45.9917
96.554	0	0	46.0263
96.5545	0	0	46.0608
96.5611	0	0	46.0954
96.7227	0	0	46.1645
96.7494	0	0	46.2336
96.753	0	0	46.3027
96.8129	0	0	46.3718
97.0785	0	0	46.4064
97.1137	0	0	46.4409
97.3338	0	0	46.51
97.4302	0	0	46.5791
97.6138	0	0	46.6137
97.7603	0	0	46.6828
97.9308	0	0	46.7173
98.1626	0	0	46.7519
98.1942	0	0	46.821
98.2215	0	0	46.821
98.3153	0	0	46.8901
98.451	0	0	46.9247
98.4792	0	0	46.9247
98.5669	0	0	46.9592
98.5863	0	0	46.9938
98.6208	0	0	47.0629
98.7456	0	0	47.132
98.8877	0	0	47.2011
98.9784	0	0	47.2357
99.0882	0	0	47.2702
99.0951	0	0	47.3393
99.1691	0	0	47.3739
99.1941	0	0	47.3739
99.2565	0	0	47.443
99.2842	0	0	47.443
99.3346	0	0	47.5121
99.5084	0	0	47.5812
99.5094	0	0	47.5812
99.5131	0	0	47.6503
99.6374	0	0	47.6503
99.6512	0	0	47.6849
99.6556	0	0	47.7194
100.02	0	0	47.754
100.125	0	0	47.7885
100.128	0	0	47.8576
100.232	0	0	47.9267
100.332	0	0	47.9613
100.418	0	0	48.0304
100.785	0	0	48.065
101.017	0	0	48.0995
101.025	0	0	48.1686
101.048	0	0	48.2032
101.107	0	0	48.2377
101.259	0	0	48.3068
101.378	0	0	48.3414
101.386	0	0	48.3414
101.556	0	0	48.376
101.593	0	0	48.4105
101.712	0	0	48.4451
101.781	0	0	48.5142
101.969	0	0	48.5487
102.072	0	0	48.6178
102.352	0	0	48.6869
102.428	0	0	48.756
102.459	0	0	48.8252
102.488	0	0	48.8597
102.513	0	0	48.8943
102.554	0	0	48.9288
102.646	0	0	48.9288
102.679	0	0	48.9979
102.808	0	0	49.067
102.93	0	0	49.1016
103.02	0	0	49.1707
103.031	0	0	49.2398
103.483	0	0	49.2744
103.531	0	0	49.3435
103.575	0	0	49.4126
103.673	0	0	49.4817
104.11	0	0	49.5162
104.198	0	0	49.5508
104.255	0	0	49.5853
104.417	0	0	49.6545
104.443	0	0	49.7236
104.565	0	0	49.7927
104.668	0	0	49.8618
104.717	0	0	49.9309
104.891	0	0	50
104.914	0	0	50.0691
104.993	0	0	50.1037
105.205	0	0	50.1728
105.39	0	0	50.2073
105.574	0	0	50.2764
105.588	0	0	50.3455
105.718	0	0	50.4147
105.774	0	0	50.4838
105.883	0	0	50.5529
105.89	0	0	50.622
105.927	0	0	50.6565
105.944	0	0	50.6911
106.212	0	0	50.7256
106.324	0	0	50.7947
106.43	0	0	50.8293
106.472	0	0	50.8984
106.65	0	0	50.9675
106.696	0	0	51.0021
106.867	0	0	51.0366
107.235	0	0	51.0712
107.5	0	0	51.1057
107.519	0	0	51.1748
107.63	0	0	51.2094
107.644	0	0	51.2785
107.734	0	0	51.2785
107.782	0	0	51.3131
107.806	0	0	51.3476
107.882	0	0	51.4167
108.112	0	0	51.4858
108.118	0	0	51.5549
108.121	0	0	51.5895
108.124	0	0	51.6586
108.212	0	0	51.6586
108.213	0	0	51.7277
108.438	0	0	51.7277
108.672	0	0	51.7968
109.331	0	0	51.8659
109.474	0	0	51.9005
109.622	0	0	51.9696
109.63	0	0	52.0387
109.796	0	0	52.1078
109.808	0	0	52.1424
109.866	0	0	52.2115
109.924	0	0	52.246
110.024	0	0	52.2806
110.095	0	0	52.3497
110.104	0	0	52.4188
110.312	0	0	52.4188
110.381	0	0	52.4879
110.582	0	0	52.557
110.6	0	0	52.6261
110.793	0	0	52.6952
110.906	0	0	52.7298
110.978	0	0	52.7989
110.99	0	0	52.868
111.235	0	0	52.9371
111.252	0	0	52.9717
111.396	0	0	53.0062
112.009	0	0	53.0408
112.032	0	0	53.1099
112.044	0	0	53.1444
112.051	0	0	53.179
112.357	0	0	53.2481
112.383	0	0	53.3172
112.535	0	0	53.3863
112.641	0	0	53.4554
112.829	0	0	53.5245
112.833	0	0	53.5936
112.879	0	0	53.6628
112.927	0	0	53.6973
112.972	0	0	53.7319
113.093	0	0	53.801
113.127	0	0	53.8701
113.147	0	0	53.9392
113.202	0	0	53.9392
113.218	0	0	53.9737
113.34	0	0	54.0428
113.569	0	0	54.0774
113.731	0	0	54.1465
113.743	0	0	54.2156
113.77	0	0	54.2847
114.022	0	0	54.3193
114.094	0	0	54.3884
114.299	0	0	54.4229
114.325	0	0	54.4229
114.485	0	0	54.4921
114.564	0	0	54.5266
114.619	0	0	54.5957
114.919	0	0	54.6303
115.051	0	0	54.6994
115.178	0	0	54.7685
115.423	0	0	54.803
115.435	0	0	54.8721
115.556	0	0	54.9067
115.98	0	0	54.9413
116.191	0	0	54.9758
116.28	0	0	55.0104
116.329	0	0	55.0795
116.349	0	0	55.1486
116.37	0	0	55.1831
116.464	0	0	55.2177
116.557	0	0	55.2868
116.666	0	0	55.3559
116.807	0	0	55.425
116.813	0	0	55.4941
116.908	0	0	55.5287
116.942	0	0	55.5978
117.157	0	0	55.6669
117.206	0	0	55.7015
117.565	0	0	55.7706
117.819	0	0	55.8397
117.941	0	0	55.8742
118.152	0	0	55.9433
118.23	0	0	55.9779
118.35	0	0	56.0124
118.532	0	0	56.0815
118.633	0	0	56.1161
118.67	0	0	56.1507
118.705	0	0	56.2198
118.754	0	0	56.2543
118.891	0	0	56.2889
119.038	0	0	56.3234
119.141	0	0	56.358
119.169	0	0	56.4271
119.179	0	0	56.4616
119.221	0	0	56.4616
119.254	0	0	56.5308
119.43	0	0	56.5999
119.85	0	0	56.669
119.891	0	0	56.7381
119.959	0	0	56.8072
120.407	0	0	56.8763
120.531	0	0	56.9454
120.548	0	0	57.0145
120.788	0	0	57.0836
120.938	0	0	57.1527
121.063	0	0	57.1873
121.084	0	0	57.2564
121.14	0	0	57.2909
121.148	0	0	57.3601
121.318	0	0	57.4292
121.627	0	0	57.4983
121.638	0	0	57.5674
121.731	0	0	57.6365
121.77	0	0	57.6365
121.794	0	0	57.671
121.803	0	0	57.671
122.195	0	0	57.671
122.517	0	0	57.7402
122.566	0	0	57.7747
122.579	0	0	57.8438
122.623	0	0	57.8438
122.637	0	0	57.8784
122.724	0	0	57.9475
122.92	0	0	58.0166
122.935	0	0	58.0511
123.021	0	0	58.1202
123.111	0	0	58.1894
123.199	0	0	58.2585
123.441	0	0	58.3276
123.443	0	0	58.3621
123.445	0	0	58.3967
123.46	0	0	58.4658
123.633	0	0	58.5349
123.743	0	0	58.5695
123.76	0	0	58.604
123.974	0	0	58.6731
124.009	0	0	58.7077
124.219	0	0	58.7768
124.241	0	0	58.8459
124.268	0	0	58.915
124.351	0	0	58.915
124.452	0	0	58.9841
124.54	0	0	59.0187
124.722	0	0	59.0878
124.902	0	0	59.1223
124.929	0	0	59.1914
124.981	0	0	59.2605
125.051	0	0	59.2951
125.249	0	0	59.3642
125.276	0	0	59.4333
125.3	0	0	59.4679
125.339	0	0	59.5024
125.44	0	0	59.5715
125.495	0	0	59.6406
125.626	0	0	59.7097
125.817	0	0	59.7789
125.825	0	0	59.848
125.925	0	0	59.8825
125.971	0	0	59.8825
126.015	0	0	59.9171
126.061	0	0	59.9862
126.076	0	0	59.9862
126.212	0	0	59.9862
126.236	0	0	60.0553
126.595	0	0	60.1244
126.834	0	0	60.1935
126.969	0	0	60.2281
127.135	0	0	60.2626
127.281	0	0	60.3317
127.688	0	0	60.4008
127.806	0	0	60.4354
128.017	0	0	60.5045
128.02	0	0	60.5045
128.062	0	0	60.5736
128.091	0	0	60.6427
128.097	0	0	60.7118
128.186	0	0	60.7464
128.244	0	0	60.8155
128.247	0	0	60.85
128.259	0	0	60.85
128.309	0	0	60.8846
128.379	0	0	60.9191
128.516	0	0	60.9537
128.597	0	0	60.9883
128.755	0	0	61.0574
128.819	0	0	61.0919
129.153	0	0	61.0919
129.363	0	0	61.1265
129.627	0	0	61.161
129.697	0	0	61.1956
129.722	0	0	61.2647
129.918	0	0	61.3338
130.088	0	0	61.4029
130.158	0	0	61.4375
130.308	0	0	61.472
130.392	0	0	61.5066
130.476	0	0	61.5411
130.584	0	0	61.6102
130.647	0	0	61.6793
130.669	0	0	61.7484
130.856	0	0	61.8176
130.911	0	0	61.8867
131.031	0	0	61.9212
131.061	0	0	61.9903
131.169	0	0	62.0249
131.28	0	0	62.094
131.323	0	0	62.1631
131.44	0	0	62.2322
131.444	0	0	62.3013
131.636	0	0	62.3359
131.855	0	0	62.405
131.928	0	0	62.4741
131.989	0	0	62.5432
132.214	0	0	62.5777
132.345	0	0	62.6469
132.45	0	0	62.6814
132.474	0	0	62.716
132.938	0	0	62.7505
133.05	0	0	62.8196
133.064	0	0	62.8887
133.11	0	0	62.9578
133.171	0	0	62.9578
133.178	0	0	63.027
133.255	0	0	63.0961
133.256	0	0	63.1652
133.423	0	0	63.2343
133.525	0	0	63.3034
133.774	0	0	63.3725
133.986	0	0	63.407
134.077	0	0	63.4762
134.41	0	0	63.5453
134.538	0	0	63.6144
134.793	0	0	63.6489
135.214	0	0	63.718
135.284	0	0	63.7526
135.347	0	0	63.8217
135.406	0	0	63.8908
135.876	0	0	63.9599
135.968	0	0	64.029
136.568	0	0	64.0636
136.678	0	0	64.0981
136.769	0	0	64.1672
136.775	0	0	64.2364
136.936	0	0	64.3055
137.027	0	0	64.34
137.166	0	0	64.3746
137.187	0	0	64.4091
137.583	0	0	64.4782
137.632	0	0	64.5128
137.748	0	0	64.5819
137.749	0	0	64.651
138.005	0	0	64.7201
138.097	0	0	64.7892
138.189	0	0	64.8238
138.51	0	0	64.8583
138.581	0	0	64.9274
139.073	0	0	64.9965
139.111	0	0	65.0657
139.433	0	0	65.1348
139.79	0	0	65.2039
139.962	0	0	65.273
140.162	0	0	65.3421
140.38	0	0	65.3766
140.595	0	0	65.4457
141.073	0	0	65.5149
141.124	0	0	65.584
141.143	0	0	65.6185
141.749	0	0	65.6876
141.829	0	0	65.7567
142.015	0	0	65.7913
142.127	0	0	65.8604
142.164	0	0	65.895
142.259	0	0	65.9641
142.309	0	0	66.0332
142.366	0	0	66.0677
142.609	0	0	66.1368
142.743	0	0	66.2059
142.927	0	0	66.2751
143.011	0	0	66.3442
143.391	0	0	66.3787
143.433	0	0	66.4133
143.636	0	0	66.4824
143.833	0	0	66.5515
143.998	0	0	66.586
144.001	0	0	66.6551
144.022	0	0	66.6897
144.683	0	0	66.7243
144.828	0	0	66.7934
144.955	0	0	66.8279
144.985	0	0	66.8625
145.287	0	0	66.897
145.538	0	0	66.9661
145.887	0	0	67.0352
145.934	0	0	67.1044
145.973	0	0	67.1735
146.146	0	0	67.2426
146.301	0	0	67.3117
146.49	0	0	67.3808
146.553	0	0	67.4499
146.567	0	0	67.519
146.666	0	0	67.5536
147.19	0	0	67.6227
147.26	0	0	67.6572
147.356	0	0	67.6918
147.649	0	0	67.7609
147.656	0	0	67.83
147.68	0	0	67.8645
147.992	0	0	67.9337
148.106	0	0	68.0028
148.413	0	0	68.0719
148.504	0	0	68.1064
148.603	0	0	68.141
148.797	0	0	68.2101
148.966	0	0	68.2446
149.041	0	0	68.3138
149.081	0	0	68.3483
149.529	0	0	68.4174
149.611	0	0	68.4865
149.64	0	0	68.5556
149.84	0	0	68.6247
149.848	0	0	68.6247
150.171	0	0	68.6938
150.351	0	0	68.763
150.419	0	0	68.8321
150.487	0	0	68.9012
151.1	0	0	68.9703
151.383	0	0	69.0394
151.476	0	0	69.1085
151.525	0	0	69.1776
151.666	0	0	69.2467
151.696	0	0	69.2813
151.743	0	0	69.3504
151.916	0	0	69.4195
151.934	0	0	69.454
151.949	0	0	69.4886
152.329	0	0	69.4886
152.36	0	0	69.5232
152.65	0	0	69.5577
152.993	0	0	69.6268
153.046	0	0	69.6959
153.056	0	0	69.7305
153.436	0	0	69.7996
153.511	0	0	69.8687
154.014	0	0	69.9378
154.053	0	0	70.0069
154.544	0	0	70.076
154.566	0	0	70.1451
154.629	0	0	70.1797
154.655	0	0	70.2488
155.044	0	0	70.3179
155.182	0	0	70.387
155.352	0	0	70.4561
155.763	0	0	70.5252
156.007	0	0	70.5943
156.068	0	0	70.6289
156.123	0	0	70.698
156.167	0	0	70.7671
156.473	0	0	70.8362
156.67	0	0	70.9053
157.009	0	0	70.9744
157.17	0	0	71.0435
157.229	0	0	71.1126
157.361	0	0	71.1472
157.545	0	0	71.1472
157.546	0	0	71.2163
157.684	0	0	71.2509
157.97	0	0	71.32
158.038	0	0	71.3545
158.08	0	0	71.4236
158.281	0	0	71.4927
158.961	0	0	71.5619
159.249	0	0	71.631
159.259	0	0	71.7001
159.392	0	0	71.7692
159.654	0	0	71.8383
159.876	0	0	71.8728
159.97	0	0	71.9419
160.178	0	0	72.0111
160.304	0	0	72.0802
160.531	0	0	72.1493
161.03	0	0	72.1838
161.262	0	0	72.2529
161.302	0	0	72.2875
162.01	0	0	72.322
162.069	0	0	72.3912
162.111	0	0	72.4603
162.467	0	0	72.5294
162.474	0	0	72.5985
162.84	0	0	72.6676
162.929	0	0	72.7367
163.069	0	0	72.7713
163.338	0	0	72.8404
163.516	0	0	72.8749
163.976	0	0	72.944
164.188	0	0	72.9786
164.55	0	0	73.0477
164.989	0	0	73.1168
165.068	0	0	73.1859
165.509	0	0	73.2205
165.565	0	0	73.2896
165.661	0	0	73.3587
165.747	0	0	73.4278
165.857	0	0	73.4969
165.908	0	0	73.566
166.447	0	0	73.6006
166.804	0	0	73.6351
166.947	0	0	73.7042
166.952	0	0	73.7733
167.312	0	0	73.8424
167.588	0	0	73.9115
168.103	0	0	73.9461
168.595	0	0	74.0152
168.61	0	0	74.0843
168.956	0	0	74.1534
169.11	0	0	74.2225
169.175	0	0	74.2916
169.28	0	0	74.3607
170.025	0	0	74.4299
170.194	0	0	74.499
170.321	0	0	74.5335
170.361	0	0	74.5681
170.461	0	0	74.6372
170.621	0	0	74.7063
171.684	0	0	74.7063
171.776	0	0	74.7754
171.959	0	0	74.8445
172.365	0	0	74.8791
172.474	0	0	74.9136
172.763	0	0	74.9827
173.037	0	0	75.0173
173.19	0	0	75.0864
173.203	0	0	75.1555
173.207	0	0	75.19
173.459	0	0	75.2246
173.59	0	0	75.2937
174.191	0	0	75.3628
174.247	0	0	75.4319
174.573	0	0	75.501
174.707	0	0	75.5356
174.798	0	0	75.5701
175.061	0	0	75.6393
175.143	0	0	75.6738
175.217	0	0	75.7429
175.405	0	0	75.812
175.676	0	0	75.8811
175.799	0	0	75.9502
175.887	0	0	76.0194
176.13	0	0	76.0885
176.417	0	0	76.123
176.553	0	0	76.1921
176.797	0	0	76.2612
177.51	0	0	76.3303
177.541	0	0	76.3994
178.212	0	0	76.434
178.633	0	0	76.4686
178.746	0	0	76.5377
178.913	0	0	76.5722
179.195	0	0	76.6413
179.39	0	0	76.6759
179.403	0	0	76.745
180.162	0	0	76.8141
180.195	0	0	76.8487
180.297	0	0	76.9178
180.552	0	0	76.9523
180.663	0	0	77.0214
180.886	0	0	77.0905
181.013	0	0	77.1596
181.017	0	0	77.2287
181.368	0	0	77.2979
181.396	0	0	77.367
181.825	0	0	77.4361
182.108	0	0	77.5052
182.157	0	0	77.5743
182.537	0	0	77.6434
183.148	0	0	77.7125
183.347	0	0	77.7816
183.878	0	0	77.8162
184.563	0	0	77.8853
184.843	0	0	77.9544
185.108	0	0	78.0235
185.385	0	0	78.0926
185.617	0	0	78.1617
186.333	0	0	78.2308
186.749	0	0	78.2999
187.018	0	0	78.369
187.196	0	0	78.4381
187.645	0	0	78.5073
187.682	0	0	78.5764
187.921	0	0	78.6455
188.492	0	0	78.7146
188.671	0	0	78.7837
189.149	0	0	78.8528
189.297	0	0	78.8874
189.344	0	0	78.9219
189.526	0	0	78.991
191.311	0	0	79.0601
191.378	0	0	79.1292
191.399	0	0	79.1983
191.438	0	0	79.2674
191.543	0	0	79.3366
191.77	0	0	79.4057
191.88	0	0	79.4748
192.035	0	0	79.5439
192.13	0	0	79.613
192.441	0	0	79.6821
192.731	0	0	79.7512
192.963	0	0	79.8203
193.849	0	0	79.8894
193.867	0	0	79.9585
194.298	0	0	79.9931
194.505	0	0	80.0276
194.7	0	0	80.0968
194.802	0	0	80.1659
195.226	0	0	80.235
195.259	0	0	80.3041
195.823	0	0	80.3732
196.037	0	0	80.4077
196.221	0	0	80.4768
196.281	0	0	80.546
196.371	0	0	80.6151
196.391	0	0	80.6842
196.688	0	0	80.7533
196.816	0	0	80.8224
197.301	0	0	80.8915
197.641	0	0	80.9606
197.702	0	0	80.9952
198.323	0	0	81.0297
198.474	0	0	81.0988
198.656	0	0	81.1679
199.025	0	0	81.237
199.089	0	0	81.3062
199.135	0	0	81.3753
199.394	0	0	81.4444
199.467	0	0	81.5135
199.718	0	0	81.5826
200.136	0	0	81.6517
200.439	0	0	81.7208
200.443	0	0	81.7899
200.45	0	0	81.8245
200.859	0	0	81.8936
200.912	0	0	81.9627
201.634	0	0	82.0318
201.657	0	0	82.1009
201.772	0	0	82.1355
202.087	0	0	82.2046
202.148	0	0	82.2737
202.687	0	0	82.3428
202.773	0	0	82.4119
203.712	0	0	82.481
204.235	0	0	82.5501
204.658	0	0	82.6192
204.996	0	0	82.6883
205.01	0	0	82.7574
205.459	0	0	82.8265
205.599	0	0	82.8956
205.93	0	0	82.9648
207.012	0	0	83.0339
207.49	0	0	83.103
207.712	0	0	83.1721
207.923	0	0	83.2412
208.013	0	0	83.2757
208.044	0	0	83.3449
208.582	0	0	83.414
209.019	0	0	83.4485
209.037	0	0	83.5176
209.086	0	0	83.5867
209.448	0	0	83.6213
210.234	0	0	83.6213
210.318	0	0	83.6904
211.137	0	0	83.7595
211.374	0	0	83.8286
211.399	0	0	83.8632
211.584	0	0	83.9323
211.585	0	0	83.9668
212.3	0	0	84.0359
213.117	0	0	84.105
213.547	0	0	84.1742
213.577	0	0	84.2433
213.84	0	0	84.3124
214.18	0	0	84.3815
214.782	0	0	84.416
214.823	0	0	84.4851
215.625	0	0	84.5197
216.237	0	0	84.5888
216.959	0	0	84.6579
217.211	0	0	84.727
217.448	0	0	84.7616
218.159	0	0	84.8307
219.195	0	0	84.8998
219.781	0	0	84.9689
219.96	0	0	85.038
220.883	0	0	85.1071
222.091	0	0	85.1762
223.169	0	0	85.2108
223.463	0	0	85.2799
223.705	0	0	85.349
224.325	0	0	85.4181
224.41	0	0	85.4872
224.919	0	0	85.4872
225.283	0	0	85.5218
225.863	0	0	85.5909
226.028	0	0	85.66
226.577	0	0	85.7291
226.959	0	0	85.7982
226.972	0	0	85.8673
227.39	0	0	85.9364
227.821	0	0	86.0055
228.095	0	0	86.0401
228.337	0	0	86.1092
229.131	0	0	86.1437
229.148	0	0	86.2129
229.321	0	0	86.282
229.957	0	0	86.3511
230.431	0	0	86.4202
230.453	0	0	86.4893
230.772	0	0	86.5584
230.963	0	0	86.6275
231.328	0	0	86.6966
231.625	0	0	86.7657
232.696	0	0	86.8348
232.801	0	0	86.9039
233.015	0	0	86.973
233.235	0	0	87.0422
233.247	0	0	87.1113
235.494	0	0	87.1804
236.838	0	0	87.2495
237.583	0	0	87.284
238.617	0	0	87.3531
238.638	0	0	87.3877
238.655	0	0	87.4568
239.025	0	0	87.5259
239.088	0	0	87.595
240.13	0	0	87.6296
240.184	0	0	87.6987
240.187	0	0	87.7678
240.375	0	0	87.8023
240.815	0	0	87.8715
242.086	0	0	87.9406
244.035	0	0	87.9751
244.042	0	0	88.0442
244.206	0	0	88.1133
244.757	0	0	88.1824
246.024	0	0	88.2516
246.216	0	0	88.3207
246.274	0	0	88.3898
246.346	0	0	88.4589
246.821	0	0	88.528
246.888	0	0	88.5971
248.136	0	0	88.6662
248.893	0	0	88.7353
249.646	0	0	88.8044
251.926	0	0	88.8735
252.399	0	0	88.9081
252.836	0	0	88.9772
253.4	0	0	89.0463
255.272	0	0	89.1154
255.36	0	0	89.1845
255.656	0	0	89.2536
255.679	0	0	89.2882
255.989	0	0	89.3573
256.122	0	0	89.4264
256.432	0	0	89.4955
256.902	0	0	89.5646
257.178	0	0	89.6337
257.479	0	0	89.7028
257.733	0	0	89.7719
258.288	0	0	89.8411
258.419	0	0	89.9102
258.499	0	0	89.9793
258.565	0	0	90.0484
259.126	0	0	90.1175
259.375	0	0	90.1866
259.752	0	0	90.2557
259.773	0	0	90.3248
260.161	0	0	90.3939
260.703	0	0	90.463
260.848	0	0	90.5321
263	0	0	90.6012
263.785	0	0	90.6704
264.317	0	0	90.7395
264.455	0	0	90.8086
264.783	0	0	90.8777
265.539	0	0	90.9468
265.972	0	0	91.0159
266	0	0	91.085
266.608	0	0	91.1541
267.646	0	0	91.2232
268.552	0	0	91.2923
270.012	0	0	91.3614
270.653	0	0	91.396
271.378	0	0	91.4651
272.504	0	0	91.5342
272.725	0	0	91.5688
273.356	0	0	91.6379
273.93	0	0	91.707
275.25	0	0	91.7761
278.341	0	0	91.8452
279.787	0	0	91.9143
280.129	0	0	91.9834
280.896	0	0	92.018
284.472	0	0	92.0525
285.678	0	0	92.1216
286.277	0	0	92.1907
286.317	0	0	92.2598
286.434	0	0	92.329
286.435	0	0	92.3981
287.158	0	0	92.4672
287.977	0	0	92.5363
290.122	0	0	92.6054
291.076	0	0	92.6745
292.739	0	0	92.7436
292.984	0	0	92.8127
294.075	0	0	92.8818
294.625	0	0	92.9164
294.625	0	0	92.9855
294.974	0	0	93.0546
295.576	0	0	93.1237
295.777	0	0	93.1928
298.012	0	0	93.2619
300.558	0	0	93.331
300.835	0	0	93.4001
302.599	0	0	93.4692
303.706	0	0	93.5384
304.061	0	0	93.6075
307.342	0	0	93.6766
307.683	0	0	93.7111
307.724	0	0	93.7802
307.971	0	0	93.8493
308.804	0	0	93.9185
308.899	0	0	93.9876
310.169	0	0	94.0567
311.186	0	0	94.1258
311.988	0	0	94.1949
319.737	0	0	94.264
322.683	0	0	94.3331
322.874	0	0	94.4022
323.175	0	0	94.4713
323.38	0	0	94.5404
323.963	0	0	94.6095
324.958	0	0	94.6786
326.203	0	0	94.7478
328.021	0	0	94.8169
328.282	0	0	94.886
329.448	0	0	94.9551
329.613	0	0	95.0242
330.887	0	0	95.0933
333.094	0	0	95.1624
333.135	0	0	95.2315
333.568	0	0	95.3006
334.274	0	0	95.3697
334.957	0	0	95.4388
335.491	0	0	95.5079
337.21	0	0	95.5771
338.054	0	0	95.6462
338.743	0	0	95.7153
341.241	0	0	95.7844
343.484	0	0	95.8535
345.426	0	0	95.9226
346.604	0	0	95.9917
352.119	0	0	96.0608
353.154	0	0	96.1299
353.196	0	0	96.199
354.653	0	0	96.2681
356.358	0	0	96.3372
357.28	0	0	96.4064
362.346	0	0	96.4755
364.613	0	0	96.5446
365.741	0	0	96.6137
365.769	0	0	96.6828
366.835	0	0	96.7519
368.21	0	0	96.821
373.445	0	0	96.8901
373.601	0	0	96.9592
374.98	0	0	97.0283
376.571	0	0	97.0974
377.721	0	0	97.1666
378.217	0	0	97.2357
382.503	0	0	97.3048
383.542	0	0	97.3739
385.215	0	0	97.443
386.764	0	0	97.5121
387.381	0	0	97.5812
388.259	0	0	97.6503
399.09	0	0	97.7194
400.773	0	0	97.7885
401.62	0	0	97.8576
402.505	0	0	97.9267
404.353	0	0	97.9959
407.056	0	0	98.065
418.635	0	0	98.1341
420.128	0	0	98.2032
422.546	0	0	98.2723
424.642	0	0	98.3414
430.528	0	0	98.4105
430.832	0	0	98.4796
432.575	0	0	98.5487
440.708	0	0	98.6178
445.006	0	0	98.6869
457.776	0	0	98.756
464.484	0	0	98.8252
469.532	0	0	98.8943
474.093	0	0	98.9634
474.574	0	0	99.0325
477.656	0	0	99.1016
500.144	0	0	99.1707
501.772	0	0	99.2398
502.561	0	0	99.3089
540.097	0	0	99.378
579.89	0	0	99.4471
686.017	0	0	99.5162
