2.03121e-10	0	0	0
9.04674e-10	0	0	0
1.92408e-09	0	0	0
2.50873e-09	0	0	0
2.61411e-09	0	0	0
3.59677e-09	0	0	0
3.65656e-09	0	0	0
4.42448e-09	0	0	0
4.59543e-09	0	0	0
4.96548e-09	0	0	0
5.37469e-09	0	0	0
5.87228e-09	0	0	0
5.90733e-09	0	0	0
6.04868e-09	0	0	0
6.61398e-09	0	0	0
7.78251e-09	0	0	0
9.36041e-09	0	0	0
1.02134e-08	0	0	0
1.02749e-08	0	0	0
1.13703e-08	0	0	0
1.17302e-08	0	0	0
1.44492e-08	0	0	0
1.49913e-08	0	0	0
1.64188e-08	0	0	0
1.65724e-08	0	0	0
1.68466e-08	0	0	0
1.93662e-08	0	0	0
1.95672e-08	0	0	0
2.02193e-08	0	0	0
2.086e-08	0	0	0
2.44032e-08	0	0	0
2.6142e-08	0	0	0
2.7307e-08	0	0	0
2.94281e-08	0	0	0
2.99429e-08	0	0	0
3.1315e-08	0	0	0
3.19356e-08	0	0	0
3.26361e-08	0	0	0
3.36923e-08	0	0	0
3.53568e-08	0	0	0
3.73289e-08	0	0	0
4.42119e-08	0	0	0
4.55302e-08	0	0	0
4.5826e-08	0	0	0
4.93771e-08	0	0	0
5.24656e-08	0	0	0
5.2823e-08	0	0	0
5.42514e-08	0	0	0
5.45978e-08	0	0	0
5.55934e-08	0	0	0
6.69347e-08	0	0	0
7.44994e-08	0	0	0
7.68385e-08	0	0	0
8.16271e-08	0	0	0
8.552e-08	0	0	0
8.96296e-08	0	0	0
9.05972e-08	0	0	0
9.43358e-08	0	0	0
9.57237e-08	0	0	0
1.05859e-07	0	0	0
1.06509e-07	0	0	0
1.08562e-07	0	0	0
1.10293e-07	0	0	0
1.11072e-07	0	0	0
1.13609e-07	0	0	0
1.30704e-07	0	0	0
1.40987e-07	0	0	0
1.49976e-07	0	0	0
1.50121e-07	0	0	0
1.55183e-07	0	0	0
1.55309e-07	0	0	0
1.66641e-07	0	0	0
1.69804e-07	0	0	0
1.80054e-07	0	0	0
2.1008e-07	0	0	0
2.13113e-07	0	0	0
2.6152e-07	0	0	0
2.78333e-07	0	0	0
3.74793e-07	0	0	0
4.80257e-07	0	0	0
4.8156e-07	0	0	0
4.85947e-07	0	0	0
4.9444e-07	0	0	0
5.04414e-07	0	0	0
5.14221e-07	0	0	0
5.20798e-07	0	0	0
6.20381e-07	0	0	0
6.21574e-07	0	0	0
8.91203e-07	0	0	0
9.85196e-07	0	0	0
1.11755e-06	0	0	0
1.13143e-06	0	0	0
1.16627e-06	0	0	0
1.23711e-06	0	0	0
1.25361e-06	0	0	0
1.36217e-06	0	0	0
1.65989e-06	0	0	0
1.82836e-06	0	0	0
1.91073e-06	0	0	0
2.02196e-06	0	0	0
2.60662e-06	0	0	0
2.66708e-06	0	0	0
3.14065e-06	0	0	0
4.45317e-06	0	0	0
1.59726e-05	0	0	0
0.000120319	0	0	0
