5.20851e-09	0	0	-nan
1.11579e-08	0	0	-nan
1.88367e-08	0	0	-nan
4.88548e-08	0	0	-nan
5.26266e-08	0	0	-nan
7.17178e-08	0	0	-nan
1.14737e-07	0	0	-nan
1.40826e-07	0	0	-nan
1.90597e-07	0	0	-nan
1.91457e-07	0	0	-nan
2.04997e-07	0	0	-nan
2.12564e-07	0	0	-nan
2.54917e-07	0	0	-nan
2.63261e-07	0	0	-nan
2.66103e-07	0	0	-nan
2.71556e-07	0	0	-nan
3.23559e-07	0	0	-nan
3.3091e-07	0	0	-nan
3.4316e-07	0	0	-nan
3.57387e-07	0	0	-nan
4.09196e-07	0	0	-nan
4.20156e-07	0	0	-nan
4.23859e-07	0	0	-nan
4.49972e-07	0	0	-nan
4.57562e-07	0	0	-nan
4.71236e-07	0	0	-nan
4.77045e-07	0	0	-nan
4.79008e-07	0	0	-nan
4.7949e-07	0	0	-nan
4.84453e-07	0	0	-nan
4.86586e-07	0	0	-nan
5.0101e-07	0	0	-nan
5.02721e-07	0	0	-nan
5.10584e-07	0	0	-nan
5.31274e-07	0	0	-nan
5.35106e-07	0	0	-nan
5.51264e-07	0	0	-nan
5.68394e-07	0	0	-nan
5.97417e-07	0	0	-nan
6.06232e-07	0	0	-nan
6.16558e-07	0	0	-nan
6.35903e-07	0	0	-nan
6.45926e-07	0	0	-nan
6.65191e-07	0	0	-nan
6.67863e-07	0	0	-nan
6.72751e-07	0	0	-nan
6.73675e-07	0	0	-nan
6.97737e-07	0	0	-nan
7.18106e-07	0	0	-nan
7.36299e-07	0	0	-nan
7.37401e-07	0	0	-nan
7.45886e-07	0	0	-nan
7.716e-07	0	0	-nan
7.7207e-07	0	0	-nan
7.73985e-07	0	0	-nan
7.9857e-07	0	0	-nan
8.65282e-07	0	0	-nan
8.74515e-07	0	0	-nan
8.8998e-07	0	0	-nan
8.96417e-07	0	0	-nan
9.4381e-07	0	0	-nan
9.47363e-07	0	0	-nan
9.48281e-07	0	0	-nan
9.48357e-07	0	0	-nan
9.52137e-07	0	0	-nan
9.90044e-07	0	0	-nan
1.01063e-06	0	0	-nan
1.01343e-06	0	0	-nan
1.10595e-06	0	0	-nan
1.10982e-06	0	0	-nan
1.11176e-06	0	0	-nan
1.11628e-06	0	0	-nan
1.12306e-06	0	0	-nan
1.13172e-06	0	0	-nan
1.18464e-06	0	0	-nan
1.24756e-06	0	0	-nan
1.25235e-06	0	0	-nan
1.26732e-06	0	0	-nan
1.30681e-06	0	0	-nan
1.31433e-06	0	0	-nan
1.33331e-06	0	0	-nan
1.34069e-06	0	0	-nan
1.3484e-06	0	0	-nan
1.34912e-06	0	0	-nan
1.35619e-06	0	0	-nan
1.3829e-06	0	0	-nan
1.44868e-06	0	0	-nan
1.48531e-06	0	0	-nan
1.48868e-06	0	0	-nan
1.49661e-06	0	0	-nan
1.50161e-06	0	0	-nan
1.59762e-06	0	0	-nan
1.59962e-06	0	0	-nan
1.60709e-06	0	0	-nan
1.64561e-06	0	0	-nan
1.64773e-06	0	0	-nan
1.65921e-06	0	0	-nan
1.69932e-06	0	0	-nan
1.72568e-06	0	0	-nan
1.73748e-06	0	0	-nan
1.74682e-06	0	0	-nan
1.75016e-06	0	0	-nan
1.78207e-06	0	0	-nan
1.82251e-06	0	0	-nan
1.82362e-06	0	0	-nan
1.82583e-06	0	0	-nan
1.87104e-06	0	0	-nan
1.91489e-06	0	0	-nan
1.91927e-06	0	0	-nan
1.94017e-06	0	0	-nan
1.96144e-06	0	0	-nan
1.97379e-06	0	0	-nan
2.00862e-06	0	0	-nan
2.03205e-06	0	0	-nan
2.03431e-06	0	0	-nan
2.04398e-06	0	0	-nan
2.05557e-06	0	0	-nan
2.09521e-06	0	0	-nan
2.1758e-06	0	0	-nan
2.18721e-06	0	0	-nan
2.19266e-06	0	0	-nan
2.24454e-06	0	0	-nan
2.26554e-06	0	0	-nan
2.27272e-06	0	0	-nan
2.28214e-06	0	0	-nan
2.29884e-06	0	0	-nan
2.30192e-06	0	0	-nan
2.30325e-06	0	0	-nan
2.32499e-06	0	0	-nan
2.33325e-06	0	0	-nan
2.36375e-06	0	0	-nan
2.38659e-06	0	0	-nan
2.40011e-06	0	0	-nan
2.40156e-06	0	0	-nan
2.4315e-06	0	0	-nan
2.46512e-06	0	0	-nan
2.47027e-06	0	0	-nan
2.48103e-06	0	0	-nan
2.53511e-06	0	0	-nan
2.53764e-06	0	0	-nan
2.5841e-06	0	0	-nan
2.58642e-06	0	0	-nan
2.59631e-06	0	0	-nan
2.62087e-06	0	0	-nan
2.62633e-06	0	0	-nan
2.63351e-06	0	0	-nan
2.6372e-06	0	0	-nan
2.66861e-06	0	0	-nan
2.68574e-06	0	0	-nan
2.70243e-06	0	0	-nan
2.73266e-06	0	0	-nan
2.73562e-06	0	0	-nan
2.74857e-06	0	0	-nan
2.76563e-06	0	0	-nan
2.80113e-06	0	0	-nan
2.81348e-06	0	0	-nan
2.82436e-06	0	0	-nan
2.83036e-06	0	0	-nan
2.83839e-06	0	0	-nan
2.85849e-06	0	0	-nan
2.8666e-06	0	0	-nan
2.87263e-06	0	0	-nan
2.88215e-06	0	0	-nan
2.88528e-06	0	0	-nan
2.90506e-06	0	0	-nan
2.90628e-06	0	0	-nan
2.91307e-06	0	0	-nan
2.931e-06	0	0	-nan
2.96648e-06	0	0	-nan
2.97382e-06	0	0	-nan
3.00249e-06	0	0	-nan
3.07766e-06	0	0	-nan
3.07939e-06	0	0	-nan
3.08204e-06	0	0	-nan
3.11375e-06	0	0	-nan
3.1164e-06	0	0	-nan
3.12645e-06	0	0	-nan
3.16179e-06	0	0	-nan
3.17448e-06	0	0	-nan
3.21461e-06	0	0	-nan
3.25722e-06	0	0	-nan
3.2745e-06	0	0	-nan
3.27684e-06	0	0	-nan
3.29331e-06	0	0	-nan
3.35579e-06	0	0	-nan
3.38828e-06	0	0	-nan
3.53116e-06	0	0	-nan
3.54354e-06	0	0	-nan
3.54623e-06	0	0	-nan
3.59279e-06	0	0	-nan
3.5985e-06	0	0	-nan
3.60534e-06	0	0	-nan
3.64087e-06	0	0	-nan
3.69301e-06	0	0	-nan
3.70291e-06	0	0	-nan
3.73467e-06	0	0	-nan
3.75684e-06	0	0	-nan
3.75845e-06	0	0	-nan
3.8069e-06	0	0	-nan
3.83135e-06	0	0	-nan
3.84248e-06	0	0	-nan
3.9086e-06	0	0	-nan
3.99125e-06	0	0	-nan
4.01024e-06	0	0	-nan
4.0166e-06	0	0	-nan
4.02036e-06	0	0	-nan
4.035e-06	0	0	-nan
4.05313e-06	0	0	-nan
4.08445e-06	0	0	-nan
4.10739e-06	0	0	-nan
4.14284e-06	0	0	-nan
4.14637e-06	0	0	-nan
4.16903e-06	0	0	-nan
4.20162e-06	0	0	-nan
4.22344e-06	0	0	-nan
4.22923e-06	0	0	-nan
4.24362e-06	0	0	-nan
4.24651e-06	0	0	-nan
4.24662e-06	0	0	-nan
4.24856e-06	0	0	-nan
4.25276e-06	0	0	-nan
4.28378e-06	0	0	-nan
4.29149e-06	0	0	-nan
4.2947e-06	0	0	-nan
4.30626e-06	0	0	-nan
4.31253e-06	0	0	-nan
4.31725e-06	0	0	-nan
4.33447e-06	0	0	-nan
4.33601e-06	0	0	-nan
4.39549e-06	0	0	-nan
4.41919e-06	0	0	-nan
4.45695e-06	0	0	-nan
4.46472e-06	0	0	-nan
4.48123e-06	0	0	-nan
4.54503e-06	0	0	-nan
4.57182e-06	0	0	-nan
4.59955e-06	0	0	-nan
4.63392e-06	0	0	-nan
4.6399e-06	0	0	-nan
4.65392e-06	0	0	-nan
4.66078e-06	0	0	-nan
4.67222e-06	0	0	-nan
4.68699e-06	0	0	-nan
4.7006e-06	0	0	-nan
4.70552e-06	0	0	-nan
4.71881e-06	0	0	-nan
4.76211e-06	0	0	-nan
4.77118e-06	0	0	-nan
4.79988e-06	0	0	-nan
4.89116e-06	0	0	-nan
4.9034e-06	0	0	-nan
4.93863e-06	0	0	-nan
4.94377e-06	0	0	-nan
4.95063e-06	0	0	-nan
4.96885e-06	0	0	-nan
5.01898e-06	0	0	-nan
5.02101e-06	0	0	-nan
5.05151e-06	0	0	-nan
5.05403e-06	0	0	-nan
5.05711e-06	0	0	-nan
5.11214e-06	0	0	-nan
5.17223e-06	0	0	-nan
5.18578e-06	0	0	-nan
5.19814e-06	0	0	-nan
5.21869e-06	0	0	-nan
5.23246e-06	0	0	-nan
5.30409e-06	0	0	-nan
5.33794e-06	0	0	-nan
5.35487e-06	0	0	-nan
5.41089e-06	0	0	-nan
5.4177e-06	0	0	-nan
5.42976e-06	0	0	-nan
5.46578e-06	0	0	-nan
5.49645e-06	0	0	-nan
5.52684e-06	0	0	-nan
5.52814e-06	0	0	-nan
5.54862e-06	0	0	-nan
5.57161e-06	0	0	-nan
5.61799e-06	0	0	-nan
5.72382e-06	0	0	-nan
5.75396e-06	0	0	-nan
5.78294e-06	0	0	-nan
5.80961e-06	0	0	-nan
5.81052e-06	0	0	-nan
5.81626e-06	0	0	-nan
5.83827e-06	0	0	-nan
5.84263e-06	0	0	-nan
5.85154e-06	0	0	-nan
5.89997e-06	0	0	-nan
5.92578e-06	0	0	-nan
5.92924e-06	0	0	-nan
5.95793e-06	0	0	-nan
6.01492e-06	0	0	-nan
6.04289e-06	0	0	-nan
6.04912e-06	0	0	-nan
6.06155e-06	0	0	-nan
6.06616e-06	0	0	-nan
6.12312e-06	0	0	-nan
6.16822e-06	0	0	-nan
6.21917e-06	0	0	-nan
6.23303e-06	0	0	-nan
6.28403e-06	0	0	-nan
6.29076e-06	0	0	-nan
6.29546e-06	0	0	-nan
6.37462e-06	0	0	-nan
6.37539e-06	0	0	-nan
6.48347e-06	0	0	-nan
6.52845e-06	0	0	-nan
6.53322e-06	0	0	-nan
6.54598e-06	0	0	-nan
6.63699e-06	0	0	-nan
6.65702e-06	0	0	-nan
6.66947e-06	0	0	-nan
6.68035e-06	0	0	-nan
6.68148e-06	0	0	-nan
6.71104e-06	0	0	-nan
6.76217e-06	0	0	-nan
6.76734e-06	0	0	-nan
6.80519e-06	0	0	-nan
6.8307e-06	0	0	-nan
6.88227e-06	0	0	-nan
6.88534e-06	0	0	-nan
6.91473e-06	0	0	-nan
6.92266e-06	0	0	-nan
6.93681e-06	0	0	-nan
6.9733e-06	0	0	-nan
6.97393e-06	0	0	-nan
7.00716e-06	0	0	-nan
7.02631e-06	0	0	-nan
7.02647e-06	0	0	-nan
7.03409e-06	0	0	-nan
7.04518e-06	0	0	-nan
7.06362e-06	0	0	-nan
7.06982e-06	0	0	-nan
7.17059e-06	0	0	-nan
7.18739e-06	0	0	-nan
7.21339e-06	0	0	-nan
7.26082e-06	0	0	-nan
7.34867e-06	0	0	-nan
7.3494e-06	0	0	-nan
7.49852e-06	0	0	-nan
7.559e-06	0	0	-nan
7.56192e-06	0	0	-nan
7.57496e-06	0	0	-nan
7.60171e-06	0	0	-nan
7.61253e-06	0	0	-nan
7.62454e-06	0	0	-nan
7.6798e-06	0	0	-nan
7.69568e-06	0	0	-nan
7.74324e-06	0	0	-nan
7.75842e-06	0	0	-nan
7.78392e-06	0	0	-nan
7.78867e-06	0	0	-nan
7.83375e-06	0	0	-nan
7.89172e-06	0	0	-nan
7.97652e-06	0	0	-nan
7.97996e-06	0	0	-nan
8.11114e-06	0	0	-nan
8.13985e-06	0	0	-nan
8.16712e-06	0	0	-nan
8.17184e-06	0	0	-nan
8.21418e-06	0	0	-nan
8.25417e-06	0	0	-nan
8.25712e-06	0	0	-nan
8.27341e-06	0	0	-nan
8.28011e-06	0	0	-nan
8.32261e-06	0	0	-nan
8.33386e-06	0	0	-nan
8.43978e-06	0	0	-nan
8.49524e-06	0	0	-nan
8.50514e-06	0	0	-nan
8.55767e-06	0	0	-nan
8.59585e-06	0	0	-nan
8.7018e-06	0	0	-nan
8.74899e-06	0	0	-nan
8.77643e-06	0	0	-nan
8.78243e-06	0	0	-nan
8.81579e-06	0	0	-nan
8.82921e-06	0	0	-nan
8.87911e-06	0	0	-nan
8.90534e-06	0	0	-nan
8.93325e-06	0	0	-nan
8.95086e-06	0	0	-nan
8.96488e-06	0	0	-nan
8.97758e-06	0	0	-nan
8.99837e-06	0	0	-nan
9.04198e-06	0	0	-nan
9.10223e-06	0	0	-nan
9.11765e-06	0	0	-nan
9.14956e-06	0	0	-nan
9.15295e-06	0	0	-nan
9.18742e-06	0	0	-nan
9.30999e-06	0	0	-nan
9.35829e-06	0	0	-nan
9.38863e-06	0	0	-nan
9.43682e-06	0	0	-nan
9.47387e-06	0	0	-nan
9.48069e-06	0	0	-nan
9.50815e-06	0	0	-nan
9.52248e-06	0	0	-nan
9.55011e-06	0	0	-nan
9.69101e-06	0	0	-nan
9.69434e-06	0	0	-nan
9.7314e-06	0	0	-nan
9.75496e-06	0	0	-nan
9.79615e-06	0	0	-nan
9.80112e-06	0	0	-nan
9.82026e-06	0	0	-nan
9.83372e-06	0	0	-nan
9.83928e-06	0	0	-nan
9.83949e-06	0	0	-nan
9.85183e-06	0	0	-nan
9.90537e-06	0	0	-nan
9.93534e-06	0	0	-nan
1.00216e-05	0	0	-nan
1.00229e-05	0	0	-nan
1.00906e-05	0	0	-nan
1.01036e-05	0	0	-nan
1.01525e-05	0	0	-nan
1.01793e-05	0	0	-nan
1.01875e-05	0	0	-nan
1.02739e-05	0	0	-nan
1.03009e-05	0	0	-nan
1.03106e-05	0	0	-nan
1.03492e-05	0	0	-nan
1.03679e-05	0	0	-nan
1.04041e-05	0	0	-nan
1.04205e-05	0	0	-nan
1.04492e-05	0	0	-nan
1.05666e-05	0	0	-nan
1.06143e-05	0	0	-nan
1.06171e-05	0	0	-nan
1.06841e-05	0	0	-nan
1.06935e-05	0	0	-nan
1.07078e-05	0	0	-nan
1.07362e-05	0	0	-nan
1.0779e-05	0	0	-nan
1.07919e-05	0	0	-nan
1.08104e-05	0	0	-nan
1.08222e-05	0	0	-nan
1.08247e-05	0	0	-nan
1.08365e-05	0	0	-nan
1.0991e-05	0	0	-nan
1.10328e-05	0	0	-nan
1.10434e-05	0	0	-nan
1.10447e-05	0	0	-nan
1.11979e-05	0	0	-nan
1.12035e-05	0	0	-nan
1.12577e-05	0	0	-nan
1.1263e-05	0	0	-nan
1.1295e-05	0	0	-nan
1.13423e-05	0	0	-nan
1.13446e-05	0	0	-nan
1.13468e-05	0	0	-nan
1.13771e-05	0	0	-nan
1.13936e-05	0	0	-nan
1.14077e-05	0	0	-nan
1.14214e-05	0	0	-nan
1.14286e-05	0	0	-nan
1.14943e-05	0	0	-nan
1.15299e-05	0	0	-nan
1.15716e-05	0	0	-nan
1.16559e-05	0	0	-nan
1.16854e-05	0	0	-nan
1.16968e-05	0	0	-nan
1.17098e-05	0	0	-nan
1.17467e-05	0	0	-nan
1.17623e-05	0	0	-nan
1.18543e-05	0	0	-nan
1.19669e-05	0	0	-nan
1.1974e-05	0	0	-nan
1.19853e-05	0	0	-nan
1.20456e-05	0	0	-nan
1.20471e-05	0	0	-nan
1.20562e-05	0	0	-nan
1.21557e-05	0	0	-nan
1.21866e-05	0	0	-nan
1.21871e-05	0	0	-nan
1.21875e-05	0	0	-nan
1.22014e-05	0	0	-nan
1.22265e-05	0	0	-nan
1.22754e-05	0	0	-nan
1.23036e-05	0	0	-nan
1.2335e-05	0	0	-nan
1.23832e-05	0	0	-nan
1.24174e-05	0	0	-nan
1.25175e-05	0	0	-nan
1.25365e-05	0	0	-nan
1.25888e-05	0	0	-nan
1.25938e-05	0	0	-nan
1.26121e-05	0	0	-nan
1.28102e-05	0	0	-nan
1.28123e-05	0	0	-nan
1.28201e-05	0	0	-nan
1.29216e-05	0	0	-nan
1.30068e-05	0	0	-nan
1.30195e-05	0	0	-nan
1.30364e-05	0	0	-nan
1.30409e-05	0	0	-nan
1.30948e-05	0	0	-nan
1.31216e-05	0	0	-nan
1.31328e-05	0	0	-nan
1.31425e-05	0	0	-nan
1.31661e-05	0	0	-nan
1.31766e-05	0	0	-nan
1.31896e-05	0	0	-nan
1.33519e-05	0	0	-nan
1.35071e-05	0	0	-nan
1.37107e-05	0	0	-nan
1.39477e-05	0	0	-nan
1.39529e-05	0	0	-nan
1.40387e-05	0	0	-nan
1.40854e-05	0	0	-nan
1.41381e-05	0	0	-nan
1.43224e-05	0	0	-nan
1.43597e-05	0	0	-nan
1.43632e-05	0	0	-nan
1.4377e-05	0	0	-nan
1.44364e-05	0	0	-nan
1.44409e-05	0	0	-nan
1.44452e-05	0	0	-nan
1.44468e-05	0	0	-nan
1.4584e-05	0	0	-nan
1.46176e-05	0	0	-nan
1.46301e-05	0	0	-nan
1.46682e-05	0	0	-nan
1.46816e-05	0	0	-nan
1.47354e-05	0	0	-nan
1.47791e-05	0	0	-nan
1.48172e-05	0	0	-nan
1.48407e-05	0	0	-nan
1.48879e-05	0	0	-nan
1.49683e-05	0	0	-nan
1.50067e-05	0	0	-nan
1.5076e-05	0	0	-nan
1.50764e-05	0	0	-nan
1.51037e-05	0	0	-nan
1.5184e-05	0	0	-nan
1.52105e-05	0	0	-nan
1.52238e-05	0	0	-nan
1.52798e-05	0	0	-nan
1.52903e-05	0	0	-nan
1.54107e-05	0	0	-nan
1.54842e-05	0	0	-nan
1.54903e-05	0	0	-nan
1.55466e-05	0	0	-nan
1.55619e-05	0	0	-nan
1.55797e-05	0	0	-nan
1.56273e-05	0	0	-nan
1.56563e-05	0	0	-nan
1.56783e-05	0	0	-nan
1.57605e-05	0	0	-nan
1.57669e-05	0	0	-nan
1.57696e-05	0	0	-nan
1.57712e-05	0	0	-nan
1.58061e-05	0	0	-nan
1.58136e-05	0	0	-nan
1.58178e-05	0	0	-nan
1.58401e-05	0	0	-nan
1.5845e-05	0	0	-nan
1.58772e-05	0	0	-nan
1.58786e-05	0	0	-nan
1.5985e-05	0	0	-nan
1.59914e-05	0	0	-nan
1.6e-05	0	0	-nan
1.60058e-05	0	0	-nan
1.60493e-05	0	0	-nan
1.60759e-05	0	0	-nan
1.60903e-05	0	0	-nan
1.61313e-05	0	0	-nan
1.61734e-05	0	0	-nan
1.62673e-05	0	0	-nan
1.63188e-05	0	0	-nan
1.63273e-05	0	0	-nan
1.63522e-05	0	0	-nan
1.63625e-05	0	0	-nan
1.64316e-05	0	0	-nan
1.65506e-05	0	0	-nan
1.66538e-05	0	0	-nan
1.66713e-05	0	0	-nan
1.66859e-05	0	0	-nan
1.68181e-05	0	0	-nan
1.68489e-05	0	0	-nan
1.68707e-05	0	0	-nan
1.69505e-05	0	0	-nan
1.69572e-05	0	0	-nan
1.71172e-05	0	0	-nan
1.71378e-05	0	0	-nan
1.72025e-05	0	0	-nan
1.72107e-05	0	0	-nan
1.72453e-05	0	0	-nan
1.7412e-05	0	0	-nan
1.74993e-05	0	0	-nan
1.75174e-05	0	0	-nan
1.75184e-05	0	0	-nan
1.75237e-05	0	0	-nan
1.75456e-05	0	0	-nan
1.76985e-05	0	0	-nan
1.78478e-05	0	0	-nan
1.78867e-05	0	0	-nan
1.7969e-05	0	0	-nan
1.79712e-05	0	0	-nan
1.79812e-05	0	0	-nan
1.80231e-05	0	0	-nan
1.81583e-05	0	0	-nan
1.81924e-05	0	0	-nan
1.8287e-05	0	0	-nan
1.83127e-05	0	0	-nan
1.84539e-05	0	0	-nan
1.84548e-05	0	0	-nan
1.85548e-05	0	0	-nan
1.85961e-05	0	0	-nan
1.8624e-05	0	0	-nan
1.86735e-05	0	0	-nan
1.86798e-05	0	0	-nan
1.87308e-05	0	0	-nan
1.87327e-05	0	0	-nan
1.88229e-05	0	0	-nan
1.88399e-05	0	0	-nan
1.89976e-05	0	0	-nan
1.90172e-05	0	0	-nan
1.91187e-05	0	0	-nan
1.92052e-05	0	0	-nan
1.92738e-05	0	0	-nan
1.9295e-05	0	0	-nan
1.93416e-05	0	0	-nan
1.937e-05	0	0	-nan
1.9382e-05	0	0	-nan
1.96263e-05	0	0	-nan
1.966e-05	0	0	-nan
1.97011e-05	0	0	-nan
1.97833e-05	0	0	-nan
1.98542e-05	0	0	-nan
1.98908e-05	0	0	-nan
1.9963e-05	0	0	-nan
1.99743e-05	0	0	-nan
1.99821e-05	0	0	-nan
2.00469e-05	0	0	-nan
2.0197e-05	0	0	-nan
2.0217e-05	0	0	-nan
2.02874e-05	0	0	-nan
2.0388e-05	0	0	-nan
2.04195e-05	0	0	-nan
2.04784e-05	0	0	-nan
2.0521e-05	0	0	-nan
2.0562e-05	0	0	-nan
2.05812e-05	0	0	-nan
2.05962e-05	0	0	-nan
2.06467e-05	0	0	-nan
2.06642e-05	0	0	-nan
2.0711e-05	0	0	-nan
2.07132e-05	0	0	-nan
2.07395e-05	0	0	-nan
2.10042e-05	0	0	-nan
2.11818e-05	0	0	-nan
2.12014e-05	0	0	-nan
2.12434e-05	0	0	-nan
2.13041e-05	0	0	-nan
2.13182e-05	0	0	-nan
2.135e-05	0	0	-nan
2.14737e-05	0	0	-nan
2.16634e-05	0	0	-nan
2.16837e-05	0	0	-nan
2.17693e-05	0	0	-nan
2.18343e-05	0	0	-nan
2.19268e-05	0	0	-nan
2.20055e-05	0	0	-nan
2.21165e-05	0	0	-nan
2.23001e-05	0	0	-nan
2.23911e-05	0	0	-nan
2.24107e-05	0	0	-nan
2.24538e-05	0	0	-nan
2.24849e-05	0	0	-nan
2.27275e-05	0	0	-nan
2.27717e-05	0	0	-nan
2.27919e-05	0	0	-nan
2.2795e-05	0	0	-nan
2.28183e-05	0	0	-nan
2.29739e-05	0	0	-nan
2.30265e-05	0	0	-nan
2.30407e-05	0	0	-nan
2.33425e-05	0	0	-nan
2.35343e-05	0	0	-nan
2.35386e-05	0	0	-nan
2.35852e-05	0	0	-nan
2.36111e-05	0	0	-nan
2.36253e-05	0	0	-nan
2.37241e-05	0	0	-nan
2.38468e-05	0	0	-nan
2.38486e-05	0	0	-nan
2.38968e-05	0	0	-nan
2.39274e-05	0	0	-nan
2.39478e-05	0	0	-nan
2.39534e-05	0	0	-nan
2.39633e-05	0	0	-nan
2.3991e-05	0	0	-nan
2.40005e-05	0	0	-nan
2.41154e-05	0	0	-nan
2.41292e-05	0	0	-nan
2.41569e-05	0	0	-nan
2.41694e-05	0	0	-nan
2.42326e-05	0	0	-nan
2.42533e-05	0	0	-nan
2.42593e-05	0	0	-nan
2.44564e-05	0	0	-nan
2.46069e-05	0	0	-nan
2.46416e-05	0	0	-nan
2.47082e-05	0	0	-nan
2.48292e-05	0	0	-nan
2.48552e-05	0	0	-nan
2.49054e-05	0	0	-nan
2.5137e-05	0	0	-nan
2.52101e-05	0	0	-nan
2.52454e-05	0	0	-nan
2.53062e-05	0	0	-nan
2.53791e-05	0	0	-nan
2.54547e-05	0	0	-nan
2.54949e-05	0	0	-nan
2.55281e-05	0	0	-nan
2.55377e-05	0	0	-nan
2.55471e-05	0	0	-nan
2.5595e-05	0	0	-nan
2.57435e-05	0	0	-nan
2.59365e-05	0	0	-nan
2.59467e-05	0	0	-nan
2.60559e-05	0	0	-nan
2.61605e-05	0	0	-nan
2.61937e-05	0	0	-nan
2.62498e-05	0	0	-nan
2.64071e-05	0	0	-nan
2.66052e-05	0	0	-nan
2.67151e-05	0	0	-nan
2.68627e-05	0	0	-nan
2.68679e-05	0	0	-nan
2.7133e-05	0	0	-nan
2.71629e-05	0	0	-nan
2.73887e-05	0	0	-nan
2.74359e-05	0	0	-nan
2.75162e-05	0	0	-nan
2.75698e-05	0	0	-nan
2.75704e-05	0	0	-nan
2.75828e-05	0	0	-nan
2.75984e-05	0	0	-nan
2.76465e-05	0	0	-nan
2.77815e-05	0	0	-nan
2.7784e-05	0	0	-nan
2.79045e-05	0	0	-nan
2.79075e-05	0	0	-nan
2.79399e-05	0	0	-nan
2.79854e-05	0	0	-nan
2.81869e-05	0	0	-nan
2.81924e-05	0	0	-nan
2.82054e-05	0	0	-nan
2.83198e-05	0	0	-nan
2.83201e-05	0	0	-nan
2.83614e-05	0	0	-nan
2.84789e-05	0	0	-nan
2.85158e-05	0	0	-nan
2.85514e-05	0	0	-nan
2.85608e-05	0	0	-nan
2.86998e-05	0	0	-nan
2.88347e-05	0	0	-nan
2.88869e-05	0	0	-nan
2.88944e-05	0	0	-nan
2.89477e-05	0	0	-nan
2.8994e-05	0	0	-nan
2.90904e-05	0	0	-nan
2.92945e-05	0	0	-nan
2.93182e-05	0	0	-nan
2.93632e-05	0	0	-nan
2.93795e-05	0	0	-nan
2.95248e-05	0	0	-nan
2.95819e-05	0	0	-nan
2.96673e-05	0	0	-nan
2.96875e-05	0	0	-nan
2.97793e-05	0	0	-nan
2.9826e-05	0	0	-nan
2.99573e-05	0	0	-nan
2.99672e-05	0	0	-nan
2.99778e-05	0	0	-nan
3.01187e-05	0	0	-nan
3.03292e-05	0	0	-nan
3.03547e-05	0	0	-nan
3.03742e-05	0	0	-nan
3.03974e-05	0	0	-nan
3.0417e-05	0	0	-nan
3.05245e-05	0	0	-nan
3.05413e-05	0	0	-nan
3.05496e-05	0	0	-nan
3.06087e-05	0	0	-nan
3.06516e-05	0	0	-nan
3.07394e-05	0	0	-nan
3.0815e-05	0	0	-nan
3.08151e-05	0	0	-nan
3.09024e-05	0	0	-nan
3.10412e-05	0	0	-nan
3.1075e-05	0	0	-nan
3.10973e-05	0	0	-nan
3.11197e-05	0	0	-nan
3.11404e-05	0	0	-nan
3.1148e-05	0	0	-nan
3.13069e-05	0	0	-nan
3.15033e-05	0	0	-nan
3.16852e-05	0	0	-nan
3.17123e-05	0	0	-nan
3.1779e-05	0	0	-nan
3.18142e-05	0	0	-nan
3.19016e-05	0	0	-nan
3.2307e-05	0	0	-nan
3.23376e-05	0	0	-nan
3.23434e-05	0	0	-nan
3.23841e-05	0	0	-nan
3.26183e-05	0	0	-nan
3.27108e-05	0	0	-nan
3.28915e-05	0	0	-nan
3.29373e-05	0	0	-nan
3.3025e-05	0	0	-nan
3.32215e-05	0	0	-nan
3.34298e-05	0	0	-nan
3.35227e-05	0	0	-nan
3.37421e-05	0	0	-nan
3.38301e-05	0	0	-nan
3.38736e-05	0	0	-nan
3.3923e-05	0	0	-nan
3.39381e-05	0	0	-nan
3.40263e-05	0	0	-nan
3.4199e-05	0	0	-nan
3.42202e-05	0	0	-nan
3.43027e-05	0	0	-nan
3.43819e-05	0	0	-nan
3.43888e-05	0	0	-nan
3.44793e-05	0	0	-nan
3.4783e-05	0	0	-nan
3.50301e-05	0	0	-nan
3.51829e-05	0	0	-nan
3.52934e-05	0	0	-nan
3.53105e-05	0	0	-nan
3.53354e-05	0	0	-nan
3.54718e-05	0	0	-nan
3.55033e-05	0	0	-nan
3.55247e-05	0	0	-nan
3.57139e-05	0	0	-nan
3.57236e-05	0	0	-nan
3.57655e-05	0	0	-nan
3.59046e-05	0	0	-nan
3.60254e-05	0	0	-nan
3.6035e-05	0	0	-nan
3.60833e-05	0	0	-nan
3.62503e-05	0	0	-nan
3.62586e-05	0	0	-nan
3.63072e-05	0	0	-nan
3.63791e-05	0	0	-nan
3.65459e-05	0	0	-nan
3.67336e-05	0	0	-nan
3.68376e-05	0	0	-nan
3.68409e-05	0	0	-nan
3.68562e-05	0	0	-nan
3.6951e-05	0	0	-nan
3.69633e-05	0	0	-nan
3.71692e-05	0	0	-nan
3.72136e-05	0	0	-nan
3.73054e-05	0	0	-nan
3.7338e-05	0	0	-nan
3.74695e-05	0	0	-nan
3.74905e-05	0	0	-nan
3.75377e-05	0	0	-nan
3.75607e-05	0	0	-nan
3.76403e-05	0	0	-nan
3.78388e-05	0	0	-nan
3.78399e-05	0	0	-nan
3.80297e-05	0	0	-nan
3.81392e-05	0	0	-nan
3.82094e-05	0	0	-nan
3.83235e-05	0	0	-nan
3.83679e-05	0	0	-nan
3.84064e-05	0	0	-nan
3.84541e-05	0	0	-nan
3.84765e-05	0	0	-nan
3.86249e-05	0	0	-nan
3.86499e-05	0	0	-nan
3.86729e-05	0	0	-nan
3.8744e-05	0	0	-nan
3.87858e-05	0	0	-nan
3.88033e-05	0	0	-nan
3.8883e-05	0	0	-nan
3.89251e-05	0	0	-nan
3.89454e-05	0	0	-nan
3.92242e-05	0	0	-nan
3.92551e-05	0	0	-nan
3.96009e-05	0	0	-nan
3.96186e-05	0	0	-nan
3.97081e-05	0	0	-nan
3.9762e-05	0	0	-nan
3.99392e-05	0	0	-nan
3.99526e-05	0	0	-nan
4.01015e-05	0	0	-nan
4.03767e-05	0	0	-nan
4.04527e-05	0	0	-nan
4.0653e-05	0	0	-nan
4.06535e-05	0	0	-nan
4.0673e-05	0	0	-nan
4.06746e-05	0	0	-nan
4.0731e-05	0	0	-nan
4.08535e-05	0	0	-nan
4.08855e-05	0	0	-nan
4.12621e-05	0	0	-nan
4.17779e-05	0	0	-nan
4.18219e-05	0	0	-nan
4.18327e-05	0	0	-nan
4.18869e-05	0	0	-nan
4.19206e-05	0	0	-nan
4.19543e-05	0	0	-nan
4.20962e-05	0	0	-nan
4.20984e-05	0	0	-nan
4.22042e-05	0	0	-nan
4.22819e-05	0	0	-nan
4.23977e-05	0	0	-nan
4.24248e-05	0	0	-nan
4.24443e-05	0	0	-nan
4.25662e-05	0	0	-nan
4.26295e-05	0	0	-nan
4.26379e-05	0	0	-nan
4.26522e-05	0	0	-nan
4.27105e-05	0	0	-nan
4.27586e-05	0	0	-nan
4.27951e-05	0	0	-nan
4.30095e-05	0	0	-nan
4.30878e-05	0	0	-nan
4.34411e-05	0	0	-nan
4.35869e-05	0	0	-nan
4.40153e-05	0	0	-nan
4.43461e-05	0	0	-nan
4.44067e-05	0	0	-nan
4.44239e-05	0	0	-nan
4.45844e-05	0	0	-nan
4.46553e-05	0	0	-nan
4.4817e-05	0	0	-nan
4.52222e-05	0	0	-nan
4.53739e-05	0	0	-nan
4.54017e-05	0	0	-nan
4.57785e-05	0	0	-nan
4.6215e-05	0	0	-nan
4.65578e-05	0	0	-nan
4.65745e-05	0	0	-nan
4.69817e-05	0	0	-nan
4.69903e-05	0	0	-nan
4.73781e-05	0	0	-nan
4.74653e-05	0	0	-nan
4.76158e-05	0	0	-nan
4.76242e-05	0	0	-nan
4.78306e-05	0	0	-nan
4.79177e-05	0	0	-nan
4.79828e-05	0	0	-nan
4.81857e-05	0	0	-nan
4.84541e-05	0	0	-nan
4.84954e-05	0	0	-nan
4.87431e-05	0	0	-nan
4.87872e-05	0	0	-nan
4.90318e-05	0	0	-nan
4.91776e-05	0	0	-nan
4.92312e-05	0	0	-nan
4.94207e-05	0	0	-nan
4.94621e-05	0	0	-nan
4.95218e-05	0	0	-nan
4.95917e-05	0	0	-nan
4.96557e-05	0	0	-nan
4.96639e-05	0	0	-nan
4.97383e-05	0	0	-nan
5.0017e-05	0	0	-nan
5.03529e-05	0	0	-nan
5.07384e-05	0	0	-nan
5.07872e-05	0	0	-nan
5.10953e-05	0	0	-nan
5.12445e-05	0	0	-nan
5.14374e-05	0	0	-nan
5.14753e-05	0	0	-nan
5.1639e-05	0	0	-nan
5.18108e-05	0	0	-nan
5.18657e-05	0	0	-nan
5.19529e-05	0	0	-nan
5.25569e-05	0	0	-nan
5.25702e-05	0	0	-nan
5.31537e-05	0	0	-nan
5.35526e-05	0	0	-nan
5.41086e-05	0	0	-nan
5.42278e-05	0	0	-nan
5.42556e-05	0	0	-nan
5.45208e-05	0	0	-nan
5.47747e-05	0	0	-nan
5.52542e-05	0	0	-nan
5.53189e-05	0	0	-nan
5.53407e-05	0	0	-nan
5.54544e-05	0	0	-nan
5.57915e-05	0	0	-nan
5.60676e-05	0	0	-nan
5.60724e-05	0	0	-nan
5.62112e-05	0	0	-nan
5.63974e-05	0	0	-nan
5.65578e-05	0	0	-nan
5.67358e-05	0	0	-nan
5.67579e-05	0	0	-nan
5.68168e-05	0	0	-nan
5.69566e-05	0	0	-nan
5.70741e-05	0	0	-nan
5.72255e-05	0	0	-nan
5.72458e-05	0	0	-nan
5.72896e-05	0	0	-nan
5.73352e-05	0	0	-nan
5.75049e-05	0	0	-nan
5.76974e-05	0	0	-nan
5.82808e-05	0	0	-nan
5.82956e-05	0	0	-nan
5.84197e-05	0	0	-nan
5.84729e-05	0	0	-nan
5.89325e-05	0	0	-nan
5.91238e-05	0	0	-nan
5.92871e-05	0	0	-nan
5.93344e-05	0	0	-nan
5.96552e-05	0	0	-nan
5.96734e-05	0	0	-nan
5.98686e-05	0	0	-nan
5.98708e-05	0	0	-nan
5.99147e-05	0	0	-nan
6.04453e-05	0	0	-nan
6.06233e-05	0	0	-nan
6.07479e-05	0	0	-nan
6.09898e-05	0	0	-nan
6.10263e-05	0	0	-nan
6.11244e-05	0	0	-nan
6.12456e-05	0	0	-nan
6.127e-05	0	0	-nan
6.12781e-05	0	0	-nan
6.14632e-05	0	0	-nan
6.15922e-05	0	0	-nan
6.16441e-05	0	0	-nan
6.175e-05	0	0	-nan
6.20101e-05	0	0	-nan
6.22672e-05	0	0	-nan
6.255e-05	0	0	-nan
6.25986e-05	0	0	-nan
6.2988e-05	0	0	-nan
6.30064e-05	0	0	-nan
6.32958e-05	0	0	-nan
6.33618e-05	0	0	-nan
6.33881e-05	0	0	-nan
6.35338e-05	0	0	-nan
6.35382e-05	0	0	-nan
6.36459e-05	0	0	-nan
6.36469e-05	0	0	-nan
6.38959e-05	0	0	-nan
6.40982e-05	0	0	-nan
6.42114e-05	0	0	-nan
6.45102e-05	0	0	-nan
6.5044e-05	0	0	-nan
6.50909e-05	0	0	-nan
6.58564e-05	0	0	-nan
6.58574e-05	0	0	-nan
6.6325e-05	0	0	-nan
6.63516e-05	0	0	-nan
6.64914e-05	0	0	-nan
6.67876e-05	0	0	-nan
6.68903e-05	0	0	-nan
6.72911e-05	0	0	-nan
6.81145e-05	0	0	-nan
6.81345e-05	0	0	-nan
6.81651e-05	0	0	-nan
6.81738e-05	0	0	-nan
6.8806e-05	0	0	-nan
6.88189e-05	0	0	-nan
6.89048e-05	0	0	-nan
6.89089e-05	0	0	-nan
6.9887e-05	0	0	-nan
7.04011e-05	0	0	-nan
7.06076e-05	0	0	-nan
7.12532e-05	0	0	-nan
7.13343e-05	0	0	-nan
7.13888e-05	0	0	-nan
7.14943e-05	0	0	-nan
7.2184e-05	0	0	-nan
7.23323e-05	0	0	-nan
7.27231e-05	0	0	-nan
7.29021e-05	0	0	-nan
7.29028e-05	0	0	-nan
7.31831e-05	0	0	-nan
7.32237e-05	0	0	-nan
7.32751e-05	0	0	-nan
7.3652e-05	0	0	-nan
7.37951e-05	0	0	-nan
7.42843e-05	0	0	-nan
7.43152e-05	0	0	-nan
7.44222e-05	0	0	-nan
7.5011e-05	0	0	-nan
7.50238e-05	0	0	-nan
7.58884e-05	0	0	-nan
7.63572e-05	0	0	-nan
7.75414e-05	0	0	-nan
7.75531e-05	0	0	-nan
7.80546e-05	0	0	-nan
7.81771e-05	0	0	-nan
7.82167e-05	0	0	-nan
7.86861e-05	0	0	-nan
7.89464e-05	0	0	-nan
7.99e-05	0	0	-nan
8.09554e-05	0	0	-nan
8.11069e-05	0	0	-nan
8.14695e-05	0	0	-nan
8.20156e-05	0	0	-nan
8.20394e-05	0	0	-nan
8.24571e-05	0	0	-nan
8.25344e-05	0	0	-nan
8.31535e-05	0	0	-nan
8.3517e-05	0	0	-nan
8.36903e-05	0	0	-nan
8.39006e-05	0	0	-nan
8.41249e-05	0	0	-nan
8.41309e-05	0	0	-nan
8.42884e-05	0	0	-nan
8.44584e-05	0	0	-nan
8.47774e-05	0	0	-nan
8.4838e-05	0	0	-nan
8.6392e-05	0	0	-nan
8.73548e-05	0	0	-nan
8.8008e-05	0	0	-nan
8.8052e-05	0	0	-nan
8.86915e-05	0	0	-nan
8.94191e-05	0	0	-nan
9.07374e-05	0	0	-nan
9.11876e-05	0	0	-nan
9.24832e-05	0	0	-nan
9.25168e-05	0	0	-nan
9.26137e-05	0	0	-nan
9.26179e-05	0	0	-nan
9.33198e-05	0	0	-nan
9.3453e-05	0	0	-nan
9.53629e-05	0	0	-nan
9.63942e-05	0	0	-nan
9.70938e-05	0	0	-nan
9.78844e-05	0	0	-nan
9.83569e-05	0	0	-nan
9.93385e-05	0	0	-nan
9.96801e-05	0	0	-nan
9.96847e-05	0	0	-nan
0.000101499	0	0	-nan
0.000101745	0	0	-nan
0.000103551	0	0	-nan
0.000103594	0	0	-nan
0.000104094	0	0	-nan
0.000104342	0	0	-nan
0.000105336	0	0	-nan
0.000105528	0	0	-nan
0.000107856	0	0	-nan
0.000109009	0	0	-nan
0.000110027	0	0	-nan
0.000110656	0	0	-nan
0.000110969	0	0	-nan
0.000111317	0	0	-nan
0.000111505	0	0	-nan
0.000112087	0	0	-nan
0.000112487	0	0	-nan
0.000112548	0	0	-nan
0.000112563	0	0	-nan
0.000112843	0	0	-nan
0.000112899	0	0	-nan
0.000113648	0	0	-nan
0.000113877	0	0	-nan
0.00011573	0	0	-nan
0.0001169	0	0	-nan
0.000117149	0	0	-nan
0.000117356	0	0	-nan
0.000118366	0	0	-nan
0.0001187	0	0	-nan
0.000118754	0	0	-nan
0.000118851	0	0	-nan
0.000119281	0	0	-nan
0.000120283	0	0	-nan
0.00012041	0	0	-nan
0.000121212	0	0	-nan
0.00012155	0	0	-nan
0.000121951	0	0	-nan
0.000122131	0	0	-nan
0.000122501	0	0	-nan
0.000123055	0	0	-nan
0.000123546	0	0	-nan
0.000123807	0	0	-nan
0.000123987	0	0	-nan
0.000124645	0	0	-nan
0.000125993	0	0	-nan
0.000127011	0	0	-nan
0.00012792	0	0	-nan
0.000128861	0	0	-nan
0.000130403	0	0	-nan
0.000132755	0	0	-nan
0.000132905	0	0	-nan
0.000134593	0	0	-nan
0.000134721	0	0	-nan
0.000134831	0	0	-nan
0.000134984	0	0	-nan
0.000136125	0	0	-nan
0.000139128	0	0	-nan
0.000139195	0	0	-nan
0.000139441	0	0	-nan
0.000139487	0	0	-nan
0.000140314	0	0	-nan
0.000142359	0	0	-nan
0.000144038	0	0	-nan
0.000145442	0	0	-nan
0.000146759	0	0	-nan
0.00014722	0	0	-nan
0.000147527	0	0	-nan
0.000147529	0	0	-nan
0.000147916	0	0	-nan
0.000148788	0	0	-nan
0.000149935	0	0	-nan
0.000150639	0	0	-nan
0.000150692	0	0	-nan
0.000152392	0	0	-nan
0.000152826	0	0	-nan
0.00015319	0	0	-nan
0.000154083	0	0	-nan
0.000154436	0	0	-nan
0.000156391	0	0	-nan
0.000156816	0	0	-nan
0.000159827	0	0	-nan
0.000161415	0	0	-nan
0.000166335	0	0	-nan
0.000166417	0	0	-nan
0.000167191	0	0	-nan
0.000168616	0	0	-nan
0.000171139	0	0	-nan
0.000174532	0	0	-nan
0.000176288	0	0	-nan
0.00017738	0	0	-nan
0.000179807	0	0	-nan
0.000181674	0	0	-nan
0.00018169	0	0	-nan
0.000181709	0	0	-nan
0.000182718	0	0	-nan
0.000183749	0	0	-nan
0.000184202	0	0	-nan
0.000192907	0	0	-nan
0.000193125	0	0	-nan
0.000201544	0	0	-nan
0.000204358	0	0	-nan
0.000205111	0	0	-nan
0.000209013	0	0	-nan
0.000211558	0	0	-nan
0.000213495	0	0	-nan
0.000215663	0	0	-nan
0.000224031	0	0	-nan
0.000224599	0	0	-nan
0.000244009	0	0	-nan
0.000245977	0	0	-nan
0.00025066	0	0	-nan
0.000256488	0	0	-nan
0.000279567	0	0	-nan
0.000281329	0	0	-nan
0.0002836	0	0	-nan
0.000284014	0	0	-nan
0.000293968	0	0	-nan
0.0002951	0	0	-nan
0.00029938	0	0	-nan
0.000303727	0	0	-nan
0.000306861	0	0	-nan
0.00030721	0	0	-nan
0.000315066	0	0	-nan
0.000318257	0	0	-nan
0.000349462	0	0	-nan
0.00036864	0	0	-nan
0.000368683	0	0	-nan
0.000372035	0	0	-nan
0.000382006	0	0	-nan
0.000382582	0	0	-nan
0.000387111	0	0	-nan
0.000414628	0	0	-nan
0.000415496	0	0	-nan
0.000419118	0	0	-nan
0.00042046	0	0	-nan
0.000422808	0	0	-nan
0.000436752	0	0	-nan
0.000453736	0	0	-nan
0.000458834	0	0	-nan
0.000472465	0	0	-nan
0.00047528	0	0	-nan
0.000490289	0	0	-nan
0.00050139	0	0	-nan
0.000505221	0	0	-nan
0.000516487	0	0	-nan
0.00056558	0	0	-nan
0.000580236	0	0	-nan
0.000611632	0	0	-nan
0.000658004	0	0	-nan
0.000680658	0	0	-nan
0.000738549	0	0	-nan
0.000770696	0	0	-nan
0.000884029	0	0	-nan
0.000925227	0	0	-nan
0.000994757	0	0	-nan
0.00106699	0	0	-nan
0.00120158	0	0	-nan
0.00122572	0	0	-nan
0.00122606	0	0	-nan
0.00123092	0	0	-nan
0.001238	0	0	-nan
0.0012715	0	0	-nan
0.00132998	0	0	-nan
0.00134611	0	0	-nan
0.0014104	0	0	-nan
0.00143222	0	0	-nan
0.00144091	0	0	-nan
0.0014754	0	0	-nan
0.00164762	0	0	-nan
0.00180406	0	0	-nan
0.00194129	0	0	-nan
0.00199561	0	0	-nan
0.00212316	0	0	-nan
0.00218347	0	0	-nan
0.0023411	0	0	-nan
0.00242034	0	0	-nan
0.00245829	0	0	-nan
0.00285339	0	0	-nan
0.0029237	0	0	-nan
0.00324755	0	0	-nan
0.00327438	0	0	-nan
0.00395909	0	0	-nan
