6.02685e-09	0	0	-nan
7.21514e-09	0	0	-nan
1.09514e-08	0	0	-nan
5.71183e-08	0	0	-nan
7.71972e-08	0	0	-nan
9.84581e-08	0	0	-nan
1.3038e-07	0	0	-nan
1.44611e-07	0	0	-nan
1.51223e-07	0	0	-nan
1.51638e-07	0	0	-nan
1.75154e-07	0	0	-nan
1.81657e-07	0	0	-nan
1.90764e-07	0	0	-nan
1.91814e-07	0	0	-nan
2.67283e-07	0	0	-nan
2.9574e-07	0	0	-nan
3.06792e-07	0	0	-nan
3.20747e-07	0	0	-nan
3.42652e-07	0	0	-nan
3.53443e-07	0	0	-nan
3.57338e-07	0	0	-nan
3.68172e-07	0	0	-nan
3.75774e-07	0	0	-nan
3.8669e-07	0	0	-nan
4.03578e-07	0	0	-nan
4.21368e-07	0	0	-nan
4.36541e-07	0	0	-nan
4.45012e-07	0	0	-nan
4.56236e-07	0	0	-nan
4.96855e-07	0	0	-nan
5.02153e-07	0	0	-nan
5.16686e-07	0	0	-nan
5.21696e-07	0	0	-nan
5.67275e-07	0	0	-nan
5.71365e-07	0	0	-nan
5.89675e-07	0	0	-nan
6.04997e-07	0	0	-nan
6.08663e-07	0	0	-nan
6.32533e-07	0	0	-nan
6.42789e-07	0	0	-nan
6.44102e-07	0	0	-nan
6.71705e-07	0	0	-nan
6.8585e-07	0	0	-nan
6.87065e-07	0	0	-nan
6.93398e-07	0	0	-nan
6.99995e-07	0	0	-nan
7.01474e-07	0	0	-nan
7.02913e-07	0	0	-nan
7.04268e-07	0	0	-nan
7.06466e-07	0	0	-nan
7.15003e-07	0	0	-nan
7.27301e-07	0	0	-nan
7.40723e-07	0	0	-nan
7.70264e-07	0	0	-nan
7.96512e-07	0	0	-nan
8.01976e-07	0	0	-nan
8.0901e-07	0	0	-nan
8.19904e-07	0	0	-nan
8.26014e-07	0	0	-nan
8.40404e-07	0	0	-nan
8.92232e-07	0	0	-nan
9.01818e-07	0	0	-nan
9.48681e-07	0	0	-nan
9.52544e-07	0	0	-nan
9.90585e-07	0	0	-nan
9.94445e-07	0	0	-nan
1.02382e-06	0	0	-nan
1.02434e-06	0	0	-nan
1.04371e-06	0	0	-nan
1.06107e-06	0	0	-nan
1.08613e-06	0	0	-nan
1.09185e-06	0	0	-nan
1.10335e-06	0	0	-nan
1.10461e-06	0	0	-nan
1.13326e-06	0	0	-nan
1.14355e-06	0	0	-nan
1.15067e-06	0	0	-nan
1.15965e-06	0	0	-nan
1.19383e-06	0	0	-nan
1.21486e-06	0	0	-nan
1.22264e-06	0	0	-nan
1.22546e-06	0	0	-nan
1.24161e-06	0	0	-nan
1.25195e-06	0	0	-nan
1.2623e-06	0	0	-nan
1.26371e-06	0	0	-nan
1.28464e-06	0	0	-nan
1.29204e-06	0	0	-nan
1.29226e-06	0	0	-nan
1.32741e-06	0	0	-nan
1.3315e-06	0	0	-nan
1.35908e-06	0	0	-nan
1.41721e-06	0	0	-nan
1.42426e-06	0	0	-nan
1.45727e-06	0	0	-nan
1.4629e-06	0	0	-nan
1.47602e-06	0	0	-nan
1.48949e-06	0	0	-nan
1.49532e-06	0	0	-nan
1.50531e-06	0	0	-nan
1.55504e-06	0	0	-nan
1.59673e-06	0	0	-nan
1.61201e-06	0	0	-nan
1.6296e-06	0	0	-nan
1.64148e-06	0	0	-nan
1.65009e-06	0	0	-nan
1.68299e-06	0	0	-nan
1.68595e-06	0	0	-nan
1.68818e-06	0	0	-nan
1.68941e-06	0	0	-nan
1.69618e-06	0	0	-nan
1.70355e-06	0	0	-nan
1.73125e-06	0	0	-nan
1.75241e-06	0	0	-nan
1.78096e-06	0	0	-nan
1.81258e-06	0	0	-nan
1.81552e-06	0	0	-nan
1.82063e-06	0	0	-nan
1.83023e-06	0	0	-nan
1.86555e-06	0	0	-nan
1.87239e-06	0	0	-nan
1.88868e-06	0	0	-nan
1.9096e-06	0	0	-nan
1.91087e-06	0	0	-nan
1.92875e-06	0	0	-nan
1.94345e-06	0	0	-nan
1.94489e-06	0	0	-nan
1.94794e-06	0	0	-nan
1.9589e-06	0	0	-nan
1.97547e-06	0	0	-nan
1.98775e-06	0	0	-nan
1.99454e-06	0	0	-nan
2.00265e-06	0	0	-nan
2.02032e-06	0	0	-nan
2.03089e-06	0	0	-nan
2.0414e-06	0	0	-nan
2.05269e-06	0	0	-nan
2.09766e-06	0	0	-nan
2.10077e-06	0	0	-nan
2.15672e-06	0	0	-nan
2.16169e-06	0	0	-nan
2.16668e-06	0	0	-nan
2.17014e-06	0	0	-nan
2.17979e-06	0	0	-nan
2.1903e-06	0	0	-nan
2.19428e-06	0	0	-nan
2.19985e-06	0	0	-nan
2.24814e-06	0	0	-nan
2.30202e-06	0	0	-nan
2.3383e-06	0	0	-nan
2.33892e-06	0	0	-nan
2.33986e-06	0	0	-nan
2.34885e-06	0	0	-nan
2.35303e-06	0	0	-nan
2.35398e-06	0	0	-nan
2.38017e-06	0	0	-nan
2.38433e-06	0	0	-nan
2.40829e-06	0	0	-nan
2.41363e-06	0	0	-nan
2.41606e-06	0	0	-nan
2.41707e-06	0	0	-nan
2.41893e-06	0	0	-nan
2.42718e-06	0	0	-nan
2.45272e-06	0	0	-nan
2.47874e-06	0	0	-nan
2.48532e-06	0	0	-nan
2.48683e-06	0	0	-nan
2.49675e-06	0	0	-nan
2.51322e-06	0	0	-nan
2.53145e-06	0	0	-nan
2.56263e-06	0	0	-nan
2.56812e-06	0	0	-nan
2.57363e-06	0	0	-nan
2.59999e-06	0	0	-nan
2.61323e-06	0	0	-nan
2.63396e-06	0	0	-nan
2.65053e-06	0	0	-nan
2.66566e-06	0	0	-nan
2.6663e-06	0	0	-nan
2.67347e-06	0	0	-nan
2.67895e-06	0	0	-nan
2.70549e-06	0	0	-nan
2.75257e-06	0	0	-nan
2.77236e-06	0	0	-nan
2.79518e-06	0	0	-nan
2.79904e-06	0	0	-nan
2.80948e-06	0	0	-nan
2.83565e-06	0	0	-nan
2.85111e-06	0	0	-nan
2.85405e-06	0	0	-nan
2.8872e-06	0	0	-nan
2.91771e-06	0	0	-nan
2.93769e-06	0	0	-nan
2.94906e-06	0	0	-nan
2.9996e-06	0	0	-nan
3.0125e-06	0	0	-nan
3.03833e-06	0	0	-nan
3.08412e-06	0	0	-nan
3.12358e-06	0	0	-nan
3.17762e-06	0	0	-nan
3.18386e-06	0	0	-nan
3.22203e-06	0	0	-nan
3.22267e-06	0	0	-nan
3.25446e-06	0	0	-nan
3.25542e-06	0	0	-nan
3.26409e-06	0	0	-nan
3.27196e-06	0	0	-nan
3.27691e-06	0	0	-nan
3.27888e-06	0	0	-nan
3.31262e-06	0	0	-nan
3.35398e-06	0	0	-nan
3.36303e-06	0	0	-nan
3.39122e-06	0	0	-nan
3.39566e-06	0	0	-nan
3.39732e-06	0	0	-nan
3.42152e-06	0	0	-nan
3.46417e-06	0	0	-nan
3.46962e-06	0	0	-nan
3.50204e-06	0	0	-nan
3.50906e-06	0	0	-nan
3.52006e-06	0	0	-nan
3.53264e-06	0	0	-nan
3.55356e-06	0	0	-nan
3.56126e-06	0	0	-nan
3.58819e-06	0	0	-nan
3.60027e-06	0	0	-nan
3.62105e-06	0	0	-nan
3.63143e-06	0	0	-nan
3.6517e-06	0	0	-nan
3.69352e-06	0	0	-nan
3.73272e-06	0	0	-nan
3.76938e-06	0	0	-nan
3.80574e-06	0	0	-nan
3.81691e-06	0	0	-nan
3.83556e-06	0	0	-nan
3.84872e-06	0	0	-nan
3.85157e-06	0	0	-nan
3.85747e-06	0	0	-nan
3.88218e-06	0	0	-nan
3.90093e-06	0	0	-nan
3.92431e-06	0	0	-nan
3.92814e-06	0	0	-nan
3.94468e-06	0	0	-nan
3.95837e-06	0	0	-nan
3.99242e-06	0	0	-nan
4.04123e-06	0	0	-nan
4.04617e-06	0	0	-nan
4.05121e-06	0	0	-nan
4.0557e-06	0	0	-nan
4.12799e-06	0	0	-nan
4.13496e-06	0	0	-nan
4.14744e-06	0	0	-nan
4.22198e-06	0	0	-nan
4.24714e-06	0	0	-nan
4.30873e-06	0	0	-nan
4.31495e-06	0	0	-nan
4.33033e-06	0	0	-nan
4.33996e-06	0	0	-nan
4.3473e-06	0	0	-nan
4.3966e-06	0	0	-nan
4.41961e-06	0	0	-nan
4.4273e-06	0	0	-nan
4.43419e-06	0	0	-nan
4.45754e-06	0	0	-nan
4.46941e-06	0	0	-nan
4.52188e-06	0	0	-nan
4.55342e-06	0	0	-nan
4.5829e-06	0	0	-nan
4.64201e-06	0	0	-nan
4.65871e-06	0	0	-nan
4.6913e-06	0	0	-nan
4.7165e-06	0	0	-nan
4.72164e-06	0	0	-nan
4.73437e-06	0	0	-nan
4.73763e-06	0	0	-nan
4.74955e-06	0	0	-nan
4.76362e-06	0	0	-nan
4.8046e-06	0	0	-nan
4.80671e-06	0	0	-nan
4.81277e-06	0	0	-nan
4.82885e-06	0	0	-nan
4.84326e-06	0	0	-nan
4.85257e-06	0	0	-nan
4.86068e-06	0	0	-nan
4.88431e-06	0	0	-nan
4.91463e-06	0	0	-nan
4.92241e-06	0	0	-nan
4.94302e-06	0	0	-nan
4.94767e-06	0	0	-nan
4.97196e-06	0	0	-nan
4.99738e-06	0	0	-nan
5.01552e-06	0	0	-nan
5.12398e-06	0	0	-nan
5.14695e-06	0	0	-nan
5.14915e-06	0	0	-nan
5.15547e-06	0	0	-nan
5.15597e-06	0	0	-nan
5.19114e-06	0	0	-nan
5.19526e-06	0	0	-nan
5.21797e-06	0	0	-nan
5.246e-06	0	0	-nan
5.26595e-06	0	0	-nan
5.30819e-06	0	0	-nan
5.32518e-06	0	0	-nan
5.33069e-06	0	0	-nan
5.40655e-06	0	0	-nan
5.43083e-06	0	0	-nan
5.43443e-06	0	0	-nan
5.44398e-06	0	0	-nan
5.49617e-06	0	0	-nan
5.50048e-06	0	0	-nan
5.52917e-06	0	0	-nan
5.55497e-06	0	0	-nan
5.59056e-06	0	0	-nan
5.60625e-06	0	0	-nan
5.62534e-06	0	0	-nan
5.66066e-06	0	0	-nan
5.74673e-06	0	0	-nan
5.75271e-06	0	0	-nan
5.76328e-06	0	0	-nan
5.77493e-06	0	0	-nan
5.81414e-06	0	0	-nan
5.87316e-06	0	0	-nan
5.90806e-06	0	0	-nan
5.9438e-06	0	0	-nan
5.95244e-06	0	0	-nan
5.98347e-06	0	0	-nan
6.00284e-06	0	0	-nan
6.01036e-06	0	0	-nan
6.0227e-06	0	0	-nan
6.03181e-06	0	0	-nan
6.03797e-06	0	0	-nan
6.04462e-06	0	0	-nan
6.05996e-06	0	0	-nan
6.10575e-06	0	0	-nan
6.10813e-06	0	0	-nan
6.16563e-06	0	0	-nan
6.19767e-06	0	0	-nan
6.21695e-06	0	0	-nan
6.25332e-06	0	0	-nan
6.26426e-06	0	0	-nan
6.27863e-06	0	0	-nan
6.29297e-06	0	0	-nan
6.29693e-06	0	0	-nan
6.32496e-06	0	0	-nan
6.39166e-06	0	0	-nan
6.42676e-06	0	0	-nan
6.42731e-06	0	0	-nan
6.43144e-06	0	0	-nan
6.45696e-06	0	0	-nan
6.53123e-06	0	0	-nan
6.55876e-06	0	0	-nan
6.57096e-06	0	0	-nan
6.59755e-06	0	0	-nan
6.60936e-06	0	0	-nan
6.64879e-06	0	0	-nan
6.65739e-06	0	0	-nan
6.71983e-06	0	0	-nan
6.75099e-06	0	0	-nan
6.79555e-06	0	0	-nan
6.81778e-06	0	0	-nan
6.89123e-06	0	0	-nan
6.9265e-06	0	0	-nan
6.94699e-06	0	0	-nan
6.97843e-06	0	0	-nan
6.98285e-06	0	0	-nan
7.03752e-06	0	0	-nan
7.04856e-06	0	0	-nan
7.05673e-06	0	0	-nan
7.08438e-06	0	0	-nan
7.08532e-06	0	0	-nan
7.0878e-06	0	0	-nan
7.21179e-06	0	0	-nan
7.2162e-06	0	0	-nan
7.22902e-06	0	0	-nan
7.23469e-06	0	0	-nan
7.31457e-06	0	0	-nan
7.32388e-06	0	0	-nan
7.32442e-06	0	0	-nan
7.33056e-06	0	0	-nan
7.33567e-06	0	0	-nan
7.36666e-06	0	0	-nan
7.3797e-06	0	0	-nan
7.3913e-06	0	0	-nan
7.41437e-06	0	0	-nan
7.42657e-06	0	0	-nan
7.44904e-06	0	0	-nan
7.46343e-06	0	0	-nan
7.46433e-06	0	0	-nan
7.49581e-06	0	0	-nan
7.49694e-06	0	0	-nan
7.50312e-06	0	0	-nan
7.51799e-06	0	0	-nan
7.59142e-06	0	0	-nan
7.59893e-06	0	0	-nan
7.61756e-06	0	0	-nan
7.66908e-06	0	0	-nan
7.67172e-06	0	0	-nan
7.67999e-06	0	0	-nan
7.68691e-06	0	0	-nan
7.7229e-06	0	0	-nan
7.75266e-06	0	0	-nan
7.75488e-06	0	0	-nan
7.79264e-06	0	0	-nan
7.79826e-06	0	0	-nan
7.80088e-06	0	0	-nan
7.80137e-06	0	0	-nan
7.87084e-06	0	0	-nan
7.8871e-06	0	0	-nan
7.91575e-06	0	0	-nan
7.92453e-06	0	0	-nan
7.94116e-06	0	0	-nan
7.97069e-06	0	0	-nan
7.99904e-06	0	0	-nan
8.01781e-06	0	0	-nan
8.05482e-06	0	0	-nan
8.07616e-06	0	0	-nan
8.13914e-06	0	0	-nan
8.23119e-06	0	0	-nan
8.26161e-06	0	0	-nan
8.30591e-06	0	0	-nan
8.41287e-06	0	0	-nan
8.44529e-06	0	0	-nan
8.47265e-06	0	0	-nan
8.47524e-06	0	0	-nan
8.48149e-06	0	0	-nan
8.48343e-06	0	0	-nan
8.49294e-06	0	0	-nan
8.59613e-06	0	0	-nan
8.60059e-06	0	0	-nan
8.61925e-06	0	0	-nan
8.62191e-06	0	0	-nan
8.66276e-06	0	0	-nan
8.66723e-06	0	0	-nan
8.6681e-06	0	0	-nan
8.66959e-06	0	0	-nan
8.72425e-06	0	0	-nan
8.77973e-06	0	0	-nan
8.78864e-06	0	0	-nan
8.7924e-06	0	0	-nan
8.79703e-06	0	0	-nan
8.83577e-06	0	0	-nan
8.84874e-06	0	0	-nan
8.99782e-06	0	0	-nan
9.0168e-06	0	0	-nan
9.02923e-06	0	0	-nan
9.03214e-06	0	0	-nan
9.06245e-06	0	0	-nan
9.07085e-06	0	0	-nan
9.0755e-06	0	0	-nan
9.08575e-06	0	0	-nan
9.10051e-06	0	0	-nan
9.13786e-06	0	0	-nan
9.16559e-06	0	0	-nan
9.19133e-06	0	0	-nan
9.21987e-06	0	0	-nan
9.23284e-06	0	0	-nan
9.23961e-06	0	0	-nan
9.24066e-06	0	0	-nan
9.30694e-06	0	0	-nan
9.30818e-06	0	0	-nan
9.34303e-06	0	0	-nan
9.39397e-06	0	0	-nan
9.39711e-06	0	0	-nan
9.40644e-06	0	0	-nan
9.41195e-06	0	0	-nan
9.42753e-06	0	0	-nan
9.42936e-06	0	0	-nan
9.54497e-06	0	0	-nan
9.54624e-06	0	0	-nan
9.54859e-06	0	0	-nan
9.55557e-06	0	0	-nan
9.59289e-06	0	0	-nan
9.66262e-06	0	0	-nan
9.71003e-06	0	0	-nan
9.76851e-06	0	0	-nan
9.77791e-06	0	0	-nan
9.88938e-06	0	0	-nan
9.96911e-06	0	0	-nan
1.00186e-05	0	0	-nan
1.01165e-05	0	0	-nan
1.0123e-05	0	0	-nan
1.01396e-05	0	0	-nan
1.01811e-05	0	0	-nan
1.01981e-05	0	0	-nan
1.02281e-05	0	0	-nan
1.02362e-05	0	0	-nan
1.02908e-05	0	0	-nan
1.0298e-05	0	0	-nan
1.0311e-05	0	0	-nan
1.03254e-05	0	0	-nan
1.0328e-05	0	0	-nan
1.03813e-05	0	0	-nan
1.03828e-05	0	0	-nan
1.04917e-05	0	0	-nan
1.05157e-05	0	0	-nan
1.05913e-05	0	0	-nan
1.05983e-05	0	0	-nan
1.06355e-05	0	0	-nan
1.06494e-05	0	0	-nan
1.06684e-05	0	0	-nan
1.06727e-05	0	0	-nan
1.068e-05	0	0	-nan
1.09558e-05	0	0	-nan
1.10276e-05	0	0	-nan
1.10854e-05	0	0	-nan
1.11051e-05	0	0	-nan
1.11063e-05	0	0	-nan
1.11228e-05	0	0	-nan
1.11235e-05	0	0	-nan
1.11313e-05	0	0	-nan
1.11541e-05	0	0	-nan
1.11954e-05	0	0	-nan
1.12443e-05	0	0	-nan
1.12975e-05	0	0	-nan
1.12979e-05	0	0	-nan
1.13436e-05	0	0	-nan
1.13844e-05	0	0	-nan
1.14206e-05	0	0	-nan
1.14517e-05	0	0	-nan
1.15444e-05	0	0	-nan
1.15719e-05	0	0	-nan
1.15791e-05	0	0	-nan
1.18413e-05	0	0	-nan
1.18584e-05	0	0	-nan
1.189e-05	0	0	-nan
1.19868e-05	0	0	-nan
1.20298e-05	0	0	-nan
1.21152e-05	0	0	-nan
1.21214e-05	0	0	-nan
1.21536e-05	0	0	-nan
1.21667e-05	0	0	-nan
1.21721e-05	0	0	-nan
1.21738e-05	0	0	-nan
1.21859e-05	0	0	-nan
1.21965e-05	0	0	-nan
1.22559e-05	0	0	-nan
1.22679e-05	0	0	-nan
1.22742e-05	0	0	-nan
1.23021e-05	0	0	-nan
1.23859e-05	0	0	-nan
1.24151e-05	0	0	-nan
1.24152e-05	0	0	-nan
1.24229e-05	0	0	-nan
1.24271e-05	0	0	-nan
1.24653e-05	0	0	-nan
1.25222e-05	0	0	-nan
1.25445e-05	0	0	-nan
1.25964e-05	0	0	-nan
1.26058e-05	0	0	-nan
1.26121e-05	0	0	-nan
1.26237e-05	0	0	-nan
1.26282e-05	0	0	-nan
1.272e-05	0	0	-nan
1.27468e-05	0	0	-nan
1.27703e-05	0	0	-nan
1.28048e-05	0	0	-nan
1.28079e-05	0	0	-nan
1.28396e-05	0	0	-nan
1.29066e-05	0	0	-nan
1.2942e-05	0	0	-nan
1.306e-05	0	0	-nan
1.30958e-05	0	0	-nan
1.31029e-05	0	0	-nan
1.31193e-05	0	0	-nan
1.31291e-05	0	0	-nan
1.31805e-05	0	0	-nan
1.31916e-05	0	0	-nan
1.31937e-05	0	0	-nan
1.31985e-05	0	0	-nan
1.31986e-05	0	0	-nan
1.32092e-05	0	0	-nan
1.32801e-05	0	0	-nan
1.32833e-05	0	0	-nan
1.33041e-05	0	0	-nan
1.33092e-05	0	0	-nan
1.33201e-05	0	0	-nan
1.33262e-05	0	0	-nan
1.3332e-05	0	0	-nan
1.33469e-05	0	0	-nan
1.335e-05	0	0	-nan
1.34223e-05	0	0	-nan
1.34493e-05	0	0	-nan
1.35512e-05	0	0	-nan
1.35872e-05	0	0	-nan
1.36688e-05	0	0	-nan
1.36996e-05	0	0	-nan
1.3716e-05	0	0	-nan
1.38151e-05	0	0	-nan
1.39446e-05	0	0	-nan
1.39947e-05	0	0	-nan
1.4042e-05	0	0	-nan
1.41295e-05	0	0	-nan
1.41597e-05	0	0	-nan
1.42018e-05	0	0	-nan
1.42319e-05	0	0	-nan
1.42341e-05	0	0	-nan
1.42376e-05	0	0	-nan
1.42418e-05	0	0	-nan
1.42484e-05	0	0	-nan
1.42563e-05	0	0	-nan
1.42606e-05	0	0	-nan
1.43231e-05	0	0	-nan
1.44906e-05	0	0	-nan
1.45003e-05	0	0	-nan
1.457e-05	0	0	-nan
1.45722e-05	0	0	-nan
1.45743e-05	0	0	-nan
1.46316e-05	0	0	-nan
1.46361e-05	0	0	-nan
1.46504e-05	0	0	-nan
1.47283e-05	0	0	-nan
1.48063e-05	0	0	-nan
1.48165e-05	0	0	-nan
1.48206e-05	0	0	-nan
1.48805e-05	0	0	-nan
1.49162e-05	0	0	-nan
1.49489e-05	0	0	-nan
1.49758e-05	0	0	-nan
1.50407e-05	0	0	-nan
1.5077e-05	0	0	-nan
1.51294e-05	0	0	-nan
1.51401e-05	0	0	-nan
1.51414e-05	0	0	-nan
1.51511e-05	0	0	-nan
1.5156e-05	0	0	-nan
1.51636e-05	0	0	-nan
1.51818e-05	0	0	-nan
1.51908e-05	0	0	-nan
1.52952e-05	0	0	-nan
1.53371e-05	0	0	-nan
1.55177e-05	0	0	-nan
1.55297e-05	0	0	-nan
1.55365e-05	0	0	-nan
1.55415e-05	0	0	-nan
1.55718e-05	0	0	-nan
1.55973e-05	0	0	-nan
1.56258e-05	0	0	-nan
1.56533e-05	0	0	-nan
1.56718e-05	0	0	-nan
1.57036e-05	0	0	-nan
1.57336e-05	0	0	-nan
1.57515e-05	0	0	-nan
1.57933e-05	0	0	-nan
1.58305e-05	0	0	-nan
1.58478e-05	0	0	-nan
1.5864e-05	0	0	-nan
1.59733e-05	0	0	-nan
1.60075e-05	0	0	-nan
1.60077e-05	0	0	-nan
1.60593e-05	0	0	-nan
1.62581e-05	0	0	-nan
1.63009e-05	0	0	-nan
1.63342e-05	0	0	-nan
1.63973e-05	0	0	-nan
1.64555e-05	0	0	-nan
1.65016e-05	0	0	-nan
1.65974e-05	0	0	-nan
1.66488e-05	0	0	-nan
1.66573e-05	0	0	-nan
1.68261e-05	0	0	-nan
1.69867e-05	0	0	-nan
1.70001e-05	0	0	-nan
1.70539e-05	0	0	-nan
1.70884e-05	0	0	-nan
1.71203e-05	0	0	-nan
1.72282e-05	0	0	-nan
1.72505e-05	0	0	-nan
1.7317e-05	0	0	-nan
1.73608e-05	0	0	-nan
1.74074e-05	0	0	-nan
1.74868e-05	0	0	-nan
1.75421e-05	0	0	-nan
1.76126e-05	0	0	-nan
1.76731e-05	0	0	-nan
1.76781e-05	0	0	-nan
1.77632e-05	0	0	-nan
1.77975e-05	0	0	-nan
1.78115e-05	0	0	-nan
1.78201e-05	0	0	-nan
1.7835e-05	0	0	-nan
1.78498e-05	0	0	-nan
1.78708e-05	0	0	-nan
1.78805e-05	0	0	-nan
1.78819e-05	0	0	-nan
1.80128e-05	0	0	-nan
1.80381e-05	0	0	-nan
1.80981e-05	0	0	-nan
1.82385e-05	0	0	-nan
1.82395e-05	0	0	-nan
1.82532e-05	0	0	-nan
1.8347e-05	0	0	-nan
1.84392e-05	0	0	-nan
1.84727e-05	0	0	-nan
1.84958e-05	0	0	-nan
1.85498e-05	0	0	-nan
1.85582e-05	0	0	-nan
1.85661e-05	0	0	-nan
1.86679e-05	0	0	-nan
1.87894e-05	0	0	-nan
1.879e-05	0	0	-nan
1.87985e-05	0	0	-nan
1.89309e-05	0	0	-nan
1.89542e-05	0	0	-nan
1.89868e-05	0	0	-nan
1.89982e-05	0	0	-nan
1.90579e-05	0	0	-nan
1.91292e-05	0	0	-nan
1.9145e-05	0	0	-nan
1.91651e-05	0	0	-nan
1.92286e-05	0	0	-nan
1.93098e-05	0	0	-nan
1.9338e-05	0	0	-nan
1.9345e-05	0	0	-nan
1.93905e-05	0	0	-nan
1.9392e-05	0	0	-nan
1.94148e-05	0	0	-nan
1.94542e-05	0	0	-nan
1.9486e-05	0	0	-nan
1.95181e-05	0	0	-nan
1.95231e-05	0	0	-nan
1.95604e-05	0	0	-nan
1.96062e-05	0	0	-nan
1.96561e-05	0	0	-nan
1.97156e-05	0	0	-nan
1.984e-05	0	0	-nan
1.98798e-05	0	0	-nan
1.99949e-05	0	0	-nan
2.01928e-05	0	0	-nan
2.02057e-05	0	0	-nan
2.02575e-05	0	0	-nan
2.02896e-05	0	0	-nan
2.03109e-05	0	0	-nan
2.03169e-05	0	0	-nan
2.03755e-05	0	0	-nan
2.04164e-05	0	0	-nan
2.04579e-05	0	0	-nan
2.04649e-05	0	0	-nan
2.05885e-05	0	0	-nan
2.0653e-05	0	0	-nan
2.07327e-05	0	0	-nan
2.08105e-05	0	0	-nan
2.09283e-05	0	0	-nan
2.10014e-05	0	0	-nan
2.10068e-05	0	0	-nan
2.11235e-05	0	0	-nan
2.11274e-05	0	0	-nan
2.1227e-05	0	0	-nan
2.1302e-05	0	0	-nan
2.13096e-05	0	0	-nan
2.13586e-05	0	0	-nan
2.1365e-05	0	0	-nan
2.13962e-05	0	0	-nan
2.14265e-05	0	0	-nan
2.14334e-05	0	0	-nan
2.14346e-05	0	0	-nan
2.14723e-05	0	0	-nan
2.15122e-05	0	0	-nan
2.15446e-05	0	0	-nan
2.16392e-05	0	0	-nan
2.16704e-05	0	0	-nan
2.17003e-05	0	0	-nan
2.17816e-05	0	0	-nan
2.18387e-05	0	0	-nan
2.19588e-05	0	0	-nan
2.20462e-05	0	0	-nan
2.20587e-05	0	0	-nan
2.21323e-05	0	0	-nan
2.216e-05	0	0	-nan
2.21628e-05	0	0	-nan
2.21729e-05	0	0	-nan
2.21753e-05	0	0	-nan
2.21917e-05	0	0	-nan
2.23468e-05	0	0	-nan
2.24027e-05	0	0	-nan
2.24146e-05	0	0	-nan
2.24195e-05	0	0	-nan
2.24728e-05	0	0	-nan
2.25809e-05	0	0	-nan
2.26875e-05	0	0	-nan
2.27066e-05	0	0	-nan
2.27455e-05	0	0	-nan
2.28315e-05	0	0	-nan
2.29782e-05	0	0	-nan
2.30902e-05	0	0	-nan
2.31251e-05	0	0	-nan
2.31504e-05	0	0	-nan
2.32572e-05	0	0	-nan
2.32781e-05	0	0	-nan
2.33369e-05	0	0	-nan
2.33725e-05	0	0	-nan
2.3378e-05	0	0	-nan
2.33975e-05	0	0	-nan
2.34284e-05	0	0	-nan
2.36431e-05	0	0	-nan
2.36709e-05	0	0	-nan
2.37069e-05	0	0	-nan
2.37156e-05	0	0	-nan
2.37886e-05	0	0	-nan
2.38339e-05	0	0	-nan
2.38425e-05	0	0	-nan
2.38947e-05	0	0	-nan
2.38954e-05	0	0	-nan
2.41706e-05	0	0	-nan
2.42952e-05	0	0	-nan
2.43425e-05	0	0	-nan
2.43507e-05	0	0	-nan
2.44947e-05	0	0	-nan
2.45392e-05	0	0	-nan
2.45461e-05	0	0	-nan
2.45824e-05	0	0	-nan
2.45979e-05	0	0	-nan
2.46091e-05	0	0	-nan
2.47321e-05	0	0	-nan
2.4762e-05	0	0	-nan
2.47798e-05	0	0	-nan
2.48527e-05	0	0	-nan
2.487e-05	0	0	-nan
2.50392e-05	0	0	-nan
2.50651e-05	0	0	-nan
2.5223e-05	0	0	-nan
2.54273e-05	0	0	-nan
2.54389e-05	0	0	-nan
2.54425e-05	0	0	-nan
2.55278e-05	0	0	-nan
2.55644e-05	0	0	-nan
2.55691e-05	0	0	-nan
2.56752e-05	0	0	-nan
2.57014e-05	0	0	-nan
2.58933e-05	0	0	-nan
2.60111e-05	0	0	-nan
2.60383e-05	0	0	-nan
2.60545e-05	0	0	-nan
2.6099e-05	0	0	-nan
2.62624e-05	0	0	-nan
2.63355e-05	0	0	-nan
2.63598e-05	0	0	-nan
2.64514e-05	0	0	-nan
2.65773e-05	0	0	-nan
2.66716e-05	0	0	-nan
2.6714e-05	0	0	-nan
2.69397e-05	0	0	-nan
2.69417e-05	0	0	-nan
2.70229e-05	0	0	-nan
2.72394e-05	0	0	-nan
2.73051e-05	0	0	-nan
2.73994e-05	0	0	-nan
2.74104e-05	0	0	-nan
2.78254e-05	0	0	-nan
2.78277e-05	0	0	-nan
2.79261e-05	0	0	-nan
2.80834e-05	0	0	-nan
2.83696e-05	0	0	-nan
2.84219e-05	0	0	-nan
2.84257e-05	0	0	-nan
2.85408e-05	0	0	-nan
2.87255e-05	0	0	-nan
2.87372e-05	0	0	-nan
2.88016e-05	0	0	-nan
2.88472e-05	0	0	-nan
2.89095e-05	0	0	-nan
2.89887e-05	0	0	-nan
2.90609e-05	0	0	-nan
2.90908e-05	0	0	-nan
2.90985e-05	0	0	-nan
2.92279e-05	0	0	-nan
2.94467e-05	0	0	-nan
2.94531e-05	0	0	-nan
2.95196e-05	0	0	-nan
2.95816e-05	0	0	-nan
2.9666e-05	0	0	-nan
2.98163e-05	0	0	-nan
3.00265e-05	0	0	-nan
3.02805e-05	0	0	-nan
3.03297e-05	0	0	-nan
3.04097e-05	0	0	-nan
3.0514e-05	0	0	-nan
3.07279e-05	0	0	-nan
3.09017e-05	0	0	-nan
3.09058e-05	0	0	-nan
3.09182e-05	0	0	-nan
3.09279e-05	0	0	-nan
3.12876e-05	0	0	-nan
3.16117e-05	0	0	-nan
3.18027e-05	0	0	-nan
3.18511e-05	0	0	-nan
3.21846e-05	0	0	-nan
3.23416e-05	0	0	-nan
3.26812e-05	0	0	-nan
3.27495e-05	0	0	-nan
3.31062e-05	0	0	-nan
3.32844e-05	0	0	-nan
3.33404e-05	0	0	-nan
3.34029e-05	0	0	-nan
3.39475e-05	0	0	-nan
3.4087e-05	0	0	-nan
3.42706e-05	0	0	-nan
3.43272e-05	0	0	-nan
3.43849e-05	0	0	-nan
3.43901e-05	0	0	-nan
3.4396e-05	0	0	-nan
3.44653e-05	0	0	-nan
3.45821e-05	0	0	-nan
3.46166e-05	0	0	-nan
3.48054e-05	0	0	-nan
3.49332e-05	0	0	-nan
3.50441e-05	0	0	-nan
3.50472e-05	0	0	-nan
3.51278e-05	0	0	-nan
3.51702e-05	0	0	-nan
3.52007e-05	0	0	-nan
3.52258e-05	0	0	-nan
3.5346e-05	0	0	-nan
3.54423e-05	0	0	-nan
3.5685e-05	0	0	-nan
3.5915e-05	0	0	-nan
3.59739e-05	0	0	-nan
3.60169e-05	0	0	-nan
3.60404e-05	0	0	-nan
3.61308e-05	0	0	-nan
3.63114e-05	0	0	-nan
3.63319e-05	0	0	-nan
3.64256e-05	0	0	-nan
3.65446e-05	0	0	-nan
3.66486e-05	0	0	-nan
3.66714e-05	0	0	-nan
3.67501e-05	0	0	-nan
3.68341e-05	0	0	-nan
3.68598e-05	0	0	-nan
3.68965e-05	0	0	-nan
3.69062e-05	0	0	-nan
3.7023e-05	0	0	-nan
3.71918e-05	0	0	-nan
3.72133e-05	0	0	-nan
3.72137e-05	0	0	-nan
3.73503e-05	0	0	-nan
3.75937e-05	0	0	-nan
3.76877e-05	0	0	-nan
3.79553e-05	0	0	-nan
3.8386e-05	0	0	-nan
3.84964e-05	0	0	-nan
3.85113e-05	0	0	-nan
3.85551e-05	0	0	-nan
3.86846e-05	0	0	-nan
3.8959e-05	0	0	-nan
3.90912e-05	0	0	-nan
3.91422e-05	0	0	-nan
3.91776e-05	0	0	-nan
3.92087e-05	0	0	-nan
3.93364e-05	0	0	-nan
3.93421e-05	0	0	-nan
3.94187e-05	0	0	-nan
3.94231e-05	0	0	-nan
3.96298e-05	0	0	-nan
3.97973e-05	0	0	-nan
4.00827e-05	0	0	-nan
4.02012e-05	0	0	-nan
4.02308e-05	0	0	-nan
4.0476e-05	0	0	-nan
4.06386e-05	0	0	-nan
4.07911e-05	0	0	-nan
4.12271e-05	0	0	-nan
4.12396e-05	0	0	-nan
4.13282e-05	0	0	-nan
4.14269e-05	0	0	-nan
4.14522e-05	0	0	-nan
4.14789e-05	0	0	-nan
4.16769e-05	0	0	-nan
4.1843e-05	0	0	-nan
4.1944e-05	0	0	-nan
4.19763e-05	0	0	-nan
4.20609e-05	0	0	-nan
4.21468e-05	0	0	-nan
4.22565e-05	0	0	-nan
4.25011e-05	0	0	-nan
4.28824e-05	0	0	-nan
4.29483e-05	0	0	-nan
4.29604e-05	0	0	-nan
4.30781e-05	0	0	-nan
4.31435e-05	0	0	-nan
4.3158e-05	0	0	-nan
4.31942e-05	0	0	-nan
4.35361e-05	0	0	-nan
4.3555e-05	0	0	-nan
4.36068e-05	0	0	-nan
4.36628e-05	0	0	-nan
4.38004e-05	0	0	-nan
4.38391e-05	0	0	-nan
4.45775e-05	0	0	-nan
4.46979e-05	0	0	-nan
4.4796e-05	0	0	-nan
4.48302e-05	0	0	-nan
4.49293e-05	0	0	-nan
4.51489e-05	0	0	-nan
4.52182e-05	0	0	-nan
4.52236e-05	0	0	-nan
4.54343e-05	0	0	-nan
4.55645e-05	0	0	-nan
4.55995e-05	0	0	-nan
4.60091e-05	0	0	-nan
4.60877e-05	0	0	-nan
4.61195e-05	0	0	-nan
4.61726e-05	0	0	-nan
4.63703e-05	0	0	-nan
4.63788e-05	0	0	-nan
4.66709e-05	0	0	-nan
4.67501e-05	0	0	-nan
4.69094e-05	0	0	-nan
4.71016e-05	0	0	-nan
4.71658e-05	0	0	-nan
4.72932e-05	0	0	-nan
4.73378e-05	0	0	-nan
4.75489e-05	0	0	-nan
4.77805e-05	0	0	-nan
4.78668e-05	0	0	-nan
4.81065e-05	0	0	-nan
4.81835e-05	0	0	-nan
4.83922e-05	0	0	-nan
4.85535e-05	0	0	-nan
4.85996e-05	0	0	-nan
4.87607e-05	0	0	-nan
4.88172e-05	0	0	-nan
4.8995e-05	0	0	-nan
4.90542e-05	0	0	-nan
4.92078e-05	0	0	-nan
4.93871e-05	0	0	-nan
4.96914e-05	0	0	-nan
5.00552e-05	0	0	-nan
5.04787e-05	0	0	-nan
5.06989e-05	0	0	-nan
5.07333e-05	0	0	-nan
5.07844e-05	0	0	-nan
5.0867e-05	0	0	-nan
5.10301e-05	0	0	-nan
5.1045e-05	0	0	-nan
5.10947e-05	0	0	-nan
5.11435e-05	0	0	-nan
5.12839e-05	0	0	-nan
5.13703e-05	0	0	-nan
5.14314e-05	0	0	-nan
5.15839e-05	0	0	-nan
5.21e-05	0	0	-nan
5.25243e-05	0	0	-nan
5.25773e-05	0	0	-nan
5.26982e-05	0	0	-nan
5.27889e-05	0	0	-nan
5.28242e-05	0	0	-nan
5.28948e-05	0	0	-nan
5.29998e-05	0	0	-nan
5.323e-05	0	0	-nan
5.334e-05	0	0	-nan
5.33558e-05	0	0	-nan
5.35845e-05	0	0	-nan
5.35904e-05	0	0	-nan
5.37526e-05	0	0	-nan
5.40065e-05	0	0	-nan
5.40885e-05	0	0	-nan
5.41206e-05	0	0	-nan
5.48089e-05	0	0	-nan
5.48164e-05	0	0	-nan
5.48597e-05	0	0	-nan
5.52583e-05	0	0	-nan
5.52706e-05	0	0	-nan
5.53162e-05	0	0	-nan
5.5318e-05	0	0	-nan
5.53917e-05	0	0	-nan
5.54717e-05	0	0	-nan
5.56039e-05	0	0	-nan
5.56174e-05	0	0	-nan
5.56274e-05	0	0	-nan
5.58191e-05	0	0	-nan
5.60148e-05	0	0	-nan
5.61383e-05	0	0	-nan
5.63268e-05	0	0	-nan
5.65273e-05	0	0	-nan
5.66437e-05	0	0	-nan
5.67922e-05	0	0	-nan
5.72877e-05	0	0	-nan
5.82695e-05	0	0	-nan
5.83515e-05	0	0	-nan
5.85037e-05	0	0	-nan
5.90787e-05	0	0	-nan
5.93763e-05	0	0	-nan
5.9497e-05	0	0	-nan
5.95338e-05	0	0	-nan
5.96556e-05	0	0	-nan
5.97177e-05	0	0	-nan
6.016e-05	0	0	-nan
6.05643e-05	0	0	-nan
6.08025e-05	0	0	-nan
6.09105e-05	0	0	-nan
6.10342e-05	0	0	-nan
6.11096e-05	0	0	-nan
6.13597e-05	0	0	-nan
6.14528e-05	0	0	-nan
6.17287e-05	0	0	-nan
6.17653e-05	0	0	-nan
6.26332e-05	0	0	-nan
6.2727e-05	0	0	-nan
6.28386e-05	0	0	-nan
6.31975e-05	0	0	-nan
6.32752e-05	0	0	-nan
6.33172e-05	0	0	-nan
6.33896e-05	0	0	-nan
6.40561e-05	0	0	-nan
6.40687e-05	0	0	-nan
6.47713e-05	0	0	-nan
6.49752e-05	0	0	-nan
6.49896e-05	0	0	-nan
6.52026e-05	0	0	-nan
6.52279e-05	0	0	-nan
6.53479e-05	0	0	-nan
6.54453e-05	0	0	-nan
6.5456e-05	0	0	-nan
6.56e-05	0	0	-nan
6.59713e-05	0	0	-nan
6.61716e-05	0	0	-nan
6.63172e-05	0	0	-nan
6.64462e-05	0	0	-nan
6.65796e-05	0	0	-nan
6.67008e-05	0	0	-nan
6.68499e-05	0	0	-nan
6.72217e-05	0	0	-nan
6.76702e-05	0	0	-nan
6.78951e-05	0	0	-nan
6.83298e-05	0	0	-nan
6.84667e-05	0	0	-nan
6.85608e-05	0	0	-nan
6.87654e-05	0	0	-nan
6.8872e-05	0	0	-nan
6.97315e-05	0	0	-nan
7.03119e-05	0	0	-nan
7.03433e-05	0	0	-nan
7.04095e-05	0	0	-nan
7.10725e-05	0	0	-nan
7.14771e-05	0	0	-nan
7.14839e-05	0	0	-nan
7.20319e-05	0	0	-nan
7.20687e-05	0	0	-nan
7.24556e-05	0	0	-nan
7.32123e-05	0	0	-nan
7.41888e-05	0	0	-nan
7.46511e-05	0	0	-nan
7.47765e-05	0	0	-nan
7.48012e-05	0	0	-nan
7.4833e-05	0	0	-nan
7.49143e-05	0	0	-nan
7.53565e-05	0	0	-nan
7.55271e-05	0	0	-nan
7.56731e-05	0	0	-nan
7.68988e-05	0	0	-nan
7.78968e-05	0	0	-nan
7.7973e-05	0	0	-nan
7.80144e-05	0	0	-nan
7.8232e-05	0	0	-nan
7.84367e-05	0	0	-nan
7.91314e-05	0	0	-nan
7.93328e-05	0	0	-nan
7.94547e-05	0	0	-nan
7.97591e-05	0	0	-nan
8.01497e-05	0	0	-nan
8.03307e-05	0	0	-nan
8.09547e-05	0	0	-nan
8.11025e-05	0	0	-nan
8.11195e-05	0	0	-nan
8.14184e-05	0	0	-nan
8.17932e-05	0	0	-nan
8.22144e-05	0	0	-nan
8.27407e-05	0	0	-nan
8.33896e-05	0	0	-nan
8.37848e-05	0	0	-nan
8.3875e-05	0	0	-nan
8.4181e-05	0	0	-nan
8.42101e-05	0	0	-nan
8.45562e-05	0	0	-nan
8.50187e-05	0	0	-nan
8.5623e-05	0	0	-nan
8.71907e-05	0	0	-nan
8.858e-05	0	0	-nan
8.89771e-05	0	0	-nan
8.91005e-05	0	0	-nan
8.92246e-05	0	0	-nan
8.93815e-05	0	0	-nan
9.01201e-05	0	0	-nan
9.01464e-05	0	0	-nan
9.08888e-05	0	0	-nan
9.09962e-05	0	0	-nan
9.17118e-05	0	0	-nan
9.2337e-05	0	0	-nan
9.27301e-05	0	0	-nan
9.30827e-05	0	0	-nan
9.31575e-05	0	0	-nan
9.36196e-05	0	0	-nan
9.45864e-05	0	0	-nan
9.54107e-05	0	0	-nan
9.5816e-05	0	0	-nan
9.58667e-05	0	0	-nan
9.67142e-05	0	0	-nan
9.69004e-05	0	0	-nan
9.69844e-05	0	0	-nan
9.7263e-05	0	0	-nan
9.74546e-05	0	0	-nan
9.754e-05	0	0	-nan
9.80549e-05	0	0	-nan
9.84431e-05	0	0	-nan
9.94108e-05	0	0	-nan
9.9472e-05	0	0	-nan
9.96217e-05	0	0	-nan
9.9677e-05	0	0	-nan
0.000100286	0	0	-nan
0.000101045	0	0	-nan
0.000101802	0	0	-nan
0.000102068	0	0	-nan
0.000102265	0	0	-nan
0.000103423	0	0	-nan
0.000103592	0	0	-nan
0.000104623	0	0	-nan
0.000104789	0	0	-nan
0.000104946	0	0	-nan
0.000104949	0	0	-nan
0.000106255	0	0	-nan
0.00010682	0	0	-nan
0.000107002	0	0	-nan
0.000107065	0	0	-nan
0.000108798	0	0	-nan
0.000108951	0	0	-nan
0.00010937	0	0	-nan
0.000109391	0	0	-nan
0.00011099	0	0	-nan
0.00011193	0	0	-nan
0.00011282	0	0	-nan
0.00011298	0	0	-nan
0.000113399	0	0	-nan
0.000113635	0	0	-nan
0.000114104	0	0	-nan
0.000114942	0	0	-nan
0.000115399	0	0	-nan
0.000115542	0	0	-nan
0.000115955	0	0	-nan
0.000116135	0	0	-nan
0.000116334	0	0	-nan
0.000117486	0	0	-nan
0.000117895	0	0	-nan
0.000117979	0	0	-nan
0.000118029	0	0	-nan
0.000118367	0	0	-nan
0.000119643	0	0	-nan
0.000119737	0	0	-nan
0.000120237	0	0	-nan
0.000121786	0	0	-nan
0.000122466	0	0	-nan
0.000124115	0	0	-nan
0.000124941	0	0	-nan
0.000125132	0	0	-nan
0.000126641	0	0	-nan
0.000129033	0	0	-nan
0.000129685	0	0	-nan
0.000131138	0	0	-nan
0.000131736	0	0	-nan
0.000133464	0	0	-nan
0.000136016	0	0	-nan
0.000136173	0	0	-nan
0.000136184	0	0	-nan
0.000137836	0	0	-nan
0.000139291	0	0	-nan
0.000140641	0	0	-nan
0.000141616	0	0	-nan
0.000144096	0	0	-nan
0.000144568	0	0	-nan
0.000145185	0	0	-nan
0.000145298	0	0	-nan
0.000146344	0	0	-nan
0.000148712	0	0	-nan
0.000149087	0	0	-nan
0.000157131	0	0	-nan
0.000162253	0	0	-nan
0.00016631	0	0	-nan
0.000168386	0	0	-nan
0.000173975	0	0	-nan
0.000178911	0	0	-nan
0.000181665	0	0	-nan
0.000182436	0	0	-nan
0.000182761	0	0	-nan
0.000183647	0	0	-nan
0.000184752	0	0	-nan
0.000184778	0	0	-nan
0.000185322	0	0	-nan
0.00018734	0	0	-nan
0.000188274	0	0	-nan
0.000191208	0	0	-nan
0.000192338	0	0	-nan
0.000193899	0	0	-nan
0.000195484	0	0	-nan
0.000196937	0	0	-nan
0.000201603	0	0	-nan
0.000202161	0	0	-nan
0.000205206	0	0	-nan
0.000207462	0	0	-nan
0.000219173	0	0	-nan
0.000224026	0	0	-nan
0.000229726	0	0	-nan
0.000230033	0	0	-nan
0.000230162	0	0	-nan
0.00023053	0	0	-nan
0.000243478	0	0	-nan
0.000251271	0	0	-nan
0.000259838	0	0	-nan
0.000261791	0	0	-nan
0.000263378	0	0	-nan
0.000268573	0	0	-nan
0.000269949	0	0	-nan
0.000273014	0	0	-nan
0.000276782	0	0	-nan
0.000277271	0	0	-nan
0.000287179	0	0	-nan
0.000314636	0	0	-nan
0.000325404	0	0	-nan
0.000326181	0	0	-nan
0.000331126	0	0	-nan
0.000338494	0	0	-nan
0.000339238	0	0	-nan
0.000363062	0	0	-nan
0.000437193	0	0	-nan
0.000440781	0	0	-nan
0.000445285	0	0	-nan
0.000446769	0	0	-nan
0.000449623	0	0	-nan
0.000472703	0	0	-nan
0.000482863	0	0	-nan
0.000508518	0	0	-nan
0.000531892	0	0	-nan
0.000541565	0	0	-nan
0.000556827	0	0	-nan
0.00058317	0	0	-nan
0.000607722	0	0	-nan
0.00061466	0	0	-nan
0.000619653	0	0	-nan
0.000635914	0	0	-nan
0.000658466	0	0	-nan
0.000683568	0	0	-nan
0.000733849	0	0	-nan
0.000769547	0	0	-nan
0.000771961	0	0	-nan
0.000777426	0	0	-nan
0.000797258	0	0	-nan
0.000828639	0	0	-nan
0.000858875	0	0	-nan
0.000866418	0	0	-nan
0.0010055	0	0	-nan
0.00100581	0	0	-nan
0.00101916	0	0	-nan
0.00105537	0	0	-nan
0.00111531	0	0	-nan
0.00121857	0	0	-nan
0.00122096	0	0	-nan
0.0012533	0	0	-nan
0.00127559	0	0	-nan
0.00128605	0	0	-nan
0.00137764	0	0	-nan
0.00146979	0	0	-nan
0.0016028	0	0	-nan
0.0016062	0	0	-nan
0.00173901	0	0	-nan
0.00201236	0	0	-nan
0.00218215	0	0	-nan
0.00235472	0	0	-nan
0.00362669	0	0	-nan
0.00576776	0	0	-nan
0.00599741	0	0	-nan
