4.73434e-08	0	0	-nan
5.85763e-08	0	0	-nan
6.50182e-08	0	0	-nan
6.67072e-08	0	0	-nan
6.68319e-08	0	0	-nan
7.68424e-08	0	0	-nan
8.51622e-08	0	0	-nan
8.84281e-08	0	0	-nan
1.11019e-07	0	0	-nan
1.12632e-07	0	0	-nan
1.19071e-07	0	0	-nan
1.29397e-07	0	0	-nan
1.43487e-07	0	0	-nan
1.49611e-07	0	0	-nan
1.55409e-07	0	0	-nan
1.69065e-07	0	0	-nan
1.74355e-07	0	0	-nan
1.75157e-07	0	0	-nan
1.81128e-07	0	0	-nan
1.89941e-07	0	0	-nan
2.01564e-07	0	0	-nan
2.18554e-07	0	0	-nan
2.19037e-07	0	0	-nan
2.53436e-07	0	0	-nan
2.53742e-07	0	0	-nan
2.60861e-07	0	0	-nan
2.60953e-07	0	0	-nan
2.6541e-07	0	0	-nan
2.87048e-07	0	0	-nan
2.94609e-07	0	0	-nan
3.03665e-07	0	0	-nan
3.06793e-07	0	0	-nan
3.14205e-07	0	0	-nan
3.24937e-07	0	0	-nan
3.30154e-07	0	0	-nan
3.32832e-07	0	0	-nan
3.52285e-07	0	0	-nan
3.62115e-07	0	0	-nan
4.04665e-07	0	0	-nan
4.23415e-07	0	0	-nan
4.51181e-07	0	0	-nan
4.52503e-07	0	0	-nan
4.82021e-07	0	0	-nan
4.89149e-07	0	0	-nan
4.91531e-07	0	0	-nan
4.9314e-07	0	0	-nan
4.94998e-07	0	0	-nan
5.00557e-07	0	0	-nan
5.00763e-07	0	0	-nan
5.0324e-07	0	0	-nan
5.16282e-07	0	0	-nan
5.49607e-07	0	0	-nan
5.53495e-07	0	0	-nan
5.59698e-07	0	0	-nan
5.88445e-07	0	0	-nan
6.12016e-07	0	0	-nan
6.18659e-07	0	0	-nan
6.27075e-07	0	0	-nan
6.38469e-07	0	0	-nan
6.66028e-07	0	0	-nan
6.72199e-07	0	0	-nan
6.75364e-07	0	0	-nan
6.78365e-07	0	0	-nan
6.84708e-07	0	0	-nan
7.2487e-07	0	0	-nan
7.29966e-07	0	0	-nan
7.65626e-07	0	0	-nan
7.99381e-07	0	0	-nan
8.52978e-07	0	0	-nan
8.63672e-07	0	0	-nan
9.16921e-07	0	0	-nan
9.3055e-07	0	0	-nan
9.39374e-07	0	0	-nan
9.65054e-07	0	0	-nan
9.6796e-07	0	0	-nan
9.91233e-07	0	0	-nan
1.00101e-06	0	0	-nan
1.00428e-06	0	0	-nan
1.05567e-06	0	0	-nan
1.08725e-06	0	0	-nan
1.08951e-06	0	0	-nan
1.11544e-06	0	0	-nan
1.11758e-06	0	0	-nan
1.14422e-06	0	0	-nan
1.15606e-06	0	0	-nan
1.19463e-06	0	0	-nan
1.2399e-06	0	0	-nan
1.24204e-06	0	0	-nan
1.26874e-06	0	0	-nan
1.29824e-06	0	0	-nan
1.30103e-06	0	0	-nan
1.30555e-06	0	0	-nan
1.32033e-06	0	0	-nan
1.35738e-06	0	0	-nan
1.409e-06	0	0	-nan
1.4139e-06	0	0	-nan
1.43873e-06	0	0	-nan
1.46821e-06	0	0	-nan
1.46983e-06	0	0	-nan
1.48241e-06	0	0	-nan
1.48547e-06	0	0	-nan
1.51939e-06	0	0	-nan
1.52262e-06	0	0	-nan
1.5254e-06	0	0	-nan
1.55471e-06	0	0	-nan
1.55716e-06	0	0	-nan
1.56524e-06	0	0	-nan
1.57221e-06	0	0	-nan
1.58525e-06	0	0	-nan
1.61263e-06	0	0	-nan
1.63517e-06	0	0	-nan
1.63817e-06	0	0	-nan
1.64226e-06	0	0	-nan
1.65869e-06	0	0	-nan
1.67662e-06	0	0	-nan
1.68055e-06	0	0	-nan
1.69608e-06	0	0	-nan
1.70724e-06	0	0	-nan
1.7246e-06	0	0	-nan
1.73089e-06	0	0	-nan
1.75078e-06	0	0	-nan
1.77594e-06	0	0	-nan
1.79048e-06	0	0	-nan
1.80632e-06	0	0	-nan
1.81547e-06	0	0	-nan
1.83764e-06	0	0	-nan
1.84569e-06	0	0	-nan
1.85369e-06	0	0	-nan
1.87869e-06	0	0	-nan
1.88256e-06	0	0	-nan
1.90477e-06	0	0	-nan
1.90646e-06	0	0	-nan
1.93279e-06	0	0	-nan
1.97996e-06	0	0	-nan
1.98222e-06	0	0	-nan
1.98773e-06	0	0	-nan
2.00454e-06	0	0	-nan
2.01273e-06	0	0	-nan
2.01611e-06	0	0	-nan
2.04757e-06	0	0	-nan
2.05957e-06	0	0	-nan
2.06312e-06	0	0	-nan
2.0783e-06	0	0	-nan
2.10732e-06	0	0	-nan
2.12471e-06	0	0	-nan
2.1711e-06	0	0	-nan
2.18018e-06	0	0	-nan
2.21394e-06	0	0	-nan
2.21965e-06	0	0	-nan
2.22452e-06	0	0	-nan
2.26175e-06	0	0	-nan
2.27903e-06	0	0	-nan
2.28848e-06	0	0	-nan
2.31541e-06	0	0	-nan
2.32305e-06	0	0	-nan
2.32378e-06	0	0	-nan
2.38112e-06	0	0	-nan
2.3817e-06	0	0	-nan
2.40186e-06	0	0	-nan
2.42547e-06	0	0	-nan
2.44082e-06	0	0	-nan
2.51886e-06	0	0	-nan
2.52427e-06	0	0	-nan
2.54279e-06	0	0	-nan
2.55386e-06	0	0	-nan
2.55933e-06	0	0	-nan
2.56011e-06	0	0	-nan
2.56197e-06	0	0	-nan
2.61278e-06	0	0	-nan
2.62065e-06	0	0	-nan
2.64809e-06	0	0	-nan
2.69047e-06	0	0	-nan
2.7097e-06	0	0	-nan
2.75274e-06	0	0	-nan
2.75928e-06	0	0	-nan
2.76165e-06	0	0	-nan
2.77455e-06	0	0	-nan
2.79612e-06	0	0	-nan
2.8243e-06	0	0	-nan
2.83375e-06	0	0	-nan
2.85754e-06	0	0	-nan
2.91678e-06	0	0	-nan
2.92018e-06	0	0	-nan
2.92378e-06	0	0	-nan
2.92416e-06	0	0	-nan
2.92515e-06	0	0	-nan
2.9315e-06	0	0	-nan
2.9463e-06	0	0	-nan
2.94897e-06	0	0	-nan
2.94899e-06	0	0	-nan
2.96822e-06	0	0	-nan
2.97358e-06	0	0	-nan
2.97644e-06	0	0	-nan
3.00789e-06	0	0	-nan
3.04101e-06	0	0	-nan
3.04234e-06	0	0	-nan
3.04493e-06	0	0	-nan
3.07028e-06	0	0	-nan
3.08397e-06	0	0	-nan
3.0918e-06	0	0	-nan
3.09751e-06	0	0	-nan
3.13301e-06	0	0	-nan
3.13773e-06	0	0	-nan
3.15402e-06	0	0	-nan
3.1622e-06	0	0	-nan
3.16825e-06	0	0	-nan
3.19772e-06	0	0	-nan
3.21284e-06	0	0	-nan
3.21926e-06	0	0	-nan
3.23466e-06	0	0	-nan
3.23987e-06	0	0	-nan
3.24106e-06	0	0	-nan
3.24281e-06	0	0	-nan
3.25567e-06	0	0	-nan
3.28332e-06	0	0	-nan
3.30299e-06	0	0	-nan
3.31228e-06	0	0	-nan
3.31874e-06	0	0	-nan
3.36834e-06	0	0	-nan
3.37564e-06	0	0	-nan
3.4058e-06	0	0	-nan
3.4164e-06	0	0	-nan
3.42402e-06	0	0	-nan
3.44277e-06	0	0	-nan
3.45561e-06	0	0	-nan
3.47443e-06	0	0	-nan
3.48639e-06	0	0	-nan
3.51058e-06	0	0	-nan
3.53932e-06	0	0	-nan
3.5463e-06	0	0	-nan
3.6503e-06	0	0	-nan
3.6705e-06	0	0	-nan
3.67633e-06	0	0	-nan
3.67726e-06	0	0	-nan
3.70945e-06	0	0	-nan
3.72993e-06	0	0	-nan
3.74019e-06	0	0	-nan
3.74382e-06	0	0	-nan
3.74639e-06	0	0	-nan
3.75357e-06	0	0	-nan
3.75588e-06	0	0	-nan
3.75945e-06	0	0	-nan
3.77413e-06	0	0	-nan
3.8333e-06	0	0	-nan
3.84454e-06	0	0	-nan
3.91221e-06	0	0	-nan
3.92342e-06	0	0	-nan
3.92416e-06	0	0	-nan
3.93825e-06	0	0	-nan
3.9583e-06	0	0	-nan
3.9735e-06	0	0	-nan
4.05527e-06	0	0	-nan
4.07355e-06	0	0	-nan
4.07373e-06	0	0	-nan
4.08576e-06	0	0	-nan
4.09071e-06	0	0	-nan
4.11208e-06	0	0	-nan
4.12243e-06	0	0	-nan
4.15149e-06	0	0	-nan
4.17062e-06	0	0	-nan
4.17485e-06	0	0	-nan
4.18415e-06	0	0	-nan
4.20247e-06	0	0	-nan
4.21191e-06	0	0	-nan
4.21379e-06	0	0	-nan
4.22974e-06	0	0	-nan
4.25951e-06	0	0	-nan
4.27641e-06	0	0	-nan
4.28809e-06	0	0	-nan
4.31484e-06	0	0	-nan
4.32102e-06	0	0	-nan
4.32658e-06	0	0	-nan
4.38052e-06	0	0	-nan
4.39507e-06	0	0	-nan
4.3952e-06	0	0	-nan
4.40918e-06	0	0	-nan
4.4092e-06	0	0	-nan
4.42265e-06	0	0	-nan
4.4604e-06	0	0	-nan
4.48841e-06	0	0	-nan
4.49003e-06	0	0	-nan
4.49044e-06	0	0	-nan
4.49227e-06	0	0	-nan
4.49765e-06	0	0	-nan
4.5182e-06	0	0	-nan
4.52391e-06	0	0	-nan
4.54752e-06	0	0	-nan
4.55874e-06	0	0	-nan
4.55982e-06	0	0	-nan
4.62599e-06	0	0	-nan
4.64018e-06	0	0	-nan
4.67659e-06	0	0	-nan
4.67927e-06	0	0	-nan
4.68469e-06	0	0	-nan
4.69418e-06	0	0	-nan
4.70264e-06	0	0	-nan
4.72184e-06	0	0	-nan
4.73194e-06	0	0	-nan
4.74274e-06	0	0	-nan
4.75044e-06	0	0	-nan
4.79094e-06	0	0	-nan
4.84149e-06	0	0	-nan
4.87144e-06	0	0	-nan
4.91247e-06	0	0	-nan
4.9235e-06	0	0	-nan
4.9252e-06	0	0	-nan
4.93582e-06	0	0	-nan
4.94343e-06	0	0	-nan
4.96454e-06	0	0	-nan
5.03488e-06	0	0	-nan
5.0849e-06	0	0	-nan
5.12748e-06	0	0	-nan
5.12936e-06	0	0	-nan
5.13833e-06	0	0	-nan
5.16293e-06	0	0	-nan
5.22865e-06	0	0	-nan
5.26375e-06	0	0	-nan
5.27738e-06	0	0	-nan
5.29208e-06	0	0	-nan
5.41632e-06	0	0	-nan
5.44081e-06	0	0	-nan
5.44844e-06	0	0	-nan
5.48788e-06	0	0	-nan
5.53107e-06	0	0	-nan
5.54426e-06	0	0	-nan
5.61162e-06	0	0	-nan
5.63229e-06	0	0	-nan
5.63803e-06	0	0	-nan
5.64657e-06	0	0	-nan
5.6594e-06	0	0	-nan
5.66039e-06	0	0	-nan
5.70154e-06	0	0	-nan
5.72245e-06	0	0	-nan
5.73854e-06	0	0	-nan
5.81655e-06	0	0	-nan
5.86719e-06	0	0	-nan
5.88151e-06	0	0	-nan
5.8956e-06	0	0	-nan
5.91519e-06	0	0	-nan
5.95323e-06	0	0	-nan
5.96636e-06	0	0	-nan
5.9763e-06	0	0	-nan
6.00609e-06	0	0	-nan
6.04007e-06	0	0	-nan
6.04476e-06	0	0	-nan
6.06549e-06	0	0	-nan
6.06734e-06	0	0	-nan
6.06904e-06	0	0	-nan
6.06942e-06	0	0	-nan
6.07786e-06	0	0	-nan
6.12721e-06	0	0	-nan
6.12722e-06	0	0	-nan
6.13342e-06	0	0	-nan
6.17397e-06	0	0	-nan
6.18671e-06	0	0	-nan
6.22073e-06	0	0	-nan
6.22169e-06	0	0	-nan
6.22717e-06	0	0	-nan
6.24065e-06	0	0	-nan
6.28209e-06	0	0	-nan
6.28322e-06	0	0	-nan
6.34997e-06	0	0	-nan
6.38694e-06	0	0	-nan
6.4021e-06	0	0	-nan
6.43684e-06	0	0	-nan
6.44557e-06	0	0	-nan
6.44924e-06	0	0	-nan
6.47758e-06	0	0	-nan
6.508e-06	0	0	-nan
6.51078e-06	0	0	-nan
6.58196e-06	0	0	-nan
6.63573e-06	0	0	-nan
6.69232e-06	0	0	-nan
6.75058e-06	0	0	-nan
6.76462e-06	0	0	-nan
6.81213e-06	0	0	-nan
6.84148e-06	0	0	-nan
6.8589e-06	0	0	-nan
6.88297e-06	0	0	-nan
6.8895e-06	0	0	-nan
6.89028e-06	0	0	-nan
6.89128e-06	0	0	-nan
6.90664e-06	0	0	-nan
6.93055e-06	0	0	-nan
6.94823e-06	0	0	-nan
6.9542e-06	0	0	-nan
7.0413e-06	0	0	-nan
7.12147e-06	0	0	-nan
7.13416e-06	0	0	-nan
7.13479e-06	0	0	-nan
7.21174e-06	0	0	-nan
7.21514e-06	0	0	-nan
7.25197e-06	0	0	-nan
7.26512e-06	0	0	-nan
7.29138e-06	0	0	-nan
7.29418e-06	0	0	-nan
7.33025e-06	0	0	-nan
7.3737e-06	0	0	-nan
7.38387e-06	0	0	-nan
7.39309e-06	0	0	-nan
7.3993e-06	0	0	-nan
7.4281e-06	0	0	-nan
7.45564e-06	0	0	-nan
7.50617e-06	0	0	-nan
7.50838e-06	0	0	-nan
7.51253e-06	0	0	-nan
7.52341e-06	0	0	-nan
7.56062e-06	0	0	-nan
7.58736e-06	0	0	-nan
7.60108e-06	0	0	-nan
7.62948e-06	0	0	-nan
7.65922e-06	0	0	-nan
7.66919e-06	0	0	-nan
7.69132e-06	0	0	-nan
7.71323e-06	0	0	-nan
7.73509e-06	0	0	-nan
7.77793e-06	0	0	-nan
7.80023e-06	0	0	-nan
7.82418e-06	0	0	-nan
7.82917e-06	0	0	-nan
7.85182e-06	0	0	-nan
7.87233e-06	0	0	-nan
7.9307e-06	0	0	-nan
7.94379e-06	0	0	-nan
7.95059e-06	0	0	-nan
8.00466e-06	0	0	-nan
8.00845e-06	0	0	-nan
8.05837e-06	0	0	-nan
8.06251e-06	0	0	-nan
8.07643e-06	0	0	-nan
8.07992e-06	0	0	-nan
8.0837e-06	0	0	-nan
8.08863e-06	0	0	-nan
8.13717e-06	0	0	-nan
8.14741e-06	0	0	-nan
8.15537e-06	0	0	-nan
8.15678e-06	0	0	-nan
8.18098e-06	0	0	-nan
8.19049e-06	0	0	-nan
8.20724e-06	0	0	-nan
8.28433e-06	0	0	-nan
8.37117e-06	0	0	-nan
8.41951e-06	0	0	-nan
8.44403e-06	0	0	-nan
8.45983e-06	0	0	-nan
8.48188e-06	0	0	-nan
8.52386e-06	0	0	-nan
8.56112e-06	0	0	-nan
8.5959e-06	0	0	-nan
8.60841e-06	0	0	-nan
8.63831e-06	0	0	-nan
8.64693e-06	0	0	-nan
8.67386e-06	0	0	-nan
8.67871e-06	0	0	-nan
8.68193e-06	0	0	-nan
8.72017e-06	0	0	-nan
8.75868e-06	0	0	-nan
8.76658e-06	0	0	-nan
8.76751e-06	0	0	-nan
8.78827e-06	0	0	-nan
8.83613e-06	0	0	-nan
8.85576e-06	0	0	-nan
8.87686e-06	0	0	-nan
8.88122e-06	0	0	-nan
8.88937e-06	0	0	-nan
8.89665e-06	0	0	-nan
8.91501e-06	0	0	-nan
8.9187e-06	0	0	-nan
8.99628e-06	0	0	-nan
9.00342e-06	0	0	-nan
9.00399e-06	0	0	-nan
9.02377e-06	0	0	-nan
9.05365e-06	0	0	-nan
9.06863e-06	0	0	-nan
9.14827e-06	0	0	-nan
9.16223e-06	0	0	-nan
9.2001e-06	0	0	-nan
9.2087e-06	0	0	-nan
9.34961e-06	0	0	-nan
9.35038e-06	0	0	-nan
9.40635e-06	0	0	-nan
9.40683e-06	0	0	-nan
9.41966e-06	0	0	-nan
9.43713e-06	0	0	-nan
9.45499e-06	0	0	-nan
9.5564e-06	0	0	-nan
9.59132e-06	0	0	-nan
9.60598e-06	0	0	-nan
9.6128e-06	0	0	-nan
9.7019e-06	0	0	-nan
9.71381e-06	0	0	-nan
9.7316e-06	0	0	-nan
9.74343e-06	0	0	-nan
9.75133e-06	0	0	-nan
9.75624e-06	0	0	-nan
9.75632e-06	0	0	-nan
9.76615e-06	0	0	-nan
9.77411e-06	0	0	-nan
9.77772e-06	0	0	-nan
9.81377e-06	0	0	-nan
9.81948e-06	0	0	-nan
9.82043e-06	0	0	-nan
9.82247e-06	0	0	-nan
9.82951e-06	0	0	-nan
9.8775e-06	0	0	-nan
1.00244e-05	0	0	-nan
1.00675e-05	0	0	-nan
1.00748e-05	0	0	-nan
1.01356e-05	0	0	-nan
1.01841e-05	0	0	-nan
1.0207e-05	0	0	-nan
1.02081e-05	0	0	-nan
1.02684e-05	0	0	-nan
1.02883e-05	0	0	-nan
1.03264e-05	0	0	-nan
1.03567e-05	0	0	-nan
1.03972e-05	0	0	-nan
1.04054e-05	0	0	-nan
1.0424e-05	0	0	-nan
1.04248e-05	0	0	-nan
1.04991e-05	0	0	-nan
1.05203e-05	0	0	-nan
1.05556e-05	0	0	-nan
1.0561e-05	0	0	-nan
1.05889e-05	0	0	-nan
1.06977e-05	0	0	-nan
1.07038e-05	0	0	-nan
1.07231e-05	0	0	-nan
1.07435e-05	0	0	-nan
1.07939e-05	0	0	-nan
1.0826e-05	0	0	-nan
1.09109e-05	0	0	-nan
1.09613e-05	0	0	-nan
1.09823e-05	0	0	-nan
1.10008e-05	0	0	-nan
1.10335e-05	0	0	-nan
1.10474e-05	0	0	-nan
1.10712e-05	0	0	-nan
1.11784e-05	0	0	-nan
1.11995e-05	0	0	-nan
1.12248e-05	0	0	-nan
1.13499e-05	0	0	-nan
1.13554e-05	0	0	-nan
1.13932e-05	0	0	-nan
1.14207e-05	0	0	-nan
1.1446e-05	0	0	-nan
1.14583e-05	0	0	-nan
1.14634e-05	0	0	-nan
1.1486e-05	0	0	-nan
1.14973e-05	0	0	-nan
1.15287e-05	0	0	-nan
1.15488e-05	0	0	-nan
1.15843e-05	0	0	-nan
1.16334e-05	0	0	-nan
1.16357e-05	0	0	-nan
1.17544e-05	0	0	-nan
1.17618e-05	0	0	-nan
1.18203e-05	0	0	-nan
1.18592e-05	0	0	-nan
1.18749e-05	0	0	-nan
1.18927e-05	0	0	-nan
1.19028e-05	0	0	-nan
1.19163e-05	0	0	-nan
1.19621e-05	0	0	-nan
1.20668e-05	0	0	-nan
1.21579e-05	0	0	-nan
1.22995e-05	0	0	-nan
1.23033e-05	0	0	-nan
1.23288e-05	0	0	-nan
1.23487e-05	0	0	-nan
1.2363e-05	0	0	-nan
1.23772e-05	0	0	-nan
1.23906e-05	0	0	-nan
1.24222e-05	0	0	-nan
1.24261e-05	0	0	-nan
1.24424e-05	0	0	-nan
1.24514e-05	0	0	-nan
1.2459e-05	0	0	-nan
1.24731e-05	0	0	-nan
1.25396e-05	0	0	-nan
1.25643e-05	0	0	-nan
1.25781e-05	0	0	-nan
1.25926e-05	0	0	-nan
1.26082e-05	0	0	-nan
1.26736e-05	0	0	-nan
1.27018e-05	0	0	-nan
1.27256e-05	0	0	-nan
1.27359e-05	0	0	-nan
1.27497e-05	0	0	-nan
1.2771e-05	0	0	-nan
1.28095e-05	0	0	-nan
1.28506e-05	0	0	-nan
1.28642e-05	0	0	-nan
1.28653e-05	0	0	-nan
1.28732e-05	0	0	-nan
1.28733e-05	0	0	-nan
1.28832e-05	0	0	-nan
1.28963e-05	0	0	-nan
1.29426e-05	0	0	-nan
1.29428e-05	0	0	-nan
1.29721e-05	0	0	-nan
1.29728e-05	0	0	-nan
1.30048e-05	0	0	-nan
1.30895e-05	0	0	-nan
1.31322e-05	0	0	-nan
1.32334e-05	0	0	-nan
1.32409e-05	0	0	-nan
1.32751e-05	0	0	-nan
1.32817e-05	0	0	-nan
1.33109e-05	0	0	-nan
1.33199e-05	0	0	-nan
1.33262e-05	0	0	-nan
1.33552e-05	0	0	-nan
1.33629e-05	0	0	-nan
1.33929e-05	0	0	-nan
1.34249e-05	0	0	-nan
1.35005e-05	0	0	-nan
1.35275e-05	0	0	-nan
1.35401e-05	0	0	-nan
1.35543e-05	0	0	-nan
1.35808e-05	0	0	-nan
1.36047e-05	0	0	-nan
1.36244e-05	0	0	-nan
1.36479e-05	0	0	-nan
1.36987e-05	0	0	-nan
1.37012e-05	0	0	-nan
1.37516e-05	0	0	-nan
1.37942e-05	0	0	-nan
1.38683e-05	0	0	-nan
1.38919e-05	0	0	-nan
1.39262e-05	0	0	-nan
1.39455e-05	0	0	-nan
1.41364e-05	0	0	-nan
1.41954e-05	0	0	-nan
1.42043e-05	0	0	-nan
1.4217e-05	0	0	-nan
1.42679e-05	0	0	-nan
1.43031e-05	0	0	-nan
1.43876e-05	0	0	-nan
1.43998e-05	0	0	-nan
1.44e-05	0	0	-nan
1.45221e-05	0	0	-nan
1.45613e-05	0	0	-nan
1.45956e-05	0	0	-nan
1.46985e-05	0	0	-nan
1.47001e-05	0	0	-nan
1.47066e-05	0	0	-nan
1.47196e-05	0	0	-nan
1.47842e-05	0	0	-nan
1.48623e-05	0	0	-nan
1.50017e-05	0	0	-nan
1.50229e-05	0	0	-nan
1.51062e-05	0	0	-nan
1.5141e-05	0	0	-nan
1.52582e-05	0	0	-nan
1.53996e-05	0	0	-nan
1.54067e-05	0	0	-nan
1.54072e-05	0	0	-nan
1.54223e-05	0	0	-nan
1.54885e-05	0	0	-nan
1.55016e-05	0	0	-nan
1.55361e-05	0	0	-nan
1.55438e-05	0	0	-nan
1.55847e-05	0	0	-nan
1.55872e-05	0	0	-nan
1.56541e-05	0	0	-nan
1.56779e-05	0	0	-nan
1.57637e-05	0	0	-nan
1.57981e-05	0	0	-nan
1.58782e-05	0	0	-nan
1.58867e-05	0	0	-nan
1.59318e-05	0	0	-nan
1.59384e-05	0	0	-nan
1.60305e-05	0	0	-nan
1.60626e-05	0	0	-nan
1.6119e-05	0	0	-nan
1.6128e-05	0	0	-nan
1.61465e-05	0	0	-nan
1.6177e-05	0	0	-nan
1.61873e-05	0	0	-nan
1.62179e-05	0	0	-nan
1.62347e-05	0	0	-nan
1.62716e-05	0	0	-nan
1.62814e-05	0	0	-nan
1.63022e-05	0	0	-nan
1.63586e-05	0	0	-nan
1.66778e-05	0	0	-nan
1.66941e-05	0	0	-nan
1.67665e-05	0	0	-nan
1.67818e-05	0	0	-nan
1.68359e-05	0	0	-nan
1.6892e-05	0	0	-nan
1.69781e-05	0	0	-nan
1.69932e-05	0	0	-nan
1.69979e-05	0	0	-nan
1.70074e-05	0	0	-nan
1.7047e-05	0	0	-nan
1.71532e-05	0	0	-nan
1.71864e-05	0	0	-nan
1.72597e-05	0	0	-nan
1.73076e-05	0	0	-nan
1.73083e-05	0	0	-nan
1.73561e-05	0	0	-nan
1.7391e-05	0	0	-nan
1.74141e-05	0	0	-nan
1.74377e-05	0	0	-nan
1.74432e-05	0	0	-nan
1.75597e-05	0	0	-nan
1.75647e-05	0	0	-nan
1.75917e-05	0	0	-nan
1.7609e-05	0	0	-nan
1.77831e-05	0	0	-nan
1.80148e-05	0	0	-nan
1.80981e-05	0	0	-nan
1.81147e-05	0	0	-nan
1.81536e-05	0	0	-nan
1.81873e-05	0	0	-nan
1.82744e-05	0	0	-nan
1.83019e-05	0	0	-nan
1.83903e-05	0	0	-nan
1.84446e-05	0	0	-nan
1.85625e-05	0	0	-nan
1.8591e-05	0	0	-nan
1.85932e-05	0	0	-nan
1.86042e-05	0	0	-nan
1.86564e-05	0	0	-nan
1.86687e-05	0	0	-nan
1.86834e-05	0	0	-nan
1.87521e-05	0	0	-nan
1.88109e-05	0	0	-nan
1.8868e-05	0	0	-nan
1.89628e-05	0	0	-nan
1.89937e-05	0	0	-nan
1.9011e-05	0	0	-nan
1.91195e-05	0	0	-nan
1.91428e-05	0	0	-nan
1.91632e-05	0	0	-nan
1.91937e-05	0	0	-nan
1.92266e-05	0	0	-nan
1.92487e-05	0	0	-nan
1.93191e-05	0	0	-nan
1.93222e-05	0	0	-nan
1.94473e-05	0	0	-nan
1.9474e-05	0	0	-nan
1.95743e-05	0	0	-nan
1.9661e-05	0	0	-nan
1.96683e-05	0	0	-nan
1.97238e-05	0	0	-nan
1.97389e-05	0	0	-nan
1.97779e-05	0	0	-nan
1.97953e-05	0	0	-nan
1.98114e-05	0	0	-nan
1.98967e-05	0	0	-nan
1.99203e-05	0	0	-nan
1.99335e-05	0	0	-nan
2.001e-05	0	0	-nan
2.00453e-05	0	0	-nan
2.00478e-05	0	0	-nan
2.00798e-05	0	0	-nan
2.00992e-05	0	0	-nan
2.02018e-05	0	0	-nan
2.02437e-05	0	0	-nan
2.02526e-05	0	0	-nan
2.02959e-05	0	0	-nan
2.03013e-05	0	0	-nan
2.03275e-05	0	0	-nan
2.03738e-05	0	0	-nan
2.03851e-05	0	0	-nan
2.03854e-05	0	0	-nan
2.05253e-05	0	0	-nan
2.05291e-05	0	0	-nan
2.06305e-05	0	0	-nan
2.07345e-05	0	0	-nan
2.09167e-05	0	0	-nan
2.09584e-05	0	0	-nan
2.09886e-05	0	0	-nan
2.10329e-05	0	0	-nan
2.10525e-05	0	0	-nan
2.1214e-05	0	0	-nan
2.13117e-05	0	0	-nan
2.13627e-05	0	0	-nan
2.13671e-05	0	0	-nan
2.13728e-05	0	0	-nan
2.14401e-05	0	0	-nan
2.15697e-05	0	0	-nan
2.1659e-05	0	0	-nan
2.17305e-05	0	0	-nan
2.17529e-05	0	0	-nan
2.18029e-05	0	0	-nan
2.19415e-05	0	0	-nan
2.19724e-05	0	0	-nan
2.19884e-05	0	0	-nan
2.20732e-05	0	0	-nan
2.20794e-05	0	0	-nan
2.21163e-05	0	0	-nan
2.21392e-05	0	0	-nan
2.22391e-05	0	0	-nan
2.22421e-05	0	0	-nan
2.23053e-05	0	0	-nan
2.23163e-05	0	0	-nan
2.23676e-05	0	0	-nan
2.24153e-05	0	0	-nan
2.24451e-05	0	0	-nan
2.24518e-05	0	0	-nan
2.24951e-05	0	0	-nan
2.25766e-05	0	0	-nan
2.25861e-05	0	0	-nan
2.263e-05	0	0	-nan
2.26458e-05	0	0	-nan
2.27243e-05	0	0	-nan
2.27803e-05	0	0	-nan
2.27832e-05	0	0	-nan
2.28768e-05	0	0	-nan
2.3057e-05	0	0	-nan
2.30775e-05	0	0	-nan
2.31003e-05	0	0	-nan
2.3124e-05	0	0	-nan
2.31241e-05	0	0	-nan
2.31267e-05	0	0	-nan
2.32102e-05	0	0	-nan
2.32122e-05	0	0	-nan
2.3229e-05	0	0	-nan
2.33134e-05	0	0	-nan
2.33557e-05	0	0	-nan
2.34169e-05	0	0	-nan
2.34494e-05	0	0	-nan
2.34917e-05	0	0	-nan
2.34935e-05	0	0	-nan
2.35173e-05	0	0	-nan
2.36138e-05	0	0	-nan
2.36828e-05	0	0	-nan
2.37735e-05	0	0	-nan
2.37964e-05	0	0	-nan
2.38677e-05	0	0	-nan
2.38736e-05	0	0	-nan
2.40179e-05	0	0	-nan
2.40665e-05	0	0	-nan
2.41753e-05	0	0	-nan
2.43244e-05	0	0	-nan
2.43899e-05	0	0	-nan
2.44596e-05	0	0	-nan
2.46164e-05	0	0	-nan
2.46168e-05	0	0	-nan
2.47523e-05	0	0	-nan
2.47897e-05	0	0	-nan
2.48265e-05	0	0	-nan
2.49156e-05	0	0	-nan
2.50073e-05	0	0	-nan
2.5032e-05	0	0	-nan
2.50693e-05	0	0	-nan
2.51846e-05	0	0	-nan
2.52129e-05	0	0	-nan
2.52388e-05	0	0	-nan
2.53268e-05	0	0	-nan
2.53711e-05	0	0	-nan
2.53882e-05	0	0	-nan
2.53995e-05	0	0	-nan
2.54236e-05	0	0	-nan
2.55231e-05	0	0	-nan
2.56583e-05	0	0	-nan
2.57872e-05	0	0	-nan
2.58049e-05	0	0	-nan
2.58231e-05	0	0	-nan
2.58688e-05	0	0	-nan
2.58947e-05	0	0	-nan
2.59224e-05	0	0	-nan
2.59476e-05	0	0	-nan
2.59942e-05	0	0	-nan
2.60311e-05	0	0	-nan
2.60946e-05	0	0	-nan
2.61454e-05	0	0	-nan
2.61502e-05	0	0	-nan
2.62063e-05	0	0	-nan
2.62238e-05	0	0	-nan
2.63364e-05	0	0	-nan
2.65392e-05	0	0	-nan
2.65593e-05	0	0	-nan
2.66483e-05	0	0	-nan
2.66614e-05	0	0	-nan
2.66718e-05	0	0	-nan
2.6741e-05	0	0	-nan
2.68371e-05	0	0	-nan
2.68674e-05	0	0	-nan
2.69678e-05	0	0	-nan
2.70135e-05	0	0	-nan
2.71711e-05	0	0	-nan
2.71784e-05	0	0	-nan
2.72292e-05	0	0	-nan
2.72464e-05	0	0	-nan
2.72813e-05	0	0	-nan
2.736e-05	0	0	-nan
2.73954e-05	0	0	-nan
2.76434e-05	0	0	-nan
2.78352e-05	0	0	-nan
2.79853e-05	0	0	-nan
2.80157e-05	0	0	-nan
2.8114e-05	0	0	-nan
2.81628e-05	0	0	-nan
2.82027e-05	0	0	-nan
2.82124e-05	0	0	-nan
2.83719e-05	0	0	-nan
2.84239e-05	0	0	-nan
2.84372e-05	0	0	-nan
2.8559e-05	0	0	-nan
2.85644e-05	0	0	-nan
2.86329e-05	0	0	-nan
2.86731e-05	0	0	-nan
2.86849e-05	0	0	-nan
2.86918e-05	0	0	-nan
2.88827e-05	0	0	-nan
2.8962e-05	0	0	-nan
2.89987e-05	0	0	-nan
2.9011e-05	0	0	-nan
2.91021e-05	0	0	-nan
2.91573e-05	0	0	-nan
2.91584e-05	0	0	-nan
2.93787e-05	0	0	-nan
2.94086e-05	0	0	-nan
2.94868e-05	0	0	-nan
2.95518e-05	0	0	-nan
2.96726e-05	0	0	-nan
2.97182e-05	0	0	-nan
2.97265e-05	0	0	-nan
2.98111e-05	0	0	-nan
2.9822e-05	0	0	-nan
2.99594e-05	0	0	-nan
3.00845e-05	0	0	-nan
3.01011e-05	0	0	-nan
3.01233e-05	0	0	-nan
3.02098e-05	0	0	-nan
3.0313e-05	0	0	-nan
3.03449e-05	0	0	-nan
3.03948e-05	0	0	-nan
3.041e-05	0	0	-nan
3.049e-05	0	0	-nan
3.05757e-05	0	0	-nan
3.0652e-05	0	0	-nan
3.0741e-05	0	0	-nan
3.08753e-05	0	0	-nan
3.10498e-05	0	0	-nan
3.15898e-05	0	0	-nan
3.1638e-05	0	0	-nan
3.17154e-05	0	0	-nan
3.17857e-05	0	0	-nan
3.21164e-05	0	0	-nan
3.21191e-05	0	0	-nan
3.21305e-05	0	0	-nan
3.2211e-05	0	0	-nan
3.2235e-05	0	0	-nan
3.2245e-05	0	0	-nan
3.23131e-05	0	0	-nan
3.24184e-05	0	0	-nan
3.24634e-05	0	0	-nan
3.24864e-05	0	0	-nan
3.26188e-05	0	0	-nan
3.27938e-05	0	0	-nan
3.2879e-05	0	0	-nan
3.29114e-05	0	0	-nan
3.29249e-05	0	0	-nan
3.29855e-05	0	0	-nan
3.30528e-05	0	0	-nan
3.30646e-05	0	0	-nan
3.31124e-05	0	0	-nan
3.33461e-05	0	0	-nan
3.33966e-05	0	0	-nan
3.34352e-05	0	0	-nan
3.35149e-05	0	0	-nan
3.35729e-05	0	0	-nan
3.36263e-05	0	0	-nan
3.37352e-05	0	0	-nan
3.3766e-05	0	0	-nan
3.38174e-05	0	0	-nan
3.38432e-05	0	0	-nan
3.39999e-05	0	0	-nan
3.40553e-05	0	0	-nan
3.4077e-05	0	0	-nan
3.42668e-05	0	0	-nan
3.43747e-05	0	0	-nan
3.4478e-05	0	0	-nan
3.45731e-05	0	0	-nan
3.46779e-05	0	0	-nan
3.46928e-05	0	0	-nan
3.47847e-05	0	0	-nan
3.47887e-05	0	0	-nan
3.4834e-05	0	0	-nan
3.51135e-05	0	0	-nan
3.51775e-05	0	0	-nan
3.51945e-05	0	0	-nan
3.5282e-05	0	0	-nan
3.53989e-05	0	0	-nan
3.54243e-05	0	0	-nan
3.54478e-05	0	0	-nan
3.54659e-05	0	0	-nan
3.55478e-05	0	0	-nan
3.56585e-05	0	0	-nan
3.566e-05	0	0	-nan
3.57e-05	0	0	-nan
3.57434e-05	0	0	-nan
3.61313e-05	0	0	-nan
3.61704e-05	0	0	-nan
3.6311e-05	0	0	-nan
3.63332e-05	0	0	-nan
3.63608e-05	0	0	-nan
3.63742e-05	0	0	-nan
3.65376e-05	0	0	-nan
3.67732e-05	0	0	-nan
3.67976e-05	0	0	-nan
3.67982e-05	0	0	-nan
3.69178e-05	0	0	-nan
3.70146e-05	0	0	-nan
3.72055e-05	0	0	-nan
3.7326e-05	0	0	-nan
3.73513e-05	0	0	-nan
3.7386e-05	0	0	-nan
3.78142e-05	0	0	-nan
3.79121e-05	0	0	-nan
3.81471e-05	0	0	-nan
3.8309e-05	0	0	-nan
3.83762e-05	0	0	-nan
3.83901e-05	0	0	-nan
3.84691e-05	0	0	-nan
3.86162e-05	0	0	-nan
3.88087e-05	0	0	-nan
3.88632e-05	0	0	-nan
3.88748e-05	0	0	-nan
3.89619e-05	0	0	-nan
3.91083e-05	0	0	-nan
3.93728e-05	0	0	-nan
3.93803e-05	0	0	-nan
3.94146e-05	0	0	-nan
3.95819e-05	0	0	-nan
3.98178e-05	0	0	-nan
3.98557e-05	0	0	-nan
3.99325e-05	0	0	-nan
4.00969e-05	0	0	-nan
4.01898e-05	0	0	-nan
4.01926e-05	0	0	-nan
4.07078e-05	0	0	-nan
4.0785e-05	0	0	-nan
4.09209e-05	0	0	-nan
4.09843e-05	0	0	-nan
4.10889e-05	0	0	-nan
4.12605e-05	0	0	-nan
4.12876e-05	0	0	-nan
4.13385e-05	0	0	-nan
4.13635e-05	0	0	-nan
4.14463e-05	0	0	-nan
4.15608e-05	0	0	-nan
4.1699e-05	0	0	-nan
4.18303e-05	0	0	-nan
4.20059e-05	0	0	-nan
4.21035e-05	0	0	-nan
4.21076e-05	0	0	-nan
4.2385e-05	0	0	-nan
4.24321e-05	0	0	-nan
4.24693e-05	0	0	-nan
4.27362e-05	0	0	-nan
4.27769e-05	0	0	-nan
4.28659e-05	0	0	-nan
4.3079e-05	0	0	-nan
4.33192e-05	0	0	-nan
4.33437e-05	0	0	-nan
4.34738e-05	0	0	-nan
4.36167e-05	0	0	-nan
4.37864e-05	0	0	-nan
4.39445e-05	0	0	-nan
4.39839e-05	0	0	-nan
4.4101e-05	0	0	-nan
4.41121e-05	0	0	-nan
4.41855e-05	0	0	-nan
4.41875e-05	0	0	-nan
4.42574e-05	0	0	-nan
4.44065e-05	0	0	-nan
4.44254e-05	0	0	-nan
4.46374e-05	0	0	-nan
4.48183e-05	0	0	-nan
4.51149e-05	0	0	-nan
4.51725e-05	0	0	-nan
4.51819e-05	0	0	-nan
4.51992e-05	0	0	-nan
4.5238e-05	0	0	-nan
4.52653e-05	0	0	-nan
4.52809e-05	0	0	-nan
4.57008e-05	0	0	-nan
4.57202e-05	0	0	-nan
4.58344e-05	0	0	-nan
4.58836e-05	0	0	-nan
4.59293e-05	0	0	-nan
4.63426e-05	0	0	-nan
4.64639e-05	0	0	-nan
4.64842e-05	0	0	-nan
4.66299e-05	0	0	-nan
4.68434e-05	0	0	-nan
4.69507e-05	0	0	-nan
4.70284e-05	0	0	-nan
4.70451e-05	0	0	-nan
4.70757e-05	0	0	-nan
4.71136e-05	0	0	-nan
4.74717e-05	0	0	-nan
4.75055e-05	0	0	-nan
4.77421e-05	0	0	-nan
4.78033e-05	0	0	-nan
4.78286e-05	0	0	-nan
4.82576e-05	0	0	-nan
4.82672e-05	0	0	-nan
4.87133e-05	0	0	-nan
4.91252e-05	0	0	-nan
4.97188e-05	0	0	-nan
4.98759e-05	0	0	-nan
5.02784e-05	0	0	-nan
5.03153e-05	0	0	-nan
5.0504e-05	0	0	-nan
5.06675e-05	0	0	-nan
5.07475e-05	0	0	-nan
5.0964e-05	0	0	-nan
5.10627e-05	0	0	-nan
5.14763e-05	0	0	-nan
5.16245e-05	0	0	-nan
5.1811e-05	0	0	-nan
5.18458e-05	0	0	-nan
5.1905e-05	0	0	-nan
5.1947e-05	0	0	-nan
5.19912e-05	0	0	-nan
5.21505e-05	0	0	-nan
5.30353e-05	0	0	-nan
5.30479e-05	0	0	-nan
5.32475e-05	0	0	-nan
5.32666e-05	0	0	-nan
5.33882e-05	0	0	-nan
5.35e-05	0	0	-nan
5.3605e-05	0	0	-nan
5.37351e-05	0	0	-nan
5.39152e-05	0	0	-nan
5.45316e-05	0	0	-nan
5.46008e-05	0	0	-nan
5.46047e-05	0	0	-nan
5.46682e-05	0	0	-nan
5.47613e-05	0	0	-nan
5.47993e-05	0	0	-nan
5.50037e-05	0	0	-nan
5.50721e-05	0	0	-nan
5.50995e-05	0	0	-nan
5.522e-05	0	0	-nan
5.53601e-05	0	0	-nan
5.58893e-05	0	0	-nan
5.59937e-05	0	0	-nan
5.60575e-05	0	0	-nan
5.60629e-05	0	0	-nan
5.61963e-05	0	0	-nan
5.65561e-05	0	0	-nan
5.65677e-05	0	0	-nan
5.6746e-05	0	0	-nan
5.6879e-05	0	0	-nan
5.69929e-05	0	0	-nan
5.71237e-05	0	0	-nan
5.77977e-05	0	0	-nan
5.8024e-05	0	0	-nan
5.81885e-05	0	0	-nan
5.83717e-05	0	0	-nan
5.83988e-05	0	0	-nan
5.8427e-05	0	0	-nan
5.85226e-05	0	0	-nan
5.85429e-05	0	0	-nan
5.85954e-05	0	0	-nan
5.86326e-05	0	0	-nan
5.88555e-05	0	0	-nan
5.88842e-05	0	0	-nan
5.93797e-05	0	0	-nan
5.97803e-05	0	0	-nan
5.97941e-05	0	0	-nan
5.99073e-05	0	0	-nan
6.07996e-05	0	0	-nan
6.10105e-05	0	0	-nan
6.16577e-05	0	0	-nan
6.16662e-05	0	0	-nan
6.1844e-05	0	0	-nan
6.20413e-05	0	0	-nan
6.22005e-05	0	0	-nan
6.23963e-05	0	0	-nan
6.25653e-05	0	0	-nan
6.26505e-05	0	0	-nan
6.2815e-05	0	0	-nan
6.29725e-05	0	0	-nan
6.3151e-05	0	0	-nan
6.38462e-05	0	0	-nan
6.38563e-05	0	0	-nan
6.39111e-05	0	0	-nan
6.42207e-05	0	0	-nan
6.45742e-05	0	0	-nan
6.50636e-05	0	0	-nan
6.53853e-05	0	0	-nan
6.57826e-05	0	0	-nan
6.59172e-05	0	0	-nan
6.70769e-05	0	0	-nan
6.70792e-05	0	0	-nan
6.71336e-05	0	0	-nan
6.75072e-05	0	0	-nan
6.79086e-05	0	0	-nan
6.83853e-05	0	0	-nan
6.84584e-05	0	0	-nan
6.84601e-05	0	0	-nan
6.88662e-05	0	0	-nan
6.88965e-05	0	0	-nan
6.93675e-05	0	0	-nan
6.95057e-05	0	0	-nan
6.95255e-05	0	0	-nan
7.01768e-05	0	0	-nan
7.02981e-05	0	0	-nan
7.04032e-05	0	0	-nan
7.05129e-05	0	0	-nan
7.11189e-05	0	0	-nan
7.13502e-05	0	0	-nan
7.14005e-05	0	0	-nan
7.1447e-05	0	0	-nan
7.14991e-05	0	0	-nan
7.15346e-05	0	0	-nan
7.16181e-05	0	0	-nan
7.17867e-05	0	0	-nan
7.19569e-05	0	0	-nan
7.23895e-05	0	0	-nan
7.24116e-05	0	0	-nan
7.25834e-05	0	0	-nan
7.34712e-05	0	0	-nan
7.37204e-05	0	0	-nan
7.40642e-05	0	0	-nan
7.44025e-05	0	0	-nan
7.4789e-05	0	0	-nan
7.48067e-05	0	0	-nan
7.55188e-05	0	0	-nan
7.56771e-05	0	0	-nan
7.57992e-05	0	0	-nan
7.60517e-05	0	0	-nan
7.62512e-05	0	0	-nan
7.64886e-05	0	0	-nan
7.72111e-05	0	0	-nan
7.75915e-05	0	0	-nan
7.77166e-05	0	0	-nan
7.79409e-05	0	0	-nan
7.89102e-05	0	0	-nan
7.93057e-05	0	0	-nan
7.94791e-05	0	0	-nan
7.94956e-05	0	0	-nan
7.95133e-05	0	0	-nan
8.05052e-05	0	0	-nan
8.08183e-05	0	0	-nan
8.09188e-05	0	0	-nan
8.12376e-05	0	0	-nan
8.13449e-05	0	0	-nan
8.16661e-05	0	0	-nan
8.1667e-05	0	0	-nan
8.18358e-05	0	0	-nan
8.20449e-05	0	0	-nan
8.23169e-05	0	0	-nan
8.26541e-05	0	0	-nan
8.28952e-05	0	0	-nan
8.29205e-05	0	0	-nan
8.31233e-05	0	0	-nan
8.32383e-05	0	0	-nan
8.35524e-05	0	0	-nan
8.36831e-05	0	0	-nan
8.42039e-05	0	0	-nan
8.4285e-05	0	0	-nan
8.48238e-05	0	0	-nan
8.48909e-05	0	0	-nan
8.53314e-05	0	0	-nan
8.56213e-05	0	0	-nan
8.58586e-05	0	0	-nan
8.63758e-05	0	0	-nan
8.66551e-05	0	0	-nan
8.70455e-05	0	0	-nan
8.70809e-05	0	0	-nan
8.80627e-05	0	0	-nan
8.83521e-05	0	0	-nan
8.85492e-05	0	0	-nan
8.86184e-05	0	0	-nan
8.88146e-05	0	0	-nan
8.95081e-05	0	0	-nan
8.97229e-05	0	0	-nan
9.06296e-05	0	0	-nan
9.0781e-05	0	0	-nan
9.08103e-05	0	0	-nan
9.10862e-05	0	0	-nan
9.17065e-05	0	0	-nan
9.19201e-05	0	0	-nan
9.23498e-05	0	0	-nan
9.25494e-05	0	0	-nan
9.26086e-05	0	0	-nan
9.3298e-05	0	0	-nan
9.33449e-05	0	0	-nan
9.34358e-05	0	0	-nan
9.40284e-05	0	0	-nan
9.41594e-05	0	0	-nan
9.45472e-05	0	0	-nan
9.50798e-05	0	0	-nan
9.51946e-05	0	0	-nan
9.52114e-05	0	0	-nan
9.552e-05	0	0	-nan
9.58801e-05	0	0	-nan
9.64551e-05	0	0	-nan
9.66165e-05	0	0	-nan
9.66548e-05	0	0	-nan
9.76174e-05	0	0	-nan
9.78404e-05	0	0	-nan
9.80395e-05	0	0	-nan
9.80851e-05	0	0	-nan
9.81912e-05	0	0	-nan
9.82335e-05	0	0	-nan
9.84423e-05	0	0	-nan
9.8545e-05	0	0	-nan
9.8581e-05	0	0	-nan
9.86829e-05	0	0	-nan
9.86892e-05	0	0	-nan
9.93425e-05	0	0	-nan
0.000100635	0	0	-nan
0.00010071	0	0	-nan
0.000100963	0	0	-nan
0.000101214	0	0	-nan
0.000101227	0	0	-nan
0.000101512	0	0	-nan
0.000101792	0	0	-nan
0.000103498	0	0	-nan
0.000104288	0	0	-nan
0.000104295	0	0	-nan
0.000104548	0	0	-nan
0.000104596	0	0	-nan
0.00010494	0	0	-nan
0.000105326	0	0	-nan
0.000106294	0	0	-nan
0.000106998	0	0	-nan
0.000107035	0	0	-nan
0.000107121	0	0	-nan
0.000107142	0	0	-nan
0.000107183	0	0	-nan
0.000107292	0	0	-nan
0.000107316	0	0	-nan
0.000107501	0	0	-nan
0.000108182	0	0	-nan
0.000108788	0	0	-nan
0.000108841	0	0	-nan
0.0001106	0	0	-nan
0.000111107	0	0	-nan
0.00011131	0	0	-nan
0.000113323	0	0	-nan
0.000114376	0	0	-nan
0.000114875	0	0	-nan
0.00011544	0	0	-nan
0.000115644	0	0	-nan
0.000116944	0	0	-nan
0.00011763	0	0	-nan
0.000118105	0	0	-nan
0.000118205	0	0	-nan
0.000118226	0	0	-nan
0.000118356	0	0	-nan
0.000120434	0	0	-nan
0.00012072	0	0	-nan
0.000121113	0	0	-nan
0.000121842	0	0	-nan
0.000122129	0	0	-nan
0.000123121	0	0	-nan
0.000123855	0	0	-nan
0.000123883	0	0	-nan
0.000124021	0	0	-nan
0.00012487	0	0	-nan
0.000125305	0	0	-nan
0.000125506	0	0	-nan
0.000125564	0	0	-nan
0.000128542	0	0	-nan
0.00012921	0	0	-nan
0.000129608	0	0	-nan
0.000130418	0	0	-nan
0.000131308	0	0	-nan
0.000131455	0	0	-nan
0.000134126	0	0	-nan
0.000134754	0	0	-nan
0.000135318	0	0	-nan
0.000136152	0	0	-nan
0.000136465	0	0	-nan
0.000136591	0	0	-nan
0.000136632	0	0	-nan
0.000136702	0	0	-nan
0.000137102	0	0	-nan
0.00013801	0	0	-nan
0.000142588	0	0	-nan
0.000144395	0	0	-nan
0.000147529	0	0	-nan
0.000147676	0	0	-nan
0.000150361	0	0	-nan
0.000153063	0	0	-nan
0.000154177	0	0	-nan
0.000155228	0	0	-nan
0.000159046	0	0	-nan
0.000159659	0	0	-nan
0.000160348	0	0	-nan
0.000161611	0	0	-nan
0.00016341	0	0	-nan
0.00016643	0	0	-nan
0.000169524	0	0	-nan
0.000170715	0	0	-nan
0.000174801	0	0	-nan
0.000180624	0	0	-nan
0.000181142	0	0	-nan
0.000182211	0	0	-nan
0.000183042	0	0	-nan
0.000189	0	0	-nan
0.000190663	0	0	-nan
0.00019126	0	0	-nan
0.000195066	0	0	-nan
0.000207265	0	0	-nan
0.000207402	0	0	-nan
0.000209076	0	0	-nan
0.000216334	0	0	-nan
0.000222926	0	0	-nan
0.00022457	0	0	-nan
0.000230236	0	0	-nan
0.00023068	0	0	-nan
0.00023154	0	0	-nan
0.000234863	0	0	-nan
0.000249552	0	0	-nan
0.00025701	0	0	-nan
0.000260358	0	0	-nan
0.000262324	0	0	-nan
0.000266842	0	0	-nan
0.000271608	0	0	-nan
0.000272749	0	0	-nan
0.000276477	0	0	-nan
0.000297332	0	0	-nan
0.000305294	0	0	-nan
0.00032869	0	0	-nan
0.000331606	0	0	-nan
0.000337721	0	0	-nan
0.000338281	0	0	-nan
0.000345993	0	0	-nan
0.000387004	0	0	-nan
0.000388422	0	0	-nan
0.000389812	0	0	-nan
0.000410541	0	0	-nan
0.000413969	0	0	-nan
0.000454832	0	0	-nan
0.000467006	0	0	-nan
0.000481639	0	0	-nan
0.00050397	0	0	-nan
0.000526935	0	0	-nan
0.000577794	0	0	-nan
0.000578288	0	0	-nan
0.00064246	0	0	-nan
0.000651448	0	0	-nan
0.000651648	0	0	-nan
0.000657553	0	0	-nan
0.000666791	0	0	-nan
0.000682605	0	0	-nan
0.000685935	0	0	-nan
0.000701698	0	0	-nan
0.0007289	0	0	-nan
0.000734258	0	0	-nan
0.000734334	0	0	-nan
0.000779045	0	0	-nan
0.000782361	0	0	-nan
0.000850784	0	0	-nan
0.000903887	0	0	-nan
0.000919481	0	0	-nan
0.000920471	0	0	-nan
0.000976713	0	0	-nan
0.00101266	0	0	-nan
0.00113674	0	0	-nan
0.00114846	0	0	-nan
0.00121784	0	0	-nan
0.00123086	0	0	-nan
0.00133401	0	0	-nan
0.00145443	0	0	-nan
0.00188195	0	0	-nan
0.00198591	0	0	-nan
0.00218153	0	0	-nan
0.00219678	0	0	-nan
0.00231108	0	0	-nan
0.00247993	0	0	-nan
0.00257741	0	0	-nan
