1.07323e-08	0	0	-nan
1.94809e-08	0	0	-nan
2.93294e-08	0	0	-nan
4.81141e-08	0	0	-nan
5.02631e-08	0	0	-nan
6.76414e-08	0	0	-nan
7.02372e-08	0	0	-nan
7.13938e-08	0	0	-nan
9.28614e-08	0	0	-nan
1.07956e-07	0	0	-nan
1.45702e-07	0	0	-nan
1.49003e-07	0	0	-nan
1.65836e-07	0	0	-nan
1.96046e-07	0	0	-nan
2.18463e-07	0	0	-nan
2.34183e-07	0	0	-nan
2.48639e-07	0	0	-nan
2.77866e-07	0	0	-nan
3.16856e-07	0	0	-nan
3.2716e-07	0	0	-nan
3.36146e-07	0	0	-nan
3.40731e-07	0	0	-nan
3.48263e-07	0	0	-nan
3.59866e-07	0	0	-nan
3.77662e-07	0	0	-nan
3.78706e-07	0	0	-nan
3.80136e-07	0	0	-nan
3.84972e-07	0	0	-nan
3.94363e-07	0	0	-nan
4.00921e-07	0	0	-nan
4.01244e-07	0	0	-nan
4.10625e-07	0	0	-nan
4.41303e-07	0	0	-nan
4.45728e-07	0	0	-nan
4.84522e-07	0	0	-nan
4.85803e-07	0	0	-nan
4.89765e-07	0	0	-nan
4.94419e-07	0	0	-nan
4.98025e-07	0	0	-nan
5.00209e-07	0	0	-nan
5.1261e-07	0	0	-nan
5.12632e-07	0	0	-nan
5.29749e-07	0	0	-nan
5.3056e-07	0	0	-nan
6.10775e-07	0	0	-nan
6.13558e-07	0	0	-nan
6.14395e-07	0	0	-nan
6.15565e-07	0	0	-nan
6.44455e-07	0	0	-nan
6.95516e-07	0	0	-nan
7.09865e-07	0	0	-nan
7.1218e-07	0	0	-nan
7.247e-07	0	0	-nan
7.43287e-07	0	0	-nan
7.44569e-07	0	0	-nan
7.65512e-07	0	0	-nan
7.73497e-07	0	0	-nan
7.8981e-07	0	0	-nan
7.94047e-07	0	0	-nan
7.96187e-07	0	0	-nan
8.05367e-07	0	0	-nan
8.11326e-07	0	0	-nan
8.46011e-07	0	0	-nan
8.51768e-07	0	0	-nan
8.67856e-07	0	0	-nan
9.286e-07	0	0	-nan
9.58604e-07	0	0	-nan
9.64747e-07	0	0	-nan
9.69396e-07	0	0	-nan
9.96069e-07	0	0	-nan
1.00428e-06	0	0	-nan
1.00724e-06	0	0	-nan
1.01981e-06	0	0	-nan
1.03907e-06	0	0	-nan
1.04318e-06	0	0	-nan
1.06593e-06	0	0	-nan
1.06655e-06	0	0	-nan
1.12758e-06	0	0	-nan
1.13273e-06	0	0	-nan
1.15395e-06	0	0	-nan
1.18043e-06	0	0	-nan
1.18279e-06	0	0	-nan
1.18382e-06	0	0	-nan
1.18555e-06	0	0	-nan
1.18723e-06	0	0	-nan
1.21404e-06	0	0	-nan
1.22692e-06	0	0	-nan
1.28601e-06	0	0	-nan
1.29794e-06	0	0	-nan
1.30674e-06	0	0	-nan
1.33068e-06	0	0	-nan
1.34079e-06	0	0	-nan
1.34318e-06	0	0	-nan
1.38136e-06	0	0	-nan
1.39253e-06	0	0	-nan
1.39334e-06	0	0	-nan
1.4046e-06	0	0	-nan
1.44176e-06	0	0	-nan
1.48968e-06	0	0	-nan
1.49869e-06	0	0	-nan
1.52786e-06	0	0	-nan
1.54854e-06	0	0	-nan
1.58469e-06	0	0	-nan
1.62893e-06	0	0	-nan
1.65896e-06	0	0	-nan
1.66821e-06	0	0	-nan
1.70279e-06	0	0	-nan
1.70624e-06	0	0	-nan
1.71291e-06	0	0	-nan
1.71316e-06	0	0	-nan
1.72025e-06	0	0	-nan
1.73115e-06	0	0	-nan
1.73884e-06	0	0	-nan
1.74388e-06	0	0	-nan
1.7624e-06	0	0	-nan
1.76252e-06	0	0	-nan
1.76687e-06	0	0	-nan
1.78647e-06	0	0	-nan
1.80942e-06	0	0	-nan
1.81036e-06	0	0	-nan
1.815e-06	0	0	-nan
1.82033e-06	0	0	-nan
1.83916e-06	0	0	-nan
1.8556e-06	0	0	-nan
1.89419e-06	0	0	-nan
1.92172e-06	0	0	-nan
1.92991e-06	0	0	-nan
2.04423e-06	0	0	-nan
2.05688e-06	0	0	-nan
2.06317e-06	0	0	-nan
2.08807e-06	0	0	-nan
2.14701e-06	0	0	-nan
2.15802e-06	0	0	-nan
2.16492e-06	0	0	-nan
2.1813e-06	0	0	-nan
2.20164e-06	0	0	-nan
2.23452e-06	0	0	-nan
2.24043e-06	0	0	-nan
2.25101e-06	0	0	-nan
2.25456e-06	0	0	-nan
2.2709e-06	0	0	-nan
2.33951e-06	0	0	-nan
2.34573e-06	0	0	-nan
2.37587e-06	0	0	-nan
2.38082e-06	0	0	-nan
2.42593e-06	0	0	-nan
2.43411e-06	0	0	-nan
2.44004e-06	0	0	-nan
2.47756e-06	0	0	-nan
2.48994e-06	0	0	-nan
2.5513e-06	0	0	-nan
2.56839e-06	0	0	-nan
2.59403e-06	0	0	-nan
2.60645e-06	0	0	-nan
2.62495e-06	0	0	-nan
2.65268e-06	0	0	-nan
2.66549e-06	0	0	-nan
2.70096e-06	0	0	-nan
2.72244e-06	0	0	-nan
2.72444e-06	0	0	-nan
2.75041e-06	0	0	-nan
2.75235e-06	0	0	-nan
2.76314e-06	0	0	-nan
2.78685e-06	0	0	-nan
2.82904e-06	0	0	-nan
2.83447e-06	0	0	-nan
2.84152e-06	0	0	-nan
2.84161e-06	0	0	-nan
2.85486e-06	0	0	-nan
2.88621e-06	0	0	-nan
2.89828e-06	0	0	-nan
2.91251e-06	0	0	-nan
2.9407e-06	0	0	-nan
2.94157e-06	0	0	-nan
2.98828e-06	0	0	-nan
3.03435e-06	0	0	-nan
3.07133e-06	0	0	-nan
3.08126e-06	0	0	-nan
3.08789e-06	0	0	-nan
3.09357e-06	0	0	-nan
3.10162e-06	0	0	-nan
3.10355e-06	0	0	-nan
3.1078e-06	0	0	-nan
3.11216e-06	0	0	-nan
3.11227e-06	0	0	-nan
3.11418e-06	0	0	-nan
3.13984e-06	0	0	-nan
3.1447e-06	0	0	-nan
3.15841e-06	0	0	-nan
3.19478e-06	0	0	-nan
3.19934e-06	0	0	-nan
3.20291e-06	0	0	-nan
3.21457e-06	0	0	-nan
3.2186e-06	0	0	-nan
3.25986e-06	0	0	-nan
3.26395e-06	0	0	-nan
3.26626e-06	0	0	-nan
3.27582e-06	0	0	-nan
3.27745e-06	0	0	-nan
3.34319e-06	0	0	-nan
3.34807e-06	0	0	-nan
3.366e-06	0	0	-nan
3.36899e-06	0	0	-nan
3.38196e-06	0	0	-nan
3.40979e-06	0	0	-nan
3.41e-06	0	0	-nan
3.41168e-06	0	0	-nan
3.41557e-06	0	0	-nan
3.4163e-06	0	0	-nan
3.4346e-06	0	0	-nan
3.45161e-06	0	0	-nan
3.47803e-06	0	0	-nan
3.51047e-06	0	0	-nan
3.51829e-06	0	0	-nan
3.52288e-06	0	0	-nan
3.57086e-06	0	0	-nan
3.59316e-06	0	0	-nan
3.60834e-06	0	0	-nan
3.63223e-06	0	0	-nan
3.63554e-06	0	0	-nan
3.64378e-06	0	0	-nan
3.64601e-06	0	0	-nan
3.69514e-06	0	0	-nan
3.73033e-06	0	0	-nan
3.73129e-06	0	0	-nan
3.75809e-06	0	0	-nan
3.78785e-06	0	0	-nan
3.79834e-06	0	0	-nan
3.8034e-06	0	0	-nan
3.82631e-06	0	0	-nan
3.84905e-06	0	0	-nan
3.86744e-06	0	0	-nan
3.87825e-06	0	0	-nan
3.89657e-06	0	0	-nan
3.97411e-06	0	0	-nan
4.02729e-06	0	0	-nan
4.10817e-06	0	0	-nan
4.11428e-06	0	0	-nan
4.1444e-06	0	0	-nan
4.16573e-06	0	0	-nan
4.17057e-06	0	0	-nan
4.18226e-06	0	0	-nan
4.20948e-06	0	0	-nan
4.22662e-06	0	0	-nan
4.24026e-06	0	0	-nan
4.24852e-06	0	0	-nan
4.2523e-06	0	0	-nan
4.25436e-06	0	0	-nan
4.2739e-06	0	0	-nan
4.30246e-06	0	0	-nan
4.3034e-06	0	0	-nan
4.31387e-06	0	0	-nan
4.34224e-06	0	0	-nan
4.35741e-06	0	0	-nan
4.36545e-06	0	0	-nan
4.40051e-06	0	0	-nan
4.40172e-06	0	0	-nan
4.41452e-06	0	0	-nan
4.41518e-06	0	0	-nan
4.41693e-06	0	0	-nan
4.43624e-06	0	0	-nan
4.47572e-06	0	0	-nan
4.50063e-06	0	0	-nan
4.50336e-06	0	0	-nan
4.50851e-06	0	0	-nan
4.51951e-06	0	0	-nan
4.53222e-06	0	0	-nan
4.55129e-06	0	0	-nan
4.56623e-06	0	0	-nan
4.56626e-06	0	0	-nan
4.56945e-06	0	0	-nan
4.59625e-06	0	0	-nan
4.60079e-06	0	0	-nan
4.63357e-06	0	0	-nan
4.66591e-06	0	0	-nan
4.68744e-06	0	0	-nan
4.6943e-06	0	0	-nan
4.69984e-06	0	0	-nan
4.71921e-06	0	0	-nan
4.72751e-06	0	0	-nan
4.73838e-06	0	0	-nan
4.78247e-06	0	0	-nan
4.82013e-06	0	0	-nan
4.8517e-06	0	0	-nan
4.90086e-06	0	0	-nan
4.92334e-06	0	0	-nan
4.98837e-06	0	0	-nan
5.00537e-06	0	0	-nan
5.00967e-06	0	0	-nan
5.02091e-06	0	0	-nan
5.05017e-06	0	0	-nan
5.06626e-06	0	0	-nan
5.07914e-06	0	0	-nan
5.07918e-06	0	0	-nan
5.09247e-06	0	0	-nan
5.09302e-06	0	0	-nan
5.09795e-06	0	0	-nan
5.16969e-06	0	0	-nan
5.17478e-06	0	0	-nan
5.19723e-06	0	0	-nan
5.20183e-06	0	0	-nan
5.20689e-06	0	0	-nan
5.20741e-06	0	0	-nan
5.22465e-06	0	0	-nan
5.24394e-06	0	0	-nan
5.24908e-06	0	0	-nan
5.27011e-06	0	0	-nan
5.27636e-06	0	0	-nan
5.2777e-06	0	0	-nan
5.30966e-06	0	0	-nan
5.35594e-06	0	0	-nan
5.37955e-06	0	0	-nan
5.38461e-06	0	0	-nan
5.40376e-06	0	0	-nan
5.41695e-06	0	0	-nan
5.43516e-06	0	0	-nan
5.44546e-06	0	0	-nan
5.47473e-06	0	0	-nan
5.48453e-06	0	0	-nan
5.50524e-06	0	0	-nan
5.51786e-06	0	0	-nan
5.53343e-06	0	0	-nan
5.56363e-06	0	0	-nan
5.58143e-06	0	0	-nan
5.58998e-06	0	0	-nan
5.65096e-06	0	0	-nan
5.73929e-06	0	0	-nan
5.7535e-06	0	0	-nan
5.76e-06	0	0	-nan
5.76437e-06	0	0	-nan
5.77292e-06	0	0	-nan
5.79711e-06	0	0	-nan
5.8217e-06	0	0	-nan
5.85179e-06	0	0	-nan
5.91741e-06	0	0	-nan
5.98365e-06	0	0	-nan
6.00123e-06	0	0	-nan
6.02061e-06	0	0	-nan
6.02535e-06	0	0	-nan
6.0404e-06	0	0	-nan
6.06747e-06	0	0	-nan
6.07778e-06	0	0	-nan
6.10864e-06	0	0	-nan
6.1109e-06	0	0	-nan
6.16654e-06	0	0	-nan
6.16836e-06	0	0	-nan
6.17789e-06	0	0	-nan
6.17878e-06	0	0	-nan
6.1876e-06	0	0	-nan
6.21817e-06	0	0	-nan
6.23487e-06	0	0	-nan
6.33034e-06	0	0	-nan
6.34556e-06	0	0	-nan
6.34789e-06	0	0	-nan
6.37718e-06	0	0	-nan
6.37829e-06	0	0	-nan
6.43215e-06	0	0	-nan
6.43772e-06	0	0	-nan
6.45145e-06	0	0	-nan
6.45348e-06	0	0	-nan
6.4633e-06	0	0	-nan
6.4748e-06	0	0	-nan
6.48038e-06	0	0	-nan
6.48785e-06	0	0	-nan
6.49262e-06	0	0	-nan
6.5304e-06	0	0	-nan
6.53404e-06	0	0	-nan
6.58023e-06	0	0	-nan
6.61006e-06	0	0	-nan
6.6824e-06	0	0	-nan
6.78347e-06	0	0	-nan
6.83816e-06	0	0	-nan
6.8513e-06	0	0	-nan
6.87226e-06	0	0	-nan
6.93736e-06	0	0	-nan
6.97691e-06	0	0	-nan
6.97694e-06	0	0	-nan
7.06205e-06	0	0	-nan
7.07062e-06	0	0	-nan
7.09234e-06	0	0	-nan
7.11104e-06	0	0	-nan
7.13232e-06	0	0	-nan
7.14727e-06	0	0	-nan
7.14897e-06	0	0	-nan
7.15757e-06	0	0	-nan
7.19822e-06	0	0	-nan
7.23162e-06	0	0	-nan
7.24844e-06	0	0	-nan
7.33877e-06	0	0	-nan
7.3467e-06	0	0	-nan
7.46895e-06	0	0	-nan
7.47632e-06	0	0	-nan
7.52342e-06	0	0	-nan
7.52754e-06	0	0	-nan
7.5553e-06	0	0	-nan
7.57187e-06	0	0	-nan
7.59581e-06	0	0	-nan
7.60562e-06	0	0	-nan
7.6283e-06	0	0	-nan
7.70301e-06	0	0	-nan
7.74474e-06	0	0	-nan
7.74756e-06	0	0	-nan
7.74956e-06	0	0	-nan
7.76305e-06	0	0	-nan
7.7879e-06	0	0	-nan
7.80295e-06	0	0	-nan
7.81947e-06	0	0	-nan
7.83242e-06	0	0	-nan
7.83886e-06	0	0	-nan
7.85083e-06	0	0	-nan
7.858e-06	0	0	-nan
7.85915e-06	0	0	-nan
7.8785e-06	0	0	-nan
7.88992e-06	0	0	-nan
7.93087e-06	0	0	-nan
7.97631e-06	0	0	-nan
8.07869e-06	0	0	-nan
8.12811e-06	0	0	-nan
8.15905e-06	0	0	-nan
8.16875e-06	0	0	-nan
8.18811e-06	0	0	-nan
8.19537e-06	0	0	-nan
8.20856e-06	0	0	-nan
8.22915e-06	0	0	-nan
8.24959e-06	0	0	-nan
8.27699e-06	0	0	-nan
8.32189e-06	0	0	-nan
8.34293e-06	0	0	-nan
8.39088e-06	0	0	-nan
8.41321e-06	0	0	-nan
8.43875e-06	0	0	-nan
8.45134e-06	0	0	-nan
8.45285e-06	0	0	-nan
8.54702e-06	0	0	-nan
8.56236e-06	0	0	-nan
8.59757e-06	0	0	-nan
8.6269e-06	0	0	-nan
8.64735e-06	0	0	-nan
8.68368e-06	0	0	-nan
8.70191e-06	0	0	-nan
8.71465e-06	0	0	-nan
8.7219e-06	0	0	-nan
8.73332e-06	0	0	-nan
8.74106e-06	0	0	-nan
8.81676e-06	0	0	-nan
8.82785e-06	0	0	-nan
8.84143e-06	0	0	-nan
8.84404e-06	0	0	-nan
8.85755e-06	0	0	-nan
8.86681e-06	0	0	-nan
8.88744e-06	0	0	-nan
8.95168e-06	0	0	-nan
9.03415e-06	0	0	-nan
9.03854e-06	0	0	-nan
9.05566e-06	0	0	-nan
9.19909e-06	0	0	-nan
9.20948e-06	0	0	-nan
9.21715e-06	0	0	-nan
9.28381e-06	0	0	-nan
9.2925e-06	0	0	-nan
9.32268e-06	0	0	-nan
9.33024e-06	0	0	-nan
9.37332e-06	0	0	-nan
9.38333e-06	0	0	-nan
9.42688e-06	0	0	-nan
9.42879e-06	0	0	-nan
9.43318e-06	0	0	-nan
9.50325e-06	0	0	-nan
9.57194e-06	0	0	-nan
9.57703e-06	0	0	-nan
9.58159e-06	0	0	-nan
9.6988e-06	0	0	-nan
9.69974e-06	0	0	-nan
9.7947e-06	0	0	-nan
9.79933e-06	0	0	-nan
9.80673e-06	0	0	-nan
9.81064e-06	0	0	-nan
9.81741e-06	0	0	-nan
9.87579e-06	0	0	-nan
9.90888e-06	0	0	-nan
9.91106e-06	0	0	-nan
9.97711e-06	0	0	-nan
9.97993e-06	0	0	-nan
9.99512e-06	0	0	-nan
1.00208e-05	0	0	-nan
1.00475e-05	0	0	-nan
1.0087e-05	0	0	-nan
1.00936e-05	0	0	-nan
1.01088e-05	0	0	-nan
1.01266e-05	0	0	-nan
1.01329e-05	0	0	-nan
1.02458e-05	0	0	-nan
1.02622e-05	0	0	-nan
1.02666e-05	0	0	-nan
1.02814e-05	0	0	-nan
1.02845e-05	0	0	-nan
1.03346e-05	0	0	-nan
1.0401e-05	0	0	-nan
1.0414e-05	0	0	-nan
1.05569e-05	0	0	-nan
1.05689e-05	0	0	-nan
1.0603e-05	0	0	-nan
1.06125e-05	0	0	-nan
1.06162e-05	0	0	-nan
1.0634e-05	0	0	-nan
1.06348e-05	0	0	-nan
1.06601e-05	0	0	-nan
1.06809e-05	0	0	-nan
1.06854e-05	0	0	-nan
1.07647e-05	0	0	-nan
1.07928e-05	0	0	-nan
1.07971e-05	0	0	-nan
1.08646e-05	0	0	-nan
1.08774e-05	0	0	-nan
1.09127e-05	0	0	-nan
1.09136e-05	0	0	-nan
1.09798e-05	0	0	-nan
1.09824e-05	0	0	-nan
1.099e-05	0	0	-nan
1.10066e-05	0	0	-nan
1.10103e-05	0	0	-nan
1.10227e-05	0	0	-nan
1.10817e-05	0	0	-nan
1.1115e-05	0	0	-nan
1.11215e-05	0	0	-nan
1.11265e-05	0	0	-nan
1.11339e-05	0	0	-nan
1.11863e-05	0	0	-nan
1.1219e-05	0	0	-nan
1.12296e-05	0	0	-nan
1.12782e-05	0	0	-nan
1.13663e-05	0	0	-nan
1.14765e-05	0	0	-nan
1.15025e-05	0	0	-nan
1.15266e-05	0	0	-nan
1.1549e-05	0	0	-nan
1.16703e-05	0	0	-nan
1.17262e-05	0	0	-nan
1.17627e-05	0	0	-nan
1.18343e-05	0	0	-nan
1.18573e-05	0	0	-nan
1.18835e-05	0	0	-nan
1.19135e-05	0	0	-nan
1.19346e-05	0	0	-nan
1.1952e-05	0	0	-nan
1.20002e-05	0	0	-nan
1.20949e-05	0	0	-nan
1.20959e-05	0	0	-nan
1.21456e-05	0	0	-nan
1.21484e-05	0	0	-nan
1.21548e-05	0	0	-nan
1.21687e-05	0	0	-nan
1.22474e-05	0	0	-nan
1.22506e-05	0	0	-nan
1.22844e-05	0	0	-nan
1.22948e-05	0	0	-nan
1.2343e-05	0	0	-nan
1.23487e-05	0	0	-nan
1.23523e-05	0	0	-nan
1.24387e-05	0	0	-nan
1.24487e-05	0	0	-nan
1.24681e-05	0	0	-nan
1.25621e-05	0	0	-nan
1.25702e-05	0	0	-nan
1.25978e-05	0	0	-nan
1.26331e-05	0	0	-nan
1.27158e-05	0	0	-nan
1.27476e-05	0	0	-nan
1.2802e-05	0	0	-nan
1.28127e-05	0	0	-nan
1.2846e-05	0	0	-nan
1.28934e-05	0	0	-nan
1.29308e-05	0	0	-nan
1.2933e-05	0	0	-nan
1.30223e-05	0	0	-nan
1.30796e-05	0	0	-nan
1.30837e-05	0	0	-nan
1.31599e-05	0	0	-nan
1.32345e-05	0	0	-nan
1.32421e-05	0	0	-nan
1.33246e-05	0	0	-nan
1.34662e-05	0	0	-nan
1.35665e-05	0	0	-nan
1.36011e-05	0	0	-nan
1.36726e-05	0	0	-nan
1.36884e-05	0	0	-nan
1.37258e-05	0	0	-nan
1.37304e-05	0	0	-nan
1.38074e-05	0	0	-nan
1.38096e-05	0	0	-nan
1.38488e-05	0	0	-nan
1.38536e-05	0	0	-nan
1.38591e-05	0	0	-nan
1.38859e-05	0	0	-nan
1.39746e-05	0	0	-nan
1.40225e-05	0	0	-nan
1.40399e-05	0	0	-nan
1.40819e-05	0	0	-nan
1.4143e-05	0	0	-nan
1.4146e-05	0	0	-nan
1.41608e-05	0	0	-nan
1.41635e-05	0	0	-nan
1.41835e-05	0	0	-nan
1.41968e-05	0	0	-nan
1.42018e-05	0	0	-nan
1.42659e-05	0	0	-nan
1.43373e-05	0	0	-nan
1.43787e-05	0	0	-nan
1.438e-05	0	0	-nan
1.44701e-05	0	0	-nan
1.45433e-05	0	0	-nan
1.45872e-05	0	0	-nan
1.47053e-05	0	0	-nan
1.47249e-05	0	0	-nan
1.47517e-05	0	0	-nan
1.47672e-05	0	0	-nan
1.47978e-05	0	0	-nan
1.48037e-05	0	0	-nan
1.48192e-05	0	0	-nan
1.48265e-05	0	0	-nan
1.49205e-05	0	0	-nan
1.49409e-05	0	0	-nan
1.49638e-05	0	0	-nan
1.49835e-05	0	0	-nan
1.5067e-05	0	0	-nan
1.51319e-05	0	0	-nan
1.52059e-05	0	0	-nan
1.52492e-05	0	0	-nan
1.5255e-05	0	0	-nan
1.52746e-05	0	0	-nan
1.52804e-05	0	0	-nan
1.52945e-05	0	0	-nan
1.53204e-05	0	0	-nan
1.54134e-05	0	0	-nan
1.54835e-05	0	0	-nan
1.55417e-05	0	0	-nan
1.55846e-05	0	0	-nan
1.5601e-05	0	0	-nan
1.56281e-05	0	0	-nan
1.56291e-05	0	0	-nan
1.56312e-05	0	0	-nan
1.56474e-05	0	0	-nan
1.5657e-05	0	0	-nan
1.56718e-05	0	0	-nan
1.58084e-05	0	0	-nan
1.5891e-05	0	0	-nan
1.59348e-05	0	0	-nan
1.5947e-05	0	0	-nan
1.59501e-05	0	0	-nan
1.61753e-05	0	0	-nan
1.62074e-05	0	0	-nan
1.62423e-05	0	0	-nan
1.62823e-05	0	0	-nan
1.62991e-05	0	0	-nan
1.63355e-05	0	0	-nan
1.6393e-05	0	0	-nan
1.63931e-05	0	0	-nan
1.65749e-05	0	0	-nan
1.66661e-05	0	0	-nan
1.67271e-05	0	0	-nan
1.67774e-05	0	0	-nan
1.67845e-05	0	0	-nan
1.68556e-05	0	0	-nan
1.68863e-05	0	0	-nan
1.6894e-05	0	0	-nan
1.69415e-05	0	0	-nan
1.7032e-05	0	0	-nan
1.7034e-05	0	0	-nan
1.704e-05	0	0	-nan
1.70864e-05	0	0	-nan
1.71242e-05	0	0	-nan
1.71722e-05	0	0	-nan
1.71734e-05	0	0	-nan
1.73923e-05	0	0	-nan
1.75164e-05	0	0	-nan
1.76296e-05	0	0	-nan
1.76552e-05	0	0	-nan
1.7838e-05	0	0	-nan
1.7867e-05	0	0	-nan
1.79214e-05	0	0	-nan
1.79264e-05	0	0	-nan
1.80064e-05	0	0	-nan
1.80362e-05	0	0	-nan
1.80748e-05	0	0	-nan
1.8127e-05	0	0	-nan
1.81381e-05	0	0	-nan
1.81398e-05	0	0	-nan
1.82586e-05	0	0	-nan
1.83403e-05	0	0	-nan
1.83554e-05	0	0	-nan
1.8436e-05	0	0	-nan
1.85369e-05	0	0	-nan
1.85691e-05	0	0	-nan
1.85929e-05	0	0	-nan
1.86012e-05	0	0	-nan
1.86031e-05	0	0	-nan
1.88039e-05	0	0	-nan
1.89644e-05	0	0	-nan
1.89695e-05	0	0	-nan
1.89758e-05	0	0	-nan
1.8987e-05	0	0	-nan
1.91333e-05	0	0	-nan
1.91573e-05	0	0	-nan
1.91679e-05	0	0	-nan
1.9254e-05	0	0	-nan
1.92979e-05	0	0	-nan
1.93006e-05	0	0	-nan
1.93484e-05	0	0	-nan
1.94293e-05	0	0	-nan
1.94923e-05	0	0	-nan
1.95141e-05	0	0	-nan
1.95148e-05	0	0	-nan
1.96873e-05	0	0	-nan
1.97433e-05	0	0	-nan
1.98085e-05	0	0	-nan
2.00775e-05	0	0	-nan
2.01136e-05	0	0	-nan
2.01187e-05	0	0	-nan
2.01874e-05	0	0	-nan
2.02236e-05	0	0	-nan
2.03245e-05	0	0	-nan
2.04413e-05	0	0	-nan
2.04849e-05	0	0	-nan
2.05983e-05	0	0	-nan
2.06783e-05	0	0	-nan
2.07043e-05	0	0	-nan
2.07082e-05	0	0	-nan
2.07473e-05	0	0	-nan
2.07601e-05	0	0	-nan
2.08121e-05	0	0	-nan
2.08899e-05	0	0	-nan
2.09997e-05	0	0	-nan
2.10467e-05	0	0	-nan
2.11322e-05	0	0	-nan
2.11637e-05	0	0	-nan
2.11758e-05	0	0	-nan
2.14031e-05	0	0	-nan
2.14235e-05	0	0	-nan
2.14792e-05	0	0	-nan
2.16103e-05	0	0	-nan
2.18511e-05	0	0	-nan
2.21212e-05	0	0	-nan
2.23967e-05	0	0	-nan
2.24061e-05	0	0	-nan
2.24473e-05	0	0	-nan
2.25056e-05	0	0	-nan
2.25663e-05	0	0	-nan
2.25836e-05	0	0	-nan
2.26048e-05	0	0	-nan
2.26076e-05	0	0	-nan
2.26152e-05	0	0	-nan
2.2634e-05	0	0	-nan
2.26615e-05	0	0	-nan
2.26799e-05	0	0	-nan
2.28592e-05	0	0	-nan
2.28804e-05	0	0	-nan
2.29184e-05	0	0	-nan
2.29201e-05	0	0	-nan
2.29969e-05	0	0	-nan
2.30016e-05	0	0	-nan
2.32482e-05	0	0	-nan
2.32944e-05	0	0	-nan
2.33077e-05	0	0	-nan
2.3448e-05	0	0	-nan
2.34952e-05	0	0	-nan
2.35166e-05	0	0	-nan
2.37022e-05	0	0	-nan
2.39276e-05	0	0	-nan
2.39928e-05	0	0	-nan
2.40367e-05	0	0	-nan
2.4052e-05	0	0	-nan
2.40786e-05	0	0	-nan
2.41369e-05	0	0	-nan
2.42235e-05	0	0	-nan
2.43134e-05	0	0	-nan
2.43151e-05	0	0	-nan
2.43933e-05	0	0	-nan
2.44507e-05	0	0	-nan
2.45138e-05	0	0	-nan
2.45558e-05	0	0	-nan
2.45938e-05	0	0	-nan
2.4655e-05	0	0	-nan
2.4681e-05	0	0	-nan
2.4717e-05	0	0	-nan
2.4853e-05	0	0	-nan
2.48887e-05	0	0	-nan
2.49046e-05	0	0	-nan
2.49056e-05	0	0	-nan
2.49087e-05	0	0	-nan
2.50618e-05	0	0	-nan
2.5073e-05	0	0	-nan
2.50891e-05	0	0	-nan
2.50947e-05	0	0	-nan
2.51005e-05	0	0	-nan
2.51105e-05	0	0	-nan
2.51174e-05	0	0	-nan
2.51971e-05	0	0	-nan
2.52331e-05	0	0	-nan
2.52504e-05	0	0	-nan
2.53565e-05	0	0	-nan
2.53624e-05	0	0	-nan
2.54328e-05	0	0	-nan
2.54561e-05	0	0	-nan
2.54871e-05	0	0	-nan
2.55156e-05	0	0	-nan
2.55289e-05	0	0	-nan
2.55789e-05	0	0	-nan
2.56123e-05	0	0	-nan
2.5778e-05	0	0	-nan
2.58071e-05	0	0	-nan
2.58272e-05	0	0	-nan
2.58347e-05	0	0	-nan
2.59193e-05	0	0	-nan
2.60548e-05	0	0	-nan
2.60904e-05	0	0	-nan
2.61284e-05	0	0	-nan
2.61473e-05	0	0	-nan
2.61535e-05	0	0	-nan
2.62019e-05	0	0	-nan
2.63283e-05	0	0	-nan
2.63498e-05	0	0	-nan
2.63521e-05	0	0	-nan
2.6391e-05	0	0	-nan
2.65114e-05	0	0	-nan
2.65416e-05	0	0	-nan
2.65643e-05	0	0	-nan
2.66734e-05	0	0	-nan
2.67472e-05	0	0	-nan
2.70472e-05	0	0	-nan
2.7082e-05	0	0	-nan
2.71348e-05	0	0	-nan
2.71842e-05	0	0	-nan
2.72208e-05	0	0	-nan
2.73527e-05	0	0	-nan
2.74913e-05	0	0	-nan
2.75258e-05	0	0	-nan
2.75291e-05	0	0	-nan
2.775e-05	0	0	-nan
2.80031e-05	0	0	-nan
2.81363e-05	0	0	-nan
2.81804e-05	0	0	-nan
2.83957e-05	0	0	-nan
2.84242e-05	0	0	-nan
2.85025e-05	0	0	-nan
2.88004e-05	0	0	-nan
2.88237e-05	0	0	-nan
2.8836e-05	0	0	-nan
2.9152e-05	0	0	-nan
2.91589e-05	0	0	-nan
2.91718e-05	0	0	-nan
2.92179e-05	0	0	-nan
2.92887e-05	0	0	-nan
2.9407e-05	0	0	-nan
2.94852e-05	0	0	-nan
2.96416e-05	0	0	-nan
2.96471e-05	0	0	-nan
2.98007e-05	0	0	-nan
2.98428e-05	0	0	-nan
2.98837e-05	0	0	-nan
2.98943e-05	0	0	-nan
3.00459e-05	0	0	-nan
3.00488e-05	0	0	-nan
3.00579e-05	0	0	-nan
3.02607e-05	0	0	-nan
3.03322e-05	0	0	-nan
3.03733e-05	0	0	-nan
3.06065e-05	0	0	-nan
3.06214e-05	0	0	-nan
3.07219e-05	0	0	-nan
3.07317e-05	0	0	-nan
3.07616e-05	0	0	-nan
3.08229e-05	0	0	-nan
3.10688e-05	0	0	-nan
3.11145e-05	0	0	-nan
3.12108e-05	0	0	-nan
3.13274e-05	0	0	-nan
3.14364e-05	0	0	-nan
3.14617e-05	0	0	-nan
3.14716e-05	0	0	-nan
3.14927e-05	0	0	-nan
3.15919e-05	0	0	-nan
3.17597e-05	0	0	-nan
3.19896e-05	0	0	-nan
3.19972e-05	0	0	-nan
3.20859e-05	0	0	-nan
3.21519e-05	0	0	-nan
3.22035e-05	0	0	-nan
3.23705e-05	0	0	-nan
3.23895e-05	0	0	-nan
3.25998e-05	0	0	-nan
3.26672e-05	0	0	-nan
3.26764e-05	0	0	-nan
3.27649e-05	0	0	-nan
3.28315e-05	0	0	-nan
3.29004e-05	0	0	-nan
3.29495e-05	0	0	-nan
3.29921e-05	0	0	-nan
3.30172e-05	0	0	-nan
3.30498e-05	0	0	-nan
3.30813e-05	0	0	-nan
3.30933e-05	0	0	-nan
3.31035e-05	0	0	-nan
3.32106e-05	0	0	-nan
3.32174e-05	0	0	-nan
3.32341e-05	0	0	-nan
3.35137e-05	0	0	-nan
3.35344e-05	0	0	-nan
3.35769e-05	0	0	-nan
3.37668e-05	0	0	-nan
3.40524e-05	0	0	-nan
3.40694e-05	0	0	-nan
3.40961e-05	0	0	-nan
3.41966e-05	0	0	-nan
3.42048e-05	0	0	-nan
3.43755e-05	0	0	-nan
3.43969e-05	0	0	-nan
3.44454e-05	0	0	-nan
3.45349e-05	0	0	-nan
3.45728e-05	0	0	-nan
3.46439e-05	0	0	-nan
3.47581e-05	0	0	-nan
3.4861e-05	0	0	-nan
3.49145e-05	0	0	-nan
3.49837e-05	0	0	-nan
3.5049e-05	0	0	-nan
3.50843e-05	0	0	-nan
3.51665e-05	0	0	-nan
3.52465e-05	0	0	-nan
3.52518e-05	0	0	-nan
3.52698e-05	0	0	-nan
3.53077e-05	0	0	-nan
3.53098e-05	0	0	-nan
3.53359e-05	0	0	-nan
3.53948e-05	0	0	-nan
3.54765e-05	0	0	-nan
3.54895e-05	0	0	-nan
3.56259e-05	0	0	-nan
3.56813e-05	0	0	-nan
3.58215e-05	0	0	-nan
3.59529e-05	0	0	-nan
3.59698e-05	0	0	-nan
3.60873e-05	0	0	-nan
3.60883e-05	0	0	-nan
3.61514e-05	0	0	-nan
3.61839e-05	0	0	-nan
3.62621e-05	0	0	-nan
3.63796e-05	0	0	-nan
3.64009e-05	0	0	-nan
3.66434e-05	0	0	-nan
3.6649e-05	0	0	-nan
3.68608e-05	0	0	-nan
3.69293e-05	0	0	-nan
3.69852e-05	0	0	-nan
3.70685e-05	0	0	-nan
3.7077e-05	0	0	-nan
3.72142e-05	0	0	-nan
3.72369e-05	0	0	-nan
3.72845e-05	0	0	-nan
3.74033e-05	0	0	-nan
3.74176e-05	0	0	-nan
3.75193e-05	0	0	-nan
3.78025e-05	0	0	-nan
3.7822e-05	0	0	-nan
3.78308e-05	0	0	-nan
3.79254e-05	0	0	-nan
3.80221e-05	0	0	-nan
3.80411e-05	0	0	-nan
3.81422e-05	0	0	-nan
3.82231e-05	0	0	-nan
3.82851e-05	0	0	-nan
3.83006e-05	0	0	-nan
3.8314e-05	0	0	-nan
3.83707e-05	0	0	-nan
3.83789e-05	0	0	-nan
3.84352e-05	0	0	-nan
3.84629e-05	0	0	-nan
3.87443e-05	0	0	-nan
3.88056e-05	0	0	-nan
3.89051e-05	0	0	-nan
3.89463e-05	0	0	-nan
3.9038e-05	0	0	-nan
3.91437e-05	0	0	-nan
3.91698e-05	0	0	-nan
3.91739e-05	0	0	-nan
3.91839e-05	0	0	-nan
3.91996e-05	0	0	-nan
3.92639e-05	0	0	-nan
3.92674e-05	0	0	-nan
3.93894e-05	0	0	-nan
3.94116e-05	0	0	-nan
3.94191e-05	0	0	-nan
3.94224e-05	0	0	-nan
3.94517e-05	0	0	-nan
3.949e-05	0	0	-nan
3.95078e-05	0	0	-nan
3.95671e-05	0	0	-nan
3.95994e-05	0	0	-nan
3.96444e-05	0	0	-nan
3.97945e-05	0	0	-nan
3.98239e-05	0	0	-nan
3.98622e-05	0	0	-nan
4.01969e-05	0	0	-nan
4.03964e-05	0	0	-nan
4.04425e-05	0	0	-nan
4.05714e-05	0	0	-nan
4.09409e-05	0	0	-nan
4.10134e-05	0	0	-nan
4.11635e-05	0	0	-nan
4.15967e-05	0	0	-nan
4.17542e-05	0	0	-nan
4.18261e-05	0	0	-nan
4.18444e-05	0	0	-nan
4.23657e-05	0	0	-nan
4.25101e-05	0	0	-nan
4.28962e-05	0	0	-nan
4.29572e-05	0	0	-nan
4.31477e-05	0	0	-nan
4.33387e-05	0	0	-nan
4.33738e-05	0	0	-nan
4.35506e-05	0	0	-nan
4.35632e-05	0	0	-nan
4.36136e-05	0	0	-nan
4.37373e-05	0	0	-nan
4.3766e-05	0	0	-nan
4.3774e-05	0	0	-nan
4.38287e-05	0	0	-nan
4.39908e-05	0	0	-nan
4.40139e-05	0	0	-nan
4.43098e-05	0	0	-nan
4.45369e-05	0	0	-nan
4.45927e-05	0	0	-nan
4.4652e-05	0	0	-nan
4.46954e-05	0	0	-nan
4.50122e-05	0	0	-nan
4.5017e-05	0	0	-nan
4.53434e-05	0	0	-nan
4.5346e-05	0	0	-nan
4.56718e-05	0	0	-nan
4.63107e-05	0	0	-nan
4.64803e-05	0	0	-nan
4.65019e-05	0	0	-nan
4.65797e-05	0	0	-nan
4.67934e-05	0	0	-nan
4.68073e-05	0	0	-nan
4.70168e-05	0	0	-nan
4.70529e-05	0	0	-nan
4.72566e-05	0	0	-nan
4.72736e-05	0	0	-nan
4.73903e-05	0	0	-nan
4.74688e-05	0	0	-nan
4.75488e-05	0	0	-nan
4.76315e-05	0	0	-nan
4.77061e-05	0	0	-nan
4.77989e-05	0	0	-nan
4.78074e-05	0	0	-nan
4.79484e-05	0	0	-nan
4.7962e-05	0	0	-nan
4.84468e-05	0	0	-nan
4.84764e-05	0	0	-nan
4.86416e-05	0	0	-nan
4.86613e-05	0	0	-nan
4.86986e-05	0	0	-nan
4.87494e-05	0	0	-nan
4.88349e-05	0	0	-nan
4.88524e-05	0	0	-nan
4.96063e-05	0	0	-nan
4.97765e-05	0	0	-nan
4.99838e-05	0	0	-nan
5.00112e-05	0	0	-nan
5.01351e-05	0	0	-nan
5.01439e-05	0	0	-nan
5.01849e-05	0	0	-nan
5.03382e-05	0	0	-nan
5.04173e-05	0	0	-nan
5.04306e-05	0	0	-nan
5.05637e-05	0	0	-nan
5.05767e-05	0	0	-nan
5.06741e-05	0	0	-nan
5.09845e-05	0	0	-nan
5.10978e-05	0	0	-nan
5.13108e-05	0	0	-nan
5.14762e-05	0	0	-nan
5.14893e-05	0	0	-nan
5.15136e-05	0	0	-nan
5.15518e-05	0	0	-nan
5.17472e-05	0	0	-nan
5.1769e-05	0	0	-nan
5.19842e-05	0	0	-nan
5.20213e-05	0	0	-nan
5.21184e-05	0	0	-nan
5.22443e-05	0	0	-nan
5.23395e-05	0	0	-nan
5.25487e-05	0	0	-nan
5.25619e-05	0	0	-nan
5.26381e-05	0	0	-nan
5.27946e-05	0	0	-nan
5.30208e-05	0	0	-nan
5.31263e-05	0	0	-nan
5.32861e-05	0	0	-nan
5.32926e-05	0	0	-nan
5.34075e-05	0	0	-nan
5.35682e-05	0	0	-nan
5.39617e-05	0	0	-nan
5.40812e-05	0	0	-nan
5.41159e-05	0	0	-nan
5.43631e-05	0	0	-nan
5.46373e-05	0	0	-nan
5.47061e-05	0	0	-nan
5.47485e-05	0	0	-nan
5.50262e-05	0	0	-nan
5.50399e-05	0	0	-nan
5.51875e-05	0	0	-nan
5.52638e-05	0	0	-nan
5.53633e-05	0	0	-nan
5.54934e-05	0	0	-nan
5.5507e-05	0	0	-nan
5.56004e-05	0	0	-nan
5.5766e-05	0	0	-nan
5.58102e-05	0	0	-nan
5.58131e-05	0	0	-nan
5.59602e-05	0	0	-nan
5.63797e-05	0	0	-nan
5.64301e-05	0	0	-nan
5.65247e-05	0	0	-nan
5.65491e-05	0	0	-nan
5.65523e-05	0	0	-nan
5.67414e-05	0	0	-nan
5.71791e-05	0	0	-nan
5.73941e-05	0	0	-nan
5.75051e-05	0	0	-nan
5.78231e-05	0	0	-nan
5.81108e-05	0	0	-nan
5.81339e-05	0	0	-nan
5.83586e-05	0	0	-nan
5.87529e-05	0	0	-nan
5.9015e-05	0	0	-nan
5.91433e-05	0	0	-nan
5.92845e-05	0	0	-nan
5.97524e-05	0	0	-nan
5.98522e-05	0	0	-nan
5.99936e-05	0	0	-nan
6.00627e-05	0	0	-nan
6.00947e-05	0	0	-nan
6.0109e-05	0	0	-nan
6.01582e-05	0	0	-nan
6.01927e-05	0	0	-nan
6.03496e-05	0	0	-nan
6.05684e-05	0	0	-nan
6.06675e-05	0	0	-nan
6.08247e-05	0	0	-nan
6.13191e-05	0	0	-nan
6.15818e-05	0	0	-nan
6.16651e-05	0	0	-nan
6.18687e-05	0	0	-nan
6.18898e-05	0	0	-nan
6.19428e-05	0	0	-nan
6.202e-05	0	0	-nan
6.20595e-05	0	0	-nan
6.22963e-05	0	0	-nan
6.23323e-05	0	0	-nan
6.23662e-05	0	0	-nan
6.24464e-05	0	0	-nan
6.25245e-05	0	0	-nan
6.25917e-05	0	0	-nan
6.27417e-05	0	0	-nan
6.28849e-05	0	0	-nan
6.29201e-05	0	0	-nan
6.30889e-05	0	0	-nan
6.3113e-05	0	0	-nan
6.31542e-05	0	0	-nan
6.35377e-05	0	0	-nan
6.36531e-05	0	0	-nan
6.4255e-05	0	0	-nan
6.47055e-05	0	0	-nan
6.47541e-05	0	0	-nan
6.47856e-05	0	0	-nan
6.47864e-05	0	0	-nan
6.49986e-05	0	0	-nan
6.50465e-05	0	0	-nan
6.50786e-05	0	0	-nan
6.51117e-05	0	0	-nan
6.53315e-05	0	0	-nan
6.57275e-05	0	0	-nan
6.61525e-05	0	0	-nan
6.64103e-05	0	0	-nan
6.65676e-05	0	0	-nan
6.6667e-05	0	0	-nan
6.73497e-05	0	0	-nan
6.74181e-05	0	0	-nan
6.79579e-05	0	0	-nan
6.79927e-05	0	0	-nan
6.80138e-05	0	0	-nan
6.82906e-05	0	0	-nan
6.8382e-05	0	0	-nan
6.83882e-05	0	0	-nan
6.89077e-05	0	0	-nan
6.90183e-05	0	0	-nan
6.95786e-05	0	0	-nan
6.99568e-05	0	0	-nan
6.99792e-05	0	0	-nan
6.9985e-05	0	0	-nan
7.03247e-05	0	0	-nan
7.04704e-05	0	0	-nan
7.05046e-05	0	0	-nan
7.11837e-05	0	0	-nan
7.13673e-05	0	0	-nan
7.16658e-05	0	0	-nan
7.22549e-05	0	0	-nan
7.24928e-05	0	0	-nan
7.25376e-05	0	0	-nan
7.2724e-05	0	0	-nan
7.28208e-05	0	0	-nan
7.30455e-05	0	0	-nan
7.31044e-05	0	0	-nan
7.33896e-05	0	0	-nan
7.35595e-05	0	0	-nan
7.4075e-05	0	0	-nan
7.43823e-05	0	0	-nan
7.45869e-05	0	0	-nan
7.47732e-05	0	0	-nan
7.48017e-05	0	0	-nan
7.48131e-05	0	0	-nan
7.50131e-05	0	0	-nan
7.55405e-05	0	0	-nan
7.65103e-05	0	0	-nan
7.68642e-05	0	0	-nan
7.74302e-05	0	0	-nan
7.74618e-05	0	0	-nan
7.76438e-05	0	0	-nan
7.80938e-05	0	0	-nan
7.81005e-05	0	0	-nan
7.8832e-05	0	0	-nan
7.88939e-05	0	0	-nan
7.91927e-05	0	0	-nan
7.93389e-05	0	0	-nan
7.95212e-05	0	0	-nan
7.95469e-05	0	0	-nan
7.99695e-05	0	0	-nan
8.00276e-05	0	0	-nan
8.00974e-05	0	0	-nan
8.01936e-05	0	0	-nan
8.07151e-05	0	0	-nan
8.16888e-05	0	0	-nan
8.17832e-05	0	0	-nan
8.19805e-05	0	0	-nan
8.21492e-05	0	0	-nan
8.23973e-05	0	0	-nan
8.25935e-05	0	0	-nan
8.27714e-05	0	0	-nan
8.30379e-05	0	0	-nan
8.3078e-05	0	0	-nan
8.33154e-05	0	0	-nan
8.33753e-05	0	0	-nan
8.4152e-05	0	0	-nan
8.42958e-05	0	0	-nan
8.56847e-05	0	0	-nan
8.59613e-05	0	0	-nan
8.65036e-05	0	0	-nan
8.65259e-05	0	0	-nan
8.66089e-05	0	0	-nan
8.69284e-05	0	0	-nan
8.71318e-05	0	0	-nan
8.72744e-05	0	0	-nan
8.79377e-05	0	0	-nan
8.81714e-05	0	0	-nan
8.83408e-05	0	0	-nan
8.86359e-05	0	0	-nan
8.95501e-05	0	0	-nan
9.00165e-05	0	0	-nan
9.01287e-05	0	0	-nan
9.02173e-05	0	0	-nan
9.02513e-05	0	0	-nan
9.05276e-05	0	0	-nan
9.06635e-05	0	0	-nan
9.11885e-05	0	0	-nan
9.12449e-05	0	0	-nan
9.18897e-05	0	0	-nan
9.19263e-05	0	0	-nan
9.1995e-05	0	0	-nan
9.28398e-05	0	0	-nan
9.30238e-05	0	0	-nan
9.58449e-05	0	0	-nan
9.60424e-05	0	0	-nan
9.6515e-05	0	0	-nan
9.74418e-05	0	0	-nan
9.77047e-05	0	0	-nan
9.79935e-05	0	0	-nan
9.82712e-05	0	0	-nan
9.82872e-05	0	0	-nan
9.85436e-05	0	0	-nan
9.8747e-05	0	0	-nan
9.90733e-05	0	0	-nan
9.96223e-05	0	0	-nan
9.96748e-05	0	0	-nan
0.000100971	0	0	-nan
0.00010216	0	0	-nan
0.000102347	0	0	-nan
0.000104067	0	0	-nan
0.000106094	0	0	-nan
0.000106096	0	0	-nan
0.000106485	0	0	-nan
0.000106604	0	0	-nan
0.000106772	0	0	-nan
0.000107666	0	0	-nan
0.000107825	0	0	-nan
0.000108467	0	0	-nan
0.000108485	0	0	-nan
0.000109066	0	0	-nan
0.000109209	0	0	-nan
0.000109415	0	0	-nan
0.000109761	0	0	-nan
0.000111738	0	0	-nan
0.000111809	0	0	-nan
0.000111823	0	0	-nan
0.000112438	0	0	-nan
0.000113937	0	0	-nan
0.000115133	0	0	-nan
0.000115381	0	0	-nan
0.000116269	0	0	-nan
0.00011657	0	0	-nan
0.000117463	0	0	-nan
0.000118601	0	0	-nan
0.000120285	0	0	-nan
0.000120594	0	0	-nan
0.000121538	0	0	-nan
0.000123282	0	0	-nan
0.000124878	0	0	-nan
0.000125466	0	0	-nan
0.000126134	0	0	-nan
0.000126638	0	0	-nan
0.000128371	0	0	-nan
0.000128531	0	0	-nan
0.000128672	0	0	-nan
0.000130616	0	0	-nan
0.000131139	0	0	-nan
0.000132556	0	0	-nan
0.000132705	0	0	-nan
0.00013336	0	0	-nan
0.000135299	0	0	-nan
0.000135866	0	0	-nan
0.00013695	0	0	-nan
0.000136989	0	0	-nan
0.000137913	0	0	-nan
0.00013903	0	0	-nan
0.000139792	0	0	-nan
0.000140408	0	0	-nan
0.000140913	0	0	-nan
0.00014184	0	0	-nan
0.000142007	0	0	-nan
0.000144643	0	0	-nan
0.000145405	0	0	-nan
0.00014744	0	0	-nan
0.00015109	0	0	-nan
0.000154134	0	0	-nan
0.000154933	0	0	-nan
0.000159482	0	0	-nan
0.000160556	0	0	-nan
0.00016077	0	0	-nan
0.000162277	0	0	-nan
0.000164757	0	0	-nan
0.000164776	0	0	-nan
0.000167202	0	0	-nan
0.000167515	0	0	-nan
0.000169291	0	0	-nan
0.000174215	0	0	-nan
0.000177905	0	0	-nan
0.000181211	0	0	-nan
0.000183474	0	0	-nan
0.000186154	0	0	-nan
0.000186961	0	0	-nan
0.00018816	0	0	-nan
0.000192705	0	0	-nan
0.000196933	0	0	-nan
0.000198878	0	0	-nan
0.000199367	0	0	-nan
0.000206018	0	0	-nan
0.000207754	0	0	-nan
0.000209334	0	0	-nan
0.000215114	0	0	-nan
0.000215244	0	0	-nan
0.000216477	0	0	-nan
0.000216994	0	0	-nan
0.000222061	0	0	-nan
0.000223268	0	0	-nan
0.00022756	0	0	-nan
0.000227762	0	0	-nan
0.000235335	0	0	-nan
0.000236159	0	0	-nan
0.000255507	0	0	-nan
0.000270823	0	0	-nan
0.00027178	0	0	-nan
0.000273856	0	0	-nan
0.00027855	0	0	-nan
0.000290767	0	0	-nan
0.000298623	0	0	-nan
0.000322265	0	0	-nan
0.00032582	0	0	-nan
0.000333493	0	0	-nan
0.000352914	0	0	-nan
0.000356804	0	0	-nan
0.000361592	0	0	-nan
0.000373478	0	0	-nan
0.000389033	0	0	-nan
0.000392064	0	0	-nan
0.000394146	0	0	-nan
0.000423094	0	0	-nan
0.000423108	0	0	-nan
0.000432699	0	0	-nan
0.00044108	0	0	-nan
0.000466266	0	0	-nan
0.000472173	0	0	-nan
0.000473787	0	0	-nan
0.000478989	0	0	-nan
0.000527309	0	0	-nan
0.000565289	0	0	-nan
0.000580066	0	0	-nan
0.000604874	0	0	-nan
0.000617798	0	0	-nan
0.00062447	0	0	-nan
0.000624807	0	0	-nan
0.000675235	0	0	-nan
0.000716549	0	0	-nan
0.000737367	0	0	-nan
0.000746334	0	0	-nan
0.000775971	0	0	-nan
0.000784971	0	0	-nan
0.000812631	0	0	-nan
0.000835844	0	0	-nan
0.000920953	0	0	-nan
0.00092318	0	0	-nan
0.00100765	0	0	-nan
0.0010139	0	0	-nan
0.00103205	0	0	-nan
0.00103975	0	0	-nan
0.0010965	0	0	-nan
0.00130758	0	0	-nan
0.00134985	0	0	-nan
0.0013837	0	0	-nan
0.00140134	0	0	-nan
0.00146811	0	0	-nan
0.00163772	0	0	-nan
0.00171483	0	0	-nan
0.00176641	0	0	-nan
0.00192884	0	0	-nan
0.0020239	0	0	-nan
0.00204971	0	0	-nan
0.00232783	0	0	-nan
0.00238905	0	0	-nan
0.00254256	0	0	-nan
0.00254622	0	0	-nan
0.00257019	0	0	-nan
0.00258496	0	0	-nan
0.00266513	0	0	-nan
0.00272802	0	0	-nan
0.00322547	0	0	-nan
0.00341978	0	0	-nan
0.00354302	0	0	-nan
0.00512618	0	0	-nan
