1.04644e-08	0	0	-nan
1.07913e-08	0	0	-nan
1.73364e-08	0	0	-nan
4.41306e-08	0	0	-nan
4.72449e-08	0	0	-nan
8.05749e-08	0	0	-nan
8.82974e-08	0	0	-nan
9.23051e-08	0	0	-nan
1.10441e-07	0	0	-nan
1.24165e-07	0	0	-nan
1.31568e-07	0	0	-nan
1.35573e-07	0	0	-nan
1.4205e-07	0	0	-nan
1.64643e-07	0	0	-nan
1.72384e-07	0	0	-nan
1.79338e-07	0	0	-nan
1.81263e-07	0	0	-nan
1.83826e-07	0	0	-nan
1.98623e-07	0	0	-nan
2.07542e-07	0	0	-nan
2.42091e-07	0	0	-nan
2.42395e-07	0	0	-nan
2.43026e-07	0	0	-nan
2.48423e-07	0	0	-nan
2.53052e-07	0	0	-nan
2.56265e-07	0	0	-nan
2.66951e-07	0	0	-nan
2.84246e-07	0	0	-nan
3.26322e-07	0	0	-nan
3.29063e-07	0	0	-nan
3.35316e-07	0	0	-nan
3.44753e-07	0	0	-nan
3.51858e-07	0	0	-nan
3.63693e-07	0	0	-nan
4.09521e-07	0	0	-nan
4.18031e-07	0	0	-nan
4.34744e-07	0	0	-nan
4.76625e-07	0	0	-nan
5.0044e-07	0	0	-nan
5.27631e-07	0	0	-nan
5.29555e-07	0	0	-nan
5.33459e-07	0	0	-nan
5.46085e-07	0	0	-nan
5.59161e-07	0	0	-nan
5.62863e-07	0	0	-nan
5.63359e-07	0	0	-nan
5.73385e-07	0	0	-nan
5.78661e-07	0	0	-nan
5.80661e-07	0	0	-nan
5.95464e-07	0	0	-nan
6.06223e-07	0	0	-nan
6.08502e-07	0	0	-nan
6.41559e-07	0	0	-nan
6.42715e-07	0	0	-nan
6.69485e-07	0	0	-nan
6.73307e-07	0	0	-nan
6.86131e-07	0	0	-nan
7.0057e-07	0	0	-nan
7.03975e-07	0	0	-nan
7.24919e-07	0	0	-nan
7.45887e-07	0	0	-nan
7.53202e-07	0	0	-nan
7.64271e-07	0	0	-nan
7.82902e-07	0	0	-nan
8.0328e-07	0	0	-nan
8.18083e-07	0	0	-nan
8.25009e-07	0	0	-nan
8.67018e-07	0	0	-nan
8.83564e-07	0	0	-nan
8.86006e-07	0	0	-nan
8.91541e-07	0	0	-nan
9.11094e-07	0	0	-nan
9.17542e-07	0	0	-nan
9.39786e-07	0	0	-nan
9.42785e-07	0	0	-nan
9.63549e-07	0	0	-nan
9.64403e-07	0	0	-nan
9.72973e-07	0	0	-nan
1.01875e-06	0	0	-nan
1.02456e-06	0	0	-nan
1.02818e-06	0	0	-nan
1.04861e-06	0	0	-nan
1.05346e-06	0	0	-nan
1.05583e-06	0	0	-nan
1.06074e-06	0	0	-nan
1.06114e-06	0	0	-nan
1.06915e-06	0	0	-nan
1.08299e-06	0	0	-nan
1.09257e-06	0	0	-nan
1.12772e-06	0	0	-nan
1.12814e-06	0	0	-nan
1.13857e-06	0	0	-nan
1.14067e-06	0	0	-nan
1.14365e-06	0	0	-nan
1.14406e-06	0	0	-nan
1.14419e-06	0	0	-nan
1.14943e-06	0	0	-nan
1.18536e-06	0	0	-nan
1.19422e-06	0	0	-nan
1.21725e-06	0	0	-nan
1.21871e-06	0	0	-nan
1.23001e-06	0	0	-nan
1.241e-06	0	0	-nan
1.24882e-06	0	0	-nan
1.24975e-06	0	0	-nan
1.26837e-06	0	0	-nan
1.27318e-06	0	0	-nan
1.28437e-06	0	0	-nan
1.28778e-06	0	0	-nan
1.3156e-06	0	0	-nan
1.3299e-06	0	0	-nan
1.33977e-06	0	0	-nan
1.3454e-06	0	0	-nan
1.36618e-06	0	0	-nan
1.3802e-06	0	0	-nan
1.39411e-06	0	0	-nan
1.40813e-06	0	0	-nan
1.42427e-06	0	0	-nan
1.42517e-06	0	0	-nan
1.42522e-06	0	0	-nan
1.44307e-06	0	0	-nan
1.47324e-06	0	0	-nan
1.49197e-06	0	0	-nan
1.49565e-06	0	0	-nan
1.50138e-06	0	0	-nan
1.5092e-06	0	0	-nan
1.51685e-06	0	0	-nan
1.58283e-06	0	0	-nan
1.58613e-06	0	0	-nan
1.58642e-06	0	0	-nan
1.63057e-06	0	0	-nan
1.75463e-06	0	0	-nan
1.78114e-06	0	0	-nan
1.86546e-06	0	0	-nan
1.8929e-06	0	0	-nan
1.9289e-06	0	0	-nan
1.93421e-06	0	0	-nan
1.93434e-06	0	0	-nan
1.94111e-06	0	0	-nan
1.96629e-06	0	0	-nan
1.96903e-06	0	0	-nan
1.96993e-06	0	0	-nan
1.97804e-06	0	0	-nan
1.99026e-06	0	0	-nan
1.99318e-06	0	0	-nan
2.00677e-06	0	0	-nan
2.01835e-06	0	0	-nan
2.02693e-06	0	0	-nan
2.02706e-06	0	0	-nan
2.04545e-06	0	0	-nan
2.05977e-06	0	0	-nan
2.09755e-06	0	0	-nan
2.16991e-06	0	0	-nan
2.1973e-06	0	0	-nan
2.20417e-06	0	0	-nan
2.2053e-06	0	0	-nan
2.20553e-06	0	0	-nan
2.23556e-06	0	0	-nan
2.24656e-06	0	0	-nan
2.25335e-06	0	0	-nan
2.26635e-06	0	0	-nan
2.31756e-06	0	0	-nan
2.3538e-06	0	0	-nan
2.36427e-06	0	0	-nan
2.39861e-06	0	0	-nan
2.41288e-06	0	0	-nan
2.42427e-06	0	0	-nan
2.4415e-06	0	0	-nan
2.45836e-06	0	0	-nan
2.46445e-06	0	0	-nan
2.47943e-06	0	0	-nan
2.49252e-06	0	0	-nan
2.50784e-06	0	0	-nan
2.57149e-06	0	0	-nan
2.57158e-06	0	0	-nan
2.5844e-06	0	0	-nan
2.60208e-06	0	0	-nan
2.65955e-06	0	0	-nan
2.69169e-06	0	0	-nan
2.73827e-06	0	0	-nan
2.7414e-06	0	0	-nan
2.7466e-06	0	0	-nan
2.75366e-06	0	0	-nan
2.78051e-06	0	0	-nan
2.79337e-06	0	0	-nan
2.79344e-06	0	0	-nan
2.82363e-06	0	0	-nan
2.82396e-06	0	0	-nan
2.82573e-06	0	0	-nan
2.8397e-06	0	0	-nan
2.86571e-06	0	0	-nan
2.89508e-06	0	0	-nan
2.90799e-06	0	0	-nan
2.90966e-06	0	0	-nan
2.9207e-06	0	0	-nan
2.94182e-06	0	0	-nan
2.95171e-06	0	0	-nan
2.96576e-06	0	0	-nan
2.96867e-06	0	0	-nan
3.00611e-06	0	0	-nan
3.04974e-06	0	0	-nan
3.05039e-06	0	0	-nan
3.07214e-06	0	0	-nan
3.09459e-06	0	0	-nan
3.13002e-06	0	0	-nan
3.21498e-06	0	0	-nan
3.23047e-06	0	0	-nan
3.2379e-06	0	0	-nan
3.2704e-06	0	0	-nan
3.27435e-06	0	0	-nan
3.27593e-06	0	0	-nan
3.28475e-06	0	0	-nan
3.37532e-06	0	0	-nan
3.37953e-06	0	0	-nan
3.40273e-06	0	0	-nan
3.40921e-06	0	0	-nan
3.41851e-06	0	0	-nan
3.41934e-06	0	0	-nan
3.42922e-06	0	0	-nan
3.43748e-06	0	0	-nan
3.44331e-06	0	0	-nan
3.45994e-06	0	0	-nan
3.46915e-06	0	0	-nan
3.52001e-06	0	0	-nan
3.52232e-06	0	0	-nan
3.53222e-06	0	0	-nan
3.53498e-06	0	0	-nan
3.57131e-06	0	0	-nan
3.57628e-06	0	0	-nan
3.58861e-06	0	0	-nan
3.64224e-06	0	0	-nan
3.64916e-06	0	0	-nan
3.69485e-06	0	0	-nan
3.71443e-06	0	0	-nan
3.71597e-06	0	0	-nan
3.76711e-06	0	0	-nan
3.7978e-06	0	0	-nan
3.82134e-06	0	0	-nan
3.83606e-06	0	0	-nan
3.84088e-06	0	0	-nan
3.87144e-06	0	0	-nan
3.91072e-06	0	0	-nan
3.92152e-06	0	0	-nan
3.9318e-06	0	0	-nan
3.93398e-06	0	0	-nan
3.94158e-06	0	0	-nan
3.96223e-06	0	0	-nan
3.98606e-06	0	0	-nan
4.00229e-06	0	0	-nan
4.00609e-06	0	0	-nan
4.04114e-06	0	0	-nan
4.05503e-06	0	0	-nan
4.062e-06	0	0	-nan
4.09786e-06	0	0	-nan
4.10662e-06	0	0	-nan
4.15055e-06	0	0	-nan
4.18993e-06	0	0	-nan
4.21748e-06	0	0	-nan
4.2272e-06	0	0	-nan
4.23361e-06	0	0	-nan
4.257e-06	0	0	-nan
4.25829e-06	0	0	-nan
4.27817e-06	0	0	-nan
4.2847e-06	0	0	-nan
4.29539e-06	0	0	-nan
4.31839e-06	0	0	-nan
4.32442e-06	0	0	-nan
4.33369e-06	0	0	-nan
4.37002e-06	0	0	-nan
4.40298e-06	0	0	-nan
4.45224e-06	0	0	-nan
4.47034e-06	0	0	-nan
4.47149e-06	0	0	-nan
4.47551e-06	0	0	-nan
4.4903e-06	0	0	-nan
4.50418e-06	0	0	-nan
4.53449e-06	0	0	-nan
4.5397e-06	0	0	-nan
4.54026e-06	0	0	-nan
4.54289e-06	0	0	-nan
4.58947e-06	0	0	-nan
4.5899e-06	0	0	-nan
4.59247e-06	0	0	-nan
4.64892e-06	0	0	-nan
4.65241e-06	0	0	-nan
4.65607e-06	0	0	-nan
4.65955e-06	0	0	-nan
4.66362e-06	0	0	-nan
4.68639e-06	0	0	-nan
4.70297e-06	0	0	-nan
4.71879e-06	0	0	-nan
4.72661e-06	0	0	-nan
4.72919e-06	0	0	-nan
4.73112e-06	0	0	-nan
4.74123e-06	0	0	-nan
4.75573e-06	0	0	-nan
4.76231e-06	0	0	-nan
4.76336e-06	0	0	-nan
4.77053e-06	0	0	-nan
4.81136e-06	0	0	-nan
4.8364e-06	0	0	-nan
4.87283e-06	0	0	-nan
4.92473e-06	0	0	-nan
4.93762e-06	0	0	-nan
4.94803e-06	0	0	-nan
4.96024e-06	0	0	-nan
4.98006e-06	0	0	-nan
4.99103e-06	0	0	-nan
5.05745e-06	0	0	-nan
5.07534e-06	0	0	-nan
5.10514e-06	0	0	-nan
5.1391e-06	0	0	-nan
5.15272e-06	0	0	-nan
5.16379e-06	0	0	-nan
5.17192e-06	0	0	-nan
5.20017e-06	0	0	-nan
5.20785e-06	0	0	-nan
5.20787e-06	0	0	-nan
5.23867e-06	0	0	-nan
5.2523e-06	0	0	-nan
5.27112e-06	0	0	-nan
5.29389e-06	0	0	-nan
5.37508e-06	0	0	-nan
5.41665e-06	0	0	-nan
5.41815e-06	0	0	-nan
5.42297e-06	0	0	-nan
5.43394e-06	0	0	-nan
5.43945e-06	0	0	-nan
5.45705e-06	0	0	-nan
5.50648e-06	0	0	-nan
5.51425e-06	0	0	-nan
5.54304e-06	0	0	-nan
5.54674e-06	0	0	-nan
5.58448e-06	0	0	-nan
5.59488e-06	0	0	-nan
5.59859e-06	0	0	-nan
5.60216e-06	0	0	-nan
5.6039e-06	0	0	-nan
5.62248e-06	0	0	-nan
5.62892e-06	0	0	-nan
5.63199e-06	0	0	-nan
5.68429e-06	0	0	-nan
5.72048e-06	0	0	-nan
5.83644e-06	0	0	-nan
5.86152e-06	0	0	-nan
5.89789e-06	0	0	-nan
5.91463e-06	0	0	-nan
5.94338e-06	0	0	-nan
5.98033e-06	0	0	-nan
6.04155e-06	0	0	-nan
6.0826e-06	0	0	-nan
6.08595e-06	0	0	-nan
6.10395e-06	0	0	-nan
6.10477e-06	0	0	-nan
6.11748e-06	0	0	-nan
6.15859e-06	0	0	-nan
6.17721e-06	0	0	-nan
6.18369e-06	0	0	-nan
6.22953e-06	0	0	-nan
6.24935e-06	0	0	-nan
6.2701e-06	0	0	-nan
6.30687e-06	0	0	-nan
6.30884e-06	0	0	-nan
6.31552e-06	0	0	-nan
6.34139e-06	0	0	-nan
6.38043e-06	0	0	-nan
6.40422e-06	0	0	-nan
6.40763e-06	0	0	-nan
6.43121e-06	0	0	-nan
6.51442e-06	0	0	-nan
6.53398e-06	0	0	-nan
6.53761e-06	0	0	-nan
6.56013e-06	0	0	-nan
6.58817e-06	0	0	-nan
6.63076e-06	0	0	-nan
6.63568e-06	0	0	-nan
6.64365e-06	0	0	-nan
6.66338e-06	0	0	-nan
6.67182e-06	0	0	-nan
6.78109e-06	0	0	-nan
6.81545e-06	0	0	-nan
6.83912e-06	0	0	-nan
6.84557e-06	0	0	-nan
6.8895e-06	0	0	-nan
6.94241e-06	0	0	-nan
6.96371e-06	0	0	-nan
6.98212e-06	0	0	-nan
6.9837e-06	0	0	-nan
6.99521e-06	0	0	-nan
7.01827e-06	0	0	-nan
7.02622e-06	0	0	-nan
7.0765e-06	0	0	-nan
7.08112e-06	0	0	-nan
7.08546e-06	0	0	-nan
7.11333e-06	0	0	-nan
7.1886e-06	0	0	-nan
7.21195e-06	0	0	-nan
7.22232e-06	0	0	-nan
7.24317e-06	0	0	-nan
7.25197e-06	0	0	-nan
7.27827e-06	0	0	-nan
7.29499e-06	0	0	-nan
7.29615e-06	0	0	-nan
7.30191e-06	0	0	-nan
7.33717e-06	0	0	-nan
7.33853e-06	0	0	-nan
7.38817e-06	0	0	-nan
7.39929e-06	0	0	-nan
7.41258e-06	0	0	-nan
7.41393e-06	0	0	-nan
7.46362e-06	0	0	-nan
7.46417e-06	0	0	-nan
7.47194e-06	0	0	-nan
7.47243e-06	0	0	-nan
7.50172e-06	0	0	-nan
7.55582e-06	0	0	-nan
7.56051e-06	0	0	-nan
7.5682e-06	0	0	-nan
7.66142e-06	0	0	-nan
7.68144e-06	0	0	-nan
7.68706e-06	0	0	-nan
7.71434e-06	0	0	-nan
7.71531e-06	0	0	-nan
7.73194e-06	0	0	-nan
7.76298e-06	0	0	-nan
7.8061e-06	0	0	-nan
7.82148e-06	0	0	-nan
7.85195e-06	0	0	-nan
7.89769e-06	0	0	-nan
7.98177e-06	0	0	-nan
8.00957e-06	0	0	-nan
8.03447e-06	0	0	-nan
8.04426e-06	0	0	-nan
8.12708e-06	0	0	-nan
8.16128e-06	0	0	-nan
8.18809e-06	0	0	-nan
8.24167e-06	0	0	-nan
8.26225e-06	0	0	-nan
8.30597e-06	0	0	-nan
8.34103e-06	0	0	-nan
8.35204e-06	0	0	-nan
8.36022e-06	0	0	-nan
8.36567e-06	0	0	-nan
8.38778e-06	0	0	-nan
8.42143e-06	0	0	-nan
8.49029e-06	0	0	-nan
8.51587e-06	0	0	-nan
8.59798e-06	0	0	-nan
8.62705e-06	0	0	-nan
8.69008e-06	0	0	-nan
8.69619e-06	0	0	-nan
8.69755e-06	0	0	-nan
8.70049e-06	0	0	-nan
8.70313e-06	0	0	-nan
8.77765e-06	0	0	-nan
8.77799e-06	0	0	-nan
8.82787e-06	0	0	-nan
8.92116e-06	0	0	-nan
8.94093e-06	0	0	-nan
8.95736e-06	0	0	-nan
8.98829e-06	0	0	-nan
9.00958e-06	0	0	-nan
9.05437e-06	0	0	-nan
9.07205e-06	0	0	-nan
9.08084e-06	0	0	-nan
9.08294e-06	0	0	-nan
9.12029e-06	0	0	-nan
9.13808e-06	0	0	-nan
9.17031e-06	0	0	-nan
9.22377e-06	0	0	-nan
9.26105e-06	0	0	-nan
9.36084e-06	0	0	-nan
9.37662e-06	0	0	-nan
9.4066e-06	0	0	-nan
9.411e-06	0	0	-nan
9.42039e-06	0	0	-nan
9.44592e-06	0	0	-nan
9.48194e-06	0	0	-nan
9.59915e-06	0	0	-nan
9.60844e-06	0	0	-nan
9.61991e-06	0	0	-nan
9.72158e-06	0	0	-nan
9.75292e-06	0	0	-nan
9.76723e-06	0	0	-nan
9.96978e-06	0	0	-nan
9.97476e-06	0	0	-nan
9.97636e-06	0	0	-nan
1.00335e-05	0	0	-nan
1.00494e-05	0	0	-nan
1.00822e-05	0	0	-nan
1.00965e-05	0	0	-nan
1.01009e-05	0	0	-nan
1.01476e-05	0	0	-nan
1.01479e-05	0	0	-nan
1.02243e-05	0	0	-nan
1.02804e-05	0	0	-nan
1.03249e-05	0	0	-nan
1.03633e-05	0	0	-nan
1.03745e-05	0	0	-nan
1.03844e-05	0	0	-nan
1.04096e-05	0	0	-nan
1.04152e-05	0	0	-nan
1.04784e-05	0	0	-nan
1.04945e-05	0	0	-nan
1.05159e-05	0	0	-nan
1.05226e-05	0	0	-nan
1.05263e-05	0	0	-nan
1.05576e-05	0	0	-nan
1.05706e-05	0	0	-nan
1.05906e-05	0	0	-nan
1.06501e-05	0	0	-nan
1.06728e-05	0	0	-nan
1.06748e-05	0	0	-nan
1.07063e-05	0	0	-nan
1.08271e-05	0	0	-nan
1.08353e-05	0	0	-nan
1.08944e-05	0	0	-nan
1.08989e-05	0	0	-nan
1.10344e-05	0	0	-nan
1.10608e-05	0	0	-nan
1.10946e-05	0	0	-nan
1.10977e-05	0	0	-nan
1.11368e-05	0	0	-nan
1.12311e-05	0	0	-nan
1.12828e-05	0	0	-nan
1.13136e-05	0	0	-nan
1.13261e-05	0	0	-nan
1.13279e-05	0	0	-nan
1.13453e-05	0	0	-nan
1.1371e-05	0	0	-nan
1.14122e-05	0	0	-nan
1.14322e-05	0	0	-nan
1.14684e-05	0	0	-nan
1.15126e-05	0	0	-nan
1.15334e-05	0	0	-nan
1.15574e-05	0	0	-nan
1.15625e-05	0	0	-nan
1.15698e-05	0	0	-nan
1.15971e-05	0	0	-nan
1.16449e-05	0	0	-nan
1.17071e-05	0	0	-nan
1.17395e-05	0	0	-nan
1.17472e-05	0	0	-nan
1.17746e-05	0	0	-nan
1.17839e-05	0	0	-nan
1.17848e-05	0	0	-nan
1.17917e-05	0	0	-nan
1.18494e-05	0	0	-nan
1.18639e-05	0	0	-nan
1.18689e-05	0	0	-nan
1.18774e-05	0	0	-nan
1.19708e-05	0	0	-nan
1.19813e-05	0	0	-nan
1.20136e-05	0	0	-nan
1.20371e-05	0	0	-nan
1.20519e-05	0	0	-nan
1.20815e-05	0	0	-nan
1.21274e-05	0	0	-nan
1.21653e-05	0	0	-nan
1.2192e-05	0	0	-nan
1.22553e-05	0	0	-nan
1.22988e-05	0	0	-nan
1.23799e-05	0	0	-nan
1.2385e-05	0	0	-nan
1.24196e-05	0	0	-nan
1.24213e-05	0	0	-nan
1.24255e-05	0	0	-nan
1.24682e-05	0	0	-nan
1.25269e-05	0	0	-nan
1.25464e-05	0	0	-nan
1.25488e-05	0	0	-nan
1.25931e-05	0	0	-nan
1.26191e-05	0	0	-nan
1.26231e-05	0	0	-nan
1.26374e-05	0	0	-nan
1.27757e-05	0	0	-nan
1.27762e-05	0	0	-nan
1.27779e-05	0	0	-nan
1.29023e-05	0	0	-nan
1.29322e-05	0	0	-nan
1.30177e-05	0	0	-nan
1.3033e-05	0	0	-nan
1.30689e-05	0	0	-nan
1.30841e-05	0	0	-nan
1.31078e-05	0	0	-nan
1.31317e-05	0	0	-nan
1.31477e-05	0	0	-nan
1.31489e-05	0	0	-nan
1.31636e-05	0	0	-nan
1.3205e-05	0	0	-nan
1.3271e-05	0	0	-nan
1.3336e-05	0	0	-nan
1.34268e-05	0	0	-nan
1.3509e-05	0	0	-nan
1.35202e-05	0	0	-nan
1.35324e-05	0	0	-nan
1.35355e-05	0	0	-nan
1.35587e-05	0	0	-nan
1.35706e-05	0	0	-nan
1.35952e-05	0	0	-nan
1.3607e-05	0	0	-nan
1.36218e-05	0	0	-nan
1.36721e-05	0	0	-nan
1.36741e-05	0	0	-nan
1.36902e-05	0	0	-nan
1.37502e-05	0	0	-nan
1.37584e-05	0	0	-nan
1.37769e-05	0	0	-nan
1.38385e-05	0	0	-nan
1.40621e-05	0	0	-nan
1.40816e-05	0	0	-nan
1.41734e-05	0	0	-nan
1.42464e-05	0	0	-nan
1.43859e-05	0	0	-nan
1.44178e-05	0	0	-nan
1.4473e-05	0	0	-nan
1.44963e-05	0	0	-nan
1.45117e-05	0	0	-nan
1.45248e-05	0	0	-nan
1.45282e-05	0	0	-nan
1.45524e-05	0	0	-nan
1.45692e-05	0	0	-nan
1.45784e-05	0	0	-nan
1.45852e-05	0	0	-nan
1.46676e-05	0	0	-nan
1.47627e-05	0	0	-nan
1.47691e-05	0	0	-nan
1.4791e-05	0	0	-nan
1.48344e-05	0	0	-nan
1.5061e-05	0	0	-nan
1.5091e-05	0	0	-nan
1.50998e-05	0	0	-nan
1.51113e-05	0	0	-nan
1.51145e-05	0	0	-nan
1.51237e-05	0	0	-nan
1.51782e-05	0	0	-nan
1.52114e-05	0	0	-nan
1.52128e-05	0	0	-nan
1.52236e-05	0	0	-nan
1.53592e-05	0	0	-nan
1.53656e-05	0	0	-nan
1.53678e-05	0	0	-nan
1.54947e-05	0	0	-nan
1.55025e-05	0	0	-nan
1.55778e-05	0	0	-nan
1.55858e-05	0	0	-nan
1.55887e-05	0	0	-nan
1.56329e-05	0	0	-nan
1.56437e-05	0	0	-nan
1.5649e-05	0	0	-nan
1.57e-05	0	0	-nan
1.57413e-05	0	0	-nan
1.57705e-05	0	0	-nan
1.58784e-05	0	0	-nan
1.59499e-05	0	0	-nan
1.60013e-05	0	0	-nan
1.60217e-05	0	0	-nan
1.60496e-05	0	0	-nan
1.6064e-05	0	0	-nan
1.61065e-05	0	0	-nan
1.61485e-05	0	0	-nan
1.61586e-05	0	0	-nan
1.61601e-05	0	0	-nan
1.62039e-05	0	0	-nan
1.6209e-05	0	0	-nan
1.62531e-05	0	0	-nan
1.63795e-05	0	0	-nan
1.63861e-05	0	0	-nan
1.63996e-05	0	0	-nan
1.65043e-05	0	0	-nan
1.65332e-05	0	0	-nan
1.65346e-05	0	0	-nan
1.65361e-05	0	0	-nan
1.66993e-05	0	0	-nan
1.67359e-05	0	0	-nan
1.67489e-05	0	0	-nan
1.67771e-05	0	0	-nan
1.6987e-05	0	0	-nan
1.69914e-05	0	0	-nan
1.70183e-05	0	0	-nan
1.70421e-05	0	0	-nan
1.70805e-05	0	0	-nan
1.71453e-05	0	0	-nan
1.71685e-05	0	0	-nan
1.72368e-05	0	0	-nan
1.72677e-05	0	0	-nan
1.72758e-05	0	0	-nan
1.72826e-05	0	0	-nan
1.74827e-05	0	0	-nan
1.75473e-05	0	0	-nan
1.76341e-05	0	0	-nan
1.76515e-05	0	0	-nan
1.77528e-05	0	0	-nan
1.77536e-05	0	0	-nan
1.78873e-05	0	0	-nan
1.79146e-05	0	0	-nan
1.79185e-05	0	0	-nan
1.79201e-05	0	0	-nan
1.81069e-05	0	0	-nan
1.81173e-05	0	0	-nan
1.81347e-05	0	0	-nan
1.82855e-05	0	0	-nan
1.83185e-05	0	0	-nan
1.83817e-05	0	0	-nan
1.84484e-05	0	0	-nan
1.85269e-05	0	0	-nan
1.85537e-05	0	0	-nan
1.85794e-05	0	0	-nan
1.85933e-05	0	0	-nan
1.86121e-05	0	0	-nan
1.87598e-05	0	0	-nan
1.87689e-05	0	0	-nan
1.87698e-05	0	0	-nan
1.88537e-05	0	0	-nan
1.88786e-05	0	0	-nan
1.89173e-05	0	0	-nan
1.90507e-05	0	0	-nan
1.90618e-05	0	0	-nan
1.90911e-05	0	0	-nan
1.91494e-05	0	0	-nan
1.93854e-05	0	0	-nan
1.96757e-05	0	0	-nan
1.97142e-05	0	0	-nan
1.97717e-05	0	0	-nan
1.98033e-05	0	0	-nan
1.99939e-05	0	0	-nan
2.00424e-05	0	0	-nan
2.00605e-05	0	0	-nan
2.01699e-05	0	0	-nan
2.04292e-05	0	0	-nan
2.06258e-05	0	0	-nan
2.0643e-05	0	0	-nan
2.07007e-05	0	0	-nan
2.07777e-05	0	0	-nan
2.08686e-05	0	0	-nan
2.09299e-05	0	0	-nan
2.09382e-05	0	0	-nan
2.09987e-05	0	0	-nan
2.10371e-05	0	0	-nan
2.10557e-05	0	0	-nan
2.10593e-05	0	0	-nan
2.12891e-05	0	0	-nan
2.12932e-05	0	0	-nan
2.13614e-05	0	0	-nan
2.14231e-05	0	0	-nan
2.15512e-05	0	0	-nan
2.17179e-05	0	0	-nan
2.17325e-05	0	0	-nan
2.1788e-05	0	0	-nan
2.17955e-05	0	0	-nan
2.18216e-05	0	0	-nan
2.19208e-05	0	0	-nan
2.21803e-05	0	0	-nan
2.23445e-05	0	0	-nan
2.23526e-05	0	0	-nan
2.23902e-05	0	0	-nan
2.2456e-05	0	0	-nan
2.25978e-05	0	0	-nan
2.27468e-05	0	0	-nan
2.27532e-05	0	0	-nan
2.27636e-05	0	0	-nan
2.28831e-05	0	0	-nan
2.3018e-05	0	0	-nan
2.31845e-05	0	0	-nan
2.32283e-05	0	0	-nan
2.32892e-05	0	0	-nan
2.34003e-05	0	0	-nan
2.34216e-05	0	0	-nan
2.34508e-05	0	0	-nan
2.35377e-05	0	0	-nan
2.36247e-05	0	0	-nan
2.37176e-05	0	0	-nan
2.38682e-05	0	0	-nan
2.38966e-05	0	0	-nan
2.39401e-05	0	0	-nan
2.40973e-05	0	0	-nan
2.41252e-05	0	0	-nan
2.4177e-05	0	0	-nan
2.42168e-05	0	0	-nan
2.42286e-05	0	0	-nan
2.43753e-05	0	0	-nan
2.44233e-05	0	0	-nan
2.44727e-05	0	0	-nan
2.45184e-05	0	0	-nan
2.49499e-05	0	0	-nan
2.49611e-05	0	0	-nan
2.49713e-05	0	0	-nan
2.49768e-05	0	0	-nan
2.50119e-05	0	0	-nan
2.51217e-05	0	0	-nan
2.51384e-05	0	0	-nan
2.51578e-05	0	0	-nan
2.52206e-05	0	0	-nan
2.52689e-05	0	0	-nan
2.53934e-05	0	0	-nan
2.53998e-05	0	0	-nan
2.5426e-05	0	0	-nan
2.54624e-05	0	0	-nan
2.54915e-05	0	0	-nan
2.55041e-05	0	0	-nan
2.55924e-05	0	0	-nan
2.56676e-05	0	0	-nan
2.56984e-05	0	0	-nan
2.5705e-05	0	0	-nan
2.57467e-05	0	0	-nan
2.58237e-05	0	0	-nan
2.58656e-05	0	0	-nan
2.58671e-05	0	0	-nan
2.59328e-05	0	0	-nan
2.59922e-05	0	0	-nan
2.62392e-05	0	0	-nan
2.63106e-05	0	0	-nan
2.63973e-05	0	0	-nan
2.64211e-05	0	0	-nan
2.64588e-05	0	0	-nan
2.65044e-05	0	0	-nan
2.65553e-05	0	0	-nan
2.67582e-05	0	0	-nan
2.69811e-05	0	0	-nan
2.70377e-05	0	0	-nan
2.70457e-05	0	0	-nan
2.72338e-05	0	0	-nan
2.73345e-05	0	0	-nan
2.73586e-05	0	0	-nan
2.73718e-05	0	0	-nan
2.74247e-05	0	0	-nan
2.74254e-05	0	0	-nan
2.74475e-05	0	0	-nan
2.75024e-05	0	0	-nan
2.76295e-05	0	0	-nan
2.76331e-05	0	0	-nan
2.76942e-05	0	0	-nan
2.77419e-05	0	0	-nan
2.7791e-05	0	0	-nan
2.78091e-05	0	0	-nan
2.80695e-05	0	0	-nan
2.80796e-05	0	0	-nan
2.81423e-05	0	0	-nan
2.82046e-05	0	0	-nan
2.82265e-05	0	0	-nan
2.84337e-05	0	0	-nan
2.88947e-05	0	0	-nan
2.9033e-05	0	0	-nan
2.90831e-05	0	0	-nan
2.90928e-05	0	0	-nan
2.91285e-05	0	0	-nan
2.91864e-05	0	0	-nan
2.92432e-05	0	0	-nan
2.93281e-05	0	0	-nan
2.93426e-05	0	0	-nan
2.93718e-05	0	0	-nan
2.9402e-05	0	0	-nan
2.94115e-05	0	0	-nan
2.94629e-05	0	0	-nan
2.94867e-05	0	0	-nan
2.95588e-05	0	0	-nan
2.96645e-05	0	0	-nan
2.9709e-05	0	0	-nan
2.97336e-05	0	0	-nan
2.98633e-05	0	0	-nan
2.98762e-05	0	0	-nan
2.98992e-05	0	0	-nan
3.00264e-05	0	0	-nan
3.00519e-05	0	0	-nan
3.00832e-05	0	0	-nan
3.01896e-05	0	0	-nan
3.01987e-05	0	0	-nan
3.02973e-05	0	0	-nan
3.0353e-05	0	0	-nan
3.04072e-05	0	0	-nan
3.04348e-05	0	0	-nan
3.0462e-05	0	0	-nan
3.04631e-05	0	0	-nan
3.06901e-05	0	0	-nan
3.08506e-05	0	0	-nan
3.10075e-05	0	0	-nan
3.10468e-05	0	0	-nan
3.11516e-05	0	0	-nan
3.1172e-05	0	0	-nan
3.13512e-05	0	0	-nan
3.17878e-05	0	0	-nan
3.20149e-05	0	0	-nan
3.20201e-05	0	0	-nan
3.21037e-05	0	0	-nan
3.21938e-05	0	0	-nan
3.226e-05	0	0	-nan
3.23714e-05	0	0	-nan
3.23813e-05	0	0	-nan
3.24621e-05	0	0	-nan
3.24825e-05	0	0	-nan
3.26836e-05	0	0	-nan
3.27579e-05	0	0	-nan
3.27638e-05	0	0	-nan
3.27934e-05	0	0	-nan
3.29045e-05	0	0	-nan
3.29099e-05	0	0	-nan
3.30373e-05	0	0	-nan
3.31236e-05	0	0	-nan
3.31417e-05	0	0	-nan
3.33065e-05	0	0	-nan
3.34131e-05	0	0	-nan
3.3568e-05	0	0	-nan
3.36144e-05	0	0	-nan
3.3647e-05	0	0	-nan
3.37402e-05	0	0	-nan
3.39314e-05	0	0	-nan
3.40081e-05	0	0	-nan
3.4275e-05	0	0	-nan
3.44177e-05	0	0	-nan
3.44229e-05	0	0	-nan
3.44326e-05	0	0	-nan
3.44357e-05	0	0	-nan
3.44795e-05	0	0	-nan
3.45855e-05	0	0	-nan
3.46156e-05	0	0	-nan
3.46611e-05	0	0	-nan
3.47563e-05	0	0	-nan
3.48578e-05	0	0	-nan
3.48602e-05	0	0	-nan
3.49393e-05	0	0	-nan
3.50032e-05	0	0	-nan
3.5009e-05	0	0	-nan
3.50385e-05	0	0	-nan
3.52037e-05	0	0	-nan
3.52647e-05	0	0	-nan
3.54416e-05	0	0	-nan
3.54645e-05	0	0	-nan
3.58088e-05	0	0	-nan
3.58463e-05	0	0	-nan
3.58932e-05	0	0	-nan
3.60873e-05	0	0	-nan
3.62071e-05	0	0	-nan
3.62089e-05	0	0	-nan
3.63447e-05	0	0	-nan
3.63855e-05	0	0	-nan
3.64467e-05	0	0	-nan
3.65339e-05	0	0	-nan
3.66539e-05	0	0	-nan
3.69569e-05	0	0	-nan
3.70623e-05	0	0	-nan
3.71481e-05	0	0	-nan
3.71675e-05	0	0	-nan
3.7188e-05	0	0	-nan
3.72249e-05	0	0	-nan
3.7257e-05	0	0	-nan
3.72949e-05	0	0	-nan
3.75034e-05	0	0	-nan
3.76174e-05	0	0	-nan
3.76347e-05	0	0	-nan
3.76821e-05	0	0	-nan
3.76984e-05	0	0	-nan
3.77315e-05	0	0	-nan
3.78551e-05	0	0	-nan
3.80482e-05	0	0	-nan
3.83803e-05	0	0	-nan
3.8508e-05	0	0	-nan
3.86255e-05	0	0	-nan
3.87252e-05	0	0	-nan
3.88882e-05	0	0	-nan
3.89428e-05	0	0	-nan
3.89439e-05	0	0	-nan
3.92203e-05	0	0	-nan
3.92308e-05	0	0	-nan
3.93773e-05	0	0	-nan
3.94812e-05	0	0	-nan
3.96427e-05	0	0	-nan
3.9828e-05	0	0	-nan
3.99075e-05	0	0	-nan
3.99403e-05	0	0	-nan
4.03552e-05	0	0	-nan
4.04051e-05	0	0	-nan
4.05533e-05	0	0	-nan
4.06959e-05	0	0	-nan
4.07921e-05	0	0	-nan
4.08654e-05	0	0	-nan
4.08837e-05	0	0	-nan
4.10589e-05	0	0	-nan
4.11461e-05	0	0	-nan
4.11606e-05	0	0	-nan
4.12589e-05	0	0	-nan
4.138e-05	0	0	-nan
4.15015e-05	0	0	-nan
4.1582e-05	0	0	-nan
4.1802e-05	0	0	-nan
4.19545e-05	0	0	-nan
4.20425e-05	0	0	-nan
4.21493e-05	0	0	-nan
4.23409e-05	0	0	-nan
4.25757e-05	0	0	-nan
4.26225e-05	0	0	-nan
4.28463e-05	0	0	-nan
4.28904e-05	0	0	-nan
4.29693e-05	0	0	-nan
4.29847e-05	0	0	-nan
4.30105e-05	0	0	-nan
4.30264e-05	0	0	-nan
4.3041e-05	0	0	-nan
4.30959e-05	0	0	-nan
4.31469e-05	0	0	-nan
4.32334e-05	0	0	-nan
4.33512e-05	0	0	-nan
4.34017e-05	0	0	-nan
4.36794e-05	0	0	-nan
4.37325e-05	0	0	-nan
4.38104e-05	0	0	-nan
4.39073e-05	0	0	-nan
4.40258e-05	0	0	-nan
4.41544e-05	0	0	-nan
4.41626e-05	0	0	-nan
4.4192e-05	0	0	-nan
4.42037e-05	0	0	-nan
4.42213e-05	0	0	-nan
4.42273e-05	0	0	-nan
4.42339e-05	0	0	-nan
4.42909e-05	0	0	-nan
4.44749e-05	0	0	-nan
4.46634e-05	0	0	-nan
4.47459e-05	0	0	-nan
4.50743e-05	0	0	-nan
4.5118e-05	0	0	-nan
4.54023e-05	0	0	-nan
4.5459e-05	0	0	-nan
4.59429e-05	0	0	-nan
4.60647e-05	0	0	-nan
4.64045e-05	0	0	-nan
4.64148e-05	0	0	-nan
4.64913e-05	0	0	-nan
4.6558e-05	0	0	-nan
4.66131e-05	0	0	-nan
4.67012e-05	0	0	-nan
4.73118e-05	0	0	-nan
4.73668e-05	0	0	-nan
4.75942e-05	0	0	-nan
4.80564e-05	0	0	-nan
4.83492e-05	0	0	-nan
4.84074e-05	0	0	-nan
4.86273e-05	0	0	-nan
4.87403e-05	0	0	-nan
4.87559e-05	0	0	-nan
4.905e-05	0	0	-nan
4.92877e-05	0	0	-nan
5.00734e-05	0	0	-nan
5.0181e-05	0	0	-nan
5.02454e-05	0	0	-nan
5.02501e-05	0	0	-nan
5.03915e-05	0	0	-nan
5.09032e-05	0	0	-nan
5.09776e-05	0	0	-nan
5.1026e-05	0	0	-nan
5.14e-05	0	0	-nan
5.14952e-05	0	0	-nan
5.15696e-05	0	0	-nan
5.16237e-05	0	0	-nan
5.16583e-05	0	0	-nan
5.16654e-05	0	0	-nan
5.18462e-05	0	0	-nan
5.18662e-05	0	0	-nan
5.20094e-05	0	0	-nan
5.20758e-05	0	0	-nan
5.24449e-05	0	0	-nan
5.2446e-05	0	0	-nan
5.26083e-05	0	0	-nan
5.2952e-05	0	0	-nan
5.2979e-05	0	0	-nan
5.30487e-05	0	0	-nan
5.32406e-05	0	0	-nan
5.33666e-05	0	0	-nan
5.34995e-05	0	0	-nan
5.35061e-05	0	0	-nan
5.35186e-05	0	0	-nan
5.36776e-05	0	0	-nan
5.40642e-05	0	0	-nan
5.43091e-05	0	0	-nan
5.43897e-05	0	0	-nan
5.4485e-05	0	0	-nan
5.47809e-05	0	0	-nan
5.48147e-05	0	0	-nan
5.48549e-05	0	0	-nan
5.50966e-05	0	0	-nan
5.5234e-05	0	0	-nan
5.57915e-05	0	0	-nan
5.58793e-05	0	0	-nan
5.59467e-05	0	0	-nan
5.60145e-05	0	0	-nan
5.64069e-05	0	0	-nan
5.64649e-05	0	0	-nan
5.64787e-05	0	0	-nan
5.65063e-05	0	0	-nan
5.6672e-05	0	0	-nan
5.67644e-05	0	0	-nan
5.7018e-05	0	0	-nan
5.71733e-05	0	0	-nan
5.73159e-05	0	0	-nan
5.74317e-05	0	0	-nan
5.75849e-05	0	0	-nan
5.76005e-05	0	0	-nan
5.77089e-05	0	0	-nan
5.77686e-05	0	0	-nan
5.81345e-05	0	0	-nan
5.83404e-05	0	0	-nan
5.83767e-05	0	0	-nan
5.84776e-05	0	0	-nan
5.85328e-05	0	0	-nan
5.85525e-05	0	0	-nan
5.88537e-05	0	0	-nan
5.89973e-05	0	0	-nan
5.904e-05	0	0	-nan
5.94535e-05	0	0	-nan
5.95161e-05	0	0	-nan
5.97194e-05	0	0	-nan
5.98669e-05	0	0	-nan
5.9973e-05	0	0	-nan
6.02827e-05	0	0	-nan
6.06396e-05	0	0	-nan
6.0783e-05	0	0	-nan
6.08005e-05	0	0	-nan
6.08874e-05	0	0	-nan
6.11856e-05	0	0	-nan
6.12249e-05	0	0	-nan
6.15052e-05	0	0	-nan
6.163e-05	0	0	-nan
6.18793e-05	0	0	-nan
6.26111e-05	0	0	-nan
6.27974e-05	0	0	-nan
6.28834e-05	0	0	-nan
6.28985e-05	0	0	-nan
6.29835e-05	0	0	-nan
6.30683e-05	0	0	-nan
6.33129e-05	0	0	-nan
6.33898e-05	0	0	-nan
6.35268e-05	0	0	-nan
6.36131e-05	0	0	-nan
6.36279e-05	0	0	-nan
6.36416e-05	0	0	-nan
6.36813e-05	0	0	-nan
6.3913e-05	0	0	-nan
6.39169e-05	0	0	-nan
6.39738e-05	0	0	-nan
6.40882e-05	0	0	-nan
6.4485e-05	0	0	-nan
6.47222e-05	0	0	-nan
6.51379e-05	0	0	-nan
6.54029e-05	0	0	-nan
6.54485e-05	0	0	-nan
6.54548e-05	0	0	-nan
6.56337e-05	0	0	-nan
6.56964e-05	0	0	-nan
6.5991e-05	0	0	-nan
6.5999e-05	0	0	-nan
6.61474e-05	0	0	-nan
6.62954e-05	0	0	-nan
6.63067e-05	0	0	-nan
6.63837e-05	0	0	-nan
6.7038e-05	0	0	-nan
6.70505e-05	0	0	-nan
6.77139e-05	0	0	-nan
6.78505e-05	0	0	-nan
6.79602e-05	0	0	-nan
6.84595e-05	0	0	-nan
6.85973e-05	0	0	-nan
6.87885e-05	0	0	-nan
6.90926e-05	0	0	-nan
6.98839e-05	0	0	-nan
7.05935e-05	0	0	-nan
7.07608e-05	0	0	-nan
7.08192e-05	0	0	-nan
7.08202e-05	0	0	-nan
7.09332e-05	0	0	-nan
7.15587e-05	0	0	-nan
7.17385e-05	0	0	-nan
7.256e-05	0	0	-nan
7.33082e-05	0	0	-nan
7.33415e-05	0	0	-nan
7.33729e-05	0	0	-nan
7.36793e-05	0	0	-nan
7.43991e-05	0	0	-nan
7.46896e-05	0	0	-nan
7.47599e-05	0	0	-nan
7.51534e-05	0	0	-nan
7.59086e-05	0	0	-nan
7.63062e-05	0	0	-nan
7.72916e-05	0	0	-nan
7.74089e-05	0	0	-nan
7.74969e-05	0	0	-nan
7.76655e-05	0	0	-nan
7.76889e-05	0	0	-nan
7.79868e-05	0	0	-nan
7.86381e-05	0	0	-nan
7.90183e-05	0	0	-nan
7.91438e-05	0	0	-nan
7.92069e-05	0	0	-nan
7.94708e-05	0	0	-nan
7.94894e-05	0	0	-nan
7.95569e-05	0	0	-nan
7.96658e-05	0	0	-nan
7.96734e-05	0	0	-nan
8.07648e-05	0	0	-nan
8.08308e-05	0	0	-nan
8.08854e-05	0	0	-nan
8.09425e-05	0	0	-nan
8.10505e-05	0	0	-nan
8.11688e-05	0	0	-nan
8.12406e-05	0	0	-nan
8.13064e-05	0	0	-nan
8.15553e-05	0	0	-nan
8.17038e-05	0	0	-nan
8.24016e-05	0	0	-nan
8.26132e-05	0	0	-nan
8.27723e-05	0	0	-nan
8.28801e-05	0	0	-nan
8.30131e-05	0	0	-nan
8.31042e-05	0	0	-nan
8.32034e-05	0	0	-nan
8.39305e-05	0	0	-nan
8.39331e-05	0	0	-nan
8.53221e-05	0	0	-nan
8.57449e-05	0	0	-nan
8.61627e-05	0	0	-nan
8.61696e-05	0	0	-nan
8.63072e-05	0	0	-nan
8.66041e-05	0	0	-nan
8.66286e-05	0	0	-nan
8.66599e-05	0	0	-nan
8.67924e-05	0	0	-nan
8.78723e-05	0	0	-nan
8.79851e-05	0	0	-nan
8.82766e-05	0	0	-nan
8.89045e-05	0	0	-nan
8.89619e-05	0	0	-nan
8.94235e-05	0	0	-nan
8.96628e-05	0	0	-nan
9.02071e-05	0	0	-nan
9.0353e-05	0	0	-nan
9.04543e-05	0	0	-nan
9.06566e-05	0	0	-nan
9.06606e-05	0	0	-nan
9.07979e-05	0	0	-nan
9.12353e-05	0	0	-nan
9.151e-05	0	0	-nan
9.29066e-05	0	0	-nan
9.37194e-05	0	0	-nan
9.44337e-05	0	0	-nan
9.4952e-05	0	0	-nan
9.53008e-05	0	0	-nan
9.62488e-05	0	0	-nan
9.6897e-05	0	0	-nan
9.69439e-05	0	0	-nan
9.69911e-05	0	0	-nan
9.74295e-05	0	0	-nan
9.826e-05	0	0	-nan
9.91486e-05	0	0	-nan
9.9884e-05	0	0	-nan
0.000100119	0	0	-nan
0.000102406	0	0	-nan
0.000102852	0	0	-nan
0.000102985	0	0	-nan
0.000103271	0	0	-nan
0.00010355	0	0	-nan
0.00010411	0	0	-nan
0.000104128	0	0	-nan
0.000104924	0	0	-nan
0.000105337	0	0	-nan
0.000105904	0	0	-nan
0.000106475	0	0	-nan
0.000106516	0	0	-nan
0.000108524	0	0	-nan
0.000108765	0	0	-nan
0.000109347	0	0	-nan
0.000111256	0	0	-nan
0.000111781	0	0	-nan
0.000113508	0	0	-nan
0.000114117	0	0	-nan
0.000114127	0	0	-nan
0.000114827	0	0	-nan
0.000117761	0	0	-nan
0.000117765	0	0	-nan
0.000118194	0	0	-nan
0.000118451	0	0	-nan
0.000118869	0	0	-nan
0.000119576	0	0	-nan
0.000120248	0	0	-nan
0.000121397	0	0	-nan
0.000121431	0	0	-nan
0.000121433	0	0	-nan
0.000121728	0	0	-nan
0.000121979	0	0	-nan
0.000122337	0	0	-nan
0.000122454	0	0	-nan
0.000122751	0	0	-nan
0.000123376	0	0	-nan
0.000123458	0	0	-nan
0.000123663	0	0	-nan
0.000124204	0	0	-nan
0.000125654	0	0	-nan
0.000125839	0	0	-nan
0.000126503	0	0	-nan
0.000126767	0	0	-nan
0.000128014	0	0	-nan
0.000128306	0	0	-nan
0.000129673	0	0	-nan
0.000129883	0	0	-nan
0.000130358	0	0	-nan
0.000131677	0	0	-nan
0.000132052	0	0	-nan
0.000133058	0	0	-nan
0.000134023	0	0	-nan
0.000135247	0	0	-nan
0.000135918	0	0	-nan
0.000135922	0	0	-nan
0.000136099	0	0	-nan
0.000136511	0	0	-nan
0.000137324	0	0	-nan
0.000137581	0	0	-nan
0.000143304	0	0	-nan
0.000143837	0	0	-nan
0.000144853	0	0	-nan
0.000145781	0	0	-nan
0.00014667	0	0	-nan
0.000148376	0	0	-nan
0.000149102	0	0	-nan
0.000149441	0	0	-nan
0.000149776	0	0	-nan
0.000150151	0	0	-nan
0.000151218	0	0	-nan
0.000154263	0	0	-nan
0.000157103	0	0	-nan
0.000159408	0	0	-nan
0.00015986	0	0	-nan
0.000160349	0	0	-nan
0.000160838	0	0	-nan
0.000163515	0	0	-nan
0.00016571	0	0	-nan
0.000168076	0	0	-nan
0.000169689	0	0	-nan
0.000170076	0	0	-nan
0.000172027	0	0	-nan
0.000172072	0	0	-nan
0.00017695	0	0	-nan
0.000180306	0	0	-nan
0.000180939	0	0	-nan
0.000181006	0	0	-nan
0.000192966	0	0	-nan
0.00019327	0	0	-nan
0.000200697	0	0	-nan
0.000204952	0	0	-nan
0.000208847	0	0	-nan
0.000210974	0	0	-nan
0.000217892	0	0	-nan
0.000220595	0	0	-nan
0.000221381	0	0	-nan
0.000229929	0	0	-nan
0.000236348	0	0	-nan
0.000236405	0	0	-nan
0.000242346	0	0	-nan
0.000246664	0	0	-nan
0.000253831	0	0	-nan
0.000272965	0	0	-nan
0.000289924	0	0	-nan
0.000298671	0	0	-nan
0.000304864	0	0	-nan
0.00030527	0	0	-nan
0.000316979	0	0	-nan
0.000320255	0	0	-nan
0.000327215	0	0	-nan
0.000328831	0	0	-nan
0.000334146	0	0	-nan
0.000341968	0	0	-nan
0.000344889	0	0	-nan
0.00034947	0	0	-nan
0.000358196	0	0	-nan
0.000358287	0	0	-nan
0.000370156	0	0	-nan
0.000371221	0	0	-nan
0.000372862	0	0	-nan
0.000393465	0	0	-nan
0.000408573	0	0	-nan
0.000430411	0	0	-nan
0.00045461	0	0	-nan
0.000458037	0	0	-nan
0.000461519	0	0	-nan
0.000496074	0	0	-nan
0.000517722	0	0	-nan
0.00052413	0	0	-nan
0.000560008	0	0	-nan
0.000564151	0	0	-nan
0.000638172	0	0	-nan
0.000654192	0	0	-nan
0.0006663	0	0	-nan
0.000686673	0	0	-nan
0.000710132	0	0	-nan
0.000728486	0	0	-nan
0.000764603	0	0	-nan
0.00077308	0	0	-nan
0.000804569	0	0	-nan
0.000839333	0	0	-nan
0.000926938	0	0	-nan
0.000929174	0	0	-nan
0.000954534	0	0	-nan
0.000967215	0	0	-nan
0.000975387	0	0	-nan
0.00103131	0	0	-nan
0.00107072	0	0	-nan
0.00107698	0	0	-nan
0.00111895	0	0	-nan
0.00112566	0	0	-nan
0.00115184	0	0	-nan
0.00118607	0	0	-nan
0.00124441	0	0	-nan
0.00124951	0	0	-nan
0.00128219	0	0	-nan
0.00128426	0	0	-nan
0.00133434	0	0	-nan
0.00136424	0	0	-nan
0.0014228	0	0	-nan
0.0014835	0	0	-nan
0.00172148	0	0	-nan
0.00184948	0	0	-nan
0.00190665	0	0	-nan
0.00202474	0	0	-nan
0.00211831	0	0	-nan
0.00219537	0	0	-nan
0.00248575	0	0	-nan
0.00248931	0	0	-nan
0.00251876	0.0138198	0.0276396	-nan
0.00255493	0.0138198	0.0276396	-nan
0.00260907	0.0138198	0.0276396	-nan
0.00307494	0.0138198	0.0276396	-nan
0.00416999	0.0414594	0	-nan
0.00432296	0.0414594	0	-nan
0.00643081	0.0414594	0	-nan
