2.69633e-09	0	0	-nan
6.82119e-09	0	0	-nan
1.1353e-08	0	0	-nan
4.03762e-08	0	0	-nan
8.86609e-08	0	0	-nan
1.02963e-07	0	0	-nan
1.06961e-07	0	0	-nan
1.16389e-07	0	0	-nan
1.29664e-07	0	0	-nan
1.30456e-07	0	0	-nan
1.37261e-07	0	0	-nan
1.41667e-07	0	0	-nan
1.71799e-07	0	0	-nan
1.75263e-07	0	0	-nan
1.97305e-07	0	0	-nan
2.10256e-07	0	0	-nan
2.25214e-07	0	0	-nan
2.274e-07	0	0	-nan
2.47162e-07	0	0	-nan
2.60732e-07	0	0	-nan
2.63838e-07	0	0	-nan
2.72703e-07	0	0	-nan
2.73004e-07	0	0	-nan
2.74995e-07	0	0	-nan
2.75841e-07	0	0	-nan
2.95237e-07	0	0	-nan
3.0585e-07	0	0	-nan
3.13373e-07	0	0	-nan
3.18456e-07	0	0	-nan
3.47392e-07	0	0	-nan
3.62687e-07	0	0	-nan
3.83523e-07	0	0	-nan
3.95141e-07	0	0	-nan
4.05538e-07	0	0	-nan
4.09355e-07	0	0	-nan
4.39164e-07	0	0	-nan
4.42898e-07	0	0	-nan
4.5722e-07	0	0	-nan
4.96095e-07	0	0	-nan
5.02358e-07	0	0	-nan
5.04762e-07	0	0	-nan
5.09303e-07	0	0	-nan
5.35526e-07	0	0	-nan
5.56315e-07	0	0	-nan
5.61574e-07	0	0	-nan
5.65438e-07	0	0	-nan
5.99553e-07	0	0	-nan
6.03769e-07	0	0	-nan
6.23252e-07	0	0	-nan
6.63491e-07	0	0	-nan
6.65573e-07	0	0	-nan
6.89227e-07	0	0	-nan
6.91413e-07	0	0	-nan
6.95433e-07	0	0	-nan
7.12351e-07	0	0	-nan
7.25051e-07	0	0	-nan
7.25637e-07	0	0	-nan
7.31914e-07	0	0	-nan
7.42041e-07	0	0	-nan
8.18394e-07	0	0	-nan
8.76193e-07	0	0	-nan
8.9306e-07	0	0	-nan
8.95787e-07	0	0	-nan
8.97058e-07	0	0	-nan
9.02467e-07	0	0	-nan
9.03171e-07	0	0	-nan
9.10471e-07	0	0	-nan
9.29332e-07	0	0	-nan
9.39155e-07	0	0	-nan
9.92665e-07	0	0	-nan
1.01201e-06	0	0	-nan
1.01764e-06	0	0	-nan
1.01788e-06	0	0	-nan
1.02405e-06	0	0	-nan
1.03387e-06	0	0	-nan
1.05869e-06	0	0	-nan
1.0606e-06	0	0	-nan
1.09159e-06	0	0	-nan
1.10668e-06	0	0	-nan
1.11099e-06	0	0	-nan
1.12845e-06	0	0	-nan
1.14453e-06	0	0	-nan
1.14909e-06	0	0	-nan
1.14974e-06	0	0	-nan
1.16243e-06	0	0	-nan
1.18872e-06	0	0	-nan
1.1923e-06	0	0	-nan
1.1973e-06	0	0	-nan
1.20477e-06	0	0	-nan
1.2198e-06	0	0	-nan
1.22315e-06	0	0	-nan
1.22785e-06	0	0	-nan
1.24381e-06	0	0	-nan
1.25672e-06	0	0	-nan
1.28179e-06	0	0	-nan
1.28392e-06	0	0	-nan
1.30147e-06	0	0	-nan
1.30816e-06	0	0	-nan
1.31216e-06	0	0	-nan
1.31573e-06	0	0	-nan
1.32792e-06	0	0	-nan
1.35515e-06	0	0	-nan
1.35889e-06	0	0	-nan
1.37695e-06	0	0	-nan
1.3796e-06	0	0	-nan
1.38286e-06	0	0	-nan
1.40778e-06	0	0	-nan
1.41509e-06	0	0	-nan
1.42136e-06	0	0	-nan
1.44816e-06	0	0	-nan
1.46081e-06	0	0	-nan
1.46314e-06	0	0	-nan
1.47152e-06	0	0	-nan
1.49288e-06	0	0	-nan
1.54122e-06	0	0	-nan
1.55076e-06	0	0	-nan
1.55679e-06	0	0	-nan
1.56887e-06	0	0	-nan
1.58213e-06	0	0	-nan
1.58518e-06	0	0	-nan
1.59787e-06	0	0	-nan
1.60418e-06	0	0	-nan
1.6097e-06	0	0	-nan
1.6116e-06	0	0	-nan
1.6254e-06	0	0	-nan
1.64641e-06	0	0	-nan
1.65902e-06	0	0	-nan
1.66475e-06	0	0	-nan
1.68629e-06	0	0	-nan
1.69167e-06	0	0	-nan
1.72915e-06	0	0	-nan
1.7309e-06	0	0	-nan
1.73442e-06	0	0	-nan
1.78392e-06	0	0	-nan
1.78877e-06	0	0	-nan
1.81658e-06	0	0	-nan
1.82411e-06	0	0	-nan
1.84702e-06	0	0	-nan
1.86017e-06	0	0	-nan
1.86039e-06	0	0	-nan
1.8845e-06	0	0	-nan
1.89531e-06	0	0	-nan
1.90077e-06	0	0	-nan
1.92276e-06	0	0	-nan
1.93096e-06	0	0	-nan
1.94289e-06	0	0	-nan
1.97135e-06	0	0	-nan
1.97158e-06	0	0	-nan
1.99586e-06	0	0	-nan
2.07163e-06	0	0	-nan
2.12495e-06	0	0	-nan
2.12607e-06	0	0	-nan
2.14512e-06	0	0	-nan
2.14662e-06	0	0	-nan
2.15794e-06	0	0	-nan
2.17019e-06	0	0	-nan
2.18115e-06	0	0	-nan
2.18362e-06	0	0	-nan
2.19574e-06	0	0	-nan
2.22789e-06	0	0	-nan
2.2314e-06	0	0	-nan
2.24489e-06	0	0	-nan
2.25796e-06	0	0	-nan
2.26084e-06	0	0	-nan
2.27331e-06	0	0	-nan
2.27623e-06	0	0	-nan
2.27858e-06	0	0	-nan
2.30188e-06	0	0	-nan
2.32684e-06	0	0	-nan
2.38901e-06	0	0	-nan
2.40853e-06	0	0	-nan
2.44295e-06	0	0	-nan
2.50126e-06	0	0	-nan
2.5185e-06	0	0	-nan
2.521e-06	0	0	-nan
2.53536e-06	0	0	-nan
2.5458e-06	0	0	-nan
2.58346e-06	0	0	-nan
2.60856e-06	0	0	-nan
2.62509e-06	0	0	-nan
2.64396e-06	0	0	-nan
2.64704e-06	0	0	-nan
2.65174e-06	0	0	-nan
2.66215e-06	0	0	-nan
2.66972e-06	0	0	-nan
2.67485e-06	0	0	-nan
2.72447e-06	0	0	-nan
2.72562e-06	0	0	-nan
2.73357e-06	0	0	-nan
2.73601e-06	0	0	-nan
2.73784e-06	0	0	-nan
2.76989e-06	0	0	-nan
2.79735e-06	0	0	-nan
2.80756e-06	0	0	-nan
2.84709e-06	0	0	-nan
2.85504e-06	0	0	-nan
2.86596e-06	0	0	-nan
2.866e-06	0	0	-nan
2.86803e-06	0	0	-nan
2.87434e-06	0	0	-nan
2.91032e-06	0	0	-nan
2.96524e-06	0	0	-nan
2.98056e-06	0	0	-nan
3.02374e-06	0	0	-nan
3.0471e-06	0	0	-nan
3.05543e-06	0	0	-nan
3.07089e-06	0	0	-nan
3.09246e-06	0	0	-nan
3.09913e-06	0	0	-nan
3.1426e-06	0	0	-nan
3.14922e-06	0	0	-nan
3.15247e-06	0	0	-nan
3.15609e-06	0	0	-nan
3.21889e-06	0	0	-nan
3.22061e-06	0	0	-nan
3.22089e-06	0	0	-nan
3.23018e-06	0	0	-nan
3.23859e-06	0	0	-nan
3.24444e-06	0	0	-nan
3.25328e-06	0	0	-nan
3.25711e-06	0	0	-nan
3.26717e-06	0	0	-nan
3.26923e-06	0	0	-nan
3.30841e-06	0	0	-nan
3.32696e-06	0	0	-nan
3.3467e-06	0	0	-nan
3.36512e-06	0	0	-nan
3.37574e-06	0	0	-nan
3.37775e-06	0	0	-nan
3.39046e-06	0	0	-nan
3.39737e-06	0	0	-nan
3.40421e-06	0	0	-nan
3.40459e-06	0	0	-nan
3.42715e-06	0	0	-nan
3.44542e-06	0	0	-nan
3.45198e-06	0	0	-nan
3.46313e-06	0	0	-nan
3.47218e-06	0	0	-nan
3.48638e-06	0	0	-nan
3.49384e-06	0	0	-nan
3.56454e-06	0	0	-nan
3.56712e-06	0	0	-nan
3.58822e-06	0	0	-nan
3.62364e-06	0	0	-nan
3.66312e-06	0	0	-nan
3.69438e-06	0	0	-nan
3.72605e-06	0	0	-nan
3.73091e-06	0	0	-nan
3.74069e-06	0	0	-nan
3.74761e-06	0	0	-nan
3.77031e-06	0	0	-nan
3.83293e-06	0	0	-nan
3.85474e-06	0	0	-nan
3.8889e-06	0	0	-nan
3.91983e-06	0	0	-nan
3.94695e-06	0	0	-nan
3.95311e-06	0	0	-nan
3.97744e-06	0	0	-nan
3.9867e-06	0	0	-nan
4.03829e-06	0	0	-nan
4.049e-06	0	0	-nan
4.0818e-06	0	0	-nan
4.08338e-06	0	0	-nan
4.10058e-06	0	0	-nan
4.10308e-06	0	0	-nan
4.10781e-06	0	0	-nan
4.12033e-06	0	0	-nan
4.14523e-06	0	0	-nan
4.18988e-06	0	0	-nan
4.19493e-06	0	0	-nan
4.20538e-06	0	0	-nan
4.21572e-06	0	0	-nan
4.26872e-06	0	0	-nan
4.26942e-06	0	0	-nan
4.29835e-06	0	0	-nan
4.36564e-06	0	0	-nan
4.40343e-06	0	0	-nan
4.41843e-06	0	0	-nan
4.42128e-06	0	0	-nan
4.4377e-06	0	0	-nan
4.44005e-06	0	0	-nan
4.46007e-06	0	0	-nan
4.4914e-06	0	0	-nan
4.50478e-06	0	0	-nan
4.52502e-06	0	0	-nan
4.59328e-06	0	0	-nan
4.60434e-06	0	0	-nan
4.62451e-06	0	0	-nan
4.62649e-06	0	0	-nan
4.63206e-06	0	0	-nan
4.63732e-06	0	0	-nan
4.6868e-06	0	0	-nan
4.69274e-06	0	0	-nan
4.72388e-06	0	0	-nan
4.72416e-06	0	0	-nan
4.72804e-06	0	0	-nan
4.76067e-06	0	0	-nan
4.80663e-06	0	0	-nan
4.82509e-06	0	0	-nan
4.84209e-06	0	0	-nan
4.85065e-06	0	0	-nan
4.8533e-06	0	0	-nan
4.86019e-06	0	0	-nan
4.86518e-06	0	0	-nan
4.94034e-06	0	0	-nan
4.94906e-06	0	0	-nan
4.9561e-06	0	0	-nan
4.98861e-06	0	0	-nan
5.00381e-06	0	0	-nan
5.02584e-06	0	0	-nan
5.04382e-06	0	0	-nan
5.06617e-06	0	0	-nan
5.12984e-06	0	0	-nan
5.227e-06	0	0	-nan
5.23023e-06	0	0	-nan
5.26281e-06	0	0	-nan
5.30511e-06	0	0	-nan
5.36858e-06	0	0	-nan
5.41662e-06	0	0	-nan
5.47458e-06	0	0	-nan
5.4854e-06	0	0	-nan
5.49617e-06	0	0	-nan
5.50043e-06	0	0	-nan
5.57403e-06	0	0	-nan
5.663e-06	0	0	-nan
5.67156e-06	0	0	-nan
5.67686e-06	0	0	-nan
5.70087e-06	0	0	-nan
5.77012e-06	0	0	-nan
5.82893e-06	0	0	-nan
5.83234e-06	0	0	-nan
5.87493e-06	0	0	-nan
5.89317e-06	0	0	-nan
5.91008e-06	0	0	-nan
5.91919e-06	0	0	-nan
5.92162e-06	0	0	-nan
5.93753e-06	0	0	-nan
5.9402e-06	0	0	-nan
5.95296e-06	0	0	-nan
5.96634e-06	0	0	-nan
6.04613e-06	0	0	-nan
6.05349e-06	0	0	-nan
6.10109e-06	0	0	-nan
6.11453e-06	0	0	-nan
6.11668e-06	0	0	-nan
6.16515e-06	0	0	-nan
6.19466e-06	0	0	-nan
6.20447e-06	0	0	-nan
6.23268e-06	0	0	-nan
6.3357e-06	0	0	-nan
6.3467e-06	0	0	-nan
6.41917e-06	0	0	-nan
6.45201e-06	0	0	-nan
6.51383e-06	0	0	-nan
6.51928e-06	0	0	-nan
6.54705e-06	0	0	-nan
6.55453e-06	0	0	-nan
6.56593e-06	0	0	-nan
6.67277e-06	0	0	-nan
6.67435e-06	0	0	-nan
6.70188e-06	0	0	-nan
6.74703e-06	0	0	-nan
6.76e-06	0	0	-nan
6.77522e-06	0	0	-nan
6.77664e-06	0	0	-nan
6.86723e-06	0	0	-nan
6.91203e-06	0	0	-nan
6.92708e-06	0	0	-nan
6.94929e-06	0	0	-nan
6.96398e-06	0	0	-nan
6.97052e-06	0	0	-nan
6.98485e-06	0	0	-nan
6.99547e-06	0	0	-nan
7.045e-06	0	0	-nan
7.08655e-06	0	0	-nan
7.1083e-06	0	0	-nan
7.13507e-06	0	0	-nan
7.1467e-06	0	0	-nan
7.16859e-06	0	0	-nan
7.21489e-06	0	0	-nan
7.23611e-06	0	0	-nan
7.23942e-06	0	0	-nan
7.27324e-06	0	0	-nan
7.28217e-06	0	0	-nan
7.30317e-06	0	0	-nan
7.32189e-06	0	0	-nan
7.32977e-06	0	0	-nan
7.33787e-06	0	0	-nan
7.35224e-06	0	0	-nan
7.36194e-06	0	0	-nan
7.36805e-06	0	0	-nan
7.3736e-06	0	0	-nan
7.37877e-06	0	0	-nan
7.39196e-06	0	0	-nan
7.42953e-06	0	0	-nan
7.45998e-06	0	0	-nan
7.5043e-06	0	0	-nan
7.51221e-06	0	0	-nan
7.51481e-06	0	0	-nan
7.51533e-06	0	0	-nan
7.51565e-06	0	0	-nan
7.59691e-06	0	0	-nan
7.63014e-06	0	0	-nan
7.63156e-06	0	0	-nan
7.67262e-06	0	0	-nan
7.71416e-06	0	0	-nan
7.77664e-06	0	0	-nan
7.79711e-06	0	0	-nan
7.80458e-06	0	0	-nan
7.81671e-06	0	0	-nan
7.82297e-06	0	0	-nan
7.92399e-06	0	0	-nan
7.94457e-06	0	0	-nan
7.94951e-06	0	0	-nan
7.96918e-06	0	0	-nan
7.97907e-06	0	0	-nan
7.98965e-06	0	0	-nan
7.99053e-06	0	0	-nan
8.00307e-06	0	0	-nan
8.05325e-06	0	0	-nan
8.10932e-06	0	0	-nan
8.11712e-06	0	0	-nan
8.12991e-06	0	0	-nan
8.20764e-06	0	0	-nan
8.22887e-06	0	0	-nan
8.24086e-06	0	0	-nan
8.25947e-06	0	0	-nan
8.26803e-06	0	0	-nan
8.27266e-06	0	0	-nan
8.28199e-06	0	0	-nan
8.37077e-06	0	0	-nan
8.41071e-06	0	0	-nan
8.49564e-06	0	0	-nan
8.52197e-06	0	0	-nan
8.6225e-06	0	0	-nan
8.63769e-06	0	0	-nan
8.64923e-06	0	0	-nan
8.663e-06	0	0	-nan
8.69168e-06	0	0	-nan
8.76751e-06	0	0	-nan
8.87911e-06	0	0	-nan
8.87934e-06	0	0	-nan
8.91077e-06	0	0	-nan
8.91535e-06	0	0	-nan
8.92666e-06	0	0	-nan
8.98396e-06	0	0	-nan
8.99246e-06	0	0	-nan
9.02469e-06	0	0	-nan
9.04063e-06	0	0	-nan
9.1269e-06	0	0	-nan
9.13043e-06	0	0	-nan
9.13103e-06	0	0	-nan
9.16958e-06	0	0	-nan
9.21327e-06	0	0	-nan
9.24102e-06	0	0	-nan
9.28757e-06	0	0	-nan
9.30158e-06	0	0	-nan
9.42257e-06	0	0	-nan
9.45795e-06	0	0	-nan
9.59063e-06	0	0	-nan
9.605e-06	0	0	-nan
9.6213e-06	0	0	-nan
9.64385e-06	0	0	-nan
9.81597e-06	0	0	-nan
9.84039e-06	0	0	-nan
9.99101e-06	0	0	-nan
1.00196e-05	0	0	-nan
1.00531e-05	0	0	-nan
1.00582e-05	0	0	-nan
1.00742e-05	0	0	-nan
1.01068e-05	0	0	-nan
1.01451e-05	0	0	-nan
1.02243e-05	0	0	-nan
1.02403e-05	0	0	-nan
1.02482e-05	0	0	-nan
1.02837e-05	0	0	-nan
1.03021e-05	0	0	-nan
1.03473e-05	0	0	-nan
1.03473e-05	0	0	-nan
1.03528e-05	0	0	-nan
1.04247e-05	0	0	-nan
1.04535e-05	0	0	-nan
1.04554e-05	0	0	-nan
1.05048e-05	0	0	-nan
1.05215e-05	0	0	-nan
1.05741e-05	0	0	-nan
1.05878e-05	0	0	-nan
1.06977e-05	0	0	-nan
1.07189e-05	0	0	-nan
1.07234e-05	0	0	-nan
1.07453e-05	0	0	-nan
1.07848e-05	0	0	-nan
1.07999e-05	0	0	-nan
1.083e-05	0	0	-nan
1.08434e-05	0	0	-nan
1.08851e-05	0	0	-nan
1.0889e-05	0	0	-nan
1.10178e-05	0	0	-nan
1.12685e-05	0	0	-nan
1.1294e-05	0	0	-nan
1.13621e-05	0	0	-nan
1.14116e-05	0	0	-nan
1.14169e-05	0	0	-nan
1.14363e-05	0	0	-nan
1.14625e-05	0	0	-nan
1.14771e-05	0	0	-nan
1.14887e-05	0	0	-nan
1.1577e-05	0	0	-nan
1.16357e-05	0	0	-nan
1.17673e-05	0	0	-nan
1.1772e-05	0	0	-nan
1.19114e-05	0	0	-nan
1.19374e-05	0	0	-nan
1.19385e-05	0	0	-nan
1.20647e-05	0	0	-nan
1.20656e-05	0	0	-nan
1.20986e-05	0	0	-nan
1.22143e-05	0	0	-nan
1.23714e-05	0	0	-nan
1.23741e-05	0	0	-nan
1.24167e-05	0	0	-nan
1.24185e-05	0	0	-nan
1.24533e-05	0	0	-nan
1.25374e-05	0	0	-nan
1.25874e-05	0	0	-nan
1.25926e-05	0	0	-nan
1.26521e-05	0	0	-nan
1.26898e-05	0	0	-nan
1.27221e-05	0	0	-nan
1.28471e-05	0	0	-nan
1.29003e-05	0	0	-nan
1.2916e-05	0	0	-nan
1.29466e-05	0	0	-nan
1.30183e-05	0	0	-nan
1.3019e-05	0	0	-nan
1.30687e-05	0	0	-nan
1.31919e-05	0	0	-nan
1.32001e-05	0	0	-nan
1.32232e-05	0	0	-nan
1.33704e-05	0	0	-nan
1.3451e-05	0	0	-nan
1.34724e-05	0	0	-nan
1.34809e-05	0	0	-nan
1.34851e-05	0	0	-nan
1.35068e-05	0	0	-nan
1.35334e-05	0	0	-nan
1.35756e-05	0	0	-nan
1.36789e-05	0	0	-nan
1.37027e-05	0	0	-nan
1.37074e-05	0	0	-nan
1.37678e-05	0	0	-nan
1.37932e-05	0	0	-nan
1.38051e-05	0	0	-nan
1.38289e-05	0	0	-nan
1.38805e-05	0	0	-nan
1.39437e-05	0	0	-nan
1.39544e-05	0	0	-nan
1.39631e-05	0	0	-nan
1.40405e-05	0	0	-nan
1.40676e-05	0	0	-nan
1.40967e-05	0	0	-nan
1.41466e-05	0	0	-nan
1.42304e-05	0	0	-nan
1.42624e-05	0	0	-nan
1.43121e-05	0	0	-nan
1.43263e-05	0	0	-nan
1.43346e-05	0	0	-nan
1.44182e-05	0	0	-nan
1.44273e-05	0	0	-nan
1.44287e-05	0	0	-nan
1.44535e-05	0	0	-nan
1.44737e-05	0	0	-nan
1.45053e-05	0	0	-nan
1.45138e-05	0	0	-nan
1.45479e-05	0	0	-nan
1.46504e-05	0	0	-nan
1.46552e-05	0	0	-nan
1.46987e-05	0	0	-nan
1.47077e-05	0	0	-nan
1.47316e-05	0	0	-nan
1.47502e-05	0	0	-nan
1.48102e-05	0	0	-nan
1.48308e-05	0	0	-nan
1.4832e-05	0	0	-nan
1.48512e-05	0	0	-nan
1.48598e-05	0	0	-nan
1.48606e-05	0	0	-nan
1.49968e-05	0	0	-nan
1.50009e-05	0	0	-nan
1.50725e-05	0	0	-nan
1.51062e-05	0	0	-nan
1.51088e-05	0	0	-nan
1.51284e-05	0	0	-nan
1.5142e-05	0	0	-nan
1.52683e-05	0	0	-nan
1.55779e-05	0	0	-nan
1.55987e-05	0	0	-nan
1.56798e-05	0	0	-nan
1.56911e-05	0	0	-nan
1.57693e-05	0	0	-nan
1.57923e-05	0	0	-nan
1.57928e-05	0	0	-nan
1.5815e-05	0	0	-nan
1.58362e-05	0	0	-nan
1.60844e-05	0	0	-nan
1.61255e-05	0	0	-nan
1.61385e-05	0	0	-nan
1.6185e-05	0	0	-nan
1.62144e-05	0	0	-nan
1.63627e-05	0	0	-nan
1.64735e-05	0	0	-nan
1.653e-05	0	0	-nan
1.65736e-05	0	0	-nan
1.65959e-05	0	0	-nan
1.6608e-05	0	0	-nan
1.662e-05	0	0	-nan
1.67109e-05	0	0	-nan
1.69051e-05	0	0	-nan
1.69055e-05	0	0	-nan
1.70257e-05	0	0	-nan
1.70414e-05	0	0	-nan
1.71393e-05	0	0	-nan
1.72099e-05	0	0	-nan
1.72327e-05	0	0	-nan
1.73448e-05	0	0	-nan
1.75116e-05	0	0	-nan
1.76743e-05	0	0	-nan
1.77379e-05	0	0	-nan
1.79052e-05	0	0	-nan
1.79114e-05	0	0	-nan
1.79227e-05	0	0	-nan
1.79439e-05	0	0	-nan
1.79606e-05	0	0	-nan
1.80293e-05	0	0	-nan
1.8242e-05	0	0	-nan
1.82462e-05	0	0	-nan
1.82593e-05	0	0	-nan
1.82678e-05	0	0	-nan
1.84561e-05	0	0	-nan
1.84877e-05	0	0	-nan
1.85337e-05	0	0	-nan
1.8606e-05	0	0	-nan
1.88084e-05	0	0	-nan
1.89205e-05	0	0	-nan
1.89292e-05	0	0	-nan
1.89347e-05	0	0	-nan
1.8997e-05	0	0	-nan
1.91054e-05	0	0	-nan
1.91273e-05	0	0	-nan
1.91592e-05	0	0	-nan
1.93284e-05	0	0	-nan
1.95394e-05	0	0	-nan
1.95492e-05	0	0	-nan
1.95763e-05	0	0	-nan
1.9581e-05	0	0	-nan
1.96724e-05	0	0	-nan
1.97007e-05	0	0	-nan
1.97087e-05	0	0	-nan
1.97431e-05	0	0	-nan
1.97621e-05	0	0	-nan
1.97676e-05	0	0	-nan
1.98376e-05	0	0	-nan
1.99573e-05	0	0	-nan
1.99682e-05	0	0	-nan
2.00316e-05	0	0	-nan
2.00474e-05	0	0	-nan
2.0077e-05	0	0	-nan
2.0085e-05	0	0	-nan
2.00857e-05	0	0	-nan
2.03124e-05	0	0	-nan
2.04776e-05	0	0	-nan
2.04782e-05	0	0	-nan
2.04972e-05	0	0	-nan
2.06259e-05	0	0	-nan
2.0774e-05	0	0	-nan
2.08954e-05	0	0	-nan
2.09206e-05	0	0	-nan
2.09212e-05	0	0	-nan
2.09742e-05	0	0	-nan
2.10659e-05	0	0	-nan
2.1093e-05	0	0	-nan
2.1106e-05	0	0	-nan
2.11512e-05	0	0	-nan
2.13257e-05	0	0	-nan
2.13428e-05	0	0	-nan
2.13467e-05	0	0	-nan
2.13871e-05	0	0	-nan
2.13875e-05	0	0	-nan
2.14186e-05	0	0	-nan
2.14359e-05	0	0	-nan
2.16487e-05	0	0	-nan
2.16701e-05	0	0	-nan
2.17221e-05	0	0	-nan
2.17255e-05	0	0	-nan
2.17408e-05	0	0	-nan
2.188e-05	0	0	-nan
2.1895e-05	0	0	-nan
2.19178e-05	0	0	-nan
2.20385e-05	0	0	-nan
2.2123e-05	0	0	-nan
2.22298e-05	0	0	-nan
2.23281e-05	0	0	-nan
2.25821e-05	0	0	-nan
2.25828e-05	0	0	-nan
2.26124e-05	0	0	-nan
2.27023e-05	0	0	-nan
2.27248e-05	0	0	-nan
2.27586e-05	0	0	-nan
2.27731e-05	0	0	-nan
2.27889e-05	0	0	-nan
2.27968e-05	0	0	-nan
2.29176e-05	0	0	-nan
2.2938e-05	0	0	-nan
2.30149e-05	0	0	-nan
2.30866e-05	0	0	-nan
2.31611e-05	0	0	-nan
2.32984e-05	0	0	-nan
2.33158e-05	0	0	-nan
2.34034e-05	0	0	-nan
2.34268e-05	0	0	-nan
2.34762e-05	0	0	-nan
2.34888e-05	0	0	-nan
2.36502e-05	0	0	-nan
2.37275e-05	0	0	-nan
2.37618e-05	0	0	-nan
2.39653e-05	0	0	-nan
2.40103e-05	0	0	-nan
2.40774e-05	0	0	-nan
2.40928e-05	0	0	-nan
2.41614e-05	0	0	-nan
2.41645e-05	0	0	-nan
2.4271e-05	0	0	-nan
2.43525e-05	0	0	-nan
2.44344e-05	0	0	-nan
2.44824e-05	0	0	-nan
2.45435e-05	0	0	-nan
2.45581e-05	0	0	-nan
2.46207e-05	0	0	-nan
2.48935e-05	0	0	-nan
2.49408e-05	0	0	-nan
2.50171e-05	0	0	-nan
2.50393e-05	0	0	-nan
2.51049e-05	0	0	-nan
2.51176e-05	0	0	-nan
2.5177e-05	0	0	-nan
2.51994e-05	0	0	-nan
2.52304e-05	0	0	-nan
2.52687e-05	0	0	-nan
2.5276e-05	0	0	-nan
2.52829e-05	0	0	-nan
2.53384e-05	0	0	-nan
2.53413e-05	0	0	-nan
2.54347e-05	0	0	-nan
2.54811e-05	0	0	-nan
2.55415e-05	0	0	-nan
2.56314e-05	0	0	-nan
2.56374e-05	0	0	-nan
2.56685e-05	0	0	-nan
2.56703e-05	0	0	-nan
2.58129e-05	0	0	-nan
2.58186e-05	0	0	-nan
2.58541e-05	0	0	-nan
2.60424e-05	0	0	-nan
2.61428e-05	0	0	-nan
2.61716e-05	0	0	-nan
2.63003e-05	0	0	-nan
2.64113e-05	0	0	-nan
2.64296e-05	0	0	-nan
2.64402e-05	0	0	-nan
2.67022e-05	0	0	-nan
2.67736e-05	0	0	-nan
2.67745e-05	0	0	-nan
2.6836e-05	0	0	-nan
2.706e-05	0	0	-nan
2.70724e-05	0	0	-nan
2.71301e-05	0	0	-nan
2.71366e-05	0	0	-nan
2.72375e-05	0	0	-nan
2.73075e-05	0	0	-nan
2.74823e-05	0	0	-nan
2.74904e-05	0	0	-nan
2.75575e-05	0	0	-nan
2.75909e-05	0	0	-nan
2.7599e-05	0	0	-nan
2.77549e-05	0	0	-nan
2.78111e-05	0	0	-nan
2.7952e-05	0	0	-nan
2.81585e-05	0	0	-nan
2.81747e-05	0	0	-nan
2.82023e-05	0	0	-nan
2.8397e-05	0	0	-nan
2.85626e-05	0	0	-nan
2.8647e-05	0	0	-nan
2.86947e-05	0	0	-nan
2.87093e-05	0	0	-nan
2.87619e-05	0	0	-nan
2.88573e-05	0	0	-nan
2.89464e-05	0	0	-nan
2.90264e-05	0	0	-nan
2.92046e-05	0	0	-nan
2.94222e-05	0	0	-nan
2.95172e-05	0	0	-nan
2.95632e-05	0	0	-nan
2.96899e-05	0	0	-nan
2.98445e-05	0	0	-nan
2.99016e-05	0	0	-nan
2.99889e-05	0	0	-nan
3.02235e-05	0	0	-nan
3.02363e-05	0	0	-nan
3.02394e-05	0	0	-nan
3.03488e-05	0	0	-nan
3.043e-05	0	0	-nan
3.05143e-05	0	0	-nan
3.05583e-05	0	0	-nan
3.09195e-05	0	0	-nan
3.11701e-05	0	0	-nan
3.12493e-05	0	0	-nan
3.15122e-05	0	0	-nan
3.15174e-05	0	0	-nan
3.17033e-05	0	0	-nan
3.20647e-05	0	0	-nan
3.23285e-05	0	0	-nan
3.23629e-05	0	0	-nan
3.249e-05	0	0	-nan
3.25239e-05	0	0	-nan
3.25711e-05	0	0	-nan
3.25937e-05	0	0	-nan
3.26332e-05	0	0	-nan
3.27191e-05	0	0	-nan
3.27664e-05	0	0	-nan
3.28846e-05	0	0	-nan
3.29482e-05	0	0	-nan
3.30713e-05	0	0	-nan
3.32807e-05	0	0	-nan
3.337e-05	0	0	-nan
3.33756e-05	0	0	-nan
3.34684e-05	0	0	-nan
3.37472e-05	0	0	-nan
3.38242e-05	0	0	-nan
3.39984e-05	0	0	-nan
3.43126e-05	0	0	-nan
3.44695e-05	0	0	-nan
3.45335e-05	0	0	-nan
3.4541e-05	0	0	-nan
3.46631e-05	0	0	-nan
3.47088e-05	0	0	-nan
3.47253e-05	0	0	-nan
3.47361e-05	0	0	-nan
3.4845e-05	0	0	-nan
3.49303e-05	0	0	-nan
3.49488e-05	0	0	-nan
3.4991e-05	0	0	-nan
3.53266e-05	0	0	-nan
3.53779e-05	0	0	-nan
3.55769e-05	0	0	-nan
3.56688e-05	0	0	-nan
3.59077e-05	0	0	-nan
3.60952e-05	0	0	-nan
3.61766e-05	0	0	-nan
3.638e-05	0	0	-nan
3.66428e-05	0	0	-nan
3.66811e-05	0	0	-nan
3.69238e-05	0	0	-nan
3.69623e-05	0	0	-nan
3.70552e-05	0	0	-nan
3.73246e-05	0	0	-nan
3.73515e-05	0	0	-nan
3.74798e-05	0	0	-nan
3.75095e-05	0	0	-nan
3.77213e-05	0	0	-nan
3.7801e-05	0	0	-nan
3.78848e-05	0	0	-nan
3.79339e-05	0	0	-nan
3.81231e-05	0	0	-nan
3.8124e-05	0	0	-nan
3.82964e-05	0	0	-nan
3.87132e-05	0	0	-nan
3.89241e-05	0	0	-nan
3.89734e-05	0	0	-nan
3.91725e-05	0	0	-nan
3.92013e-05	0	0	-nan
3.92551e-05	0	0	-nan
3.93758e-05	0	0	-nan
3.93762e-05	0	0	-nan
3.945e-05	0	0	-nan
3.9512e-05	0	0	-nan
3.95159e-05	0	0	-nan
3.97563e-05	0	0	-nan
3.97651e-05	0	0	-nan
3.97725e-05	0	0	-nan
3.98255e-05	0	0	-nan
4.00876e-05	0	0	-nan
4.00937e-05	0	0	-nan
4.02403e-05	0	0	-nan
4.03456e-05	0	0	-nan
4.03467e-05	0	0	-nan
4.06669e-05	0	0	-nan
4.07146e-05	0	0	-nan
4.0808e-05	0	0	-nan
4.08513e-05	0	0	-nan
4.12781e-05	0	0	-nan
4.12872e-05	0	0	-nan
4.15105e-05	0	0	-nan
4.15787e-05	0	0	-nan
4.16487e-05	0	0	-nan
4.17018e-05	0	0	-nan
4.17197e-05	0	0	-nan
4.17923e-05	0	0	-nan
4.18608e-05	0	0	-nan
4.18712e-05	0	0	-nan
4.20935e-05	0	0	-nan
4.2263e-05	0	0	-nan
4.25415e-05	0	0	-nan
4.28395e-05	0	0	-nan
4.29095e-05	0	0	-nan
4.30338e-05	0	0	-nan
4.322e-05	0	0	-nan
4.35814e-05	0	0	-nan
4.38052e-05	0	0	-nan
4.38268e-05	0	0	-nan
4.40116e-05	0	0	-nan
4.42139e-05	0	0	-nan
4.43795e-05	0	0	-nan
4.44895e-05	0	0	-nan
4.4995e-05	0	0	-nan
4.51098e-05	0	0	-nan
4.51733e-05	0	0	-nan
4.51766e-05	0	0	-nan
4.52052e-05	0	0	-nan
4.54381e-05	0	0	-nan
4.56248e-05	0	0	-nan
4.56808e-05	0	0	-nan
4.57852e-05	0	0	-nan
4.59646e-05	0	0	-nan
4.60142e-05	0	0	-nan
4.6286e-05	0	0	-nan
4.63613e-05	0	0	-nan
4.69098e-05	0	0	-nan
4.74092e-05	0	0	-nan
4.74765e-05	0	0	-nan
4.75592e-05	0	0	-nan
4.76114e-05	0	0	-nan
4.79523e-05	0	0	-nan
4.79622e-05	0	0	-nan
4.82148e-05	0	0	-nan
4.83275e-05	0	0	-nan
4.85915e-05	0	0	-nan
4.92267e-05	0	0	-nan
4.92877e-05	0	0	-nan
4.93104e-05	0	0	-nan
4.96263e-05	0	0	-nan
4.97198e-05	0	0	-nan
4.97481e-05	0	0	-nan
5.00013e-05	0	0	-nan
5.02575e-05	0	0	-nan
5.02958e-05	0	0	-nan
5.06074e-05	0	0	-nan
5.08957e-05	0	0	-nan
5.11022e-05	0	0	-nan
5.11943e-05	0	0	-nan
5.12009e-05	0	0	-nan
5.13535e-05	0	0	-nan
5.14978e-05	0	0	-nan
5.1578e-05	0	0	-nan
5.16871e-05	0	0	-nan
5.18562e-05	0	0	-nan
5.20437e-05	0	0	-nan
5.20511e-05	0	0	-nan
5.21299e-05	0	0	-nan
5.22028e-05	0	0	-nan
5.22431e-05	0	0	-nan
5.25976e-05	0	0	-nan
5.27038e-05	0	0	-nan
5.29295e-05	0	0	-nan
5.29939e-05	0	0	-nan
5.31395e-05	0	0	-nan
5.32312e-05	0	0	-nan
5.33803e-05	0	0	-nan
5.34826e-05	0	0	-nan
5.41137e-05	0	0	-nan
5.41829e-05	0	0	-nan
5.45804e-05	0	0	-nan
5.4712e-05	0	0	-nan
5.49713e-05	0	0	-nan
5.52118e-05	0	0	-nan
5.53858e-05	0	0	-nan
5.57364e-05	0	0	-nan
5.57423e-05	0	0	-nan
5.58358e-05	0	0	-nan
5.59391e-05	0	0	-nan
5.60668e-05	0	0	-nan
5.64782e-05	0	0	-nan
5.65553e-05	0	0	-nan
5.65706e-05	0	0	-nan
5.6653e-05	0	0	-nan
5.67761e-05	0	0	-nan
5.6891e-05	0	0	-nan
5.70895e-05	0	0	-nan
5.72425e-05	0	0	-nan
5.76155e-05	0	0	-nan
5.76731e-05	0	0	-nan
5.80719e-05	0	0	-nan
5.81933e-05	0	0	-nan
5.82547e-05	0	0	-nan
5.87074e-05	0	0	-nan
5.91377e-05	0	0	-nan
5.92531e-05	0	0	-nan
5.93926e-05	0	0	-nan
5.94312e-05	0	0	-nan
5.94837e-05	0	0	-nan
5.97939e-05	0	0	-nan
6.00852e-05	0	0	-nan
6.03895e-05	0	0	-nan
6.05509e-05	0	0	-nan
6.0575e-05	0	0	-nan
6.07222e-05	0	0	-nan
6.1365e-05	0	0	-nan
6.16088e-05	0	0	-nan
6.17506e-05	0	0	-nan
6.1804e-05	0	0	-nan
6.19451e-05	0	0	-nan
6.20478e-05	0	0	-nan
6.23075e-05	0	0	-nan
6.23471e-05	0	0	-nan
6.23708e-05	0	0	-nan
6.2443e-05	0	0	-nan
6.24997e-05	0	0	-nan
6.26532e-05	0	0	-nan
6.28079e-05	0	0	-nan
6.2824e-05	0	0	-nan
6.29763e-05	0	0	-nan
6.32816e-05	0	0	-nan
6.41426e-05	0	0	-nan
6.41783e-05	0	0	-nan
6.45315e-05	0	0	-nan
6.52401e-05	0	0	-nan
6.54392e-05	0	0	-nan
6.56851e-05	0	0	-nan
6.66539e-05	0	0	-nan
6.67627e-05	0	0	-nan
6.68611e-05	0	0	-nan
6.69613e-05	0	0	-nan
6.71846e-05	0	0	-nan
6.72761e-05	0	0	-nan
6.73335e-05	0	0	-nan
6.73957e-05	0	0	-nan
6.75432e-05	0	0	-nan
6.77038e-05	0	0	-nan
6.77826e-05	0	0	-nan
6.79397e-05	0	0	-nan
6.80494e-05	0	0	-nan
6.83022e-05	0	0	-nan
6.87741e-05	0	0	-nan
6.8977e-05	0	0	-nan
6.92044e-05	0	0	-nan
6.92589e-05	0	0	-nan
6.94587e-05	0	0	-nan
6.96962e-05	0	0	-nan
7.02338e-05	0	0	-nan
7.0284e-05	0	0	-nan
7.03441e-05	0	0	-nan
7.0637e-05	0	0	-nan
7.0877e-05	0	0	-nan
7.16123e-05	0	0	-nan
7.17372e-05	0	0	-nan
7.17472e-05	0	0	-nan
7.18692e-05	0	0	-nan
7.26767e-05	0	0	-nan
7.27735e-05	0	0	-nan
7.35336e-05	0	0	-nan
7.35381e-05	0	0	-nan
7.40028e-05	0	0	-nan
7.40713e-05	0	0	-nan
7.42468e-05	0	0	-nan
7.43242e-05	0	0	-nan
7.44082e-05	0	0	-nan
7.44475e-05	0	0	-nan
7.46944e-05	0	0	-nan
7.49216e-05	0	0	-nan
7.59277e-05	0	0	-nan
7.59656e-05	0	0	-nan
7.59958e-05	0	0	-nan
7.6018e-05	0	0	-nan
7.60843e-05	0	0	-nan
7.60943e-05	0	0	-nan
7.62729e-05	0	0	-nan
7.67584e-05	0	0	-nan
7.71783e-05	0	0	-nan
7.72871e-05	0	0	-nan
7.73065e-05	0	0	-nan
7.86856e-05	0	0	-nan
7.88506e-05	0	0	-nan
7.92898e-05	0	0	-nan
7.92984e-05	0	0	-nan
7.96269e-05	0	0	-nan
7.9671e-05	0	0	-nan
7.98016e-05	0	0	-nan
8.01926e-05	0	0	-nan
8.02928e-05	0	0	-nan
8.04432e-05	0	0	-nan
8.07087e-05	0	0	-nan
8.09449e-05	0	0	-nan
8.13391e-05	0	0	-nan
8.14787e-05	0	0	-nan
8.14947e-05	0	0	-nan
8.19421e-05	0	0	-nan
8.24174e-05	0	0	-nan
8.24312e-05	0	0	-nan
8.24527e-05	0	0	-nan
8.4788e-05	0	0	-nan
8.51328e-05	0	0	-nan
8.51755e-05	0	0	-nan
8.52905e-05	0	0	-nan
8.5867e-05	0	0	-nan
8.58782e-05	0	0	-nan
8.60391e-05	0	0	-nan
8.61426e-05	0	0	-nan
8.67773e-05	0	0	-nan
8.69053e-05	0	0	-nan
8.73739e-05	0	0	-nan
8.81479e-05	0	0	-nan
8.81845e-05	0	0	-nan
8.83164e-05	0	0	-nan
8.87013e-05	0	0	-nan
8.87224e-05	0	0	-nan
8.88438e-05	0	0	-nan
8.89193e-05	0	0	-nan
8.89751e-05	0	0	-nan
8.96587e-05	0	0	-nan
8.98662e-05	0	0	-nan
9.04581e-05	0	0	-nan
9.10891e-05	0	0	-nan
9.12601e-05	0	0	-nan
9.22397e-05	0	0	-nan
9.22985e-05	0	0	-nan
9.35635e-05	0	0	-nan
9.36305e-05	0	0	-nan
9.38048e-05	0	0	-nan
9.39837e-05	0	0	-nan
9.45524e-05	0	0	-nan
9.46165e-05	0	0	-nan
9.52544e-05	0	0	-nan
9.54312e-05	0	0	-nan
9.60361e-05	0	0	-nan
9.80212e-05	0	0	-nan
9.84588e-05	0	0	-nan
9.86362e-05	0	0	-nan
9.89852e-05	0	0	-nan
9.92956e-05	0	0	-nan
9.99888e-05	0	0	-nan
0.000100215	0	0	-nan
0.000101082	0	0	-nan
0.000101183	0	0	-nan
0.000101581	0	0	-nan
0.000101778	0	0	-nan
0.000102006	0	0	-nan
0.000102094	0	0	-nan
0.000102731	0	0	-nan
0.000102804	0	0	-nan
0.000102914	0	0	-nan
0.000103222	0	0	-nan
0.000103772	0	0	-nan
0.00010511	0	0	-nan
0.000105375	0	0	-nan
0.000106003	0	0	-nan
0.000106691	0	0	-nan
0.000107279	0	0	-nan
0.000107605	0	0	-nan
0.000108148	0	0	-nan
0.000108242	0	0	-nan
0.000108494	0	0	-nan
0.000109422	0	0	-nan
0.000110596	0	0	-nan
0.00011061	0	0	-nan
0.000110874	0	0	-nan
0.000111044	0	0	-nan
0.000111265	0	0	-nan
0.000111282	0	0	-nan
0.000111342	0	0	-nan
0.000111635	0	0	-nan
0.00011181	0	0	-nan
0.000111844	0	0	-nan
0.000112042	0	0	-nan
0.000113464	0	0	-nan
0.000114973	0	0	-nan
0.000115102	0	0	-nan
0.00011512	0	0	-nan
0.000116884	0	0	-nan
0.000117171	0	0	-nan
0.000117492	0	0	-nan
0.000117609	0	0	-nan
0.000118657	0	0	-nan
0.000119306	0	0	-nan
0.000119359	0	0	-nan
0.000120064	0	0	-nan
0.000120137	0	0	-nan
0.00012029	0	0	-nan
0.000120565	0	0	-nan
0.00012074	0	0	-nan
0.000122093	0	0	-nan
0.000123268	0	0	-nan
0.000123403	0	0	-nan
0.000123598	0	0	-nan
0.000123735	0	0	-nan
0.00012404	0	0	-nan
0.000124553	0	0	-nan
0.000125001	0	0	-nan
0.000125211	0	0	-nan
0.000125283	0	0	-nan
0.000125499	0	0	-nan
0.000126806	0	0	-nan
0.000127095	0	0	-nan
0.000128626	0	0	-nan
0.000128653	0	0	-nan
0.000128711	0	0	-nan
0.000130635	0	0	-nan
0.000131187	0	0	-nan
0.000131492	0	0	-nan
0.000132107	0	0	-nan
0.000132811	0	0	-nan
0.000132815	0	0	-nan
0.00013286	0	0	-nan
0.000132944	0	0	-nan
0.000133859	0	0	-nan
0.000135362	0	0	-nan
0.000135378	0	0	-nan
0.000136198	0	0	-nan
0.000136451	0	0	-nan
0.000137005	0	0	-nan
0.000138056	0	0	-nan
0.000138132	0	0	-nan
0.000138262	0	0	-nan
0.000142762	0	0	-nan
0.000143726	0	0	-nan
0.000144014	0	0	-nan
0.000146069	0	0	-nan
0.000147081	0	0	-nan
0.000148269	0	0	-nan
0.000152186	0	0	-nan
0.000153027	0	0	-nan
0.000154518	0	0	-nan
0.000154777	0	0	-nan
0.000155822	0	0	-nan
0.000157385	0	0	-nan
0.00016351	0	0	-nan
0.000164202	0	0	-nan
0.000164539	0	0	-nan
0.000168692	0	0	-nan
0.000170643	0	0	-nan
0.000172506	0	0	-nan
0.000173132	0	0	-nan
0.000175109	0	0	-nan
0.000179725	0	0	-nan
0.000183746	0	0	-nan
0.000184799	0	0	-nan
0.000184954	0	0	-nan
0.0001859	0	0	-nan
0.000188284	0	0	-nan
0.00019136	0	0	-nan
0.000193227	0	0	-nan
0.000193693	0	0	-nan
0.000194892	0	0	-nan
0.000195829	0	0	-nan
0.00019718	0	0	-nan
0.000204723	0	0	-nan
0.000204827	0	0	-nan
0.000205125	0	0	-nan
0.000213243	0	0	-nan
0.000214424	0	0	-nan
0.000217938	0	0	-nan
0.000223765	0	0	-nan
0.000225336	0	0	-nan
0.000225435	0	0	-nan
0.000227661	0	0	-nan
0.000231184	0	0	-nan
0.000241997	0	0	-nan
0.000251318	0	0	-nan
0.000255795	0	0	-nan
0.00025956	0	0	-nan
0.000270693	0	0	-nan
0.000271787	0	0	-nan
0.000274299	0	0	-nan
0.00028428	0	0	-nan
0.00030916	0	0	-nan
0.000312297	0	0	-nan
0.000318964	0	0	-nan
0.000320051	0	0	-nan
0.000347756	0	0	-nan
0.00037074	0	0	-nan
0.00039355	0	0	-nan
0.000398688	0	0	-nan
0.000478959	0	0	-nan
0.000479326	0	0	-nan
0.000494177	0	0	-nan
0.000494474	0	0	-nan
0.00049543	0	0	-nan
0.000511303	0	0	-nan
0.000521322	0	0	-nan
0.000531262	0	0	-nan
0.000535438	0	0	-nan
0.00055402	0	0	-nan
0.000560886	0	0	-nan
0.000578547	0	0	-nan
0.000608241	0	0	-nan
0.000608511	0	0	-nan
0.000614992	0	0	-nan
0.000618254	0	0	-nan
0.000634346	0	0	-nan
0.000635994	0	0	-nan
0.000636038	0	0	-nan
0.000643429	0	0	-nan
0.00068362	0	0	-nan
0.000691883	0	0	-nan
0.00071355	0	0	-nan
0.000717539	0	0	-nan
0.000719691	0	0	-nan
0.000740873	0	0	-nan
0.000744123	0	0	-nan
0.000775949	0	0	-nan
0.000813909	0	0	-nan
0.000836949	0	0	-nan
0.000840606	0	0	-nan
0.000863102	0	0	-nan
0.000873383	0	0	-nan
0.000905077	0	0	-nan
0.000929035	0	0	-nan
0.000945444	0	0	-nan
0.000958654	0	0	-nan
0.00100613	0	0	-nan
0.00106745	0	0	-nan
0.00109306	0	0	-nan
0.00114532	0	0	-nan
0.0011505	0	0	-nan
0.00117442	0	0	-nan
0.00119194	0	0	-nan
0.00122269	0	0	-nan
0.00124077	0	0	-nan
0.0012733	0	0	-nan
0.00132822	0	0	-nan
0.00174334	0	0	-nan
0.00211054	0	0	-nan
0.00212091	0	0	-nan
0.00236945	0	0	-nan
0.00316128	0	0	-nan
0.00330916	0	0	-nan
0.00366775	0	0	-nan
0.00467307	0	0	-nan
0.00525714	0	0	-nan
0.00687717	0	0	-nan
