2.61705e-09	0	0	-nan
3.26528e-09	0	0	-nan
5.77318e-09	0	0	-nan
1.52105e-08	0	0	-nan
2.02449e-08	0	0	-nan
2.80054e-08	0	0	-nan
3.5233e-08	0	0	-nan
4.76743e-08	0	0	-nan
5.70711e-08	0	0	-nan
6.14152e-08	0	0	-nan
9.32941e-08	0	0	-nan
1.00388e-07	0	0	-nan
1.01823e-07	0	0	-nan
1.14218e-07	0	0	-nan
1.21825e-07	0	0	-nan
1.6578e-07	0	0	-nan
1.68708e-07	0	0	-nan
2.44484e-07	0	0	-nan
2.46142e-07	0	0	-nan
2.63315e-07	0	0	-nan
2.78639e-07	0	0	-nan
3.06405e-07	0	0	-nan
3.2802e-07	0	0	-nan
3.54939e-07	0	0	-nan
3.61752e-07	0	0	-nan
3.77312e-07	0	0	-nan
3.83118e-07	0	0	-nan
3.87396e-07	0	0	-nan
4.00738e-07	0	0	-nan
4.27312e-07	0	0	-nan
4.46924e-07	0	0	-nan
4.49923e-07	0	0	-nan
4.50359e-07	0	0	-nan
4.63776e-07	0	0	-nan
4.6578e-07	0	0	-nan
4.68426e-07	0	0	-nan
4.78658e-07	0	0	-nan
4.90758e-07	0	0	-nan
4.94352e-07	0	0	-nan
4.95583e-07	0	0	-nan
4.98162e-07	0	0	-nan
5.05027e-07	0	0	-nan
5.26304e-07	0	0	-nan
5.33607e-07	0	0	-nan
5.37493e-07	0	0	-nan
5.72284e-07	0	0	-nan
5.82913e-07	0	0	-nan
6.05342e-07	0	0	-nan
6.54641e-07	0	0	-nan
6.65755e-07	0	0	-nan
6.78124e-07	0	0	-nan
7.44615e-07	0	0	-nan
7.66457e-07	0	0	-nan
7.66526e-07	0	0	-nan
7.78642e-07	0	0	-nan
7.99789e-07	0	0	-nan
8.22659e-07	0	0	-nan
8.25626e-07	0	0	-nan
8.28251e-07	0	0	-nan
8.29584e-07	0	0	-nan
8.34077e-07	0	0	-nan
8.4485e-07	0	0	-nan
8.50588e-07	0	0	-nan
8.57897e-07	0	0	-nan
8.61906e-07	0	0	-nan
8.74904e-07	0	0	-nan
9.49214e-07	0	0	-nan
9.6585e-07	0	0	-nan
9.76822e-07	0	0	-nan
9.82617e-07	0	0	-nan
9.84104e-07	0	0	-nan
9.99334e-07	0	0	-nan
9.994e-07	0	0	-nan
1.02114e-06	0	0	-nan
1.08349e-06	0	0	-nan
1.10172e-06	0	0	-nan
1.10801e-06	0	0	-nan
1.17338e-06	0	0	-nan
1.22461e-06	0	0	-nan
1.24678e-06	0	0	-nan
1.24738e-06	0	0	-nan
1.28414e-06	0	0	-nan
1.28469e-06	0	0	-nan
1.28519e-06	0	0	-nan
1.29121e-06	0	0	-nan
1.29432e-06	0	0	-nan
1.30432e-06	0	0	-nan
1.3293e-06	0	0	-nan
1.33341e-06	0	0	-nan
1.39295e-06	0	0	-nan
1.42087e-06	0	0	-nan
1.42761e-06	0	0	-nan
1.47391e-06	0	0	-nan
1.50049e-06	0	0	-nan
1.50757e-06	0	0	-nan
1.51422e-06	0	0	-nan
1.53339e-06	0	0	-nan
1.55761e-06	0	0	-nan
1.5604e-06	0	0	-nan
1.60946e-06	0	0	-nan
1.61383e-06	0	0	-nan
1.62683e-06	0	0	-nan
1.67002e-06	0	0	-nan
1.6707e-06	0	0	-nan
1.67881e-06	0	0	-nan
1.69091e-06	0	0	-nan
1.70836e-06	0	0	-nan
1.71053e-06	0	0	-nan
1.7139e-06	0	0	-nan
1.71499e-06	0	0	-nan
1.72286e-06	0	0	-nan
1.74181e-06	0	0	-nan
1.75423e-06	0	0	-nan
1.76606e-06	0	0	-nan
1.78846e-06	0	0	-nan
1.79867e-06	0	0	-nan
1.82392e-06	0	0	-nan
1.82463e-06	0	0	-nan
1.82767e-06	0	0	-nan
1.85849e-06	0	0	-nan
1.86135e-06	0	0	-nan
1.87325e-06	0	0	-nan
1.87511e-06	0	0	-nan
1.88301e-06	0	0	-nan
1.89012e-06	0	0	-nan
1.95412e-06	0	0	-nan
1.95787e-06	0	0	-nan
1.96718e-06	0	0	-nan
1.99488e-06	0	0	-nan
1.99509e-06	0	0	-nan
1.9954e-06	0	0	-nan
2.01211e-06	0	0	-nan
2.02269e-06	0	0	-nan
2.02587e-06	0	0	-nan
2.03767e-06	0	0	-nan
2.05387e-06	0	0	-nan
2.05488e-06	0	0	-nan
2.06234e-06	0	0	-nan
2.07133e-06	0	0	-nan
2.0874e-06	0	0	-nan
2.1125e-06	0	0	-nan
2.1209e-06	0	0	-nan
2.1366e-06	0	0	-nan
2.13885e-06	0	0	-nan
2.1492e-06	0	0	-nan
2.15994e-06	0	0	-nan
2.16752e-06	0	0	-nan
2.19363e-06	0	0	-nan
2.2011e-06	0	0	-nan
2.20663e-06	0	0	-nan
2.23028e-06	0	0	-nan
2.24526e-06	0	0	-nan
2.24693e-06	0	0	-nan
2.26477e-06	0	0	-nan
2.27616e-06	0	0	-nan
2.28533e-06	0	0	-nan
2.29782e-06	0	0	-nan
2.32527e-06	0	0	-nan
2.34177e-06	0	0	-nan
2.37927e-06	0	0	-nan
2.39988e-06	0	0	-nan
2.41038e-06	0	0	-nan
2.42482e-06	0	0	-nan
2.42865e-06	0	0	-nan
2.43523e-06	0	0	-nan
2.44154e-06	0	0	-nan
2.48254e-06	0	0	-nan
2.48653e-06	0	0	-nan
2.49349e-06	0	0	-nan
2.50655e-06	0	0	-nan
2.57209e-06	0	0	-nan
2.57817e-06	0	0	-nan
2.59674e-06	0	0	-nan
2.60042e-06	0	0	-nan
2.60583e-06	0	0	-nan
2.61888e-06	0	0	-nan
2.63526e-06	0	0	-nan
2.66512e-06	0	0	-nan
2.67138e-06	0	0	-nan
2.68801e-06	0	0	-nan
2.69304e-06	0	0	-nan
2.82887e-06	0	0	-nan
2.84183e-06	0	0	-nan
2.84531e-06	0	0	-nan
2.87757e-06	0	0	-nan
2.90568e-06	0	0	-nan
2.92954e-06	0	0	-nan
2.93447e-06	0	0	-nan
2.94084e-06	0	0	-nan
2.98137e-06	0	0	-nan
2.98163e-06	0	0	-nan
3.0308e-06	0	0	-nan
3.03952e-06	0	0	-nan
3.0552e-06	0	0	-nan
3.08117e-06	0	0	-nan
3.12517e-06	0	0	-nan
3.16752e-06	0	0	-nan
3.17764e-06	0	0	-nan
3.19234e-06	0	0	-nan
3.20995e-06	0	0	-nan
3.2696e-06	0	0	-nan
3.37084e-06	0	0	-nan
3.38066e-06	0	0	-nan
3.38658e-06	0	0	-nan
3.44584e-06	0	0	-nan
3.45011e-06	0	0	-nan
3.45282e-06	0	0	-nan
3.47735e-06	0	0	-nan
3.52147e-06	0	0	-nan
3.53984e-06	0	0	-nan
3.59054e-06	0	0	-nan
3.63245e-06	0	0	-nan
3.64773e-06	0	0	-nan
3.66016e-06	0	0	-nan
3.68232e-06	0	0	-nan
3.69652e-06	0	0	-nan
3.70496e-06	0	0	-nan
3.71659e-06	0	0	-nan
3.76202e-06	0	0	-nan
3.76268e-06	0	0	-nan
3.76636e-06	0	0	-nan
3.7853e-06	0	0	-nan
3.79357e-06	0	0	-nan
3.79729e-06	0	0	-nan
3.84436e-06	0	0	-nan
3.85995e-06	0	0	-nan
3.87771e-06	0	0	-nan
3.88144e-06	0	0	-nan
3.88951e-06	0	0	-nan
3.90063e-06	0	0	-nan
3.91455e-06	0	0	-nan
3.91657e-06	0	0	-nan
3.9181e-06	0	0	-nan
3.94986e-06	0	0	-nan
4.01706e-06	0	0	-nan
4.04367e-06	0	0	-nan
4.04668e-06	0	0	-nan
4.05016e-06	0	0	-nan
4.0647e-06	0	0	-nan
4.07357e-06	0	0	-nan
4.0913e-06	0	0	-nan
4.1086e-06	0	0	-nan
4.11675e-06	0	0	-nan
4.13075e-06	0	0	-nan
4.16224e-06	0	0	-nan
4.19616e-06	0	0	-nan
4.22721e-06	0	0	-nan
4.24325e-06	0	0	-nan
4.25566e-06	0	0	-nan
4.26776e-06	0	0	-nan
4.31675e-06	0	0	-nan
4.34882e-06	0	0	-nan
4.37287e-06	0	0	-nan
4.40488e-06	0	0	-nan
4.41687e-06	0	0	-nan
4.42411e-06	0	0	-nan
4.44505e-06	0	0	-nan
4.44618e-06	0	0	-nan
4.46643e-06	0	0	-nan
4.48088e-06	0	0	-nan
4.53189e-06	0	0	-nan
4.59601e-06	0	0	-nan
4.61866e-06	0	0	-nan
4.6251e-06	0	0	-nan
4.64158e-06	0	0	-nan
4.72391e-06	0	0	-nan
4.76651e-06	0	0	-nan
4.78905e-06	0	0	-nan
4.79413e-06	0	0	-nan
4.81898e-06	0	0	-nan
4.82849e-06	0	0	-nan
4.83268e-06	0	0	-nan
4.87267e-06	0	0	-nan
4.87466e-06	0	0	-nan
4.87592e-06	0	0	-nan
4.87758e-06	0	0	-nan
4.90786e-06	0	0	-nan
4.91775e-06	0	0	-nan
4.96248e-06	0	0	-nan
4.97317e-06	0	0	-nan
4.98329e-06	0	0	-nan
5.01417e-06	0	0	-nan
5.0197e-06	0	0	-nan
5.02914e-06	0	0	-nan
5.03942e-06	0	0	-nan
5.05791e-06	0	0	-nan
5.09201e-06	0	0	-nan
5.16731e-06	0	0	-nan
5.21433e-06	0	0	-nan
5.2763e-06	0	0	-nan
5.3197e-06	0	0	-nan
5.32053e-06	0	0	-nan
5.32066e-06	0	0	-nan
5.35347e-06	0	0	-nan
5.35453e-06	0	0	-nan
5.36392e-06	0	0	-nan
5.36844e-06	0	0	-nan
5.36868e-06	0	0	-nan
5.44379e-06	0	0	-nan
5.44504e-06	0	0	-nan
5.46446e-06	0	0	-nan
5.47499e-06	0	0	-nan
5.47759e-06	0	0	-nan
5.52936e-06	0	0	-nan
5.56705e-06	0	0	-nan
5.60497e-06	0	0	-nan
5.66088e-06	0	0	-nan
5.67618e-06	0	0	-nan
5.68619e-06	0	0	-nan
5.69746e-06	0	0	-nan
5.71626e-06	0	0	-nan
5.71974e-06	0	0	-nan
5.72326e-06	0	0	-nan
5.72856e-06	0	0	-nan
5.74276e-06	0	0	-nan
5.74859e-06	0	0	-nan
5.79876e-06	0	0	-nan
5.89731e-06	0	0	-nan
5.91784e-06	0	0	-nan
5.92906e-06	0	0	-nan
5.97985e-06	0	0	-nan
5.99396e-06	0	0	-nan
5.99811e-06	0	0	-nan
6.01337e-06	0	0	-nan
6.04787e-06	0	0	-nan
6.11529e-06	0	0	-nan
6.12614e-06	0	0	-nan
6.16785e-06	0	0	-nan
6.16934e-06	0	0	-nan
6.20546e-06	0	0	-nan
6.20885e-06	0	0	-nan
6.23606e-06	0	0	-nan
6.27569e-06	0	0	-nan
6.28947e-06	0	0	-nan
6.39728e-06	0	0	-nan
6.44053e-06	0	0	-nan
6.44315e-06	0	0	-nan
6.44636e-06	0	0	-nan
6.46753e-06	0	0	-nan
6.48617e-06	0	0	-nan
6.50933e-06	0	0	-nan
6.56322e-06	0	0	-nan
6.58557e-06	0	0	-nan
6.60276e-06	0	0	-nan
6.62857e-06	0	0	-nan
6.63191e-06	0	0	-nan
6.66453e-06	0	0	-nan
6.67323e-06	0	0	-nan
6.68604e-06	0	0	-nan
6.75001e-06	0	0	-nan
6.79433e-06	0	0	-nan
6.84785e-06	0	0	-nan
6.93951e-06	0	0	-nan
6.95352e-06	0	0	-nan
6.96256e-06	0	0	-nan
6.97319e-06	0	0	-nan
7.00653e-06	0	0	-nan
7.01501e-06	0	0	-nan
7.08988e-06	0	0	-nan
7.11341e-06	0	0	-nan
7.13921e-06	0	0	-nan
7.14388e-06	0	0	-nan
7.15124e-06	0	0	-nan
7.18523e-06	0	0	-nan
7.19485e-06	0	0	-nan
7.2155e-06	0	0	-nan
7.21568e-06	0	0	-nan
7.23363e-06	0	0	-nan
7.23418e-06	0	0	-nan
7.24456e-06	0	0	-nan
7.26779e-06	0	0	-nan
7.27438e-06	0	0	-nan
7.36852e-06	0	0	-nan
7.42452e-06	0	0	-nan
7.46167e-06	0	0	-nan
7.48584e-06	0	0	-nan
7.54243e-06	0	0	-nan
7.56747e-06	0	0	-nan
7.59e-06	0	0	-nan
7.59399e-06	0	0	-nan
7.63274e-06	0	0	-nan
7.63921e-06	0	0	-nan
7.6574e-06	0	0	-nan
7.68256e-06	0	0	-nan
7.69036e-06	0	0	-nan
7.73041e-06	0	0	-nan
7.73952e-06	0	0	-nan
7.75098e-06	0	0	-nan
7.76755e-06	0	0	-nan
7.79738e-06	0	0	-nan
7.84566e-06	0	0	-nan
7.85152e-06	0	0	-nan
7.87698e-06	0	0	-nan
7.90329e-06	0	0	-nan
7.91848e-06	0	0	-nan
7.92531e-06	0	0	-nan
7.94696e-06	0	0	-nan
7.94711e-06	0	0	-nan
8.0051e-06	0	0	-nan
8.05787e-06	0	0	-nan
8.06599e-06	0	0	-nan
8.06749e-06	0	0	-nan
8.09434e-06	0	0	-nan
8.09794e-06	0	0	-nan
8.10089e-06	0	0	-nan
8.10165e-06	0	0	-nan
8.10752e-06	0	0	-nan
8.13108e-06	0	0	-nan
8.2255e-06	0	0	-nan
8.2462e-06	0	0	-nan
8.25101e-06	0	0	-nan
8.27764e-06	0	0	-nan
8.41395e-06	0	0	-nan
8.44312e-06	0	0	-nan
8.46673e-06	0	0	-nan
8.49755e-06	0	0	-nan
8.51943e-06	0	0	-nan
8.63148e-06	0	0	-nan
8.72866e-06	0	0	-nan
8.81779e-06	0	0	-nan
8.8426e-06	0	0	-nan
8.91372e-06	0	0	-nan
8.98517e-06	0	0	-nan
8.99034e-06	0	0	-nan
9.03978e-06	0	0	-nan
9.06235e-06	0	0	-nan
9.0786e-06	0	0	-nan
9.10054e-06	0	0	-nan
9.15216e-06	0	0	-nan
9.20313e-06	0	0	-nan
9.23318e-06	0	0	-nan
9.24046e-06	0	0	-nan
9.25287e-06	0	0	-nan
9.28533e-06	0	0	-nan
9.36034e-06	0	0	-nan
9.44054e-06	0	0	-nan
9.44484e-06	0	0	-nan
9.52643e-06	0	0	-nan
9.54839e-06	0	0	-nan
9.54983e-06	0	0	-nan
9.58403e-06	0	0	-nan
9.61466e-06	0	0	-nan
9.62059e-06	0	0	-nan
9.62317e-06	0	0	-nan
9.62418e-06	0	0	-nan
9.62827e-06	0	0	-nan
9.66007e-06	0	0	-nan
9.66889e-06	0	0	-nan
9.68063e-06	0	0	-nan
9.68491e-06	0	0	-nan
9.70821e-06	0	0	-nan
9.72313e-06	0	0	-nan
9.72598e-06	0	0	-nan
9.78866e-06	0	0	-nan
9.82303e-06	0	0	-nan
9.82831e-06	0	0	-nan
9.8531e-06	0	0	-nan
9.89113e-06	0	0	-nan
9.89942e-06	0	0	-nan
9.95263e-06	0	0	-nan
9.98214e-06	0	0	-nan
1.00657e-05	0	0	-nan
1.01477e-05	0	0	-nan
1.01715e-05	0	0	-nan
1.0174e-05	0	0	-nan
1.02337e-05	0	0	-nan
1.02844e-05	0	0	-nan
1.02935e-05	0	0	-nan
1.03228e-05	0	0	-nan
1.03247e-05	0	0	-nan
1.0362e-05	0	0	-nan
1.04183e-05	0	0	-nan
1.04636e-05	0	0	-nan
1.05603e-05	0	0	-nan
1.05824e-05	0	0	-nan
1.06312e-05	0	0	-nan
1.06472e-05	0	0	-nan
1.06803e-05	0	0	-nan
1.06872e-05	0	0	-nan
1.07532e-05	0	0	-nan
1.07685e-05	0	0	-nan
1.07782e-05	0	0	-nan
1.08267e-05	0	0	-nan
1.09295e-05	0	0	-nan
1.09607e-05	0	0	-nan
1.09713e-05	0	0	-nan
1.09968e-05	0	0	-nan
1.10284e-05	0	0	-nan
1.10599e-05	0	0	-nan
1.1075e-05	0	0	-nan
1.10843e-05	0	0	-nan
1.11101e-05	0	0	-nan
1.11313e-05	0	0	-nan
1.11456e-05	0	0	-nan
1.11603e-05	0	0	-nan
1.11682e-05	0	0	-nan
1.1199e-05	0	0	-nan
1.12151e-05	0	0	-nan
1.12293e-05	0	0	-nan
1.12699e-05	0	0	-nan
1.1322e-05	0	0	-nan
1.1342e-05	0	0	-nan
1.14244e-05	0	0	-nan
1.15089e-05	0	0	-nan
1.15228e-05	0	0	-nan
1.15446e-05	0	0	-nan
1.16206e-05	0	0	-nan
1.16254e-05	0	0	-nan
1.17044e-05	0	0	-nan
1.17184e-05	0	0	-nan
1.17261e-05	0	0	-nan
1.17306e-05	0	0	-nan
1.17528e-05	0	0	-nan
1.17691e-05	0	0	-nan
1.17777e-05	0	0	-nan
1.18038e-05	0	0	-nan
1.18389e-05	0	0	-nan
1.18465e-05	0	0	-nan
1.19239e-05	0	0	-nan
1.19958e-05	0	0	-nan
1.20409e-05	0	0	-nan
1.20519e-05	0	0	-nan
1.20813e-05	0	0	-nan
1.21471e-05	0	0	-nan
1.21947e-05	0	0	-nan
1.22643e-05	0	0	-nan
1.22852e-05	0	0	-nan
1.23063e-05	0	0	-nan
1.23112e-05	0	0	-nan
1.24885e-05	0	0	-nan
1.25288e-05	0	0	-nan
1.25307e-05	0	0	-nan
1.25704e-05	0	0	-nan
1.25929e-05	0	0	-nan
1.26318e-05	0	0	-nan
1.27904e-05	0	0	-nan
1.27923e-05	0	0	-nan
1.28224e-05	0	0	-nan
1.28323e-05	0	0	-nan
1.29515e-05	0	0	-nan
1.2985e-05	0	0	-nan
1.30558e-05	0	0	-nan
1.30799e-05	0	0	-nan
1.30968e-05	0	0	-nan
1.31093e-05	0	0	-nan
1.31206e-05	0	0	-nan
1.31356e-05	0	0	-nan
1.32612e-05	0	0	-nan
1.3335e-05	0	0	-nan
1.33652e-05	0	0	-nan
1.34256e-05	0	0	-nan
1.34358e-05	0	0	-nan
1.35215e-05	0	0	-nan
1.35298e-05	0	0	-nan
1.36002e-05	0	0	-nan
1.36244e-05	0	0	-nan
1.36477e-05	0	0	-nan
1.37784e-05	0	0	-nan
1.38143e-05	0	0	-nan
1.38642e-05	0	0	-nan
1.39282e-05	0	0	-nan
1.39775e-05	0	0	-nan
1.40672e-05	0	0	-nan
1.41509e-05	0	0	-nan
1.41534e-05	0	0	-nan
1.41827e-05	0	0	-nan
1.4352e-05	0	0	-nan
1.4363e-05	0	0	-nan
1.43761e-05	0	0	-nan
1.43925e-05	0	0	-nan
1.44518e-05	0	0	-nan
1.44675e-05	0	0	-nan
1.44802e-05	0	0	-nan
1.45378e-05	0	0	-nan
1.45655e-05	0	0	-nan
1.46005e-05	0	0	-nan
1.46737e-05	0	0	-nan
1.46975e-05	0	0	-nan
1.47607e-05	0	0	-nan
1.48827e-05	0	0	-nan
1.49084e-05	0	0	-nan
1.49277e-05	0	0	-nan
1.49277e-05	0	0	-nan
1.49854e-05	0	0	-nan
1.50134e-05	0	0	-nan
1.50335e-05	0	0	-nan
1.5134e-05	0	0	-nan
1.51378e-05	0	0	-nan
1.52122e-05	0	0	-nan
1.52192e-05	0	0	-nan
1.53961e-05	0	0	-nan
1.54106e-05	0	0	-nan
1.54213e-05	0	0	-nan
1.54834e-05	0	0	-nan
1.55212e-05	0	0	-nan
1.55438e-05	0	0	-nan
1.55661e-05	0	0	-nan
1.55994e-05	0	0	-nan
1.56489e-05	0	0	-nan
1.57162e-05	0	0	-nan
1.57735e-05	0	0	-nan
1.58175e-05	0	0	-nan
1.58679e-05	0	0	-nan
1.59205e-05	0	0	-nan
1.5938e-05	0	0	-nan
1.59461e-05	0	0	-nan
1.59912e-05	0	0	-nan
1.60039e-05	0	0	-nan
1.60972e-05	0	0	-nan
1.63199e-05	0	0	-nan
1.63257e-05	0	0	-nan
1.63492e-05	0	0	-nan
1.64035e-05	0	0	-nan
1.64125e-05	0	0	-nan
1.6498e-05	0	0	-nan
1.65252e-05	0	0	-nan
1.65762e-05	0	0	-nan
1.68372e-05	0	0	-nan
1.68398e-05	0	0	-nan
1.68605e-05	0	0	-nan
1.68645e-05	0	0	-nan
1.68917e-05	0	0	-nan
1.69088e-05	0	0	-nan
1.69404e-05	0	0	-nan
1.69589e-05	0	0	-nan
1.7035e-05	0	0	-nan
1.70554e-05	0	0	-nan
1.70962e-05	0	0	-nan
1.71879e-05	0	0	-nan
1.71925e-05	0	0	-nan
1.72034e-05	0	0	-nan
1.72209e-05	0	0	-nan
1.7252e-05	0	0	-nan
1.72717e-05	0	0	-nan
1.73042e-05	0	0	-nan
1.74117e-05	0	0	-nan
1.74554e-05	0	0	-nan
1.74869e-05	0	0	-nan
1.75498e-05	0	0	-nan
1.76167e-05	0	0	-nan
1.76644e-05	0	0	-nan
1.78245e-05	0	0	-nan
1.78905e-05	0	0	-nan
1.79851e-05	0	0	-nan
1.79958e-05	0	0	-nan
1.80382e-05	0	0	-nan
1.80545e-05	0	0	-nan
1.81057e-05	0	0	-nan
1.81272e-05	0	0	-nan
1.82408e-05	0	0	-nan
1.82542e-05	0	0	-nan
1.82633e-05	0	0	-nan
1.82825e-05	0	0	-nan
1.82996e-05	0	0	-nan
1.8338e-05	0	0	-nan
1.84264e-05	0	0	-nan
1.85237e-05	0	0	-nan
1.86458e-05	0	0	-nan
1.86682e-05	0	0	-nan
1.87084e-05	0	0	-nan
1.87496e-05	0	0	-nan
1.87652e-05	0	0	-nan
1.88171e-05	0	0	-nan
1.88187e-05	0	0	-nan
1.89588e-05	0	0	-nan
1.89914e-05	0	0	-nan
1.90279e-05	0	0	-nan
1.91125e-05	0	0	-nan
1.91248e-05	0	0	-nan
1.91389e-05	0	0	-nan
1.91777e-05	0	0	-nan
1.91903e-05	0	0	-nan
1.92116e-05	0	0	-nan
1.92478e-05	0	0	-nan
1.92567e-05	0	0	-nan
1.92964e-05	0	0	-nan
1.93518e-05	0	0	-nan
1.94543e-05	0	0	-nan
1.94603e-05	0	0	-nan
1.95282e-05	0	0	-nan
1.95608e-05	0	0	-nan
1.96328e-05	0	0	-nan
1.96901e-05	0	0	-nan
1.97556e-05	0	0	-nan
1.98069e-05	0	0	-nan
1.98838e-05	0	0	-nan
1.98982e-05	0	0	-nan
1.99029e-05	0	0	-nan
1.9917e-05	0	0	-nan
2.00474e-05	0	0	-nan
2.01498e-05	0	0	-nan
2.01824e-05	0	0	-nan
2.02046e-05	0	0	-nan
2.0246e-05	0	0	-nan
2.02841e-05	0	0	-nan
2.0313e-05	0	0	-nan
2.03265e-05	0	0	-nan
2.03311e-05	0	0	-nan
2.03631e-05	0	0	-nan
2.03959e-05	0	0	-nan
2.04169e-05	0	0	-nan
2.04396e-05	0	0	-nan
2.04829e-05	0	0	-nan
2.05342e-05	0	0	-nan
2.05874e-05	0	0	-nan
2.06404e-05	0	0	-nan
2.0654e-05	0	0	-nan
2.0769e-05	0	0	-nan
2.08008e-05	0	0	-nan
2.08827e-05	0	0	-nan
2.09159e-05	0	0	-nan
2.09197e-05	0	0	-nan
2.09692e-05	0	0	-nan
2.10429e-05	0	0	-nan
2.12262e-05	0	0	-nan
2.14192e-05	0	0	-nan
2.14261e-05	0	0	-nan
2.14926e-05	0	0	-nan
2.1507e-05	0	0	-nan
2.15246e-05	0	0	-nan
2.15303e-05	0	0	-nan
2.15667e-05	0	0	-nan
2.17382e-05	0	0	-nan
2.17768e-05	0	0	-nan
2.18005e-05	0	0	-nan
2.18142e-05	0	0	-nan
2.183e-05	0	0	-nan
2.18424e-05	0	0	-nan
2.18563e-05	0	0	-nan
2.1906e-05	0	0	-nan
2.19901e-05	0	0	-nan
2.20709e-05	0	0	-nan
2.21349e-05	0	0	-nan
2.21712e-05	0	0	-nan
2.22897e-05	0	0	-nan
2.23134e-05	0	0	-nan
2.23649e-05	0	0	-nan
2.24527e-05	0	0	-nan
2.263e-05	0	0	-nan
2.26934e-05	0	0	-nan
2.28118e-05	0	0	-nan
2.28305e-05	0	0	-nan
2.29921e-05	0	0	-nan
2.30489e-05	0	0	-nan
2.31098e-05	0	0	-nan
2.31619e-05	0	0	-nan
2.31931e-05	0	0	-nan
2.32159e-05	0	0	-nan
2.3252e-05	0	0	-nan
2.32797e-05	0	0	-nan
2.33208e-05	0	0	-nan
2.34566e-05	0	0	-nan
2.35648e-05	0	0	-nan
2.36124e-05	0	0	-nan
2.37223e-05	0	0	-nan
2.37676e-05	0	0	-nan
2.38257e-05	0	0	-nan
2.3831e-05	0	0	-nan
2.38585e-05	0	0	-nan
2.38611e-05	0	0	-nan
2.40552e-05	0	0	-nan
2.41376e-05	0	0	-nan
2.4204e-05	0	0	-nan
2.42093e-05	0	0	-nan
2.43038e-05	0	0	-nan
2.43189e-05	0	0	-nan
2.44443e-05	0	0	-nan
2.44472e-05	0	0	-nan
2.44476e-05	0	0	-nan
2.4515e-05	0	0	-nan
2.45745e-05	0	0	-nan
2.46016e-05	0	0	-nan
2.46647e-05	0	0	-nan
2.47325e-05	0	0	-nan
2.48079e-05	0	0	-nan
2.48087e-05	0	0	-nan
2.48277e-05	0	0	-nan
2.48284e-05	0	0	-nan
2.50234e-05	0	0	-nan
2.50555e-05	0	0	-nan
2.51007e-05	0	0	-nan
2.51377e-05	0	0	-nan
2.53963e-05	0	0	-nan
2.54222e-05	0	0	-nan
2.54254e-05	0	0	-nan
2.55525e-05	0	0	-nan
2.55661e-05	0	0	-nan
2.56252e-05	0	0	-nan
2.56822e-05	0	0	-nan
2.57991e-05	0	0	-nan
2.59222e-05	0	0	-nan
2.59608e-05	0	0	-nan
2.59765e-05	0	0	-nan
2.59896e-05	0	0	-nan
2.61784e-05	0	0	-nan
2.62302e-05	0	0	-nan
2.62724e-05	0	0	-nan
2.63605e-05	0	0	-nan
2.64074e-05	0	0	-nan
2.64992e-05	0	0	-nan
2.66009e-05	0	0	-nan
2.67175e-05	0	0	-nan
2.68588e-05	0	0	-nan
2.69569e-05	0	0	-nan
2.70557e-05	0	0	-nan
2.70686e-05	0	0	-nan
2.72861e-05	0	0	-nan
2.73073e-05	0	0	-nan
2.73092e-05	0	0	-nan
2.75695e-05	0	0	-nan
2.76547e-05	0	0	-nan
2.76686e-05	0	0	-nan
2.7714e-05	0	0	-nan
2.77336e-05	0	0	-nan
2.80472e-05	0	0	-nan
2.80915e-05	0	0	-nan
2.81096e-05	0	0	-nan
2.81683e-05	0	0	-nan
2.82001e-05	0	0	-nan
2.82657e-05	0	0	-nan
2.83724e-05	0	0	-nan
2.84018e-05	0	0	-nan
2.84239e-05	0	0	-nan
2.84282e-05	0	0	-nan
2.84579e-05	0	0	-nan
2.84708e-05	0	0	-nan
2.87462e-05	0	0	-nan
2.8886e-05	0	0	-nan
2.89697e-05	0	0	-nan
2.90297e-05	0	0	-nan
2.90362e-05	0	0	-nan
2.90913e-05	0	0	-nan
2.94417e-05	0	0	-nan
2.94937e-05	0	0	-nan
2.9582e-05	0	0	-nan
2.96229e-05	0	0	-nan
2.97065e-05	0	0	-nan
2.97167e-05	0	0	-nan
2.98465e-05	0	0	-nan
2.99996e-05	0	0	-nan
3.0049e-05	0	0	-nan
3.01156e-05	0	0	-nan
3.01191e-05	0	0	-nan
3.01522e-05	0	0	-nan
3.02112e-05	0	0	-nan
3.03264e-05	0	0	-nan
3.03441e-05	0	0	-nan
3.03538e-05	0	0	-nan
3.04135e-05	0	0	-nan
3.04284e-05	0	0	-nan
3.04591e-05	0	0	-nan
3.06395e-05	0	0	-nan
3.07685e-05	0	0	-nan
3.07937e-05	0	0	-nan
3.09375e-05	0	0	-nan
3.09732e-05	0	0	-nan
3.0999e-05	0	0	-nan
3.10154e-05	0	0	-nan
3.10381e-05	0	0	-nan
3.11489e-05	0	0	-nan
3.13763e-05	0	0	-nan
3.14811e-05	0	0	-nan
3.14945e-05	0	0	-nan
3.15154e-05	0	0	-nan
3.15599e-05	0	0	-nan
3.15877e-05	0	0	-nan
3.16201e-05	0	0	-nan
3.17702e-05	0	0	-nan
3.19682e-05	0	0	-nan
3.20983e-05	0	0	-nan
3.22006e-05	0	0	-nan
3.22204e-05	0	0	-nan
3.23594e-05	0	0	-nan
3.24983e-05	0	0	-nan
3.25e-05	0	0	-nan
3.25194e-05	0	0	-nan
3.29907e-05	0	0	-nan
3.30655e-05	0	0	-nan
3.32335e-05	0	0	-nan
3.32935e-05	0	0	-nan
3.34723e-05	0	0	-nan
3.35102e-05	0	0	-nan
3.35646e-05	0	0	-nan
3.3675e-05	0	0	-nan
3.36776e-05	0	0	-nan
3.37248e-05	0	0	-nan
3.37289e-05	0	0	-nan
3.39716e-05	0	0	-nan
3.4036e-05	0	0	-nan
3.41155e-05	0	0	-nan
3.41822e-05	0	0	-nan
3.41898e-05	0	0	-nan
3.42199e-05	0	0	-nan
3.43681e-05	0	0	-nan
3.44156e-05	0	0	-nan
3.44262e-05	0	0	-nan
3.44388e-05	0	0	-nan
3.44788e-05	0	0	-nan
3.4483e-05	0	0	-nan
3.44861e-05	0	0	-nan
3.45716e-05	0	0	-nan
3.46148e-05	0	0	-nan
3.46512e-05	0	0	-nan
3.4911e-05	0	0	-nan
3.53114e-05	0	0	-nan
3.54087e-05	0	0	-nan
3.54402e-05	0	0	-nan
3.54916e-05	0	0	-nan
3.55318e-05	0	0	-nan
3.55838e-05	0	0	-nan
3.56905e-05	0	0	-nan
3.58513e-05	0	0	-nan
3.59824e-05	0	0	-nan
3.60389e-05	0	0	-nan
3.60744e-05	0	0	-nan
3.62173e-05	0	0	-nan
3.62322e-05	0	0	-nan
3.63145e-05	0	0	-nan
3.63205e-05	0	0	-nan
3.66066e-05	0	0	-nan
3.66417e-05	0	0	-nan
3.66751e-05	0	0	-nan
3.66853e-05	0	0	-nan
3.66909e-05	0	0	-nan
3.68311e-05	0	0	-nan
3.7018e-05	0	0	-nan
3.73736e-05	0	0	-nan
3.74528e-05	0	0	-nan
3.7537e-05	0	0	-nan
3.76102e-05	0	0	-nan
3.77281e-05	0	0	-nan
3.78527e-05	0	0	-nan
3.79494e-05	0	0	-nan
3.80175e-05	0	0	-nan
3.8075e-05	0	0	-nan
3.84008e-05	0	0	-nan
3.84604e-05	0	0	-nan
3.86089e-05	0	0	-nan
3.87432e-05	0	0	-nan
3.89554e-05	0	0	-nan
3.89863e-05	0	0	-nan
3.90221e-05	0	0	-nan
3.91334e-05	0	0	-nan
3.91335e-05	0	0	-nan
3.91491e-05	0	0	-nan
3.94918e-05	0	0	-nan
3.94967e-05	0	0	-nan
3.9728e-05	0	0	-nan
3.97544e-05	0	0	-nan
3.97598e-05	0	0	-nan
3.9908e-05	0	0	-nan
3.99774e-05	0	0	-nan
4.01594e-05	0	0	-nan
4.02865e-05	0	0	-nan
4.03394e-05	0	0	-nan
4.03994e-05	0	0	-nan
4.04456e-05	0	0	-nan
4.05367e-05	0	0	-nan
4.06407e-05	0	0	-nan
4.07326e-05	0	0	-nan
4.08567e-05	0	0	-nan
4.10232e-05	0	0	-nan
4.10954e-05	0	0	-nan
4.11513e-05	0	0	-nan
4.12565e-05	0	0	-nan
4.12597e-05	0	0	-nan
4.13284e-05	0	0	-nan
4.13662e-05	0	0	-nan
4.13953e-05	0	0	-nan
4.16259e-05	0	0	-nan
4.17993e-05	0	0	-nan
4.20006e-05	0	0	-nan
4.20618e-05	0	0	-nan
4.22018e-05	0	0	-nan
4.22522e-05	0	0	-nan
4.2374e-05	0	0	-nan
4.26114e-05	0	0	-nan
4.31228e-05	0	0	-nan
4.31964e-05	0	0	-nan
4.32646e-05	0	0	-nan
4.32993e-05	0	0	-nan
4.34376e-05	0	0	-nan
4.3513e-05	0	0	-nan
4.38733e-05	0	0	-nan
4.38774e-05	0	0	-nan
4.39008e-05	0	0	-nan
4.40293e-05	0	0	-nan
4.41354e-05	0	0	-nan
4.42117e-05	0	0	-nan
4.42279e-05	0	0	-nan
4.42544e-05	0	0	-nan
4.43011e-05	0	0	-nan
4.47762e-05	0	0	-nan
4.48669e-05	0	0	-nan
4.49694e-05	0	0	-nan
4.50048e-05	0	0	-nan
4.50361e-05	0	0	-nan
4.52509e-05	0	0	-nan
4.52688e-05	0	0	-nan
4.56325e-05	0	0	-nan
4.56558e-05	0	0	-nan
4.56654e-05	0	0	-nan
4.57175e-05	0	0	-nan
4.57273e-05	0	0	-nan
4.57691e-05	0	0	-nan
4.58462e-05	0	0	-nan
4.61991e-05	0	0	-nan
4.62512e-05	0	0	-nan
4.66585e-05	0	0	-nan
4.68166e-05	0	0	-nan
4.68416e-05	0	0	-nan
4.71885e-05	0	0	-nan
4.76445e-05	0	0	-nan
4.8057e-05	0	0	-nan
4.87095e-05	0	0	-nan
4.87246e-05	0	0	-nan
4.87692e-05	0	0	-nan
4.89052e-05	0	0	-nan
4.90148e-05	0	0	-nan
4.90966e-05	0	0	-nan
4.92082e-05	0	0	-nan
4.93362e-05	0	0	-nan
4.96794e-05	0	0	-nan
4.98162e-05	0	0	-nan
4.98522e-05	0	0	-nan
5.00475e-05	0	0	-nan
5.02698e-05	0	0	-nan
5.03334e-05	0	0	-nan
5.04417e-05	0	0	-nan
5.04527e-05	0	0	-nan
5.05109e-05	0	0	-nan
5.0627e-05	0	0	-nan
5.07839e-05	0	0	-nan
5.11414e-05	0	0	-nan
5.14323e-05	0	0	-nan
5.16518e-05	0	0	-nan
5.17775e-05	0	0	-nan
5.22128e-05	0	0	-nan
5.30002e-05	0	0	-nan
5.33365e-05	0	0	-nan
5.33741e-05	0	0	-nan
5.34114e-05	0	0	-nan
5.35672e-05	0	0	-nan
5.37029e-05	0	0	-nan
5.38792e-05	0	0	-nan
5.39814e-05	0	0	-nan
5.44041e-05	0	0	-nan
5.44213e-05	0	0	-nan
5.45019e-05	0	0	-nan
5.45089e-05	0	0	-nan
5.50043e-05	0	0	-nan
5.51233e-05	0	0	-nan
5.51846e-05	0	0	-nan
5.51854e-05	0	0	-nan
5.52343e-05	0	0	-nan
5.54569e-05	0	0	-nan
5.5643e-05	0	0	-nan
5.56947e-05	0	0	-nan
5.58551e-05	0	0	-nan
5.59765e-05	0	0	-nan
5.62387e-05	0	0	-nan
5.63324e-05	0	0	-nan
5.63608e-05	0	0	-nan
5.67224e-05	0	0	-nan
5.69015e-05	0	0	-nan
5.71581e-05	0	0	-nan
5.74206e-05	0	0	-nan
5.76397e-05	0	0	-nan
5.77948e-05	0	0	-nan
5.80021e-05	0	0	-nan
5.83652e-05	0	0	-nan
5.84782e-05	0	0	-nan
5.85575e-05	0	0	-nan
5.86005e-05	0	0	-nan
5.86066e-05	0	0	-nan
5.86975e-05	0	0	-nan
5.89107e-05	0	0	-nan
5.89166e-05	0	0	-nan
5.929e-05	0	0	-nan
5.9617e-05	0	0	-nan
5.96529e-05	0	0	-nan
5.9703e-05	0	0	-nan
5.97061e-05	0	0	-nan
6.00036e-05	0	0	-nan
6.00101e-05	0	0	-nan
6.01587e-05	0	0	-nan
6.01892e-05	0	0	-nan
6.02027e-05	0	0	-nan
6.02546e-05	0	0	-nan
6.04228e-05	0	0	-nan
6.0644e-05	0	0	-nan
6.11853e-05	0	0	-nan
6.12926e-05	0	0	-nan
6.13807e-05	0	0	-nan
6.13931e-05	0	0	-nan
6.14382e-05	0	0	-nan
6.20948e-05	0	0	-nan
6.2152e-05	0	0	-nan
6.24388e-05	0	0	-nan
6.26399e-05	0	0	-nan
6.26721e-05	0	0	-nan
6.27021e-05	0	0	-nan
6.32151e-05	0	0	-nan
6.34203e-05	0	0	-nan
6.35032e-05	0	0	-nan
6.38642e-05	0	0	-nan
6.39565e-05	0	0	-nan
6.39781e-05	0	0	-nan
6.42726e-05	0	0	-nan
6.43801e-05	0	0	-nan
6.45443e-05	0	0	-nan
6.46537e-05	0	0	-nan
6.48297e-05	0	0	-nan
6.48608e-05	0	0	-nan
6.51147e-05	0	0	-nan
6.55054e-05	0	0	-nan
6.56641e-05	0	0	-nan
6.58477e-05	0	0	-nan
6.59006e-05	0	0	-nan
6.62221e-05	0	0	-nan
6.68356e-05	0	0	-nan
6.70305e-05	0	0	-nan
6.73195e-05	0	0	-nan
6.77214e-05	0	0	-nan
6.79307e-05	0	0	-nan
6.90139e-05	0	0	-nan
6.93657e-05	0	0	-nan
6.97808e-05	0	0	-nan
6.98749e-05	0	0	-nan
7.01165e-05	0	0	-nan
7.04391e-05	0	0	-nan
7.11485e-05	0	0	-nan
7.14215e-05	0	0	-nan
7.21068e-05	0	0	-nan
7.22329e-05	0	0	-nan
7.26403e-05	0	0	-nan
7.40533e-05	0	0	-nan
7.4091e-05	0	0	-nan
7.41425e-05	0	0	-nan
7.4146e-05	0	0	-nan
7.43188e-05	0	0	-nan
7.45833e-05	0	0	-nan
7.46354e-05	0	0	-nan
7.49746e-05	0	0	-nan
7.57205e-05	0	0	-nan
7.6001e-05	0	0	-nan
7.60815e-05	0	0	-nan
7.67525e-05	0	0	-nan
7.67586e-05	0	0	-nan
7.71123e-05	0	0	-nan
7.73559e-05	0	0	-nan
7.76381e-05	0	0	-nan
7.77411e-05	0	0	-nan
7.8051e-05	0	0	-nan
7.85422e-05	0	0	-nan
7.85654e-05	0	0	-nan
7.85936e-05	0	0	-nan
7.8874e-05	0	0	-nan
7.90242e-05	0	0	-nan
7.91385e-05	0	0	-nan
7.92717e-05	0	0	-nan
7.93892e-05	0	0	-nan
7.94966e-05	0	0	-nan
8.0148e-05	0	0	-nan
8.12144e-05	0	0	-nan
8.14562e-05	0	0	-nan
8.18354e-05	0	0	-nan
8.18492e-05	0	0	-nan
8.21509e-05	0	0	-nan
8.23409e-05	0	0	-nan
8.24417e-05	0	0	-nan
8.26807e-05	0	0	-nan
8.27598e-05	0	0	-nan
8.29992e-05	0	0	-nan
8.30084e-05	0	0	-nan
8.31683e-05	0	0	-nan
8.37092e-05	0	0	-nan
8.38398e-05	0	0	-nan
8.42937e-05	0	0	-nan
8.45353e-05	0	0	-nan
8.53192e-05	0	0	-nan
8.54227e-05	0	0	-nan
8.54624e-05	0	0	-nan
8.59737e-05	0	0	-nan
8.61041e-05	0	0	-nan
8.65952e-05	0	0	-nan
8.67875e-05	0	0	-nan
8.68494e-05	0	0	-nan
8.7238e-05	0	0	-nan
8.75302e-05	0	0	-nan
8.80353e-05	0	0	-nan
8.81222e-05	0	0	-nan
8.84244e-05	0	0	-nan
8.90187e-05	0	0	-nan
8.93871e-05	0	0	-nan
8.98155e-05	0	0	-nan
8.99155e-05	0	0	-nan
9.02881e-05	0	0	-nan
9.09849e-05	0	0	-nan
9.20724e-05	0	0	-nan
9.42971e-05	0	0	-nan
9.52624e-05	0	0	-nan
9.7436e-05	0	0	-nan
9.77857e-05	0	0	-nan
9.8285e-05	0	0	-nan
9.83744e-05	0	0	-nan
9.91019e-05	0	0	-nan
9.94539e-05	0	0	-nan
9.9543e-05	0	0	-nan
9.95923e-05	0	0	-nan
0.000100403	0	0	-nan
0.000100919	0	0	-nan
0.000100971	0	0	-nan
0.000101605	0	0	-nan
0.000101665	0	0	-nan
0.000101739	0	0	-nan
0.000102071	0	0	-nan
0.00010212	0	0	-nan
0.000102726	0	0	-nan
0.000102863	0	0	-nan
0.000103353	0	0	-nan
0.000103849	0	0	-nan
0.00010412	0	0	-nan
0.000104541	0	0	-nan
0.000104718	0	0	-nan
0.000105064	0	0	-nan
0.000105576	0	0	-nan
0.000107063	0	0	-nan
0.000107169	0	0	-nan
0.000107293	0	0	-nan
0.000107768	0	0	-nan
0.000108006	0	0	-nan
0.000108818	0	0	-nan
0.000109654	0	0	-nan
0.000109842	0	0	-nan
0.000110174	0	0	-nan
0.000110641	0	0	-nan
0.000110919	0	0	-nan
0.00011123	0	0	-nan
0.000111472	0	0	-nan
0.000112726	0	0	-nan
0.000113013	0	0	-nan
0.00011305	0	0	-nan
0.000113116	0	0	-nan
0.000113219	0	0	-nan
0.000113596	0	0	-nan
0.000113767	0	0	-nan
0.00011385	0	0	-nan
0.000113869	0	0	-nan
0.000113935	0	0	-nan
0.000114556	0	0	-nan
0.000114688	0	0	-nan
0.000114965	0	0	-nan
0.000115523	0	0	-nan
0.000116213	0	0	-nan
0.000118262	0	0	-nan
0.00011872	0	0	-nan
0.000118926	0	0	-nan
0.000120597	0	0	-nan
0.000120744	0	0	-nan
0.000123124	0	0	-nan
0.000124966	0	0	-nan
0.000125668	0	0	-nan
0.000128224	0	0	-nan
0.000130923	0	0	-nan
0.000131181	0	0	-nan
0.000131225	0	0	-nan
0.000131454	0	0	-nan
0.000132081	0	0	-nan
0.000132218	0	0	-nan
0.000132436	0	0	-nan
0.000132999	0	0	-nan
0.00013431	0	0	-nan
0.000135	0	0	-nan
0.000136397	0	0	-nan
0.00013766	0	0	-nan
0.000137853	0	0	-nan
0.000137972	0	0	-nan
0.000139978	0	0	-nan
0.000140084	0	0	-nan
0.000140358	0	0	-nan
0.000142312	0	0	-nan
0.000142702	0	0	-nan
0.000142984	0	0	-nan
0.000147847	0	0	-nan
0.000151659	0	0	-nan
0.000154186	0	0	-nan
0.000154399	0	0	-nan
0.000155598	0	0	-nan
0.000156849	0	0	-nan
0.000164103	0	0	-nan
0.000164766	0	0	-nan
0.000166691	0	0	-nan
0.000169027	0	0	-nan
0.000171652	0	0	-nan
0.000172058	0	0	-nan
0.000173009	0	0	-nan
0.000178082	0	0	-nan
0.000178841	0	0	-nan
0.000179193	0	0	-nan
0.000179368	0	0	-nan
0.000180745	0	0	-nan
0.000183851	0	0	-nan
0.000184989	0	0	-nan
0.000199634	0	0	-nan
0.000203279	0	0	-nan
0.000204588	0	0	-nan
0.00020469	0	0	-nan
0.000205824	0	0	-nan
0.000206998	0	0	-nan
0.000208502	0	0	-nan
0.000208879	0	0	-nan
0.00020938	0	0	-nan
0.000213052	0	0	-nan
0.000219001	0	0	-nan
0.000220713	0	0	-nan
0.000221672	0	0	-nan
0.000221731	0	0	-nan
0.00022379	0	0	-nan
0.000226136	0	0	-nan
0.000230312	0	0	-nan
0.000241056	0	0	-nan
0.000245802	0	0	-nan
0.000248909	0	0	-nan
0.000260537	0	0	-nan
0.000266901	0	0	-nan
0.000279047	0	0	-nan
0.000280702	0	0	-nan
0.000285851	0	0	-nan
0.000291429	0	0	-nan
0.000296989	0	0	-nan
0.000299291	0	0	-nan
0.000302189	0	0	-nan
0.000308138	0	0	-nan
0.000317098	0	0	-nan
0.00037784	0	0	-nan
0.00039459	0	0	-nan
0.000400948	0	0	-nan
0.000406646	0	0	-nan
0.000408296	0	0	-nan
0.000412193	0	0	-nan
0.000418239	0	0	-nan
0.000423513	0	0	-nan
0.00044309	0	0	-nan
0.000448563	0	0	-nan
0.000455739	0	0	-nan
0.000459718	0	0	-nan
0.00047582	0	0	-nan
0.000478461	0	0	-nan
0.000487699	0	0	-nan
0.00049062	0	0	-nan
0.000504659	0	0	-nan
0.00052329	0	0	-nan
0.000525385	0	0	-nan
0.000547913	0	0	-nan
0.000561306	0	0	-nan
0.000571186	0	0	-nan
0.000614285	0	0	-nan
0.000616764	0	0	-nan
0.000622438	0	0	-nan
0.000650686	0	0	-nan
0.000708542	0	0	-nan
0.000711093	0	0	-nan
0.000724562	0	0	-nan
0.000741571	0	0	-nan
0.00075862	0	0	-nan
0.000765544	0	0	-nan
0.000775283	0	0	-nan
0.000785952	0	0	-nan
0.000812733	0	0	-nan
0.000841206	0	0	-nan
0.000921141	0	0	-nan
0.000966407	0	0	-nan
0.000972493	0	0	-nan
0.00103507	0	0	-nan
0.00109875	0	0	-nan
0.00120872	0	0	-nan
0.00127916	0	0	-nan
0.00134222	0	0	-nan
0.00136127	0	0	-nan
0.00143915	0	0	-nan
0.00145195	0	0	-nan
0.00155577	0	0	-nan
0.00173864	0	0	-nan
0.00176287	0	0	-nan
0.00187285	0	0	-nan
0.00192134	0	0	-nan
0.00202151	0	0	-nan
0.00203284	0	0	-nan
0.002081	0	0	-nan
0.00230325	0	0	-nan
0.00237332	0	0	-nan
0.00244377	0	0	-nan
0.00254972	0	0	-nan
0.00268015	0	0	-nan
0.00550488	0	0	-nan
