6.30729e-09	0	0	-nan
1.4852e-08	0	0	-nan
1.52751e-08	0	0	-nan
2.27984e-08	0	0	-nan
2.69131e-08	0	0	-nan
2.93431e-08	0	0	-nan
3.821e-08	0	0	-nan
4.81823e-08	0	0	-nan
7.50959e-08	0	0	-nan
1.3245e-07	0	0	-nan
1.52239e-07	0	0	-nan
1.58033e-07	0	0	-nan
1.58354e-07	0	0	-nan
1.68829e-07	0	0	-nan
1.74911e-07	0	0	-nan
1.82738e-07	0	0	-nan
1.83743e-07	0	0	-nan
1.9693e-07	0	0	-nan
2.06242e-07	0	0	-nan
2.25383e-07	0	0	-nan
2.26026e-07	0	0	-nan
2.29876e-07	0	0	-nan
2.49474e-07	0	0	-nan
2.6785e-07	0	0	-nan
2.77932e-07	0	0	-nan
2.80012e-07	0	0	-nan
3.03773e-07	0	0	-nan
3.06015e-07	0	0	-nan
3.14525e-07	0	0	-nan
3.22147e-07	0	0	-nan
3.28737e-07	0	0	-nan
3.77907e-07	0	0	-nan
3.91271e-07	0	0	-nan
4.10354e-07	0	0	-nan
4.19951e-07	0	0	-nan
4.38069e-07	0	0	-nan
4.59092e-07	0	0	-nan
4.74304e-07	0	0	-nan
4.78829e-07	0	0	-nan
4.98896e-07	0	0	-nan
5.01338e-07	0	0	-nan
5.05485e-07	0	0	-nan
5.38776e-07	0	0	-nan
5.52656e-07	0	0	-nan
5.54951e-07	0	0	-nan
5.55358e-07	0	0	-nan
5.79664e-07	0	0	-nan
5.8695e-07	0	0	-nan
5.95864e-07	0	0	-nan
6.15613e-07	0	0	-nan
6.19122e-07	0	0	-nan
6.2155e-07	0	0	-nan
6.37932e-07	0	0	-nan
6.91063e-07	0	0	-nan
6.94121e-07	0	0	-nan
7.50271e-07	0	0	-nan
7.58256e-07	0	0	-nan
7.71797e-07	0	0	-nan
7.88047e-07	0	0	-nan
8.04342e-07	0	0	-nan
8.2535e-07	0	0	-nan
8.66915e-07	0	0	-nan
9.07811e-07	0	0	-nan
9.761e-07	0	0	-nan
9.85306e-07	0	0	-nan
1.00213e-06	0	0	-nan
1.02437e-06	0	0	-nan
1.02848e-06	0	0	-nan
1.05229e-06	0	0	-nan
1.06154e-06	0	0	-nan
1.06375e-06	0	0	-nan
1.13705e-06	0	0	-nan
1.14149e-06	0	0	-nan
1.15649e-06	0	0	-nan
1.19025e-06	0	0	-nan
1.19264e-06	0	0	-nan
1.21005e-06	0	0	-nan
1.22126e-06	0	0	-nan
1.24104e-06	0	0	-nan
1.2516e-06	0	0	-nan
1.26227e-06	0	0	-nan
1.26976e-06	0	0	-nan
1.27678e-06	0	0	-nan
1.30379e-06	0	0	-nan
1.32375e-06	0	0	-nan
1.34171e-06	0	0	-nan
1.36051e-06	0	0	-nan
1.37194e-06	0	0	-nan
1.38885e-06	0	0	-nan
1.43285e-06	0	0	-nan
1.4653e-06	0	0	-nan
1.46993e-06	0	0	-nan
1.48995e-06	0	0	-nan
1.49943e-06	0	0	-nan
1.51172e-06	0	0	-nan
1.54574e-06	0	0	-nan
1.55038e-06	0	0	-nan
1.55748e-06	0	0	-nan
1.56297e-06	0	0	-nan
1.59705e-06	0	0	-nan
1.59779e-06	0	0	-nan
1.6028e-06	0	0	-nan
1.6126e-06	0	0	-nan
1.61411e-06	0	0	-nan
1.63725e-06	0	0	-nan
1.64932e-06	0	0	-nan
1.66126e-06	0	0	-nan
1.66624e-06	0	0	-nan
1.68133e-06	0	0	-nan
1.7045e-06	0	0	-nan
1.7328e-06	0	0	-nan
1.73555e-06	0	0	-nan
1.73909e-06	0	0	-nan
1.75833e-06	0	0	-nan
1.76555e-06	0	0	-nan
1.76844e-06	0	0	-nan
1.8068e-06	0	0	-nan
1.82128e-06	0	0	-nan
1.8244e-06	0	0	-nan
1.83948e-06	0	0	-nan
1.8736e-06	0	0	-nan
1.89383e-06	0	0	-nan
1.89707e-06	0	0	-nan
1.91362e-06	0	0	-nan
1.91685e-06	0	0	-nan
1.92052e-06	0	0	-nan
1.92059e-06	0	0	-nan
1.93181e-06	0	0	-nan
1.97329e-06	0	0	-nan
1.98659e-06	0	0	-nan
1.98853e-06	0	0	-nan
1.99868e-06	0	0	-nan
2.00915e-06	0	0	-nan
2.01984e-06	0	0	-nan
2.02708e-06	0	0	-nan
2.03137e-06	0	0	-nan
2.04248e-06	0	0	-nan
2.05396e-06	0	0	-nan
2.09531e-06	0	0	-nan
2.13062e-06	0	0	-nan
2.13121e-06	0	0	-nan
2.1757e-06	0	0	-nan
2.2012e-06	0	0	-nan
2.21159e-06	0	0	-nan
2.23227e-06	0	0	-nan
2.23238e-06	0	0	-nan
2.25358e-06	0	0	-nan
2.26572e-06	0	0	-nan
2.27652e-06	0	0	-nan
2.27723e-06	0	0	-nan
2.28284e-06	0	0	-nan
2.29026e-06	0	0	-nan
2.33407e-06	0	0	-nan
2.33959e-06	0	0	-nan
2.34719e-06	0	0	-nan
2.38831e-06	0	0	-nan
2.39728e-06	0	0	-nan
2.43142e-06	0	0	-nan
2.43715e-06	0	0	-nan
2.43813e-06	0	0	-nan
2.45619e-06	0	0	-nan
2.49701e-06	0	0	-nan
2.49774e-06	0	0	-nan
2.50015e-06	0	0	-nan
2.52245e-06	0	0	-nan
2.56428e-06	0	0	-nan
2.58397e-06	0	0	-nan
2.58585e-06	0	0	-nan
2.5924e-06	0	0	-nan
2.59673e-06	0	0	-nan
2.60752e-06	0	0	-nan
2.61393e-06	0	0	-nan
2.63169e-06	0	0	-nan
2.63396e-06	0	0	-nan
2.65017e-06	0	0	-nan
2.65203e-06	0	0	-nan
2.68107e-06	0	0	-nan
2.68502e-06	0	0	-nan
2.69916e-06	0	0	-nan
2.69928e-06	0	0	-nan
2.81579e-06	0	0	-nan
2.82164e-06	0	0	-nan
2.8315e-06	0	0	-nan
2.88307e-06	0	0	-nan
2.88962e-06	0	0	-nan
2.94734e-06	0	0	-nan
2.97276e-06	0	0	-nan
2.97328e-06	0	0	-nan
3.00957e-06	0	0	-nan
3.01269e-06	0	0	-nan
3.01485e-06	0	0	-nan
3.02448e-06	0	0	-nan
3.06884e-06	0	0	-nan
3.07679e-06	0	0	-nan
3.08251e-06	0	0	-nan
3.10666e-06	0	0	-nan
3.14835e-06	0	0	-nan
3.15896e-06	0	0	-nan
3.21364e-06	0	0	-nan
3.24785e-06	0	0	-nan
3.2504e-06	0	0	-nan
3.25114e-06	0	0	-nan
3.26916e-06	0	0	-nan
3.27161e-06	0	0	-nan
3.28124e-06	0	0	-nan
3.35365e-06	0	0	-nan
3.3593e-06	0	0	-nan
3.36667e-06	0	0	-nan
3.36927e-06	0	0	-nan
3.37347e-06	0	0	-nan
3.39544e-06	0	0	-nan
3.40737e-06	0	0	-nan
3.40768e-06	0	0	-nan
3.41012e-06	0	0	-nan
3.43191e-06	0	0	-nan
3.44577e-06	0	0	-nan
3.45632e-06	0	0	-nan
3.47465e-06	0	0	-nan
3.54455e-06	0	0	-nan
3.57602e-06	0	0	-nan
3.5803e-06	0	0	-nan
3.58096e-06	0	0	-nan
3.58233e-06	0	0	-nan
3.58348e-06	0	0	-nan
3.59105e-06	0	0	-nan
3.62996e-06	0	0	-nan
3.65363e-06	0	0	-nan
3.70116e-06	0	0	-nan
3.7053e-06	0	0	-nan
3.71194e-06	0	0	-nan
3.71388e-06	0	0	-nan
3.71965e-06	0	0	-nan
3.72788e-06	0	0	-nan
3.77397e-06	0	0	-nan
3.77411e-06	0	0	-nan
3.78993e-06	0	0	-nan
3.79115e-06	0	0	-nan
3.79628e-06	0	0	-nan
3.79889e-06	0	0	-nan
3.80815e-06	0	0	-nan
3.81833e-06	0	0	-nan
3.82153e-06	0	0	-nan
3.83266e-06	0	0	-nan
3.87572e-06	0	0	-nan
3.87585e-06	0	0	-nan
3.90306e-06	0	0	-nan
3.95414e-06	0	0	-nan
3.98822e-06	0	0	-nan
4.00179e-06	0	0	-nan
4.05808e-06	0	0	-nan
4.06662e-06	0	0	-nan
4.0864e-06	0	0	-nan
4.16207e-06	0	0	-nan
4.17916e-06	0	0	-nan
4.18739e-06	0	0	-nan
4.18821e-06	0	0	-nan
4.19233e-06	0	0	-nan
4.26078e-06	0	0	-nan
4.26377e-06	0	0	-nan
4.2663e-06	0	0	-nan
4.27483e-06	0	0	-nan
4.27886e-06	0	0	-nan
4.32469e-06	0	0	-nan
4.36884e-06	0	0	-nan
4.37144e-06	0	0	-nan
4.37217e-06	0	0	-nan
4.37686e-06	0	0	-nan
4.39268e-06	0	0	-nan
4.39593e-06	0	0	-nan
4.45972e-06	0	0	-nan
4.46133e-06	0	0	-nan
4.48723e-06	0	0	-nan
4.496e-06	0	0	-nan
4.50254e-06	0	0	-nan
4.50291e-06	0	0	-nan
4.53604e-06	0	0	-nan
4.54165e-06	0	0	-nan
4.54399e-06	0	0	-nan
4.56573e-06	0	0	-nan
4.58583e-06	0	0	-nan
4.58916e-06	0	0	-nan
4.60665e-06	0	0	-nan
4.60798e-06	0	0	-nan
4.67473e-06	0	0	-nan
4.67841e-06	0	0	-nan
4.69764e-06	0	0	-nan
4.71059e-06	0	0	-nan
4.74582e-06	0	0	-nan
4.74995e-06	0	0	-nan
4.78303e-06	0	0	-nan
4.84125e-06	0	0	-nan
4.85993e-06	0	0	-nan
4.92248e-06	0	0	-nan
4.95106e-06	0	0	-nan
5.03437e-06	0	0	-nan
5.06124e-06	0	0	-nan
5.13275e-06	0	0	-nan
5.14668e-06	0	0	-nan
5.16253e-06	0	0	-nan
5.17652e-06	0	0	-nan
5.18063e-06	0	0	-nan
5.19369e-06	0	0	-nan
5.25374e-06	0	0	-nan
5.27467e-06	0	0	-nan
5.3087e-06	0	0	-nan
5.33696e-06	0	0	-nan
5.3791e-06	0	0	-nan
5.38579e-06	0	0	-nan
5.39221e-06	0	0	-nan
5.45053e-06	0	0	-nan
5.46561e-06	0	0	-nan
5.46571e-06	0	0	-nan
5.47325e-06	0	0	-nan
5.48492e-06	0	0	-nan
5.49089e-06	0	0	-nan
5.49763e-06	0	0	-nan
5.50773e-06	0	0	-nan
5.5182e-06	0	0	-nan
5.53118e-06	0	0	-nan
5.55011e-06	0	0	-nan
5.55847e-06	0	0	-nan
5.57145e-06	0	0	-nan
5.58071e-06	0	0	-nan
5.61422e-06	0	0	-nan
5.6331e-06	0	0	-nan
5.64364e-06	0	0	-nan
5.65203e-06	0	0	-nan
5.66225e-06	0	0	-nan
5.67449e-06	0	0	-nan
5.67936e-06	0	0	-nan
5.69024e-06	0	0	-nan
5.70784e-06	0	0	-nan
5.71876e-06	0	0	-nan
5.76631e-06	0	0	-nan
5.79661e-06	0	0	-nan
5.79956e-06	0	0	-nan
5.8285e-06	0	0	-nan
5.83684e-06	0	0	-nan
5.89052e-06	0	0	-nan
5.91371e-06	0	0	-nan
5.91733e-06	0	0	-nan
6.02328e-06	0	0	-nan
6.02906e-06	0	0	-nan
6.03562e-06	0	0	-nan
6.07385e-06	0	0	-nan
6.08067e-06	0	0	-nan
6.08292e-06	0	0	-nan
6.108e-06	0	0	-nan
6.11389e-06	0	0	-nan
6.18122e-06	0	0	-nan
6.18151e-06	0	0	-nan
6.18915e-06	0	0	-nan
6.18944e-06	0	0	-nan
6.20753e-06	0	0	-nan
6.23516e-06	0	0	-nan
6.26613e-06	0	0	-nan
6.31534e-06	0	0	-nan
6.32885e-06	0	0	-nan
6.35548e-06	0	0	-nan
6.45886e-06	0	0	-nan
6.5007e-06	0	0	-nan
6.52273e-06	0	0	-nan
6.54578e-06	0	0	-nan
6.59005e-06	0	0	-nan
6.61925e-06	0	0	-nan
6.63531e-06	0	0	-nan
6.69027e-06	0	0	-nan
6.69972e-06	0	0	-nan
6.72477e-06	0	0	-nan
6.75413e-06	0	0	-nan
6.76039e-06	0	0	-nan
6.76862e-06	0	0	-nan
6.80898e-06	0	0	-nan
6.85115e-06	0	0	-nan
6.8709e-06	0	0	-nan
6.87223e-06	0	0	-nan
6.89294e-06	0	0	-nan
6.89707e-06	0	0	-nan
6.97995e-06	0	0	-nan
6.98816e-06	0	0	-nan
7.00238e-06	0	0	-nan
7.00672e-06	0	0	-nan
7.06133e-06	0	0	-nan
7.07037e-06	0	0	-nan
7.12207e-06	0	0	-nan
7.13902e-06	0	0	-nan
7.18761e-06	0	0	-nan
7.20936e-06	0	0	-nan
7.21654e-06	0	0	-nan
7.227e-06	0	0	-nan
7.26645e-06	0	0	-nan
7.27008e-06	0	0	-nan
7.30726e-06	0	0	-nan
7.38336e-06	0	0	-nan
7.42508e-06	0	0	-nan
7.46888e-06	0	0	-nan
7.48107e-06	0	0	-nan
7.53952e-06	0	0	-nan
7.54208e-06	0	0	-nan
7.56314e-06	0	0	-nan
7.59542e-06	0	0	-nan
7.60677e-06	0	0	-nan
7.68652e-06	0	0	-nan
7.69038e-06	0	0	-nan
7.74254e-06	0	0	-nan
7.76429e-06	0	0	-nan
7.80416e-06	0	0	-nan
7.82978e-06	0	0	-nan
7.86104e-06	0	0	-nan
7.86927e-06	0	0	-nan
7.8823e-06	0	0	-nan
7.9117e-06	0	0	-nan
7.94437e-06	0	0	-nan
7.95163e-06	0	0	-nan
7.96313e-06	0	0	-nan
7.9764e-06	0	0	-nan
7.97968e-06	0	0	-nan
8.01195e-06	0	0	-nan
8.01416e-06	0	0	-nan
8.022e-06	0	0	-nan
8.06925e-06	0	0	-nan
8.19357e-06	0	0	-nan
8.232e-06	0	0	-nan
8.23759e-06	0	0	-nan
8.24161e-06	0	0	-nan
8.29213e-06	0	0	-nan
8.31926e-06	0	0	-nan
8.33029e-06	0	0	-nan
8.33296e-06	0	0	-nan
8.44705e-06	0	0	-nan
8.46243e-06	0	0	-nan
8.47779e-06	0	0	-nan
8.52752e-06	0	0	-nan
8.54438e-06	0	0	-nan
8.58337e-06	0	0	-nan
8.60134e-06	0	0	-nan
8.60924e-06	0	0	-nan
8.61785e-06	0	0	-nan
8.61861e-06	0	0	-nan
8.61877e-06	0	0	-nan
8.63811e-06	0	0	-nan
8.71206e-06	0	0	-nan
8.74296e-06	0	0	-nan
8.74562e-06	0	0	-nan
8.75552e-06	0	0	-nan
8.83244e-06	0	0	-nan
8.84222e-06	0	0	-nan
8.8454e-06	0	0	-nan
8.84638e-06	0	0	-nan
8.85082e-06	0	0	-nan
8.89982e-06	0	0	-nan
8.91376e-06	0	0	-nan
8.96194e-06	0	0	-nan
8.96351e-06	0	0	-nan
9.01736e-06	0	0	-nan
9.05916e-06	0	0	-nan
9.06445e-06	0	0	-nan
9.09973e-06	0	0	-nan
9.12499e-06	0	0	-nan
9.14178e-06	0	0	-nan
9.14765e-06	0	0	-nan
9.16026e-06	0	0	-nan
9.25896e-06	0	0	-nan
9.28841e-06	0	0	-nan
9.36104e-06	0	0	-nan
9.36166e-06	0	0	-nan
9.42827e-06	0	0	-nan
9.43139e-06	0	0	-nan
9.46358e-06	0	0	-nan
9.48458e-06	0	0	-nan
9.52006e-06	0	0	-nan
9.5767e-06	0	0	-nan
9.60804e-06	0	0	-nan
9.63093e-06	0	0	-nan
9.71501e-06	0	0	-nan
9.7163e-06	0	0	-nan
9.7766e-06	0	0	-nan
9.81265e-06	0	0	-nan
9.84417e-06	0	0	-nan
9.89208e-06	0	0	-nan
9.92065e-06	0	0	-nan
9.97456e-06	0	0	-nan
9.98882e-06	0	0	-nan
9.99182e-06	0	0	-nan
9.99314e-06	0	0	-nan
1.0022e-05	0	0	-nan
1.00487e-05	0	0	-nan
1.00576e-05	0	0	-nan
1.00963e-05	0	0	-nan
1.01244e-05	0	0	-nan
1.01564e-05	0	0	-nan
1.02068e-05	0	0	-nan
1.0216e-05	0	0	-nan
1.0218e-05	0	0	-nan
1.02383e-05	0	0	-nan
1.02472e-05	0	0	-nan
1.02482e-05	0	0	-nan
1.02809e-05	0	0	-nan
1.03021e-05	0	0	-nan
1.03511e-05	0	0	-nan
1.03599e-05	0	0	-nan
1.03623e-05	0	0	-nan
1.04022e-05	0	0	-nan
1.04295e-05	0	0	-nan
1.04396e-05	0	0	-nan
1.04535e-05	0	0	-nan
1.04824e-05	0	0	-nan
1.04968e-05	0	0	-nan
1.05364e-05	0	0	-nan
1.06007e-05	0	0	-nan
1.06282e-05	0	0	-nan
1.06681e-05	0	0	-nan
1.06721e-05	0	0	-nan
1.06873e-05	0	0	-nan
1.08163e-05	0	0	-nan
1.08355e-05	0	0	-nan
1.08443e-05	0	0	-nan
1.08518e-05	0	0	-nan
1.08583e-05	0	0	-nan
1.09038e-05	0	0	-nan
1.09174e-05	0	0	-nan
1.09334e-05	0	0	-nan
1.09754e-05	0	0	-nan
1.10224e-05	0	0	-nan
1.10257e-05	0	0	-nan
1.1033e-05	0	0	-nan
1.10718e-05	0	0	-nan
1.10962e-05	0	0	-nan
1.11753e-05	0	0	-nan
1.11868e-05	0	0	-nan
1.12507e-05	0	0	-nan
1.13208e-05	0	0	-nan
1.13557e-05	0	0	-nan
1.13628e-05	0	0	-nan
1.13649e-05	0	0	-nan
1.1445e-05	0	0	-nan
1.14792e-05	0	0	-nan
1.14815e-05	0	0	-nan
1.15361e-05	0	0	-nan
1.15635e-05	0	0	-nan
1.17339e-05	0	0	-nan
1.17607e-05	0	0	-nan
1.17653e-05	0	0	-nan
1.17731e-05	0	0	-nan
1.17739e-05	0	0	-nan
1.17837e-05	0	0	-nan
1.1816e-05	0	0	-nan
1.18348e-05	0	0	-nan
1.18538e-05	0	0	-nan
1.18751e-05	0	0	-nan
1.18973e-05	0	0	-nan
1.19883e-05	0	0	-nan
1.20036e-05	0	0	-nan
1.2041e-05	0	0	-nan
1.20747e-05	0	0	-nan
1.20749e-05	0	0	-nan
1.20875e-05	0	0	-nan
1.20892e-05	0	0	-nan
1.21049e-05	0	0	-nan
1.21233e-05	0	0	-nan
1.21279e-05	0	0	-nan
1.22244e-05	0	0	-nan
1.22664e-05	0	0	-nan
1.23105e-05	0	0	-nan
1.23755e-05	0	0	-nan
1.23957e-05	0	0	-nan
1.23968e-05	0	0	-nan
1.24016e-05	0	0	-nan
1.24306e-05	0	0	-nan
1.24335e-05	0	0	-nan
1.25207e-05	0	0	-nan
1.26014e-05	0	0	-nan
1.26415e-05	0	0	-nan
1.26616e-05	0	0	-nan
1.26753e-05	0	0	-nan
1.27028e-05	0	0	-nan
1.27082e-05	0	0	-nan
1.27177e-05	0	0	-nan
1.27198e-05	0	0	-nan
1.275e-05	0	0	-nan
1.2801e-05	0	0	-nan
1.28068e-05	0	0	-nan
1.28247e-05	0	0	-nan
1.28808e-05	0	0	-nan
1.28901e-05	0	0	-nan
1.29704e-05	0	0	-nan
1.29897e-05	0	0	-nan
1.30109e-05	0	0	-nan
1.31231e-05	0	0	-nan
1.31695e-05	0	0	-nan
1.3268e-05	0	0	-nan
1.33291e-05	0	0	-nan
1.33876e-05	0	0	-nan
1.33904e-05	0	0	-nan
1.34607e-05	0	0	-nan
1.35011e-05	0	0	-nan
1.35198e-05	0	0	-nan
1.35322e-05	0	0	-nan
1.35883e-05	0	0	-nan
1.3599e-05	0	0	-nan
1.36111e-05	0	0	-nan
1.37102e-05	0	0	-nan
1.37671e-05	0	0	-nan
1.37808e-05	0	0	-nan
1.38084e-05	0	0	-nan
1.387e-05	0	0	-nan
1.38801e-05	0	0	-nan
1.40337e-05	0	0	-nan
1.40348e-05	0	0	-nan
1.40477e-05	0	0	-nan
1.41418e-05	0	0	-nan
1.41591e-05	0	0	-nan
1.41602e-05	0	0	-nan
1.41771e-05	0	0	-nan
1.42998e-05	0	0	-nan
1.43659e-05	0	0	-nan
1.43984e-05	0	0	-nan
1.44552e-05	0	0	-nan
1.44587e-05	0	0	-nan
1.45071e-05	0	0	-nan
1.45074e-05	0	0	-nan
1.45687e-05	0	0	-nan
1.45757e-05	0	0	-nan
1.46198e-05	0	0	-nan
1.46536e-05	0	0	-nan
1.46644e-05	0	0	-nan
1.47315e-05	0	0	-nan
1.47939e-05	0	0	-nan
1.48144e-05	0	0	-nan
1.49183e-05	0	0	-nan
1.4947e-05	0	0	-nan
1.50083e-05	0	0	-nan
1.50292e-05	0	0	-nan
1.51099e-05	0	0	-nan
1.5113e-05	0	0	-nan
1.51458e-05	0	0	-nan
1.52389e-05	0	0	-nan
1.52577e-05	0	0	-nan
1.5265e-05	0	0	-nan
1.52766e-05	0	0	-nan
1.52789e-05	0	0	-nan
1.53784e-05	0	0	-nan
1.54143e-05	0	0	-nan
1.55852e-05	0	0	-nan
1.55899e-05	0	0	-nan
1.56265e-05	0	0	-nan
1.56874e-05	0	0	-nan
1.5704e-05	0	0	-nan
1.57301e-05	0	0	-nan
1.57774e-05	0	0	-nan
1.58046e-05	0	0	-nan
1.58746e-05	0	0	-nan
1.58756e-05	0	0	-nan
1.59419e-05	0	0	-nan
1.59448e-05	0	0	-nan
1.59729e-05	0	0	-nan
1.59782e-05	0	0	-nan
1.61127e-05	0	0	-nan
1.62036e-05	0	0	-nan
1.63749e-05	0	0	-nan
1.63893e-05	0	0	-nan
1.63895e-05	0	0	-nan
1.64352e-05	0	0	-nan
1.65964e-05	0	0	-nan
1.66459e-05	0	0	-nan
1.66503e-05	0	0	-nan
1.66929e-05	0	0	-nan
1.67717e-05	0	0	-nan
1.69109e-05	0	0	-nan
1.69333e-05	0	0	-nan
1.69406e-05	0	0	-nan
1.69478e-05	0	0	-nan
1.69813e-05	0	0	-nan
1.69875e-05	0	0	-nan
1.70729e-05	0	0	-nan
1.70962e-05	0	0	-nan
1.71428e-05	0	0	-nan
1.71868e-05	0	0	-nan
1.71868e-05	0	0	-nan
1.72072e-05	0	0	-nan
1.73014e-05	0	0	-nan
1.73188e-05	0	0	-nan
1.73277e-05	0	0	-nan
1.73339e-05	0	0	-nan
1.73974e-05	0	0	-nan
1.74259e-05	0	0	-nan
1.75574e-05	0	0	-nan
1.76776e-05	0	0	-nan
1.7813e-05	0	0	-nan
1.78162e-05	0	0	-nan
1.783e-05	0	0	-nan
1.8017e-05	0	0	-nan
1.80826e-05	0	0	-nan
1.80983e-05	0	0	-nan
1.81041e-05	0	0	-nan
1.81457e-05	0	0	-nan
1.82125e-05	0	0	-nan
1.82673e-05	0	0	-nan
1.82679e-05	0	0	-nan
1.84513e-05	0	0	-nan
1.85631e-05	0	0	-nan
1.86129e-05	0	0	-nan
1.86745e-05	0	0	-nan
1.87055e-05	0	0	-nan
1.87392e-05	0	0	-nan
1.87611e-05	0	0	-nan
1.88132e-05	0	0	-nan
1.88303e-05	0	0	-nan
1.88692e-05	0	0	-nan
1.89014e-05	0	0	-nan
1.90015e-05	0	0	-nan
1.90764e-05	0	0	-nan
1.91042e-05	0	0	-nan
1.91062e-05	0	0	-nan
1.91748e-05	0	0	-nan
1.91818e-05	0	0	-nan
1.91855e-05	0	0	-nan
1.92316e-05	0	0	-nan
1.9258e-05	0	0	-nan
1.93036e-05	0	0	-nan
1.93404e-05	0	0	-nan
1.93617e-05	0	0	-nan
1.94272e-05	0	0	-nan
1.94379e-05	0	0	-nan
1.94669e-05	0	0	-nan
1.94886e-05	0	0	-nan
1.94998e-05	0	0	-nan
1.95477e-05	0	0	-nan
1.96228e-05	0	0	-nan
1.96253e-05	0	0	-nan
1.96452e-05	0	0	-nan
1.96814e-05	0	0	-nan
1.97123e-05	0	0	-nan
1.97342e-05	0	0	-nan
1.97934e-05	0	0	-nan
1.98135e-05	0	0	-nan
1.98298e-05	0	0	-nan
1.99393e-05	0	0	-nan
2.00197e-05	0	0	-nan
2.00927e-05	0	0	-nan
2.01656e-05	0	0	-nan
2.01872e-05	0	0	-nan
2.03603e-05	0	0	-nan
2.05322e-05	0	0	-nan
2.05657e-05	0	0	-nan
2.07529e-05	0	0	-nan
2.07947e-05	0	0	-nan
2.08595e-05	0	0	-nan
2.09875e-05	0	0	-nan
2.10413e-05	0	0	-nan
2.11933e-05	0	0	-nan
2.12388e-05	0	0	-nan
2.12668e-05	0	0	-nan
2.13549e-05	0	0	-nan
2.13899e-05	0	0	-nan
2.13956e-05	0	0	-nan
2.14097e-05	0	0	-nan
2.14402e-05	0	0	-nan
2.14842e-05	0	0	-nan
2.16078e-05	0	0	-nan
2.17137e-05	0	0	-nan
2.18098e-05	0	0	-nan
2.18198e-05	0	0	-nan
2.20113e-05	0	0	-nan
2.20933e-05	0	0	-nan
2.21751e-05	0	0	-nan
2.21901e-05	0	0	-nan
2.22466e-05	0	0	-nan
2.22843e-05	0	0	-nan
2.23507e-05	0	0	-nan
2.2393e-05	0	0	-nan
2.24455e-05	0	0	-nan
2.26425e-05	0	0	-nan
2.27543e-05	0	0	-nan
2.2792e-05	0	0	-nan
2.28066e-05	0	0	-nan
2.28453e-05	0	0	-nan
2.28873e-05	0	0	-nan
2.29367e-05	0	0	-nan
2.31211e-05	0	0	-nan
2.31798e-05	0	0	-nan
2.32568e-05	0	0	-nan
2.33949e-05	0	0	-nan
2.35156e-05	0	0	-nan
2.3529e-05	0	0	-nan
2.37665e-05	0	0	-nan
2.37709e-05	0	0	-nan
2.37912e-05	0	0	-nan
2.38054e-05	0	0	-nan
2.40063e-05	0	0	-nan
2.40554e-05	0	0	-nan
2.4147e-05	0	0	-nan
2.41959e-05	0	0	-nan
2.42611e-05	0	0	-nan
2.42727e-05	0	0	-nan
2.43217e-05	0	0	-nan
2.43588e-05	0	0	-nan
2.43847e-05	0	0	-nan
2.44255e-05	0	0	-nan
2.45263e-05	0	0	-nan
2.45631e-05	0	0	-nan
2.46353e-05	0	0	-nan
2.46545e-05	0	0	-nan
2.47031e-05	0	0	-nan
2.47572e-05	0	0	-nan
2.47882e-05	0	0	-nan
2.47961e-05	0	0	-nan
2.48738e-05	0	0	-nan
2.48808e-05	0	0	-nan
2.50326e-05	0	0	-nan
2.50349e-05	0	0	-nan
2.50929e-05	0	0	-nan
2.51306e-05	0	0	-nan
2.51538e-05	0	0	-nan
2.52808e-05	0	0	-nan
2.54161e-05	0	0	-nan
2.54411e-05	0	0	-nan
2.54646e-05	0	0	-nan
2.54729e-05	0	0	-nan
2.55358e-05	0	0	-nan
2.56237e-05	0	0	-nan
2.56662e-05	0	0	-nan
2.58601e-05	0	0	-nan
2.59089e-05	0	0	-nan
2.59747e-05	0	0	-nan
2.60217e-05	0	0	-nan
2.6022e-05	0	0	-nan
2.60225e-05	0	0	-nan
2.60509e-05	0	0	-nan
2.60551e-05	0	0	-nan
2.60818e-05	0	0	-nan
2.61246e-05	0	0	-nan
2.63076e-05	0	0	-nan
2.63099e-05	0	0	-nan
2.63753e-05	0	0	-nan
2.64775e-05	0	0	-nan
2.6516e-05	0	0	-nan
2.65387e-05	0	0	-nan
2.66082e-05	0	0	-nan
2.6655e-05	0	0	-nan
2.6707e-05	0	0	-nan
2.67453e-05	0	0	-nan
2.67953e-05	0	0	-nan
2.68293e-05	0	0	-nan
2.68624e-05	0	0	-nan
2.69334e-05	0	0	-nan
2.70122e-05	0	0	-nan
2.70527e-05	0	0	-nan
2.70809e-05	0	0	-nan
2.7145e-05	0	0	-nan
2.7155e-05	0	0	-nan
2.71688e-05	0	0	-nan
2.72446e-05	0	0	-nan
2.73346e-05	0	0	-nan
2.73409e-05	0	0	-nan
2.73476e-05	0	0	-nan
2.73491e-05	0	0	-nan
2.75446e-05	0	0	-nan
2.77192e-05	0	0	-nan
2.77586e-05	0	0	-nan
2.78254e-05	0	0	-nan
2.78637e-05	0	0	-nan
2.80416e-05	0	0	-nan
2.81124e-05	0	0	-nan
2.81496e-05	0	0	-nan
2.82288e-05	0	0	-nan
2.84474e-05	0	0	-nan
2.85603e-05	0	0	-nan
2.85774e-05	0	0	-nan
2.86047e-05	0	0	-nan
2.86667e-05	0	0	-nan
2.86688e-05	0	0	-nan
2.87049e-05	0	0	-nan
2.88371e-05	0	0	-nan
2.88498e-05	0	0	-nan
2.88839e-05	0	0	-nan
2.89763e-05	0	0	-nan
2.89822e-05	0	0	-nan
2.90058e-05	0	0	-nan
2.9036e-05	0	0	-nan
2.90865e-05	0	0	-nan
2.91288e-05	0	0	-nan
2.91637e-05	0	0	-nan
2.92112e-05	0	0	-nan
2.92352e-05	0	0	-nan
2.93875e-05	0	0	-nan
2.95285e-05	0	0	-nan
2.95341e-05	0	0	-nan
2.95873e-05	0	0	-nan
2.96786e-05	0	0	-nan
2.9783e-05	0	0	-nan
2.99183e-05	0	0	-nan
2.99562e-05	0	0	-nan
3.00364e-05	0	0	-nan
3.00664e-05	0	0	-nan
3.02301e-05	0	0	-nan
3.02303e-05	0	0	-nan
3.02597e-05	0	0	-nan
3.03273e-05	0	0	-nan
3.04161e-05	0	0	-nan
3.04502e-05	0	0	-nan
3.06713e-05	0	0	-nan
3.07243e-05	0	0	-nan
3.07612e-05	0	0	-nan
3.07659e-05	0	0	-nan
3.09478e-05	0	0	-nan
3.13916e-05	0	0	-nan
3.1508e-05	0	0	-nan
3.15264e-05	0	0	-nan
3.15567e-05	0	0	-nan
3.15733e-05	0	0	-nan
3.15905e-05	0	0	-nan
3.16028e-05	0	0	-nan
3.16441e-05	0	0	-nan
3.19233e-05	0	0	-nan
3.19701e-05	0	0	-nan
3.22747e-05	0	0	-nan
3.23368e-05	0	0	-nan
3.25894e-05	0	0	-nan
3.2777e-05	0	0	-nan
3.27917e-05	0	0	-nan
3.28235e-05	0	0	-nan
3.2936e-05	0	0	-nan
3.31648e-05	0	0	-nan
3.31858e-05	0	0	-nan
3.31879e-05	0	0	-nan
3.32377e-05	0	0	-nan
3.34709e-05	0	0	-nan
3.34922e-05	0	0	-nan
3.35335e-05	0	0	-nan
3.35851e-05	0	0	-nan
3.36747e-05	0	0	-nan
3.37054e-05	0	0	-nan
3.37607e-05	0	0	-nan
3.37909e-05	0	0	-nan
3.38506e-05	0	0	-nan
3.39432e-05	0	0	-nan
3.40592e-05	0	0	-nan
3.40754e-05	0	0	-nan
3.41907e-05	0	0	-nan
3.42233e-05	0	0	-nan
3.42448e-05	0	0	-nan
3.42987e-05	0	0	-nan
3.44882e-05	0	0	-nan
3.45613e-05	0	0	-nan
3.46705e-05	0	0	-nan
3.48026e-05	0	0	-nan
3.48106e-05	0	0	-nan
3.48516e-05	0	0	-nan
3.48884e-05	0	0	-nan
3.4896e-05	0	0	-nan
3.52175e-05	0	0	-nan
3.53896e-05	0	0	-nan
3.54768e-05	0	0	-nan
3.55073e-05	0	0	-nan
3.56657e-05	0	0	-nan
3.58635e-05	0	0	-nan
3.60446e-05	0	0	-nan
3.61638e-05	0	0	-nan
3.61715e-05	0	0	-nan
3.62438e-05	0	0	-nan
3.63171e-05	0	0	-nan
3.63492e-05	0	0	-nan
3.65349e-05	0	0	-nan
3.67034e-05	0	0	-nan
3.67141e-05	0	0	-nan
3.6899e-05	0	0	-nan
3.71986e-05	0	0	-nan
3.7225e-05	0	0	-nan
3.72255e-05	0	0	-nan
3.72269e-05	0	0	-nan
3.72767e-05	0	0	-nan
3.73376e-05	0	0	-nan
3.73514e-05	0	0	-nan
3.74297e-05	0	0	-nan
3.74579e-05	0	0	-nan
3.76142e-05	0	0	-nan
3.76878e-05	0	0	-nan
3.77236e-05	0	0	-nan
3.78445e-05	0	0	-nan
3.80877e-05	0	0	-nan
3.80974e-05	0	0	-nan
3.81233e-05	0	0	-nan
3.82316e-05	0	0	-nan
3.83378e-05	0	0	-nan
3.84134e-05	0	0	-nan
3.84979e-05	0	0	-nan
3.86379e-05	0	0	-nan
3.8684e-05	0	0	-nan
3.88972e-05	0	0	-nan
3.89491e-05	0	0	-nan
3.9076e-05	0	0	-nan
3.91078e-05	0	0	-nan
3.94484e-05	0	0	-nan
3.94826e-05	0	0	-nan
3.95101e-05	0	0	-nan
3.95548e-05	0	0	-nan
3.9716e-05	0	0	-nan
3.97749e-05	0	0	-nan
3.98878e-05	0	0	-nan
3.99332e-05	0	0	-nan
4.05009e-05	0	0	-nan
4.06932e-05	0	0	-nan
4.0867e-05	0	0	-nan
4.08758e-05	0	0	-nan
4.08771e-05	0	0	-nan
4.09506e-05	0	0	-nan
4.09903e-05	0	0	-nan
4.11624e-05	0	0	-nan
4.12958e-05	0	0	-nan
4.13188e-05	0	0	-nan
4.14675e-05	0	0	-nan
4.16784e-05	0	0	-nan
4.17002e-05	0	0	-nan
4.18861e-05	0	0	-nan
4.2495e-05	0	0	-nan
4.25517e-05	0	0	-nan
4.27504e-05	0	0	-nan
4.28205e-05	0	0	-nan
4.28273e-05	0	0	-nan
4.28708e-05	0	0	-nan
4.29063e-05	0	0	-nan
4.30008e-05	0	0	-nan
4.30584e-05	0	0	-nan
4.31351e-05	0	0	-nan
4.33861e-05	0	0	-nan
4.34914e-05	0	0	-nan
4.36398e-05	0	0	-nan
4.36702e-05	0	0	-nan
4.42108e-05	0	0	-nan
4.42933e-05	0	0	-nan
4.43155e-05	0	0	-nan
4.44111e-05	0	0	-nan
4.46266e-05	0	0	-nan
4.46704e-05	0	0	-nan
4.50395e-05	0	0	-nan
4.52626e-05	0	0	-nan
4.5413e-05	0	0	-nan
4.54162e-05	0	0	-nan
4.55919e-05	0	0	-nan
4.55964e-05	0	0	-nan
4.57408e-05	0	0	-nan
4.5797e-05	0	0	-nan
4.58175e-05	0	0	-nan
4.58897e-05	0	0	-nan
4.6302e-05	0	0	-nan
4.6322e-05	0	0	-nan
4.63578e-05	0	0	-nan
4.63654e-05	0	0	-nan
4.63804e-05	0	0	-nan
4.64179e-05	0	0	-nan
4.64463e-05	0	0	-nan
4.67048e-05	0	0	-nan
4.67567e-05	0	0	-nan
4.67576e-05	0	0	-nan
4.67762e-05	0	0	-nan
4.69974e-05	0	0	-nan
4.71503e-05	0	0	-nan
4.71667e-05	0	0	-nan
4.74528e-05	0	0	-nan
4.75996e-05	0	0	-nan
4.76134e-05	0	0	-nan
4.80181e-05	0	0	-nan
4.80658e-05	0	0	-nan
4.80797e-05	0	0	-nan
4.81005e-05	0	0	-nan
4.81091e-05	0	0	-nan
4.84682e-05	0	0	-nan
4.86203e-05	0	0	-nan
4.87275e-05	0	0	-nan
4.87501e-05	0	0	-nan
4.89632e-05	0	0	-nan
4.93646e-05	0	0	-nan
4.93886e-05	0	0	-nan
4.94255e-05	0	0	-nan
4.94399e-05	0	0	-nan
4.97457e-05	0	0	-nan
4.97664e-05	0	0	-nan
5.00626e-05	0	0	-nan
5.01217e-05	0	0	-nan
5.01611e-05	0	0	-nan
5.06191e-05	0	0	-nan
5.07445e-05	0	0	-nan
5.09051e-05	0	0	-nan
5.1639e-05	0	0	-nan
5.1703e-05	0	0	-nan
5.17539e-05	0	0	-nan
5.18156e-05	0	0	-nan
5.19378e-05	0	0	-nan
5.19766e-05	0	0	-nan
5.23585e-05	0	0	-nan
5.28272e-05	0	0	-nan
5.28398e-05	0	0	-nan
5.29611e-05	0	0	-nan
5.31e-05	0	0	-nan
5.32177e-05	0	0	-nan
5.32824e-05	0	0	-nan
5.36434e-05	0	0	-nan
5.37539e-05	0	0	-nan
5.39458e-05	0	0	-nan
5.42047e-05	0	0	-nan
5.42687e-05	0	0	-nan
5.43412e-05	0	0	-nan
5.44491e-05	0	0	-nan
5.45881e-05	0	0	-nan
5.50104e-05	0	0	-nan
5.50559e-05	0	0	-nan
5.50596e-05	0	0	-nan
5.51912e-05	0	0	-nan
5.56431e-05	0	0	-nan
5.60009e-05	0	0	-nan
5.64104e-05	0	0	-nan
5.65824e-05	0	0	-nan
5.70288e-05	0	0	-nan
5.71898e-05	0	0	-nan
5.73994e-05	0	0	-nan
5.74521e-05	0	0	-nan
5.74595e-05	0	0	-nan
5.77936e-05	0	0	-nan
5.78329e-05	0	0	-nan
5.78584e-05	0	0	-nan
5.79218e-05	0	0	-nan
5.79735e-05	0	0	-nan
5.79863e-05	0	0	-nan
5.83314e-05	0	0	-nan
5.84745e-05	0	0	-nan
5.85741e-05	0	0	-nan
5.86462e-05	0	0	-nan
5.86907e-05	0	0	-nan
5.92294e-05	0	0	-nan
5.93825e-05	0	0	-nan
5.94733e-05	0	0	-nan
6.00418e-05	0	0	-nan
6.00538e-05	0	0	-nan
6.08389e-05	0	0	-nan
6.10567e-05	0	0	-nan
6.11707e-05	0	0	-nan
6.12973e-05	0	0	-nan
6.13024e-05	0	0	-nan
6.13855e-05	0	0	-nan
6.14615e-05	0	0	-nan
6.1592e-05	0	0	-nan
6.16366e-05	0	0	-nan
6.16757e-05	0	0	-nan
6.20326e-05	0	0	-nan
6.20515e-05	0	0	-nan
6.21276e-05	0	0	-nan
6.22622e-05	0	0	-nan
6.25444e-05	0	0	-nan
6.3417e-05	0	0	-nan
6.37925e-05	0	0	-nan
6.38846e-05	0	0	-nan
6.39338e-05	0	0	-nan
6.42651e-05	0	0	-nan
6.44039e-05	0	0	-nan
6.59152e-05	0	0	-nan
6.59333e-05	0	0	-nan
6.62169e-05	0	0	-nan
6.63162e-05	0	0	-nan
6.63415e-05	0	0	-nan
6.69052e-05	0	0	-nan
6.69647e-05	0	0	-nan
6.69834e-05	0	0	-nan
6.71714e-05	0	0	-nan
6.72896e-05	0	0	-nan
6.745e-05	0	0	-nan
6.85157e-05	0	0	-nan
6.88866e-05	0	0	-nan
6.90572e-05	0	0	-nan
6.91668e-05	0	0	-nan
6.93434e-05	0	0	-nan
6.95498e-05	0	0	-nan
6.96634e-05	0	0	-nan
7.01749e-05	0	0	-nan
7.05639e-05	0	0	-nan
7.09803e-05	0	0	-nan
7.11249e-05	0	0	-nan
7.14398e-05	0	0	-nan
7.19908e-05	0	0	-nan
7.29991e-05	0	0	-nan
7.33301e-05	0	0	-nan
7.3356e-05	0	0	-nan
7.33831e-05	0	0	-nan
7.34513e-05	0	0	-nan
7.43349e-05	0	0	-nan
7.44634e-05	0	0	-nan
7.50956e-05	0	0	-nan
7.51035e-05	0	0	-nan
7.52428e-05	0	0	-nan
7.6392e-05	0	0	-nan
7.66457e-05	0	0	-nan
7.67236e-05	0	0	-nan
7.73637e-05	0	0	-nan
7.75352e-05	0	0	-nan
7.85966e-05	0	0	-nan
7.92093e-05	0	0	-nan
7.95651e-05	0	0	-nan
7.95826e-05	0	0	-nan
7.97409e-05	0	0	-nan
7.97547e-05	0	0	-nan
7.99133e-05	0	0	-nan
8.02534e-05	0	0	-nan
8.0857e-05	0	0	-nan
8.16769e-05	0	0	-nan
8.17466e-05	0	0	-nan
8.17713e-05	0	0	-nan
8.22488e-05	0	0	-nan
8.24331e-05	0	0	-nan
8.28438e-05	0	0	-nan
8.32065e-05	0	0	-nan
8.35737e-05	0	0	-nan
8.35786e-05	0	0	-nan
8.36172e-05	0	0	-nan
8.38385e-05	0	0	-nan
8.38545e-05	0	0	-nan
8.42737e-05	0	0	-nan
8.43459e-05	0	0	-nan
8.49057e-05	0	0	-nan
8.57089e-05	0	0	-nan
8.60233e-05	0	0	-nan
8.64363e-05	0	0	-nan
8.65269e-05	0	0	-nan
8.72315e-05	0	0	-nan
8.73204e-05	0	0	-nan
8.73352e-05	0	0	-nan
8.73405e-05	0	0	-nan
8.74262e-05	0	0	-nan
8.74732e-05	0	0	-nan
8.76856e-05	0	0	-nan
8.83448e-05	0	0	-nan
8.8841e-05	0	0	-nan
8.90109e-05	0	0	-nan
8.97516e-05	0	0	-nan
8.98509e-05	0	0	-nan
8.98539e-05	0	0	-nan
9.11886e-05	0	0	-nan
9.14943e-05	0	0	-nan
9.15228e-05	0	0	-nan
9.16405e-05	0	0	-nan
9.24348e-05	0	0	-nan
9.25151e-05	0	0	-nan
9.27148e-05	0	0	-nan
9.34194e-05	0	0	-nan
9.35437e-05	0	0	-nan
9.38856e-05	0	0	-nan
9.48213e-05	0	0	-nan
9.48814e-05	0	0	-nan
9.53525e-05	0	0	-nan
9.57817e-05	0	0	-nan
9.58959e-05	0	0	-nan
9.66747e-05	0	0	-nan
9.71809e-05	0	0	-nan
9.75302e-05	0	0	-nan
9.76371e-05	0	0	-nan
9.77409e-05	0	0	-nan
9.77551e-05	0	0	-nan
9.7875e-05	0	0	-nan
9.80699e-05	0	0	-nan
9.90203e-05	0	0	-nan
9.94496e-05	0	0	-nan
9.96944e-05	0	0	-nan
0.000100503	0	0	-nan
0.000100537	0	0	-nan
0.000100883	0	0	-nan
0.000101677	0	0	-nan
0.000102515	0	0	-nan
0.000102745	0	0	-nan
0.000102828	0	0	-nan
0.000102914	0	0	-nan
0.000103013	0	0	-nan
0.000103277	0	0	-nan
0.000103322	0	0	-nan
0.000103596	0	0	-nan
0.000103883	0	0	-nan
0.000104195	0	0	-nan
0.00010428	0	0	-nan
0.000104516	0	0	-nan
0.000104581	0	0	-nan
0.000104977	0	0	-nan
0.000105904	0	0	-nan
0.000106377	0	0	-nan
0.000106738	0	0	-nan
0.000106823	0	0	-nan
0.000108812	0	0	-nan
0.000108966	0	0	-nan
0.000109465	0	0	-nan
0.000109487	0	0	-nan
0.000110252	0	0	-nan
0.000111221	0	0	-nan
0.000111708	0	0	-nan
0.00011172	0	0	-nan
0.000111759	0	0	-nan
0.000111992	0	0	-nan
0.000112373	0	0	-nan
0.000112421	0	0	-nan
0.000114129	0	0	-nan
0.000115457	0	0	-nan
0.00011583	0	0	-nan
0.000116293	0	0	-nan
0.000116517	0	0	-nan
0.000117049	0	0	-nan
0.000117332	0	0	-nan
0.000117491	0	0	-nan
0.000117945	0	0	-nan
0.000119612	0	0	-nan
0.00012127	0	0	-nan
0.000121868	0	0	-nan
0.000123223	0	0	-nan
0.00012385	0	0	-nan
0.000124144	0	0	-nan
0.000124191	0	0	-nan
0.000125766	0	0	-nan
0.000126763	0	0	-nan
0.00012711	0	0	-nan
0.000127702	0	0	-nan
0.000129483	0	0	-nan
0.000131924	0	0	-nan
0.000132992	0	0	-nan
0.000133751	0	0	-nan
0.000134006	0	0	-nan
0.000136707	0	0	-nan
0.000137584	0	0	-nan
0.000138641	0	0	-nan
0.00013902	0	0	-nan
0.000139216	0	0	-nan
0.000141101	0	0	-nan
0.00014283	0	0	-nan
0.00014415	0	0	-nan
0.000145677	0	0	-nan
0.000148144	0	0	-nan
0.000148614	0	0	-nan
0.000149689	0	0	-nan
0.00015123	0	0	-nan
0.000156691	0	0	-nan
0.000158417	0	0	-nan
0.000158977	0	0	-nan
0.000159981	0	0	-nan
0.000161007	0	0	-nan
0.000162533	0	0	-nan
0.000162841	0	0	-nan
0.000164846	0	0	-nan
0.000166316	0	0	-nan
0.000166562	0	0	-nan
0.000166652	0	0	-nan
0.000168475	0	0	-nan
0.000172182	0	0	-nan
0.000185145	0	0	-nan
0.000185389	0	0	-nan
0.000188516	0	0	-nan
0.000188624	0	0	-nan
0.000189406	0	0	-nan
0.000189484	0	0	-nan
0.00019092	0	0	-nan
0.000193236	0	0	-nan
0.000196779	0	0	-nan
0.000197192	0	0	-nan
0.00019722	0	0	-nan
0.000197734	0	0	-nan
0.000199135	0	0	-nan
0.000204973	0	0	-nan
0.000210479	0	0	-nan
0.000213463	0	0	-nan
0.000213901	0	0	-nan
0.00021708	0	0	-nan
0.00022641	0	0	-nan
0.000239631	0	0	-nan
0.000240564	0	0	-nan
0.00025972	0	0	-nan
0.000267498	0	0	-nan
0.000272444	0	0	-nan
0.000276284	0	0	-nan
0.000277706	0	0	-nan
0.000278457	0	0	-nan
0.000278595	0	0	-nan
0.000286665	0	0	-nan
0.000291986	0	0	-nan
0.000293085	0	0	-nan
0.000304986	0	0	-nan
0.000321455	0	0	-nan
0.000323769	0	0	-nan
0.000325103	0	0	-nan
0.000330982	0	0	-nan
0.000343506	0	0	-nan
0.00035002	0	0	-nan
0.000356774	0	0	-nan
0.000367346	0	0	-nan
0.00038012	0	0	-nan
0.000384593	0	0	-nan
0.000395742	0	0	-nan
0.000397694	0	0	-nan
0.000406175	0	0	-nan
0.000418528	0	0	-nan
0.000473523	0	0	-nan
0.000475857	0	0	-nan
0.000477358	0	0	-nan
0.000485033	0	0	-nan
0.000485769	0	0	-nan
0.000511218	0	0	-nan
0.00052241	0	0	-nan
0.000568668	0	0	-nan
0.000599815	0	0	-nan
0.000607706	0	0	-nan
0.000617174	0	0	-nan
0.000629287	0	0	-nan
0.000630569	0	0	-nan
0.000638097	0	0	-nan
0.000671803	0	0	-nan
0.000672545	0	0	-nan
0.000682522	0	0	-nan
0.000693951	0	0	-nan
0.000695316	0	0	-nan
0.000697213	0	0	-nan
0.000737087	0	0	-nan
0.000769361	0	0	-nan
0.000780881	0	0	-nan
0.000836488	0	0	-nan
0.000909884	0	0	-nan
0.000972888	0	0	-nan
0.000972935	0	0	-nan
0.00102023	0	0	-nan
0.00103873	0	0	-nan
0.00111894	0	0	-nan
0.0011307	0	0	-nan
0.00114559	0	0	-nan
0.0012676	0	0	-nan
0.0014198	0	0	-nan
0.00144143	0	0	-nan
0.00149592	0	0	-nan
0.0015904	0	0	-nan
0.00182071	0	0	-nan
0.00184192	0	0	-nan
0.0018483	0	0	-nan
0.00189255	0	0	-nan
0.00216918	0	0	-nan
0.00246815	0	0	-nan
0.00276446	0	0	-nan
0.00299051	0	0	-nan
0.00302067	0	0	-nan
0.00341033	0	0	-nan
0.00377471	0	0	-nan
0.0044355	0	0	-nan
0.00867716	0	0	-nan
