4.33119e-08	0	0	-nan
6.02117e-08	0	0	-nan
6.49948e-08	0	0	-nan
6.60336e-08	0	0	-nan
6.73042e-08	0	0	-nan
8.88675e-08	0	0	-nan
1.05373e-07	0	0	-nan
1.10261e-07	0	0	-nan
1.11401e-07	0	0	-nan
1.11418e-07	0	0	-nan
1.16986e-07	0	0	-nan
1.32395e-07	0	0	-nan
1.40708e-07	0	0	-nan
1.41277e-07	0	0	-nan
1.48279e-07	0	0	-nan
1.58432e-07	0	0	-nan
1.60639e-07	0	0	-nan
1.61076e-07	0	0	-nan
1.67584e-07	0	0	-nan
1.76054e-07	0	0	-nan
1.90758e-07	0	0	-nan
1.95061e-07	0	0	-nan
2.00721e-07	0	0	-nan
2.0279e-07	0	0	-nan
2.43498e-07	0	0	-nan
2.71275e-07	0	0	-nan
2.74911e-07	0	0	-nan
2.91242e-07	0	0	-nan
2.9169e-07	0	0	-nan
2.93663e-07	0	0	-nan
3.24586e-07	0	0	-nan
3.43314e-07	0	0	-nan
3.66142e-07	0	0	-nan
3.93413e-07	0	0	-nan
4.33948e-07	0	0	-nan
4.60603e-07	0	0	-nan
4.78164e-07	0	0	-nan
4.82098e-07	0	0	-nan
4.8768e-07	0	0	-nan
5.52849e-07	0	0	-nan
5.78608e-07	0	0	-nan
5.8035e-07	0	0	-nan
5.90916e-07	0	0	-nan
5.95095e-07	0	0	-nan
6.12681e-07	0	0	-nan
6.22472e-07	0	0	-nan
6.33415e-07	0	0	-nan
6.56957e-07	0	0	-nan
6.57363e-07	0	0	-nan
6.61331e-07	0	0	-nan
6.64034e-07	0	0	-nan
6.6858e-07	0	0	-nan
7.09984e-07	0	0	-nan
7.20518e-07	0	0	-nan
7.23747e-07	0	0	-nan
7.25689e-07	0	0	-nan
7.31156e-07	0	0	-nan
7.55027e-07	0	0	-nan
7.73427e-07	0	0	-nan
7.79052e-07	0	0	-nan
7.82473e-07	0	0	-nan
8.21033e-07	0	0	-nan
8.26991e-07	0	0	-nan
8.60499e-07	0	0	-nan
8.70738e-07	0	0	-nan
9.33186e-07	0	0	-nan
9.7112e-07	0	0	-nan
9.86376e-07	0	0	-nan
1.00383e-06	0	0	-nan
1.00449e-06	0	0	-nan
1.01322e-06	0	0	-nan
1.02554e-06	0	0	-nan
1.02983e-06	0	0	-nan
1.03488e-06	0	0	-nan
1.04108e-06	0	0	-nan
1.0487e-06	0	0	-nan
1.05244e-06	0	0	-nan
1.05946e-06	0	0	-nan
1.05995e-06	0	0	-nan
1.08613e-06	0	0	-nan
1.08981e-06	0	0	-nan
1.11054e-06	0	0	-nan
1.12672e-06	0	0	-nan
1.14322e-06	0	0	-nan
1.14727e-06	0	0	-nan
1.18204e-06	0	0	-nan
1.18921e-06	0	0	-nan
1.1913e-06	0	0	-nan
1.21016e-06	0	0	-nan
1.22715e-06	0	0	-nan
1.24014e-06	0	0	-nan
1.24447e-06	0	0	-nan
1.26426e-06	0	0	-nan
1.2643e-06	0	0	-nan
1.2758e-06	0	0	-nan
1.31565e-06	0	0	-nan
1.33445e-06	0	0	-nan
1.33599e-06	0	0	-nan
1.35112e-06	0	0	-nan
1.38869e-06	0	0	-nan
1.41707e-06	0	0	-nan
1.42553e-06	0	0	-nan
1.47145e-06	0	0	-nan
1.49065e-06	0	0	-nan
1.49701e-06	0	0	-nan
1.5049e-06	0	0	-nan
1.50667e-06	0	0	-nan
1.53074e-06	0	0	-nan
1.54784e-06	0	0	-nan
1.54846e-06	0	0	-nan
1.56278e-06	0	0	-nan
1.58787e-06	0	0	-nan
1.60465e-06	0	0	-nan
1.61587e-06	0	0	-nan
1.62537e-06	0	0	-nan
1.67577e-06	0	0	-nan
1.70194e-06	0	0	-nan
1.74762e-06	0	0	-nan
1.75244e-06	0	0	-nan
1.76472e-06	0	0	-nan
1.78061e-06	0	0	-nan
1.86577e-06	0	0	-nan
1.9511e-06	0	0	-nan
1.95436e-06	0	0	-nan
1.96513e-06	0	0	-nan
1.98873e-06	0	0	-nan
1.99164e-06	0	0	-nan
2.00146e-06	0	0	-nan
2.0114e-06	0	0	-nan
2.01838e-06	0	0	-nan
2.0343e-06	0	0	-nan
2.03674e-06	0	0	-nan
2.03956e-06	0	0	-nan
2.05062e-06	0	0	-nan
2.07364e-06	0	0	-nan
2.1049e-06	0	0	-nan
2.12286e-06	0	0	-nan
2.14624e-06	0	0	-nan
2.16142e-06	0	0	-nan
2.1674e-06	0	0	-nan
2.17314e-06	0	0	-nan
2.2044e-06	0	0	-nan
2.24015e-06	0	0	-nan
2.26115e-06	0	0	-nan
2.28699e-06	0	0	-nan
2.31879e-06	0	0	-nan
2.32605e-06	0	0	-nan
2.33162e-06	0	0	-nan
2.34829e-06	0	0	-nan
2.36047e-06	0	0	-nan
2.36917e-06	0	0	-nan
2.37459e-06	0	0	-nan
2.379e-06	0	0	-nan
2.37919e-06	0	0	-nan
2.38006e-06	0	0	-nan
2.39923e-06	0	0	-nan
2.4043e-06	0	0	-nan
2.45414e-06	0	0	-nan
2.45477e-06	0	0	-nan
2.46211e-06	0	0	-nan
2.47125e-06	0	0	-nan
2.53395e-06	0	0	-nan
2.55582e-06	0	0	-nan
2.56383e-06	0	0	-nan
2.61e-06	0	0	-nan
2.62676e-06	0	0	-nan
2.647e-06	0	0	-nan
2.68458e-06	0	0	-nan
2.6848e-06	0	0	-nan
2.68757e-06	0	0	-nan
2.71973e-06	0	0	-nan
2.77993e-06	0	0	-nan
2.80218e-06	0	0	-nan
2.81276e-06	0	0	-nan
2.81461e-06	0	0	-nan
2.83456e-06	0	0	-nan
2.85724e-06	0	0	-nan
2.85871e-06	0	0	-nan
2.90066e-06	0	0	-nan
2.92577e-06	0	0	-nan
2.93617e-06	0	0	-nan
2.94262e-06	0	0	-nan
2.94821e-06	0	0	-nan
2.94898e-06	0	0	-nan
2.97209e-06	0	0	-nan
3.01853e-06	0	0	-nan
3.06543e-06	0	0	-nan
3.10632e-06	0	0	-nan
3.13466e-06	0	0	-nan
3.15256e-06	0	0	-nan
3.15685e-06	0	0	-nan
3.15865e-06	0	0	-nan
3.18509e-06	0	0	-nan
3.18853e-06	0	0	-nan
3.20444e-06	0	0	-nan
3.23587e-06	0	0	-nan
3.24175e-06	0	0	-nan
3.24347e-06	0	0	-nan
3.24629e-06	0	0	-nan
3.25675e-06	0	0	-nan
3.2642e-06	0	0	-nan
3.26486e-06	0	0	-nan
3.27188e-06	0	0	-nan
3.33212e-06	0	0	-nan
3.39407e-06	0	0	-nan
3.45256e-06	0	0	-nan
3.47594e-06	0	0	-nan
3.4911e-06	0	0	-nan
3.51191e-06	0	0	-nan
3.5156e-06	0	0	-nan
3.54341e-06	0	0	-nan
3.55099e-06	0	0	-nan
3.55696e-06	0	0	-nan
3.6082e-06	0	0	-nan
3.64251e-06	0	0	-nan
3.66449e-06	0	0	-nan
3.665e-06	0	0	-nan
3.68207e-06	0	0	-nan
3.70004e-06	0	0	-nan
3.76707e-06	0	0	-nan
3.78241e-06	0	0	-nan
3.79341e-06	0	0	-nan
3.83603e-06	0	0	-nan
3.88038e-06	0	0	-nan
3.89609e-06	0	0	-nan
3.93476e-06	0	0	-nan
3.94412e-06	0	0	-nan
3.94487e-06	0	0	-nan
3.95684e-06	0	0	-nan
3.9606e-06	0	0	-nan
3.98584e-06	0	0	-nan
3.98943e-06	0	0	-nan
4.0449e-06	0	0	-nan
4.06568e-06	0	0	-nan
4.09149e-06	0	0	-nan
4.11792e-06	0	0	-nan
4.13423e-06	0	0	-nan
4.14644e-06	0	0	-nan
4.15176e-06	0	0	-nan
4.15827e-06	0	0	-nan
4.19229e-06	0	0	-nan
4.23207e-06	0	0	-nan
4.32277e-06	0	0	-nan
4.39828e-06	0	0	-nan
4.44404e-06	0	0	-nan
4.47029e-06	0	0	-nan
4.56179e-06	0	0	-nan
4.57849e-06	0	0	-nan
4.58195e-06	0	0	-nan
4.58373e-06	0	0	-nan
4.58386e-06	0	0	-nan
4.59793e-06	0	0	-nan
4.63894e-06	0	0	-nan
4.6478e-06	0	0	-nan
4.67425e-06	0	0	-nan
4.68895e-06	0	0	-nan
4.7082e-06	0	0	-nan
4.77087e-06	0	0	-nan
4.78226e-06	0	0	-nan
4.79994e-06	0	0	-nan
4.81209e-06	0	0	-nan
4.85217e-06	0	0	-nan
4.86508e-06	0	0	-nan
4.87283e-06	0	0	-nan
4.88216e-06	0	0	-nan
4.91248e-06	0	0	-nan
4.95454e-06	0	0	-nan
4.96614e-06	0	0	-nan
4.99793e-06	0	0	-nan
5.07178e-06	0	0	-nan
5.075e-06	0	0	-nan
5.08959e-06	0	0	-nan
5.1008e-06	0	0	-nan
5.1064e-06	0	0	-nan
5.13962e-06	0	0	-nan
5.15793e-06	0	0	-nan
5.18738e-06	0	0	-nan
5.19493e-06	0	0	-nan
5.2051e-06	0	0	-nan
5.22032e-06	0	0	-nan
5.24249e-06	0	0	-nan
5.26803e-06	0	0	-nan
5.29154e-06	0	0	-nan
5.31469e-06	0	0	-nan
5.32635e-06	0	0	-nan
5.34052e-06	0	0	-nan
5.34924e-06	0	0	-nan
5.36095e-06	0	0	-nan
5.36282e-06	0	0	-nan
5.38313e-06	0	0	-nan
5.42354e-06	0	0	-nan
5.48717e-06	0	0	-nan
5.4889e-06	0	0	-nan
5.52134e-06	0	0	-nan
5.53128e-06	0	0	-nan
5.53176e-06	0	0	-nan
5.54493e-06	0	0	-nan
5.60935e-06	0	0	-nan
5.61216e-06	0	0	-nan
5.64058e-06	0	0	-nan
5.66102e-06	0	0	-nan
5.66323e-06	0	0	-nan
5.66564e-06	0	0	-nan
5.67247e-06	0	0	-nan
5.70804e-06	0	0	-nan
5.73731e-06	0	0	-nan
5.7423e-06	0	0	-nan
5.76657e-06	0	0	-nan
5.78538e-06	0	0	-nan
5.80548e-06	0	0	-nan
5.81495e-06	0	0	-nan
5.81824e-06	0	0	-nan
5.8452e-06	0	0	-nan
5.85553e-06	0	0	-nan
5.87075e-06	0	0	-nan
5.92047e-06	0	0	-nan
5.94956e-06	0	0	-nan
5.98646e-06	0	0	-nan
6.04153e-06	0	0	-nan
6.07012e-06	0	0	-nan
6.09631e-06	0	0	-nan
6.11828e-06	0	0	-nan
6.12914e-06	0	0	-nan
6.21232e-06	0	0	-nan
6.25219e-06	0	0	-nan
6.26282e-06	0	0	-nan
6.30243e-06	0	0	-nan
6.34604e-06	0	0	-nan
6.4276e-06	0	0	-nan
6.47916e-06	0	0	-nan
6.48213e-06	0	0	-nan
6.49739e-06	0	0	-nan
6.51544e-06	0	0	-nan
6.62026e-06	0	0	-nan
6.69544e-06	0	0	-nan
6.79462e-06	0	0	-nan
6.80478e-06	0	0	-nan
6.82221e-06	0	0	-nan
6.82612e-06	0	0	-nan
6.83426e-06	0	0	-nan
6.83463e-06	0	0	-nan
6.85218e-06	0	0	-nan
6.8534e-06	0	0	-nan
6.90698e-06	0	0	-nan
7.0594e-06	0	0	-nan
7.08119e-06	0	0	-nan
7.11625e-06	0	0	-nan
7.13088e-06	0	0	-nan
7.20921e-06	0	0	-nan
7.21479e-06	0	0	-nan
7.37037e-06	0	0	-nan
7.37866e-06	0	0	-nan
7.3908e-06	0	0	-nan
7.45413e-06	0	0	-nan
7.50199e-06	0	0	-nan
7.50336e-06	0	0	-nan
7.51677e-06	0	0	-nan
7.57609e-06	0	0	-nan
7.58711e-06	0	0	-nan
7.59586e-06	0	0	-nan
7.65807e-06	0	0	-nan
7.78274e-06	0	0	-nan
7.79325e-06	0	0	-nan
7.7977e-06	0	0	-nan
7.83515e-06	0	0	-nan
7.86055e-06	0	0	-nan
7.97007e-06	0	0	-nan
7.98726e-06	0	0	-nan
8.05215e-06	0	0	-nan
8.05436e-06	0	0	-nan
8.07172e-06	0	0	-nan
8.09333e-06	0	0	-nan
8.12772e-06	0	0	-nan
8.17775e-06	0	0	-nan
8.19627e-06	0	0	-nan
8.25433e-06	0	0	-nan
8.40158e-06	0	0	-nan
8.44125e-06	0	0	-nan
8.50151e-06	0	0	-nan
8.50894e-06	0	0	-nan
8.53633e-06	0	0	-nan
8.56249e-06	0	0	-nan
8.56699e-06	0	0	-nan
8.69724e-06	0	0	-nan
8.70186e-06	0	0	-nan
8.73709e-06	0	0	-nan
8.73872e-06	0	0	-nan
8.7955e-06	0	0	-nan
8.80634e-06	0	0	-nan
8.81741e-06	0	0	-nan
8.97592e-06	0	0	-nan
9.01388e-06	0	0	-nan
9.01727e-06	0	0	-nan
9.03038e-06	0	0	-nan
9.05606e-06	0	0	-nan
9.06654e-06	0	0	-nan
9.06823e-06	0	0	-nan
9.10228e-06	0	0	-nan
9.13783e-06	0	0	-nan
9.16364e-06	0	0	-nan
9.26852e-06	0	0	-nan
9.31391e-06	0	0	-nan
9.35807e-06	0	0	-nan
9.38301e-06	0	0	-nan
9.39692e-06	0	0	-nan
9.43284e-06	0	0	-nan
9.53833e-06	0	0	-nan
9.55813e-06	0	0	-nan
9.60547e-06	0	0	-nan
9.64496e-06	0	0	-nan
9.70072e-06	0	0	-nan
9.70094e-06	0	0	-nan
9.70764e-06	0	0	-nan
9.78663e-06	0	0	-nan
9.83154e-06	0	0	-nan
9.84129e-06	0	0	-nan
9.8433e-06	0	0	-nan
9.86478e-06	0	0	-nan
9.89735e-06	0	0	-nan
9.91853e-06	0	0	-nan
9.96697e-06	0	0	-nan
9.97107e-06	0	0	-nan
9.99892e-06	0	0	-nan
1.00008e-05	0	0	-nan
1.00514e-05	0	0	-nan
1.00759e-05	0	0	-nan
1.01295e-05	0	0	-nan
1.01744e-05	0	0	-nan
1.02095e-05	0	0	-nan
1.02721e-05	0	0	-nan
1.02741e-05	0	0	-nan
1.03319e-05	0	0	-nan
1.0406e-05	0	0	-nan
1.05113e-05	0	0	-nan
1.05416e-05	0	0	-nan
1.05439e-05	0	0	-nan
1.05896e-05	0	0	-nan
1.06632e-05	0	0	-nan
1.07045e-05	0	0	-nan
1.07174e-05	0	0	-nan
1.07505e-05	0	0	-nan
1.07586e-05	0	0	-nan
1.07759e-05	0	0	-nan
1.08044e-05	0	0	-nan
1.08309e-05	0	0	-nan
1.08784e-05	0	0	-nan
1.09154e-05	0	0	-nan
1.0938e-05	0	0	-nan
1.09834e-05	0	0	-nan
1.10309e-05	0	0	-nan
1.10369e-05	0	0	-nan
1.10534e-05	0	0	-nan
1.11183e-05	0	0	-nan
1.11808e-05	0	0	-nan
1.11864e-05	0	0	-nan
1.1218e-05	0	0	-nan
1.1297e-05	0	0	-nan
1.1311e-05	0	0	-nan
1.13129e-05	0	0	-nan
1.14031e-05	0	0	-nan
1.1429e-05	0	0	-nan
1.15508e-05	0	0	-nan
1.15729e-05	0	0	-nan
1.16333e-05	0	0	-nan
1.16743e-05	0	0	-nan
1.16989e-05	0	0	-nan
1.17111e-05	0	0	-nan
1.18073e-05	0	0	-nan
1.18569e-05	0	0	-nan
1.19339e-05	0	0	-nan
1.20216e-05	0	0	-nan
1.20521e-05	0	0	-nan
1.2064e-05	0	0	-nan
1.20849e-05	0	0	-nan
1.21085e-05	0	0	-nan
1.21232e-05	0	0	-nan
1.216e-05	0	0	-nan
1.23816e-05	0	0	-nan
1.23896e-05	0	0	-nan
1.24302e-05	0	0	-nan
1.24307e-05	0	0	-nan
1.24322e-05	0	0	-nan
1.25833e-05	0	0	-nan
1.26333e-05	0	0	-nan
1.26718e-05	0	0	-nan
1.2673e-05	0	0	-nan
1.28054e-05	0	0	-nan
1.28378e-05	0	0	-nan
1.28564e-05	0	0	-nan
1.32443e-05	0	0	-nan
1.33095e-05	0	0	-nan
1.34561e-05	0	0	-nan
1.34624e-05	0	0	-nan
1.34754e-05	0	0	-nan
1.35455e-05	0	0	-nan
1.36313e-05	0	0	-nan
1.36574e-05	0	0	-nan
1.36891e-05	0	0	-nan
1.37605e-05	0	0	-nan
1.38178e-05	0	0	-nan
1.38523e-05	0	0	-nan
1.38827e-05	0	0	-nan
1.38833e-05	0	0	-nan
1.39077e-05	0	0	-nan
1.39193e-05	0	0	-nan
1.3998e-05	0	0	-nan
1.41984e-05	0	0	-nan
1.42429e-05	0	0	-nan
1.42522e-05	0	0	-nan
1.42585e-05	0	0	-nan
1.42971e-05	0	0	-nan
1.43004e-05	0	0	-nan
1.44182e-05	0	0	-nan
1.45192e-05	0	0	-nan
1.45621e-05	0	0	-nan
1.46109e-05	0	0	-nan
1.46341e-05	0	0	-nan
1.46969e-05	0	0	-nan
1.47429e-05	0	0	-nan
1.48352e-05	0	0	-nan
1.48398e-05	0	0	-nan
1.49102e-05	0	0	-nan
1.49165e-05	0	0	-nan
1.49501e-05	0	0	-nan
1.50132e-05	0	0	-nan
1.50818e-05	0	0	-nan
1.50902e-05	0	0	-nan
1.51587e-05	0	0	-nan
1.51881e-05	0	0	-nan
1.51911e-05	0	0	-nan
1.52241e-05	0	0	-nan
1.52357e-05	0	0	-nan
1.5236e-05	0	0	-nan
1.52486e-05	0	0	-nan
1.53106e-05	0	0	-nan
1.53418e-05	0	0	-nan
1.5411e-05	0	0	-nan
1.54627e-05	0	0	-nan
1.54941e-05	0	0	-nan
1.55452e-05	0	0	-nan
1.55597e-05	0	0	-nan
1.56228e-05	0	0	-nan
1.56507e-05	0	0	-nan
1.56901e-05	0	0	-nan
1.56921e-05	0	0	-nan
1.57548e-05	0	0	-nan
1.59395e-05	0	0	-nan
1.59739e-05	0	0	-nan
1.60324e-05	0	0	-nan
1.60637e-05	0	0	-nan
1.6098e-05	0	0	-nan
1.62205e-05	0	0	-nan
1.62565e-05	0	0	-nan
1.62624e-05	0	0	-nan
1.62685e-05	0	0	-nan
1.62769e-05	0	0	-nan
1.62992e-05	0	0	-nan
1.63829e-05	0	0	-nan
1.63988e-05	0	0	-nan
1.64973e-05	0	0	-nan
1.65102e-05	0	0	-nan
1.65338e-05	0	0	-nan
1.66414e-05	0	0	-nan
1.66432e-05	0	0	-nan
1.6716e-05	0	0	-nan
1.68254e-05	0	0	-nan
1.68622e-05	0	0	-nan
1.68819e-05	0	0	-nan
1.68894e-05	0	0	-nan
1.69092e-05	0	0	-nan
1.69563e-05	0	0	-nan
1.7113e-05	0	0	-nan
1.71702e-05	0	0	-nan
1.72852e-05	0	0	-nan
1.73103e-05	0	0	-nan
1.74803e-05	0	0	-nan
1.74943e-05	0	0	-nan
1.75326e-05	0	0	-nan
1.7636e-05	0	0	-nan
1.77064e-05	0	0	-nan
1.77881e-05	0	0	-nan
1.78204e-05	0	0	-nan
1.7824e-05	0	0	-nan
1.79455e-05	0	0	-nan
1.79979e-05	0	0	-nan
1.80726e-05	0	0	-nan
1.80737e-05	0	0	-nan
1.80842e-05	0	0	-nan
1.80932e-05	0	0	-nan
1.80958e-05	0	0	-nan
1.81147e-05	0	0	-nan
1.81185e-05	0	0	-nan
1.81828e-05	0	0	-nan
1.82511e-05	0	0	-nan
1.85203e-05	0	0	-nan
1.85448e-05	0	0	-nan
1.86546e-05	0	0	-nan
1.87196e-05	0	0	-nan
1.8829e-05	0	0	-nan
1.88657e-05	0	0	-nan
1.8964e-05	0	0	-nan
1.90491e-05	0	0	-nan
1.90563e-05	0	0	-nan
1.91091e-05	0	0	-nan
1.91139e-05	0	0	-nan
1.92437e-05	0	0	-nan
1.93934e-05	0	0	-nan
1.93961e-05	0	0	-nan
1.95476e-05	0	0	-nan
1.96809e-05	0	0	-nan
1.97428e-05	0	0	-nan
1.98454e-05	0	0	-nan
1.99465e-05	0	0	-nan
1.99547e-05	0	0	-nan
1.99671e-05	0	0	-nan
1.99873e-05	0	0	-nan
1.99944e-05	0	0	-nan
1.99981e-05	0	0	-nan
2.01055e-05	0	0	-nan
2.01074e-05	0	0	-nan
2.01685e-05	0	0	-nan
2.01935e-05	0	0	-nan
2.03035e-05	0	0	-nan
2.03263e-05	0	0	-nan
2.03616e-05	0	0	-nan
2.03672e-05	0	0	-nan
2.0729e-05	0	0	-nan
2.0748e-05	0	0	-nan
2.08757e-05	0	0	-nan
2.08774e-05	0	0	-nan
2.09127e-05	0	0	-nan
2.10516e-05	0	0	-nan
2.11238e-05	0	0	-nan
2.11735e-05	0	0	-nan
2.12175e-05	0	0	-nan
2.12279e-05	0	0	-nan
2.13508e-05	0	0	-nan
2.13589e-05	0	0	-nan
2.14492e-05	0	0	-nan
2.15061e-05	0	0	-nan
2.16566e-05	0	0	-nan
2.18755e-05	0	0	-nan
2.19989e-05	0	0	-nan
2.20492e-05	0	0	-nan
2.20893e-05	0	0	-nan
2.21333e-05	0	0	-nan
2.21536e-05	0	0	-nan
2.22472e-05	0	0	-nan
2.22758e-05	0	0	-nan
2.23152e-05	0	0	-nan
2.23655e-05	0	0	-nan
2.23744e-05	0	0	-nan
2.2704e-05	0	0	-nan
2.27052e-05	0	0	-nan
2.28178e-05	0	0	-nan
2.28179e-05	0	0	-nan
2.29798e-05	0	0	-nan
2.30535e-05	0	0	-nan
2.31113e-05	0	0	-nan
2.31283e-05	0	0	-nan
2.32202e-05	0	0	-nan
2.32314e-05	0	0	-nan
2.32915e-05	0	0	-nan
2.35125e-05	0	0	-nan
2.35734e-05	0	0	-nan
2.37298e-05	0	0	-nan
2.38463e-05	0	0	-nan
2.38526e-05	0	0	-nan
2.388e-05	0	0	-nan
2.39905e-05	0	0	-nan
2.39983e-05	0	0	-nan
2.40527e-05	0	0	-nan
2.4101e-05	0	0	-nan
2.43175e-05	0	0	-nan
2.43338e-05	0	0	-nan
2.44517e-05	0	0	-nan
2.4622e-05	0	0	-nan
2.47952e-05	0	0	-nan
2.48779e-05	0	0	-nan
2.48894e-05	0	0	-nan
2.49666e-05	0	0	-nan
2.50255e-05	0	0	-nan
2.50465e-05	0	0	-nan
2.51355e-05	0	0	-nan
2.51749e-05	0	0	-nan
2.5231e-05	0	0	-nan
2.52825e-05	0	0	-nan
2.53235e-05	0	0	-nan
2.56757e-05	0	0	-nan
2.5703e-05	0	0	-nan
2.57098e-05	0	0	-nan
2.58009e-05	0	0	-nan
2.58352e-05	0	0	-nan
2.58423e-05	0	0	-nan
2.59245e-05	0	0	-nan
2.59621e-05	0	0	-nan
2.60818e-05	0	0	-nan
2.60861e-05	0	0	-nan
2.60922e-05	0	0	-nan
2.6124e-05	0	0	-nan
2.62755e-05	0	0	-nan
2.63669e-05	0	0	-nan
2.6775e-05	0	0	-nan
2.67821e-05	0	0	-nan
2.67829e-05	0	0	-nan
2.68179e-05	0	0	-nan
2.69049e-05	0	0	-nan
2.69488e-05	0	0	-nan
2.70384e-05	0	0	-nan
2.70704e-05	0	0	-nan
2.72082e-05	0	0	-nan
2.7316e-05	0	0	-nan
2.73995e-05	0	0	-nan
2.75029e-05	0	0	-nan
2.75652e-05	0	0	-nan
2.75953e-05	0	0	-nan
2.77322e-05	0	0	-nan
2.77325e-05	0	0	-nan
2.78947e-05	0	0	-nan
2.79087e-05	0	0	-nan
2.80082e-05	0	0	-nan
2.80924e-05	0	0	-nan
2.83474e-05	0	0	-nan
2.84257e-05	0	0	-nan
2.84639e-05	0	0	-nan
2.86304e-05	0	0	-nan
2.86449e-05	0	0	-nan
2.86593e-05	0	0	-nan
2.88516e-05	0	0	-nan
2.89242e-05	0	0	-nan
2.90031e-05	0	0	-nan
2.90032e-05	0	0	-nan
2.90129e-05	0	0	-nan
2.92536e-05	0	0	-nan
2.93552e-05	0	0	-nan
2.94501e-05	0	0	-nan
2.9531e-05	0	0	-nan
2.9549e-05	0	0	-nan
2.95595e-05	0	0	-nan
2.96502e-05	0	0	-nan
2.96965e-05	0	0	-nan
2.98189e-05	0	0	-nan
2.99798e-05	0	0	-nan
3.00282e-05	0	0	-nan
3.04264e-05	0	0	-nan
3.04426e-05	0	0	-nan
3.06295e-05	0	0	-nan
3.07331e-05	0	0	-nan
3.08617e-05	0	0	-nan
3.08669e-05	0	0	-nan
3.11976e-05	0	0	-nan
3.12204e-05	0	0	-nan
3.15005e-05	0	0	-nan
3.17203e-05	0	0	-nan
3.18421e-05	0	0	-nan
3.18798e-05	0	0	-nan
3.19366e-05	0	0	-nan
3.2081e-05	0	0	-nan
3.20976e-05	0	0	-nan
3.21229e-05	0	0	-nan
3.21336e-05	0	0	-nan
3.22209e-05	0	0	-nan
3.22347e-05	0	0	-nan
3.22718e-05	0	0	-nan
3.23829e-05	0	0	-nan
3.24182e-05	0	0	-nan
3.24696e-05	0	0	-nan
3.25416e-05	0	0	-nan
3.2544e-05	0	0	-nan
3.26296e-05	0	0	-nan
3.26483e-05	0	0	-nan
3.29633e-05	0	0	-nan
3.29673e-05	0	0	-nan
3.33535e-05	0	0	-nan
3.35609e-05	0	0	-nan
3.4128e-05	0	0	-nan
3.42024e-05	0	0	-nan
3.44109e-05	0	0	-nan
3.48511e-05	0	0	-nan
3.49319e-05	0	0	-nan
3.52989e-05	0	0	-nan
3.54142e-05	0	0	-nan
3.54672e-05	0	0	-nan
3.56027e-05	0	0	-nan
3.56175e-05	0	0	-nan
3.58893e-05	0	0	-nan
3.58968e-05	0	0	-nan
3.59834e-05	0	0	-nan
3.60973e-05	0	0	-nan
3.61098e-05	0	0	-nan
3.6147e-05	0	0	-nan
3.61692e-05	0	0	-nan
3.66486e-05	0	0	-nan
3.66809e-05	0	0	-nan
3.73491e-05	0	0	-nan
3.74182e-05	0	0	-nan
3.74562e-05	0	0	-nan
3.75937e-05	0	0	-nan
3.76736e-05	0	0	-nan
3.7711e-05	0	0	-nan
3.79486e-05	0	0	-nan
3.7986e-05	0	0	-nan
3.83502e-05	0	0	-nan
3.84773e-05	0	0	-nan
3.90627e-05	0	0	-nan
3.90905e-05	0	0	-nan
3.91001e-05	0	0	-nan
3.93837e-05	0	0	-nan
3.93878e-05	0	0	-nan
3.95707e-05	0	0	-nan
3.97279e-05	0	0	-nan
3.9768e-05	0	0	-nan
4.02058e-05	0	0	-nan
4.03017e-05	0	0	-nan
4.031e-05	0	0	-nan
4.03719e-05	0	0	-nan
4.06744e-05	0	0	-nan
4.06965e-05	0	0	-nan
4.07092e-05	0	0	-nan
4.10004e-05	0	0	-nan
4.1754e-05	0	0	-nan
4.17578e-05	0	0	-nan
4.18234e-05	0	0	-nan
4.21453e-05	0	0	-nan
4.23471e-05	0	0	-nan
4.26485e-05	0	0	-nan
4.28128e-05	0	0	-nan
4.28451e-05	0	0	-nan
4.28914e-05	0	0	-nan
4.29826e-05	0	0	-nan
4.32681e-05	0	0	-nan
4.35043e-05	0	0	-nan
4.35841e-05	0	0	-nan
4.38864e-05	0	0	-nan
4.42109e-05	0	0	-nan
4.43628e-05	0	0	-nan
4.44944e-05	0	0	-nan
4.49902e-05	0	0	-nan
4.52582e-05	0	0	-nan
4.55128e-05	0	0	-nan
4.55974e-05	0	0	-nan
4.56878e-05	0	0	-nan
4.57413e-05	0	0	-nan
4.57577e-05	0	0	-nan
4.59119e-05	0	0	-nan
4.59523e-05	0	0	-nan
4.60054e-05	0	0	-nan
4.60156e-05	0	0	-nan
4.64658e-05	0	0	-nan
4.65466e-05	0	0	-nan
4.66374e-05	0	0	-nan
4.66911e-05	0	0	-nan
4.69411e-05	0	0	-nan
4.71678e-05	0	0	-nan
4.72765e-05	0	0	-nan
4.75591e-05	0	0	-nan
4.76902e-05	0	0	-nan
4.77309e-05	0	0	-nan
4.77652e-05	0	0	-nan
4.78875e-05	0	0	-nan
4.80651e-05	0	0	-nan
4.8124e-05	0	0	-nan
4.82591e-05	0	0	-nan
4.8299e-05	0	0	-nan
4.84693e-05	0	0	-nan
4.87914e-05	0	0	-nan
4.88122e-05	0	0	-nan
4.88315e-05	0	0	-nan
4.98146e-05	0	0	-nan
4.98698e-05	0	0	-nan
5.02673e-05	0	0	-nan
5.03506e-05	0	0	-nan
5.05776e-05	0	0	-nan
5.07517e-05	0	0	-nan
5.10585e-05	0	0	-nan
5.1942e-05	0	0	-nan
5.19777e-05	0	0	-nan
5.23245e-05	0	0	-nan
5.25019e-05	0	0	-nan
5.25329e-05	0	0	-nan
5.29342e-05	0	0	-nan
5.29765e-05	0	0	-nan
5.30802e-05	0	0	-nan
5.31107e-05	0	0	-nan
5.34653e-05	0	0	-nan
5.35058e-05	0	0	-nan
5.38543e-05	0	0	-nan
5.39469e-05	0	0	-nan
5.40416e-05	0	0	-nan
5.40803e-05	0	0	-nan
5.41298e-05	0	0	-nan
5.42341e-05	0	0	-nan
5.42785e-05	0	0	-nan
5.45386e-05	0	0	-nan
5.45393e-05	0	0	-nan
5.47695e-05	0	0	-nan
5.50534e-05	0	0	-nan
5.55702e-05	0	0	-nan
5.60372e-05	0	0	-nan
5.60906e-05	0	0	-nan
5.67009e-05	0	0	-nan
5.67493e-05	0	0	-nan
5.68604e-05	0	0	-nan
5.71883e-05	0	0	-nan
5.74929e-05	0	0	-nan
5.79664e-05	0	0	-nan
5.80955e-05	0	0	-nan
5.84223e-05	0	0	-nan
5.84725e-05	0	0	-nan
5.91422e-05	0	0	-nan
5.91465e-05	0	0	-nan
5.94737e-05	0	0	-nan
5.96257e-05	0	0	-nan
5.98206e-05	0	0	-nan
5.99902e-05	0	0	-nan
6.05211e-05	0	0	-nan
6.06786e-05	0	0	-nan
6.06942e-05	0	0	-nan
6.16156e-05	0	0	-nan
6.16176e-05	0	0	-nan
6.18772e-05	0	0	-nan
6.20442e-05	0	0	-nan
6.21512e-05	0	0	-nan
6.22651e-05	0	0	-nan
6.23007e-05	0	0	-nan
6.25159e-05	0	0	-nan
6.28194e-05	0	0	-nan
6.28453e-05	0	0	-nan
6.35746e-05	0	0	-nan
6.36779e-05	0	0	-nan
6.41054e-05	0	0	-nan
6.44579e-05	0	0	-nan
6.51142e-05	0	0	-nan
6.54795e-05	0	0	-nan
6.55558e-05	0	0	-nan
6.5772e-05	0	0	-nan
6.59073e-05	0	0	-nan
6.59994e-05	0	0	-nan
6.65354e-05	0	0	-nan
6.6858e-05	0	0	-nan
6.69168e-05	0	0	-nan
6.71626e-05	0	0	-nan
6.75338e-05	0	0	-nan
6.8269e-05	0	0	-nan
6.82789e-05	0	0	-nan
6.82823e-05	0	0	-nan
6.84651e-05	0	0	-nan
6.86294e-05	0	0	-nan
6.99407e-05	0	0	-nan
7.04284e-05	0	0	-nan
7.12233e-05	0	0	-nan
7.13633e-05	0	0	-nan
7.15015e-05	0	0	-nan
7.15858e-05	0	0	-nan
7.19811e-05	0	0	-nan
7.23695e-05	0	0	-nan
7.27463e-05	0	0	-nan
7.29141e-05	0	0	-nan
7.32512e-05	0	0	-nan
7.33242e-05	0	0	-nan
7.37686e-05	0	0	-nan
7.40232e-05	0	0	-nan
7.4099e-05	0	0	-nan
7.42211e-05	0	0	-nan
7.42615e-05	0	0	-nan
7.48858e-05	0	0	-nan
7.50136e-05	0	0	-nan
7.53717e-05	0	0	-nan
7.59805e-05	0	0	-nan
7.68895e-05	0	0	-nan
7.71824e-05	0	0	-nan
7.79921e-05	0	0	-nan
7.82275e-05	0	0	-nan
7.83432e-05	0	0	-nan
7.84418e-05	0	0	-nan
7.84975e-05	0	0	-nan
7.85148e-05	0	0	-nan
7.86468e-05	0	0	-nan
7.88096e-05	0	0	-nan
7.91514e-05	0	0	-nan
7.93069e-05	0	0	-nan
7.94667e-05	0	0	-nan
8.00053e-05	0	0	-nan
8.01895e-05	0	0	-nan
8.06967e-05	0	0	-nan
8.13856e-05	0	0	-nan
8.14645e-05	0	0	-nan
8.1864e-05	0	0	-nan
8.21225e-05	0	0	-nan
8.31867e-05	0	0	-nan
8.40885e-05	0	0	-nan
8.45548e-05	0	0	-nan
8.48946e-05	0	0	-nan
8.48957e-05	0	0	-nan
8.49326e-05	0	0	-nan
8.51855e-05	0	0	-nan
8.51943e-05	0	0	-nan
8.52817e-05	0	0	-nan
8.55971e-05	0	0	-nan
8.56678e-05	0	0	-nan
8.60665e-05	0	0	-nan
8.6376e-05	0	0	-nan
8.65387e-05	0	0	-nan
8.69284e-05	0	0	-nan
8.70214e-05	0	0	-nan
8.73664e-05	0	0	-nan
8.81492e-05	0	0	-nan
8.85951e-05	0	0	-nan
8.86063e-05	0	0	-nan
8.90137e-05	0	0	-nan
8.91074e-05	0	0	-nan
9.03052e-05	0	0	-nan
9.03279e-05	0	0	-nan
9.03594e-05	0	0	-nan
9.03745e-05	0	0	-nan
9.04077e-05	0	0	-nan
9.08604e-05	0	0	-nan
9.09486e-05	0	0	-nan
9.27393e-05	0	0	-nan
9.30631e-05	0	0	-nan
9.3685e-05	0	0	-nan
9.4543e-05	0	0	-nan
9.45501e-05	0	0	-nan
9.46997e-05	0	0	-nan
9.58668e-05	0	0	-nan
9.60015e-05	0	0	-nan
9.62596e-05	0	0	-nan
9.65606e-05	0	0	-nan
9.70454e-05	0	0	-nan
9.72866e-05	0	0	-nan
9.74695e-05	0	0	-nan
9.77068e-05	0	0	-nan
9.81792e-05	0	0	-nan
9.92227e-05	0	0	-nan
9.92247e-05	0	0	-nan
0.000100777	0	0	-nan
0.000100878	0	0	-nan
0.000100907	0	0	-nan
0.000101879	0	0	-nan
0.000102547	0	0	-nan
0.000103055	0	0	-nan
0.000104168	0	0	-nan
0.000104865	0	0	-nan
0.000104928	0	0	-nan
0.000105627	0	0	-nan
0.000106289	0	0	-nan
0.000107252	0	0	-nan
0.000107691	0	0	-nan
0.000107897	0	0	-nan
0.000107969	0	0	-nan
0.000108696	0	0	-nan
0.000108867	0	0	-nan
0.000109614	0	0	-nan
0.000109812	0	0	-nan
0.000110726	0	0	-nan
0.000110944	0	0	-nan
0.000112932	0	0	-nan
0.000114336	0	0	-nan
0.000114899	0	0	-nan
0.000115125	0	0	-nan
0.00011612	0	0	-nan
0.000117321	0	0	-nan
0.000117732	0	0	-nan
0.000118105	0	0	-nan
0.000121316	0	0	-nan
0.000122303	0	0	-nan
0.000122674	0	0	-nan
0.000123461	0	0	-nan
0.000124101	0	0	-nan
0.000124237	0	0	-nan
0.000125146	0	0	-nan
0.000125413	0	0	-nan
0.000129996	0	0	-nan
0.000129997	0	0	-nan
0.000132551	0	0	-nan
0.000133952	0	0	-nan
0.000133961	0	0	-nan
0.000134888	0	0	-nan
0.000135669	0	0	-nan
0.000136063	0	0	-nan
0.000137643	0	0	-nan
0.0001377	0	0	-nan
0.000138176	0	0	-nan
0.000138656	0	0	-nan
0.00013967	0	0	-nan
0.00014003	0	0	-nan
0.000141387	0	0	-nan
0.000142402	0	0	-nan
0.000147672	0	0	-nan
0.000147988	0	0	-nan
0.00014812	0	0	-nan
0.000148867	0	0	-nan
0.000151477	0	0	-nan
0.000151613	0	0	-nan
0.000154786	0	0	-nan
0.000155733	0	0	-nan
0.000156906	0	0	-nan
0.000157375	0	0	-nan
0.000157976	0	0	-nan
0.000158272	0	0	-nan
0.000159097	0	0	-nan
0.000159301	0	0	-nan
0.000160568	0	0	-nan
0.000163899	0	0	-nan
0.000164706	0	0	-nan
0.000165388	0	0	-nan
0.000165902	0	0	-nan
0.000165913	0	0	-nan
0.000170009	0	0	-nan
0.000174615	0	0	-nan
0.000177061	0	0	-nan
0.000181691	0	0	-nan
0.000186707	0	0	-nan
0.000189301	0	0	-nan
0.000193886	0	0	-nan
0.000195414	0	0	-nan
0.000195424	0	0	-nan
0.000195625	0	0	-nan
0.000201716	0	0	-nan
0.000207172	0	0	-nan
0.000210387	0	0	-nan
0.000213002	0	0	-nan
0.000218647	0	0	-nan
0.000219087	0	0	-nan
0.000227324	0	0	-nan
0.000230496	0	0	-nan
0.000237916	0	0	-nan
0.000245998	0	0	-nan
0.000252432	0	0	-nan
0.000273137	0	0	-nan
0.000296652	0	0	-nan
0.000311444	0	0	-nan
0.000318542	0	0	-nan
0.000332974	0	0	-nan
0.000333529	0	0	-nan
0.000337001	0	0	-nan
0.000342142	0	0	-nan
0.000355417	0	0	-nan
0.000363524	0	0	-nan
0.000374992	0	0	-nan
0.000379421	0	0	-nan
0.000386637	0	0	-nan
0.000392886	0	0	-nan
0.000401067	0	0	-nan
0.000418026	0	0	-nan
0.000431269	0	0	-nan
0.000442024	0	0	-nan
0.000447362	0	0	-nan
0.000471981	0	0	-nan
0.000478615	0	0	-nan
0.000480502	0	0	-nan
0.000521843	0	0	-nan
0.000548568	0	0	-nan
0.00054905	0	0	-nan
0.000556889	0	0	-nan
0.00057883	0	0	-nan
0.000605183	0	0	-nan
0.000608978	0	0	-nan
0.000612863	0	0	-nan
0.00067099	0	0	-nan
0.000746298	0	0	-nan
0.000775985	0	0	-nan
0.000789217	0	0	-nan
0.000792091	0	0	-nan
0.000809789	0	0	-nan
0.000817778	0	0	-nan
0.000822546	0	0	-nan
0.0009855	0	0	-nan
0.00100622	0	0	-nan
0.00104161	0	0	-nan
0.00117609	0	0	-nan
0.00120219	0	0	-nan
0.00121778	0	0	-nan
0.00147716	0	0	-nan
0.00148117	0	0	-nan
0.00149211	0	0	-nan
0.0015368	0	0	-nan
0.0015971	0	0	-nan
0.00163773	0	0	-nan
0.00189475	0	0	-nan
0.00190811	0	0	-nan
0.00226702	0	0	-nan
0.00244688	0	0	-nan
0.00251563	0	0	-nan
0.0025232	0	0	-nan
0.0026059	0	0	-nan
0.00261769	0	0	-nan
0.00274464	0	0	-nan
0.00285835	0	0	-nan
0.00291561	0	0	-nan
0.00301122	0	0	-nan
0.00356855	0	0	-nan
0.00412416	0	0	-nan
