3.7599e-09	0	0	0
4.37751e-09	0	0	0
5.42578e-09	0	0	0
8.34233e-09	0	0	0
8.64599e-09	0	0	0
9.68165e-09	0	0	0
1.02491e-08	0	0	0
1.45008e-08	0	0	0
1.59391e-08	0	0	0
1.70618e-08	0	0	0
1.74921e-08	0	0	0
3.16222e-08	0	0	0
3.27089e-08	0	0	0
3.59456e-08	0	0	0
3.86011e-08	0	0	0
3.93829e-08	0	0	0
4.73373e-08	0	0	0
4.84721e-08	0	0	0
5.06574e-08	0	0	0
5.25633e-08	0	0	0
5.35949e-08	0	0	0
5.40847e-08	0	0	0
6.59305e-08	0	0	0
7.01937e-08	0	0	0
7.78095e-08	0	0	0
9.05095e-08	0	0	0
9.20892e-08	0	0	0
9.96378e-08	0	0	0
1.00456e-07	0	0	0
1.33094e-07	0	0	0
1.65048e-07	0	0	0
2.32199e-07	0	0	0
3.65036e-07	0	0	0
5.09194e-07	0	0	0
6.31695e-07	0	0	0
1.36185e-06	0	0	0
1.49544e-06	0	0	0
1.71028e-06	0	0	0
1.8282e-06	0	0	0
5.69201e-06	0	0	0
7.54222e-06	0	0	0
9.94436e-06	0	0	0
1.41659e-05	0	0	0
1.6336e-05	0	0	0
0.000181213	0	0	0
