2.16937e-09	0	0	0
3.70533e-09	0	0	0
4.73641e-09	0	0	0
5.16906e-09	0	0	0
6.50666e-09	0	0	0
8.71733e-09	0	0	0
9.25177e-09	0	0	0
1.08435e-08	0	0	0
1.67609e-08	0	0	0
1.79867e-08	0	0	0
1.8572e-08	0	0	0
2.08928e-08	0	0	0
2.11033e-08	0	0	0
2.16457e-08	0	0	0
2.58268e-08	0	0	0
2.86179e-08	0	0	0
4.27031e-08	0	0	0
4.39698e-08	0	0	0
4.78046e-08	0	0	0
4.80046e-08	0	0	0
4.8273e-08	0	0	0
7.40597e-08	0	0	0
7.45062e-08	0	0	0
7.9722e-08	0	0	0
8.14037e-08	0	0	0
9.84319e-08	0	0	0
2.23846e-07	0	0	0
2.5231e-07	0	0	0
3.06216e-07	0	0	0
3.10468e-07	0	0	0
4.60111e-07	0	0	0
5.86767e-07	0	0	0
6.09392e-07	0	0	0
6.27719e-07	0	0	0
7.57913e-07	0	0	0
1.10402e-06	0	0	0
1.6112e-06	0	0	0
2.93852e-06	0	0	0
3.49166e-06	0	0	0
3.52988e-06	0	0	0
5.71092e-06	0	0	0
5.86577e-06	0	0	0
6.34298e-06	0	0	0
6.49985e-06	0	0	0
1.05297e-05	0	0	0
1.4944e-05	0	0	0
