2.00471e-09	0	0	0
2.45204e-09	0	0	0
3.77199e-09	0	0	0
3.94538e-09	0	0	0
5.68446e-09	0	0	0
5.74693e-09	0	0	0
5.86537e-09	0	0	0
6.60217e-09	0	0	0
8.99484e-09	0	0	0
1.38749e-08	0	0	0
1.49536e-08	0	0	0
2.244e-08	0	0	0
2.2647e-08	0	0	0
2.58536e-08	0	0	0
2.63856e-08	0	0	0
2.71239e-08	0	0	0
2.75543e-08	0	0	0
2.80111e-08	0	0	0
2.83007e-08	0	0	0
3.25483e-08	0	0	0
3.67638e-08	0	0	0
4.51379e-08	0	0	0
4.7161e-08	0	0	0
5.25633e-08	0	0	0
5.64236e-08	0	0	0
5.6923e-08	0	0	0
5.71967e-08	0	0	0
1.86782e-07	0	0	0
3.3721e-07	0	0	0
3.82783e-07	0	0	0
5.1165e-07	0	0	0
8.83479e-07	0	0	0
9.14181e-07	0	0	0
9.19071e-07	0	0	0
1.91869e-06	0	0	0
2.45249e-06	0	0	0
2.59157e-06	0	0	0
2.77224e-06	0	0	0
3.22355e-06	0	0	0
3.25376e-06	0	0	0
4.38841e-06	0	0	0
7.43584e-06	0	0	0
8.34881e-06	0	0	0
1.02891e-05	0	0	0
