5.06594e-11	0	0	0
8.71081e-11	0	0	0
1.19352e-09	0	0	0
2.99088e-09	0	0	0
4.79398e-09	0	0	0
7.02665e-09	0	0	0
7.09718e-09	0	0	0
9.20403e-09	0	0	0
1.03767e-08	0	0	0
1.34755e-08	0	0	0
1.42153e-08	0	0	0
1.44993e-08	0	0	0
1.75167e-08	0	0	0
1.81602e-08	0	0	0
1.82937e-08	0	0	0
1.87163e-08	0	0	0
1.98636e-08	0	0	0
2.15659e-08	0	0	0
2.16808e-08	0	0	0
2.79841e-08	0	0	0
2.96099e-08	0	0	0
4.65662e-08	0	0	0
5.06423e-08	0	0	0
5.36865e-08	0	0	0
7.59075e-08	0	0	0
1.1187e-07	0	0	0
1.47283e-07	0	0	0
1.5437e-07	0	0	0
2.2455e-07	0	0	0
2.79481e-07	0	0	0
3.63424e-07	0	0	0
7.16066e-07	0	0	0
7.23313e-07	0	0	0
8.07209e-07	0	0	0
8.52751e-07	0	0	0
9.12296e-07	0	0	0
1.45752e-06	0	0	0
2.31323e-06	0	0	0
2.4427e-06	0	0	0
2.77318e-06	0	0	0
2.92475e-06	0	0	0
3.07724e-06	0	0	0
3.84081e-06	0	0	0
3.85163e-06	0	0	0
4.01998e-06	0	0	0
4.42467e-06	0	0	0
4.55971e-06	0	0	0
5.27237e-06	0	0	0
