1.11941e-09	0	0	0
1.48194e-09	0	0	0
2.20985e-09	0	0	0
2.21498e-09	0	0	0
2.6872e-09	0	0	0
2.75661e-09	0	0	0
2.90946e-09	0	0	0
4.38105e-09	0	0	0
9.61133e-09	0	0	0
9.65855e-09	0	0	0
1.06791e-08	0	0	0
1.15185e-08	0	0	0
1.37904e-08	0	0	0
1.44053e-08	0	0	0
2.49178e-08	0	0	0
2.75413e-08	0	0	0
3.45635e-08	0	0	0
3.51308e-08	0	0	0
3.51814e-08	0	0	0
3.86339e-08	0	0	0
4.10973e-08	0	0	0
4.16841e-08	0	0	0
4.2994e-08	0	0	0
5.96401e-08	0	0	0
8.24213e-08	0	0	0
8.75088e-08	0	0	0
1.22198e-07	0	0	0
2.31725e-07	0	0	0
5.01553e-07	0	0	0
5.03948e-07	0	0	0
6.37532e-07	0	0	0
7.21687e-07	0	0	0
7.7478e-07	0	0	0
1.0266e-06	0	0	0
1.19504e-06	0	0	0
1.25504e-06	0	0	0
1.28148e-06	0	0	0
1.46297e-06	0	0	0
1.49044e-06	0	0	0
2.43166e-06	0	0	0
2.99848e-06	0	0	0
3.00108e-06	0	0	0
3.21024e-06	0	0	0
3.47241e-06	0	0	0
4.26259e-06	0	0	0
7.56608e-06	0	0	0
