7.32226e-10	0	0	0
2.08649e-09	0	0	0
3.29991e-09	0	0	0
4.6659e-09	0	0	0
5.22898e-09	0	0	0
7.66626e-09	0	0	0
1.25487e-08	0	0	0
1.27131e-08	0	0	0
1.50335e-08	0	0	0
1.70334e-08	0	0	0
2.07494e-08	0	0	0
2.26436e-08	0	0	0
2.34684e-08	0	0	0
2.92009e-08	0	0	0
3.27514e-08	0	0	0
3.38543e-08	0	0	0
3.86211e-08	0	0	0
4.07659e-08	0	0	0
4.08788e-08	0	0	0
4.80186e-08	0	0	0
5.26742e-08	0	0	0
5.64733e-08	0	0	0
6.13112e-08	0	0	0
6.48658e-08	0	0	0
6.74033e-08	0	0	0
7.13029e-08	0	0	0
8.18001e-08	0	0	0
1.0854e-07	0	0	0
1.32713e-07	0	0	0
3.22682e-07	0	0	0
3.53049e-07	0	0	0
6.06979e-07	0	0	0
9.23968e-07	0	0	0
9.45655e-07	0	0	0
1.09969e-06	0	0	0
1.22744e-06	0	0	0
1.25075e-06	0	0	0
1.72168e-06	0	0	0
1.87065e-06	0	0	0
1.89497e-06	0	0	0
2.04605e-06	0	0	0
2.12431e-06	0	0	0
2.34538e-06	0	0	0
2.39055e-06	0	0	0
2.39367e-06	0	0	0
5.74392e-06	0	0	0
1.51106e-05	0	0	0
2.40549e-05	0	0	0
7.27641e-05	0	0	0
7.81055e-05	0	0	0
0.00019467	0	0	0
