1.57914e-09	0	0	0
2.59477e-09	0	0	0
2.62984e-09	0	0	0
5.63074e-09	0	0	0
5.69123e-09	0	0	0
6.82793e-09	0	0	0
7.26531e-09	0	0	0
8.52494e-09	0	0	0
8.58203e-09	0	0	0
1.30424e-08	0	0	0
1.49439e-08	0	0	0
1.62171e-08	0	0	0
1.78062e-08	0	0	0
2.80468e-08	0	0	0
2.87671e-08	0	0	0
3.05756e-08	0	0	0
3.20571e-08	0	0	0
3.33394e-08	0	0	0
3.86727e-08	0	0	0
4.00419e-08	0	0	0
4.03907e-08	0	0	0
4.77691e-08	0	0	0
5.13616e-08	0	0	0
6.13106e-08	0	0	0
6.54834e-08	0	0	0
1.15337e-07	0	0	0
1.48715e-07	0	0	0
1.8486e-07	0	0	0
1.96757e-07	0	0	0
2.85324e-07	0	0	0
3.88394e-07	0	0	0
4.10737e-07	0	0	0
4.2509e-07	0	0	0
5.41392e-07	0	0	0
5.61611e-07	0	0	0
6.81429e-07	0	0	0
7.97696e-07	0	0	0
1.56032e-06	0	0	0
1.74223e-06	0	0	0
1.81786e-06	0	0	0
2.08968e-06	0	0	0
2.11467e-06	0	0	0
2.31231e-06	0	0	0
2.9233e-06	0	0	0
3.31696e-06	0	0	0
6.91406e-06	0	0	0
2.58316e-05	0	0	0
4.61783e-05	0	0	0
0.000197319	0	0	0
0.00032207	0	0	0
