1.76241e-09	0	0	0
2.94961e-09	0	0	0
1.34057e-08	0	0	0
1.61487e-08	0	0	0
1.94974e-08	0	0	0
2.28367e-08	0	0	0
2.60779e-08	0	0	0
3.46706e-08	0	0	0
4.67664e-08	0	0	0
5.25026e-08	0	0	0
6.76034e-08	0	0	0
6.81189e-08	0	0	0
7.28279e-08	0	0	0
7.55186e-08	0	0	0
8.16144e-08	0	0	0
8.31493e-08	0	0	0
9.74485e-08	0	0	0
1.08248e-07	0	0	0
1.17393e-07	0	0	0
1.23192e-07	0	0	0
1.58148e-07	0	0	0
1.92217e-07	0	0	0
1.94162e-07	0	0	0
2.43153e-07	0	0	0
3.52439e-07	0	0	0
3.66788e-07	0	0	0
3.68637e-07	0	0	0
8.29803e-07	0	0	0
9.00617e-07	0	0	0
9.23656e-07	0	0	0
9.25484e-07	0	0	0
1.11493e-06	0	0	0
1.11904e-06	0	0	0
1.13818e-06	0	0	0
1.2055e-06	0	0	0
1.32366e-06	0	0	0
1.3866e-06	0	0	0
1.41143e-06	0	0	0
1.4555e-06	0	0	0
1.60147e-06	0	0	0
1.60835e-06	0	0	0
1.6489e-06	0	0	0
1.8449e-06	0	0	0
1.9623e-06	0	0	0
1.96728e-06	0	0	0
2.25632e-06	0	0	0
2.30526e-06	0	0	0
2.4611e-06	0	0	0
2.53364e-06	0	0	0
2.6051e-06	0	0	0
2.90819e-06	0	0	0
2.91405e-06	0	0	0
3.85079e-06	0	0	0
3.89907e-06	0	0	0
3.99264e-06	0	0	0
4.03043e-06	0	0	0
4.063e-06	0	0	0
4.29971e-06	0	0	0
4.3026e-06	0	0	0
4.77508e-06	0	0	0
4.87879e-06	0	0	0
4.9229e-06	0	0	0
5.08943e-06	0	0	0
5.65056e-06	0	0	0
5.73245e-06	0	0	0
6.54039e-06	0	0	0
8.28677e-06	0	0	0
8.45492e-06	0	0	0
1.01579e-05	0	0	0
1.02222e-05	0	0	0
1.02975e-05	0	0	0
1.04486e-05	0	0	0
1.06625e-05	0	0	0
1.07074e-05	0	0	0
1.77652e-05	0	0	0
1.88428e-05	0	0	0
2.19453e-05	0	0	0
2.26131e-05	0	0	0
2.60367e-05	0	0	0
3.07264e-05	0	0	0
3.70285e-05	0	0	0
4.10974e-05	0	0	0
4.9126e-05	0	0	0
8.81757e-05	0	0	0
0.000168191	0	0	0
0.000286836	0	0	0
0.00049466	0	0	0
