4.13327e-09	0	0	0
1.82066e-08	0	0	0
3.20652e-08	0	0	0
4.00675e-08	0	0	0
4.66546e-08	0	0	0
4.9263e-08	0	0	0
4.94735e-08	0	0	0
5.61392e-08	0	0	0
7.75857e-08	0	0	0
8.23422e-08	0	0	0
8.24039e-08	0	0	0
9.43627e-08	0	0	0
1.11843e-07	0	0	0
1.15346e-07	0	0	0
1.4887e-07	0	0	0
2.44867e-07	0	0	0
2.6917e-07	0	0	0
2.78681e-07	0	0	0
2.8031e-07	0	0	0
3.04395e-07	0	0	0
3.66422e-07	0	0	0
3.90161e-07	0	0	0
4.44518e-07	0	0	0
4.77283e-07	0	0	0
5.81325e-07	0	0	0
6.15287e-07	0	0	0
6.95306e-07	0	0	0
7.19194e-07	0	0	0
8.84389e-07	0	0	0
1.17876e-06	0	0	0
1.69387e-06	0	0	0
2.03746e-06	0	0	0
2.31932e-06	0	0	0
3.43197e-06	0	0	0
3.5881e-06	0	0	0
3.82902e-06	0	0	0
7.499e-06	0	0	0
7.80254e-06	0	0	0
1.03073e-05	0	0	0
5.96994e-05	0	0	0
0.000165044	0	0	0
