1.47845e-08	0	0	0
1.94195e-08	0	0	0
1.98974e-08	0	0	0
2.75215e-08	0	0	0
3.10399e-08	0	0	0
3.78557e-08	0	0	0
3.78878e-08	0	0	0
4.88126e-08	0	0	0
6.0827e-08	0	0	0
6.55029e-08	0	0	0
7.70849e-08	0	0	0
8.15271e-08	0	0	0
8.38367e-08	0	0	0
9.05697e-08	0	0	0
1.53663e-07	0	0	0
1.73459e-07	0	0	0
1.81843e-07	0	0	0
1.9977e-07	0	0	0
2.41351e-07	0	0	0
2.52398e-07	0	0	0
2.75146e-07	0	0	0
2.91503e-07	0	0	0
3.21943e-07	0	0	0
3.28564e-07	0	0	0
3.32574e-07	0	0	0
3.94711e-07	0	0	0
6.82456e-07	0	0	0
8.60774e-07	0	0	0
1.02695e-06	0	0	0
1.73604e-06	0	0	0
4.81564e-06	0	0	0
9.1552e-06	0	0	0
1.12361e-05	0	0	0
1.755e-05	0	0	0
