6.23525e-09	0	0	0
1.03705e-08	0	0	0
1.27415e-08	0	0	0
1.59353e-08	0	0	0
2.88562e-08	0	0	0
3.04502e-08	0	0	0
5.31095e-08	0	0	0
5.32791e-08	0	0	0
5.97744e-08	0	0	0
6.81866e-08	0	0	0
7.64019e-08	0	0	0
1.02969e-07	0	0	0
1.04278e-07	0	0	0
1.21785e-07	0	0	0
1.27663e-07	0	0	0
1.36523e-07	0	0	0
1.5911e-07	0	0	0
2.16444e-07	0	0	0
2.37376e-07	0	0	0
2.83818e-07	0	0	0
3.14594e-07	0	0	0
3.66949e-07	0	0	0
4.35122e-07	0	0	0
5.35897e-07	0	0	0
5.52547e-07	0	0	0
7.30974e-07	0	0	0
7.3424e-07	0	0	0
8.41563e-07	0	0	0
1.22951e-06	0	0	0
1.56986e-06	0	0	0
1.00947e-05	0	0	0
1.38369e-05	0	0	0
4.11395e-05	0	0	0
7.5831e-05	0	0	0
