6.34213e-09	0	0	0
1.10451e-08	0	0	0
1.32245e-08	0	0	0
2.23247e-08	0	0	0
3.01913e-08	0	0	0
3.91157e-08	0	0	0
4.15165e-08	0	0	0
4.30127e-08	0	0	0
4.67282e-08	0	0	0
5.40744e-08	0	0	0
5.42058e-08	0	0	0
6.23421e-08	0	0	0
8.63711e-08	0	0	0
1.06768e-07	0	0	0
1.12803e-07	0	0	0
1.4484e-07	0	0	0
1.67893e-07	0	0	0
1.91983e-07	0	0	0
2.11344e-07	0	0	0
2.36958e-07	0	0	0
3.76163e-07	0	0	0
4.62593e-07	0	0	0
5.01165e-07	0	0	0
7.04457e-07	0	0	0
7.25863e-07	0	0	0
1.01878e-06	0	0	0
1.03064e-06	0	0	0
1.35068e-06	0	0	0
1.5237e-06	0	0	0
3.004e-05	0	0	0
5.50531e-05	0	0	0
5.43907	0	0	0
5.43926	0	0	0
5.44049	0	0.0276396	0
5.44122	0	0.0552792	0
5.44141	0	0.0829187	0
5.44143	0	0.110558	0
5.44311	0	0.138198	0
5.44318	0	0.165837	0
5.4447	0	0.193477	0
5.4454	0	0.221117	0
5.44542	0	0.248756	0
5.44546	0	0.276396	0
5.44569	0	0.304035	0
5.44569	0	0.331675	0
5.44739	0	0.359315	0
5.4485	0	0.386954	0
5.45066	0	0.414594	0
5.45167	0	0.442233	0
5.45186	0	0.469873	0
5.45228	0	0.497512	0
5.45252	0	0.525152	0
5.45272	0	0.552792	0
5.45278	0	0.580431	0
5.4531	0	0.608071	0
5.45348	0	0.63571	0
5.45383	0	0.66335	0
5.45384	0	0.690989	0
5.45471	0	0.718629	0
5.45484	0	0.746269	0
5.45519	0	0.773908	0
5.456	0	0.801548	0
5.45603	0	0.829187	0
5.45651	0	0.856827	0
5.45756	0	0.884467	0
25.503	0	0.912106	0
25.5047	0	0.912106	0
25.5052	0	0.939746	0
25.506	0	0.967385	0
25.5072	0	0.995025	0
25.508	0	1.02266	0
25.5082	0	1.0503	0
25.5086	0	1.07794	0
25.5086	0	1.10558	0
25.509	0	1.13322	0
25.5096	0	1.16086	0
25.51	0	1.1885	0
25.51	0	1.21614	0
25.51	0	1.24378	0
25.5107	0	1.27142	0
25.5109	0	1.29906	0
25.5111	0	1.3267	0
25.5113	0	1.35434	0
25.5115	0	1.38198	0
25.5122	0	1.40962	0
25.5127	0	1.43726	0
25.513	0	1.4649	0
25.5132	0	1.49254	0
25.5136	0	1.52018	0
25.5137	0	1.54782	0
25.5138	0	1.57546	0
25.5142	0	1.6031	0
25.5146	0	1.63074	0
25.5158	0	1.65837	0
25.5166	0	1.68601	0
25.5168	0	1.71365	0
25.517	0	1.74129	0
25.5174	0	1.76893	0
25.5181	0	1.79657	0
25.5184	0	1.82421	0
25.5186	0	1.85185	0
25.5199	0	1.87949	0
25.5202	0	1.90713	0
25.5202	0	1.93477	0
25.5203	0	1.96241	0
25.5206	0	1.99005	0
25.5208	0	2.01769	0
25.5209	0	2.04533	0
25.521	0	2.07297	0
25.522	0	2.10061	0
25.5222	0	2.12825	0
25.5225	0	2.15589	0
25.5226	0	2.18353	0
25.5228	0	2.21117	0
25.5244	0	2.23881	0
27.2592	0	2.29409	0
27.2593	0	2.29409	0
27.2598	0	2.32172	0
27.2599	0	2.34936	0
27.2601	0	2.377	0
27.2605	0	2.40464	0
27.2605	0	2.43228	0
27.2609	0	2.45992	0
27.2614	0	2.48756	0
27.2615	0	2.5152	0
27.2616	0	2.54284	0
27.2619	0	2.57048	0
27.2621	0	2.59812	0
27.2621	0	2.62576	0
27.2622	0	2.6534	0
27.2624	0	2.68104	0
27.2625	0	2.70868	0
27.263	0	2.73632	0
27.2636	0	2.76396	0
27.2647	0	2.7916	0
27.266	0	2.81924	0
27.268	0	2.84688	0
27.2682	0	2.87452	0
27.2688	0	2.90216	0
27.27	0	2.9298	0
27.2701	0	2.95744	0
27.2704	0	2.98507	0
27.2705	0	3.01271	0
27.2714	0	3.04035	0
27.2717	0	3.06799	0
27.2725	0	3.09563	0
27.2726	0	3.12327	0
27.2734	0	3.15091	0
27.2735	0	3.17855	0
27.2742	0	3.20619	0
27.2744	0	3.23383	0
27.2747	0	3.26147	0
27.2756	0	3.28911	0
27.2761	0	3.31675	0
27.2762	0	3.34439	0
27.2766	0	3.37203	0
27.2769	0	3.39967	0
27.2771	0	3.42731	0
27.2776	0	3.45495	0
27.2785	0	3.48259	0
27.2789	0	3.51023	0
27.2802	0	3.53787	0
27.2804	0	3.56551	0
27.2805	0	3.59315	0
27.2808	0	3.62078	0
27.2816	0	3.64842	0
27.282	0	3.67606	0
27.2825	0	3.7037	0
27.283	0	3.73134	0
27.2838	0	3.75898	0
27.2857	0	3.78662	0
30.6973	0	3.81426	0
30.6975	0	3.81426	0
30.6985	0	3.8419	0
30.6989	0	3.86954	0
30.699	0	3.89718	0
30.6991	0	3.92482	0
30.6996	0	3.95246	0
30.7	0	3.9801	0
30.7017	0	4.00774	0
30.7022	0	4.03538	0
30.7026	0	4.06302	0
30.7051	0	4.09066	0
30.7054	0	4.1183	0
30.7059	0	4.14594	0
30.7064	0	4.17358	0
30.7068	0	4.20122	0
30.7076	0	4.22886	0
30.7077	0	4.2565	0
30.708	0	4.28413	0
30.7082	0	4.31177	0
30.7087	0	4.33941	0
30.71	0	4.36705	0
30.7101	0	4.39469	0
30.711	0	4.42233	0
30.7114	0	4.44997	0
30.7122	0	4.47761	0
30.7132	0	4.50525	0
30.7136	0	4.53289	0
30.7142	0	4.56053	0
30.7145	0	4.58817	0
30.7153	0	4.61581	0
30.7157	0	4.64345	0
30.7162	0	4.67109	0
30.7169	0	4.69873	0
32.5213	0	4.72637	0
32.5234	0	4.72637	0
32.5244	0	4.75401	0
32.5253	0	4.78165	0
32.5254	0	4.80929	0
32.5259	0	4.83693	0
32.526	0	4.86457	0
32.526	0	4.89221	0
32.5265	0	4.91985	0
32.527	0	4.94748	0
32.5271	0	4.97512	0
32.5278	0	5.00276	0
32.5287	0	5.0304	0
32.5297	0	5.05804	0
32.5297	0	5.08568	0
32.5299	0	5.11332	0
32.5312	0	5.14096	0
32.5316	0	5.1686	0
32.5318	0	5.19624	0
32.5323	0	5.22388	0
32.5327	0	5.25152	0
32.5331	0	5.27916	0
32.5331	0	5.3068	0
32.5341	0	5.33444	0
32.5345	0	5.36208	0
32.5357	0	5.38972	0
32.5362	0	5.41736	0
32.5363	0	5.445	0
32.5366	0	5.47264	0
32.5378	0	5.50028	0
32.5384	0	5.52792	0
32.539	0	5.55556	0
32.5391	0	5.5832	0
32.5392	0	5.61083	0
32.5396	0	5.63847	0
32.5402	0	5.66611	0
32.541	0	5.69375	0
32.5412	0	5.72139	0
32.5413	0	5.74903	0
32.5419	0	5.77667	0
32.5421	0	5.80431	0
32.5444	0	5.83195	0
32.5449	0	5.85959	0
32.5455	0	5.88723	0
32.5477	0	5.91487	0
32.5479	0	5.94251	0
32.5486	0	5.97015	0
37.9215	0	5.99779	0
37.9218	0	5.99779	0
37.9221	0	6.02543	0
37.9226	0	6.05307	0
37.9232	0	6.08071	0
37.924	0	6.10835	0
37.9243	0	6.13599	0
37.9244	0	6.16363	0
47.1459	0.0138198	6.19127	0
47.1471	0.0138198	6.19127	0
47.1473	0.0138198	6.21891	0
47.1478	0.0138198	6.24655	0
47.1486	0.0138198	6.27418	0
47.1487	0.0138198	6.30182	0
47.1488	0.0138198	6.32946	0
47.1498	0.0138198	6.3571	0
47.1499	0.0138198	6.38474	0
47.15	0.0138198	6.41238	0
47.1502	0.0138198	6.44002	0
47.1511	0.0138198	6.46766	0
47.1512	0.0138198	6.4953	0
47.1519	0.0138198	6.52294	0
47.1526	0.0138198	6.55058	0
47.1529	0.0138198	6.57822	0
47.1531	0.0138198	6.60586	0
47.1537	0.0138198	6.6335	0
47.1558	0.0138198	6.66114	0
47.1558	0.0138198	6.68878	0
47.1562	0.0138198	6.71642	0
47.1568	0.0138198	6.74406	0
47.1572	0.0138198	6.7717	0
47.1573	0.0138198	6.79934	0
47.1573	0.0138198	6.82698	0
47.1585	0.0138198	6.85462	0
47.1587	0.0138198	6.88226	0
47.1588	0.0138198	6.90989	0
47.1595	0.0138198	6.93753	0
47.1598	0.0138198	6.96517	0
47.16	0.0138198	6.99281	0
47.1604	0.0138198	7.02045	0
47.1608	0.0138198	7.04809	0
47.1612	0.0138198	7.07573	0
47.1614	0.0138198	7.10337	0
47.1621	0.0138198	7.13101	0
47.1643	0.0138198	7.15865	0
47.1645	0.0138198	7.18629	0
47.1646	0.0138198	7.21393	0
47.1649	0.0138198	7.24157	0
47.1659	0.0138198	7.26921	0
47.1668	0.0138198	7.29685	0
47.1684	0.0138198	7.32449	0
47.1687	0.0138198	7.35213	0
47.1688	0.0138198	7.37977	0
47.1694	0.0138198	7.40741	0
47.1696	0.0138198	7.43505	0
47.1698	0.0138198	7.46269	0
47.1702	0.0138198	7.49033	0
47.1703	0.0138198	7.51797	0
47.171	0.0138198	7.54561	0
47.1711	0.0138198	7.57324	0
47.1714	0.0138198	7.60088	0
47.1716	0.0138198	7.62852	0
47.1722	0.0138198	7.65616	0
47.1727	0.0138198	7.6838	0
47.1729	0.0138198	7.71144	0
47.1732	0.0138198	7.73908	0
47.1737	0.0138198	7.76672	0
47.1741	0.0138198	7.79436	0
47.1744	0.0138198	7.822	0
47.1745	0.0138198	7.84964	0
47.1745	0.0138198	7.87728	0
47.1751	0.0138198	7.90492	0
47.1752	0.0138198	7.93256	0
47.1757	0.0138198	7.9602	0
47.1759	0.0138198	7.98784	0
47.1759	0.0138198	8.01548	0
47.1761	0.0138198	8.04312	0
47.1765	0.0138198	8.07076	0
47.1769	0.0138198	8.0984	0
47.1771	0.0138198	8.12604	0
47.1773	0.0138198	8.15368	0
47.1775	0.0138198	8.18132	0
47.178	0.0138198	8.20896	0
47.1786	0.0138198	8.23659	0
47.1789	0.0138198	8.26423	0
47.1812	0.0138198	8.29187	0
47.1817	0.0138198	8.31951	0
47.1835	0.0138198	8.34715	0
47.1836	0.0138198	8.37479	0
47.1837	0.0138198	8.40243	0
47.1839	0.0138198	8.43007	0
47.185	0.0138198	8.45771	0
47.1854	0.0138198	8.48535	0
47.1865	0.0138198	8.51299	0
47.1866	0.0138198	8.54063	0
47.1875	0.0138198	8.56827	0
58.8335	0.0138198	8.59591	0
58.8356	0.0138198	8.59591	0
58.8361	0.0138198	8.62355	0
58.8366	0.0138198	8.65119	0
58.8367	0.0138198	8.67883	0
58.8376	0.0138198	8.70647	0
58.8382	0.0138198	8.73411	0
58.8388	0.0138198	8.76175	0
58.8389	0.0138198	8.78939	0
58.8392	0.0138198	8.81703	0
58.8395	0.0138198	8.84467	0
58.8403	0.0138198	8.87231	0
58.8418	0.0138198	8.89994	0
58.8434	0.0138198	8.92758	0
58.8438	0.0138198	8.95522	0
58.8442	0.0138198	8.98286	0
58.8444	0.0138198	9.0105	0
58.8444	0.0138198	9.03814	0
58.8449	0.0138198	9.06578	0
58.845	0.0138198	9.09342	0
58.8453	0.0138198	9.12106	0
58.8454	0.0138198	9.1487	0
58.8462	0.0138198	9.17634	0
58.8468	0.0138198	9.20398	0
58.8477	0.0138198	9.23162	0
58.8477	0.0138198	9.25926	0
58.8487	0.0138198	9.2869	0
58.8489	0.0138198	9.31454	0
58.8495	0.0138198	9.34218	0
58.8507	0.0138198	9.36982	0
58.851	0.0138198	9.39746	0
58.8541	0.0138198	9.4251	0
58.8544	0.0138198	9.45274	0
58.8544	0.0138198	9.48038	0
58.8545	0.0138198	9.50802	0
58.8549	0.0138198	9.53566	0
58.8551	0.0138198	9.56329	0
58.8552	0.0138198	9.59093	0
58.8555	0.0138198	9.61857	0
58.8558	0.0138198	9.64621	0
58.8561	0.0138198	9.67385	0
58.8576	0.0138198	9.70149	0
58.8582	0.0138198	9.72913	0
58.8588	0.0138198	9.75677	0
58.8592	0.0138198	9.78441	0
58.8597	0.0138198	9.81205	0
58.86	0.0138198	9.83969	0
58.8609	0.0138198	9.86733	0
69.7795	0.0138198	9.89497	0
69.78	0.0138198	9.89497	0
69.7821	0.0138198	9.92261	0
69.7822	0.0138198	9.95025	0
69.7823	0.0138198	9.97789	0
69.7828	0.0138198	10.0055	0
69.7834	0.0138198	10.0332	0
69.7835	0.0138198	10.0608	0
69.7835	0.0138198	10.0884	0
69.7835	0.0138198	10.1161	0
69.7836	0.0138198	10.1437	0
69.7841	0.0138198	10.1714	0
69.7841	0.0138198	10.199	0
69.7843	0.0138198	10.2266	0
69.7857	0.0138198	10.2543	0
69.7861	0.0138198	10.2819	0
69.7866	0.0138198	10.3096	0
69.7871	0.0138198	10.3372	0
69.7878	0.0138198	10.3648	0
69.7878	0.0138198	10.3925	0
69.7883	0.0138198	10.4201	0
69.7886	0.0138198	10.4478	0
69.7906	0.0138198	10.4754	0
69.7907	0.0138198	10.503	0
69.7908	0.0138198	10.5307	0
69.792	0.0138198	10.5583	0
69.7923	0.0138198	10.586	0
69.793	0.0138198	10.6136	0
69.7932	0.0138198	10.6412	0
69.7935	0.0138198	10.6689	0
69.7943	0.0138198	10.6965	0
69.7945	0.0138198	10.7242	0
69.7945	0.0138198	10.7518	0
69.7953	0.0138198	10.7794	0
69.7954	0.0138198	10.8071	0
69.7969	0.0138198	10.8347	0
69.7971	0.0138198	10.8624	0
69.7971	0.0138198	10.89	0
69.7973	0.0138198	10.9176	0
69.7973	0.0138198	10.9453	0
69.7975	0.0138198	10.9729	0
69.7975	0.0138198	11.0006	0
69.7997	0.0138198	11.0282	0
69.7999	0.0138198	11.0558	0
69.7999	0.0138198	11.0835	0
69.8005	0.0138198	11.1111	0
69.801	0.0138198	11.1388	0
69.8023	0.0138198	11.1664	0
69.8029	0.0138198	11.194	0
69.8048	0.0138198	11.2217	0
69.805	0.0138198	11.2493	0
69.805	0.0138198	11.2769	0
69.8063	0.0138198	11.3046	0
69.8067	0.0138198	11.3322	0
69.8081	0.0138198	11.3599	0
69.8096	0.0138198	11.3875	0
69.8098	0.0138198	11.4151	0
69.8098	0.0138198	11.4428	0
69.81	0.0138198	11.4704	0
69.8101	0.0138198	11.4981	0
69.811	0.0138198	11.5257	0
69.8123	0.0138198	11.5533	0
69.8128	0.0138198	11.581	0
71.4646	0.0138198	11.6086	0
71.4648	0.0138198	11.6086	0
71.5433	0.0138198	11.6363	0
71.5445	0.0138198	11.6363	0
71.5464	0.0138198	11.6639	0
71.5467	0.0138198	11.6915	0
71.5471	0.0138198	11.7192	0
71.5474	0.0138198	11.7468	0
71.5478	0.0138198	11.7745	0
71.5499	0.0138198	11.8021	0
71.55	0.0138198	11.8297	0
71.5501	0.0138198	11.8574	0
71.5502	0.0138198	11.885	0
71.5507	0.0138198	11.9127	0
71.5508	0.0138198	11.9403	0
71.5516	0.0138198	11.9679	0
72.3889	0.0276396	11.9956	0
72.3898	0.0276396	11.9956	0
77.1536	0.0276396	12.0232	0
77.1545	0.0276396	12.0232	0
77.1548	0.0276396	12.0509	0
77.1558	0.0276396	12.0785	0
77.1558	0.0276396	12.1061	0
77.1559	0.0276396	12.1338	0
77.1564	0.0276396	12.1614	0
77.1567	0.0276396	12.1891	0
77.1579	0.0276396	12.2167	0
77.1581	0.0276396	12.2443	0
77.1582	0.0276396	12.272	0
77.1595	0.0276396	12.2996	0
77.1598	0.0276396	12.3273	0
77.1598	0.0276396	12.3549	0
77.1609	0.0276396	12.3825	0
77.1609	0.0276396	12.4102	0
77.1617	0.0276396	12.4378	0
77.1619	0.0276396	12.4655	0
77.1621	0.0276396	12.4931	0
77.1627	0.0276396	12.5207	0
77.164	0.0276396	12.5484	0
77.1643	0.0276396	12.576	0
77.1645	0.0276396	12.6036	0
77.1648	0.0276396	12.6313	0
77.1649	0.0276396	12.6589	0
77.1654	0.0276396	12.6866	0
77.1655	0.0276396	12.7142	0
77.1662	0.0276396	12.7418	0
77.1665	0.0276396	12.7695	0
77.1669	0.0276396	12.7971	0
77.1674	0.0276396	12.8248	0
77.1681	0.0276396	12.8524	0
77.1683	0.0276396	12.88	0
77.1685	0.0276396	12.9077	0
77.1693	0.0276396	12.9353	0
77.1696	0.0276396	12.963	0
77.1708	0.0276396	12.9906	0
77.1722	0.0276396	13.0182	0
77.1722	0.0276396	13.0459	0
82.777	0.0276396	13.1012	0
82.7774	0.0276396	13.1012	0
82.7776	0.0276396	13.1288	0
82.7783	0.0276396	13.1564	0
82.7789	0.0276396	13.1841	0
82.7791	0.0276396	13.2117	0
82.7795	0.0276396	13.2394	0
82.7798	0.0276396	13.267	0
82.7798	0.0276396	13.2946	0
82.78	0.0276396	13.3223	0
82.7801	0.0276396	13.3499	0
82.7804	0.0276396	13.3776	0
82.7806	0.0276396	13.4052	0
82.7807	0.0276396	13.4328	0
82.7818	0.0276396	13.4605	0
82.7839	0.0276396	13.4881	0
82.7841	0.0276396	13.5158	0
82.785	0.0276396	13.5434	0
82.7853	0.0276396	13.571	0
82.7859	0.0276396	13.5987	0
82.786	0.0276396	13.6263	0
82.7865	0.0276396	13.654	0
82.7866	0.0276396	13.6816	0
82.7866	0.0276396	13.7092	0
82.7876	0.0276396	13.7369	0
82.7889	0.0276396	13.7645	0
82.789	0.0276396	13.7922	0
82.789	0.0276396	13.8198	0
82.7903	0.0276396	13.8474	0
82.7904	0.0276396	13.8751	0
82.7909	0.0276396	13.9027	0
82.791	0.0276396	13.9303	0
82.7918	0.0276396	13.958	0
82.7934	0.0276396	13.9856	0
82.7934	0.0276396	14.0133	0
82.7945	0.0276396	14.0409	0
82.7951	0.0276396	14.0685	0
82.7956	0.0276396	14.0962	0
82.7968	0.0276396	14.1238	0
82.7972	0.0276396	14.1515	0
82.7973	0.0276396	14.1791	0
82.7975	0.0276396	14.2067	0
82.7977	0.0276396	14.2344	0
82.7979	0.0276396	14.262	0
82.7982	0.0276396	14.2897	0
82.7985	0.0276396	14.3173	0
82.799	0.0276396	14.3449	0
82.7995	0.0276396	14.3726	0
82.7996	0.0276396	14.4002	0
82.7997	0.0276396	14.4279	0
82.7998	0.0276396	14.4555	0
82.7998	0.0276396	14.4831	0
82.7999	0.0276396	14.5108	0
82.8003	0.0276396	14.5384	0
82.8006	0.0276396	14.5661	0
82.8007	0.0276396	14.5937	0
82.8008	0.0276396	14.6213	0
82.8019	0.0276396	14.649	0
82.8022	0.0276396	14.6766	0
82.8022	0.0276396	14.7043	0
82.8024	0.0276396	14.7319	0
82.8024	0.0276396	14.7595	0
82.8032	0.0276396	14.7872	0
82.8042	0.0276396	14.8148	0
82.8048	0.0276396	14.8425	0
82.8052	0.0276396	14.8701	0
82.8054	0.0276396	14.8977	0
82.8065	0.0276396	14.9254	0
82.8092	0.0276396	14.953	0
82.8098	0.0276396	14.9807	0
82.8105	0.0276396	15.0083	0
82.8106	0.0276396	15.0359	0
82.8107	0.0276396	15.0636	0
82.8107	0.0276396	15.0912	0
82.8119	0.0276396	15.1189	0
82.8125	0.0276396	15.1465	0
82.8132	0.0276396	15.1741	0
82.8137	0.0276396	15.2018	0
82.8139	0.0276396	15.2294	0
82.8142	0.0276396	15.257	0
82.8151	0.0276396	15.2847	0
82.8151	0.0276396	15.3123	0
82.8156	0.0276396	15.34	0
82.816	0.0276396	15.3676	0
84.9742	0.0276396	15.3952	0
84.9755	0.0276396	15.3952	0
84.9758	0.0276396	15.4229	0
84.9764	0.0276396	15.4505	0
84.9769	0.0276396	15.4782	0
84.9785	0.0276396	15.5058	0
84.9786	0.0276396	15.5334	0
84.9788	0.0276396	15.5611	0
84.9793	0.0276396	15.5887	0
84.9798	0.0276396	15.6164	0
84.9798	0.0276396	15.644	0
84.9805	0.0276396	15.6716	0
84.9805	0.0276396	15.6993	0
84.982	0.0276396	15.7269	0
84.9821	0.0276396	15.7546	0
84.9829	0.0276396	15.7822	0
84.9836	0.0276396	15.8098	0
84.9869	0.0276396	15.8375	0
84.9874	0.0276396	15.8651	0
84.989	0.0276396	15.8928	0
84.989	0.0276396	15.9204	0
84.9901	0.0276396	15.948	0
84.9909	0.0276396	15.9757	0
84.9911	0.0276396	16.0033	0
84.9914	0.0276396	16.031	0
84.9915	0.0276396	16.0586	0
84.992	0.0276396	16.0862	0
84.9922	0.0276396	16.1139	0
84.9928	0.0276396	16.1415	0
84.9939	0.0276396	16.1692	0
84.9943	0.0276396	16.1968	0
84.9943	0.0276396	16.2244	0
84.9945	0.0276396	16.2521	0
84.9946	0.0276396	16.2797	0
84.9949	0.0276396	16.3074	0
84.9954	0.0276396	16.335	0
84.9956	0.0276396	16.3626	0
84.9964	0.0276396	16.3903	0
84.9964	0.0276396	16.4179	0
84.9968	0.0276396	16.4456	0
84.997	0.0276396	16.4732	0
84.9971	0.0276396	16.5008	0
84.9973	0.0276396	16.5285	0
100.359	0.0276396	16.5561	0
100.359	0.0276396	16.5561	0
100.359	0.0276396	16.5837	0
100.359	0.0276396	16.6114	0
100.361	0.0276396	16.639	0
100.361	0.0276396	16.6667	0
100.361	0.0276396	16.6943	0
100.361	0.0276396	16.7219	0
100.361	0.0276396	16.7496	0
100.361	0.0276396	16.7772	0
100.361	0.0276396	16.8049	0
100.362	0.0276396	16.8325	0
100.363	0.0276396	16.8601	0
100.363	0.0276396	16.8878	0
100.364	0.0276396	16.9154	0
100.365	0.0276396	16.9431	0
100.365	0.0276396	16.9707	0
100.366	0.0276396	16.9983	0
100.366	0.0276396	17.026	0
100.368	0.0276396	17.0536	0
100.369	0.0276396	17.0813	0
100.369	0.0276396	17.1089	0
100.37	0.0276396	17.1365	0
100.371	0.0276396	17.1642	0
100.371	0.0276396	17.1918	0
100.371	0.0276396	17.2195	0
100.371	0.0276396	17.2471	0
100.372	0.0276396	17.2747	0
100.372	0.0276396	17.3024	0
100.373	0.0276396	17.33	0
100.373	0.0276396	17.3577	0
100.373	0.0276396	17.3853	0
100.375	0.0276396	17.4129	0
100.376	0.0276396	17.4406	0
100.377	0.0276396	17.4682	0
109.255	0.0276396	17.4959	0
109.255	0.0276396	17.4959	0
109.256	0.0276396	17.5235	0
109.257	0.0276396	17.5511	0
109.257	0.0276396	17.5788	0
109.259	0.0276396	17.6064	0
109.259	0.0276396	17.6341	0
109.259	0.0276396	17.6617	0
109.26	0.0276396	17.6893	0
109.261	0.0276396	17.717	0
109.263	0.0276396	17.7446	0
109.263	0.0276396	17.7722	0
109.264	0.0276396	17.7999	0
109.265	0.0276396	17.8275	0
109.265	0.0276396	17.8552	0
109.265	0.0276396	17.8828	0
109.266	0.0276396	17.9104	0
118.446	0.0276396	17.9381	0
118.446	0.0276396	17.9381	0
118.448	0.0276396	17.9657	0
118.448	0.0276396	17.9934	0
118.449	0.0276396	18.021	0
118.449	0.0276396	18.0486	0
118.449	0.0276396	18.0763	0
118.451	0.0276396	18.1039	0
118.452	0.0276396	18.1316	0
118.452	0.0276396	18.1592	0
118.452	0.0276396	18.1868	0
118.453	0.0276396	18.2145	0
118.454	0.0276396	18.2421	0
118.454	0.0276396	18.2698	0
118.455	0.0276396	18.2974	0
118.457	0.0276396	18.325	0
118.457	0.0276396	18.3527	0
118.459	0.0276396	18.3803	0
118.46	0.0276396	18.408	0
118.46	0.0276396	18.4356	0
118.46	0.0276396	18.4632	0
118.46	0.0276396	18.4909	0
118.461	0.0276396	18.5185	0
118.461	0.0276396	18.5462	0
118.462	0.0276396	18.5738	0
118.462	0.0276396	18.6014	0
118.463	0.0276396	18.6291	0
118.463	0.0276396	18.6567	0
118.463	0.0276396	18.6844	0
118.464	0.0276396	18.712	0
118.464	0.0276396	18.7396	0
118.464	0.0276396	18.7673	0
118.464	0.0276396	18.7949	0
118.465	0.0276396	18.8226	0
118.466	0.0276396	18.8502	0
118.467	0.0276396	18.8778	0
118.467	0.0276396	18.9055	0
118.467	0.0276396	18.9331	0
118.468	0.0276396	18.9608	0
118.468	0.0276396	18.9884	0
118.469	0.0276396	19.016	0
118.469	0.0276396	19.0437	0
118.469	0.0276396	19.0713	0
118.47	0.0276396	19.0989	0
118.471	0.0276396	19.1266	0
118.472	0.0276396	19.1542	0
118.472	0.0276396	19.1819	0
118.472	0.0276396	19.2095	0
118.473	0.0276396	19.2371	0
118.475	0.0276396	19.2648	0
118.475	0.0276396	19.2924	0
118.475	0.0276396	19.3201	0
118.476	0.0276396	19.3477	0
118.477	0.0276396	19.3753	0
118.48	0.0276396	19.403	0
118.481	0.0276396	19.4306	0
118.481	0.0276396	19.4583	0
118.482	0.0276396	19.4859	0
118.482	0.0276396	19.5135	0
125.847	0.0276396	19.5688	0
125.847	0.0276396	19.5688	0
125.847	0.0276396	19.5965	0
125.848	0.0276396	19.6241	0
125.848	0.0276396	19.6517	0
125.849	0.0276396	19.6794	0
125.85	0.0276396	19.707	0
125.85	0.0276396	19.7347	0
125.85	0.0276396	19.7623	0
125.85	0.0276396	19.7899	0
125.85	0.0276396	19.8176	0
125.851	0.0276396	19.8452	0
125.851	0.0276396	19.8729	0
125.851	0.0276396	19.9005	0
125.852	0.0276396	19.9281	0
125.853	0.0276396	19.9558	0
125.853	0.0276396	19.9834	0
125.855	0.0276396	20.0111	0
125.855	0.0276396	20.0387	0
125.855	0.0276396	20.0663	0
125.855	0.0276396	20.094	0
125.855	0.0276396	20.1216	0
125.856	0.0276396	20.1493	0
125.856	0.0276396	20.1769	0
125.857	0.0276396	20.2045	0
125.857	0.0276396	20.2322	0
125.858	0.0276396	20.2598	0
125.861	0.0276396	20.2875	0
125.862	0.0276396	20.3151	0
125.863	0.0276396	20.3427	0
125.863	0.0276396	20.3704	0
125.863	0.0276396	20.398	0
125.864	0.0276396	20.4256	0
125.865	0.0276396	20.4533	0
125.865	0.0276396	20.4809	0
125.866	0.0276396	20.5086	0
125.866	0.0276396	20.5362	0
125.867	0.0276396	20.5638	0
125.867	0.0276396	20.5915	0
125.869	0.0276396	20.6191	0
125.87	0.0276396	20.6468	0
125.871	0.0276396	20.6744	0
125.871	0.0276396	20.702	0
125.872	0.0276396	20.7297	0
125.873	0.0276396	20.7573	0
125.873	0.0276396	20.785	0
125.874	0.0276396	20.8126	0
125.874	0.0276396	20.8402	0
125.874	0.0276396	20.8679	0
125.874	0.0276396	20.8955	0
125.874	0.0276396	20.9232	0
125.875	0.0276396	20.9508	0
125.875	0.0276396	20.9784	0
125.877	0.0276396	21.0061	0
125.877	0.0276396	21.0337	0
125.877	0.0276396	21.0614	0
125.878	0.0276396	21.089	0
125.879	0.0276396	21.1166	0
125.879	0.0276396	21.1443	0
125.88	0.0276396	21.1719	0
125.88	0.0276396	21.1996	0
125.882	0.0276396	21.2272	0
126.555	0.0276396	21.2548	0
126.556	0.0276396	21.2548	0
126.556	0.0276396	21.2825	0
126.556	0.0276396	21.3101	0
126.556	0.0276396	21.3378	0
126.556	0.0276396	21.3654	0
126.557	0.0276396	21.393	0
126.557	0.0276396	21.4207	0
126.557	0.0276396	21.4483	0
126.557	0.0276396	21.476	0
126.557	0.0276396	21.5036	0
126.558	0.0276396	21.5312	0
126.558	0.0276396	21.5589	0
126.56	0.0276396	21.5865	0
126.56	0.0276396	21.6142	0
126.56	0.0276396	21.6418	0
126.563	0.0276396	21.6694	0
126.564	0.0276396	21.6971	0
126.565	0.0276396	21.7247	0
126.565	0.0276396	21.7523	0
126.565	0.0276396	21.78	0
126.565	0.0276396	21.8076	0
126.565	0.0276396	21.8353	0
126.565	0.0276396	21.8629	0
126.567	0.0276396	21.8905	0
126.567	0.0276396	21.9182	0
126.567	0.0276396	21.9458	0
126.568	0.0276396	21.9735	0
126.568	0.0276396	22.0011	0
126.568	0.0276396	22.0287	0
126.569	0.0276396	22.0564	0
126.569	0.0276396	22.084	0
126.569	0.0276396	22.1117	0
126.569	0.0276396	22.1393	0
126.57	0.0276396	22.1669	0
126.57	0.0276396	22.1946	0
126.57	0.0276396	22.2222	0
126.57	0.0276396	22.2499	0
126.57	0.0276396	22.2775	0
126.571	0.0276396	22.3051	0
126.571	0.0276396	22.3328	0
126.572	0.0276396	22.3604	0
126.574	0.0276396	22.3881	0
126.574	0.0276396	22.4157	0
126.575	0.0276396	22.4433	0
126.575	0.0276396	22.471	0
126.577	0.0276396	22.4986	0
126.577	0.0276396	22.5263	0
126.577	0.0276396	22.5539	0
126.577	0.0276396	22.5815	0
126.577	0.0276396	22.6092	0
126.577	0.0276396	22.6368	0
126.577	0.0276396	22.6645	0
126.578	0.0276396	22.6921	0
126.579	0.0276396	22.7197	0
126.579	0.0276396	22.7474	0
126.58	0.0276396	22.775	0
135.734	0.0276396	22.8027	0
135.734	0.0276396	22.8027	0
135.735	0.0276396	22.8303	0
135.735	0.0276396	22.8579	0
135.736	0.0276396	22.8856	0
135.737	0.0276396	22.9132	0
135.737	0.0276396	22.9409	0
135.737	0.0276396	22.9685	0
135.739	0.0276396	22.9961	0
135.739	0.0276396	23.0238	0
135.74	0.0276396	23.0514	0
135.741	0.0276396	23.079	0
135.741	0.0276396	23.1067	0
135.741	0.0276396	23.1343	0
135.742	0.0276396	23.162	0
135.742	0.0276396	23.1896	0
135.743	0.0276396	23.2172	0
135.743	0.0276396	23.2449	0
135.743	0.0276396	23.2725	0
135.744	0.0276396	23.3002	0
135.745	0.0276396	23.3278	0
135.745	0.0276396	23.3554	0
135.745	0.0276396	23.3831	0
135.746	0.0276396	23.4107	0
135.746	0.0276396	23.4384	0
135.746	0.0276396	23.466	0
135.746	0.0276396	23.4936	0
135.748	0.0276396	23.5213	0
135.748	0.0276396	23.5489	0
135.749	0.0276396	23.5766	0
135.749	0.0276396	23.6042	0
135.749	0.0276396	23.6318	0
135.75	0.0276396	23.6595	0
135.75	0.0276396	23.6871	0
135.75	0.0276396	23.7148	0
136.345	0.0414594	23.7424	0
136.345	0.0414594	23.7424	0
136.346	0.0414594	23.77	0
136.347	0.0414594	23.7977	0
136.347	0.0414594	23.8253	0
137.188	0.0414594	23.853	0
137.188	0.0414594	23.853	0
137.19	0.0414594	23.8806	0
137.19	0.0414594	23.9082	0
137.19	0.0414594	23.9359	0
137.19	0.0414594	23.9635	0
137.191	0.0414594	23.9912	0
137.191	0.0414594	24.0188	0
137.193	0.0414594	24.0464	0
137.193	0.0414594	24.0741	0
137.196	0.0414594	24.1017	0
137.196	0.0414594	24.1294	0
137.196	0.0414594	24.157	0
137.196	0.0414594	24.1846	0
137.196	0.0414594	24.2123	0
137.196	0.0414594	24.2399	0
137.197	0.0414594	24.2676	0
137.197	0.0414594	24.2952	0
137.197	0.0414594	24.3228	0
137.197	0.0414594	24.3505	0
137.197	0.0414594	24.3781	0
137.198	0.0414594	24.4057	0
137.199	0.0414594	24.4334	0
137.199	0.0414594	24.461	0
137.199	0.0414594	24.4887	0
137.199	0.0414594	24.5163	0
137.199	0.0414594	24.5439	0
137.2	0.0414594	24.5716	0
137.201	0.0414594	24.5992	0
137.201	0.0414594	24.6269	0
137.202	0.0414594	24.6545	0
137.202	0.0414594	24.6821	0
137.203	0.0414594	24.7098	0
137.203	0.0414594	24.7374	0
137.203	0.0414594	24.7651	0
137.203	0.0414594	24.7927	0
137.204	0.0414594	24.8203	0
137.204	0.0414594	24.848	0
137.204	0.0414594	24.8756	0
137.205	0.0414594	24.9033	0
137.304	0.0552792	24.9309	0
137.305	0.0552792	24.9309	0
137.305	0.0552792	24.9585	0
137.305	0.0552792	24.9862	0
137.305	0.0552792	25.0138	0
137.306	0.0552792	25.0415	0
137.306	0.0552792	25.0691	0
137.306	0.0552792	25.0967	0
137.306	0.0552792	25.1244	0
137.307	0.0552792	25.152	0
137.307	0.0552792	25.1797	0
137.307	0.0552792	25.2073	0
137.307	0.0552792	25.2349	0
137.307	0.0552792	25.2626	0
137.308	0.0552792	25.2902	0
137.309	0.0552792	25.3179	0
137.309	0.0552792	25.3455	0
137.309	0.0552792	25.3731	0
137.31	0.0552792	25.4008	0
137.312	0.0552792	25.4284	0
137.312	0.0552792	25.4561	0
137.313	0.0552792	25.4837	0
137.313	0.0552792	25.5113	0
137.313	0.0552792	25.539	0
137.313	0.0552792	25.5666	0
137.314	0.0552792	25.5943	0
137.315	0.0552792	25.6219	0
137.316	0.0552792	25.6495	0
137.316	0.0552792	25.6772	0
137.316	0.0552792	25.7048	0
137.317	0.0552792	25.7324	0
137.318	0.0552792	25.7601	0
137.318	0.0552792	25.7877	0
137.318	0.0552792	25.8154	0
137.319	0.0552792	25.843	0
137.319	0.0552792	25.8706	0
137.319	0.0552792	25.8983	0
137.32	0.0552792	25.9259	0
137.323	0.0552792	25.9536	0
137.323	0.0552792	25.9812	0
137.324	0.0552792	26.0088	0
137.324	0.0552792	26.0365	0
137.324	0.0552792	26.0641	0
137.324	0.0552792	26.0918	0
137.324	0.0552792	26.1194	0
137.326	0.0552792	26.147	0
137.327	0.0552792	26.1747	0
137.327	0.0552792	26.2023	0
137.328	0.0552792	26.23	0
137.328	0.0552792	26.2576	0
137.33	0.0552792	26.2852	0
137.33	0.0552792	26.3129	0
137.33	0.0552792	26.3405	0
137.331	0.0552792	26.3682	0
137.331	0.0552792	26.3958	0
137.333	0.0552792	26.4234	0
137.333	0.0552792	26.4511	0
137.334	0.0552792	26.4787	0
137.334	0.0552792	26.5064	0
137.334	0.0552792	26.534	0
137.334	0.0552792	26.5616	0
137.334	0.0552792	26.5893	0
137.335	0.0552792	26.6169	0
137.335	0.0552792	26.6446	0
137.335	0.0552792	26.6722	0
137.336	0.0552792	26.6998	0
137.336	0.0552792	26.7275	0
137.336	0.0552792	26.7551	0
137.337	0.0552792	26.7828	0
137.337	0.0552792	26.8104	0
137.337	0.0552792	26.838	0
137.337	0.0552792	26.8657	0
137.337	0.0552792	26.8933	0
137.338	0.0552792	26.921	0
137.339	0.0552792	26.9486	0
137.339	0.0552792	26.9762	0
137.339	0.0552792	27.0039	0
137.34	0.0552792	27.0315	0
137.34	0.0552792	27.0591	0
137.34	0.0552792	27.0868	0
137.341	0.0552792	27.1144	0
137.341	0.0552792	27.1421	0
137.341	0.0552792	27.1697	0
137.341	0.0552792	27.1973	0
137.342	0.0552792	27.225	0
137.342	0.0552792	27.2526	0
137.342	0.0552792	27.2803	0
137.343	0.0552792	27.3079	0
137.343	0.0552792	27.3355	0
137.344	0.0552792	27.3632	0
137.345	0.0552792	27.3908	0
143.134	0.0552792	27.4185	0
143.135	0.0552792	27.4185	0
143.136	0.0552792	27.4461	0
143.136	0.0552792	27.4737	0
143.136	0.0552792	27.5014	0
143.137	0.0552792	27.529	0
143.138	0.0552792	27.5567	0
143.138	0.0552792	27.5843	0
143.138	0.0552792	27.6119	0
143.139	0.0552792	27.6396	0
143.139	0.0552792	27.6672	0
143.139	0.0552792	27.6949	0
143.139	0.0552792	27.7225	0
143.14	0.0552792	27.7501	0
143.14	0.0552792	27.7778	0
143.14	0.0552792	27.8054	0
143.14	0.0552792	27.8331	0
143.141	0.0552792	27.8607	0
143.141	0.0552792	27.8883	0
143.141	0.0552792	27.916	0
143.141	0.0552792	27.9436	0
143.142	0.0552792	27.9713	0
143.143	0.0552792	27.9989	0
143.143	0.0552792	28.0265	0
143.143	0.0552792	28.0542	0
143.143	0.0552792	28.0818	0
143.143	0.0552792	28.1095	0
143.144	0.0552792	28.1371	0
143.144	0.0552792	28.1647	0
143.144	0.0552792	28.1924	0
143.144	0.0552792	28.22	0
143.145	0.0552792	28.2477	0
143.146	0.0552792	28.2753	0
143.147	0.0552792	28.3029	0
143.147	0.0552792	28.3306	0
143.147	0.0552792	28.3582	0
143.147	0.0552792	28.3858	0
143.148	0.0552792	28.4135	0
143.15	0.0552792	28.4411	0
143.15	0.0552792	28.4688	0
143.15	0.0552792	28.4964	0
143.15	0.0552792	28.524	0
143.151	0.0552792	28.5517	0
143.151	0.0552792	28.5793	0
143.151	0.0552792	28.607	0
143.151	0.0552792	28.6346	0
143.151	0.0552792	28.6622	0
143.151	0.0552792	28.6899	0
143.152	0.0552792	28.7175	0
143.152	0.0552792	28.7452	0
143.152	0.0552792	28.7728	0
143.153	0.0552792	28.8004	0
143.153	0.0552792	28.8281	0
143.154	0.0552792	28.8557	0
143.154	0.0552792	28.8834	0
143.154	0.0552792	28.911	0
143.155	0.0552792	28.9386	0
143.156	0.0552792	28.9663	0
143.157	0.0552792	28.9939	0
143.157	0.0552792	29.0216	0
143.157	0.0552792	29.0492	0
143.158	0.0552792	29.0768	0
143.158	0.0552792	29.1045	0
143.158	0.0552792	29.1321	0
143.159	0.0552792	29.1598	0
143.159	0.0552792	29.1874	0
143.159	0.0552792	29.215	0
143.159	0.0552792	29.2427	0
143.159	0.0552792	29.2703	0
143.16	0.0552792	29.298	0
143.16	0.0552792	29.3256	0
143.161	0.0552792	29.3532	0
143.161	0.0552792	29.3809	0
143.161	0.0552792	29.4085	0
143.161	0.0552792	29.4362	0
143.162	0.0552792	29.4638	0
143.163	0.0552792	29.4914	0
143.163	0.0552792	29.5191	0
143.163	0.0552792	29.5467	0
143.165	0.0552792	29.5744	0
143.165	0.0552792	29.602	0
143.165	0.0552792	29.6296	0
143.166	0.0552792	29.6573	0
143.167	0.0552792	29.6849	0
143.167	0.0552792	29.7125	0
143.167	0.0552792	29.7402	0
143.167	0.0552792	29.7678	0
143.168	0.0552792	29.7955	0
143.169	0.0552792	29.8231	0
143.17	0.0552792	29.8507	0
143.171	0.0552792	29.8784	0
143.172	0.0552792	29.906	0
152.011	0.0552792	29.9337	0
152.012	0.0552792	29.9337	0
152.012	0.0552792	29.9613	0
152.012	0.0552792	29.9889	0
152.012	0.0552792	30.0166	0
152.013	0.0552792	30.0442	0
152.013	0.0552792	30.0719	0
152.014	0.0552792	30.0995	0
152.015	0.0552792	30.1271	0
152.015	0.0552792	30.1548	0
152.016	0.0552792	30.1824	0
152.016	0.0552792	30.2101	0
152.016	0.0552792	30.2377	0
152.016	0.0552792	30.2653	0
152.016	0.0552792	30.293	0
152.017	0.0552792	30.3206	0
152.017	0.0552792	30.3483	0
152.017	0.0552792	30.3759	0
152.018	0.0552792	30.4035	0
152.019	0.0552792	30.4312	0
152.019	0.0552792	30.4588	0
152.019	0.0552792	30.4865	0
152.02	0.0552792	30.5141	0
152.02	0.0552792	30.5417	0
152.02	0.0552792	30.5694	0
152.021	0.0552792	30.597	0
152.022	0.0552792	30.6247	0
152.022	0.0552792	30.6523	0
152.023	0.0552792	30.6799	0
152.023	0.0552792	30.7076	0
152.023	0.0552792	30.7352	0
152.024	0.0552792	30.7629	0
152.024	0.0552792	30.7905	0
152.024	0.0552792	30.8181	0
152.025	0.0552792	30.8458	0
152.025	0.0552792	30.8734	0
152.025	0.0552792	30.9011	0
152.026	0.0552792	30.9287	0
152.026	0.0552792	30.9563	0
152.026	0.0552792	30.984	0
152.027	0.0552792	31.0116	0
152.027	0.0552792	31.0392	0
152.029	0.0552792	31.0669	0
152.029	0.0552792	31.0945	0
152.03	0.0552792	31.1222	0
152.031	0.0552792	31.1498	0
152.031	0.0552792	31.1774	0
152.032	0.0552792	31.2051	0
152.032	0.0552792	31.2327	0
152.033	0.0552792	31.2604	0
152.033	0.0552792	31.288	0
166.407	0.0552792	31.3156	0
166.408	0.0552792	31.3156	0
166.409	0.0552792	31.3433	0
166.409	0.0552792	31.3709	0
166.41	0.0552792	31.3986	0
166.41	0.0552792	31.4262	0
166.41	0.0552792	31.4538	0
166.411	0.0552792	31.4815	0
166.411	0.0552792	31.5091	0
166.412	0.0552792	31.5368	0
166.413	0.0552792	31.5644	0
176.597	0.0552792	31.592	0
176.598	0.0552792	31.592	0
176.599	0.0552792	31.6197	0
176.602	0.0552792	31.6473	0
176.602	0.0552792	31.675	0
176.603	0.0552792	31.7026	0
176.603	0.0552792	31.7302	0
176.603	0.0552792	31.7579	0
176.603	0.0552792	31.7855	0
176.604	0.0552792	31.8132	0
176.604	0.0552792	31.8408	0
176.604	0.0552792	31.8684	0
176.604	0.0552792	31.8961	0
176.604	0.0552792	31.9237	0
176.604	0.0552792	31.9514	0
176.605	0.0552792	31.979	0
176.605	0.0552792	32.0066	0
176.606	0.0552792	32.0343	0
176.606	0.0552792	32.0619	0
176.606	0.0552792	32.0896	0
176.606	0.0552792	32.1172	0
176.606	0.0552792	32.1448	0
176.607	0.0552792	32.1725	0
176.607	0.0552792	32.2001	0
176.608	0.0552792	32.2278	0
176.608	0.0552792	32.2554	0
176.609	0.0552792	32.283	0
176.609	0.0552792	32.3107	0
176.61	0.0552792	32.3383	0
176.61	0.0552792	32.3659	0
176.611	0.0552792	32.3936	0
176.612	0.0552792	32.4212	0
176.612	0.0552792	32.4489	0
176.612	0.0552792	32.4765	0
176.612	0.0552792	32.5041	0
176.612	0.0552792	32.5318	0
176.613	0.0552792	32.5594	0
176.613	0.0552792	32.5871	0
176.614	0.0552792	32.6147	0
176.614	0.0552792	32.6423	0
176.614	0.0552792	32.67	0
176.615	0.0552792	32.6976	0
176.615	0.0552792	32.7253	0
176.618	0.0552792	32.7529	0
176.618	0.0552792	32.7805	0
176.618	0.0552792	32.8082	0
176.618	0.0552792	32.8358	0
176.618	0.0552792	32.8635	0
176.619	0.0552792	32.8911	0
176.62	0.0552792	32.9187	0
176.621	0.0552792	32.9464	0
176.623	0.0552792	32.974	0
176.624	0.0552792	33.0017	0
176.624	0.0552792	33.0293	0
176.624	0.0552792	33.0569	0
176.624	0.0552792	33.0846	0
176.625	0.0552792	33.1122	0
176.625	0.0552792	33.1399	0
176.626	0.0552792	33.1675	0
176.626	0.0552792	33.1951	0
176.626	0.0552792	33.2228	0
176.626	0.0552792	33.2504	0
176.627	0.0552792	33.2781	0
176.628	0.0552792	33.3057	0
176.628	0.0552792	33.3333	0
176.63	0.0552792	33.361	0
179.932	0.0552792	33.3886	0
179.932	0.0552792	33.3886	0
179.933	0.0552792	33.4163	0
179.935	0.0552792	33.4439	0
179.936	0.0552792	33.4715	0
179.937	0.0552792	33.4992	0
179.937	0.0552792	33.5268	0
179.938	0.0552792	33.5544	0
179.938	0.0552792	33.5821	0
179.938	0.0552792	33.6097	0
179.939	0.0552792	33.6374	0
179.939	0.0552792	33.665	0
179.94	0.0552792	33.6926	0
179.941	0.0552792	33.7203	0
179.941	0.0552792	33.7479	0
179.942	0.0552792	33.7756	0
179.942	0.0552792	33.8032	0
179.943	0.0552792	33.8308	0
179.943	0.0552792	33.8585	0
179.943	0.0552792	33.8861	0
179.943	0.0552792	33.9138	0
179.944	0.0552792	33.9414	0
179.944	0.0552792	33.969	0
179.944	0.0552792	33.9967	0
179.944	0.0552792	34.0243	0
179.945	0.0552792	34.052	0
179.945	0.0552792	34.0796	0
179.945	0.0552792	34.1072	0
179.945	0.0552792	34.1349	0
179.945	0.0552792	34.1625	0
179.946	0.0552792	34.1902	0
179.946	0.0552792	34.2178	0
179.947	0.0552792	34.2454	0
179.948	0.0552792	34.2731	0
179.949	0.0552792	34.3007	0
179.949	0.0552792	34.3284	0
179.95	0.0552792	34.356	0
179.952	0.0552792	34.3836	0
179.952	0.0552792	34.4113	0
179.952	0.0552792	34.4389	0
179.952	0.0552792	34.4666	0
179.953	0.0552792	34.4942	0
179.953	0.0552792	34.5218	0
179.955	0.0552792	34.5495	0
179.956	0.0552792	34.5771	0
179.956	0.0552792	34.6048	0
179.956	0.0552792	34.6324	0
179.957	0.0552792	34.66	0
179.957	0.0552792	34.6877	0
179.958	0.0552792	34.7153	0
179.958	0.0552792	34.743	0
179.958	0.0552792	34.7706	0
179.959	0.0552792	34.7982	0
179.959	0.0552792	34.8259	0
179.961	0.0552792	34.8535	0
179.962	0.0552792	34.8811	0
179.962	0.0552792	34.9088	0
179.963	0.0552792	34.9364	0
179.963	0.0552792	34.9641	0
179.963	0.0552792	34.9917	0
179.964	0.0552792	35.0193	0
179.964	0.0552792	35.047	0
179.964	0.0552792	35.0746	0
179.965	0.0552792	35.1023	0
179.965	0.0552792	35.1299	0
179.965	0.0552792	35.1575	0
179.966	0.0552792	35.1852	0
179.966	0.0552792	35.2128	0
179.966	0.0552792	35.2405	0
179.967	0.0552792	35.2681	0
179.967	0.0552792	35.2957	0
179.968	0.0552792	35.3234	0
179.969	0.0552792	35.351	0
179.97	0.0552792	35.3787	0
179.97	0.0552792	35.4063	0
179.97	0.0552792	35.4339	0
179.97	0.0552792	35.4616	0
179.971	0.0552792	35.4892	0
179.971	0.0552792	35.5169	0
179.972	0.0552792	35.5445	0
179.972	0.0552792	35.5721	0
179.972	0.0552792	35.5998	0
179.972	0.0552792	35.6274	0
179.974	0.0552792	35.6551	0
188.122	0.0552792	35.6827	0
188.123	0.0552792	35.6827	0
188.123	0.0552792	35.7103	0
188.123	0.0552792	35.738	0
188.123	0.0552792	35.7656	0
188.124	0.0552792	35.7933	0
188.124	0.0552792	35.8209	0
188.126	0.0552792	35.8485	0
188.127	0.0552792	35.8762	0
188.128	0.0552792	35.9038	0
188.128	0.0552792	35.9315	0
188.13	0.0552792	35.9591	0
188.131	0.0552792	35.9867	0
188.132	0.0552792	36.0144	0
188.132	0.0552792	36.042	0
188.133	0.0552792	36.0697	0
188.133	0.0552792	36.0973	0
188.135	0.0552792	36.1249	0
188.135	0.0552792	36.1526	0
188.135	0.0552792	36.1802	0
188.137	0.0552792	36.2078	0
188.139	0.0552792	36.2355	0
188.139	0.0552792	36.2631	0
188.139	0.0552792	36.2908	0
188.139	0.0552792	36.3184	0
188.14	0.0552792	36.346	0
188.14	0.0552792	36.3737	0
188.14	0.0552792	36.4013	0
188.141	0.0552792	36.429	0
188.141	0.0552792	36.4566	0
188.143	0.0552792	36.4842	0
188.735	0.0552792	36.5119	0
188.735	0.0552792	36.5119	0
188.736	0.0552792	36.5395	0
188.736	0.0552792	36.5672	0
188.738	0.0552792	36.5948	0
188.738	0.0552792	36.6224	0
188.738	0.0552792	36.6501	0
188.739	0.0552792	36.6777	0
188.74	0.0552792	36.7054	0
188.741	0.0552792	36.733	0
188.741	0.0552792	36.7606	0
188.743	0.0552792	36.7883	0
188.743	0.0552792	36.8159	0
188.743	0.0552792	36.8436	0
188.744	0.0552792	36.8712	0
188.744	0.0552792	36.8988	0
188.744	0.0552792	36.9265	0
188.745	0.0552792	36.9541	0
188.745	0.0552792	36.9818	0
188.745	0.0552792	37.0094	0
188.745	0.0552792	37.037	0
188.746	0.0552792	37.0647	0
188.747	0.0552792	37.0923	0
188.747	0.0552792	37.12	0
188.747	0.0552792	37.1476	0
188.747	0.0552792	37.1752	0
188.748	0.0552792	37.2029	0
188.748	0.0552792	37.2305	0
188.748	0.0552792	37.2582	0
188.749	0.0552792	37.2858	0
188.749	0.0552792	37.3134	0
188.75	0.0552792	37.3411	0
188.752	0.0552792	37.3687	0
188.752	0.0552792	37.3964	0
188.753	0.0552792	37.424	0
188.753	0.0552792	37.4516	0
188.754	0.0552792	37.4793	0
188.754	0.0552792	37.5069	0
188.755	0.0552792	37.5345	0
188.755	0.0552792	37.5622	0
188.756	0.0552792	37.5898	0
188.756	0.0552792	37.6175	0
188.756	0.0552792	37.6451	0
188.756	0.0552792	37.6727	0
188.756	0.0552792	37.7004	0
188.757	0.0552792	37.728	0
188.757	0.0552792	37.7557	0
188.758	0.0552792	37.7833	0
188.758	0.0552792	37.8109	0
188.758	0.0552792	37.8386	0
188.758	0.0552792	37.8662	0
188.758	0.0552792	37.8939	0
188.759	0.0552792	37.9215	0
188.759	0.0552792	37.9491	0
188.759	0.0552792	37.9768	0
188.76	0.0552792	38.0044	0
188.76	0.0552792	38.0321	0
188.761	0.0552792	38.0597	0
188.762	0.0552792	38.0873	0
188.763	0.0552792	38.115	0
192.987	0.0552792	38.1426	0
192.988	0.0552792	38.1426	0
192.988	0.0552792	38.1703	0
192.988	0.0552792	38.1979	0
192.989	0.0552792	38.2255	0
192.99	0.0552792	38.2532	0
192.991	0.0552792	38.2808	0
192.991	0.0552792	38.3085	0
192.991	0.0552792	38.3361	0
192.992	0.0552792	38.3637	0
192.993	0.0552792	38.3914	0
192.993	0.0552792	38.419	0
192.993	0.0552792	38.4467	0
192.993	0.0552792	38.4743	0
192.994	0.0552792	38.5019	0
192.994	0.0552792	38.5296	0
192.994	0.0552792	38.5572	0
192.996	0.0552792	38.5849	0
192.996	0.0552792	38.6125	0
192.997	0.0552792	38.6401	0
192.997	0.0552792	38.6678	0
192.998	0.0552792	38.6954	0
192.998	0.0552792	38.7231	0
192.998	0.0552792	38.7507	0
192.999	0.0552792	38.7783	0
193	0.0552792	38.806	0
193.001	0.0552792	38.8336	0
193.001	0.0552792	38.8612	0
193.002	0.0552792	38.8889	0
193.002	0.0552792	38.9165	0
193.003	0.0552792	38.9442	0
193.003	0.0552792	38.9718	0
193.004	0.0552792	38.9994	0
193.005	0.0552792	39.0271	0
193.007	0.0552792	39.0547	0
193.008	0.0552792	39.0824	0
193.008	0.0552792	39.11	0
193.008	0.0552792	39.1376	0
193.008	0.0552792	39.1653	0
193.009	0.0552792	39.1929	0
193.009	0.0552792	39.2206	0
193.009	0.0552792	39.2482	0
197.611	0.0690989	39.2758	0
197.611	0.0690989	39.2758	0
197.612	0.0690989	39.3035	0
197.612	0.0690989	39.3311	0
197.613	0.0690989	39.3588	0
197.614	0.0690989	39.3864	0
197.614	0.0690989	39.414	0
197.615	0.0690989	39.4417	0
197.616	0.0690989	39.4693	0
197.616	0.0690989	39.497	0
197.616	0.0690989	39.5246	0
197.618	0.0690989	39.5522	0
204.464	0.0690989	39.5799	0
204.465	0.0690989	39.5799	0
204.466	0.0690989	39.6075	0
204.466	0.0690989	39.6352	0
204.466	0.0690989	39.6628	0
204.466	0.0690989	39.6904	0
204.466	0.0690989	39.7181	0
204.467	0.0690989	39.7457	0
204.467	0.0690989	39.7734	0
204.469	0.0690989	39.801	0
209.798	0.0690989	39.8286	0
209.799	0.0690989	39.8286	0
209.8	0.0690989	39.8563	0
209.801	0.0690989	39.8839	0
209.801	0.0690989	39.9116	0
209.801	0.0690989	39.9392	0
209.801	0.0690989	39.9668	0
209.801	0.0690989	39.9945	0
209.801	0.0690989	40.0221	0
218.844	0.0829187	40.0498	0
218.845	0.0829187	40.0498	0
218.846	0.0829187	40.0774	0
218.846	0.0829187	40.105	0
218.846	0.0829187	40.1327	0
218.847	0.0829187	40.1603	0
218.847	0.0829187	40.1879	0
218.847	0.0829187	40.2156	0
218.847	0.0829187	40.2432	0
218.847	0.0829187	40.2709	0
218.848	0.0829187	40.2985	0
218.849	0.0829187	40.3261	0
218.849	0.0829187	40.3538	0
218.85	0.0829187	40.3814	0
218.85	0.0829187	40.4091	0
218.851	0.0829187	40.4367	0
218.851	0.0829187	40.4643	0
218.851	0.0829187	40.492	0
218.852	0.0829187	40.5196	0
218.853	0.0829187	40.5473	0
218.854	0.0829187	40.5749	0
218.855	0.0829187	40.6025	0
218.856	0.0829187	40.6302	0
218.856	0.0829187	40.6578	0
218.856	0.0829187	40.6855	0
218.857	0.0829187	40.7131	0
218.859	0.0829187	40.7407	0
218.859	0.0829187	40.7684	0
218.86	0.0829187	40.796	0
218.86	0.0829187	40.8237	0
218.86	0.0829187	40.8513	0
218.862	0.0829187	40.8789	0
218.862	0.0829187	40.9066	0
218.863	0.0829187	40.9342	0
218.864	0.0829187	40.9619	0
218.866	0.0829187	40.9895	0
218.868	0.0829187	41.0171	0
218.868	0.0829187	41.0448	0
218.868	0.0829187	41.0724	0
218.869	0.0829187	41.1001	0
218.869	0.0829187	41.1277	0
218.87	0.0829187	41.1553	0
218.87	0.0829187	41.183	0
218.87	0.0829187	41.2106	0
218.872	0.0829187	41.2383	0
218.873	0.0829187	41.2659	0
218.873	0.0829187	41.2935	0
218.874	0.0829187	41.3212	0
218.875	0.0829187	41.3488	0
218.875	0.0829187	41.3765	0
218.875	0.0829187	41.4041	0
218.875	0.0829187	41.4317	0
218.875	0.0829187	41.4594	0
218.875	0.0829187	41.487	0
236.393	0.0829187	41.5146	0
236.393	0.0829187	41.5146	0
236.395	0.0829187	41.5423	0
236.395	0.0829187	41.5699	0
236.396	0.0829187	41.5976	0
236.396	0.0829187	41.6252	0
236.398	0.0829187	41.6528	0
236.398	0.0829187	41.6805	0
236.399	0.0829187	41.7081	0
236.399	0.0829187	41.7358	0
236.399	0.0829187	41.7634	0
236.401	0.0829187	41.791	0
236.401	0.0829187	41.8187	0
236.401	0.0829187	41.8463	0
236.402	0.0829187	41.874	0
236.402	0.0829187	41.9016	0
236.404	0.0829187	41.9292	0
236.404	0.0829187	41.9569	0
236.405	0.0829187	41.9845	0
236.405	0.0829187	42.0122	0
236.405	0.0829187	42.0398	0
236.407	0.0829187	42.0674	0
236.407	0.0829187	42.0951	0
236.407	0.0829187	42.1227	0
236.407	0.0829187	42.1504	0
236.407	0.0829187	42.178	0
236.408	0.0829187	42.2056	0
236.409	0.0829187	42.2333	0
236.41	0.0829187	42.2609	0
236.41	0.0829187	42.2886	0
236.412	0.0829187	42.3162	0
236.412	0.0829187	42.3438	0
236.412	0.0829187	42.3715	0
236.413	0.0829187	42.3991	0
236.414	0.0829187	42.4268	0
236.415	0.0829187	42.4544	0
236.416	0.0829187	42.482	0
236.416	0.0829187	42.5097	0
236.417	0.0829187	42.5373	0
236.418	0.0829187	42.565	0
236.42	0.0829187	42.5926	0
236.42	0.0829187	42.6202	0
236.42	0.0829187	42.6479	0
236.422	0.0829187	42.6755	0
236.423	0.0829187	42.7032	0
236.423	0.0829187	42.7308	0
236.423	0.0829187	42.7584	0
236.423	0.0829187	42.7861	0
236.424	0.0829187	42.8137	0
236.425	0.0829187	42.8413	0
236.426	0.0829187	42.869	0
236.426	0.0829187	42.8966	0
236.427	0.0829187	42.9243	0
236.428	0.0829187	42.9519	0
236.428	0.0829187	42.9795	0
236.428	0.0829187	43.0072	0
236.429	0.0829187	43.0348	0
236.43	0.0829187	43.0625	0
236.43	0.0829187	43.0901	0
236.43	0.0829187	43.1177	0
236.43	0.0829187	43.1454	0
236.43	0.0829187	43.173	0
236.431	0.0829187	43.2007	0
236.431	0.0829187	43.2283	0
236.431	0.0829187	43.2559	0
236.433	0.0829187	43.2836	0
236.433	0.0829187	43.3112	0
236.433	0.0829187	43.3389	0
236.433	0.0829187	43.3665	0
236.433	0.0829187	43.3941	0
236.433	0.0829187	43.4218	0
236.434	0.0829187	43.4494	0
236.434	0.0829187	43.4771	0
236.434	0.0829187	43.5047	0
236.434	0.0829187	43.5323	0
236.435	0.0829187	43.56	0
236.435	0.0829187	43.5876	0
236.436	0.0829187	43.6153	0
236.437	0.0829187	43.6429	0
236.437	0.0829187	43.6705	0
236.438	0.0829187	43.6982	0
236.438	0.0829187	43.7258	0
236.439	0.0829187	43.7535	0
236.439	0.0829187	43.7811	0
238.31	0.0829187	43.8087	0
238.311	0.0829187	43.8087	0
238.311	0.0829187	43.8364	0
238.312	0.0829187	43.864	0
238.312	0.0829187	43.8917	0
238.312	0.0829187	43.9193	0
238.313	0.0829187	43.9469	0
238.314	0.0829187	43.9746	0
238.315	0.0829187	44.0022	0
238.315	0.0829187	44.0299	0
238.315	0.0829187	44.0575	0
238.315	0.0829187	44.0851	0
238.316	0.0829187	44.1128	0
238.317	0.0829187	44.1404	0
238.317	0.0829187	44.168	0
238.317	0.0829187	44.1957	0
238.317	0.0829187	44.2233	0
238.318	0.0829187	44.251	0
238.318	0.0829187	44.2786	0
238.318	0.0829187	44.3062	0
238.319	0.0829187	44.3339	0
238.319	0.0829187	44.3615	0
238.319	0.0829187	44.3892	0
238.319	0.0829187	44.4168	0
238.319	0.0829187	44.4444	0
238.32	0.0829187	44.4721	0
238.32	0.0829187	44.4997	0
238.32	0.0829187	44.5274	0
238.32	0.0829187	44.555	0
238.32	0.0829187	44.5826	0
238.321	0.0829187	44.6103	0
238.321	0.0829187	44.6379	0
238.321	0.0829187	44.6656	0
238.321	0.0829187	44.6932	0
238.321	0.0829187	44.7208	0
238.321	0.0829187	44.7485	0
238.321	0.0829187	44.7761	0
238.321	0.0829187	44.8038	0
238.322	0.0829187	44.8314	0
238.322	0.0829187	44.859	0
238.322	0.0829187	44.8867	0
238.322	0.0829187	44.9143	0
238.324	0.0829187	44.942	0
238.324	0.0829187	44.9696	0
238.325	0.0829187	44.9972	0
238.325	0.0829187	45.0249	0
249.175	0.0967385	45.0525	0
249.175	0.0967385	45.0525	0
249.175	0.0967385	45.0802	0
249.176	0.0967385	45.1078	0
249.176	0.0967385	45.1354	0
249.177	0.0967385	45.1631	0
249.177	0.0967385	45.1907	0
249.177	0.0967385	45.2184	0
249.178	0.0967385	45.246	0
249.179	0.0967385	45.2736	0
249.18	0.0967385	45.3013	0
249.18	0.0967385	45.3289	0
249.181	0.0967385	45.3566	0
249.181	0.0967385	45.3842	0
249.182	0.0967385	45.4118	0
249.182	0.0967385	45.4395	0
249.182	0.0967385	45.4671	0
249.183	0.0967385	45.4947	0
249.183	0.0967385	45.5224	0
249.183	0.0967385	45.55	0
249.184	0.0967385	45.5777	0
249.184	0.0967385	45.6053	0
249.184	0.0967385	45.6329	0
249.184	0.0967385	45.6606	0
249.184	0.0967385	45.6882	0
249.185	0.0967385	45.7159	0
249.185	0.0967385	45.7435	0
249.185	0.0967385	45.7711	0
249.186	0.0967385	45.7988	0
249.187	0.0967385	45.8264	0
249.187	0.0967385	45.8541	0
249.187	0.0967385	45.8817	0
249.187	0.0967385	45.9093	0
249.187	0.0967385	45.937	0
249.188	0.0967385	45.9646	0
249.189	0.0967385	45.9923	0
249.19	0.0967385	46.0199	0
249.19	0.0967385	46.0475	0
249.191	0.0967385	46.0752	0
249.192	0.0967385	46.1028	0
249.192	0.0967385	46.1305	0
249.193	0.0967385	46.1581	0
249.193	0.0967385	46.1857	0
249.193	0.0967385	46.2134	0
249.194	0.0967385	46.241	0
249.194	0.0967385	46.2687	0
249.194	0.0967385	46.2963	0
249.195	0.0967385	46.3239	0
249.195	0.0967385	46.3516	0
249.195	0.0967385	46.3792	0
249.196	0.0967385	46.4069	0
249.196	0.0967385	46.4345	0
249.196	0.0967385	46.4621	0
249.196	0.0967385	46.4898	0
249.198	0.0967385	46.5174	0
249.333	0.110558	46.5451	0
249.333	0.110558	46.5451	0
249.333	0.110558	46.5727	0
249.335	0.110558	46.6003	0
249.335	0.110558	46.628	0
249.335	0.110558	46.6556	0
249.336	0.110558	46.6833	0
249.336	0.110558	46.7109	0
249.336	0.110558	46.7385	0
249.336	0.110558	46.7662	0
249.337	0.110558	46.7938	0
249.337	0.110558	46.8214	0
249.338	0.110558	46.8491	0
249.338	0.110558	46.8767	0
249.338	0.110558	46.9044	0
249.339	0.110558	46.932	0
249.34	0.110558	46.9596	0
249.341	0.110558	46.9873	0
249.342	0.110558	47.0149	0
249.342	0.110558	47.0426	0
249.343	0.110558	47.0702	0
249.343	0.110558	47.0978	0
249.343	0.110558	47.1255	0
249.344	0.110558	47.1531	0
249.344	0.110558	47.1808	0
249.345	0.110558	47.2084	0
249.345	0.110558	47.236	0
249.346	0.110558	47.2637	0
249.346	0.110558	47.2913	0
249.346	0.110558	47.319	0
249.346	0.110558	47.3466	0
249.347	0.110558	47.3742	0
249.347	0.110558	47.4019	0
249.347	0.110558	47.4295	0
249.347	0.110558	47.4572	0
249.349	0.110558	47.4848	0
249.349	0.110558	47.5124	0
249.35	0.110558	47.5401	0
249.35	0.110558	47.5677	0
249.351	0.110558	47.5954	0
249.352	0.110558	47.623	0
249.353	0.110558	47.6506	0
249.353	0.110558	47.6783	0
249.353	0.110558	47.7059	0
249.353	0.110558	47.7336	0
249.354	0.110558	47.7612	0
249.354	0.110558	47.7888	0
249.354	0.110558	47.8165	0
249.355	0.110558	47.8441	0
249.355	0.110558	47.8718	0
249.355	0.110558	47.8994	0
249.356	0.110558	47.927	0
249.356	0.110558	47.9547	0
249.356	0.110558	47.9823	0
249.357	0.110558	48.01	0
249.358	0.110558	48.0376	0
249.358	0.110558	48.0652	0
249.358	0.110558	48.0929	0
249.359	0.110558	48.1205	0
249.359	0.110558	48.1481	0
249.36	0.110558	48.1758	0
249.36	0.110558	48.2034	0
249.36	0.110558	48.2311	0
249.361	0.110558	48.2587	0
249.361	0.110558	48.2863	0
249.363	0.110558	48.314	0
249.363	0.110558	48.3416	0
249.364	0.110558	48.3693	0
249.365	0.110558	48.3969	0
249.365	0.110558	48.4245	0
249.365	0.110558	48.4522	0
249.365	0.110558	48.4798	0
249.366	0.110558	48.5075	0
249.367	0.110558	48.5351	0
249.368	0.110558	48.5627	0
249.368	0.110558	48.5904	0
249.369	0.110558	48.618	0
249.369	0.110558	48.6457	0
249.369	0.110558	48.6733	0
249.37	0.110558	48.7009	0
271.02	0.110558	48.7286	0
271.021	0.110558	48.7286	0
271.021	0.110558	48.7562	0
271.021	0.110558	48.7839	0
271.021	0.110558	48.8115	0
271.021	0.110558	48.8391	0
271.021	0.110558	48.8668	0
271.022	0.110558	48.8944	0
271.022	0.110558	48.9221	0
271.022	0.110558	48.9497	0
271.023	0.110558	48.9773	0
271.024	0.110558	49.005	0
271.024	0.110558	49.0326	0
271.024	0.110558	49.0603	0
271.025	0.110558	49.0879	0
271.025	0.110558	49.1155	0
271.026	0.110558	49.1432	0
271.026	0.110558	49.1708	0
271.027	0.110558	49.1985	0
271.028	0.110558	49.2261	0
271.028	0.110558	49.2537	0
271.028	0.110558	49.2814	0
271.029	0.110558	49.309	0
271.03	0.110558	49.3367	0
271.03	0.110558	49.3643	0
271.03	0.110558	49.3919	0
271.031	0.110558	49.4196	0
271.031	0.110558	49.4472	0
271.032	0.110558	49.4748	0
271.032	0.110558	49.5025	0
271.034	0.110558	49.5301	0
271.035	0.110558	49.5578	0
271.035	0.110558	49.5854	0
271.036	0.110558	49.613	0
271.037	0.110558	49.6407	0
271.037	0.110558	49.6683	0
271.038	0.110558	49.696	0
271.038	0.110558	49.7236	0
271.039	0.110558	49.7512	0
271.039	0.110558	49.7789	0
271.04	0.110558	49.8065	0
271.04	0.110558	49.8342	0
271.042	0.110558	49.8618	0
271.043	0.110558	49.8894	0
271.044	0.110558	49.9171	0
271.044	0.110558	49.9447	0
271.045	0.110558	49.9724	0
271.046	0.110558	50	0
271.046	0.110558	50.0276	0
271.048	0.110558	50.0553	0
271.049	0.110558	50.0829	0
271.049	0.110558	50.1106	0
271.05	0.110558	50.1382	0
271.05	0.110558	50.1658	0
271.05	0.110558	50.1935	0
271.051	0.110558	50.2211	0
271.052	0.110558	50.2488	0
271.052	0.110558	50.2764	0
271.052	0.110558	50.304	0
271.053	0.110558	50.3317	0
271.053	0.110558	50.3593	0
271.053	0.110558	50.387	0
271.054	0.110558	50.4146	0
271.054	0.110558	50.4422	0
271.055	0.110558	50.4699	0
271.056	0.110558	50.4975	0
271.056	0.110558	50.5252	0
271.056	0.110558	50.5528	0
271.056	0.110558	50.5804	0
271.057	0.110558	50.6081	0
271.058	0.110558	50.6357	0
271.058	0.110558	50.6633	0
271.059	0.110558	50.691	0
272.437	0.110558	50.7186	0
272.437	0.110558	50.7186	0
272.437	0.110558	50.7463	0
272.437	0.110558	50.7739	0
272.438	0.110558	50.8015	0
272.439	0.110558	50.8292	0
272.439	0.110558	50.8568	0
272.439	0.110558	50.8845	0
272.439	0.110558	50.9121	0
272.439	0.110558	50.9397	0
272.44	0.110558	50.9674	0
272.441	0.110558	50.995	0
272.443	0.110558	51.0227	0
272.443	0.110558	51.0503	0
272.444	0.110558	51.0779	0
272.445	0.110558	51.1056	0
272.445	0.110558	51.1332	0
272.445	0.110558	51.1609	0
304.071	0.124378	51.1885	0
304.071	0.124378	51.1885	0
304.071	0.124378	51.2161	0
304.072	0.124378	51.2438	0
304.072	0.124378	51.2714	0
304.072	0.124378	51.2991	0
304.074	0.124378	51.3267	0
304.075	0.124378	51.3543	0
304.076	0.124378	51.382	0
304.076	0.124378	51.4096	0
304.076	0.124378	51.4373	0
304.076	0.124378	51.4649	0
304.076	0.124378	51.4925	0
304.077	0.124378	51.5202	0
304.078	0.124378	51.5478	0
304.078	0.124378	51.5755	0
304.079	0.124378	51.6031	0
304.08	0.124378	51.6307	0
304.08	0.124378	51.6584	0
304.082	0.124378	51.686	0
304.082	0.124378	51.7137	0
304.082	0.124378	51.7413	0
304.084	0.124378	51.7689	0
304.084	0.124378	51.7966	0
304.084	0.124378	51.8242	0
304.085	0.124378	51.8519	0
304.085	0.124378	51.8795	0
304.087	0.124378	51.9071	0
304.087	0.124378	51.9348	0
308.535	0.138198	51.9624	0
308.535	0.138198	51.9624	0
308.536	0.138198	51.99	0
308.538	0.138198	52.0177	0
308.539	0.138198	52.0453	0
308.54	0.138198	52.073	0
308.54	0.138198	52.1006	0
308.54	0.138198	52.1282	0
308.541	0.138198	52.1559	0
308.541	0.138198	52.1835	0
308.541	0.138198	52.2112	0
308.542	0.138198	52.2388	0
308.542	0.138198	52.2664	0
308.543	0.138198	52.2941	0
308.543	0.138198	52.3217	0
308.544	0.138198	52.3494	0
308.544	0.138198	52.377	0
308.544	0.138198	52.4046	0
308.544	0.138198	52.4323	0
308.544	0.138198	52.4599	0
308.546	0.138198	52.4876	0
308.546	0.138198	52.5152	0
308.547	0.138198	52.5428	0
308.547	0.138198	52.5705	0
308.548	0.138198	52.5981	0
308.548	0.138198	52.6258	0
308.549	0.138198	52.6534	0
308.549	0.138198	52.681	0
308.55	0.138198	52.7087	0
308.551	0.138198	52.7363	0
308.551	0.138198	52.764	0
308.551	0.138198	52.7916	0
308.552	0.138198	52.8192	0
308.553	0.138198	52.8469	0
308.553	0.138198	52.8745	0
308.553	0.138198	52.9022	0
308.553	0.138198	52.9298	0
308.554	0.138198	52.9574	0
308.554	0.138198	52.9851	0
308.554	0.138198	53.0127	0
308.555	0.138198	53.0404	0
308.556	0.138198	53.068	0
308.556	0.138198	53.0956	0
308.556	0.138198	53.1233	0
308.557	0.138198	53.1509	0
308.558	0.138198	53.1786	0
308.558	0.138198	53.2062	0
308.561	0.138198	53.2338	0
308.562	0.138198	53.2615	0
308.563	0.138198	53.2891	0
308.564	0.138198	53.3167	0
308.565	0.138198	53.3444	0
308.565	0.138198	53.372	0
308.565	0.138198	53.3997	0
308.566	0.138198	53.4273	0
308.566	0.138198	53.4549	0
308.567	0.138198	53.4826	0
308.567	0.138198	53.5102	0
308.567	0.138198	53.5379	0
308.568	0.138198	53.5655	0
308.568	0.138198	53.5931	0
308.568	0.138198	53.6208	0
308.569	0.138198	53.6484	0
308.569	0.138198	53.6761	0
308.569	0.138198	53.7037	0
308.569	0.138198	53.7313	0
308.57	0.138198	53.759	0
308.571	0.138198	53.7866	0
308.571	0.138198	53.8143	0
308.571	0.138198	53.8419	0
308.572	0.138198	53.8695	0
308.573	0.138198	53.8972	0
308.574	0.138198	53.9248	0
308.574	0.138198	53.9525	0
308.576	0.138198	53.9801	0
308.578	0.138198	54.0077	0
308.579	0.138198	54.0354	0
308.579	0.138198	54.063	0
308.581	0.138198	54.0907	0
308.581	0.138198	54.1183	0
308.582	0.138198	54.1459	0
308.582	0.138198	54.1736	0
308.582	0.138198	54.2012	0
308.584	0.138198	54.2289	0
308.584	0.138198	54.2565	0
308.584	0.138198	54.2841	0
322.212	0.138198	54.3118	0
322.213	0.138198	54.3118	0
322.213	0.138198	54.3394	0
322.214	0.138198	54.3671	0
322.214	0.138198	54.3947	0
322.215	0.138198	54.4223	0
322.215	0.138198	54.45	0
322.216	0.138198	54.4776	0
322.216	0.138198	54.5053	0
322.216	0.138198	54.5329	0
322.216	0.138198	54.5605	0
322.217	0.138198	54.5882	0
322.217	0.138198	54.6158	0
322.218	0.138198	54.6434	0
322.219	0.138198	54.6711	0
322.22	0.138198	54.6987	0
322.22	0.138198	54.7264	0
322.22	0.138198	54.754	0
322.22	0.138198	54.7816	0
322.22	0.138198	54.8093	0
322.221	0.138198	54.8369	0
322.221	0.138198	54.8646	0
322.221	0.138198	54.8922	0
322.222	0.138198	54.9198	0
322.222	0.138198	54.9475	0
322.222	0.138198	54.9751	0
322.224	0.138198	55.0028	0
322.224	0.138198	55.0304	0
322.225	0.138198	55.058	0
322.226	0.138198	55.0857	0
322.227	0.138198	55.1133	0
322.228	0.138198	55.141	0
322.228	0.138198	55.1686	0
322.228	0.138198	55.1962	0
322.229	0.138198	55.2239	0
322.229	0.138198	55.2515	0
322.23	0.138198	55.2792	0
322.231	0.138198	55.3068	0
322.231	0.138198	55.3344	0
322.231	0.138198	55.3621	0
322.231	0.138198	55.3897	0
322.231	0.138198	55.4174	0
322.232	0.138198	55.445	0
322.232	0.138198	55.4726	0
322.233	0.138198	55.5003	0
322.233	0.138198	55.5279	0
322.233	0.138198	55.5556	0
322.233	0.138198	55.5832	0
322.235	0.138198	55.6108	0
322.235	0.138198	55.6385	0
322.236	0.138198	55.6661	0
322.237	0.138198	55.6938	0
322.237	0.138198	55.7214	0
322.237	0.138198	55.749	0
322.237	0.138198	55.7767	0
322.238	0.138198	55.8043	0
322.239	0.138198	55.832	0
322.24	0.138198	55.8596	0
322.24	0.138198	55.8872	0
322.241	0.138198	55.9149	0
322.242	0.138198	55.9425	0
322.243	0.138198	55.9701	0
322.243	0.138198	55.9978	0
322.243	0.138198	56.0254	0
322.244	0.138198	56.0531	0
322.246	0.138198	56.0807	0
322.247	0.138198	56.1083	0
322.247	0.138198	56.136	0
322.248	0.138198	56.1636	0
322.248	0.138198	56.1913	0
322.248	0.138198	56.2189	0
322.249	0.138198	56.2465	0
322.251	0.138198	56.2742	0
322.253	0.138198	56.3018	0
322.253	0.138198	56.3295	0
322.254	0.138198	56.3571	0
322.255	0.138198	56.3847	0
322.255	0.138198	56.4124	0
322.256	0.138198	56.44	0
322.256	0.138198	56.4677	0
322.257	0.138198	56.4953	0
322.258	0.138198	56.5229	0
322.258	0.138198	56.5506	0
322.258	0.138198	56.5782	0
322.259	0.138198	56.6059	0
322.259	0.138198	56.6335	0
322.259	0.138198	56.6611	0
322.26	0.138198	56.6888	0
322.26	0.138198	56.7164	0
322.977	0.138198	56.7441	0
322.977	0.138198	56.7441	0
322.978	0.138198	56.7717	0
322.978	0.138198	56.7993	0
322.979	0.138198	56.827	0
322.979	0.138198	56.8546	0
322.979	0.138198	56.8823	0
322.98	0.138198	56.9099	0
322.98	0.138198	56.9375	0
322.981	0.138198	56.9652	0
322.983	0.138198	56.9928	0
322.984	0.138198	57.0205	0
322.984	0.138198	57.0481	0
322.984	0.138198	57.0757	0
322.985	0.138198	57.1034	0
322.987	0.138198	57.131	0
322.987	0.138198	57.1587	0
322.989	0.138198	57.1863	0
322.989	0.138198	57.2139	0
322.989	0.138198	57.2416	0
322.99	0.138198	57.2692	0
322.99	0.138198	57.2968	0
322.991	0.138198	57.3245	0
322.991	0.138198	57.3521	0
322.992	0.138198	57.3798	0
322.992	0.138198	57.4074	0
322.992	0.138198	57.435	0
322.993	0.138198	57.4627	0
322.993	0.138198	57.4903	0
322.994	0.138198	57.518	0
322.995	0.138198	57.5456	0
322.995	0.138198	57.5732	0
322.995	0.138198	57.6009	0
322.997	0.138198	57.6285	0
322.997	0.138198	57.6562	0
322.997	0.138198	57.6838	0
322.997	0.138198	57.7114	0
322.998	0.138198	57.7391	0
322.998	0.138198	57.7667	0
323	0.138198	57.7944	0
323.001	0.138198	57.822	0
323.001	0.138198	57.8496	0
323.001	0.138198	57.8773	0
323.001	0.138198	57.9049	0
323.001	0.138198	57.9326	0
323.002	0.138198	57.9602	0
323.003	0.138198	57.9878	0
323.003	0.138198	58.0155	0
323.003	0.138198	58.0431	0
323.003	0.138198	58.0708	0
323.004	0.138198	58.0984	0
323.004	0.138198	58.126	0
323.004	0.138198	58.1537	0
323.004	0.138198	58.1813	0
323.005	0.138198	58.209	0
323.005	0.138198	58.2366	0
323.005	0.138198	58.2642	0
323.007	0.138198	58.2919	0
331.316	0.138198	58.3195	0
331.316	0.138198	58.3195	0
331.316	0.138198	58.3472	0
331.317	0.138198	58.3748	0
331.317	0.138198	58.4024	0
331.318	0.138198	58.4301	0
331.319	0.138198	58.4577	0
331.32	0.138198	58.4854	0
331.32	0.138198	58.513	0
331.321	0.138198	58.5406	0
331.322	0.138198	58.5683	0
331.322	0.138198	58.5959	0
331.322	0.138198	58.6235	0
331.323	0.138198	58.6512	0
331.323	0.138198	58.6788	0
331.323	0.138198	58.7065	0
331.654	0.152018	58.7341	0
331.654	0.152018	58.7341	0
331.655	0.152018	58.7617	0
331.656	0.152018	58.7894	0
331.656	0.152018	58.817	0
331.657	0.152018	58.8447	0
331.657	0.152018	58.8723	0
331.658	0.152018	58.8999	0
331.658	0.152018	58.9276	0
331.658	0.152018	58.9552	0
331.658	0.152018	58.9829	0
331.659	0.152018	59.0105	0
331.659	0.152018	59.0381	0
331.66	0.152018	59.0658	0
331.66	0.152018	59.0934	0
331.66	0.152018	59.1211	0
331.66	0.152018	59.1487	0
331.66	0.152018	59.1763	0
331.661	0.152018	59.204	0
331.661	0.152018	59.2316	0
331.662	0.152018	59.2593	0
331.663	0.152018	59.2869	0
331.663	0.152018	59.3145	0
331.665	0.152018	59.3422	0
331.665	0.152018	59.3698	0
331.666	0.152018	59.3975	0
331.666	0.152018	59.4251	0
331.667	0.152018	59.4527	0
331.667	0.152018	59.4804	0
331.668	0.152018	59.508	0
331.668	0.152018	59.5357	0
331.669	0.152018	59.5633	0
331.669	0.152018	59.5909	0
331.67	0.152018	59.6186	0
331.671	0.152018	59.6462	0
331.671	0.152018	59.6739	0
331.673	0.152018	59.7015	0
331.673	0.152018	59.7291	0
331.675	0.152018	59.7568	0
331.676	0.152018	59.7844	0
331.676	0.152018	59.8121	0
331.676	0.152018	59.8397	0
331.676	0.152018	59.8673	0
331.677	0.152018	59.895	0
331.679	0.152018	59.9226	0
331.679	0.152018	59.9502	0
331.68	0.152018	59.9779	0
331.68	0.152018	60.0055	0
331.681	0.152018	60.0332	0
331.681	0.152018	60.0608	0
331.681	0.152018	60.0884	0
331.682	0.152018	60.1161	0
331.682	0.152018	60.1437	0
331.683	0.152018	60.1714	0
331.683	0.152018	60.199	0
331.683	0.152018	60.2266	0
331.683	0.152018	60.2543	0
331.683	0.152018	60.2819	0
331.684	0.152018	60.3096	0
331.685	0.152018	60.3372	0
331.685	0.152018	60.3648	0
331.685	0.152018	60.3925	0
331.685	0.152018	60.4201	0
331.685	0.152018	60.4478	0
331.686	0.152018	60.4754	0
331.687	0.152018	60.503	0
331.688	0.152018	60.5307	0
331.689	0.152018	60.5583	0
331.689	0.152018	60.586	0
331.69	0.152018	60.6136	0
331.691	0.152018	60.6412	0
331.691	0.152018	60.6689	0
331.691	0.152018	60.6965	0
331.693	0.152018	60.7242	0
331.693	0.152018	60.7518	0
331.694	0.152018	60.7794	0
331.694	0.152018	60.8071	0
331.694	0.152018	60.8347	0
331.695	0.152018	60.8624	0
331.695	0.152018	60.89	0
331.695	0.152018	60.9176	0
331.695	0.152018	60.9453	0
332.161	0.152018	60.9729	0
332.162	0.152018	60.9729	0
332.163	0.152018	61.0006	0
332.163	0.152018	61.0282	0
332.163	0.152018	61.0558	0
332.164	0.152018	61.0835	0
332.164	0.152018	61.1111	0
332.164	0.152018	61.1388	0
332.165	0.152018	61.1664	0
332.165	0.152018	61.194	0
332.165	0.152018	61.2217	0
332.165	0.152018	61.2493	0
332.165	0.152018	61.2769	0
332.167	0.152018	61.3046	0
332.169	0.152018	61.3322	0
332.169	0.152018	61.3599	0
332.17	0.152018	61.3875	0
332.17	0.152018	61.4151	0
332.171	0.152018	61.4428	0
332.172	0.152018	61.4704	0
332.172	0.152018	61.4981	0
332.173	0.152018	61.5257	0
332.174	0.152018	61.5533	0
332.174	0.152018	61.581	0
332.175	0.152018	61.6086	0
332.175	0.152018	61.6363	0
332.177	0.152018	61.6639	0
332.177	0.152018	61.6915	0
332.177	0.152018	61.7192	0
332.177	0.152018	61.7468	0
332.178	0.152018	61.7745	0
332.178	0.152018	61.8021	0
332.178	0.152018	61.8297	0
332.179	0.152018	61.8574	0
332.179	0.152018	61.885	0
332.18	0.152018	61.9127	0
332.18	0.152018	61.9403	0
332.181	0.152018	61.9679	0
332.181	0.152018	61.9956	0
332.181	0.152018	62.0232	0
332.181	0.152018	62.0509	0
332.182	0.152018	62.0785	0
332.182	0.152018	62.1061	0
332.183	0.152018	62.1338	0
332.183	0.152018	62.1614	0
332.184	0.152018	62.1891	0
332.184	0.152018	62.2167	0
332.185	0.152018	62.2443	0
332.185	0.152018	62.272	0
332.186	0.152018	62.2996	0
332.186	0.152018	62.3273	0
332.188	0.152018	62.3549	0
332.188	0.152018	62.3825	0
332.191	0.152018	62.4102	0
338.985	0.152018	62.4378	0
338.985	0.152018	62.4378	0
338.985	0.152018	62.4655	0
338.985	0.152018	62.4931	0
338.986	0.152018	62.5207	0
338.986	0.152018	62.5484	0
338.987	0.152018	62.576	0
338.988	0.152018	62.6036	0
338.99	0.152018	62.6313	0
338.991	0.152018	62.6589	0
338.991	0.152018	62.6866	0
338.991	0.152018	62.7142	0
338.992	0.152018	62.7418	0
338.992	0.152018	62.7695	0
338.993	0.152018	62.7971	0
338.993	0.152018	62.8248	0
338.993	0.152018	62.8524	0
338.993	0.152018	62.88	0
338.994	0.152018	62.9077	0
338.996	0.152018	62.9353	0
338.996	0.152018	62.963	0
338.996	0.152018	62.9906	0
341.793	0.165837	63.0182	0
341.794	0.165837	63.0182	0
341.794	0.165837	63.0459	0
341.796	0.165837	63.0735	0
348.145	0.165837	63.1012	0
348.145	0.165837	63.1012	0
348.146	0.165837	63.1288	0
348.147	0.165837	63.1564	0
348.147	0.165837	63.1841	0
348.147	0.165837	63.2117	0
348.147	0.165837	63.2394	0
348.147	0.165837	63.267	0
348.147	0.165837	63.2946	0
348.148	0.165837	63.3223	0
348.149	0.165837	63.3499	0
348.15	0.165837	63.3776	0
348.15	0.165837	63.4052	0
348.151	0.165837	63.4328	0
348.154	0.165837	63.4605	0
348.154	0.165837	63.4881	0
348.155	0.165837	63.5158	0
348.156	0.165837	63.5434	0
348.344	0.179657	63.571	0
348.344	0.179657	63.571	0
348.345	0.179657	63.5987	0
348.345	0.179657	63.6263	0
348.345	0.179657	63.654	0
348.347	0.179657	63.6816	0
348.347	0.179657	63.7092	0
348.347	0.179657	63.7369	0
348.347	0.179657	63.7645	0
348.349	0.179657	63.7922	0
348.35	0.179657	63.8198	0
348.351	0.179657	63.8474	0
348.352	0.179657	63.8751	0
348.352	0.179657	63.9027	0
348.352	0.179657	63.9303	0
348.353	0.179657	63.958	0
348.353	0.179657	63.9856	0
348.353	0.179657	64.0133	0
348.353	0.179657	64.0409	0
348.354	0.179657	64.0685	0
348.354	0.179657	64.0962	0
348.355	0.179657	64.1238	0
348.355	0.179657	64.1515	0
348.357	0.179657	64.1791	0
348.357	0.179657	64.2067	0
348.357	0.179657	64.2344	0
348.357	0.179657	64.262	0
348.359	0.179657	64.2897	0
348.359	0.179657	64.3173	0
348.359	0.179657	64.3449	0
348.359	0.179657	64.3726	0
348.36	0.179657	64.4002	0
348.36	0.179657	64.4279	0
348.36	0.179657	64.4555	0
348.361	0.179657	64.4831	0
348.361	0.179657	64.5108	0
348.363	0.179657	64.5384	0
348.363	0.179657	64.5661	0
348.364	0.179657	64.5937	0
348.365	0.179657	64.6213	0
348.366	0.179657	64.649	0
348.366	0.179657	64.6766	0
348.366	0.179657	64.7043	0
348.368	0.179657	64.7319	0
348.368	0.179657	64.7595	0
348.369	0.179657	64.7872	0
348.369	0.179657	64.8148	0
348.369	0.179657	64.8425	0
360.336	0.193477	64.8701	0
360.337	0.193477	64.8701	0
360.337	0.193477	64.8977	0
360.339	0.193477	64.9254	0
360.34	0.193477	64.953	0
360.341	0.193477	64.9807	0
360.341	0.193477	65.0083	0
360.342	0.193477	65.0359	0
360.343	0.193477	65.0636	0
360.343	0.193477	65.0912	0
360.344	0.193477	65.1189	0
360.344	0.193477	65.1465	0
360.344	0.193477	65.1741	0
360.345	0.193477	65.2018	0
360.345	0.193477	65.2294	0
360.345	0.193477	65.257	0
360.347	0.193477	65.2847	0
360.347	0.193477	65.3123	0
360.347	0.193477	65.34	0
360.347	0.193477	65.3676	0
360.347	0.193477	65.3952	0
360.347	0.193477	65.4229	0
360.347	0.193477	65.4505	0
360.347	0.193477	65.4782	0
360.348	0.193477	65.5058	0
360.348	0.193477	65.5334	0
360.348	0.193477	65.5611	0
360.348	0.193477	65.5887	0
360.349	0.193477	65.6164	0
360.349	0.193477	65.644	0
366.531	0.193477	65.6716	0
366.533	0.193477	65.6716	0
366.533	0.193477	65.6993	0
366.533	0.193477	65.7269	0
366.534	0.193477	65.7546	0
366.534	0.193477	65.7822	0
366.534	0.193477	65.8098	0
366.535	0.193477	65.8375	0
366.536	0.193477	65.8651	0
366.537	0.193477	65.8928	0
366.537	0.193477	65.9204	0
366.537	0.193477	65.948	0
366.538	0.193477	65.9757	0
366.539	0.193477	66.0033	0
366.539	0.193477	66.031	0
366.54	0.193477	66.0586	0
366.54	0.193477	66.0862	0
366.541	0.193477	66.1139	0
366.542	0.193477	66.1415	0
366.542	0.193477	66.1692	0
366.543	0.193477	66.1968	0
366.543	0.193477	66.2244	0
366.544	0.193477	66.2521	0
366.544	0.193477	66.2797	0
366.544	0.193477	66.3074	0
366.545	0.193477	66.335	0
366.545	0.193477	66.3626	0
366.545	0.193477	66.3903	0
366.546	0.193477	66.4179	0
366.546	0.193477	66.4456	0
366.547	0.193477	66.4732	0
366.547	0.193477	66.5008	0
366.547	0.193477	66.5285	0
366.547	0.193477	66.5561	0
366.548	0.193477	66.5837	0
366.548	0.193477	66.6114	0
366.548	0.193477	66.639	0
366.548	0.193477	66.6667	0
366.549	0.193477	66.6943	0
366.549	0.193477	66.7219	0
366.55	0.193477	66.7496	0
366.551	0.193477	66.7772	0
366.551	0.193477	66.8049	0
366.552	0.193477	66.8325	0
366.552	0.193477	66.8601	0
366.552	0.193477	66.8878	0
366.553	0.193477	66.9154	0
366.554	0.193477	66.9431	0
366.554	0.193477	66.9707	0
366.556	0.193477	66.9983	0
366.556	0.193477	67.026	0
366.556	0.193477	67.0536	0
366.557	0.193477	67.0813	0
366.557	0.193477	67.1089	0
366.559	0.193477	67.1365	0
366.56	0.193477	67.1642	0
384.452	0.193477	67.1918	0
384.452	0.193477	67.1918	0
384.452	0.193477	67.2195	0
384.454	0.193477	67.2471	0
384.454	0.193477	67.2747	0
384.455	0.193477	67.3024	0
384.456	0.193477	67.33	0
384.457	0.193477	67.3577	0
384.457	0.193477	67.3853	0
384.457	0.193477	67.4129	0
384.457	0.193477	67.4406	0
384.457	0.193477	67.4682	0
384.458	0.193477	67.4959	0
384.458	0.193477	67.5235	0
384.459	0.193477	67.5511	0
384.459	0.193477	67.5788	0
384.46	0.193477	67.6064	0
390.76	0.207297	67.6341	0
390.761	0.207297	67.6341	0
390.762	0.207297	67.6617	0
390.762	0.207297	67.6893	0
390.764	0.207297	67.717	0
390.765	0.207297	67.7446	0
390.766	0.207297	67.7722	0
390.767	0.207297	67.7999	0
390.767	0.207297	67.8275	0
390.768	0.207297	67.8552	0
390.769	0.207297	67.8828	0
390.77	0.207297	67.9104	0
390.77	0.207297	67.9381	0
390.771	0.207297	67.9657	0
390.772	0.207297	67.9934	0
390.772	0.207297	68.021	0
390.772	0.207297	68.0486	0
390.772	0.207297	68.0763	0
390.772	0.207297	68.1039	0
390.774	0.207297	68.1316	0
390.774	0.207297	68.1592	0
390.774	0.207297	68.1868	0
390.775	0.207297	68.2145	0
390.776	0.207297	68.2421	0
390.776	0.207297	68.2698	0
390.777	0.207297	68.2974	0
392.718	0.207297	68.325	0
392.719	0.207297	68.325	0
392.719	0.207297	68.3527	0
392.72	0.207297	68.3803	0
392.722	0.207297	68.408	0
392.722	0.207297	68.4356	0
397.898	0.207297	68.4632	0
397.899	0.207297	68.4632	0
397.899	0.207297	68.4909	0
397.9	0.207297	68.5185	0
397.9	0.207297	68.5462	0
397.9	0.207297	68.5738	0
397.9	0.207297	68.6014	0
397.9	0.207297	68.6291	0
397.901	0.207297	68.6567	0
397.902	0.207297	68.6844	0
397.902	0.207297	68.712	0
397.902	0.207297	68.7396	0
397.902	0.207297	68.7673	0
397.902	0.207297	68.7949	0
397.905	0.207297	68.8226	0
397.905	0.207297	68.8502	0
397.905	0.207297	68.8778	0
397.906	0.207297	68.9055	0
397.906	0.207297	68.9331	0
397.906	0.207297	68.9608	0
397.906	0.207297	68.9884	0
397.907	0.207297	69.016	0
397.907	0.207297	69.0437	0
397.907	0.207297	69.0713	0
397.908	0.207297	69.0989	0
397.909	0.207297	69.1266	0
397.909	0.207297	69.1542	0
397.909	0.207297	69.1819	0
397.91	0.207297	69.2095	0
397.91	0.207297	69.2371	0
397.911	0.207297	69.2648	0
397.911	0.207297	69.2924	0
397.912	0.207297	69.3201	0
397.913	0.207297	69.3477	0
397.913	0.207297	69.3753	0
397.913	0.207297	69.403	0
397.914	0.207297	69.4306	0
397.914	0.207297	69.4583	0
397.914	0.207297	69.4859	0
397.916	0.207297	69.5135	0
397.918	0.207297	69.5412	0
397.921	0.207297	69.5688	0
397.922	0.207297	69.5965	0
397.923	0.207297	69.6241	0
397.924	0.207297	69.6517	0
408.957	0.207297	69.6794	0
408.957	0.207297	69.6794	0
408.957	0.207297	69.707	0
408.958	0.207297	69.7347	0
408.958	0.207297	69.7623	0
408.959	0.207297	69.7899	0
408.959	0.207297	69.8176	0
408.96	0.207297	69.8452	0
408.961	0.207297	69.8729	0
408.961	0.207297	69.9005	0
408.961	0.207297	69.9281	0
408.964	0.207297	69.9558	0
408.964	0.207297	69.9834	0
408.965	0.207297	70.0111	0
408.966	0.207297	70.0387	0
408.966	0.207297	70.0663	0
408.967	0.207297	70.094	0
408.968	0.207297	70.1216	0
408.968	0.207297	70.1493	0
408.97	0.207297	70.1769	0
408.97	0.207297	70.2045	0
408.97	0.207297	70.2322	0
408.97	0.207297	70.2598	0
408.971	0.207297	70.2875	0
408.971	0.207297	70.3151	0
408.972	0.207297	70.3427	0
408.973	0.207297	70.3704	0
408.973	0.207297	70.398	0
408.974	0.207297	70.4256	0
408.974	0.207297	70.4533	0
408.974	0.207297	70.4809	0
408.976	0.207297	70.5086	0
408.976	0.207297	70.5362	0
408.977	0.207297	70.5638	0
408.977	0.207297	70.5915	0
408.977	0.207297	70.6191	0
408.977	0.207297	70.6468	0
408.977	0.207297	70.6744	0
408.978	0.207297	70.702	0
408.978	0.207297	70.7297	0
408.979	0.207297	70.7573	0
408.979	0.207297	70.785	0
408.98	0.207297	70.8126	0
408.98	0.207297	70.8402	0
408.981	0.207297	70.8679	0
408.982	0.207297	70.8955	0
408.982	0.207297	70.9232	0
408.982	0.207297	70.9508	0
408.982	0.207297	70.9784	0
408.983	0.207297	71.0061	0
408.984	0.207297	71.0337	0
408.985	0.207297	71.0614	0
408.985	0.207297	71.089	0
408.986	0.207297	71.1166	0
408.986	0.207297	71.1443	0
408.988	0.207297	71.1719	0
408.988	0.207297	71.1996	0
408.989	0.207297	71.2272	0
408.99	0.207297	71.2548	0
408.99	0.207297	71.2825	0
408.991	0.207297	71.3101	0
408.991	0.207297	71.3378	0
408.992	0.207297	71.3654	0
408.992	0.207297	71.393	0
408.992	0.207297	71.4207	0
408.993	0.207297	71.4483	0
408.993	0.207297	71.476	0
408.995	0.207297	71.5036	0
408.995	0.207297	71.5312	0
408.995	0.207297	71.5589	0
408.996	0.207297	71.5865	0
408.996	0.207297	71.6142	0
408.997	0.207297	71.6418	0
408.998	0.207297	71.6694	0
409	0.207297	71.6971	0
409	0.207297	71.7247	0
409.001	0.207297	71.7523	0
409.001	0.207297	71.78	0
409.002	0.207297	71.8076	0
410.631	0.207297	71.8353	0
410.631	0.207297	71.8353	0
410.633	0.207297	71.8629	0
410.633	0.207297	71.8905	0
410.633	0.207297	71.9182	0
410.634	0.207297	71.9458	0
410.634	0.207297	71.9735	0
410.635	0.207297	72.0011	0
410.635	0.207297	72.0287	0
410.635	0.207297	72.0564	0
410.636	0.207297	72.084	0
410.636	0.207297	72.1117	0
410.636	0.207297	72.1393	0
410.638	0.207297	72.1669	0
410.638	0.207297	72.1946	0
410.64	0.207297	72.2222	0
410.64	0.207297	72.2499	0
410.64	0.207297	72.2775	0
410.642	0.207297	72.3051	0
410.642	0.207297	72.3328	0
410.642	0.207297	72.3604	0
410.642	0.207297	72.3881	0
410.643	0.207297	72.4157	0
410.644	0.207297	72.4433	0
410.645	0.207297	72.471	0
410.645	0.207297	72.4986	0
410.646	0.207297	72.5263	0
410.646	0.207297	72.5539	0
410.646	0.207297	72.5815	0
410.647	0.207297	72.6092	0
410.647	0.207297	72.6368	0
410.647	0.207297	72.6645	0
410.647	0.207297	72.6921	0
410.648	0.207297	72.7197	0
410.648	0.207297	72.7474	0
410.648	0.207297	72.775	0
410.648	0.207297	72.8027	0
410.648	0.207297	72.8303	0
410.649	0.207297	72.8579	0
410.649	0.207297	72.8856	0
410.649	0.207297	72.9132	0
410.65	0.207297	72.9409	0
410.651	0.207297	72.9685	0
410.651	0.207297	72.9961	0
410.652	0.207297	73.0238	0
410.652	0.207297	73.0514	0
410.652	0.207297	73.079	0
410.655	0.207297	73.1067	0
415.923	0.207297	73.1343	0
415.924	0.207297	73.1343	0
415.924	0.207297	73.162	0
415.926	0.207297	73.1896	0
415.926	0.207297	73.2172	0
415.926	0.207297	73.2449	0
415.926	0.207297	73.2725	0
415.926	0.207297	73.3002	0
415.927	0.207297	73.3278	0
415.927	0.207297	73.3554	0
415.927	0.207297	73.3831	0
415.928	0.207297	73.4107	0
415.928	0.207297	73.4384	0
415.929	0.207297	73.466	0
415.93	0.207297	73.4936	0
415.93	0.207297	73.5213	0
415.93	0.207297	73.5489	0
415.93	0.207297	73.5766	0
415.931	0.207297	73.6042	0
415.931	0.207297	73.6318	0
415.931	0.207297	73.6595	0
415.931	0.207297	73.6871	0
415.932	0.207297	73.7148	0
415.933	0.207297	73.7424	0
415.933	0.207297	73.77	0
415.934	0.207297	73.7977	0
415.934	0.207297	73.8253	0
415.935	0.207297	73.853	0
415.935	0.207297	73.8806	0
415.936	0.207297	73.9082	0
415.936	0.207297	73.9359	0
415.937	0.207297	73.9635	0
415.937	0.207297	73.9912	0
415.938	0.207297	74.0188	0
415.939	0.207297	74.0464	0
415.94	0.207297	74.0741	0
415.94	0.207297	74.1017	0
415.94	0.207297	74.1294	0
415.94	0.207297	74.157	0
415.941	0.207297	74.1846	0
415.941	0.207297	74.2123	0
415.943	0.207297	74.2399	0
415.943	0.207297	74.2676	0
415.943	0.207297	74.2952	0
415.943	0.207297	74.3228	0
415.945	0.207297	74.3505	0
415.946	0.207297	74.3781	0
415.946	0.207297	74.4057	0
415.946	0.207297	74.4334	0
415.947	0.207297	74.461	0
415.947	0.207297	74.4887	0
415.947	0.207297	74.5163	0
415.949	0.207297	74.5439	0
415.949	0.207297	74.5716	0
415.95	0.207297	74.5992	0
415.95	0.207297	74.6269	0
415.952	0.207297	74.6545	0
415.953	0.207297	74.6821	0
415.954	0.207297	74.7098	0
415.955	0.207297	74.7374	0
415.955	0.207297	74.7651	0
415.956	0.207297	74.7927	0
415.957	0.207297	74.8203	0
415.958	0.207297	74.848	0
415.96	0.207297	74.8756	0
415.96	0.207297	74.9033	0
415.962	0.207297	74.9309	0
415.962	0.207297	74.9585	0
415.962	0.207297	74.9862	0
415.964	0.207297	75.0138	0
415.964	0.207297	75.0415	0
415.966	0.207297	75.0691	0
415.966	0.207297	75.0967	0
415.966	0.207297	75.1244	0
415.967	0.207297	75.152	0
415.967	0.207297	75.1797	0
415.967	0.207297	75.2073	0
415.968	0.207297	75.2349	0
415.968	0.207297	75.2626	0
415.968	0.207297	75.2902	0
415.968	0.207297	75.3179	0
415.969	0.207297	75.3455	0
415.969	0.207297	75.3731	0
415.969	0.207297	75.4008	0
415.97	0.207297	75.4284	0
415.97	0.207297	75.4561	0
415.97	0.207297	75.4837	0
415.971	0.207297	75.5113	0
415.971	0.207297	75.539	0
415.973	0.207297	75.5666	0
420.264	0.207297	75.5943	0
420.264	0.207297	75.5943	0
420.265	0.207297	75.6219	0
420.265	0.207297	75.6495	0
420.265	0.207297	75.6772	0
420.265	0.207297	75.7048	0
420.266	0.207297	75.7324	0
420.266	0.207297	75.7601	0
420.266	0.207297	75.7877	0
420.267	0.207297	75.8154	0
420.267	0.207297	75.843	0
420.267	0.207297	75.8706	0
420.268	0.207297	75.8983	0
420.269	0.207297	75.9259	0
420.269	0.207297	75.9536	0
420.27	0.207297	75.9812	0
420.27	0.207297	76.0088	0
420.27	0.207297	76.0365	0
420.271	0.207297	76.0641	0
420.271	0.207297	76.0918	0
420.271	0.207297	76.1194	0
420.271	0.207297	76.147	0
420.271	0.207297	76.1747	0
420.272	0.207297	76.2023	0
420.272	0.207297	76.23	0
420.272	0.207297	76.2576	0
420.272	0.207297	76.2852	0
420.272	0.207297	76.3129	0
420.273	0.207297	76.3405	0
420.273	0.207297	76.3682	0
420.273	0.207297	76.3958	0
420.274	0.207297	76.4234	0
420.274	0.207297	76.4511	0
420.274	0.207297	76.4787	0
420.275	0.207297	76.5064	0
420.275	0.207297	76.534	0
420.275	0.207297	76.5616	0
420.277	0.207297	76.5893	0
420.277	0.207297	76.6169	0
420.279	0.207297	76.6446	0
420.28	0.207297	76.6722	0
420.28	0.207297	76.6998	0
420.28	0.207297	76.7275	0
420.28	0.207297	76.7551	0
420.281	0.207297	76.7828	0
420.281	0.207297	76.8104	0
427.115	0.221117	76.838	0
427.115	0.221117	76.838	0
427.116	0.221117	76.8657	0
427.117	0.221117	76.8933	0
427.117	0.221117	76.921	0
427.118	0.221117	76.9486	0
427.119	0.221117	76.9762	0
427.12	0.221117	77.0039	0
427.12	0.221117	77.0315	0
427.12	0.221117	77.0591	0
427.121	0.221117	77.0868	0
427.121	0.221117	77.1144	0
427.121	0.221117	77.1421	0
427.121	0.221117	77.1697	0
427.121	0.221117	77.1973	0
427.122	0.221117	77.225	0
427.122	0.221117	77.2526	0
427.122	0.221117	77.2803	0
427.122	0.221117	77.3079	0
427.123	0.221117	77.3355	0
427.123	0.221117	77.3632	0
427.125	0.221117	77.3908	0
427.126	0.221117	77.4185	0
427.126	0.221117	77.4461	0
427.126	0.221117	77.4737	0
427.127	0.221117	77.5014	0
427.127	0.221117	77.529	0
427.128	0.221117	77.5567	0
427.13	0.221117	77.5843	0
427.13	0.221117	77.6119	0
427.13	0.221117	77.6396	0
427.131	0.221117	77.6672	0
427.132	0.221117	77.6949	0
427.135	0.221117	77.7225	0
427.135	0.221117	77.7501	0
427.135	0.221117	77.7778	0
427.136	0.221117	77.8054	0
427.136	0.221117	77.8331	0
427.136	0.221117	77.8607	0
427.137	0.221117	77.8883	0
427.137	0.221117	77.916	0
427.137	0.221117	77.9436	0
427.138	0.221117	77.9713	0
427.139	0.221117	77.9989	0
427.14	0.221117	78.0265	0
427.14	0.221117	78.0542	0
427.141	0.221117	78.0818	0
427.141	0.221117	78.1095	0
427.142	0.221117	78.1371	0
427.144	0.221117	78.1647	0
436.828	0.221117	78.1924	0
436.828	0.221117	78.1924	0
436.829	0.221117	78.22	0
436.829	0.221117	78.2477	0
436.829	0.221117	78.2753	0
436.83	0.221117	78.3029	0
436.83	0.221117	78.3306	0
436.83	0.221117	78.3582	0
436.83	0.221117	78.3858	0
436.831	0.221117	78.4135	0
436.831	0.221117	78.4411	0
436.831	0.221117	78.4688	0
436.832	0.221117	78.4964	0
436.832	0.221117	78.524	0
436.833	0.221117	78.5517	0
436.834	0.221117	78.5793	0
436.834	0.221117	78.607	0
436.834	0.221117	78.6346	0
436.834	0.221117	78.6622	0
436.835	0.221117	78.6899	0
436.836	0.221117	78.7175	0
436.836	0.221117	78.7452	0
436.836	0.221117	78.7728	0
436.838	0.221117	78.8004	0
436.838	0.221117	78.8281	0
436.838	0.221117	78.8557	0
436.838	0.221117	78.8834	0
436.838	0.221117	78.911	0
436.839	0.221117	78.9386	0
436.839	0.221117	78.9663	0
436.84	0.221117	78.9939	0
436.84	0.221117	79.0216	0
436.84	0.221117	79.0492	0
436.841	0.221117	79.0768	0
436.841	0.221117	79.1045	0
436.841	0.221117	79.1321	0
436.841	0.221117	79.1598	0
436.842	0.221117	79.1874	0
449.251	0.221117	79.215	0
449.251	0.221117	79.215	0
449.251	0.221117	79.2427	0
449.252	0.221117	79.2703	0
449.254	0.221117	79.298	0
449.254	0.221117	79.3256	0
449.254	0.221117	79.3532	0
449.254	0.221117	79.3809	0
449.255	0.221117	79.4085	0
449.256	0.221117	79.4362	0
453.771	0.234936	79.4638	0
453.771	0.234936	79.4638	0
453.772	0.234936	79.4914	0
453.773	0.234936	79.5191	0
453.773	0.234936	79.5467	0
453.774	0.234936	79.5744	0
453.775	0.234936	79.602	0
453.775	0.234936	79.6296	0
453.776	0.234936	79.6573	0
453.776	0.234936	79.6849	0
453.776	0.234936	79.7125	0
453.779	0.234936	79.7402	0
453.779	0.234936	79.7678	0
453.78	0.234936	79.7955	0
453.78	0.234936	79.8231	0
453.781	0.234936	79.8507	0
453.781	0.234936	79.8784	0
453.782	0.234936	79.906	0
453.782	0.234936	79.9337	0
453.782	0.234936	79.9613	0
453.782	0.234936	79.9889	0
453.784	0.234936	80.0166	0
453.784	0.234936	80.0442	0
453.784	0.234936	80.0719	0
453.784	0.234936	80.0995	0
453.784	0.234936	80.1271	0
453.785	0.234936	80.1548	0
453.785	0.234936	80.1824	0
453.785	0.234936	80.2101	0
453.786	0.234936	80.2377	0
453.786	0.234936	80.2653	0
453.786	0.234936	80.293	0
453.786	0.234936	80.3206	0
453.787	0.234936	80.3483	0
453.787	0.234936	80.3759	0
453.788	0.234936	80.4035	0
453.788	0.234936	80.4312	0
453.788	0.234936	80.4588	0
453.788	0.234936	80.4865	0
453.79	0.234936	80.5141	0
453.79	0.234936	80.5417	0
453.79	0.234936	80.5694	0
453.79	0.234936	80.597	0
453.79	0.234936	80.6247	0
453.79	0.234936	80.6523	0
453.791	0.234936	80.6799	0
453.791	0.234936	80.7076	0
453.791	0.234936	80.7352	0
453.791	0.234936	80.7629	0
453.792	0.234936	80.7905	0
453.792	0.234936	80.8181	0
453.792	0.234936	80.8458	0
453.792	0.234936	80.8734	0
453.792	0.234936	80.9011	0
453.793	0.234936	80.9287	0
453.794	0.234936	80.9563	0
453.794	0.234936	80.984	0
453.794	0.234936	81.0116	0
454.456	0.234936	81.0392	0
454.457	0.234936	81.0392	0
454.457	0.234936	81.0669	0
454.458	0.234936	81.0945	0
454.458	0.234936	81.1222	0
454.458	0.234936	81.1498	0
454.459	0.234936	81.1774	0
454.459	0.234936	81.2051	0
454.459	0.234936	81.2327	0
454.459	0.234936	81.2604	0
454.461	0.234936	81.288	0
454.461	0.234936	81.3156	0
454.461	0.234936	81.3433	0
454.462	0.234936	81.3709	0
454.462	0.234936	81.3986	0
454.463	0.234936	81.4262	0
454.463	0.234936	81.4538	0
454.463	0.234936	81.4815	0
454.464	0.234936	81.5091	0
454.465	0.234936	81.5368	0
454.465	0.234936	81.5644	0
454.466	0.234936	81.592	0
454.466	0.234936	81.6197	0
454.466	0.234936	81.6473	0
454.467	0.234936	81.675	0
454.468	0.234936	81.7026	0
454.468	0.234936	81.7302	0
454.468	0.234936	81.7579	0
454.469	0.234936	81.7855	0
454.471	0.234936	81.8132	0
454.471	0.234936	81.8408	0
454.472	0.234936	81.8684	0
454.472	0.234936	81.8961	0
454.473	0.234936	81.9237	0
454.474	0.234936	81.9514	0
454.474	0.234936	81.979	0
454.474	0.234936	82.0066	0
454.475	0.234936	82.0343	0
454.477	0.234936	82.0619	0
454.477	0.234936	82.0896	0
454.477	0.234936	82.1172	0
454.477	0.234936	82.1448	0
454.478	0.234936	82.1725	0
454.478	0.234936	82.2001	0
454.478	0.234936	82.2278	0
503.548	0.248756	82.2554	0
503.548	0.248756	82.2554	0
503.549	0.248756	82.283	0
503.55	0.248756	82.3107	0
503.55	0.248756	82.3383	0
503.551	0.248756	82.3659	0
503.551	0.248756	82.3936	0
503.551	0.248756	82.4212	0
503.551	0.248756	82.4489	0
503.552	0.248756	82.4765	0
503.552	0.248756	82.5041	0
503.552	0.248756	82.5318	0
503.552	0.248756	82.5594	0
503.553	0.248756	82.5871	0
503.553	0.248756	82.6147	0
503.553	0.248756	82.6423	0
503.555	0.248756	82.67	0
503.556	0.248756	82.6976	0
503.556	0.248756	82.7253	0
503.556	0.248756	82.7529	0
503.558	0.248756	82.7805	0
503.559	0.248756	82.8082	0
503.56	0.248756	82.8358	0
503.561	0.248756	82.8635	0
503.561	0.248756	82.8911	0
503.562	0.248756	82.9187	0
503.562	0.248756	82.9464	0
503.562	0.248756	82.974	0
503.562	0.248756	83.0017	0
503.564	0.248756	83.0293	0
503.564	0.248756	83.0569	0
503.564	0.248756	83.0846	0
503.564	0.248756	83.1122	0
503.565	0.248756	83.1399	0
503.565	0.248756	83.1675	0
503.565	0.248756	83.1951	0
503.565	0.248756	83.2228	0
503.565	0.248756	83.2504	0
503.566	0.248756	83.2781	0
510.106	0.262576	83.3057	0
510.107	0.262576	83.3057	0
510.108	0.262576	83.3333	0
510.108	0.262576	83.361	0
510.108	0.262576	83.3886	0
510.108	0.262576	83.4163	0
510.109	0.262576	83.4439	0
510.109	0.262576	83.4715	0
510.111	0.262576	83.4992	0
510.112	0.262576	83.5268	0
510.113	0.262576	83.5544	0
510.114	0.262576	83.5821	0
510.115	0.262576	83.6097	0
510.115	0.262576	83.6374	0
510.115	0.262576	83.665	0
510.116	0.262576	83.6926	0
513.092	0.276396	83.7203	0
513.094	0.276396	83.7203	0
513.095	0.276396	83.7479	0
513.095	0.276396	83.7756	0
513.096	0.276396	83.8032	0
513.096	0.276396	83.8308	0
513.097	0.276396	83.8585	0
513.098	0.276396	83.8861	0
513.099	0.276396	83.9138	0
513.099	0.276396	83.9414	0
513.1	0.276396	83.969	0
513.1	0.276396	83.9967	0
513.1	0.276396	84.0243	0
513.1	0.276396	84.052	0
513.1	0.276396	84.0796	0
513.101	0.276396	84.1072	0
513.101	0.276396	84.1349	0
513.101	0.276396	84.1625	0
513.102	0.276396	84.1902	0
513.103	0.276396	84.2178	0
522.566	0.290216	84.2454	0
522.567	0.290216	84.2454	0
522.568	0.290216	84.2731	0
522.569	0.290216	84.3007	0
522.569	0.290216	84.3284	0
522.569	0.290216	84.356	0
522.569	0.290216	84.3836	0
522.569	0.290216	84.4113	0
522.57	0.290216	84.4389	0
522.57	0.290216	84.4666	0
522.57	0.290216	84.4942	0
522.571	0.290216	84.5218	0
522.571	0.290216	84.5495	0
522.573	0.290216	84.5771	0
522.573	0.290216	84.6048	0
522.573	0.290216	84.6324	0
522.573	0.290216	84.66	0
522.576	0.290216	84.6877	0
522.576	0.290216	84.7153	0
522.576	0.290216	84.743	0
522.577	0.290216	84.7706	0
522.577	0.290216	84.7982	0
522.578	0.290216	84.8259	0
522.579	0.290216	84.8535	0
567.35	0.290216	84.8811	0
567.35	0.290216	84.8811	0
567.35	0.290216	84.9088	0
567.35	0.290216	84.9364	0
567.352	0.290216	84.9641	0
567.352	0.290216	84.9917	0
567.352	0.290216	85.0193	0
567.354	0.290216	85.047	0
567.354	0.290216	85.0746	0
567.355	0.290216	85.1023	0
567.356	0.290216	85.1299	0
567.356	0.290216	85.1575	0
567.356	0.290216	85.1852	0
567.356	0.290216	85.2128	0
567.357	0.290216	85.2405	0
567.357	0.290216	85.2681	0
567.358	0.290216	85.2957	0
567.359	0.290216	85.3234	0
567.359	0.290216	85.351	0
567.36	0.290216	85.3787	0
567.36	0.290216	85.4063	0
567.361	0.290216	85.4339	0
567.361	0.290216	85.4616	0
605.646	0.304035	85.4892	0
605.647	0.304035	85.4892	0
605.649	0.304035	85.5169	0
605.649	0.304035	85.5445	0
605.65	0.304035	85.5721	0
605.65	0.304035	85.5998	0
605.651	0.304035	85.6274	0
605.651	0.304035	85.6551	0
605.651	0.304035	85.6827	0
605.652	0.304035	85.7103	0
605.652	0.304035	85.738	0
605.652	0.304035	85.7656	0
605.653	0.304035	85.7933	0
605.654	0.304035	85.8209	0
605.654	0.304035	85.8485	0
605.654	0.304035	85.8762	0
605.655	0.304035	85.9038	0
605.655	0.304035	85.9315	0
605.655	0.304035	85.9591	0
605.656	0.304035	85.9867	0
605.656	0.304035	86.0144	0
605.656	0.304035	86.042	0
605.657	0.304035	86.0697	0
605.657	0.304035	86.0973	0
605.658	0.304035	86.1249	0
605.66	0.304035	86.1526	0
605.66	0.304035	86.1802	0
605.66	0.304035	86.2078	0
605.66	0.304035	86.2355	0
605.661	0.304035	86.2631	0
605.661	0.304035	86.2908	0
605.662	0.304035	86.3184	0
605.662	0.304035	86.346	0
605.662	0.304035	86.3737	0
605.662	0.304035	86.4013	0
605.663	0.304035	86.429	0
605.663	0.304035	86.4566	0
605.665	0.304035	86.4842	0
613.183	0.304035	86.5119	0
613.183	0.304035	86.5119	0
613.184	0.304035	86.5395	0
613.184	0.304035	86.5672	0
613.184	0.304035	86.5948	0
613.185	0.304035	86.6224	0
613.185	0.304035	86.6501	0
613.186	0.304035	86.6777	0
613.186	0.304035	86.7054	0
613.186	0.304035	86.733	0
613.187	0.304035	86.7606	0
613.187	0.304035	86.7883	0
613.187	0.304035	86.8159	0
635.002	0.317855	86.8436	0
635.002	0.317855	86.8436	0
635.004	0.317855	86.8712	0
635.005	0.317855	86.8988	0
635.006	0.317855	86.9265	0
635.007	0.317855	86.9541	0
635.007	0.317855	86.9818	0
635.007	0.317855	87.0094	0
635.008	0.317855	87.037	0
635.008	0.317855	87.0647	0
635.009	0.317855	87.0923	0
635.009	0.317855	87.12	0
635.01	0.317855	87.1476	0
635.01	0.317855	87.1752	0
635.01	0.317855	87.2029	0
635.011	0.317855	87.2305	0
635.011	0.317855	87.2582	0
636.022	0.331675	87.2858	0
636.022	0.331675	87.2858	0
636.022	0.331675	87.3134	0
636.022	0.331675	87.3411	0
636.023	0.331675	87.3687	0
636.024	0.331675	87.3964	0
636.025	0.331675	87.424	0
636.025	0.331675	87.4516	0
636.026	0.331675	87.4793	0
636.026	0.331675	87.5069	0
636.026	0.331675	87.5345	0
636.028	0.331675	87.5622	0
636.029	0.331675	87.5898	0
636.029	0.331675	87.6175	0
636.029	0.331675	87.6451	0
636.029	0.331675	87.6727	0
636.029	0.331675	87.7004	0
636.03	0.331675	87.728	0
640.311	0.345495	87.7557	0
640.311	0.345495	87.7557	0
640.312	0.345495	87.7833	0
640.312	0.345495	87.8109	0
640.312	0.345495	87.8386	0
640.313	0.345495	87.8662	0
640.313	0.345495	87.8939	0
640.313	0.345495	87.9215	0
640.314	0.345495	87.9491	0
640.315	0.345495	87.9768	0
640.315	0.345495	88.0044	0
640.315	0.345495	88.0321	0
640.317	0.345495	88.0597	0
640.317	0.345495	88.0873	0
640.318	0.345495	88.115	0
640.318	0.345495	88.1426	0
640.319	0.345495	88.1703	0
640.319	0.345495	88.1979	0
640.321	0.345495	88.2255	0
640.322	0.345495	88.2532	0
640.322	0.345495	88.2808	0
640.323	0.345495	88.3085	0
640.323	0.345495	88.3361	0
640.323	0.345495	88.3637	0
640.324	0.345495	88.3914	0
640.324	0.345495	88.419	0
640.326	0.345495	88.4467	0
640.326	0.345495	88.4743	0
640.326	0.345495	88.5019	0
640.326	0.345495	88.5296	0
640.327	0.345495	88.5572	0
640.327	0.345495	88.5849	0
640.327	0.345495	88.6125	0
640.327	0.345495	88.6401	0
640.327	0.345495	88.6678	0
640.327	0.345495	88.6954	0
640.328	0.345495	88.7231	0
640.328	0.345495	88.7507	0
640.328	0.345495	88.7783	0
640.329	0.345495	88.806	0
640.329	0.345495	88.8336	0
640.329	0.345495	88.8612	0
640.33	0.345495	88.8889	0
640.33	0.345495	88.9165	0
640.331	0.345495	88.9442	0
640.331	0.345495	88.9718	0
640.331	0.345495	88.9994	0
640.332	0.345495	89.0271	0
640.332	0.345495	89.0547	0
640.332	0.345495	89.0824	0
640.332	0.345495	89.11	0
640.332	0.345495	89.1376	0
640.332	0.345495	89.1653	0
640.333	0.345495	89.1929	0
640.333	0.345495	89.2206	0
640.334	0.345495	89.2482	0
640.334	0.345495	89.2758	0
640.334	0.345495	89.3035	0
640.334	0.345495	89.3311	0
640.334	0.345495	89.3588	0
640.335	0.345495	89.3864	0
640.336	0.345495	89.414	0
640.336	0.345495	89.4417	0
640.336	0.345495	89.4693	0
640.336	0.345495	89.497	0
640.337	0.345495	89.5246	0
640.338	0.345495	89.5522	0
640.338	0.345495	89.5799	0
640.339	0.345495	89.6075	0
640.34	0.345495	89.6352	0
640.34	0.345495	89.6628	0
640.341	0.345495	89.6904	0
640.343	0.345495	89.7181	0
640.346	0.345495	89.7457	0
640.346	0.345495	89.7734	0
640.346	0.345495	89.801	0
640.347	0.345495	89.8286	0
648.234	0.345495	89.8563	0
648.235	0.345495	89.8563	0
648.235	0.345495	89.8839	0
648.236	0.345495	89.9116	0
648.236	0.345495	89.9392	0
648.237	0.345495	89.9668	0
648.237	0.345495	89.9945	0
648.238	0.345495	90.0221	0
648.239	0.345495	90.0498	0
648.24	0.345495	90.0774	0
648.241	0.345495	90.105	0
648.241	0.345495	90.1327	0
648.242	0.345495	90.1603	0
648.243	0.345495	90.1879	0
648.244	0.345495	90.2156	0
648.244	0.345495	90.2432	0
648.245	0.345495	90.2709	0
648.245	0.345495	90.2985	0
648.246	0.345495	90.3261	0
648.248	0.345495	90.3538	0
648.248	0.345495	90.3814	0
648.25	0.345495	90.4091	0
648.251	0.345495	90.4367	0
648.252	0.345495	90.4643	0
648.253	0.345495	90.492	0
648.254	0.345495	90.5196	0
648.256	0.345495	90.5473	0
648.256	0.345495	90.5749	0
648.257	0.345495	90.6025	0
648.257	0.345495	90.6302	0
648.258	0.345495	90.6578	0
648.258	0.345495	90.6855	0
648.258	0.345495	90.7131	0
648.258	0.345495	90.7407	0
648.259	0.345495	90.7684	0
648.259	0.345495	90.796	0
648.26	0.345495	90.8237	0
648.26	0.345495	90.8513	0
648.26	0.345495	90.8789	0
648.261	0.345495	90.9066	0
648.262	0.345495	90.9342	0
648.263	0.345495	90.9619	0
648.263	0.345495	90.9895	0
648.265	0.345495	91.0171	0
656.516	0.345495	91.0448	0
656.518	0.345495	91.0448	0
656.518	0.345495	91.0724	0
656.518	0.345495	91.1001	0
656.519	0.345495	91.1277	0
656.519	0.345495	91.1553	0
656.52	0.345495	91.183	0
656.52	0.345495	91.2106	0
656.52	0.345495	91.2383	0
656.521	0.345495	91.2659	0
656.521	0.345495	91.2935	0
656.521	0.345495	91.3212	0
656.521	0.345495	91.3488	0
656.522	0.345495	91.3765	0
656.522	0.345495	91.4041	0
656.522	0.345495	91.4317	0
656.523	0.345495	91.4594	0
656.523	0.345495	91.487	0
656.523	0.345495	91.5146	0
656.523	0.345495	91.5423	0
656.523	0.345495	91.5699	0
656.525	0.345495	91.5976	0
656.525	0.345495	91.6252	0
656.526	0.345495	91.6528	0
656.526	0.345495	91.6805	0
656.528	0.345495	91.7081	0
656.529	0.345495	91.7358	0
656.529	0.345495	91.7634	0
656.529	0.345495	91.791	0
656.529	0.345495	91.8187	0
656.53	0.345495	91.8463	0
656.531	0.345495	91.874	0
656.531	0.345495	91.9016	0
656.532	0.345495	91.9292	0
656.532	0.345495	91.9569	0
656.532	0.345495	91.9845	0
656.532	0.345495	92.0122	0
656.533	0.345495	92.0398	0
656.533	0.345495	92.0674	0
656.533	0.345495	92.0951	0
656.533	0.345495	92.1227	0
656.534	0.345495	92.1504	0
660.817	0.359315	92.178	0
660.817	0.359315	92.178	0
660.817	0.359315	92.2056	0
660.818	0.359315	92.2333	0
660.819	0.359315	92.2609	0
660.819	0.359315	92.2886	0
660.82	0.359315	92.3162	0
660.82	0.359315	92.3438	0
660.821	0.359315	92.3715	0
660.822	0.359315	92.3991	0
660.823	0.359315	92.4268	0
660.824	0.359315	92.4544	0
660.825	0.359315	92.482	0
660.825	0.359315	92.5097	0
660.825	0.359315	92.5373	0
660.825	0.359315	92.565	0
660.826	0.359315	92.5926	0
660.826	0.359315	92.6202	0
660.826	0.359315	92.6479	0
660.827	0.359315	92.6755	0
660.827	0.359315	92.7032	0
660.827	0.359315	92.7308	0
660.828	0.359315	92.7584	0
660.828	0.359315	92.7861	0
660.829	0.359315	92.8137	0
660.829	0.359315	92.8413	0
660.829	0.359315	92.869	0
660.831	0.359315	92.8966	0
660.831	0.359315	92.9243	0
660.831	0.359315	92.9519	0
660.831	0.359315	92.9795	0
660.832	0.359315	93.0072	0
660.833	0.359315	93.0348	0
660.833	0.359315	93.0625	0
660.833	0.359315	93.0901	0
660.834	0.359315	93.1177	0
660.835	0.359315	93.1454	0
660.836	0.359315	93.173	0
660.836	0.359315	93.2007	0
660.837	0.359315	93.2283	0
660.837	0.359315	93.2559	0
660.838	0.359315	93.2836	0
660.839	0.359315	93.3112	0
660.839	0.359315	93.3389	0
660.839	0.359315	93.3665	0
660.839	0.359315	93.3941	0
660.84	0.359315	93.4218	0
660.84	0.359315	93.4494	0
660.84	0.359315	93.4771	0
660.84	0.359315	93.5047	0
660.842	0.359315	93.5323	0
660.842	0.359315	93.56	0
660.842	0.359315	93.5876	0
660.842	0.359315	93.6153	0
660.843	0.359315	93.6429	0
660.843	0.359315	93.6705	0
660.843	0.359315	93.6982	0
660.843	0.359315	93.7258	0
660.845	0.359315	93.7535	0
660.845	0.359315	93.7811	0
660.847	0.359315	93.8087	0
660.847	0.359315	93.8364	0
660.847	0.359315	93.864	0
660.848	0.359315	93.8917	0
661.205	0.359315	93.9193	0
661.205	0.359315	93.9193	0
661.205	0.359315	93.9469	0
661.205	0.359315	93.9746	0
661.205	0.359315	94.0022	0
693.031	0.373134	94.0299	0
693.031	0.373134	94.0299	0
693.032	0.373134	94.0575	0
693.032	0.373134	94.0851	0
693.032	0.373134	94.1128	0
693.033	0.373134	94.1404	0
693.033	0.373134	94.168	0
693.034	0.373134	94.1957	0
693.034	0.373134	94.2233	0
693.034	0.373134	94.251	0
693.034	0.373134	94.2786	0
693.034	0.373134	94.3062	0
693.035	0.373134	94.3339	0
693.035	0.373134	94.3615	0
693.036	0.373134	94.3892	0
693.036	0.373134	94.4168	0
693.036	0.373134	94.4444	0
693.036	0.373134	94.4721	0
693.037	0.373134	94.4997	0
693.037	0.373134	94.5274	0
693.038	0.373134	94.555	0
693.038	0.373134	94.5826	0
693.039	0.373134	94.6103	0
693.039	0.373134	94.6379	0
693.04	0.373134	94.6656	0
728.347	0.386954	94.6932	0
728.349	0.386954	94.6932	0
728.349	0.386954	94.7208	0
728.349	0.386954	94.7485	0
728.349	0.386954	94.7761	0
728.351	0.386954	94.8038	0
728.351	0.386954	94.8314	0
728.351	0.386954	94.859	0
728.351	0.386954	94.8867	0
728.352	0.386954	94.9143	0
728.352	0.386954	94.942	0
728.353	0.386954	94.9696	0
728.354	0.386954	94.9972	0
728.354	0.386954	95.0249	0
728.355	0.386954	95.0525	0
728.356	0.386954	95.0802	0
728.356	0.386954	95.1078	0
728.357	0.386954	95.1354	0
728.357	0.386954	95.1631	0
728.358	0.386954	95.1907	0
728.359	0.386954	95.2184	0
728.359	0.386954	95.246	0
728.36	0.386954	95.2736	0
728.36	0.386954	95.3013	0
728.361	0.386954	95.3289	0
728.361	0.386954	95.3566	0
728.361	0.386954	95.3842	0
728.362	0.386954	95.4118	0
728.362	0.386954	95.4395	0
728.363	0.386954	95.4671	0
728.363	0.386954	95.4947	0
728.363	0.386954	95.5224	0
728.363	0.386954	95.55	0
728.364	0.386954	95.5777	0
728.365	0.386954	95.6053	0
728.365	0.386954	95.6329	0
741.441	0.400774	95.6606	0
741.441	0.400774	95.6606	0
741.441	0.400774	95.6882	0
741.443	0.400774	95.7159	0
741.443	0.400774	95.7435	0
741.443	0.400774	95.7711	0
793.84	0.414594	95.7988	0
793.84	0.414594	95.7988	0
793.84	0.414594	95.8264	0
793.841	0.414594	95.8541	0
793.842	0.414594	95.8817	0
793.842	0.414594	95.9093	0
793.842	0.414594	95.937	0
793.842	0.414594	95.9646	0
793.843	0.414594	95.9923	0
793.844	0.414594	96.0199	0
793.845	0.414594	96.0475	0
793.845	0.414594	96.0752	0
793.845	0.414594	96.1028	0
793.846	0.414594	96.1305	0
861.17	0.428413	96.1581	0
861.172	0.428413	96.1581	0
861.173	0.428413	96.1857	0
886.43	0.428413	96.2134	0
886.43	0.428413	96.2134	0
1041.36	0.428413	96.2687	0
1041.36	0.428413	96.2687	0
1041.36	0.428413	96.2963	0
1041.36	0.428413	96.3239	0
1041.36	0.428413	96.3516	0
1041.36	0.428413	96.3792	0
1041.36	0.428413	96.4069	0
1041.36	0.428413	96.4345	0
1041.36	0.428413	96.4621	0
1041.36	0.428413	96.4898	0
1041.36	0.428413	96.5174	0
1041.36	0.428413	96.5451	0
1041.36	0.428413	96.5727	0
1041.36	0.428413	96.6003	0
1041.36	0.428413	96.628	0
1041.36	0.428413	96.6556	0
1041.36	0.428413	96.6833	0
1041.36	0.428413	96.7109	0
1041.36	0.428413	96.7385	0
1041.36	0.428413	96.7662	0
1041.36	0.428413	96.7938	0
1041.36	0.428413	96.8214	0
1041.36	0.428413	96.8491	0
1041.36	0.428413	96.8767	0
1041.36	0.428413	96.9044	0
1041.36	0.428413	96.932	0
1044.24	0.428413	96.9596	0
1044.24	0.428413	96.9596	0
1045.81	0.442233	96.9873	0
1045.81	0.442233	96.9873	0
1069.6	0.442233	97.0426	0
1069.6	0.442233	97.0426	0
1069.6	0.442233	97.0702	0
1069.6	0.442233	97.0978	0
1069.6	0.442233	97.1255	0
1069.6	0.442233	97.1531	0
1069.6	0.442233	97.1808	0
1069.6	0.442233	97.2084	0
1069.6	0.442233	97.236	0
1069.6	0.442233	97.2637	0
1069.6	0.442233	97.2913	0
1069.6	0.442233	97.319	0
1069.6	0.442233	97.3466	0
1069.6	0.442233	97.3742	0
1069.6	0.442233	97.4019	0
1069.6	0.442233	97.4295	0
1069.6	0.442233	97.4572	0
1069.6	0.442233	97.4848	0
1069.6	0.442233	97.5124	0
1069.6	0.442233	97.5401	0
1069.6	0.442233	97.5677	0
1069.61	0.442233	97.5954	0
1069.61	0.442233	97.623	0
1069.61	0.442233	97.6506	0
1069.61	0.442233	97.6783	0
1069.61	0.442233	97.7059	0
1069.61	0.442233	97.7336	0
1069.61	0.442233	97.7612	0
1069.61	0.442233	97.7888	0
1136.02	0.456053	97.8165	0
1136.02	0.456053	97.8165	0
1136.02	0.456053	97.8441	0
1136.02	0.456053	97.8718	0
1136.02	0.456053	97.8994	0
1136.02	0.456053	97.927	0
1222.96	0.469873	97.9547	0
1222.96	0.469873	97.9547	0
1222.96	0.469873	97.9823	0
1222.96	0.469873	98.01	0
1222.96	0.469873	98.0376	0
1222.96	0.469873	98.0652	0
1222.96	0.469873	98.0929	0
1222.96	0.469873	98.1205	0
1222.97	0.469873	98.1481	0
1222.97	0.469873	98.1758	0
1222.97	0.469873	98.2034	0
1222.97	0.469873	98.2311	0
1222.97	0.469873	98.2587	0
1222.97	0.469873	98.2863	0
1222.97	0.469873	98.314	0
1222.97	0.469873	98.3416	0
1222.97	0.469873	98.3693	0
1222.97	0.469873	98.3969	0
1222.97	0.469873	98.4245	0
1222.97	0.469873	98.4522	0
1222.97	0.469873	98.4798	0
1222.97	0.469873	98.5075	0
1222.97	0.469873	98.5351	0
1222.97	0.469873	98.5627	0
1222.97	0.469873	98.5904	0
1222.97	0.469873	98.618	0
1222.97	0.469873	98.6457	0
1222.97	0.469873	98.6733	0
1222.97	0.469873	98.7009	0
1222.97	0.469873	98.7286	0
1222.98	0.469873	98.7562	0
1222.98	0.469873	98.7839	0
1222.98	0.469873	98.8115	0
1222.98	0.469873	98.8391	0
1222.98	0.469873	98.8668	0
1222.98	0.469873	98.8944	0
1222.98	0.469873	98.9221	0
1222.98	0.469873	98.9497	0
1222.98	0.469873	98.9773	0
1222.98	0.469873	99.005	0
1222.98	0.469873	99.0326	0
1222.98	0.469873	99.0603	0
1222.98	0.469873	99.0879	0
1222.98	0.469873	99.1155	0
1514.13	0.483693	99.1432	0
1514.13	0.483693	99.1432	0
1514.13	0.483693	99.1708	0
1514.13	0.483693	99.1985	0
1514.13	0.483693	99.2261	0
1514.13	0.483693	99.2537	0
1514.13	0.483693	99.2814	0
1514.13	0.483693	99.309	0
1514.13	0.483693	99.3367	0
1514.13	0.483693	99.3643	0
1514.14	0.483693	99.3919	0
1514.14	0.483693	99.4196	0
2619.37	0.497512	99.4472	0
2619.37	0.497512	99.4472	0
