7.91715e-10	0	0	0
4.92269e-09	0	0	0
6.66631e-09	0	0	0
7.21128e-09	0	0	0
1.78201e-08	0	0	0
2.00326e-08	0	0	0
2.67057e-08	0	0	0
3.35945e-08	0	0	0
4.63996e-08	0	0	0
6.5915e-08	0	0	0
1.0446e-07	0	0	0
1.18984e-07	0	0	0
1.26113e-07	0	0	0
1.4338e-07	0	0	0
1.49684e-07	0	0	0
1.57903e-07	0	0	0
1.6767e-07	0	0	0
2.09762e-07	0	0	0
2.17586e-07	0	0	0
2.38672e-07	0	0	0
3.2173e-07	0	0	0
4.24418e-07	0	0	0
4.84213e-07	0	0	0
5.00617e-07	0	0	0
6.29263e-07	0	0	0
7.10746e-07	0	0	0
9.86861e-07	0	0	0
1.46431e-06	0	0	0
1.5684e-06	0	0	0
2.30851e-06	0	0	0
2.59609e-06	0	0	0
3.55907e-06	0	0	0
3.90042e-06	0	0	0
4.46498e-06	0	0	0
8.743e-06	0	0	0
1.50455e-05	0	0	0
1.55111e-05	0	0	0
1.95693e-05	0	0	0
3.57945e-05	0	0	0
0.000345098	0	0	0
