8.46024e-09	0	0	0
1.25921e-08	0	0	0
1.39581e-08	0	0	0
1.89912e-08	0	0	0
3.70212e-08	0	0	0
4.30014e-08	0	0	0
5.19397e-08	0	0	0
6.03349e-08	0	0	0
7.98009e-08	0	0	0
8.13097e-08	0	0	0
8.50455e-08	0	0	0
8.9857e-08	0	0	0
1.06023e-07	0	0	0
1.11147e-07	0	0	0
1.11302e-07	0	0	0
1.12745e-07	0	0	0
1.67945e-07	0	0	0
2.99406e-07	0	0	0
3.14065e-07	0	0	0
3.34167e-07	0	0	0
3.59222e-07	0	0	0
4.24764e-07	0	0	0
5.44323e-07	0	0	0
6.01577e-07	0	0	0
6.42271e-07	0	0	0
7.51889e-07	0	0	0
1.35835e-06	0	0	0
1.40055e-06	0	0	0
1.52826e-06	0	0	0
2.28782e-06	0	0	0
2.8595e-06	0	0	0
3.47604e-06	0	0	0
1.05098e-05	0	0	0
