1.78821e-09	0	0	0
5.76809e-09	0	0	0
2.22118e-08	0	0	0
3.65201e-08	0	0	0
4.34928e-08	0	0	0
5.14639e-08	0	0	0
5.95792e-08	0	0	0
7.78105e-08	0	0	0
9.32106e-08	0	0	0
9.43968e-08	0	0	0
9.54938e-08	0	0	0
1.05354e-07	0	0	0
1.07909e-07	0	0	0
1.20248e-07	0	0	0
1.34433e-07	0	0	0
1.3567e-07	0	0	0
1.49686e-07	0	0	0
1.53732e-07	0	0	0
2.07414e-07	0	0	0
4.18654e-07	0	0	0
4.72557e-07	0	0	0
6.64945e-07	0	0	0
6.9148e-07	0	0	0
8.16859e-07	0	0	0
8.60662e-07	0	0	0
1.15609e-06	0	0	0
1.1738e-06	0	0	0
1.19402e-06	0	0	0
1.219e-06	0	0	0
1.95978e-06	0	0	0
2.05757e-06	0	0	0
2.1231e-06	0	0	0
2.16009e-06	0	0	0
2.43072e-06	0	0	0
2.92943e-06	0	0	0
3.0633e-06	0	0	0
3.2337e-06	0	0	0
3.27577e-06	0	0	0
3.78873e-06	0	0	0
3.80174e-06	0	0	0
4.76567e-06	0	0	0
5.39381e-06	0	0	0
5.73217e-06	0	0	0
6.59729e-06	0	0	0
6.91473e-06	0	0	0
7.8043e-06	0	0	0
7.87205e-06	0	0	0
9.72623e-06	0	0	0
9.92933e-06	0	0	0
1.10118e-05	0	0	0
1.10415e-05	0	0	0
1.11593e-05	0	0	0
1.20781e-05	0	0	0
1.42647e-05	0	0	0
2.56629e-05	0	0	0
2.85896e-05	0	0	0
7.54596e-05	0	0	0
8.70129e-05	0	0	0
9.19067e-05	0	0	0
