3.0408e-08	0	0	0
3.61668e-08	0	0	0
4.43045e-08	0	0	0
5.85867e-08	0	0	0
1.44408e-07	0	0	0
1.71946e-07	0	0	0
1.74779e-07	0	0	0
2.03234e-07	0	0	0
2.22396e-07	0	0	0
2.26304e-07	0	0	0
2.35381e-07	0	0	0
2.36316e-07	0	0	0
2.55702e-07	0	0	0
2.65798e-07	0	0	0
2.6645e-07	0	0	0
2.721e-07	0	0	0
2.82914e-07	0	0	0
3.0223e-07	0	0	0
3.11602e-07	0	0	0
3.18068e-07	0	0	0
3.4163e-07	0	0	0
3.73282e-07	0	0	0
4.14176e-07	0	0	0
4.17477e-07	0	0	0
4.26421e-07	0	0	0
4.34232e-07	0	0	0
4.47261e-07	0	0	0
4.56112e-07	0	0	0
5.03941e-07	0	0	0
5.16091e-07	0	0	0
5.20516e-07	0	0	0
5.23181e-07	0	0	0
5.38357e-07	0	0	0
5.41401e-07	0	0	0
5.70172e-07	0	0	0
6.25069e-07	0	0	0
6.27826e-07	0	0	0
6.32565e-07	0	0	0
6.3773e-07	0	0	0
6.47841e-07	0	0	0
6.48653e-07	0	0	0
6.70348e-07	0	0	0
6.73316e-07	0	0	0
6.75437e-07	0	0	0
6.88589e-07	0	0	0
7.41301e-07	0	0	0
7.6625e-07	0	0	0
7.6865e-07	0	0	0
7.77476e-07	0	0	0
8.1831e-07	0	0	0
8.18525e-07	0	0	0
8.44053e-07	0	0	0
8.46477e-07	0	0	0
8.69956e-07	0	0	0
8.70282e-07	0	0	0
9.00512e-07	0	0	0
9.03492e-07	0	0	0
9.21941e-07	0	0	0
1.0101e-06	0	0	0
1.01561e-06	0	0	0
1.03028e-06	0	0	0
1.12485e-06	0	0	0
1.12969e-06	0	0	0
1.13192e-06	0	0	0
1.15626e-06	0	0	0
1.15912e-06	0	0	0
1.20393e-06	0	0	0
1.20611e-06	0	0	0
1.21464e-06	0	0	0
1.22741e-06	0	0	0
1.22952e-06	0	0	0
1.24941e-06	0	0	0
1.25049e-06	0	0	0
1.25703e-06	0	0	0
1.27986e-06	0	0	0
1.28416e-06	0	0	0
1.29328e-06	0	0	0
1.29418e-06	0	0	0
1.30744e-06	0	0	0
1.30959e-06	0	0	0
1.33447e-06	0	0	0
1.34e-06	0	0	0
1.40476e-06	0	0	0
1.41327e-06	0	0	0
1.43601e-06	0	0	0
1.46871e-06	0	0	0
1.50085e-06	0	0	0
1.51438e-06	0	0	0
1.52067e-06	0	0	0
1.54093e-06	0	0	0
1.56583e-06	0	0	0
1.56851e-06	0	0	0
1.5778e-06	0	0	0
1.59267e-06	0	0	0
1.59653e-06	0	0	0
1.62298e-06	0	0	0
1.65413e-06	0	0	0
1.65866e-06	0	0	0
1.66501e-06	0	0	0
1.69421e-06	0	0	0
1.74543e-06	0	0	0
1.7932e-06	0	0	0
1.79791e-06	0	0	0
1.85237e-06	0	0	0
1.85476e-06	0	0	0
1.86498e-06	0	0	0
1.89862e-06	0	0	0
1.92277e-06	0	0	0
1.92782e-06	0	0	0
1.95054e-06	0	0	0
1.95488e-06	0	0	0
1.96821e-06	0	0	0
1.96955e-06	0	0	0
1.98763e-06	0	0	0
2.02004e-06	0	0	0
2.02525e-06	0	0	0
2.07617e-06	0	0	0
2.07863e-06	0	0	0
2.09548e-06	0	0	0
2.09874e-06	0	0	0
2.13519e-06	0	0	0
2.16293e-06	0	0	0
2.16627e-06	0	0	0
2.17348e-06	0	0	0
2.18921e-06	0	0	0
2.25459e-06	0	0	0
2.2833e-06	0	0	0
2.29743e-06	0	0	0
2.33239e-06	0	0	0
2.33942e-06	0	0	0
2.34208e-06	0	0	0
2.3559e-06	0	0	0
2.36575e-06	0	0	0
2.40276e-06	0	0	0
2.43251e-06	0	0	0
2.44374e-06	0	0	0
2.44589e-06	0	0	0
2.48647e-06	0	0	0
2.50427e-06	0	0	0
2.50498e-06	0	0	0
2.5223e-06	0	0	0
2.53837e-06	0	0	0
2.54567e-06	0	0	0
2.55514e-06	0	0	0
2.56797e-06	0	0	0
2.57381e-06	0	0	0
2.57708e-06	0	0	0
2.61719e-06	0	0	0
2.63015e-06	0	0	0
2.64177e-06	0	0	0
2.64976e-06	0	0	0
2.70068e-06	0	0	0
2.73592e-06	0	0	0
2.73845e-06	0	0	0
2.74793e-06	0	0	0
2.75395e-06	0	0	0
2.75881e-06	0	0	0
2.7801e-06	0	0	0
2.78108e-06	0	0	0
2.80076e-06	0	0	0
2.84376e-06	0	0	0
2.8512e-06	0	0	0
2.8646e-06	0	0	0
2.86651e-06	0	0	0
2.88673e-06	0	0	0
2.88843e-06	0	0	0
2.89382e-06	0	0	0
2.90791e-06	0	0	0
2.92886e-06	0	0	0
2.97633e-06	0	0	0
3.03954e-06	0	0	0
3.05261e-06	0	0	0
3.06546e-06	0	0	0
3.07971e-06	0	0	0
3.12374e-06	0	0	0
3.14048e-06	0	0	0
3.18024e-06	0	0	0
3.20694e-06	0	0	0
3.23437e-06	0	0	0
3.23498e-06	0	0	0
3.28546e-06	0	0	0
3.33957e-06	0	0	0
3.34506e-06	0	0	0
3.37542e-06	0	0	0
3.38155e-06	0	0	0
3.4664e-06	0	0	0
3.508e-06	0	0	0
3.51429e-06	0	0	0
3.51453e-06	0	0	0
3.53397e-06	0	0	0
3.54421e-06	0	0	0
3.55285e-06	0	0	0
3.57476e-06	0	0	0
3.58313e-06	0	0	0
3.59839e-06	0	0	0
3.59904e-06	0	0	0
3.69358e-06	0	0	0
3.71028e-06	0	0	0
3.71501e-06	0	0	0
3.71746e-06	0	0	0
3.78267e-06	0	0	0
3.82885e-06	0	0	0
3.85124e-06	0	0	0
3.88269e-06	0	0	0
3.92414e-06	0	0	0
3.93068e-06	0	0	0
3.95412e-06	0	0	0
4.01745e-06	0	0	0
4.0724e-06	0	0	0
4.10069e-06	0	0	0
4.12344e-06	0	0	0
4.13296e-06	0	0	0
4.15754e-06	0	0	0
4.16585e-06	0	0	0
4.19827e-06	0	0	0
4.21118e-06	0	0	0
4.24133e-06	0	0	0
4.27828e-06	0	0	0
4.29557e-06	0	0	0
4.32735e-06	0	0	0
4.3785e-06	0	0	0
4.37994e-06	0	0	0
4.38185e-06	0	0	0
4.38849e-06	0	0	0
4.53883e-06	0	0	0
4.5487e-06	0	0	0
4.55469e-06	0	0	0
4.67671e-06	0	0	0
4.72455e-06	0	0	0
4.77132e-06	0	0	0
4.79101e-06	0	0	0
4.82385e-06	0	0	0
4.83727e-06	0	0	0
4.86453e-06	0	0	0
4.90458e-06	0	0	0
4.92386e-06	0	0	0
4.92392e-06	0	0	0
4.93345e-06	0	0	0
4.96231e-06	0	0	0
4.98777e-06	0	0	0
5.02262e-06	0	0	0
5.06788e-06	0	0	0
5.18128e-06	0	0	0
5.1983e-06	0	0	0
5.22331e-06	0	0	0
5.25267e-06	0	0	0
5.25373e-06	0	0	0
5.27138e-06	0	0	0
5.2799e-06	0	0	0
5.28433e-06	0	0	0
5.30118e-06	0	0	0
5.31802e-06	0	0	0
5.3508e-06	0	0	0
5.36385e-06	0	0	0
5.3691e-06	0	0	0
5.37069e-06	0	0	0
5.38068e-06	0	0	0
5.40439e-06	0	0	0
5.4224e-06	0	0	0
5.45386e-06	0	0	0
5.45575e-06	0	0	0
5.46317e-06	0	0	0
5.4854e-06	0	0	0
5.49989e-06	0	0	0
5.54249e-06	0	0	0
5.5451e-06	0	0	0
5.58383e-06	0	0	0
5.6048e-06	0	0	0
5.62347e-06	0	0	0
5.83725e-06	0	0	0
5.90082e-06	0	0	0
5.96098e-06	0	0	0
5.98529e-06	0	0	0
6.0688e-06	0	0	0
6.09608e-06	0	0	0
6.11007e-06	0	0	0
6.11011e-06	0	0	0
6.12613e-06	0	0	0
6.14344e-06	0	0	0
6.19155e-06	0	0	0
6.20478e-06	0	0	0
6.23224e-06	0	0	0
6.24348e-06	0	0	0
6.24348e-06	0	0	0
6.26167e-06	0	0	0
6.27369e-06	0	0	0
6.30252e-06	0	0	0
6.3858e-06	0	0	0
6.46562e-06	0	0	0
6.49902e-06	0	0	0
6.5047e-06	0	0	0
6.54655e-06	0	0	0
6.55224e-06	0	0	0
6.56526e-06	0	0	0
6.61432e-06	0	0	0
6.67809e-06	0	0	0
6.69577e-06	0	0	0
6.74034e-06	0	0	0
6.75745e-06	0	0	0
6.7788e-06	0	0	0
6.78219e-06	0	0	0
6.79011e-06	0	0	0
6.7982e-06	0	0	0
6.81456e-06	0	0	0
6.8152e-06	0	0	0
6.83269e-06	0	0	0
6.84479e-06	0	0	0
6.8612e-06	0	0	0
6.86488e-06	0	0	0
6.90663e-06	0	0	0
6.97598e-06	0	0	0
6.98267e-06	0	0	0
7.07099e-06	0	0	0
7.13294e-06	0	0	0
7.17559e-06	0	0	0
7.1938e-06	0	0	0
7.208e-06	0	0	0
7.28198e-06	0	0	0
7.30084e-06	0	0	0
7.33894e-06	0	0	0
7.34076e-06	0	0	0
7.34711e-06	0	0	0
7.35612e-06	0	0	0
7.41631e-06	0	0	0
7.49366e-06	0	0	0
7.50145e-06	0	0	0
7.50785e-06	0	0	0
7.54949e-06	0	0	0
7.55618e-06	0	0	0
7.57164e-06	0	0	0
7.57547e-06	0	0	0
7.64505e-06	0	0	0
7.7215e-06	0	0	0
7.78277e-06	0	0	0
7.8697e-06	0	0	0
7.90251e-06	0	0	0
7.91537e-06	0	0	0
7.92636e-06	0	0	0
7.97508e-06	0	0	0
7.98736e-06	0	0	0
7.98775e-06	0	0	0
8.00098e-06	0	0	0
8.01874e-06	0	0	0
8.08225e-06	0	0	0
8.09451e-06	0	0	0
8.19803e-06	0	0	0
8.20155e-06	0	0	0
8.20756e-06	0	0	0
8.22215e-06	0	0	0
8.29053e-06	0	0	0
8.31519e-06	0	0	0
8.37211e-06	0	0	0
8.37923e-06	0	0	0
8.38491e-06	0	0	0
8.41367e-06	0	0	0
8.44879e-06	0	0	0
8.48077e-06	0	0	0
8.54717e-06	0	0	0
8.57726e-06	0	0	0
8.62355e-06	0	0	0
8.6354e-06	0	0	0
8.64003e-06	0	0	0
8.76616e-06	0	0	0
8.78973e-06	0	0	0
8.85643e-06	0	0	0
8.8703e-06	0	0	0
8.89614e-06	0	0	0
8.9143e-06	0	0	0
8.97992e-06	0	0	0
8.99628e-06	0	0	0
9.01615e-06	0	0	0
9.04608e-06	0	0	0
9.08159e-06	0	0	0
9.15422e-06	0	0	0
9.21154e-06	0	0	0
9.25206e-06	0	0	0
9.26623e-06	0	0	0
9.29489e-06	0	0	0
9.32026e-06	0	0	0
9.37369e-06	0	0	0
9.37452e-06	0	0	0
9.3946e-06	0	0	0
9.43973e-06	0	0	0
9.57634e-06	0	0	0
9.64637e-06	0	0	0
9.71758e-06	0	0	0
9.74314e-06	0	0	0
9.74688e-06	0	0	0
9.77648e-06	0	0	0
9.80341e-06	0	0	0
9.84485e-06	0	0	0
9.90347e-06	0	0	0
9.91828e-06	0	0	0
9.92811e-06	0	0	0
9.93617e-06	0	0	0
9.98027e-06	0	0	0
9.99436e-06	0	0	0
1.00724e-05	0	0	0
1.00842e-05	0	0	0
1.01174e-05	0	0	0
1.01723e-05	0	0	0
1.02079e-05	0	0	0
1.02416e-05	0	0	0
1.02841e-05	0	0	0
1.03255e-05	0	0	0
1.03315e-05	0	0	0
1.05199e-05	0	0	0
1.05752e-05	0	0	0
1.06199e-05	0	0	0
1.07097e-05	0	0	0
1.07292e-05	0	0	0
1.0741e-05	0	0	0
1.08479e-05	0	0	0
1.08582e-05	0	0	0
1.08776e-05	0	0	0
1.09013e-05	0	0	0
1.09102e-05	0	0	0
1.0929e-05	0	0	0
1.10194e-05	0	0	0
1.10809e-05	0	0	0
1.10895e-05	0	0	0
1.11395e-05	0	0	0
1.11904e-05	0	0	0
1.12025e-05	0	0	0
1.12458e-05	0	0	0
1.12921e-05	0	0	0
1.1295e-05	0	0	0
1.13841e-05	0	0	0
1.14009e-05	0	0	0
1.1499e-05	0	0	0
1.1549e-05	0	0	0
1.15777e-05	0	0	0
1.15838e-05	0	0	0
1.16465e-05	0	0	0
1.18192e-05	0	0	0
1.18312e-05	0	0	0
1.1845e-05	0	0	0
1.18876e-05	0	0	0
1.1921e-05	0	0	0
1.20148e-05	0	0	0
1.20318e-05	0	0	0
1.2032e-05	0	0	0
1.20416e-05	0	0	0
1.21316e-05	0	0	0
1.22457e-05	0	0	0
1.24498e-05	0	0	0
1.24513e-05	0	0	0
1.24622e-05	0	0	0
1.25084e-05	0	0	0
1.25555e-05	0	0	0
1.2584e-05	0	0	0
1.26334e-05	0	0	0
1.26551e-05	0	0	0
1.27164e-05	0	0	0
1.27299e-05	0	0	0
1.27416e-05	0	0	0
1.2816e-05	0	0	0
1.28322e-05	0	0	0
1.28382e-05	0	0	0
1.28616e-05	0	0	0
1.29552e-05	0	0	0
1.29678e-05	0	0	0
1.29799e-05	0	0	0
1.30124e-05	0	0	0
1.30981e-05	0	0	0
1.32676e-05	0	0	0
1.3361e-05	0	0	0
1.34802e-05	0	0	0
1.35189e-05	0	0	0
1.3559e-05	0	0	0
1.3577e-05	0	0	0
1.36181e-05	0	0	0
1.36321e-05	0	0	0
1.36397e-05	0	0	0
1.36767e-05	0	0	0
1.36856e-05	0	0	0
1.38057e-05	0	0	0
1.38167e-05	0	0	0
1.39602e-05	0	0	0
1.39799e-05	0	0	0
1.40309e-05	0	0	0
1.40769e-05	0	0	0
1.41275e-05	0	0	0
1.41653e-05	0	0	0
1.42015e-05	0	0	0
1.43624e-05	0	0	0
1.44178e-05	0	0	0
1.44367e-05	0	0	0
1.44731e-05	0	0	0
1.45758e-05	0	0	0
1.46171e-05	0	0	0
1.46491e-05	0	0	0
1.46601e-05	0	0	0
1.47293e-05	0	0	0
1.48988e-05	0	0	0
1.49369e-05	0	0	0
1.49618e-05	0	0	0
1.49663e-05	0	0	0
1.49776e-05	0	0	0
1.50323e-05	0	0	0
1.50507e-05	0	0	0
1.5093e-05	0	0	0
1.51195e-05	0	0	0
1.53618e-05	0	0	0
1.53823e-05	0	0	0
1.54213e-05	0	0	0
1.54402e-05	0	0	0
1.55231e-05	0	0	0
1.55301e-05	0	0	0
1.55888e-05	0	0	0
1.5641e-05	0	0	0
1.56586e-05	0	0	0
1.5676e-05	0	0	0
1.57907e-05	0	0	0
1.60051e-05	0	0	0
1.61344e-05	0	0	0
1.62782e-05	0	0	0
1.62876e-05	0	0	0
1.63335e-05	0	0	0
1.63413e-05	0	0	0
1.63563e-05	0	0	0
1.64951e-05	0	0	0
1.6574e-05	0	0	0
1.65751e-05	0	0	0
1.65841e-05	0	0	0
1.66361e-05	0	0	0
1.6645e-05	0	0	0
1.67107e-05	0	0	0
1.6838e-05	0	0	0
1.68585e-05	0	0	0
1.69284e-05	0	0	0
1.69405e-05	0	0	0
1.69895e-05	0	0	0
1.70161e-05	0	0	0
1.70728e-05	0	0	0
1.71079e-05	0	0	0
1.71211e-05	0	0	0
1.71834e-05	0	0	0
1.72671e-05	0	0	0
1.72954e-05	0	0	0
1.73711e-05	0	0	0
1.73846e-05	0	0	0
1.74907e-05	0	0	0
1.74975e-05	0	0	0
1.75221e-05	0	0	0
1.76377e-05	0	0	0
1.7668e-05	0	0	0
1.7822e-05	0	0	0
1.78887e-05	0	0	0
1.80063e-05	0	0	0
1.80155e-05	0	0	0
1.80189e-05	0	0	0
1.80791e-05	0	0	0
1.81317e-05	0	0	0
1.82038e-05	0	0	0
1.82281e-05	0	0	0
1.86435e-05	0	0	0
1.86818e-05	0	0	0
1.87394e-05	0	0	0
1.88034e-05	0	0	0
1.88557e-05	0	0	0
1.89122e-05	0	0	0
1.89148e-05	0	0	0
1.89516e-05	0	0	0
1.90304e-05	0	0	0
1.91418e-05	0	0	0
1.91598e-05	0	0	0
1.9173e-05	0	0	0
1.91883e-05	0	0	0
1.92451e-05	0	0	0
1.92474e-05	0	0	0
1.93317e-05	0	0	0
1.93323e-05	0	0	0
1.93501e-05	0	0	0
1.93924e-05	0	0	0
1.94038e-05	0	0	0
1.94217e-05	0	0	0
1.9458e-05	0	0	0
1.95543e-05	0	0	0
1.9694e-05	0	0	0
1.98347e-05	0	0	0
1.98772e-05	0	0	0
1.9883e-05	0	0	0
1.99404e-05	0	0	0
1.99836e-05	0	0	0
2.01559e-05	0	0	0
2.02748e-05	0	0	0
2.05579e-05	0	0	0
2.05768e-05	0	0	0
2.05913e-05	0	0	0
2.07013e-05	0	0	0
2.07311e-05	0	0	0
2.07328e-05	0	0	0
2.07794e-05	0	0	0
2.08303e-05	0	0	0
2.0845e-05	0	0	0
2.08993e-05	0	0	0
2.09146e-05	0	0	0
2.09153e-05	0	0	0
2.0957e-05	0	0	0
2.09741e-05	0	0	0
2.11838e-05	0	0	0
2.12435e-05	0	0	0
2.13006e-05	0	0	0
2.14792e-05	0	0	0
2.14997e-05	0	0	0
2.15806e-05	0	0	0
2.15876e-05	0	0	0
2.16748e-05	0	0	0
2.16797e-05	0	0	0
2.17811e-05	0	0	0
2.18106e-05	0	0	0
2.18188e-05	0	0	0
2.18489e-05	0	0	0
2.18695e-05	0	0	0
2.18847e-05	0	0	0
2.19102e-05	0	0	0
2.19604e-05	0	0	0
2.19771e-05	0	0	0
2.22701e-05	0	0	0
2.24283e-05	0	0	0
2.24572e-05	0	0	0
2.25507e-05	0	0	0
2.2564e-05	0	0	0
2.26861e-05	0	0	0
2.27475e-05	0	0	0
2.28229e-05	0	0	0
2.28822e-05	0	0	0
2.29e-05	0	0	0
2.29256e-05	0	0	0
2.29488e-05	0	0	0
2.30438e-05	0	0	0
2.32597e-05	0	0	0
2.33891e-05	0	0	0
2.34681e-05	0	0	0
2.34863e-05	0	0	0
2.35143e-05	0	0	0
2.35196e-05	0	0	0
2.3609e-05	0	0	0
2.37788e-05	0	0	0
2.39339e-05	0	0	0
2.39396e-05	0	0	0
2.41782e-05	0	0	0
2.42113e-05	0	0	0
2.43957e-05	0	0	0
2.45147e-05	0	0	0
2.46305e-05	0	0	0
2.47586e-05	0	0	0
2.48089e-05	0	0	0
2.49453e-05	0	0	0
2.50477e-05	0	0	0
2.51766e-05	0	0	0
2.52258e-05	0	0	0
2.52468e-05	0	0	0
2.54035e-05	0	0	0
2.54207e-05	0	0	0
2.5467e-05	0	0	0
2.54798e-05	0	0	0
2.55451e-05	0	0	0
2.56691e-05	0	0	0
2.56961e-05	0	0	0
2.58135e-05	0	0	0
2.61382e-05	0	0	0
2.61879e-05	0	0	0
2.61957e-05	0	0	0
2.62149e-05	0	0	0
2.62356e-05	0	0	0
2.62654e-05	0	0	0
2.63137e-05	0	0	0
2.64493e-05	0	0	0
2.65922e-05	0	0	0
2.6602e-05	0	0	0
2.66794e-05	0	0	0
2.68254e-05	0	0	0
2.6852e-05	0	0	0
2.69952e-05	0	0	0
2.70072e-05	0	0	0
2.71102e-05	0	0	0
2.72888e-05	0	0	0
2.73334e-05	0	0	0
2.76476e-05	0	0	0
2.76694e-05	0	0	0
2.78184e-05	0	0	0
2.7864e-05	0	0	0
2.79903e-05	0	0	0
2.80568e-05	0	0	0
2.80953e-05	0	0	0
2.82896e-05	0	0	0
2.83289e-05	0	0	0
2.85507e-05	0	0	0
2.85895e-05	0	0	0
2.87132e-05	0	0	0
2.87826e-05	0	0	0
2.87963e-05	0	0	0
2.89651e-05	0	0	0
2.9173e-05	0	0	0
2.95658e-05	0	0	0
2.95679e-05	0	0	0
3.03108e-05	0	0	0
3.03311e-05	0	0	0
3.03467e-05	0	0	0
3.04028e-05	0	0	0
3.04273e-05	0	0	0
3.04977e-05	0	0	0
3.05952e-05	0	0	0
3.07685e-05	0	0	0
3.10319e-05	0	0	0
3.10729e-05	0	0	0
3.14092e-05	0	0	0
3.14374e-05	0	0	0
3.1668e-05	0	0	0
3.16843e-05	0	0	0
3.17832e-05	0	0	0
3.21486e-05	0	0	0
3.22241e-05	0	0	0
3.22625e-05	0	0	0
3.23357e-05	0	0	0
3.24071e-05	0	0	0
3.24601e-05	0	0	0
3.26157e-05	0	0	0
3.26923e-05	0	0	0
3.27607e-05	0	0	0
3.27717e-05	0	0	0
3.28375e-05	0	0	0
3.29996e-05	0	0	0
3.30393e-05	0	0	0
3.31671e-05	0	0	0
3.32635e-05	0	0	0
3.32938e-05	0	0	0
3.33244e-05	0	0	0
3.33631e-05	0	0	0
3.3422e-05	0	0	0
3.36074e-05	0	0	0
3.36673e-05	0	0	0
3.38352e-05	0	0	0
3.38401e-05	0	0	0
3.39018e-05	0	0	0
3.39282e-05	0	0	0
3.39315e-05	0	0	0
3.3932e-05	0	0	0
3.41794e-05	0	0	0
3.43167e-05	0	0	0
3.44317e-05	0	0	0
3.45194e-05	0	0	0
3.47855e-05	0	0	0
3.48547e-05	0	0	0
3.50437e-05	0	0	0
3.52087e-05	0	0	0
3.52542e-05	0	0	0
3.54859e-05	0	0	0
3.55683e-05	0	0	0
3.55961e-05	0	0	0
3.56034e-05	0	0	0
3.57552e-05	0	0	0
3.58312e-05	0	0	0
3.60901e-05	0	0	0
3.61456e-05	0	0	0
3.6153e-05	0	0	0
3.62719e-05	0	0	0
3.63583e-05	0	0	0
3.64475e-05	0	0	0
3.67147e-05	0	0	0
3.69323e-05	0	0	0
3.69569e-05	0	0	0
3.7028e-05	0	0	0
3.71046e-05	0	0	0
3.71691e-05	0	0	0
3.72348e-05	0	0	0
3.72795e-05	0	0	0
3.73862e-05	0	0	0
3.74648e-05	0	0	0
3.75716e-05	0	0	0
3.76455e-05	0	0	0
3.79368e-05	0	0	0
3.79687e-05	0	0	0
3.80783e-05	0	0	0
3.8126e-05	0	0	0
3.8455e-05	0	0	0
3.89219e-05	0	0	0
3.92455e-05	0	0	0
3.94035e-05	0	0	0
3.94082e-05	0	0	0
3.94311e-05	0	0	0
3.95253e-05	0	0	0
3.97167e-05	0	0	0
4.01442e-05	0	0	0
4.02216e-05	0	0	0
4.02585e-05	0	0	0
4.03222e-05	0	0	0
4.05447e-05	0	0	0
4.06161e-05	0	0	0
4.08321e-05	0	0	0
4.08411e-05	0	0	0
4.08416e-05	0	0	0
4.08606e-05	0	0	0
4.08615e-05	0	0	0
4.08931e-05	0	0	0
4.0977e-05	0	0	0
4.1383e-05	0	0	0
4.13954e-05	0	0	0
4.16574e-05	0	0	0
4.18856e-05	0	0	0
4.21648e-05	0	0	0
4.29112e-05	0	0	0
4.33043e-05	0	0	0
4.33797e-05	0	0	0
4.37371e-05	0	0	0
4.38597e-05	0	0	0
4.39202e-05	0	0	0
4.40485e-05	0	0	0
4.4151e-05	0	0	0
4.41966e-05	0	0	0
4.4211e-05	0	0	0
4.4259e-05	0	0	0
4.44945e-05	0	0	0
4.45954e-05	0	0	0
4.46424e-05	0	0	0
4.49124e-05	0	0	0
4.50333e-05	0	0	0
4.52758e-05	0	0	0
4.53581e-05	0	0	0
4.53826e-05	0	0	0
4.57727e-05	0	0	0
4.58823e-05	0	0	0
4.58992e-05	0	0	0
4.59667e-05	0	0	0
4.60052e-05	0	0	0
4.65395e-05	0	0	0
4.67702e-05	0	0	0
4.68605e-05	0	0	0
4.69804e-05	0	0	0
4.70301e-05	0	0	0
4.70636e-05	0	0	0
4.72769e-05	0	0	0
4.80392e-05	0	0	0
4.81898e-05	0	0	0
4.83313e-05	0	0	0
4.83976e-05	0	0	0
4.86247e-05	0	0	0
4.87277e-05	0	0	0
4.88138e-05	0	0	0
4.94896e-05	0	0	0
4.95198e-05	0	0	0
4.98844e-05	0	0	0
5.01408e-05	0	0	0
5.02641e-05	0	0	0
5.03852e-05	0	0	0
5.04231e-05	0	0	0
5.05379e-05	0	0	0
5.05598e-05	0	0	0
5.06644e-05	0	0	0
5.08551e-05	0	0	0
5.08683e-05	0	0	0
5.1009e-05	0	0	0
5.15259e-05	0	0	0
5.18139e-05	0	0	0
5.2504e-05	0	0	0
5.27412e-05	0	0	0
5.27908e-05	0	0	0
5.32444e-05	0	0	0
5.35315e-05	0	0	0
5.38398e-05	0	0	0
5.42271e-05	0	0	0
5.42533e-05	0	0	0
5.44206e-05	0	0	0
5.48324e-05	0	0	0
5.49261e-05	0	0	0
5.50827e-05	0	0	0
5.54285e-05	0	0	0
5.56469e-05	0	0	0
5.65414e-05	0	0	0
5.66654e-05	0	0	0
5.6844e-05	0	0	0
5.73772e-05	0	0	0
5.77548e-05	0	0	0
5.88046e-05	0	0	0
5.89285e-05	0	0	0
5.90531e-05	0	0	0
5.91729e-05	0	0	0
5.93006e-05	0	0	0
5.93584e-05	0	0	0
5.985e-05	0	0	0
6.06645e-05	0	0	0
6.07277e-05	0	0	0
6.08148e-05	0	0	0
6.09559e-05	0	0	0
6.10336e-05	0	0	0
6.13983e-05	0	0	0
6.1753e-05	0	0	0
6.18464e-05	0	0	0
6.21347e-05	0	0	0
6.21606e-05	0	0	0
6.21813e-05	0	0	0
6.24439e-05	0	0	0
6.25328e-05	0	0	0
6.33505e-05	0	0	0
6.38002e-05	0	0	0
6.39891e-05	0	0	0
6.4748e-05	0	0	0
6.49736e-05	0	0	0
6.49779e-05	0	0	0
6.50789e-05	0	0	0
6.5377e-05	0	0	0
6.56946e-05	0	0	0
6.58079e-05	0	0	0
6.6367e-05	0	0	0
6.6538e-05	0	0	0
6.65717e-05	0	0	0
6.68568e-05	0	0	0
6.6972e-05	0	0	0
6.70844e-05	0	0	0
6.73991e-05	0	0	0
6.76476e-05	0	0	0
6.76742e-05	0	0	0
6.81202e-05	0	0	0
6.84222e-05	0	0	0
6.87387e-05	0	0	0
6.90083e-05	0	0	0
6.91652e-05	0	0	0
6.93196e-05	0	0	0
6.96542e-05	0	0	0
6.99651e-05	0	0	0
7.04213e-05	0	0	0
7.06724e-05	0	0	0
7.06771e-05	0	0	0
7.07827e-05	0	0	0
7.12712e-05	0	0	0
7.1806e-05	0	0	0
7.20038e-05	0	0	0
7.24404e-05	0	0	0
7.26878e-05	0	0	0
7.32864e-05	0	0	0
7.36193e-05	0	0	0
7.40062e-05	0	0	0
7.40481e-05	0	0	0
7.44497e-05	0	0	0
7.4578e-05	0	0	0
7.48892e-05	0	0	0
7.58187e-05	0	0	0
7.59745e-05	0	0	0
7.6042e-05	0	0	0
7.6505e-05	0	0	0
7.67595e-05	0	0	0
7.77252e-05	0	0	0
7.86942e-05	0	0	0
7.89308e-05	0	0	0
7.9554e-05	0	0	0
8.00904e-05	0	0	0
8.0938e-05	0	0	0
8.12417e-05	0	0	0
8.1953e-05	0	0	0
8.237e-05	0	0	0
8.23868e-05	0	0	0
8.37582e-05	0	0	0
8.40802e-05	0	0	0
8.6118e-05	0	0	0
8.62075e-05	0	0	0
8.66331e-05	0	0	0
8.71662e-05	0	0	0
8.78026e-05	0	0	0
8.78921e-05	0	0	0
8.80074e-05	0	0	0
8.81722e-05	0	0	0
8.85976e-05	0	0	0
9.03037e-05	0	0	0
9.08497e-05	0	0	0
9.21948e-05	0	0	0
9.28605e-05	0	0	0
9.32849e-05	0	0	0
9.33318e-05	0	0	0
9.34363e-05	0	0	0
9.40932e-05	0	0	0
9.48817e-05	0	0	0
9.50249e-05	0	0	0
9.51806e-05	0	0	0
9.52588e-05	0	0	0
9.59661e-05	0	0	0
9.60871e-05	0	0	0
9.64151e-05	0	0	0
9.69614e-05	0	0	0
9.74828e-05	0	0	0
9.81372e-05	0	0	0
9.81385e-05	0	0	0
9.8211e-05	0	0	0
9.82893e-05	0	0	0
9.8291e-05	0	0	0
9.88603e-05	0	0	0
9.95461e-05	0	0	0
9.95609e-05	0	0	0
9.98085e-05	0	0	0
9.99516e-05	0	0	0
0.000100252	0	0	0
0.00010248	0	0	0
0.000103951	0	0	0
0.000104124	0	0	0
0.000105783	0	0	0
0.000105972	0	0	0
0.000106567	0	0	0
0.00010674	0	0	0
0.000106912	0	0	0
0.000106948	0	0	0
0.000107259	0	0	0
0.000108303	0	0	0
0.000108531	0	0	0
0.000109434	0	0	0
0.00011056	0	0	0
0.000111463	0	0	0
0.00011159	0	0	0
0.000111905	0	0	0
0.00011237	0	0	0
0.000113604	0	0	0
0.000114069	0	0	0
0.000114384	0	0	0
0.000116167	0	0	0
0.000117112	0	0	0
0.000118252	0	0	0
0.000118293	0	0	0
0.000118786	0	0	0
0.000119366	0	0	0
0.00012076	0	0	0
0.000121022	0	0	0
0.000122486	0	0	0
0.000124348	0	0	0
0.000124455	0	0	0
0.000126379	0	0	0
0.000126877	0	0	0
0.000127492	0	0	0
0.000128039	0	0	0
0.000129149	0	0	0
0.000129281	0	0	0
0.000131432	0	0	0
0.000131463	0	0	0
0.000132425	0	0	0
0.000134077	0	0	0
0.000135221	0	0	0
0.00013574	0	0	0
0.00013618	0	0	0
0.000137303	0	0	0
0.000137645	0	0	0
0.000138944	0	0	0
0.00014136	0	0	0
0.000142014	0	0	0
0.000142737	0	0	0
0.000143876	0	0	0
0.000145012	0	0	0
0.000145084	0	0	0
0.000145433	0	0	0
0.000148685	0	0	0
0.000149012	0	0	0
0.000151353	0	0	0
0.000152034	0	0	0
0.000152066	0	0	0
0.000152583	0	0	0
0.000152612	0	0	0
0.000153511	0	0	0
0.000154749	0	0	0
0.000155585	0	0	0
0.000156743	0	0	0
0.000157262	0	0	0
0.000157308	0	0	0
0.000157682	0	0	0
0.000159106	0	0	0
0.00015995	0	0	0
0.00016224	0	0	0
0.000167315	0	0	0
0.000169092	0	0	0
0.000174411	0	0	0
0.000179455	0	0	0
0.000181262	0	0	0
0.000182018	0	0	0
0.00018416	0	0	0
0.000187765	0	0	0
0.000188224	0	0	0
0.000193052	0	0	0
0.000193242	0	0	0
0.000195066	0	0	0
0.000199296	0	0	0
0.000200273	0	0	0
0.000201476	0	0	0
0.000202437	0	0	0
0.000206911	0	0	0
0.000207224	0	0	0
0.000207871	0	0	0
0.000214555	0	0	0
0.000215256	0	0	0
0.000216612	0	0	0
0.000223444	0	0	0
0.000228732	0	0	0
0.000229132	0	0	0
0.000231322	0	0	0
0.000231663	0	0	0
0.000240488	0	0	0
0.000241401	0	0	0
0.000241483	0	0	0
0.000248244	0	0	0
0.000257305	0	0	0
0.000265838	0	0	0
0.000268756	0	0	0
0.000274233	0	0	0
0.000274518	0	0	0
0.000278466	0	0	0
0.000283008	0	0	0
0.000292536	0	0	0
0.00029298	0	0	0
0.000298768	0	0	0
0.000304711	0	0	0
0.000322311	0	0	0
0.000337214	0	0	0
0.000337575	0	0	0
0.000358606	0	0	0
0.00036291	0	0	0
0.000384444	0	0	0
0.00039269	0	0	0
0.000433446	0	0	0
0.000434555	0	0	0
0.000435666	0	0	0
0.00045832	0	0	0
0.000481697	0	0	0
0.000496179	0	0	0
0.000534181	0	0	0
0.000557501	0	0	0
0.000568366	0	0	0
0.000617055	0	0	0
0.000649403	0	0	0
0.000659774	0	0	0
0.00066432	0	0	0
0.000704395	0	0	0
0.000815613	0	0	0
0.000879351	0	0	0
0.000908026	0	0	0
0.000940234	0	0	0
0.00101596	0	0	0
0.00106223	0	0	0
0.00123858	0	0	0
0.00126949	0	0	0
0.00128001	0	0	0
0.0012971	0	0	0
0.00151593	0	0	0
0.00175832	0	0	0
0.00183764	0	0	0
0.00184871	0	0	0
0.00185716	0	0	0
0.00189927	0	0	0
0.00192123	0	0	0
0.00254994	0	0	0
0.00361307	0	0	0
0.00496629	0	0	0
0.0050063	0	0	0
0.00537522	0	0	0
0.00571723	0	0	0
0.00576916	0	0	0
0.00613209	0	0	0
0.00614393	0	0	0
0.00811917	0	0	0
0.0137718	0	0	0
0.0154582	0	0	0
0.04667	0	0	0
0.0478149	0	0	0
0.0740547	0	0	0
0.0740933	0	0	0
0.114975	0	0	0
0.114977	0	0	0
0.184833	0	0	0
0.206011	0	0	0
0.211309	0	0	0
0.211315	0	0	0
0.211327	0	0	0
0.211358	0	0	0
0.211359	0	0	0
0.211363	0	0	0
0.226941	0	0	0
0.253154	0	0	0
0.253927	0	0	0
0.387536	0	0	0
0.498752	0	0	0
0.616578	0	0	0
0.618521	0	0	0
0.64475	0	0	0
0.677165	0	0	0
0.691455	0	0	0
0.691493	0	0	0
0.691506	0	0	0
0.704965	0	0	0
0.705035	0	0	0
0.705088	0	0	0
0.761573	0	0	0
0.78808	0	0	0
0.827769	0	0	0
0.827817	0	0	0
0.827866	0	0	0
0.836195	0	0	0
0.869749	0	0	0
0.878315	0	0	0
0.878342	0	0	0
0.884879	0	0	0
0.91259	0	0	0
0.91358	0	0	0
0.966222	0	0	0.0691085
0.970225	0	0	0.0691085
0.97024	0	0	0.0691085
0.970265	0	0	0.0691085
0.981256	0	0	0.0691085
0.991028	0	0	0.0691085
1.0642	0	0	0.0691085
1.06426	0	0	0.0691085
1.06427	0	0	0.0691085
1.09934	0	0	0.0691085
1.12618	0	0	0.0691085
1.1306	0	0	0.0691085
1.13259	0	0	0.0691085
1.15362	0	0	0.0691085
1.15933	0	0	0.0691085
1.19672	0	0	0.207326
1.19678	0	0	0.207326
1.19734	0	0	0.207326
1.20008	0	0	0.207326
1.22626	0	0	0.207326
1.24291	0	0	0.207326
1.30741	0	0	0.207326
1.34256	0	0	0.207326
1.35332	0	0	0.207326
1.35853	0	0	0.207326
1.35856	0	0	0.207326
1.35861	0	0	0.207326
1.38416	0	0	0.207326
1.40762	0	0	0.207326
1.40764	0	0	0.207326
1.40768	0	0	0.207326
1.50662	0	0	0.207326
1.51931	0	0	0.276434
1.538	0	0	0.276434
1.53805	0	0	0.276434
1.5381	0	0	0.276434
1.53959	0	0	0.276434
1.54224	0	0	0.276434
1.64065	0	0	0.276434
1.64067	0	0	0.276434
1.65422	0	0	0.276434
1.65423	0	0	0.276434
1.66158	0	0	0.276434
1.67341	0	0	0.276434
1.77864	0	0	0.276434
1.89767	0	0	0.276434
1.93745	0	0	0.276434
1.94346	0	0	0.276434
1.94348	0	0	0.276434
1.94659	0	0	0.276434
1.9915	0	0	0.345543
2.00688	0	0	0.345543
2.00688	0	0	0.345543
2.00693	0	0	0.345543
2.00697	0	0	0.345543
2.00697	0	0	0.345543
2.00698	0	0	0.345543
2.00702	0	0	0.345543
2.00704	0	0	0.345543
2.00704	0	0	0.345543
2.00705	0	0	0.345543
2.00951	0	0	0.345543
2.01626	0	0	0.345543
2.02407	0	0	0.345543
2.062	0	0	0.414651
2.15027	0	0	0.414651
2.15027	0	0	0.414651
2.15576	0	0	0.414651
2.20182	0	0	0.414651
2.24632	0	0	0.414651
2.24633	0	0	0.414651
2.24636	0	0	0.414651
2.28248	0	0	0.414651
2.29085	0	0	0.48376
2.29089	0	0	0.48376
2.3418	0	0	0.48376
2.39898	0	0	0.48376
2.4002	0	0	0.48376
2.40186	0	0	0.552868
2.41774	0	0	0.552868
2.44393	0	0	0.552868
2.4479	0	0	0.552868
2.47607	0	0	0.552868
2.47608	0	0	0.552868
2.47613	0	0	0.552868
2.47614	0	0	0.552868
2.50018	0	0	0.552868
2.54743	0	0	0.552868
2.56412	0	0	0.552868
2.62525	0	0	0.552868
2.64121	0	0	0.552868
2.64122	0	0	0.552868
2.6668	0	0	0.552868
2.66922	0	0	0.552868
2.6837	0	0	0.621977
2.69102	0	0	0.621977
2.71439	0	0	0.621977
2.74299	0	0	0.621977
2.81743	0	0	0.621977
2.81745	0	0	0.621977
2.83379	0	0	0.621977
2.86675	0	0	0.691085
2.86676	0	0	0.691085
2.87999	0	0	0.691085
2.90967	0	0	0.691085
2.9351	0	0	0.691085
2.97078	0	0	0.691085
2.97938	0	0	0.691085
3.02997	0	0	0.691085
3.05894	0	0	0.760194
3.10622	0	0	0.829302
3.10642	0	0	0.898411
3.10648	0	0	0.898411
3.11797	0	0	0.898411
3.12666	0	0	0.967519
3.19391	0	0	1.03663
3.19573	0	0	1.03663
3.20699	0	0	1.03663
3.21112	0	0	1.03663
3.21113	0	0	1.03663
3.27018	0	0	1.03663
3.27018	0	0	1.03663
3.27019	0	0	1.03663
3.39194	0	0	1.03663
3.4013	0	0	1.03663
3.45261	0	0	1.03663
3.52138	0	0	1.03663
3.5338	0	0	1.03663
3.53532	0	0	1.03663
3.54854	0	0	1.03663
3.55192	0	0	1.10574
3.60158	0	0	1.17484
3.60164	0	0	1.17484
3.65166	0	0	1.17484
3.65251	0	0	1.17484
3.67033	0	0	1.17484
3.75195	0	0	1.24395
3.75196	0	0	1.24395
3.75199	0	0	1.24395
3.75202	0	0	1.24395
3.75204	0	0	1.24395
3.75204	0	0	1.24395
3.78791	0	0	1.24395
3.80255	0	0	1.24395
3.80261	0	0	1.24395
3.82949	0	0	1.24395
3.86972	0	0	1.38217
3.90109	0	0	1.45128
3.90339	0	0	1.45128
3.90339	0	0	1.45128
3.90358	0	0	1.45128
3.90988	0	0	1.45128
3.92199	0	0	1.45128
3.92205	0	0	1.45128
3.92205	0	0	1.45128
3.9361	0	0	1.45128
3.94651	0	0	1.45128
3.95668	0	0	1.45128
3.9612	0	0	1.45128
4.00392	0	0	1.52039
4.00399	0	0	1.52039
4.02597	0	0	1.52039
4.02635	0	0	1.52039
4.07845	0	0	1.52039
4.08772	0	0	1.5895
4.09874	0	0	1.6586
4.25218	0	0	1.6586
4.26465	0	0	1.6586
4.26465	0	0	1.6586
4.26472	0	0	1.6586
4.2997	0	0	1.6586
4.32498	0	0	1.6586
4.38054	0	0	1.72771
4.38055	0	0	1.72771
4.39192	0	0	1.72771
4.41512	0	0	1.72771
4.50995	0	0	1.72771
4.50995	0	0	1.72771
4.54205	0	0	1.72771
4.59497	0	0	1.72771
4.61606	0	0	1.72771
4.6161	0	0	1.79682
4.66128	0	0	1.79682
4.71052	0	0	1.86593
4.71274	0	0	1.86593
4.71887	0	0	1.86593
4.71888	0	0	1.86593
4.71894	0	0	1.86593
4.719	0	0	1.86593
4.71901	0	0	1.86593
4.84778	0	0	1.86593
4.895	0	0	1.86593
4.91836	0	0	1.86593
4.91839	0	0	1.93504
4.91845	0	0	1.93504
4.95686	0	0	1.93504
5.04382	0	0	1.93504
5.05541	0	0	1.93504
5.10091	0	0	1.93504
5.17753	0	0	1.93504
5.23777	0	0	2.07326
5.24725	0	0	2.07326
5.25899	0	0	2.07326
5.27229	0	0	2.14236
5.27229	0	0	2.14236
5.29568	0	0	2.14236
5.33446	0	0	2.14236
5.34033	0	0	2.14236
5.34034	0	0	2.14236
5.34118	0	0	2.14236
5.43215	0	0	2.14236
5.45487	0	0	2.14236
5.45776	0	0	2.14236
5.5527	0	0	2.14236
5.57087	0	0	2.14236
5.63924	0	0	2.14236
5.63939	0	0	2.14236
5.70854	0	0	2.14236
5.71986	0	0	2.14236
5.7518	0	0	2.21147
5.76675	0	0	2.28058
5.7825	0	0	2.34969
5.7946	0	0	2.4188
5.7946	0	0	2.4188
5.79467	0	0	2.4188
5.80328	0	0	2.4188
5.80328	0	0	2.4188
5.80328	0	0	2.4188
5.83599	0	0	2.4188
5.88895	0	0	2.48791
5.88897	0	0	2.48791
5.889	0	0	2.48791
5.93282	0	0	2.48791
5.96216	0	0	2.55701
5.98167	0	0	2.55701
5.9915	0	0	2.62612
5.9945	0	0	2.62612
5.99453	0	0	2.62612
5.99463	0	0	2.62612
6.05464	0	0	2.62612
6.07484	0	0	2.62612
6.07585	0	0	2.69523
6.10247	0	0	2.69523
6.10252	0	0	2.69523
6.11993	0	0	2.69523
6.13017	0	0	2.69523
6.13484	0	0	2.69523
6.20245	0	0	2.69523
6.20247	0	0	2.69523
6.2933	0	0	2.69523
6.33439	0	0	2.69523
6.3536	0	0	2.69523
6.40265	0	0	2.69523
6.40265	0	0	2.76434
6.41541	0	0	2.76434
6.44064	0	0	2.76434
6.49048	0	0	2.76434
6.53906	0	0	2.83345
6.56724	0	0	2.90256
6.56727	0	0	2.90256
6.60352	0	0	2.90256
6.60718	0	0	2.90256
6.67822	0	0	2.90256
6.76004	0	0	2.90256
6.79838	0	0	2.90256
6.856	0	0	2.90256
6.96496	0	0	2.97167
7.0214	0	0	3.10988
7.02541	0	0	3.17899
7.02545	0	0	3.17899
7.02674	0	0	3.17899
7.02679	0	0	3.17899
7.02684	0	0	3.17899
7.02692	0	0	3.17899
7.09446	0	0	3.17899
7.10391	0	0	3.17899
7.13362	0	0	3.17899
7.15178	0	0	3.17899
7.15183	0	0	3.17899
7.16766	0	0	3.17899
7.28487	0	0	3.2481
7.35242	0	0	3.31721
7.35244	0	0	3.31721
7.40749	0	0	3.31721
7.43354	0	0	3.31721
7.46498	0	0	3.31721
7.48738	0	0	3.31721
7.48967	0	0	3.31721
7.48968	0	0	3.38632
7.51563	0	0	3.38632
7.51752	0	0	3.45543
7.56398	0	0	3.45543
7.57354	0	0	3.45543
7.57529	0	0	3.45543
7.64202	0	0	3.45543
7.64207	0	0	3.45543
7.67482	0	0	3.45543
7.71763	0	0	3.45543
7.73086	0	0	3.45543
7.73087	0	0	3.45543
7.75289	0	0	3.45543
7.79898	0	0	3.52453
7.8034	0	0	3.52453
7.8164	0	0	3.59364
7.83025	0	0	3.73186
7.87817	0	0	3.73186
7.91831	0	0	3.80097
8.00017	0	0	3.87008
8.0002	0	0	3.87008
8.0295	0	0	3.87008
8.04188	0	0	3.93918
8.07943	0	0	4.0774
8.09489	0	0	4.0774
8.1092	0	0	4.0774
8.112	0	0	4.0774
8.15442	0	0	4.14651
8.15492	0	0	4.21562
8.16124	0	0	4.21562
8.1791	0	0	4.21562
8.24369	0	0	4.21562
8.28267	0	0	4.21562
8.31605	0	0	4.28473
8.31608	0	0	4.35384
8.32609	0	0	4.35384
8.37378	0	0	4.42294
8.37728	0	0	4.42294
8.37732	0	0	4.49205
8.43113	0	0	4.49205
8.44746	0	0	4.49205
8.4649	0	0	4.49205
8.4649	0	0	4.56116
8.53936	0	0	4.56116
8.73205	0	0	4.63027
8.83011	0	0	4.63027
8.83021	0	0	4.63027
8.83022	0	0	4.63027
8.85794	0	0	4.63027
8.90568	0	0	4.63027
8.91705	0	0	4.69938
8.92261	0	0	4.69938
8.92261	0	0	4.69938
8.9409	0	0	4.69938
8.94261	0	0	4.76849
9.03753	0	0	4.8376
9.06977	0	0	4.8376
9.06979	0	0	4.8376
9.0698	0	0	4.8376
9.12427	0	0	4.8376
9.12442	0	0	4.8376
9.16868	0	0	4.8376
9.18053	0	0	4.8376
9.223	0	0	4.8376
9.223	0	0	4.9067
9.2279	0	0	4.9067
9.23556	0	0	4.9067
9.23816	0	0	4.9067
9.2863	0	0	4.9067
9.28777	0	0	4.97581
9.29848	0	0	4.97581
9.33501	0	0	5.04492
9.35082	0	0	5.11403
9.35084	0	0	5.11403
9.35087	0	0	5.11403
9.3562	0	0	5.11403
9.36912	0	0	5.11403
9.36915	0	0	5.11403
9.37644	0	0	5.11403
9.39296	0	0	5.25225
9.43575	0	0	5.32135
9.43593	0	0	5.32135
9.49992	0	0	5.32135
9.56817	0	0	5.32135
9.68885	0	0	5.39046
9.6889	0	0	5.39046
9.69753	0	0	5.39046
9.70669	0	0	5.45957
9.77068	0	0	5.45957
9.87036	0	0	5.45957
9.87335	0	0	5.52868
9.8846	0	0	5.52868
9.88739	0	0	5.59779
9.89764	0	0	5.6669
9.90793	0	0	5.73601
9.99161	0	0	5.73601
10.0633	0	0	5.80511
10.0705	0	0	5.87422
10.0904	0	0	5.94333
10.1088	0	0	5.94333
10.1486	0	0	6.01244
10.1486	0	0	6.08155
10.1486	0	0	6.08155
10.2562	0	0	6.08155
10.2579	0	0	6.21977
10.2657	0	0	6.28887
10.2936	0	0	6.28887
10.3146	0	0	6.28887
10.3249	0	0	6.28887
10.4297	0	0	6.28887
10.4297	0	0	6.35798
10.4298	0	0	6.35798
10.4298	0	0	6.35798
10.4583	0	0	6.35798
10.6522	0	0	6.35798
10.6619	0	0	6.42709
10.6699	0	0	6.42709
10.7183	0	0	6.42709
10.7674	0	0	6.42709
10.7789	0	0	6.4962
10.8134	0	0	6.56531
10.8732	0	0	6.63442
10.8732	0	0	6.70352
10.8733	0	0	6.70352
10.9223	0	0	6.70352
10.9329	0	0	6.70352
10.9487	0	0	6.77263
11.0195	0	0	6.77263
11.0204	0	0	6.77263
11.0735	0	0	6.77263
11.0996	0	0	6.91085
11.1291	0	0	6.97996
11.1443	0	0	6.97996
11.1543	0	0	6.97996
11.2029	0	0	6.97996
11.2149	0	0	7.04907
11.2192	0	0	7.04907
11.2967	0	0	7.04907
11.311	0	0	7.04907
11.3733	0	0	7.04907
11.4079	0	0	7.04907
11.4371	0	0	7.04907
11.4449	0	0	7.11818
11.453	0	0	7.11818
11.4687	0	0	7.18728
11.4771	0	0	7.18728
11.5414	0	0	7.18728
11.5526	0	0	7.25639
11.592	0	0	7.3255
11.6152	0	0	7.3255
11.6434	0	0	7.3255
11.7335	0	0	7.3255
11.7348	0	0	7.3255
11.7431	0	0	7.46372
11.7586	0	0	7.60194
11.7728	0	0	7.67104
11.7767	0	0	7.74015
11.8543	0	0	7.74015
11.872	0	0	7.80926
11.9049	0	0	7.87837
11.9049	0	0	7.87837
11.9049	0	0	7.87837
11.9237	0	0	7.87837
11.9362	0	0	7.87837
11.9362	0	0	7.94748
11.94	0	0	7.94748
11.9601	0	0	7.94748
11.989	0	0	7.94748
12.0118	0	0	7.94748
12.0547	0	0	8.01659
12.0723	0	0	8.08569
12.0788	0	0	8.1548
12.1702	0	0	8.1548
12.2683	0	0	8.1548
12.3417	0	0	8.22391
12.3417	0	0	8.22391
12.3617	0	0	8.22391
12.4086	0	0	8.29302
12.4796	0	0	8.29302
12.4797	0	0	8.29302
12.4833	0	0	8.36213
12.4985	0	0	8.36213
12.4985	0	0	8.36213
12.4985	0	0	8.36213
12.4986	0	0	8.36213
12.5285	0	0	8.36213
12.5348	0	0	8.43124
12.5584	0	0	8.43124
12.5762	0	0	8.56945
12.6237	0	0	8.56945
12.6237	0	0	8.63856
12.705	0	0	8.63856
12.705	0	0	8.63856
12.705	0	0	8.63856
12.7051	0	0	8.63856
12.8171	0	0	8.63856
12.8171	0	0	8.63856
12.8716	0	0	8.63856
12.9253	0	0	8.63856
12.9262	0	0	8.70767
13.0127	0	0	8.70767
13.0556	0	0	8.77678
13.1085	0	0	8.77678
13.1085	0	0	8.77678
13.1597	0	0	8.77678
13.1597	0	0	8.77678
13.2723	0	0	8.77678
13.2938	0	0	8.84589
13.2982	0	0	8.84589
13.2982	0	0	8.84589
13.3272	0	0	8.84589
13.3608	0	0	8.84589
13.4686	0	0	8.84589
13.5723	0	0	8.915
13.5723	0	0	9.05321
13.5799	0	0	9.05321
13.5799	0	0	9.12232
13.64	0	0	9.12232
13.6591	0	0	9.26054
13.6748	0	0	9.26054
13.6748	0	0	9.26054
13.6748	0	0	9.26054
13.6749	0	0	9.26054
13.6841	0	0	9.26054
13.6949	0	0	9.26054
13.695	0	0	9.26054
13.695	0	0	9.26054
13.7159	0	0	9.26054
13.7556	0	0	9.26054
13.7723	0	0	9.32965
13.7723	0	0	9.39876
13.7836	0	0	9.39876
13.7837	0	0	9.39876
13.8552	0	0	9.39876
13.8552	0	0	9.46786
13.8595	0	0	9.46786
13.8596	0	0	9.46786
13.8765	0	0	9.46786
13.9371	0	0	9.53697
13.9372	0	0	9.53697
13.949	0	0	9.53697
13.9719	0	0	9.60608
13.9719	0	0	9.60608
13.9719	0	0	9.60608
13.9734	0	0	9.60608
13.9932	0	0	9.67519
14.0116	0	0	9.67519
14.014	0	0	9.67519
14.0844	0	0	9.67519
14.0911	0	0	9.81341
14.0967	0	0	9.81341
14.157	0	0	9.88252
14.1678	0	0	9.95162
14.2425	0	0	9.95162
14.3404	0	0	10.0207
14.3621	0	0	10.0898
14.3871	0	0	10.0898
14.4073	0	0	10.1589
14.4073	0	0	10.2281
14.4074	0	0	10.2281
14.4651	0	0	10.2281
14.4974	0	0	10.2281
14.5089	0	0	10.2972
14.5537	0	0	10.3663
14.5602	0	0	10.4354
14.5603	0	0	10.5736
14.6265	0	0	10.5736
14.6579	0	0	10.5736
14.7142	0	0	10.6427
14.7858	0	0	10.6427
14.9426	0	0	10.7809
14.9427	0	0	10.7809
14.9611	0	0	10.7809
15.007	0	0	10.7809
15.0759	0	0	10.7809
15.1453	0	0	10.7809
15.2325	0	0	10.7809
15.2633	0	0	10.85
15.2634	0	0	10.85
15.2634	0	0	10.85
15.2708	0	0	10.85
15.3317	0	0	10.9191
15.3317	0	0	10.9191
15.3317	0	0	10.9191
15.375	0	0	10.9191
15.3996	0	0	10.9883
15.4027	0	0	10.9883
15.411	0	0	10.9883
15.411	0	0	10.9883
15.411	0	0	10.9883
15.411	0	0	10.9883
15.411	0	0	10.9883
15.4111	0	0	10.9883
15.4111	0	0	10.9883
15.4594	0	0	10.9883
15.6057	0	0	11.0574
15.6058	0	0	11.1265
15.6216	0	0	11.1265
15.6532	0	0	11.1956
15.6852	0	0	11.2647
15.6852	0	0	11.2647
15.6882	0	0	11.3338
15.8222	0	0	11.4029
15.8325	0	0	11.4029
15.937	0	0	11.5411
16.0406	0	0	11.6793
16.0693	0	0	11.7484
16.1974	0	0	11.8176
16.2704	0	0	11.8867
16.3182	0	0	11.9558
16.3335	0	0	12.0249
16.4258	0	0	12.094
16.4344	0	0	12.094
16.4383	0	0	12.094
16.4682	0	0	12.1631
16.4682	0	0	12.1631
16.4706	0	0	12.1631
16.5374	0	0	12.2322
16.5766	0	0	12.3013
16.5766	0	0	12.3704
16.6318	0	0	12.3704
16.6675	0	0	12.3704
16.768	0	0	12.4395
16.7724	0	0	12.4395
16.8162	0	0	12.4395
16.8611	0	0	12.5086
16.8975	0	0	12.5086
16.8975	0	0	12.5086
16.8975	0	0	12.5086
16.9252	0	0	12.5086
16.9413	0	0	12.5086
16.9414	0	0	12.6469
17.0706	0	0	12.6469
17.0887	0	0	12.6469
17.1171	0	0	12.6469
17.1464	0	0	12.7851
17.1812	0	0	12.8542
17.2208	0	0	12.9233
17.2515	0	0	12.9924
17.2515	0	0	12.9924
17.3386	0	0	12.9924
17.3587	0	0	12.9924
17.3587	0	0	13.0615
17.3588	0	0	13.0615
17.397	0	0	13.0615
17.4742	0	0	13.0615
17.4821	0	0	13.1306
17.5602	0	0	13.1306
17.5607	0	0	13.1306
17.5607	0	0	13.1997
17.5619	0	0	13.1997
17.6254	0	0	13.1997
17.6279	0	0	13.3379
17.6486	0	0	13.3379
17.7136	0	0	13.407
17.7296	0	0	13.5453
17.7296	0	0	13.6144
17.8559	0	0	13.6144
17.8789	0	0	13.6835
17.9095	0	0	13.6835
18.0523	0	0	13.7526
18.0524	0	0	13.8217
18.0531	0	0	13.8217
18.0531	0	0	13.8217
18.0531	0	0	13.8217
18.0818	0	0	13.8217
18.1467	0	0	13.9599
18.1632	0	0	14.0981
18.1634	0	0	14.1672
18.1943	0	0	14.2364
18.3271	0	0	14.2364
18.3952	0	0	14.3055
18.4101	0	0	14.3055
18.4605	0	0	14.3746
18.4605	0	0	14.3746
18.5228	0	0	14.3746
18.5228	0	0	14.4437
18.5246	0	0	14.4437
18.5335	0	0	14.5128
18.534	0	0	14.651
18.552	0	0	14.7892
18.5521	0	0	14.7892
18.5521	0	0	14.7892
18.5521	0	0	14.7892
18.651	0	0	14.7892
18.6971	0	0	14.8583
18.7496	0	0	14.9274
18.7686	0	0	14.9274
18.8146	0	0	14.9965
18.8146	0	0	15.0657
18.8485	0	0	15.0657
18.8553	0	0	15.1348
18.8553	0	0	15.2039
18.8553	0	0	15.2039
18.9596	0	0	15.2039
19.0116	0	0	15.2039
19.026	0	0	15.273
19.169	0	0	15.4112
19.169	0	0	15.4112
19.169	0	0	15.4112
19.169	0	0	15.4112
19.1851	0	0	15.4112
19.1851	0	0	15.4803
19.1852	0	0	15.4803
19.1852	0	0	15.4803
19.2074	0	0	15.4803
19.4201	0	0	15.5494
19.423	0	0	15.5494
19.423	0	0	15.6876
19.423	0	0	15.6876
19.4289	0	0	15.6876
19.4289	0	0	15.6876
19.4289	0	0	15.6876
19.429	0	0	15.6876
19.4291	0	0	15.6876
19.5079	0	0	15.6876
19.508	0	0	15.8258
19.512	0	0	15.8258
19.5304	0	0	15.8258
19.5316	0	0	15.9641
19.5688	0	0	15.9641
19.5689	0	0	15.9641
19.5882	0	0	16.0332
19.6083	0	0	16.0332
19.6084	0	0	16.0332
19.6085	0	0	16.0332
19.6085	0	0	16.0332
19.6154	0	0	16.0332
19.7204	0	0	16.1023
19.8088	0	0	16.1023
19.8834	0	0	16.1023
19.8835	0	0	16.1023
19.8835	0	0	16.1023
19.8835	0	0	16.1023
19.8836	0	0	16.1023
19.8836	0	0	16.1023
19.8836	0	0	16.1023
19.9672	0	0	16.1023
20.0307	0	0	16.1714
20.0761	0	0	16.2405
20.0763	0	0	16.3096
20.083	0	0	16.3096
20.1506	0	0	16.3787
20.2194	0	0	16.4478
20.3311	0	0	16.4478
20.3422	0	0	16.586
20.3556	0	0	16.6551
20.3556	0	0	16.7243
20.3556	0	0	16.7243
20.3742	0	0	16.7243
20.4558	0	0	16.7934
20.5667	0	0	16.7934
20.5935	0	0	16.8625
20.5935	0	0	16.9316
20.5935	0	0	16.9316
20.6732	0	0	16.9316
20.681	0	0	17.0007
20.6933	0	0	17.0698
20.8824	0	0	17.1389
20.9631	0	0	17.208
21.0497	0	0	17.208
21.0944	0	0	17.2771
21.0985	0	0	17.3462
21.0985	0	0	17.4153
21.1166	0	0	17.4153
21.1166	0	0	17.4153
21.121	0	0	17.4153
21.2071	0	0	17.4845
21.2465	0	0	17.6227
21.2877	0	0	17.6918
21.3235	0	0	17.7609
21.3725	0	0	17.7609
21.393	0	0	17.83
21.4065	0	0	17.9682
21.4195	0	0	17.9682
21.4369	0	0	18.1064
21.4942	0	0	18.1755
21.6149	0	0	18.3138
21.615	0	0	18.3138
21.6436	0	0	18.3138
21.687	0	0	18.452
21.6912	0	0	18.5902
21.707	0	0	18.6593
21.7251	0	0	18.7284
21.7677	0	0	18.7284
21.7678	0	0	18.7975
21.7959	0	0	18.7975
21.8178	0	0	18.9357
21.8178	0	0	19.0048
21.8453	0	0	19.0048
21.8818	0	0	19.1431
21.888	0	0	19.2122
21.9116	0	0	19.2813
21.9391	0	0	19.4195
21.9975	0	0	19.4195
22.0463	0	0	19.5577
22.153	0	0	19.5577
22.2484	0	0	19.6959
22.2925	0	0	19.765
22.2925	0	0	19.8341
22.3029	0	0	19.8341
22.3743	0	0	19.9032
22.384	0	0	19.9032
22.4005	0	0	20.0415
22.4027	0	0	20.1797
22.4123	0	0	20.2488
22.4724	0	0	20.3179
22.4884	0	0	20.4561
22.4884	0	0	20.4561
22.4923	0	0	20.4561
22.5632	0	0	20.5252
22.581	0	0	20.5943
22.6141	0	0	20.7326
22.6857	0	0	20.8017
22.6859	0	0	20.8708
22.7874	0	0	20.9399
22.7885	0	0	21.0781
22.8981	0	0	21.1472
22.8981	0	0	21.2163
22.8981	0	0	21.2163
22.9049	0	0	21.2163
22.9196	0	0	21.2163
22.9778	0	0	21.3545
23.0073	0	0	21.3545
23.0308	0	0	21.4236
23.0609	0	0	21.4236
23.1212	0	0	21.5619
23.1225	0	0	21.5619
23.1245	0	0	21.5619
23.1269	0	0	21.631
23.1348	0	0	21.7001
23.1348	0	0	21.7001
23.1348	0	0	21.7001
23.1499	0	0	21.7001
23.1563	0	0	21.8383
23.1711	0	0	21.9074
23.1765	0	0	21.9074
23.5117	0	0	21.9074
23.5117	0	0	21.9074
23.5157	0	0	21.9074
23.5544	0	0	21.9765
23.6324	0	0	21.9765
23.782	0	0	21.9765
23.858	0	0	22.0456
24.1142	0	0	22.0456
24.1256	0	0	22.1147
24.1592	0	0	22.1147
24.3096	0	0	22.1838
24.3553	0	0	22.2529
24.3553	0	0	22.2529
24.3553	0	0	22.2529
24.3884	0	0	22.2529
24.4788	0	0	22.3912
24.5149	0	0	22.3912
24.5149	0	0	22.3912
24.515	0	0	22.3912
24.5151	0	0	22.3912
24.5822	0	0	22.3912
24.5944	0	0	22.4603
24.7685	0	0	22.4603
24.7945	0	0	22.5294
24.8143	0	0	22.6676
24.918	0	0	22.7367
24.9409	0	0	22.8058
24.9724	0	0	22.8749
25.0085	0	0	23.0131
25.0422	0	0	23.0822
25.0436	0	0	23.1513
25.0691	0	0	23.1513
25.1622	0	0	23.1513
25.1695	0	0	23.2896
25.1695	0	0	23.3587
25.1919	0	0	23.3587
25.1921	0	0	23.4278
25.2299	0	0	23.4278
25.3141	0	0	23.566
25.3284	0	0	23.6351
25.4042	0	0	23.7042
25.4179	0	0	23.7733
25.498	0	0	23.8424
25.498	0	0	23.9806
25.5712	0	0	23.9806
25.593	0	0	23.9806
25.8703	0	0	24.0498
25.9097	0	0	24.1189
25.9204	0	0	24.188
26.0662	0	0	24.188
26.0802	0	0	24.2571
26.1396	0	0	24.2571
26.2756	0	0	24.2571
26.3916	0	0	24.3953
26.5735	0	0	24.4644
26.7009	0	0	24.4644
26.8594	0	0	24.4644
27.0042	0	0	24.5335
27.0042	0	0	24.6026
27.0113	0	0	24.6026
27.0113	0	0	24.7408
27.1646	0	0	24.7408
27.2543	0	0	24.7408
27.2601	0	0	24.81
27.2601	0	0	24.81
27.3489	0	0	24.81
27.3941	0	0	24.8791
27.4121	0	0	24.9482
27.5446	0	0	24.9482
27.5601	0	0	25.0173
27.6144	0	0	25.1555
27.6424	0	0	25.1555
27.6838	0	0	25.2246
27.6927	0	0	25.3628
27.723	0	0	25.501
27.7243	0	0	25.5701
27.7243	0	0	25.6393
27.7243	0	0	25.6393
27.7563	0	0	25.6393
27.8528	0	0	25.7084
27.8786	0	0	25.7775
27.8786	0	0	25.9157
27.9576	0	0	25.9157
27.9775	0	0	25.9848
28.0459	0	0	25.9848
28.0516	0	0	25.9848
28.1218	0	0	25.9848
28.1219	0	0	26.0539
28.1219	0	0	26.0539
28.122	0	0	26.0539
28.1513	0	0	26.0539
28.3633	0	0	26.123
28.4247	0	0	26.1921
28.4431	0	0	26.2612
28.4681	0	0	26.3303
28.4719	0	0	26.3303
28.5897	0	0	26.3994
28.6954	0	0	26.3994
28.7475	0	0	26.5377
28.7798	0	0	26.6068
28.8191	0	0	26.6759
28.8404	0	0	26.745
28.8862	0	0	26.8832
28.9155	0	0	27.0214
28.9162	0	0	27.1596
29.0361	0	0	27.1596
29.0595	0	0	27.1596
29.1451	0	0	27.2979
29.2794	0	0	27.4361
29.3289	0	0	27.5743
29.4617	0	0	27.5743
29.5605	0	0	27.6434
29.564	0	0	27.7125
29.5807	0	0	27.8507
29.7517	0	0	27.9198
29.758	0	0	27.9198
29.7611	0	0	27.9889
29.8478	0	0	28.0581
29.9183	0	0	28.1963
29.9183	0	0	28.2654
30.0021	0	0	28.2654
30.0581	0	0	28.3345
30.1827	0	0	28.4036
30.3524	0	0	28.4727
30.5438	0	0	28.6109
30.6268	0	0	28.6109
30.6547	0	0	28.68
30.7699	0	0	28.8182
30.7699	0	0	28.8874
30.7699	0	0	28.8874
30.7906	0	0	28.8874
30.8104	0	0	28.8874
30.8105	0	0	29.0256
30.8172	0	0	29.0256
30.8384	0	0	29.1638
30.8723	0	0	29.2329
30.9359	0	0	29.302
31.0199	0	0	29.3711
31.1182	0	0	29.5093
31.1377	0	0	29.5093
31.1377	0	0	29.5784
31.1819	0	0	29.5784
31.2286	0	0	29.7167
31.2312	0	0	29.8549
31.2716	0	0	29.924
31.2848	0	0	29.924
31.3522	0	0	29.924
31.3523	0	0	29.924
31.3546	0	0	29.924
31.3645	0	0	29.9931
31.4006	0	0	30.0622
31.4443	0	0	30.2004
31.5289	0	0	30.2004
31.5862	0	0	30.2695
31.5862	0	0	30.3386
31.6363	0	0	30.3386
31.7191	0	0	30.3386
31.733	0	0	30.4768
31.8351	0	0	30.546
31.8963	0	0	30.546
31.9269	0	0	30.6842
31.9551	0	0	30.6842
31.9616	0	0	30.8224
31.9759	0	0	30.8224
31.976	0	0	30.9606
32.0555	0	0	30.9606
32.0709	0	0	31.0297
32.0885	0	0	31.0297
32.1073	0	0	31.1679
32.1612	0	0	31.237
32.1688	0	0	31.3062
32.2416	0	0	31.3753
32.2765	0	0	31.5135
32.2765	0	0	31.5826
32.3862	0	0	31.5826
32.394	0	0	31.6517
32.4423	0	0	31.7208
32.568	0	0	31.7208
32.5838	0	0	31.7899
32.5838	0	0	31.9281
32.5838	0	0	31.9281
32.5838	0	0	31.9281
32.6435	0	0	31.9281
32.6435	0	0	32.0663
32.6617	0	0	32.0663
32.6738	0	0	32.1355
32.6819	0	0	32.2046
32.8037	0	0	32.3428
33.1202	0	0	32.4119
33.2303	0	0	32.481
33.342	0	0	32.6192
33.4117	0	0	32.6883
33.6609	0	0	32.8265
33.6609	0	0	32.8956
33.7513	0	0	32.8956
33.7513	0	0	32.9648
33.7799	0	0	32.9648
33.8048	0	0	33.0339
33.8208	0	0	33.103
33.8296	0	0	33.1721
33.8297	0	0	33.2412
33.8366	0	0	33.2412
33.8668	0	0	33.3794
33.8866	0	0	33.4485
33.8925	0	0	33.5176
34.0708	0	0	33.5176
34.0957	0	0	33.5867
34.1189	0	0	33.6558
34.1715	0	0	33.7249
34.1741	0	0	33.8632
34.175	0	0	33.9323
34.2021	0	0	34.0705
34.2021	0	0	34.1396
34.2021	0	0	34.1396
34.2021	0	0	34.1396
34.2026	0	0	34.1396
34.2506	0	0	34.1396
34.251	0	0	34.2087
34.3056	0	0	34.2087
34.4555	0	0	34.2778
34.4753	0	0	34.416
34.6007	0	0	34.5543
34.6534	0	0	34.6234
34.7337	0	0	34.7616
34.7351	0	0	34.8998
34.7352	0	0	34.9689
34.7394	0	0	34.9689
34.8793	0	0	35.1071
34.9284	0	0	35.1762
34.9327	0	0	35.2453
34.9717	0	0	35.3144
35.0498	0	0	35.4527
35.1152	0	0	35.5909
35.1335	0	0	35.5909
35.1544	0	0	35.7291
35.1545	0	0	35.8673
35.1545	0	0	35.8673
35.1673	0	0	35.8673
35.1937	0	0	35.9364
35.2585	0	0	36.0055
35.2709	0	0	36.0746
35.3354	0	0	36.2129
35.354	0	0	36.282
35.3541	0	0	36.3511
35.3541	0	0	36.3511
35.4692	0	0	36.3511
35.4699	0	0	36.4202
35.526	0	0	36.5584
35.5458	0	0	36.6275
35.568	0	0	36.6966
35.5898	0	0	36.7657
35.6069	0	0	36.8348
35.7873	0	0	36.9039
35.9122	0	0	36.973
35.9693	0	0	37.0422
35.9723	0	0	37.1113
36.1922	0	0	37.1113
36.1922	0	0	37.1804
36.1922	0	0	37.1804
36.225	0	0	37.1804
36.3204	0	0	37.3186
36.3205	0	0	37.3877
36.3205	0	0	37.3877
36.3566	0	0	37.3877
36.3857	0	0	37.5259
36.3976	0	0	37.5259
36.4283	0	0	37.6641
36.4284	0	0	37.7332
36.5304	0	0	37.7332
36.5304	0	0	37.7332
36.5304	0	0	37.7332
36.6566	0	0	37.7332
36.7417	0	0	37.8023
36.7533	0	0	37.9406
36.7713	0	0	38.0788
36.7768	0	0	38.1479
36.7786	0	0	38.217
36.8957	0	0	38.2861
36.9056	0	0	38.3552
36.9056	0	0	38.4934
37.08	0	0	38.4934
37.1364	0	0	38.6317
37.3642	0	0	38.7008
37.5266	0	0	38.7008
37.5273	0	0	38.7699
37.6338	0	0	38.9081
37.6454	0	0	39.0463
37.6732	0	0	39.1154
37.6732	0	0	39.1845
37.8492	0	0	39.1845
37.8589	0	0	39.3227
37.9686	0	0	39.461
38.0548	0	0	39.5301
38.0786	0	0	39.5992
38.1508	0	0	39.6683
38.1509	0	0	39.7374
38.2436	0	0	39.7374
38.4527	0	0	39.8065
38.4772	0	0	39.9447
38.5344	0	0	40.0829
38.5553	0	0	40.152
38.6815	0	0	40.2211
38.7857	0	0	40.3594
38.7979	0	0	40.4976
38.8468	0	0	40.5667
39.0529	0	0	40.6358
39.0979	0	0	40.774
39.2141	0	0	40.8431
39.2142	0	0	40.8431
39.2909	0	0	40.8431
39.4243	0	0	40.9122
39.4396	0	0	40.9813
39.4397	0	0	41.0504
39.4709	0	0	41.0504
39.5083	0	0	41.1196
39.5476	0	0	41.2578
39.6655	0	0	41.396
39.8685	0	0	41.5342
39.8906	0	0	41.6033
39.905	0	0	41.7415
40.0148	0	0	41.8798
40.2633	0	0	41.8798
40.2949	0	0	41.9489
40.2949	0	0	42.018
40.5146	0	0	42.018
40.5231	0	0	42.1562
40.6041	0	0	42.2253
40.6779	0	0	42.3635
40.7224	0	0	42.4326
40.7224	0	0	42.5017
40.8034	0	0	42.5017
41.0113	0	0	42.5708
41.0573	0	0	42.6399
41.0988	0	0	42.7782
41.1601	0	0	42.9164
41.2438	0	0	43.0546
41.2438	0	0	43.0546
41.245	0	0	43.0546
41.2916	0	0	43.1237
41.4381	0	0	43.2619
41.4748	0	0	43.4001
41.592	0	0	43.5384
41.638	0	0	43.6766
41.7542	0	0	43.7457
41.8611	0	0	43.7457
41.9199	0	0	43.8839
41.9355	0	0	44.0221
41.9355	0	0	44.0912
41.9604	0	0	44.0912
42.0058	0	0	44.1603
42.0318	0	0	44.2294
42.0825	0	0	44.3677
42.0858	0	0	44.4368
42.3219	0	0	44.575
42.3219	0	0	44.7132
42.4508	0	0	44.7132
42.4767	0	0	44.8514
42.4804	0	0	44.9896
42.5611	0	0	45.0587
42.5956	0	0	45.197
42.8012	0	0	45.3352
42.8013	0	0	45.4734
42.8919	0	0	45.4734
42.9875	0	0	45.6116
43.0679	0	0	45.6807
43.0863	0	0	45.8189
43.0911	0	0	45.9572
43.0912	0	0	46.0263
43.0912	0	0	46.0263
43.2286	0	0	46.0263
43.2617	0	0	46.1645
43.3666	0	0	46.3027
43.3823	0	0	46.3718
43.4384	0	0	46.51
43.4913	0	0	46.5791
43.5862	0	0	46.6482
43.5991	0	0	46.7865
43.6503	0	0	46.9247
43.673	0	0	46.9938
43.7013	0	0	47.0629
43.7207	0	0	47.2011
43.8057	0	0	47.2702
43.8688	0	0	47.3393
43.9208	0	0	47.4775
43.9724	0	0	47.5466
43.9724	0	0	47.6158
43.9757	0	0	47.6158
44.1153	0	0	47.6849
44.2472	0	0	47.8231
44.2654	0	0	47.9613
44.2969	0	0	48.0995
44.297	0	0	48.1686
44.4695	0	0	48.1686
44.5193	0	0	48.3068
44.5903	0	0	48.4451
44.7341	0	0	48.4451
44.7651	0	0	48.5142
44.7694	0	0	48.6524
44.8983	0	0	48.7906
44.9071	0	0	48.9288
44.9461	0	0	49.067
45.0322	0	0	49.2053
45.0322	0	0	49.3435
45.135	0	0	49.3435
45.322	0	0	49.4817
45.397	0	0	49.6199
45.6325	0	0	49.689
45.7022	0	0	49.7581
45.7028	0	0	49.8963
45.87	0	0	49.9654
45.87	0	0	50.0346
46.0479	0	0	50.0346
46.0534	0	0	50.1037
46.0713	0	0	50.1728
46.128	0	0	50.311
46.2003	0	0	50.4492
46.2376	0	0	50.5874
46.3619	0	0	50.6565
46.5836	0	0	50.7256
46.752	0	0	50.7947
46.8568	0	0	50.7947
46.9444	0	0	50.933
47.0028	0	0	51.0712
47.008	0	0	51.2094
47.008	0	0	51.2094
47.1872	0	0	51.2094
47.2955	0	0	51.3476
47.3527	0	0	51.4167
47.3548	0	0	51.4858
47.3548	0	0	51.624
47.4009	0	0	51.624
47.4267	0	0	51.7623
47.4394	0	0	51.9005
47.5763	0	0	52.0387
47.5793	0	0	52.0387
47.6056	0	0	52.0387
47.6698	0	0	52.1078
47.7813	0	0	52.1078
47.8263	0	0	52.1769
47.8829	0	0	52.246
47.8829	0	0	52.3842
47.9272	0	0	52.3842
48.3302	0	0	52.5225
48.4353	0	0	52.5916
48.4353	0	0	52.7298
48.6218	0	0	52.7298
48.7437	0	0	52.868
48.996	0	0	52.9371
49.1948	0	0	53.0062
49.3046	0	0	53.0753
49.3114	0	0	53.2135
49.3114	0	0	53.2827
49.4997	0	0	53.2827
49.6006	0	0	53.4209
49.8387	0	0	53.5591
49.8388	0	0	53.6282
50.0643	0	0	53.6282
50.148	0	0	53.7664
50.2137	0	0	53.9046
50.2137	0	0	53.9737
50.4154	0	0	53.9737
50.4154	0	0	54.112
50.5176	0	0	54.112
50.5398	0	0	54.1811
50.585	0	0	54.3193
50.6587	0	0	54.3884
50.8819	0	0	54.5266
50.9105	0	0	54.5957
51.1248	0	0	54.5957
51.2125	0	0	54.7339
51.348	0	0	54.8721
51.5206	0	0	54.8721
51.5269	0	0	55.0104
51.5344	0	0	55.0795
51.5916	0	0	55.2177
51.633	0	0	55.2868
51.6685	0	0	55.2868
51.692	0	0	55.425
51.692	0	0	55.4941
51.879	0	0	55.4941
51.8791	0	0	55.5632
51.989	0	0	55.5632
52.1936	0	0	55.6323
52.2338	0	0	55.7706
52.2339	0	0	55.8397
52.4577	0	0	55.8397
52.4654	0	0	55.9088
52.5011	0	0	56.047
52.5216	0	0	56.1852
52.5344	0	0	56.3234
52.5424	0	0	56.4616
52.5616	0	0	56.4616
52.7033	0	0	56.5999
52.7488	0	0	56.7381
53.051	0	0	56.8763
53.1391	0	0	57.0145
53.3425	0	0	57.1527
53.5315	0	0	57.2909
53.5496	0	0	57.4292
53.7731	0	0	57.5674
54.1766	0	0	57.7056
54.4554	0	0	57.8438
54.6549	0	0	57.982
54.6609	0	0	58.1202
55.0736	0	0	58.1894
55.1378	0	0	58.3276
55.5197	0	0	58.4658
55.6954	0	0	58.5349
55.7601	0	0	58.6731
55.9573	0	0	58.7422
56.0523	0	0	58.8113
56.1888	0	0	58.8804
56.4299	0	0	58.9496
56.5385	0	0	59.0878
56.7305	0	0	59.1569
56.7662	0	0	59.226
56.8877	0	0	59.3642
56.8883	0	0	59.5024
56.9628	0	0	59.6406
57.1645	0	0	59.7097
57.1645	0	0	59.848
57.1879	0	0	59.848
57.3126	0	0	59.9862
57.5489	0	0	60.1244
57.5489	0	0	60.2626
57.5489	0	0	60.2626
57.6947	0	0	60.2626
57.7327	0	0	60.3317
57.9833	0	0	60.4008
58.1275	0	0	60.4699
58.7387	0	0	60.6082
58.7748	0	0	60.6773
58.9252	0	0	60.7464
58.9266	0	0	60.8155
59.0765	0	0	60.9537
59.3756	0	0	61.0228
59.6312	0	0	61.161
59.6829	0	0	61.2992
59.7271	0	0	61.4375
59.7908	0	0	61.5066
59.7975	0	0	61.5757
59.8882	0	0	61.7139
59.9956	0	0	61.8521
60.3371	0	0	61.9903
60.428	0	0	62.0594
60.428	0	0	62.1285
60.629	0	0	62.1285
60.7446	0	0	62.2668
60.759	0	0	62.405
60.799	0	0	62.5432
60.7991	0	0	62.6123
60.7991	0	0	62.6123
60.951	0	0	62.6123
61.0238	0	0	62.6814
61.1848	0	0	62.8196
61.311	0	0	62.9578
61.311	0	0	63.0961
61.311	0	0	63.0961
61.4161	0	0	63.0961
61.4723	0	0	63.1652
61.5676	0	0	63.3034
61.6494	0	0	63.4416
61.7282	0	0	63.5798
62.1334	0	0	63.718
62.3268	0	0	63.8563
62.3493	0	0	63.9945
62.4968	0	0	64.1327
62.6501	0	0	64.2709
62.9289	0	0	64.2709
63.0554	0	0	64.4091
63.12	0	0	64.5473
63.3325	0	0	64.6164
63.4174	0	0	64.7547
63.4312	0	0	64.8238
63.8718	0	0	64.962
63.8718	0	0	65.1002
63.8719	0	0	65.1002
63.8719	0	0	65.1002
63.8736	0	0	65.1002
63.8736	0	0	65.1693
64.1388	0	0	65.1693
64.3908	0	0	65.2384
64.4816	0	0	65.3075
64.5188	0	0	65.4457
64.5396	0	0	65.5149
65.1029	0	0	65.6531
65.375	0	0	65.7913
65.4958	0	0	65.9295
65.6065	0	0	65.9986
65.732	0	0	65.9986
65.7464	0	0	66.0677
65.8005	0	0	66.2059
65.9231	0	0	66.2751
66.0671	0	0	66.4133
66.1194	0	0	66.5515
66.1274	0	0	66.6206
66.565	0	0	66.7588
66.8417	0	0	66.897
66.8575	0	0	67.0352
66.8649	0	0	67.1044
66.9099	0	0	67.1735
66.9899	0	0	67.3117
67.0131	0	0	67.3808
67.1068	0	0	67.4499
67.3278	0	0	67.5881
67.7952	0	0	67.7263
67.8265	0	0	67.8645
67.8265	0	0	67.9337
67.9091	0	0	67.9337
68.0053	0	0	67.9337
68.0053	0	0	68.0719
68.1139	0	0	68.0719
68.1163	0	0	68.2101
68.3367	0	0	68.3483
68.9355	0	0	68.4174
69.0044	0	0	68.4865
69.1928	0	0	68.6247
69.1928	0	0	68.6938
69.2907	0	0	68.6938
69.4735	0	0	68.8321
69.5017	0	0	68.9703
69.5018	0	0	69.1085
69.6271	0	0	69.1085
69.6271	0	0	69.1776
69.6847	0	0	69.1776
69.8405	0	0	69.3158
69.9753	0	0	69.3849
69.9996	0	0	69.5232
70.0807	0	0	69.5923
70.2542	0	0	69.7305
70.9461	0	0	69.8687
71.1354	0	0	70.0069
71.1685	0	0	70.1451
71.2537	0	0	70.2833
71.2595	0	0	70.3525
71.2595	0	0	70.4216
71.2596	0	0	70.4216
71.3643	0	0	70.4216
71.5175	0	0	70.5598
71.5336	0	0	70.698
71.6753	0	0	70.7671
71.8112	0	0	70.8362
71.9	0	0	70.9053
71.9333	0	0	71.0435
72.0543	0	0	71.1126
72.3115	0	0	71.2509
72.4714	0	0	71.3891
72.5735	0	0	71.5273
72.8323	0	0	71.6655
73.0621	0	0	71.7346
73.0874	0	0	71.8728
73.0901	0	0	71.9419
73.2505	0	0	72.0111
73.2654	0	0	72.0802
73.3007	0	0	72.2184
73.4169	0	0	72.3566
73.8273	0	0	72.4948
73.8674	0	0	72.5639
74.3319	0	0	72.7021
74.9518	0	0	72.8404
75.1028	0	0	72.9786
75.4943	0	0	73.0477
75.5482	0	0	73.1859
75.8119	0	0	73.3241
75.8211	0	0	73.4623
75.9753	0	0	73.5314
75.9753	0	0	73.6697
75.9755	0	0	73.6697
76.1039	0	0	73.8079
76.1163	0	0	73.877
76.311	0	0	74.0152
76.4722	0	0	74.1534
76.5111	0	0	74.2916
76.5826	0	0	74.3607
76.816	0	0	74.4299
77.0924	0	0	74.499
77.8425	0	0	74.6372
78.2059	0	0	74.7754
78.2188	0	0	74.8445
78.2188	0	0	74.9827
78.2189	0	0	74.9827
78.3002	0	0	74.9827
78.5881	0	0	75.0518
78.7934	0	0	75.1209
79.2562	0	0	75.2592
79.4908	0	0	75.3974
79.5738	0	0	75.5356
79.9474	0	0	75.6738
80.205	0	0	75.812
80.4097	0	0	75.9502
80.6727	0	0	76.0885
81.0685	0	0	76.2267
81.5144	0	0	76.3649
82.1416	0	0	76.434
82.5056	0	0	76.5722
83.1772	0	0	76.7104
83.4322	0	0	76.7104
83.8386	0	0	76.7795
84.931	0	0	76.8487
84.992	0	0	76.9869
85.2009	0	0	77.056
85.2062	0	0	77.1942
85.5681	0	0	77.3324
85.8598	0	0	77.4015
85.8762	0	0	77.5397
85.8762	0	0	77.678
85.8762	0	0	77.678
85.8762	0	0	77.678
85.9442	0	0	77.678
86.063	0	0	77.7471
86.1881	0	0	77.8853
86.9382	0	0	78.0235
87.0314	0	0	78.1617
87.094	0	0	78.2999
87.2607	0	0	78.4381
87.4142	0	0	78.5764
87.4143	0	0	78.7146
87.4144	0	0	78.7146
87.5195	0	0	78.7146
87.71	0	0	78.7837
87.7789	0	0	78.9219
88.0376	0	0	79.0601
88.5332	0	0	79.1983
89.0172	0	0	79.2674
89.0729	0	0	79.4057
89.2921	0	0	79.4748
89.2921	0	0	79.613
89.2921	0	0	79.613
89.3864	0	0	79.613
89.5911	0	0	79.7512
89.9604	0	0	79.8894
89.9669	0	0	80.0276
89.9669	0	0	80.1659
89.9669	0	0	80.1659
89.9669	0	0	80.1659
90.0477	0	0	80.1659
90.2731	0	0	80.3041
90.2826	0	0	80.4423
90.4221	0	0	80.5805
90.5684	0	0	80.7187
90.9615	0	0	80.8569
91.1228	0	0	80.9952
91.6817	0	0	81.1334
91.8002	0	0	81.2025
92.3106	0	0	81.3407
92.4827	0	0	81.4789
92.6208	0	0	81.6171
92.9511	0	0	81.7554
93.1178	0	0	81.8936
93.2063	0	0	82.0318
93.2665	0	0	82.17
93.6281	0	0	82.3082
94.1959	0	0	82.4464
94.2507	0	0	82.5847
94.4066	0	0	82.7229
94.8059	0	0	82.8611
94.8105	0	0	82.9993
95.2042	0	0	83.1375
96.0961	0	0	83.2757
96.2691	0	0	83.414
96.2994	0	0	83.4831
96.4912	0	0	83.6213
96.6402	0	0	83.7595
96.9505	0	0	83.8977
97.1346	0	0	84.0359
97.138	0	0	84.1742
97.1832	0	0	84.3124
97.554	0	0	84.4506
97.6321	0	0	84.5888
97.9696	0	0	84.727
98.1955	0	0	84.8652
98.5584	0	0	85.0035
98.8366	0	0	85.1417
98.9465	0	0	85.2108
98.9934	0	0	85.349
99.9278	0	0	85.4872
100.032	0	0	85.6254
100.134	0	0	85.7636
100.589	0	0	85.9019
101.861	0	0	86.0401
102.124	0	0	86.1092
102.22	0	0	86.2474
102.717	0	0	86.3856
102.919	0	0	86.5238
103.026	0	0	86.593
103.418	0	0	86.7312
104.14	0	0	86.8694
104.47	0	0	86.9385
104.653	0	0	87.0767
104.724	0	0	87.1458
104.821	0	0	87.284
105.317	0	0	87.4223
105.739	0	0	87.5605
105.739	0	0	87.6987
107.091	0	0	87.6987
107.501	0	0	87.8369
107.627	0	0	87.9751
107.706	0	0	88.1133
107.769	0	0	88.2516
107.791	0	0	88.3898
108.916	0	0	88.528
108.937	0	0	88.6662
108.972	0	0	88.8044
109.245	0	0	88.9426
109.295	0	0	89.0809
111.681	0	0	89.2191
112.101	0	0	89.3573
113.059	0	0	89.4955
113.172	0	0	89.6337
113.83	0	0	89.7719
113.949	0	0	89.9102
114.281	0	0	90.0484
115.204	0	0	90.1866
115.801	0	0	90.3248
117.873	0	0	90.463
118.145	0	0	90.6012
118.75	0	0	90.7395
118.949	0	0	90.8777
119.083	0	0	91.0159
119.199	0	0	91.1541
119.709	0	0	91.2923
121.208	0	0	91.4305
121.683	0	0	91.5688
122.24	0	0	91.707
122.336	0	0	91.8452
122.511	0	0	91.9834
122.545	0	0	92.0525
122.545	0	0	92.1907
122.545	0	0	92.1907
123.996	0	0	92.1907
124.12	0	0	92.329
124.839	0	0	92.4672
125.044	0	0	92.6054
125.736	0	0	92.7436
126.138	0	0	92.8818
127.047	0	0	93.02
128.799	0	0	93.1583
130.304	0	0	93.2965
130.555	0	0	93.4347
131.416	0	0	93.5729
133.348	0	0	93.7111
133.348	0	0	93.8493
135.392	0	0	93.8493
136.187	0	0	93.9185
136.728	0	0	94.0567
138.68	0	0	94.1949
140.44	0	0	94.3331
141.152	0	0	94.4713
143.579	0	0	94.6095
143.679	0	0	94.7478
143.679	0	0	94.886
144.129	0	0	94.886
145.273	0	0	95.0242
145.941	0	0	95.1624
145.941	0	0	95.3006
150.489	0	0	95.3006
150.869	0	0	95.4388
150.869	0	0	95.5771
151.405	0	0	95.5771
151.943	0	0	95.7153
151.943	0	0	95.8535
154.021	0	0	95.8535
154.421	0	0	95.9917
154.838	0	0	96.1299
155.155	0	0	96.2681
155.247	0	0	96.4064
156.388	0	0	96.5446
156.466	0	0	96.6828
159.105	0	0	96.821
159.632	0	0	96.9592
161.047	0	0	97.0974
167.419	0	0	97.2357
172.653	0	0	97.3739
176.227	0	0	97.5121
180.365	0	0	97.6503
181.851	0	0	97.7885
186.642	0	0	97.9267
194.212	0	0	98.065
199.781	0	0	98.2032
199.889	0	0	98.3414
200.161	0	0	98.4796
201.885	0	0	98.6178
204.044	0	0	98.756
210.009	0	0	98.8943
214.279	0	0	99.0325
219.569	0	0	99.1707
238.2	0	0	99.3089
259.611	0	0	99.4471
289.65	0	0	99.5853
307.258	0	0	99.7236
321.84	0	0	99.8618
