1.93714e-08	0	0	0
2.3575e-08	0	0	0
2.9433e-08	0	0	0
3.06078e-08	0	0	0
3.8116e-08	0	0	0
4.35957e-08	0	0	0
4.52241e-08	0	0	0
4.83894e-08	0	0	0
7.9275e-08	0	0	0
8.02904e-08	0	0	0
8.79789e-08	0	0	0
9.09222e-08	0	0	0
1.17373e-07	0	0	0
1.27537e-07	0	0	0
1.61946e-07	0	0	0
1.65943e-07	0	0	0
1.75629e-07	0	0	0
1.99313e-07	0	0	0
2.23587e-07	0	0	0
2.47408e-07	0	0	0
2.7952e-07	0	0	0
2.85261e-07	0	0	0
2.87825e-07	0	0	0
3.01892e-07	0	0	0
3.33468e-07	0	0	0
3.88462e-07	0	0	0
3.90184e-07	0	0	0
3.9928e-07	0	0	0
4.12917e-07	0	0	0
4.2701e-07	0	0	0
4.3459e-07	0	0	0
4.38689e-07	0	0	0
4.40605e-07	0	0	0
4.65207e-07	0	0	0
4.7199e-07	0	0	0
4.76309e-07	0	0	0
4.78669e-07	0	0	0
4.96786e-07	0	0	0
5.18051e-07	0	0	0
5.21251e-07	0	0	0
5.44839e-07	0	0	0
5.63153e-07	0	0	0
5.70931e-07	0	0	0
6.13913e-07	0	0	0
6.24254e-07	0	0	0
6.40579e-07	0	0	0
6.49573e-07	0	0	0
6.89063e-07	0	0	0
6.94805e-07	0	0	0
7.06801e-07	0	0	0
7.35621e-07	0	0	0
7.6074e-07	0	0	0
7.72206e-07	0	0	0
7.72927e-07	0	0	0
8.55812e-07	0	0	0
8.96121e-07	0	0	0
9.24675e-07	0	0	0
9.3387e-07	0	0	0
9.44818e-07	0	0	0
9.77204e-07	0	0	0
9.97955e-07	0	0	0
1.01018e-06	0	0	0
1.02332e-06	0	0	0
1.02766e-06	0	0	0
1.04603e-06	0	0	0
1.05258e-06	0	0	0
1.05846e-06	0	0	0
1.10755e-06	0	0	0
1.11691e-06	0	0	0
1.1512e-06	0	0	0
1.16518e-06	0	0	0
1.20974e-06	0	0	0
1.25824e-06	0	0	0
1.26162e-06	0	0	0
1.26405e-06	0	0	0
1.28066e-06	0	0	0
1.28452e-06	0	0	0
1.28925e-06	0	0	0
1.31642e-06	0	0	0
1.32571e-06	0	0	0
1.32882e-06	0	0	0
1.36339e-06	0	0	0
1.38447e-06	0	0	0
1.40109e-06	0	0	0
1.42759e-06	0	0	0
1.44134e-06	0	0	0
1.45044e-06	0	0	0
1.45245e-06	0	0	0
1.50738e-06	0	0	0
1.51351e-06	0	0	0
1.51823e-06	0	0	0
1.52953e-06	0	0	0
1.55823e-06	0	0	0
1.56892e-06	0	0	0
1.58496e-06	0	0	0
1.65453e-06	0	0	0
1.6831e-06	0	0	0
1.74789e-06	0	0	0
1.81017e-06	0	0	0
1.83267e-06	0	0	0
1.8455e-06	0	0	0
1.8582e-06	0	0	0
1.88542e-06	0	0	0
1.89119e-06	0	0	0
1.90484e-06	0	0	0
1.95981e-06	0	0	0
1.96574e-06	0	0	0
2.01536e-06	0	0	0
2.02289e-06	0	0	0
2.02651e-06	0	0	0
2.03207e-06	0	0	0
2.03365e-06	0	0	0
2.08114e-06	0	0	0
2.09228e-06	0	0	0
2.09442e-06	0	0	0
2.12276e-06	0	0	0
2.18705e-06	0	0	0
2.20531e-06	0	0	0
2.21234e-06	0	0	0
2.21533e-06	0	0	0
2.23235e-06	0	0	0
2.25484e-06	0	0	0
2.27524e-06	0	0	0
2.28184e-06	0	0	0
2.39066e-06	0	0	0
2.39203e-06	0	0	0
2.40345e-06	0	0	0
2.41652e-06	0	0	0
2.43172e-06	0	0	0
2.43189e-06	0	0	0
2.43222e-06	0	0	0
2.43665e-06	0	0	0
2.45993e-06	0	0	0
2.46253e-06	0	0	0
2.46447e-06	0	0	0
2.49908e-06	0	0	0
2.50501e-06	0	0	0
2.52489e-06	0	0	0
2.54644e-06	0	0	0
2.5731e-06	0	0	0
2.58183e-06	0	0	0
2.58509e-06	0	0	0
2.58569e-06	0	0	0
2.59269e-06	0	0	0
2.60493e-06	0	0	0
2.61778e-06	0	0	0
2.65044e-06	0	0	0
2.65672e-06	0	0	0
2.6657e-06	0	0	0
2.70095e-06	0	0	0
2.70427e-06	0	0	0
2.73507e-06	0	0	0
2.73904e-06	0	0	0
2.81795e-06	0	0	0
2.82904e-06	0	0	0
2.85878e-06	0	0	0
2.87777e-06	0	0	0
2.89342e-06	0	0	0
2.90435e-06	0	0	0
2.90808e-06	0	0	0
2.92745e-06	0	0	0
2.97408e-06	0	0	0
3.00844e-06	0	0	0
3.03827e-06	0	0	0
3.10376e-06	0	0	0
3.1438e-06	0	0	0
3.1461e-06	0	0	0
3.15736e-06	0	0	0
3.24189e-06	0	0	0
3.26894e-06	0	0	0
3.29874e-06	0	0	0
3.31106e-06	0	0	0
3.33212e-06	0	0	0
3.33438e-06	0	0	0
3.35169e-06	0	0	0
3.37358e-06	0	0	0
3.41821e-06	0	0	0
3.42706e-06	0	0	0
3.43671e-06	0	0	0
3.44591e-06	0	0	0
3.44695e-06	0	0	0
3.45772e-06	0	0	0
3.52273e-06	0	0	0
3.54167e-06	0	0	0
3.56952e-06	0	0	0
3.58254e-06	0	0	0
3.60361e-06	0	0	0
3.62845e-06	0	0	0
3.62885e-06	0	0	0
3.64306e-06	0	0	0
3.67601e-06	0	0	0
3.69061e-06	0	0	0
3.7147e-06	0	0	0
3.8149e-06	0	0	0
3.8187e-06	0	0	0
3.93054e-06	0	0	0
3.96223e-06	0	0	0
4.06618e-06	0	0	0
4.09209e-06	0	0	0
4.14325e-06	0	0	0
4.22269e-06	0	0	0
4.24404e-06	0	0	0
4.28935e-06	0	0	0
4.29453e-06	0	0	0
4.32602e-06	0	0	0
4.37676e-06	0	0	0
4.4107e-06	0	0	0
4.41751e-06	0	0	0
4.53072e-06	0	0	0
4.68851e-06	0	0	0
4.74683e-06	0	0	0
4.77597e-06	0	0	0
4.85678e-06	0	0	0
4.86653e-06	0	0	0
4.90939e-06	0	0	0
4.94034e-06	0	0	0
4.96169e-06	0	0	0
4.9781e-06	0	0	0
4.9955e-06	0	0	0
4.99798e-06	0	0	0
5.00296e-06	0	0	0
5.00445e-06	0	0	0
5.01341e-06	0	0	0
5.02537e-06	0	0	0
5.06222e-06	0	0	0
5.07625e-06	0	0	0
5.07665e-06	0	0	0
5.11747e-06	0	0	0
5.20301e-06	0	0	0
5.2373e-06	0	0	0
5.25261e-06	0	0	0
5.27286e-06	0	0	0
5.28122e-06	0	0	0
5.28379e-06	0	0	0
5.48896e-06	0	0	0
5.51142e-06	0	0	0
5.60454e-06	0	0	0
5.62239e-06	0	0	0
5.62338e-06	0	0	0
5.68206e-06	0	0	0
5.72496e-06	0	0	0
5.73247e-06	0	0	0
5.76829e-06	0	0	0
5.79768e-06	0	0	0
5.82499e-06	0	0	0
5.83495e-06	0	0	0
5.85067e-06	0	0	0
5.85332e-06	0	0	0
5.86009e-06	0	0	0
5.89098e-06	0	0	0
5.91441e-06	0	0	0
5.91646e-06	0	0	0
5.97235e-06	0	0	0
5.9779e-06	0	0	0
6.01634e-06	0	0	0
6.03826e-06	0	0	0
6.06222e-06	0	0	0
6.07724e-06	0	0	0
6.12107e-06	0	0	0
6.14084e-06	0	0	0
6.16863e-06	0	0	0
6.17134e-06	0	0	0
6.18571e-06	0	0	0
6.1914e-06	0	0	0
6.25417e-06	0	0	0
6.25604e-06	0	0	0
6.30334e-06	0	0	0
6.33459e-06	0	0	0
6.34936e-06	0	0	0
6.36465e-06	0	0	0
6.37299e-06	0	0	0
6.3787e-06	0	0	0
6.50255e-06	0	0	0
6.50724e-06	0	0	0
6.56618e-06	0	0	0
6.56735e-06	0	0	0
6.58117e-06	0	0	0
6.58624e-06	0	0	0
6.5901e-06	0	0	0
6.61898e-06	0	0	0
6.72035e-06	0	0	0
6.76934e-06	0	0	0
6.84998e-06	0	0	0
6.8762e-06	0	0	0
6.8772e-06	0	0	0
6.88147e-06	0	0	0
6.90877e-06	0	0	0
6.93424e-06	0	0	0
6.93717e-06	0	0	0
6.95662e-06	0	0	0
7.00073e-06	0	0	0
7.00721e-06	0	0	0
7.01221e-06	0	0	0
7.01295e-06	0	0	0
7.03466e-06	0	0	0
7.04526e-06	0	0	0
7.07133e-06	0	0	0
7.08367e-06	0	0	0
7.10539e-06	0	0	0
7.13056e-06	0	0	0
7.14598e-06	0	0	0
7.16247e-06	0	0	0
7.17493e-06	0	0	0
7.18483e-06	0	0	0
7.19841e-06	0	0	0
7.20148e-06	0	0	0
7.2336e-06	0	0	0
7.29135e-06	0	0	0
7.29473e-06	0	0	0
7.30611e-06	0	0	0
7.35354e-06	0	0	0
7.38471e-06	0	0	0
7.42168e-06	0	0	0
7.5318e-06	0	0	0
7.58144e-06	0	0	0
7.61465e-06	0	0	0
7.64559e-06	0	0	0
7.68947e-06	0	0	0
7.8363e-06	0	0	0
7.84832e-06	0	0	0
7.8753e-06	0	0	0
7.90949e-06	0	0	0
7.94696e-06	0	0	0
8.04571e-06	0	0	0
8.06956e-06	0	0	0
8.0776e-06	0	0	0
8.10335e-06	0	0	0
8.12326e-06	0	0	0
8.13699e-06	0	0	0
8.17458e-06	0	0	0
8.20239e-06	0	0	0
8.20301e-06	0	0	0
8.22338e-06	0	0	0
8.22706e-06	0	0	0
8.23685e-06	0	0	0
8.28976e-06	0	0	0
8.33898e-06	0	0	0
8.43197e-06	0	0	0
8.46466e-06	0	0	0
8.47106e-06	0	0	0
8.52592e-06	0	0	0
8.56583e-06	0	0	0
8.57091e-06	0	0	0
8.62286e-06	0	0	0
8.62698e-06	0	0	0
8.6483e-06	0	0	0
8.65893e-06	0	0	0
8.66811e-06	0	0	0
8.69125e-06	0	0	0
8.72218e-06	0	0	0
8.74296e-06	0	0	0
8.83646e-06	0	0	0
8.85814e-06	0	0	0
8.91721e-06	0	0	0
8.94418e-06	0	0	0
8.94438e-06	0	0	0
8.94789e-06	0	0	0
8.95072e-06	0	0	0
8.98175e-06	0	0	0
9.06857e-06	0	0	0
9.17755e-06	0	0	0
9.21027e-06	0	0	0
9.23143e-06	0	0	0
9.25495e-06	0	0	0
9.27479e-06	0	0	0
9.30687e-06	0	0	0
9.32671e-06	0	0	0
9.38208e-06	0	0	0
9.43762e-06	0	0	0
9.43955e-06	0	0	0
9.47941e-06	0	0	0
9.57584e-06	0	0	0
9.60383e-06	0	0	0
9.65066e-06	0	0	0
9.69579e-06	0	0	0
9.70866e-06	0	0	0
9.73741e-06	0	0	0
9.73871e-06	0	0	0
9.77215e-06	0	0	0
9.84119e-06	0	0	0
9.84462e-06	0	0	0
9.87418e-06	0	0	0
9.92309e-06	0	0	0
9.9591e-06	0	0	0
1.00074e-05	0	0	0
1.00274e-05	0	0	0
1.01295e-05	0	0	0
1.01458e-05	0	0	0
1.0194e-05	0	0	0
1.0203e-05	0	0	0
1.02812e-05	0	0	0
1.03824e-05	0	0	0
1.04314e-05	0	0	0
1.04474e-05	0	0	0
1.0531e-05	0	0	0
1.05631e-05	0	0	0
1.05684e-05	0	0	0
1.06161e-05	0	0	0
1.06338e-05	0	0	0
1.06674e-05	0	0	0
1.06938e-05	0	0	0
1.07176e-05	0	0	0
1.07241e-05	0	0	0
1.07789e-05	0	0	0
1.08492e-05	0	0	0
1.08566e-05	0	0	0
1.09994e-05	0	0	0
1.1003e-05	0	0	0
1.10547e-05	0	0	0
1.10662e-05	0	0	0
1.10937e-05	0	0	0
1.11073e-05	0	0	0
1.11465e-05	0	0	0
1.11556e-05	0	0	0
1.12642e-05	0	0	0
1.12711e-05	0	0	0
1.13103e-05	0	0	0
1.14254e-05	0	0	0
1.16244e-05	0	0	0
1.16281e-05	0	0	0
1.17383e-05	0	0	0
1.17777e-05	0	0	0
1.17852e-05	0	0	0
1.17995e-05	0	0	0
1.18811e-05	0	0	0
1.19198e-05	0	0	0
1.19403e-05	0	0	0
1.19521e-05	0	0	0
1.20156e-05	0	0	0
1.21379e-05	0	0	0
1.21735e-05	0	0	0
1.21812e-05	0	0	0
1.22558e-05	0	0	0
1.24119e-05	0	0	0
1.24659e-05	0	0	0
1.24752e-05	0	0	0
1.25722e-05	0	0	0
1.25959e-05	0	0	0
1.26939e-05	0	0	0
1.27175e-05	0	0	0
1.27502e-05	0	0	0
1.27761e-05	0	0	0
1.28248e-05	0	0	0
1.28261e-05	0	0	0
1.28337e-05	0	0	0
1.29248e-05	0	0	0
1.2964e-05	0	0	0
1.29941e-05	0	0	0
1.30546e-05	0	0	0
1.31621e-05	0	0	0
1.324e-05	0	0	0
1.32833e-05	0	0	0
1.33712e-05	0	0	0
1.3401e-05	0	0	0
1.34069e-05	0	0	0
1.34192e-05	0	0	0
1.3459e-05	0	0	0
1.35104e-05	0	0	0
1.35286e-05	0	0	0
1.35393e-05	0	0	0
1.35806e-05	0	0	0
1.3629e-05	0	0	0
1.36634e-05	0	0	0
1.37111e-05	0	0	0
1.3735e-05	0	0	0
1.37365e-05	0	0	0
1.3826e-05	0	0	0
1.38626e-05	0	0	0
1.38877e-05	0	0	0
1.39e-05	0	0	0
1.40819e-05	0	0	0
1.41622e-05	0	0	0
1.43055e-05	0	0	0
1.43638e-05	0	0	0
1.43797e-05	0	0	0
1.45042e-05	0	0	0
1.45185e-05	0	0	0
1.46434e-05	0	0	0
1.46796e-05	0	0	0
1.47342e-05	0	0	0
1.48791e-05	0	0	0
1.49273e-05	0	0	0
1.49685e-05	0	0	0
1.50068e-05	0	0	0
1.51129e-05	0	0	0
1.51439e-05	0	0	0
1.51663e-05	0	0	0
1.52091e-05	0	0	0
1.52226e-05	0	0	0
1.53062e-05	0	0	0
1.53862e-05	0	0	0
1.54341e-05	0	0	0
1.5524e-05	0	0	0
1.5585e-05	0	0	0
1.55854e-05	0	0	0
1.55965e-05	0	0	0
1.57091e-05	0	0	0
1.57197e-05	0	0	0
1.5743e-05	0	0	0
1.58777e-05	0	0	0
1.58862e-05	0	0	0
1.5983e-05	0	0	0
1.60273e-05	0	0	0
1.60606e-05	0	0	0
1.61233e-05	0	0	0
1.61413e-05	0	0	0
1.622e-05	0	0	0
1.62244e-05	0	0	0
1.6369e-05	0	0	0
1.64514e-05	0	0	0
1.6615e-05	0	0	0
1.67064e-05	0	0	0
1.68031e-05	0	0	0
1.68993e-05	0	0	0
1.6951e-05	0	0	0
1.72046e-05	0	0	0
1.73595e-05	0	0	0
1.741e-05	0	0	0
1.74462e-05	0	0	0
1.75959e-05	0	0	0
1.76768e-05	0	0	0
1.7846e-05	0	0	0
1.78998e-05	0	0	0
1.79125e-05	0	0	0
1.7938e-05	0	0	0
1.79425e-05	0	0	0
1.81595e-05	0	0	0
1.82029e-05	0	0	0
1.82865e-05	0	0	0
1.83544e-05	0	0	0
1.83903e-05	0	0	0
1.85962e-05	0	0	0
1.86209e-05	0	0	0
1.87047e-05	0	0	0
1.87665e-05	0	0	0
1.89277e-05	0	0	0
1.89409e-05	0	0	0
1.90886e-05	0	0	0
1.91029e-05	0	0	0
1.91165e-05	0	0	0
1.92354e-05	0	0	0
1.92377e-05	0	0	0
1.92762e-05	0	0	0
1.92776e-05	0	0	0
1.92822e-05	0	0	0
1.93995e-05	0	0	0
1.94465e-05	0	0	0
1.9463e-05	0	0	0
1.95099e-05	0	0	0
1.9525e-05	0	0	0
1.95905e-05	0	0	0
1.97728e-05	0	0	0
1.97772e-05	0	0	0
1.98068e-05	0	0	0
1.98223e-05	0	0	0
1.9831e-05	0	0	0
1.98603e-05	0	0	0
1.98789e-05	0	0	0
2.00745e-05	0	0	0
2.00816e-05	0	0	0
2.01525e-05	0	0	0
2.03554e-05	0	0	0
2.04125e-05	0	0	0
2.04383e-05	0	0	0
2.04851e-05	0	0	0
2.04979e-05	0	0	0
2.05889e-05	0	0	0
2.07913e-05	0	0	0
2.08091e-05	0	0	0
2.09253e-05	0	0	0
2.10924e-05	0	0	0
2.11609e-05	0	0	0
2.12713e-05	0	0	0
2.13064e-05	0	0	0
2.13181e-05	0	0	0
2.15768e-05	0	0	0
2.18269e-05	0	0	0
2.18397e-05	0	0	0
2.1884e-05	0	0	0
2.18924e-05	0	0	0
2.18982e-05	0	0	0
2.19552e-05	0	0	0
2.20091e-05	0	0	0
2.21045e-05	0	0	0
2.21662e-05	0	0	0
2.22675e-05	0	0	0
2.22789e-05	0	0	0
2.23455e-05	0	0	0
2.24259e-05	0	0	0
2.24947e-05	0	0	0
2.2609e-05	0	0	0
2.26827e-05	0	0	0
2.26841e-05	0	0	0
2.32383e-05	0	0	0
2.33581e-05	0	0	0
2.34889e-05	0	0	0
2.37449e-05	0	0	0
2.37945e-05	0	0	0
2.38116e-05	0	0	0
2.38171e-05	0	0	0
2.38362e-05	0	0	0
2.39565e-05	0	0	0
2.40295e-05	0	0	0
2.40729e-05	0	0	0
2.41227e-05	0	0	0
2.43103e-05	0	0	0
2.43331e-05	0	0	0
2.44529e-05	0	0	0
2.44568e-05	0	0	0
2.45194e-05	0	0	0
2.46535e-05	0	0	0
2.46883e-05	0	0	0
2.47122e-05	0	0	0
2.47141e-05	0	0	0
2.47313e-05	0	0	0
2.48335e-05	0	0	0
2.48509e-05	0	0	0
2.4905e-05	0	0	0
2.52262e-05	0	0	0
2.52466e-05	0	0	0
2.52706e-05	0	0	0
2.54707e-05	0	0	0
2.54763e-05	0	0	0
2.55217e-05	0	0	0
2.5605e-05	0	0	0
2.56152e-05	0	0	0
2.56394e-05	0	0	0
2.56861e-05	0	0	0
2.57299e-05	0	0	0
2.57384e-05	0	0	0
2.58709e-05	0	0	0
2.61934e-05	0	0	0
2.61939e-05	0	0	0
2.62028e-05	0	0	0
2.63743e-05	0	0	0
2.68041e-05	0	0	0
2.69659e-05	0	0	0
2.72097e-05	0	0	0
2.7468e-05	0	0	0
2.75255e-05	0	0	0
2.75258e-05	0	0	0
2.7526e-05	0	0	0
2.75414e-05	0	0	0
2.76474e-05	0	0	0
2.77959e-05	0	0	0
2.7911e-05	0	0	0
2.79676e-05	0	0	0
2.79746e-05	0	0	0
2.81733e-05	0	0	0
2.81848e-05	0	0	0
2.85539e-05	0	0	0
2.85555e-05	0	0	0
2.92942e-05	0	0	0
2.95037e-05	0	0	0
2.95222e-05	0	0	0
2.95351e-05	0	0	0
2.95545e-05	0	0	0
2.98985e-05	0	0	0
2.99672e-05	0	0	0
3.03138e-05	0	0	0
3.03953e-05	0	0	0
3.04354e-05	0	0	0
3.05144e-05	0	0	0
3.0516e-05	0	0	0
3.05644e-05	0	0	0
3.0673e-05	0	0	0
3.07969e-05	0	0	0
3.10753e-05	0	0	0
3.12094e-05	0	0	0
3.12153e-05	0	0	0
3.12597e-05	0	0	0
3.16021e-05	0	0	0
3.17079e-05	0	0	0
3.17207e-05	0	0	0
3.18357e-05	0	0	0
3.19943e-05	0	0	0
3.19983e-05	0	0	0
3.20852e-05	0	0	0
3.21743e-05	0	0	0
3.21904e-05	0	0	0
3.22966e-05	0	0	0
3.24302e-05	0	0	0
3.259e-05	0	0	0
3.25912e-05	0	0	0
3.25932e-05	0	0	0
3.28863e-05	0	0	0
3.30419e-05	0	0	0
3.30999e-05	0	0	0
3.3158e-05	0	0	0
3.3315e-05	0	0	0
3.35253e-05	0	0	0
3.36029e-05	0	0	0
3.38121e-05	0	0	0
3.40447e-05	0	0	0
3.46817e-05	0	0	0
3.47301e-05	0	0	0
3.49585e-05	0	0	0
3.49803e-05	0	0	0
3.5019e-05	0	0	0
3.52448e-05	0	0	0
3.53095e-05	0	0	0
3.5336e-05	0	0	0
3.53429e-05	0	0	0
3.55066e-05	0	0	0
3.55195e-05	0	0	0
3.5595e-05	0	0	0
3.56135e-05	0	0	0
3.57227e-05	0	0	0
3.58202e-05	0	0	0
3.58559e-05	0	0	0
3.58664e-05	0	0	0
3.58753e-05	0	0	0
3.60159e-05	0	0	0
3.60914e-05	0	0	0
3.6435e-05	0	0	0
3.66951e-05	0	0	0
3.6729e-05	0	0	0
3.67618e-05	0	0	0
3.69475e-05	0	0	0
3.69985e-05	0	0	0
3.70677e-05	0	0	0
3.71053e-05	0	0	0
3.72446e-05	0	0	0
3.73162e-05	0	0	0
3.76832e-05	0	0	0
3.79748e-05	0	0	0
3.80869e-05	0	0	0
3.81891e-05	0	0	0
3.83167e-05	0	0	0
3.83416e-05	0	0	0
3.84264e-05	0	0	0
3.84372e-05	0	0	0
3.85227e-05	0	0	0
3.85852e-05	0	0	0
3.86506e-05	0	0	0
3.86732e-05	0	0	0
3.89285e-05	0	0	0
3.90188e-05	0	0	0
3.93059e-05	0	0	0
3.93383e-05	0	0	0
3.95533e-05	0	0	0
3.95966e-05	0	0	0
3.96501e-05	0	0	0
4.00588e-05	0	0	0
4.02753e-05	0	0	0
4.02872e-05	0	0	0
4.05488e-05	0	0	0
4.07711e-05	0	0	0
4.10694e-05	0	0	0
4.10898e-05	0	0	0
4.11764e-05	0	0	0
4.1267e-05	0	0	0
4.1319e-05	0	0	0
4.15513e-05	0	0	0
4.2096e-05	0	0	0
4.23602e-05	0	0	0
4.24592e-05	0	0	0
4.24763e-05	0	0	0
4.29075e-05	0	0	0
4.29512e-05	0	0	0
4.29933e-05	0	0	0
4.34213e-05	0	0	0
4.34409e-05	0	0	0
4.34492e-05	0	0	0
4.3456e-05	0	0	0
4.35448e-05	0	0	0
4.40851e-05	0	0	0
4.41006e-05	0	0	0
4.42037e-05	0	0	0
4.42164e-05	0	0	0
4.42341e-05	0	0	0
4.45996e-05	0	0	0
4.46579e-05	0	0	0
4.52079e-05	0	0	0
4.52201e-05	0	0	0
4.53428e-05	0	0	0
4.55081e-05	0	0	0
4.57362e-05	0	0	0
4.57763e-05	0	0	0
4.59055e-05	0	0	0
4.60853e-05	0	0	0
4.62532e-05	0	0	0
4.62813e-05	0	0	0
4.64388e-05	0	0	0
4.65547e-05	0	0	0
4.68034e-05	0	0	0
4.76566e-05	0	0	0
4.76599e-05	0	0	0
4.76658e-05	0	0	0
4.81308e-05	0	0	0
4.83537e-05	0	0	0
4.86909e-05	0	0	0
4.88047e-05	0	0	0
4.88543e-05	0	0	0
4.89109e-05	0	0	0
4.89264e-05	0	0	0
4.92106e-05	0	0	0
4.92429e-05	0	0	0
4.93395e-05	0	0	0
4.99774e-05	0	0	0
4.99955e-05	0	0	0
5.10108e-05	0	0	0
5.10184e-05	0	0	0
5.13632e-05	0	0	0
5.18325e-05	0	0	0
5.18614e-05	0	0	0
5.23651e-05	0	0	0
5.26502e-05	0	0	0
5.27118e-05	0	0	0
5.29442e-05	0	0	0
5.33794e-05	0	0	0
5.41124e-05	0	0	0
5.43282e-05	0	0	0
5.46423e-05	0	0	0
5.49134e-05	0	0	0
5.49311e-05	0	0	0
5.4987e-05	0	0	0
5.50164e-05	0	0	0
5.51885e-05	0	0	0
5.52464e-05	0	0	0
5.54203e-05	0	0	0
5.55456e-05	0	0	0
5.57728e-05	0	0	0
5.60587e-05	0	0	0
5.62269e-05	0	0	0
5.64049e-05	0	0	0
5.64493e-05	0	0	0
5.6803e-05	0	0	0
5.70711e-05	0	0	0
5.70981e-05	0	0	0
5.74872e-05	0	0	0
5.75791e-05	0	0	0
5.84902e-05	0	0	0
5.88674e-05	0	0	0
5.90737e-05	0	0	0
5.91987e-05	0	0	0
5.94192e-05	0	0	0
6.02072e-05	0	0	0
6.03291e-05	0	0	0
6.04711e-05	0	0	0
6.05313e-05	0	0	0
6.06059e-05	0	0	0
6.06288e-05	0	0	0
6.0651e-05	0	0	0
6.06552e-05	0	0	0
6.07039e-05	0	0	0
6.08906e-05	0	0	0
6.09712e-05	0	0	0
6.10122e-05	0	0	0
6.12027e-05	0	0	0
6.16134e-05	0	0	0
6.16233e-05	0	0	0
6.16361e-05	0	0	0
6.16544e-05	0	0	0
6.18381e-05	0	0	0
6.18559e-05	0	0	0
6.19111e-05	0	0	0
6.20956e-05	0	0	0
6.27932e-05	0	0	0
6.29227e-05	0	0	0
6.37353e-05	0	0	0
6.38024e-05	0	0	0
6.38457e-05	0	0	0
6.40484e-05	0	0	0
6.46505e-05	0	0	0
6.55947e-05	0	0	0
6.58635e-05	0	0	0
6.62365e-05	0	0	0
6.65907e-05	0	0	0
6.71738e-05	0	0	0
6.76851e-05	0	0	0
6.77877e-05	0	0	0
6.83196e-05	0	0	0
6.86525e-05	0	0	0
6.88939e-05	0	0	0
7.00238e-05	0	0	0
7.06628e-05	0	0	0
7.07711e-05	0	0	0
7.13436e-05	0	0	0
7.16069e-05	0	0	0
7.19837e-05	0	0	0
7.24782e-05	0	0	0
7.26601e-05	0	0	0
7.31568e-05	0	0	0
7.32876e-05	0	0	0
7.33383e-05	0	0	0
7.50586e-05	0	0	0
7.51065e-05	0	0	0
7.78557e-05	0	0	0
7.82746e-05	0	0	0
7.86449e-05	0	0	0
7.91396e-05	0	0	0
7.9243e-05	0	0	0
7.94892e-05	0	0	0
7.97044e-05	0	0	0
8.09214e-05	0	0	0
8.09366e-05	0	0	0
8.10714e-05	0	0	0
8.14895e-05	0	0	0
8.1693e-05	0	0	0
8.17699e-05	0	0	0
8.21942e-05	0	0	0
8.23309e-05	0	0	0
8.23317e-05	0	0	0
8.30383e-05	0	0	0
8.32902e-05	0	0	0
8.41226e-05	0	0	0
8.56868e-05	0	0	0
8.64887e-05	0	0	0
8.72239e-05	0	0	0
8.73215e-05	0	0	0
8.89458e-05	0	0	0
8.94444e-05	0	0	0
8.9542e-05	0	0	0
8.95785e-05	0	0	0
8.99611e-05	0	0	0
9.09352e-05	0	0	0
9.10168e-05	0	0	0
9.18588e-05	0	0	0
9.20343e-05	0	0	0
9.25137e-05	0	0	0
9.29695e-05	0	0	0
9.4058e-05	0	0	0
9.42504e-05	0	0	0
9.5474e-05	0	0	0
9.56844e-05	0	0	0
9.65535e-05	0	0	0
9.66691e-05	0	0	0
9.74446e-05	0	0	0
9.75317e-05	0	0	0
9.80178e-05	0	0	0
9.84663e-05	0	0	0
9.93148e-05	0	0	0
9.93922e-05	0	0	0
0.000101337	0	0	0
0.000101864	0	0	0
0.000102348	0	0	0
0.000102412	0	0	0
0.000103175	0	0	0
0.000105128	0	0	0
0.00011219	0	0	0
0.000112273	0	0	0
0.000112279	0	0	0
0.00011231	0	0	0
0.000112468	0	0	0
0.000112662	0	0	0
0.000113154	0	0	0
0.00011345	0	0	0
0.000114466	0	0	0
0.000115604	0	0	0
0.000116201	0	0	0
0.000116879	0	0	0
0.000117855	0	0	0
0.000120119	0	0	0
0.000120385	0	0	0
0.000121746	0	0	0
0.000121824	0	0	0
0.000122156	0	0	0
0.000123312	0	0	0
0.000123358	0	0	0
0.000123829	0	0	0
0.000123866	0	0	0
0.000128483	0	0	0
0.000128548	0	0	0
0.000128695	0	0	0
0.000129374	0	0	0
0.000138591	0	0	0
0.000139356	0	0	0
0.000139899	0	0	0
0.000140374	0	0	0
0.000141012	0	0	0
0.000141354	0	0	0
0.000143425	0	0	0
0.000144217	0	0	0
0.000144519	0	0	0
0.000145471	0	0	0
0.000148597	0	0	0
0.000149079	0	0	0
0.000149438	0	0	0
0.000152813	0	0	0
0.000154471	0	0	0
0.0001545	0	0	0
0.000159494	0	0	0
0.000160984	0	0	0
0.000162089	0	0	0
0.000162204	0	0	0
0.000162903	0	0	0
0.000162974	0	0	0
0.000163694	0	0	0
0.000164264	0	0	0
0.000165469	0	0	0
0.000167781	0	0	0
0.000169685	0	0	0
0.000170308	0	0	0
0.000170804	0	0	0
0.000175448	0	0	0
0.00017596	0	0	0
0.000176751	0	0	0
0.000179807	0	0	0
0.000181193	0	0	0
0.00018335	0	0	0
0.000186454	0	0	0
0.000187347	0	0	0
0.000188455	0	0	0
0.000188692	0	0	0
0.00019033	0	0	0
0.000195886	0	0	0
0.000199055	0	0	0
0.000211095	0	0	0
0.000211381	0	0	0
0.000212351	0	0	0
0.000212947	0	0	0
0.000215229	0	0	0
0.000219507	0	0	0
0.000224594	0	0	0
0.000229763	0	0	0
0.000240028	0	0	0
0.000248345	0	0	0
0.000258438	0	0	0
0.000259756	0	0	0
0.000278271	0	0	0
0.000287281	0	0	0
0.000291382	0	0	0
0.000295486	0	0	0
0.000301868	0	0	0
0.000305517	0	0	0
0.000312457	0	0	0
0.000344725	0	0	0
0.000345342	0	0	0
0.000356337	0	0	0
0.000372487	0	0	0
0.000384833	0	0	0
0.000393206	0	0	0
0.000397602	0	0	0
0.000471684	0	0	0
0.000477147	0	0	0
0.000493043	0	0	0
0.000524323	0	0	0
0.000529138	0	0	0
0.000554604	0	0	0
0.000577938	0	0	0
0.00059971	0	0	0
0.000614849	0	0	0
0.000618704	0	0	0
0.000621575	0	0	0
0.000638116	0	0	0
0.000700186	0	0	0
0.000701776	0	0	0
0.000725674	0	0	0
0.000745767	0	0	0
0.000761364	0	0	0
0.000763492	0	0	0
0.000859557	0	0	0
0.000916096	0	0	0
0.000932231	0	0	0
0.000959467	0	0	0
0.00105935	0	0	0
0.00106164	0	0	0
0.00111074	0	0	0
0.00116302	0	0	0
0.00117961	0	0	0
0.0014062	0	0	0
0.0014271	0	0	0
0.00156492	0	0	0
0.00171502	0	0	0
0.00171816	0	0	0
0.0017494	0	0	0
0.00191539	0	0	0
0.00192073	0	0	0
0.00203002	0	0	0
0.00209109	0	0	0
0.00219892	0	0	0
0.00223463	0	0	0
0.0022366	0	0	0
0.00230542	0	0	0
0.00231804	0	0	0
0.00238126	0	0	0
0.002418	0	0	0
0.00244786	0	0	0
0.00249867	0	0	0
0.00320431	0	0	0
0.00320718	0	0	0
0.00333786	0	0	0
0.00364788	0	0	0
0.00374217	0	0	0
0.00399588	0	0	0
0.00507114	0	0	0
0.00508595	0	0	0
0.00691845	0	0	0
0.00698686	0	0	0
0.00748106	0	0	0
0.00790978	0.0138198	0.0276396	0
0.00880371	0.0138198	0.0276396	0
0.0104638	0.0138198	0.0276396	0
0.0122824	0.0138198	0.0276396	0
0.012363	0.0138198	0.0276396	0
0.0133254	0.0138198	0.0276396	0
0.0269152	0.0138198	0.0276396	0
