1.29462e-09	0	0	0
1.46431e-08	0	0	0
3.1971e-08	0	0	0
5.44773e-08	0	0	0
5.92773e-08	0	0	0
7.47973e-08	0	0	0
7.69891e-08	0	0	0
9.44609e-08	0	0	0
1.33436e-07	0	0	0
1.38285e-07	0	0	0
1.41287e-07	0	0	0
1.55896e-07	0	0	0
1.57608e-07	0	0	0
1.64188e-07	0	0	0
1.90311e-07	0	0	0
2.09888e-07	0	0	0
2.23156e-07	0	0	0
2.31986e-07	0	0	0
2.32569e-07	0	0	0
2.34895e-07	0	0	0
2.3683e-07	0	0	0
2.51526e-07	0	0	0
2.58235e-07	0	0	0
2.96579e-07	0	0	0
3.0088e-07	0	0	0
3.11359e-07	0	0	0
3.2435e-07	0	0	0
4.10553e-07	0	0	0
4.12616e-07	0	0	0
4.31353e-07	0	0	0
4.38799e-07	0	0	0
5.12214e-07	0	0	0
5.15017e-07	0	0	0
5.30963e-07	0	0	0
5.68734e-07	0	0	0
6.15086e-07	0	0	0
6.18166e-07	0	0	0
6.36878e-07	0	0	0
6.82483e-07	0	0	0
7.27622e-07	0	0	0
7.33562e-07	0	0	0
7.41275e-07	0	0	0
8.51256e-07	0	0	0
9.08909e-07	0	0	0
9.21898e-07	0	0	0
9.23918e-07	0	0	0
9.32846e-07	0	0	0
9.38367e-07	0	0	0
9.52911e-07	0	0	0
9.54616e-07	0	0	0
9.91166e-07	0	0	0
9.94626e-07	0	0	0
1.00313e-06	0	0	0
1.04235e-06	0	0	0
1.04499e-06	0	0	0
1.06327e-06	0	0	0
1.07984e-06	0	0	0
1.08877e-06	0	0	0
1.11455e-06	0	0	0
1.12351e-06	0	0	0
1.13004e-06	0	0	0
1.1465e-06	0	0	0
1.19378e-06	0	0	0
1.20102e-06	0	0	0
1.20565e-06	0	0	0
1.23268e-06	0	0	0
1.24515e-06	0	0	0
1.25355e-06	0	0	0
1.25735e-06	0	0	0
1.28876e-06	0	0	0
1.34043e-06	0	0	0
1.40844e-06	0	0	0
1.42751e-06	0	0	0
1.47583e-06	0	0	0
1.53308e-06	0	0	0
1.54719e-06	0	0	0
1.57017e-06	0	0	0
1.59742e-06	0	0	0
1.61381e-06	0	0	0
1.70067e-06	0	0	0
1.70311e-06	0	0	0
1.72358e-06	0	0	0
1.72853e-06	0	0	0
1.74638e-06	0	0	0
1.76671e-06	0	0	0
1.78148e-06	0	0	0
1.86588e-06	0	0	0
1.87416e-06	0	0	0
1.92861e-06	0	0	0
1.95833e-06	0	0	0
1.97927e-06	0	0	0
1.99002e-06	0	0	0
2.00546e-06	0	0	0
2.03845e-06	0	0	0
2.10618e-06	0	0	0
2.12538e-06	0	0	0
2.12804e-06	0	0	0
2.1588e-06	0	0	0
2.1763e-06	0	0	0
2.1946e-06	0	0	0
2.21134e-06	0	0	0
2.24161e-06	0	0	0
2.29608e-06	0	0	0
2.29796e-06	0	0	0
2.30694e-06	0	0	0
2.3809e-06	0	0	0
2.41799e-06	0	0	0
2.42142e-06	0	0	0
2.42889e-06	0	0	0
2.48168e-06	0	0	0
2.49291e-06	0	0	0
2.4993e-06	0	0	0
2.504e-06	0	0	0
2.54046e-06	0	0	0
2.56744e-06	0	0	0
2.58038e-06	0	0	0
2.60376e-06	0	0	0
2.75311e-06	0	0	0
2.76757e-06	0	0	0
2.80321e-06	0	0	0
2.84887e-06	0	0	0
2.85643e-06	0	0	0
2.85685e-06	0	0	0
2.86581e-06	0	0	0
2.87599e-06	0	0	0
2.88973e-06	0	0	0
2.89236e-06	0	0	0
2.94096e-06	0	0	0
2.96885e-06	0	0	0
3.05981e-06	0	0	0
3.09147e-06	0	0	0
3.11471e-06	0	0	0
3.1266e-06	0	0	0
3.16212e-06	0	0	0
3.16566e-06	0	0	0
3.18511e-06	0	0	0
3.19183e-06	0	0	0
3.19389e-06	0	0	0
3.20413e-06	0	0	0
3.21077e-06	0	0	0
3.23738e-06	0	0	0
3.2608e-06	0	0	0
3.27595e-06	0	0	0
3.29089e-06	0	0	0
3.32016e-06	0	0	0
3.32755e-06	0	0	0
3.36052e-06	0	0	0
3.53818e-06	0	0	0
3.55995e-06	0	0	0
3.5772e-06	0	0	0
3.68672e-06	0	0	0
3.69657e-06	0	0	0
3.76292e-06	0	0	0
3.77681e-06	0	0	0
3.78514e-06	0	0	0
3.78947e-06	0	0	0
3.79819e-06	0	0	0
3.82105e-06	0	0	0
3.8623e-06	0	0	0
3.87583e-06	0	0	0
3.88818e-06	0	0	0
3.97319e-06	0	0	0
3.99174e-06	0	0	0
4.1178e-06	0	0	0
4.13762e-06	0	0	0
4.15823e-06	0	0	0
4.15896e-06	0	0	0
4.16373e-06	0	0	0
4.16508e-06	0	0	0
4.17906e-06	0	0	0
4.26589e-06	0	0	0
4.31781e-06	0	0	0
4.34115e-06	0	0	0
4.34401e-06	0	0	0
4.35001e-06	0	0	0
4.40922e-06	0	0	0
4.44225e-06	0	0	0
4.48265e-06	0	0	0
4.48824e-06	0	0	0
4.5245e-06	0	0	0
4.53913e-06	0	0	0
4.57361e-06	0	0	0
4.58665e-06	0	0	0
4.71702e-06	0	0	0
4.79114e-06	0	0	0
4.79544e-06	0	0	0
4.80365e-06	0	0	0
4.80722e-06	0	0	0
4.83235e-06	0	0	0
4.83684e-06	0	0	0
4.84776e-06	0	0	0
4.85423e-06	0	0	0
4.86178e-06	0	0	0
4.8666e-06	0	0	0
4.92226e-06	0	0	0
4.9287e-06	0	0	0
5.02511e-06	0	0	0
5.0733e-06	0	0	0
5.07873e-06	0	0	0
5.08091e-06	0	0	0
5.13821e-06	0	0	0
5.14084e-06	0	0	0
5.18283e-06	0	0	0
5.26708e-06	0	0	0
5.28866e-06	0	0	0
5.30811e-06	0	0	0
5.30835e-06	0	0	0
5.36467e-06	0	0	0
5.36999e-06	0	0	0
5.38345e-06	0	0	0
5.38799e-06	0	0	0
5.41301e-06	0	0	0
5.43236e-06	0	0	0
5.4374e-06	0	0	0
5.57343e-06	0	0	0
5.62325e-06	0	0	0
5.75079e-06	0	0	0
5.81791e-06	0	0	0
5.91562e-06	0	0	0
5.93851e-06	0	0	0
5.96574e-06	0	0	0
5.97973e-06	0	0	0
5.98758e-06	0	0	0
5.99389e-06	0	0	0
6.12358e-06	0	0	0
6.15269e-06	0	0	0
6.17372e-06	0	0	0
6.23739e-06	0	0	0
6.34075e-06	0	0	0
6.3983e-06	0	0	0
6.46441e-06	0	0	0
6.46457e-06	0	0	0
6.46505e-06	0	0	0
6.47135e-06	0	0	0
6.48454e-06	0	0	0
6.59715e-06	0	0	0
6.61166e-06	0	0	0
6.6535e-06	0	0	0
6.65374e-06	0	0	0
6.66424e-06	0	0	0
6.67811e-06	0	0	0
6.72955e-06	0	0	0
6.81423e-06	0	0	0
6.85769e-06	0	0	0
6.86679e-06	0	0	0
6.89721e-06	0	0	0
6.91092e-06	0	0	0
6.92055e-06	0	0	0
6.92487e-06	0	0	0
6.93226e-06	0	0	0
7.09346e-06	0	0	0
7.14182e-06	0	0	0
7.14369e-06	0	0	0
7.18456e-06	0	0	0
7.18688e-06	0	0	0
7.33703e-06	0	0	0
7.3904e-06	0	0	0
7.39116e-06	0	0	0
7.43254e-06	0	0	0
7.46553e-06	0	0	0
7.51146e-06	0	0	0
7.58725e-06	0	0	0
7.73487e-06	0	0	0
7.78036e-06	0	0	0
7.78182e-06	0	0	0
7.83707e-06	0	0	0
7.89097e-06	0	0	0
7.92281e-06	0	0	0
7.92635e-06	0	0	0
7.99983e-06	0	0	0
8.02424e-06	0	0	0
8.03665e-06	0	0	0
8.06583e-06	0	0	0
8.06798e-06	0	0	0
8.09097e-06	0	0	0
8.11087e-06	0	0	0
8.18772e-06	0	0	0
8.22508e-06	0	0	0
8.26567e-06	0	0	0
8.2858e-06	0	0	0
8.35551e-06	0	0	0
8.35983e-06	0	0	0
8.40128e-06	0	0	0
8.45427e-06	0	0	0
8.47515e-06	0	0	0
8.48415e-06	0	0	0
8.5064e-06	0	0	0
8.60797e-06	0	0	0
8.62634e-06	0	0	0
8.65726e-06	0	0	0
8.65945e-06	0	0	0
8.67624e-06	0	0	0
8.6836e-06	0	0	0
8.71541e-06	0	0	0
8.7548e-06	0	0	0
8.79991e-06	0	0	0
8.80634e-06	0	0	0
8.84502e-06	0	0	0
8.89312e-06	0	0	0
8.8944e-06	0	0	0
8.90797e-06	0	0	0
8.92354e-06	0	0	0
9.09238e-06	0	0	0
9.10096e-06	0	0	0
9.10529e-06	0	0	0
9.1207e-06	0	0	0
9.14129e-06	0	0	0
9.22973e-06	0	0	0
9.24294e-06	0	0	0
9.35014e-06	0	0	0
9.38268e-06	0	0	0
9.42775e-06	0	0	0
9.43645e-06	0	0	0
9.4383e-06	0	0	0
9.56877e-06	0	0	0
9.6368e-06	0	0	0
9.64797e-06	0	0	0
9.66836e-06	0	0	0
9.67328e-06	0	0	0
9.76253e-06	0	0	0
9.76933e-06	0	0	0
9.84105e-06	0	0	0
9.85017e-06	0	0	0
9.93128e-06	0	0	0
9.97327e-06	0	0	0
1.00268e-05	0	0	0
1.01157e-05	0	0	0
1.02262e-05	0	0	0
1.02769e-05	0	0	0
1.03295e-05	0	0	0
1.04093e-05	0	0	0
1.04367e-05	0	0	0
1.04938e-05	0	0	0
1.05727e-05	0	0	0
1.05964e-05	0	0	0
1.06053e-05	0	0	0
1.06358e-05	0	0	0
1.06849e-05	0	0	0
1.08226e-05	0	0	0
1.09562e-05	0	0	0
1.09919e-05	0	0	0
1.10932e-05	0	0	0
1.11452e-05	0	0	0
1.11632e-05	0	0	0
1.12355e-05	0	0	0
1.12757e-05	0	0	0
1.13642e-05	0	0	0
1.14376e-05	0	0	0
1.15471e-05	0	0	0
1.16237e-05	0	0	0
1.16544e-05	0	0	0
1.17279e-05	0	0	0
1.17501e-05	0	0	0
1.18919e-05	0	0	0
1.19024e-05	0	0	0
1.19753e-05	0	0	0
1.20129e-05	0	0	0
1.20301e-05	0	0	0
1.20601e-05	0	0	0
1.20641e-05	0	0	0
1.20924e-05	0	0	0
1.21245e-05	0	0	0
1.21396e-05	0	0	0
1.22374e-05	0	0	0
1.23516e-05	0	0	0
1.23868e-05	0	0	0
1.24274e-05	0	0	0
1.24876e-05	0	0	0
1.25514e-05	0	0	0
1.25949e-05	0	0	0
1.26643e-05	0	0	0
1.26669e-05	0	0	0
1.27038e-05	0	0	0
1.27195e-05	0	0	0
1.27638e-05	0	0	0
1.29167e-05	0	0	0
1.29231e-05	0	0	0
1.29747e-05	0	0	0
1.31347e-05	0	0	0
1.31421e-05	0	0	0
1.3174e-05	0	0	0
1.32743e-05	0	0	0
1.33535e-05	0	0	0
1.33631e-05	0	0	0
1.3379e-05	0	0	0
1.34099e-05	0	0	0
1.34398e-05	0	0	0
1.36704e-05	0	0	0
1.36931e-05	0	0	0
1.37053e-05	0	0	0
1.37397e-05	0	0	0
1.37613e-05	0	0	0
1.3764e-05	0	0	0
1.40536e-05	0	0	0
1.40608e-05	0	0	0
1.40936e-05	0	0	0
1.42446e-05	0	0	0
1.45781e-05	0	0	0
1.46034e-05	0	0	0
1.46054e-05	0	0	0
1.46715e-05	0	0	0
1.47034e-05	0	0	0
1.47476e-05	0	0	0
1.48929e-05	0	0	0
1.49385e-05	0	0	0
1.49548e-05	0	0	0
1.49587e-05	0	0	0
1.50095e-05	0	0	0
1.51125e-05	0	0	0
1.51875e-05	0	0	0
1.52561e-05	0	0	0
1.53072e-05	0	0	0
1.53209e-05	0	0	0
1.54608e-05	0	0	0
1.55235e-05	0	0	0
1.55587e-05	0	0	0
1.55888e-05	0	0	0
1.56781e-05	0	0	0
1.5712e-05	0	0	0
1.5757e-05	0	0	0
1.5886e-05	0	0	0
1.59766e-05	0	0	0
1.59848e-05	0	0	0
1.60625e-05	0	0	0
1.60873e-05	0	0	0
1.61458e-05	0	0	0
1.62484e-05	0	0	0
1.62591e-05	0	0	0
1.64427e-05	0	0	0
1.66584e-05	0	0	0
1.66818e-05	0	0	0
1.67046e-05	0	0	0
1.6786e-05	0	0	0
1.68024e-05	0	0	0
1.69545e-05	0	0	0
1.69862e-05	0	0	0
1.69972e-05	0	0	0
1.70277e-05	0	0	0
1.71584e-05	0	0	0
1.72505e-05	0	0	0
1.72623e-05	0	0	0
1.74047e-05	0	0	0
1.74787e-05	0	0	0
1.75639e-05	0	0	0
1.76702e-05	0	0	0
1.76902e-05	0	0	0
1.77773e-05	0	0	0
1.79223e-05	0	0	0
1.79588e-05	0	0	0
1.81276e-05	0	0	0
1.82647e-05	0	0	0
1.8299e-05	0	0	0
1.83272e-05	0	0	0
1.84701e-05	0	0	0
1.85965e-05	0	0	0
1.86756e-05	0	0	0
1.88152e-05	0	0	0
1.884e-05	0	0	0
1.88576e-05	0	0	0
1.89636e-05	0	0	0
1.91123e-05	0	0	0
1.91718e-05	0	0	0
1.93816e-05	0	0	0
1.93838e-05	0	0	0
1.94789e-05	0	0	0
1.96321e-05	0	0	0
1.96387e-05	0	0	0
1.97071e-05	0	0	0
1.9715e-05	0	0	0
1.98382e-05	0	0	0
1.98841e-05	0	0	0
1.99051e-05	0	0	0
1.99069e-05	0	0	0
1.99346e-05	0	0	0
1.99751e-05	0	0	0
2.0227e-05	0	0	0
2.02538e-05	0	0	0
2.02688e-05	0	0	0
2.03715e-05	0	0	0
2.04379e-05	0	0	0
2.05549e-05	0	0	0
2.05615e-05	0	0	0
2.06209e-05	0	0	0
2.06449e-05	0	0	0
2.07154e-05	0	0	0
2.07507e-05	0	0	0
2.07604e-05	0	0	0
2.07951e-05	0	0	0
2.0843e-05	0	0	0
2.08586e-05	0	0	0
2.0911e-05	0	0	0
2.09548e-05	0	0	0
2.10768e-05	0	0	0
2.11555e-05	0	0	0
2.11565e-05	0	0	0
2.12603e-05	0	0	0
2.14369e-05	0	0	0
2.14736e-05	0	0	0
2.16579e-05	0	0	0
2.17313e-05	0	0	0
2.17389e-05	0	0	0
2.18551e-05	0	0	0
2.18721e-05	0	0	0
2.19608e-05	0	0	0
2.19988e-05	0	0	0
2.20139e-05	0	0	0
2.21815e-05	0	0	0
2.22939e-05	0	0	0
2.2297e-05	0	0	0
2.23524e-05	0	0	0
2.24224e-05	0	0	0
2.2549e-05	0	0	0
2.25939e-05	0	0	0
2.27048e-05	0	0	0
2.28574e-05	0	0	0
2.28611e-05	0	0	0
2.31298e-05	0	0	0
2.31685e-05	0	0	0
2.32692e-05	0	0	0
2.34504e-05	0	0	0
2.36112e-05	0	0	0
2.3612e-05	0	0	0
2.36453e-05	0	0	0
2.37036e-05	0	0	0
2.37424e-05	0	0	0
2.37618e-05	0	0	0
2.39405e-05	0	0	0
2.39807e-05	0	0	0
2.403e-05	0	0	0
2.40818e-05	0	0	0
2.41553e-05	0	0	0
2.42301e-05	0	0	0
2.43747e-05	0	0	0
2.44543e-05	0	0	0
2.4986e-05	0	0	0
2.51948e-05	0	0	0
2.53008e-05	0	0	0
2.53265e-05	0	0	0
2.53491e-05	0	0	0
2.55043e-05	0	0	0
2.55608e-05	0	0	0
2.55889e-05	0	0	0
2.56556e-05	0	0	0
2.57819e-05	0	0	0
2.58396e-05	0	0	0
2.58459e-05	0	0	0
2.59828e-05	0	0	0
2.61411e-05	0	0	0
2.62614e-05	0	0	0
2.63092e-05	0	0	0
2.65102e-05	0	0	0
2.66953e-05	0	0	0
2.67007e-05	0	0	0
2.67273e-05	0	0	0
2.67538e-05	0	0	0
2.68298e-05	0	0	0
2.70117e-05	0	0	0
2.71749e-05	0	0	0
2.71943e-05	0	0	0
2.72213e-05	0	0	0
2.74476e-05	0	0	0
2.74918e-05	0	0	0
2.76588e-05	0	0	0
2.79409e-05	0	0	0
2.81504e-05	0	0	0
2.82138e-05	0	0	0
2.83221e-05	0	0	0
2.83392e-05	0	0	0
2.84241e-05	0	0	0
2.86607e-05	0	0	0
2.86907e-05	0	0	0
2.88121e-05	0	0	0
2.89217e-05	0	0	0
2.8988e-05	0	0	0
2.91041e-05	0	0	0
2.91366e-05	0	0	0
2.92444e-05	0	0	0
2.9293e-05	0	0	0
2.93114e-05	0	0	0
2.93914e-05	0	0	0
2.94172e-05	0	0	0
2.96443e-05	0	0	0
2.97026e-05	0	0	0
2.97999e-05	0	0	0
2.98849e-05	0	0	0
2.99016e-05	0	0	0
2.99088e-05	0	0	0
2.999e-05	0	0	0
3.01646e-05	0	0	0
3.0355e-05	0	0	0
3.0407e-05	0	0	0
3.04088e-05	0	0	0
3.0485e-05	0	0	0
3.10185e-05	0	0	0
3.10689e-05	0	0	0
3.14391e-05	0	0	0
3.15375e-05	0	0	0
3.17046e-05	0	0	0
3.17353e-05	0	0	0
3.18303e-05	0	0	0
3.19609e-05	0	0	0
3.21258e-05	0	0	0
3.22505e-05	0	0	0
3.24382e-05	0	0	0
3.24897e-05	0	0	0
3.27807e-05	0	0	0
3.28824e-05	0	0	0
3.29302e-05	0	0	0
3.29438e-05	0	0	0
3.3111e-05	0	0	0
3.31991e-05	0	0	0
3.32304e-05	0	0	0
3.32587e-05	0	0	0
3.33232e-05	0	0	0
3.35065e-05	0	0	0
3.35317e-05	0	0	0
3.36354e-05	0	0	0
3.37087e-05	0	0	0
3.37138e-05	0	0	0
3.37276e-05	0	0	0
3.38779e-05	0	0	0
3.41529e-05	0	0	0
3.4173e-05	0	0	0
3.43884e-05	0	0	0
3.44979e-05	0	0	0
3.45482e-05	0	0	0
3.45495e-05	0	0	0
3.47956e-05	0	0	0
3.50205e-05	0	0	0
3.51159e-05	0	0	0
3.51795e-05	0	0	0
3.52128e-05	0	0	0
3.52991e-05	0	0	0
3.5447e-05	0	0	0
3.54848e-05	0	0	0
3.57354e-05	0	0	0
3.57891e-05	0	0	0
3.59853e-05	0	0	0
3.6059e-05	0	0	0
3.60674e-05	0	0	0
3.66596e-05	0	0	0
3.6989e-05	0	0	0
3.70854e-05	0	0	0
3.73416e-05	0	0	0
3.73506e-05	0	0	0
3.74067e-05	0	0	0
3.74136e-05	0	0	0
3.75257e-05	0	0	0
3.80831e-05	0	0	0
3.81433e-05	0	0	0
3.82248e-05	0	0	0
3.89387e-05	0	0	0
3.90285e-05	0	0	0
3.90592e-05	0	0	0
3.91193e-05	0	0	0
3.92713e-05	0	0	0
3.93909e-05	0	0	0
3.95927e-05	0	0	0
4.049e-05	0	0	0
4.06065e-05	0	0	0
4.07474e-05	0	0	0
4.07577e-05	0	0	0
4.0866e-05	0	0	0
4.09017e-05	0	0	0
4.11973e-05	0	0	0
4.1239e-05	0	0	0
4.13082e-05	0	0	0
4.13779e-05	0	0	0
4.1383e-05	0	0	0
4.16689e-05	0	0	0
4.19054e-05	0	0	0
4.19512e-05	0	0	0
4.21726e-05	0	0	0
4.25015e-05	0	0	0
4.25998e-05	0	0	0
4.26273e-05	0	0	0
4.3321e-05	0	0	0
4.34979e-05	0	0	0
4.39802e-05	0	0	0
4.41249e-05	0	0	0
4.4429e-05	0	0	0
4.45143e-05	0	0	0
4.49577e-05	0	0	0
4.49725e-05	0	0	0
4.50366e-05	0	0	0
4.52745e-05	0	0	0
4.54746e-05	0	0	0
4.57749e-05	0	0	0
4.58601e-05	0	0	0
4.58994e-05	0	0	0
4.61345e-05	0	0	0
4.6154e-05	0	0	0
4.6212e-05	0	0	0
4.66114e-05	0	0	0
4.67756e-05	0	0	0
4.68684e-05	0	0	0
4.70079e-05	0	0	0
4.72284e-05	0	0	0
4.82579e-05	0	0	0
4.83041e-05	0	0	0
4.8607e-05	0	0	0
4.8615e-05	0	0	0
4.87034e-05	0	0	0
4.87837e-05	0	0	0
4.89278e-05	0	0	0
4.89716e-05	0	0	0
4.91594e-05	0	0	0
4.91828e-05	0	0	0
4.93375e-05	0	0	0
4.96106e-05	0	0	0
4.96881e-05	0	0	0
4.97951e-05	0	0	0
5.0233e-05	0	0	0
5.02333e-05	0	0	0
5.0351e-05	0	0	0
5.1269e-05	0	0	0
5.13818e-05	0	0	0
5.14605e-05	0	0	0
5.1483e-05	0	0	0
5.15455e-05	0	0	0
5.17061e-05	0	0	0
5.17742e-05	0	0	0
5.19478e-05	0	0	0
5.21457e-05	0	0	0
5.22872e-05	0	0	0
5.24442e-05	0	0	0
5.25454e-05	0	0	0
5.26375e-05	0	0	0
5.29844e-05	0	0	0
5.31746e-05	0	0	0
5.3508e-05	0	0	0
5.36595e-05	0	0	0
5.37346e-05	0	0	0
5.41277e-05	0	0	0
5.41786e-05	0	0	0
5.42221e-05	0	0	0
5.43261e-05	0	0	0
5.44408e-05	0	0	0
5.47583e-05	0	0	0
5.48103e-05	0	0	0
5.50655e-05	0	0	0
5.52069e-05	0	0	0
5.52093e-05	0	0	0
5.54846e-05	0	0	0
5.56911e-05	0	0	0
5.58196e-05	0	0	0
5.63541e-05	0	0	0
5.63905e-05	0	0	0
5.6973e-05	0	0	0
5.71799e-05	0	0	0
5.72824e-05	0	0	0
5.80415e-05	0	0	0
5.8221e-05	0	0	0
5.83665e-05	0	0	0
5.89101e-05	0	0	0
5.9087e-05	0	0	0
5.9585e-05	0	0	0
5.97308e-05	0	0	0
5.97532e-05	0	0	0
5.98867e-05	0	0	0
5.9973e-05	0	0	0
6.00932e-05	0	0	0
6.10737e-05	0	0	0
6.1309e-05	0	0	0
6.15305e-05	0	0	0
6.16797e-05	0	0	0
6.17904e-05	0	0	0
6.19049e-05	0	0	0
6.25127e-05	0	0	0
6.27641e-05	0	0	0
6.32927e-05	0	0	0
6.36657e-05	0	0	0
6.54982e-05	0	0	0
6.6075e-05	0	0	0
6.61785e-05	0	0	0
6.64846e-05	0	0	0
6.6735e-05	0	0	0
6.67829e-05	0	0	0
6.73479e-05	0	0	0
6.79681e-05	0	0	0
6.8587e-05	0	0	0
6.94734e-05	0	0	0
6.9655e-05	0	0	0
6.98968e-05	0	0	0
7.07328e-05	0	0	0
7.07376e-05	0	0	0
7.07733e-05	0	0	0
7.08583e-05	0	0	0
7.19949e-05	0	0	0
7.2505e-05	0	0	0
7.33141e-05	0	0	0
7.43207e-05	0	0	0
7.43961e-05	0	0	0
7.52733e-05	0	0	0
7.54899e-05	0	0	0
7.57433e-05	0	0	0
7.58916e-05	0	0	0
7.62593e-05	0	0	0
7.6279e-05	0	0	0
7.63717e-05	0	0	0
7.67351e-05	0	0	0
7.71078e-05	0	0	0
7.71456e-05	0	0	0
7.77207e-05	0	0	0
7.77252e-05	0	0	0
7.79026e-05	0	0	0
7.81479e-05	0	0	0
7.82268e-05	0	0	0
7.84207e-05	0	0	0
7.8615e-05	0	0	0
7.91669e-05	0	0	0
7.9311e-05	0	0	0
7.96373e-05	0	0	0
7.98436e-05	0	0	0
7.99178e-05	0	0	0
8.01508e-05	0	0	0
8.08149e-05	0	0	0
8.08333e-05	0	0	0
8.13152e-05	0	0	0
8.16406e-05	0	0	0
8.20013e-05	0	0	0
8.31615e-05	0	0	0
8.34451e-05	0	0	0
8.36725e-05	0	0	0
8.40972e-05	0	0	0
8.42184e-05	0	0	0
8.49475e-05	0	0	0
8.52249e-05	0	0	0
8.64184e-05	0	0	0
8.85426e-05	0	0	0
8.90818e-05	0	0	0
8.94424e-05	0	0	0
8.95298e-05	0	0	0
8.99887e-05	0	0	0
9.09158e-05	0	0	0
9.12318e-05	0	0	0
9.21179e-05	0	0	0
9.24624e-05	0	0	0
9.30138e-05	0	0	0
9.34032e-05	0	0	0
9.42011e-05	0	0	0
9.42055e-05	0	0	0
9.57217e-05	0	0	0
9.62145e-05	0	0	0
9.68336e-05	0	0	0
9.73819e-05	0	0	0
9.88031e-05	0	0	0
9.89781e-05	0	0	0
9.97394e-05	0	0	0
0.000100369	0	0	0
0.000100793	0	0	0
0.000101755	0	0	0
0.000101974	0	0	0
0.000101987	0	0	0
0.00010326	0	0	0
0.000104262	0	0	0
0.000104358	0	0	0
0.000105427	0	0	0
0.000105671	0	0	0
0.000105948	0	0	0
0.000108125	0	0	0
0.000109507	0	0	0
0.000110217	0	0	0
0.000110615	0	0	0
0.000110976	0	0	0
0.000112454	0	0	0
0.000113699	0	0	0
0.000119663	0	0	0
0.000121176	0	0	0
0.000121287	0	0	0
0.000121338	0	0	0
0.000122506	0	0	0
0.000122541	0	0	0
0.000122908	0	0	0
0.000125045	0	0	0
0.000125072	0	0	0
0.000125217	0	0	0
0.000127356	0	0	0
0.000127514	0	0	0
0.000127688	0	0	0
0.000129109	0	0	0
0.000130074	0	0	0
0.000130421	0	0	0
0.000130845	0	0	0
0.000131382	0	0	0
0.000135577	0	0	0
0.000135817	0	0	0
0.000135942	0	0	0
0.000139051	0	0	0
0.000139225	0	0	0
0.000139583	0	0	0
0.00013993	0	0	0
0.000144066	0	0	0
0.000145116	0	0	0
0.000145444	0	0	0
0.000146149	0	0	0
0.000146198	0	0	0
0.000148816	0	0	0
0.000151922	0	0	0
0.000154053	0	0	0
0.000154491	0	0	0
0.0001561	0	0	0
0.000160657	0	0	0
0.0001651	0	0	0
0.000169	0	0	0
0.000169321	0	0	0
0.00017006	0	0	0
0.000170369	0	0	0
0.000176735	0	0	0
0.000177224	0	0	0
0.000180172	0	0	0
0.000184353	0	0	0
0.000193212	0	0	0
0.000195824	0	0	0
0.000199349	0	0	0
0.000204221	0	0	0
0.000205725	0	0	0
0.000205764	0	0	0
0.000207954	0	0	0
0.000220904	0	0	0
0.000231271	0	0	0
0.000232041	0	0	0
0.000248797	0	0	0
0.000253884	0	0	0
0.000259472	0	0	0
0.000260708	0	0	0
0.00026919	0	0	0
0.000272189	0	0	0
0.000274252	0	0	0
0.000280529	0	0	0
0.000281062	0	0	0
0.000282504	0	0	0
0.000282545	0	0	0
0.00029674	0	0	0
0.000299529	0	0	0
0.000319675	0	0	0
0.000338414	0	0	0
0.000352576	0	0	0
0.000357451	0	0	0
0.000361443	0	0	0
0.00036369	0	0	0
0.00036571	0	0	0
0.000371033	0	0	0
0.000379619	0	0	0
0.000389016	0	0	0
0.000435184	0	0	0
0.000475709	0	0	0
0.000479093	0	0	0
0.000488854	0	0	0
0.000495329	0	0	0
0.000522264	0	0	0
0.000530894	0	0	0
0.000549844	0	0	0
0.000565597	0	0	0
0.000596865	0	0	0
0.000605319	0	0	0
0.000644105	0	0	0
0.000659359	0	0	0
0.000670671	0	0	0
0.000673787	0	0	0
0.000701775	0	0	0
0.000707964	0	0	0
0.000791793	0	0	0
0.000824881	0	0	0
0.000825001	0	0	0
0.000848733	0	0	0
0.00086898	0	0	0
0.000904842	0	0	0
0.000913851	0	0	0
0.000954403	0	0	0
0.000961551	0	0	0
0.000969443	0	0	0
0.00096976	0	0	0
0.000982028	0	0	0
0.00105726	0	0	0
0.00119653	0	0	0
0.00120983	0	0	0
0.00121249	0	0	0
0.00122194	0	0	0
0.00124282	0	0	0
0.00153634	0	0	0
0.00163199	0	0	0
0.00182813	0	0	0
0.00193826	0	0	0
0.00204802	0	0	0
0.00217825	0	0	0
0.00226813	0	0	0
0.00257252	0	0	0
0.00260455	0	0	0
0.00329336	0	0	0
0.00364413	0	0	0
0.0037275	0	0	0
0.00381961	0	0	0
0.00425661	0	0	0
0.00531837	0	0	0
0.00554732	0	0	0
0.00574131	0	0	0
0.00711635	0	0	0
0.0116938	0	0	0
0.0132898	0	0	0
0.0138629	0	0	0
0.0310378	0	0	0
0.116378	0	0	0
0.130956	0	0	0.0691085
0.256533	0	0	0.0691085
0.394556	0	0	0.0691085
0.54801	0	0	0.0691085
0.576231	0	0	0.0691085
0.668823	0	0	0.0691085
0.802555	0	0	0.0691085
0.822471	0	0	0.0691085
0.966488	0	0	0.0691085
1.05773	0	0	0.0691085
1.08812	0	0	0.0691085
1.11802	0	0	0.0691085
1.14443	0	0	0.0691085
1.15676	0	0	0.138217
1.16141	0	0	0.207326
1.33556	0	0	0.207326
1.40535	0	0	0.207326
1.52893	0	0	0.207326
1.74278	0	0	0.207326
1.86449	0	0	0.207326
1.97352	0	0	0.207326
2.04312	0	0	0.207326
2.31964	0	0	0.207326
2.33915	0	0	0.207326
2.37168	0	0	0.276434
2.4414	0	0	0.276434
2.51582	0	0	0.345543
2.74475	0	0	0.345543
2.83632	0	0	0.345543
2.8445	0	0	0.345543
2.8846	0	0	0.345543
2.88844	0	0	0.345543
2.89582	0	0	0.345543
2.89923	0	0	0.345543
2.92655	0	0	0.345543
2.9652	0	0	0.345543
3.00704	0	0	0.345543
3.01143	0	0	0.345543
3.02529	0	0	0.345543
3.12983	0	0	0.345543
3.1654	0	0	0.345543
3.21401	0	0	0.345543
3.31575	0	0	0.345543
3.3496	0	0	0.345543
3.45467	0	0	0.345543
3.4591	0	0	0.345543
3.54082	0	0	0.345543
3.67444	0	0	0.414651
3.774	0	0	0.48376
3.85394	0	0	0.48376
3.93255	0	0	0.48376
3.98357	0	0	0.48376
4.19751	0	0	0.48376
4.24201	0	0	0.48376
4.28333	0	0	0.552868
4.50888	0	0	0.552868
4.54053	0	0	0.552868
4.54069	0	0	0.552868
4.57247	0	0	0.552868
4.58801	0	0	0.552868
4.80615	0	0	0.552868
4.80625	0	0	0.552868
4.85153	0	0	0.552868
5.03371	0	0	0.552868
5.27413	0	0	0.552868
5.38763	0	0	0.621977
5.50109	0	0	0.621977
5.62083	0	0	0.621977
5.66074	0	0	0.621977
5.75391	0	0	0.621977
6.05621	0	0	0.621977
6.06443	0	0	0.691085
6.15434	0	0	0.691085
6.15806	0	0	0.691085
6.35799	0	0	0.691085
6.39977	0	0	0.691085
6.48118	0	0	0.691085
6.5497	0	0	0.691085
6.90846	0	0	0.760194
6.9993	0	0	0.760194
7.06599	0	0	0.760194
7.10977	0	0	0.760194
7.28469	0	0	0.760194
7.3656	0	0	0.760194
7.5493	0	0	0.760194
7.57487	0	0	0.829302
7.72783	0	0	0.829302
7.74456	0	0	0.829302
7.7723	0	0	0.829302
7.90197	0	0	0.829302
7.95004	0	0	0.829302
7.95748	0	0	0.829302
7.96018	0	0	0.829302
8.04608	0	0	0.829302
8.11884	0	0	0.829302
8.13805	0	0	0.829302
8.46512	0	0	0.829302
8.86649	0	0	0.829302
8.86846	0	0	0.829302
8.93453	0	0	0.829302
9.04638	0	0	0.829302
9.0753	0	0	0.898411
9.10722	0	0	0.898411
9.37561	0	0	0.898411
9.56131	0	0	0.967519
9.58278	0	0	0.967519
9.79937	0	0	0.967519
9.81574	0	0	0.967519
9.94	0	0	0.967519
10.0331	0	0	0.967519
10.0363	0	0	0.967519
10.1344	0	0	0.967519
10.2803	0	0	0.967519
10.4092	0	0	0.967519
10.4301	0	0	1.03663
10.4512	0	0	1.03663
10.4749	0	0	1.03663
10.6212	0	0	1.03663
10.6363	0	0	1.10574
10.8003	0	0	1.10574
10.8502	0	0	1.10574
10.858	0	0	1.10574
10.9362	0	0	1.10574
10.9444	0	0	1.10574
11.0132	0	0	1.10574
11.0667	0	0	1.10574
11.1412	0	0	1.10574
11.1419	0	0	1.10574
11.2792	0	0	1.10574
11.3316	0	0	1.10574
11.4547	0	0	1.17484
11.5091	0	0	1.17484
11.5289	0	0	1.17484
11.7019	0	0	1.17484
11.7069	0	0	1.17484
11.7094	0	0	1.17484
11.7671	0	0	1.17484
11.8499	0	0	1.17484
12.0017	0	0	1.17484
12.0326	0	0	1.17484
12.0914	0	0	1.17484
12.1733	0	0	1.17484
12.2173	0	0	1.17484
12.3926	0	0	1.17484
12.4894	0	0	1.24395
12.5871	0	0	1.38217
12.6266	0	0	1.38217
12.6861	0	0	1.38217
13.0844	0	0	1.38217
13.1352	0	0	1.38217
13.151	0	0	1.38217
13.1974	0	0	1.38217
13.2979	0	0	1.38217
13.4445	0	0	1.38217
13.5362	0	0	1.38217
13.6902	0	0	1.38217
13.8	0	0	1.45128
13.8735	0	0	1.45128
13.9432	0	0	1.52039
14.1317	0	0	1.52039
14.317	0	0	1.52039
14.3894	0	0	1.52039
14.4344	0	0	1.52039
14.4546	0	0	1.52039
14.4777	0	0	1.52039
14.4973	0	0	1.52039
14.529	0	0	1.52039
14.655	0	0	1.52039
14.6644	0	0	1.5895
14.8384	0	0	1.5895
14.8509	0	0	1.5895
14.9324	0	0	1.5895
14.9543	0	0	1.6586
14.9774	0	0	1.72771
15.148	0	0	1.86593
15.1693	0	0	1.86593
15.3332	0	0	1.86593
15.3419	0	0	1.86593
15.4918	0	0	1.86593
15.6879	0	0	1.86593
15.7121	0	0	1.86593
15.737	0	0	1.86593
15.7544	0	0	1.93504
15.8969	0	0	2.00415
16.0772	0	0	2.07326
16.2339	0	0	2.14236
16.2696	0	0	2.21147
16.4419	0	0	2.34969
16.4938	0	0	2.4188
16.5303	0	0	2.55701
16.6753	0	0	2.55701
16.7318	0	0	2.55701
16.7493	0	0	2.55701
16.8735	0	0	2.55701
16.9053	0	0	2.55701
17.0315	0	0	2.55701
17.2847	0	0	2.62612
17.3394	0	0	2.62612
17.3639	0	0	2.62612
17.4217	0	0	2.69523
17.4624	0	0	2.69523
17.5136	0	0	2.69523
17.798	0	0	2.76434
17.8257	0	0	2.76434
17.9616	0	0	2.90256
17.9737	0	0	2.90256
18.0711	0	0	3.04077
18.1717	0	0	3.10988
18.2445	0	0	3.17899
18.3428	0	0	3.2481
18.3572	0	0	3.38632
18.6291	0	0	3.38632
18.7206	0	0	3.45543
19.0185	0	0	3.52453
19.0836	0	0	3.52453
19.0866	0	0	3.59364
19.3316	0	0	3.59364
19.3631	0	0	3.66275
19.515	0	0	3.73186
19.5366	0	0	3.73186
19.7947	0	0	3.73186
19.7976	0	0	3.73186
19.8569	0	0	3.80097
20.051	0	0	3.80097
20.0905	0	0	3.80097
20.1237	0	0	3.87008
20.1593	0	0	3.87008
20.2367	0	0	3.93918
20.2427	0	0	3.93918
20.2773	0	0	3.93918
20.2809	0	0	3.93918
20.347	0	0	4.00829
20.3681	0	0	4.00829
20.3825	0	0	4.00829
20.5482	0	0	4.00829
20.6727	0	0	4.00829
20.7152	0	0	4.0774
20.7963	0	0	4.0774
20.8453	0	0	4.0774
20.9879	0	0	4.0774
20.9967	0	0	4.14651
21.1182	0	0	4.21562
21.1308	0	0	4.21562
21.3037	0	0	4.21562
21.3963	0	0	4.28473
21.4695	0	0	4.35384
21.5462	0	0	4.35384
21.6667	0	0	4.42294
21.7817	0	0	4.49205
21.8598	0	0	4.49205
22.0661	0	0	4.49205
22.1603	0	0	4.49205
22.1781	0	0	4.56116
22.1896	0	0	4.56116
22.363	0	0	4.63027
22.5094	0	0	4.63027
22.6305	0	0	4.63027
23.0555	0	0	4.63027
23.0871	0	0	4.63027
23.1641	0	0	4.69938
23.2438	0	0	4.76849
23.2452	0	0	4.76849
23.29	0	0	4.76849
23.5297	0	0	4.76849
23.5505	0	0	4.76849
23.6291	0	0	4.9067
23.667	0	0	4.97581
23.6942	0	0	4.97581
23.7524	0	0	4.97581
23.7674	0	0	5.04492
23.9379	0	0	5.04492
23.9647	0	0	5.11403
24.0017	0	0	5.11403
24.076	0	0	5.11403
24.1344	0	0	5.11403
24.2276	0	0	5.11403
24.2894	0	0	5.11403
24.3435	0	0	5.11403
24.4838	0	0	5.18314
24.9094	0	0	5.18314
24.9642	0	0	5.18314
25.1453	0	0	5.18314
25.1479	0	0	5.18314
25.2107	0	0	5.18314
25.5436	0	0	5.18314
25.5633	0	0	5.18314
25.615	0	0	5.18314
25.6347	0	0	5.32135
25.6438	0	0	5.32135
25.7051	0	0	5.32135
25.7208	0	0	5.32135
25.845	0	0	5.39046
26.0605	0	0	5.39046
26.0691	0	0	5.45957
26.1597	0	0	5.45957
26.1609	0	0	5.45957
26.2139	0	0	5.52868
26.4583	0	0	5.52868
26.5239	0	0	5.52868
26.5551	0	0	5.59779
26.5811	0	0	5.59779
26.6031	0	0	5.59779
26.6225	0	0	5.59779
26.6274	0	0	5.59779
26.731	0	0	5.59779
26.9496	0	0	5.59779
26.9869	0	0	5.59779
27.0236	0	0	5.59779
27.2778	0	0	5.59779
27.4242	0	0	5.73601
27.4497	0	0	5.80511
27.5517	0	0	5.87422
27.57	0	0	5.94333
27.6906	0	0	5.94333
27.7025	0	0	5.94333
27.7836	0	0	5.94333
28.1497	0	0	6.08155
28.3324	0	0	6.08155
28.4803	0	0	6.15066
28.4849	0	0	6.15066
28.5195	0	0	6.21977
28.5543	0	0	6.21977
28.8875	0	0	6.35798
28.9748	0	0	6.4962
28.9973	0	0	6.4962
29.1318	0	0	6.4962
29.3491	0	0	6.4962
29.4565	0	0	6.56531
29.471	0	0	6.56531
29.4804	0	0	6.70352
29.6815	0	0	6.70352
29.7661	0	0	6.84174
30.1128	0	0	6.91085
30.4376	0	0	6.91085
30.5136	0	0	6.91085
30.581	0	0	6.97996
30.5818	0	0	7.11818
30.7002	0	0	7.11818
30.8472	0	0	7.18728
30.9847	0	0	7.18728
31.1242	0	0	7.18728
31.1431	0	0	7.18728
31.1562	0	0	7.25639
31.2368	0	0	7.25639
31.4278	0	0	7.25639
31.4456	0	0	7.3255
31.6649	0	0	7.39461
31.7482	0	0	7.39461
31.7892	0	0	7.46372
31.807	0	0	7.53283
31.8232	0	0	7.60194
31.9257	0	0	7.60194
31.9657	0	0	7.60194
32.3048	0	0	7.67104
32.3832	0	0	7.67104
32.428	0	0	7.80926
32.4455	0	0	7.80926
32.4554	0	0	7.80926
32.7531	0	0	7.80926
32.7684	0	0	7.80926
32.8138	0	0	7.80926
32.8222	0	0	7.87837
32.8865	0	0	7.94748
32.8891	0	0	8.01659
32.8894	0	0	8.1548
32.9589	0	0	8.22391
33.0601	0	0	8.22391
33.1995	0	0	8.29302
33.2896	0	0	8.36213
33.3016	0	0	8.43124
33.4284	0	0	8.43124
33.8834	0	0	8.50035
34.1011	0	0	8.50035
34.149	0	0	8.50035
34.3506	0	0	8.50035
34.3749	0	0	8.56945
34.9263	0	0	8.56945
35.0827	0	0	8.56945
35.106	0	0	8.63856
35.1423	0	0	8.70767
35.1435	0	0	8.70767
35.1506	0	0	8.70767
35.3312	0	0	8.70767
35.3996	0	0	8.70767
35.467	0	0	8.77678
35.5325	0	0	8.77678
35.7052	0	0	8.84589
35.9335	0	0	8.84589
36.0167	0	0	8.915
36.0545	0	0	8.915
36.1495	0	0	8.98411
36.1712	0	0	8.98411
36.401	0	0	9.05321
36.4439	0	0	9.05321
36.4812	0	0	9.05321
36.5414	0	0	9.12232
36.6421	0	0	9.12232
36.6734	0	0	9.12232
36.8028	0	0	9.19143
36.8719	0	0	9.26054
37.1427	0	0	9.32965
37.3	0	0	9.32965
37.4407	0	0	9.32965
37.6418	0	0	9.32965
37.7168	0	0	9.32965
37.7882	0	0	9.32965
38.0373	0	0	9.39876
38.2609	0	0	9.39876
38.3393	0	0	9.39876
38.3548	0	0	9.39876
38.3652	0	0	9.46786
38.507	0	0	9.60608
38.5256	0	0	9.67519
38.5636	0	0	9.67519
38.571	0	0	9.7443
38.6228	0	0	9.81341
39.1948	0	0	9.81341
39.2918	0	0	9.88252
39.3075	0	0	9.95162
39.3477	0	0	10.0207
39.4403	0	0	10.0207
39.4438	0	0	10.0898
39.7257	0	0	10.0898
39.7607	0	0	10.0898
39.815	0	0	10.0898
39.9877	0	0	10.2281
40.1768	0	0	10.2281
40.2734	0	0	10.3663
40.3261	0	0	10.4354
40.4546	0	0	10.5045
40.7114	0	0	10.5045
41.1138	0	0	10.5045
41.1697	0	0	10.5045
41.2011	0	0	10.5045
41.3311	0	0	10.5736
41.4526	0	0	10.7118
41.5882	0	0	10.7118
41.6112	0	0	10.7809
41.7061	0	0	10.7809
41.7552	0	0	10.7809
41.9086	0	0	10.7809
41.9934	0	0	10.7809
42.0665	0	0	10.85
42.1828	0	0	10.85
42.3655	0	0	10.85
42.3832	0	0	10.9191
42.4089	0	0	10.9883
42.6517	0	0	10.9883
42.8201	0	0	10.9883
42.8407	0	0	11.0574
42.8682	0	0	11.1265
42.9444	0	0	11.1265
42.9495	0	0	11.2647
42.9722	0	0	11.4029
43.0539	0	0	11.4029
43.4648	0	0	11.472
43.4662	0	0	11.5411
43.6279	0	0	11.5411
44.0422	0	0	11.6102
44.1499	0	0	11.6102
44.3	0	0	11.6793
44.3201	0	0	11.6793
44.4052	0	0	11.6793
44.4237	0	0	11.7484
44.6439	0	0	11.8176
44.8443	0	0	11.8867
45.2124	0	0	11.8867
45.2541	0	0	11.9558
45.6578	0	0	12.094
45.7571	0	0	12.094
45.7981	0	0	12.2322
45.9615	0	0	12.2322
46.1254	0	0	12.3013
46.4077	0	0	12.3704
46.5085	0	0	12.3704
46.531	0	0	12.3704
46.6498	0	0	12.5086
46.6659	0	0	12.5086
47.0802	0	0	12.5777
47.2009	0	0	12.5777
47.2475	0	0	12.5777
47.5751	0	0	12.716
47.7097	0	0	12.7851
47.7295	0	0	12.8542
47.767	0	0	12.9924
48.0334	0	0	13.0615
48.5361	0	0	13.0615
49.2735	0	0	13.0615
49.615	0	0	13.1306
49.6808	0	0	13.1306
49.7018	0	0	13.1997
49.8653	0	0	13.1997
50.0477	0	0	13.1997
50.0577	0	0	13.2688
50.3311	0	0	13.3379
50.3515	0	0	13.3379
50.4051	0	0	13.3379
50.5036	0	0	13.407
50.611	0	0	13.4762
50.7451	0	0	13.4762
50.8268	0	0	13.5453
50.9521	0	0	13.6835
51.2159	0	0	13.7526
51.4146	0	0	13.7526
51.4201	0	0	13.8217
51.4217	0	0	13.8908
51.461	0	0	13.8908
51.4704	0	0	13.9599
51.54	0	0	13.9599
51.5602	0	0	14.029
51.5615	0	0	14.1672
51.6362	0	0	14.1672
51.6435	0	0	14.1672
51.6543	0	0	14.1672
51.7587	0	0	14.2364
52.07	0	0	14.3055
52.1534	0	0	14.3055
52.286	0	0	14.3746
52.4698	0	0	14.4437
52.8193	0	0	14.4437
52.892	0	0	14.5128
52.9202	0	0	14.5819
53.0996	0	0	14.5819
53.4742	0	0	14.5819
53.5063	0	0	14.651
53.5748	0	0	14.7201
53.6057	0	0	14.7892
53.934	0	0	14.7892
54.0395	0	0	14.8583
54.0996	0	0	14.9965
54.4652	0	0	14.9965
54.7938	0	0	14.9965
55.2231	0	0	14.9965
55.4073	0	0	15.1348
55.4601	0	0	15.2039
55.4654	0	0	15.273
55.4973	0	0	15.3421
56.0047	0	0	15.4112
56.0141	0	0	15.5494
56.1484	0	0	15.6185
56.1755	0	0	15.6185
56.2937	0	0	15.6876
56.6184	0	0	15.8258
56.6415	0	0	15.8258
56.9855	0	0	15.895
57.1511	0	0	15.895
57.2598	0	0	15.9641
57.4946	0	0	16.0332
57.5533	0	0	16.1023
57.966	0	0	16.1714
57.9839	0	0	16.2405
58.1676	0	0	16.3096
58.4735	0	0	16.3787
58.687	0	0	16.3787
58.7862	0	0	16.4478
58.8351	0	0	16.5169
59.0988	0	0	16.586
59.116	0	0	16.586
59.4598	0	0	16.6551
59.5151	0	0	16.7243
59.7414	0	0	16.8625
59.9737	0	0	17.0007
60.0571	0	0	17.0007
60.2004	0	0	17.1389
60.3073	0	0	17.1389
60.4773	0	0	17.2771
60.5839	0	0	17.3462
60.7615	0	0	17.4153
60.787	0	0	17.4845
60.9824	0	0	17.6227
61.2198	0	0	17.6918
61.3034	0	0	17.7609
61.312	0	0	17.8991
61.3215	0	0	17.8991
61.3244	0	0	17.8991
61.3565	0	0	17.9682
61.6943	0	0	18.0373
62.0198	0	0	18.1064
62.298	0	0	18.1064
62.5996	0	0	18.1755
62.6079	0	0	18.1755
62.8628	0	0	18.3138
62.9351	0	0	18.3138
62.9451	0	0	18.3138
63.0602	0	0	18.3829
63.6116	0	0	18.3829
63.8125	0	0	18.3829
63.822	0	0	18.452
64.0868	0	0	18.452
64.1536	0	0	18.452
64.5491	0	0	18.452
64.5793	0	0	18.452
64.5902	0	0	18.452
64.6965	0	0	18.5211
64.9237	0	0	18.5211
65.0412	0	0	18.5902
65.0616	0	0	18.7284
65.1739	0	0	18.7975
65.3331	0	0	18.8666
65.4052	0	0	18.9357
65.4518	0	0	19.0048
65.5119	0	0	19.1431
65.5454	0	0	19.2813
65.9192	0	0	19.4195
65.9195	0	0	19.4195
67.2205	0	0	19.4195
67.2322	0	0	19.4195
67.6163	0	0	19.4886
67.6779	0	0	19.4886
67.8325	0	0	19.5577
68.1663	0	0	19.6959
68.1944	0	0	19.6959
68.2097	0	0	19.8341
68.2116	0	0	19.9032
68.3658	0	0	20.0415
68.4075	0	0	20.0415
68.7218	0	0	20.0415
68.7567	0	0	20.1106
68.7776	0	0	20.2488
68.9043	0	0	20.387
69.1322	0	0	20.387
69.2092	0	0	20.387
69.3617	0	0	20.387
69.7292	0	0	20.4561
69.8471	0	0	20.5252
69.9452	0	0	20.5943
70.5061	0	0	20.6634
70.5199	0	0	20.7326
70.7178	0	0	20.8017
70.7437	0	0	20.9399
70.8019	0	0	20.9399
70.865	0	0	21.009
70.8913	0	0	21.009
71.0784	0	0	21.0781
71.0825	0	0	21.0781
71.1819	0	0	21.0781
71.2156	0	0	21.2163
71.5193	0	0	21.2163
71.6319	0	0	21.2163
71.806	0	0	21.2854
72.133	0	0	21.4236
72.226	0	0	21.5619
72.4258	0	0	21.631
72.6773	0	0	21.631
73.1036	0	0	21.7692
73.4763	0	0	21.9074
73.5156	0	0	21.9765
73.5242	0	0	22.0456
73.7703	0	0	22.1147
74.1318	0	0	22.1147
74.1896	0	0	22.1838
74.475	0	0	22.1838
74.5804	0	0	22.2529
74.6122	0	0	22.322
74.7409	0	0	22.4603
75.6815	0	0	22.4603
75.6871	0	0	22.5985
75.6932	0	0	22.6676
75.7217	0	0	22.7367
75.904	0	0	22.8058
75.9737	0	0	22.944
76.152	0	0	22.944
76.2397	0	0	23.0131
76.4443	0	0	23.0131
76.4978	0	0	23.0131
76.6081	0	0	23.0822
76.637	0	0	23.1513
76.7696	0	0	23.2896
76.8116	0	0	23.2896
76.8539	0	0	23.4278
76.9997	0	0	23.4969
77.1671	0	0	23.4969
77.2201	0	0	23.4969
77.4153	0	0	23.4969
77.4625	0	0	23.566
77.6019	0	0	23.6351
77.6684	0	0	23.6351
77.7414	0	0	23.6351
77.7499	0	0	23.7042
77.7965	0	0	23.8424
77.9587	0	0	23.9115
78.0795	0	0	24.0498
78.145	0	0	24.188
78.5741	0	0	24.3262
78.704	0	0	24.3953
79.0062	0	0	24.3953
79.3319	0	0	24.5335
79.3721	0	0	24.5335
79.3928	0	0	24.5335
79.5706	0	0	24.6717
79.6142	0	0	24.7408
79.9436	0	0	24.7408
80.2076	0	0	24.7408
80.3296	0	0	24.7408
80.7128	0	0	24.7408
80.8169	0	0	24.8791
80.8709	0	0	24.9482
80.9737	0	0	24.9482
81.0438	0	0	24.9482
81.1244	0	0	25.0864
81.1248	0	0	25.0864
81.2666	0	0	25.1555
81.3018	0	0	25.2246
81.3992	0	0	25.2937
81.7948	0	0	25.3628
82.0748	0	0	25.4319
82.1009	0	0	25.4319
82.1925	0	0	25.501
82.3028	0	0	25.5701
82.3198	0	0	25.6393
82.4922	0	0	25.7775
82.7937	0	0	25.9157
83.0868	0	0	25.9157
83.173	0	0	25.9157
83.3913	0	0	25.9157
83.4006	0	0	25.9848
83.553	0	0	25.9848
83.84	0	0	26.0539
83.9758	0	0	26.1921
84.1291	0	0	26.2612
84.1311	0	0	26.3303
84.2277	0	0	26.3994
84.2383	0	0	26.4686
85.693	0	0	26.6068
85.7084	0	0	26.745
85.763	0	0	26.8141
85.7712	0	0	26.8832
86.1578	0	0	26.9523
86.9037	0	0	27.0214
87.0774	0	0	27.1596
87.243	0	0	27.1596
87.3266	0	0	27.2979
87.4133	0	0	27.367
87.6659	0	0	27.5052
87.7572	0	0	27.5743
87.8494	0	0	27.6434
88.56	0	0	27.7125
88.576	0	0	27.7125
88.7015	0	0	27.7816
88.8398	0	0	27.8507
89.1291	0	0	27.9198
89.6174	0	0	28.0581
89.9732	0	0	28.1272
89.9828	0	0	28.1963
90.0585	0	0	28.2654
90.1137	0	0	28.2654
90.1969	0	0	28.3345
90.3037	0	0	28.4036
90.3797	0	0	28.5418
90.6265	0	0	28.68
90.7234	0	0	28.68
90.7374	0	0	28.8182
90.78	0	0	28.8874
90.8423	0	0	28.9565
91.0077	0	0	29.0256
91.3942	0	0	29.0947
91.628	0	0	29.0947
91.68	0	0	29.0947
91.8986	0	0	29.1638
91.924	0	0	29.2329
91.9949	0	0	29.302
92.0568	0	0	29.4402
92.2268	0	0	29.5784
92.347	0	0	29.6475
92.5537	0	0	29.7167
92.6458	0	0	29.7858
93.1184	0	0	29.924
93.361	0	0	29.924
93.5409	0	0	30.0622
93.6262	0	0	30.1313
93.7043	0	0	30.2695
93.7948	0	0	30.3386
93.9779	0	0	30.3386
94.2756	0	0	30.3386
94.4057	0	0	30.4768
94.4478	0	0	30.546
94.9579	0	0	30.546
95.1364	0	0	30.6151
95.1668	0	0	30.6151
95.9099	0	0	30.6842
96.0172	0	0	30.7533
96.0531	0	0	30.8915
96.3509	0	0	30.8915
96.3567	0	0	30.8915
96.7511	0	0	31.0297
96.7643	0	0	31.1679
96.9827	0	0	31.237
96.9848	0	0	31.3753
97.1984	0	0	31.3753
97.6058	0	0	31.3753
97.633	0	0	31.4444
97.6889	0	0	31.5135
98.0204	0	0	31.5135
98.2144	0	0	31.5135
98.3559	0	0	31.6517
98.3714	0	0	31.6517
98.6045	0	0	31.7899
98.9043	0	0	31.859
98.919	0	0	31.9281
98.9748	0	0	32.0663
99.1393	0	0	32.1355
99.2386	0	0	32.2046
99.4777	0	0	32.2737
99.5418	0	0	32.4119
99.6701	0	0	32.481
99.767	0	0	32.6192
99.8996	0	0	32.7574
99.9223	0	0	32.8265
99.9247	0	0	32.9648
100.181	0	0	33.0339
100.245	0	0	33.103
100.386	0	0	33.2412
100.85	0	0	33.3103
101.325	0	0	33.3103
102.076	0	0	33.3103
102.187	0	0	33.3794
102.864	0	0	33.4485
102.909	0	0	33.5176
103.081	0	0	33.5176
103.297	0	0	33.5867
103.312	0	0	33.6558
103.622	0	0	33.7941
103.875	0	0	33.8632
103.913	0	0	34.0014
104.65	0	0	34.0014
104.707	0	0	34.1396
105.134	0	0	34.2087
105.437	0	0	34.3469
105.757	0	0	34.4851
106.076	0	0	34.5543
106.313	0	0	34.6925
106.322	0	0	34.7616
106.587	0	0	34.7616
107.2	0	0	34.8307
107.416	0	0	34.9689
107.843	0	0	35.1071
107.898	0	0	35.2453
108.146	0	0	35.3836
108.852	0	0	35.4527
108.967	0	0	35.5218
109.075	0	0	35.5218
109.224	0	0	35.66
109.347	0	0	35.66
110.228	0	0	35.7291
110.385	0	0	35.7291
110.436	0	0	35.7291
110.57	0	0	35.8673
110.895	0	0	35.8673
110.925	0	0	36.0055
110.991	0	0	36.0746
111.063	0	0	36.0746
111.284	0	0	36.1437
111.562	0	0	36.1437
111.767	0	0	36.2129
111.842	0	0	36.282
111.91	0	0	36.4202
111.985	0	0	36.5584
112.047	0	0	36.6966
112.048	0	0	36.7657
112.466	0	0	36.8348
112.586	0	0	36.973
112.665	0	0	37.0422
112.902	0	0	37.1804
113.223	0	0	37.3186
113.331	0	0	37.3877
113.599	0	0	37.5259
114.101	0	0	37.595
114.184	0	0	37.6641
114.777	0	0	37.7332
114.826	0	0	37.8023
114.835	0	0	37.9406
115.054	0	0	37.9406
115.379	0	0	38.0097
115.39	0	0	38.1479
115.648	0	0	38.2861
115.744	0	0	38.4243
116.149	0	0	38.4934
116.42	0	0	38.5625
116.995	0	0	38.7008
117.527	0	0	38.839
117.622	0	0	38.9772
117.677	0	0	39.0463
117.903	0	0	39.1845
118.46	0	0	39.3227
118.553	0	0	39.3918
118.805	0	0	39.5301
118.912	0	0	39.6683
119.308	0	0	39.8065
119.344	0	0	39.8756
119.417	0	0	39.9447
119.5	0	0	40.0138
119.683	0	0	40.152
119.922	0	0	40.2211
120.12	0	0	40.3594
120.217	0	0	40.3594
120.521	0	0	40.3594
120.603	0	0	40.3594
121.115	0	0	40.4285
121.2	0	0	40.4976
121.24	0	0	40.6358
121.368	0	0	40.774
121.798	0	0	40.9122
121.891	0	0	41.0504
122.276	0	0	41.1887
122.671	0	0	41.2578
123.351	0	0	41.3269
124.454	0	0	41.4651
124.481	0	0	41.6033
125.096	0	0	41.6033
125.097	0	0	41.6033
125.583	0	0	41.7415
125.673	0	0	41.8798
125.752	0	0	42.018
125.87	0	0	42.1562
125.875	0	0	42.2253
126.293	0	0	42.3635
126.442	0	0	42.4326
126.503	0	0	42.5017
127.596	0	0	42.5017
127.623	0	0	42.5708
127.714	0	0	42.7091
127.75	0	0	42.8473
127.806	0	0	42.9855
128.787	0	0	43.0546
128.85	0	0	43.1237
128.911	0	0	43.2619
129.117	0	0	43.4001
129.427	0	0	43.5384
129.538	0	0	43.6766
129.792	0	0	43.7457
131.061	0	0	43.8839
131.078	0	0	44.0221
131.356	0	0	44.1603
131.709	0	0	44.2985
131.767	0	0	44.3677
131.81	0	0	44.4368
131.876	0	0	44.5059
131.982	0	0	44.575
132.282	0	0	44.6441
132.602	0	0	44.7823
133.601	0	0	44.9205
133.651	0	0	44.9205
133.699	0	0	45.0587
133.856	0	0	45.197
134.013	0	0	45.3352
134.086	0	0	45.4734
134.098	0	0	45.6116
134.15	0	0	45.7498
134.231	0	0	45.7498
134.49	0	0	45.888
134.616	0	0	45.888
134.718	0	0	46.0263
134.819	0	0	46.1645
134.908	0	0	46.2336
135.672	0	0	46.3718
136.511	0	0	46.3718
136.748	0	0	46.51
136.752	0	0	46.6482
136.948	0	0	46.7865
137.176	0	0	46.8556
137.226	0	0	46.9247
137.265	0	0	46.9247
137.376	0	0	46.9938
137.441	0	0	47.132
138.084	0	0	47.2702
138.442	0	0	47.4084
138.979	0	0	47.4775
139.072	0	0	47.5466
139.212	0	0	47.6158
139.625	0	0	47.754
139.851	0	0	47.8231
140.154	0	0	47.8922
140.398	0	0	48.0304
140.921	0	0	48.0995
140.999	0	0	48.2377
141.31	0	0	48.2377
141.347	0	0	48.376
142.024	0	0	48.4451
142.433	0	0	48.5142
142.452	0	0	48.6524
142.454	0	0	48.7215
142.508	0	0	48.7906
142.642	0	0	48.8597
142.71	0	0	48.9979
142.918	0	0	49.1361
144.11	0	0	49.2744
144.128	0	0	49.4126
144.279	0	0	49.5508
144.47	0	0	49.6199
144.632	0	0	49.7581
144.753	0	0	49.8963
144.991	0	0	50.0346
145.094	0	0	50.1037
145.287	0	0	50.1728
145.554	0	0	50.311
145.74	0	0	50.3801
145.923	0	0	50.5183
146.099	0	0	50.5874
146.116	0	0	50.7256
146.181	0	0	50.7256
146.736	0	0	50.7947
147.133	0	0	50.933
147.486	0	0	51.0712
147.635	0	0	51.1403
148.052	0	0	51.2785
148.1	0	0	51.4167
148.106	0	0	51.4858
148.787	0	0	51.624
149.504	0	0	51.7623
149.651	0	0	51.9005
150.096	0	0	52.0387
150.241	0	0	52.1078
150.326	0	0	52.246
150.666	0	0	52.246
150.914	0	0	52.3842
151.121	0	0	52.5225
151.807	0	0	52.6607
151.902	0	0	52.7298
152.207	0	0	52.868
152.528	0	0	53.0062
152.683	0	0	53.0753
153.445	0	0	53.1444
153.626	0	0	53.1444
153.787	0	0	53.2827
153.883	0	0	53.3518
154.014	0	0	53.49
154.171	0	0	53.5591
154.292	0	0	53.6282
154.441	0	0	53.6973
154.623	0	0	53.8355
154.979	0	0	53.9737
155	0	0	54.0428
155.173	0	0	54.1811
156.206	0	0	54.2502
156.252	0	0	54.3884
156.849	0	0	54.4575
157.254	0	0	54.5957
157.398	0	0	54.7339
157.758	0	0	54.8721
157.794	0	0	54.9413
157.852	0	0	55.0795
158.127	0	0	55.1486
159.384	0	0	55.2868
159.42	0	0	55.425
159.984	0	0	55.5632
160.503	0	0	55.7015
160.553	0	0	55.8397
161.455	0	0	55.9779
161.808	0	0	56.1161
162.116	0	0	56.1852
162.206	0	0	56.3234
162.348	0	0	56.4616
162.741	0	0	56.5308
163.616	0	0	56.5999
163.916	0	0	56.7381
163.963	0	0	56.8072
164.087	0	0	56.8763
164.202	0	0	57.0145
164.862	0	0	57.1527
165.127	0	0	57.2909
165.579	0	0	57.4292
166.121	0	0	57.5674
167.097	0	0	57.6365
167.615	0	0	57.7747
167.713	0	0	57.9129
167.975	0	0	58.0511
168.07	0	0	58.1894
168.754	0	0	58.3276
168.98	0	0	58.4658
169.109	0	0	58.4658
169.114	0	0	58.604
169.391	0	0	58.6731
169.449	0	0	58.7422
171.141	0	0	58.8804
171.236	0	0	58.9496
171.432	0	0	59.0187
171.762	0	0	59.1569
171.831	0	0	59.2951
172.239	0	0	59.4333
172.385	0	0	59.5715
172.66	0	0	59.7097
172.82	0	0	59.7789
173.377	0	0	59.848
173.503	0	0	59.9171
173.812	0	0	60.0553
174.288	0	0	60.1935
174.821	0	0	60.3317
175.248	0	0	60.4008
176.134	0	0	60.539
177.274	0	0	60.6082
177.597	0	0	60.6773
177.963	0	0	60.8155
178.547	0	0	60.9537
178.962	0	0	61.0919
179.254	0	0	61.2301
179.314	0	0	61.3683
179.545	0	0	61.4375
179.935	0	0	61.4375
180.529	0	0	61.5757
180.655	0	0	61.7139
180.685	0	0	61.783
181.004	0	0	61.9212
181.731	0	0	61.9903
182.132	0	0	62.1285
183.025	0	0	62.1285
183.217	0	0	62.2668
183.538	0	0	62.405
183.765	0	0	62.4741
184.867	0	0	62.5432
185.004	0	0	62.6814
185.187	0	0	62.7505
185.216	0	0	62.8887
186.054	0	0	63.027
187.469	0	0	63.0961
188.393	0	0	63.2343
189.194	0	0	63.3725
189.703	0	0	63.5107
190.563	0	0	63.6489
191.115	0	0	63.7871
191.192	0	0	63.8563
191.208	0	0	63.9254
192.265	0	0	64.0636
192.402	0	0	64.1327
193.627	0	0	64.2018
194.349	0	0	64.2709
194.613	0	0	64.34
194.748	0	0	64.4782
194.756	0	0	64.6164
195.119	0	0	64.7547
195.216	0	0	64.8929
196.042	0	0	64.962
196.795	0	0	65.0311
197.346	0	0	65.1002
197.488	0	0	65.2384
198.119	0	0	65.3766
198.751	0	0	65.5149
199.531	0	0	65.6531
200.296	0	0	65.7913
200.406	0	0	65.9295
201.099	0	0	66.0677
202.363	0	0	66.2059
204.185	0	0	66.3442
204.35	0	0	66.4824
204.787	0	0	66.6206
205.085	0	0	66.6897
206.341	0	0	66.7588
206.485	0	0	66.897
206.612	0	0	67.0352
207.18	0	0	67.1735
207.606	0	0	67.3117
207.859	0	0	67.4499
207.888	0	0	67.5881
207.997	0	0	67.6572
208.178	0	0	67.7954
208.333	0	0	67.9337
208.991	0	0	68.0028
209.628	0	0	68.141
210.534	0	0	68.2792
211.165	0	0	68.4174
212.886	0	0	68.5556
213.607	0	0	68.6938
213.707	0	0	68.8321
214.009	0	0	68.9703
214.567	0	0	69.1085
214.83	0	0	69.1085
216.308	0	0	69.1776
218.026	0	0	69.3158
218.553	0	0	69.454
218.642	0	0	69.5923
219.506	0	0	69.7305
219.996	0	0	69.8687
221.263	0	0	70.0069
221.534	0	0	70.1451
222.778	0	0	70.2142
222.989	0	0	70.2833
223.387	0	0	70.4216
223.45	0	0	70.5598
223.746	0	0	70.698
224.218	0	0	70.7671
224.558	0	0	70.9053
224.673	0	0	71.0435
225.368	0	0	71.1818
226.799	0	0	71.32
228.334	0	0	71.4582
228.417	0	0	71.5964
228.544	0	0	71.6655
229.1	0	0	71.8037
229.759	0	0	71.8728
230.047	0	0	72.0111
230.371	0	0	72.0802
230.672	0	0	72.2184
231.733	0	0	72.3566
232.657	0	0	72.4948
233.217	0	0	72.633
234.485	0	0	72.7713
235.61	0	0	72.9095
236.244	0	0	72.9786
237.062	0	0	73.1168
237.902	0	0	73.1168
238.458	0	0	73.255
238.5	0	0	73.3932
238.512	0	0	73.5314
239.255	0	0	73.6697
239.339	0	0	73.8079
239.85	0	0	73.9461
240.311	0	0	74.0152
241.034	0	0	74.1534
241.446	0	0	74.2225
243.162	0	0	74.3607
244.092	0	0	74.499
244.293	0	0	74.6372
244.349	0	0	74.7063
245.537	0	0	74.8445
246.029	0	0	74.9136
246.453	0	0	75.0518
246.502	0	0	75.19
246.832	0	0	75.3283
247.753	0	0	75.4665
247.79	0	0	75.6047
248.136	0	0	75.7429
249.203	0	0	75.812
249.418	0	0	75.8811
250.905	0	0	76.0194
253.997	0	0	76.1576
254.792	0	0	76.2958
255.175	0	0	76.434
256.607	0	0	76.5722
256.92	0	0	76.7104
257.716	0	0	76.7795
258.538	0	0	76.9178
259.227	0	0	77.056
259.716	0	0	77.1942
260.282	0	0	77.3324
261.536	0	0	77.4706
261.941	0	0	77.5397
262.341	0	0	77.678
262.967	0	0	77.8162
266.464	0	0	77.9544
266.868	0	0	78.0926
268.248	0	0	78.1617
268.722	0	0	78.2999
269.542	0	0	78.4381
269.57	0	0	78.5764
270.648	0	0	78.7146
272.661	0	0	78.8528
272.909	0	0	78.991
274.634	0	0	79.1292
276.061	0	0	79.2674
276.663	0	0	79.4057
280.769	0	0	79.5439
281.829	0	0	79.6821
282.587	0	0	79.8203
283.97	0	0	79.9585
284.023	0	0	80.0968
284.611	0	0	80.235
285.049	0	0	80.3732
285.18	0	0	80.5114
289.829	0	0	80.6496
290.274	0	0	80.7878
293.301	0	0	80.8569
293.805	0	0	80.9952
294.519	0	0	81.1334
294.83	0	0	81.2025
295.286	0	0	81.3407
298.044	0	0	81.4789
298.531	0	0	81.6171
299.622	0	0	81.7554
301.992	0	0	81.8936
303.185	0	0	82.0318
304.933	0	0	82.17
305.663	0	0	82.3082
305.692	0	0	82.4464
306.248	0	0	82.5847
306.255	0	0	82.7229
306.351	0	0	82.8611
306.698	0	0	82.9993
308.452	0	0	83.1375
309.061	0	0	83.2757
312.879	0	0	83.414
313.955	0	0	83.5522
314.105	0	0	83.6904
315.28	0	0	83.8286
316.029	0	0	83.9668
319.775	0	0	84.105
322.123	0	0	84.2433
322.31	0	0	84.3815
324.714	0	0	84.5197
325.108	0	0	84.6579
327.515	0	0	84.7961
328.551	0	0	84.9343
329.079	0	0	85.0726
332.288	0	0	85.2108
333.077	0	0	85.349
334.059	0	0	85.4872
334.885	0	0	85.6254
334.991	0	0	85.7636
336.196	0	0	85.9019
340.147	0	0	86.0401
340.414	0	0	86.1783
340.974	0	0	86.3165
341.704	0	0	86.4547
341.866	0	0	86.593
344.803	0	0	86.7312
347.194	0	0	86.8003
347.919	0	0	86.9385
350.56	0	0	87.0767
350.733	0	0	87.2149
354.019	0	0	87.3531
354.164	0	0	87.4223
356.744	0	0	87.5605
358.546	0	0	87.6987
362.255	0	0	87.8369
364.189	0	0	87.9751
364.74	0	0	88.1133
365.289	0	0	88.2516
370.644	0	0	88.3898
371.369	0	0	88.528
371.776	0	0	88.6662
372.358	0	0	88.8044
375.167	0	0	88.9426
376.019	0	0	89.0809
376.313	0	0	89.2191
381.086	0	0	89.3573
381.607	0	0	89.4955
382.748	0	0	89.6337
385.364	0	0	89.7719
385.948	0	0	89.9102
386.651	0	0	90.0484
389.256	0	0	90.1866
390.087	0	0	90.3248
390.111	0	0	90.463
395.827	0	0	90.6012
403.092	0	0	90.7395
406.257	0	0	90.8777
411.096	0	0	91.0159
419.11	0	0	91.1541
419.204	0	0	91.2923
420.678	0	0	91.3614
420.738	0	0	91.4997
424.061	0	0	91.6379
426.353	0	0	91.7761
427.118	0	0	91.8452
431.791	0	0	91.9834
434.744	0	0	92.1216
442.967	0	0	92.2598
446.028	0	0	92.3981
454.428	0	0	92.5363
454.728	0	0	92.6745
457.604	0	0	92.8127
462.541	0	0	92.9509
465.845	0	0	93.0891
466.25	0	0	93.2274
471.953	0	0	93.3656
474.591	0	0	93.5038
479.481	0	0	93.5729
487.392	0	0	93.7111
489.616	0	0	93.8493
490.26	0	0	93.9876
492.331	0	0	94.1258
496.595	0	0	94.264
499.133	0	0	94.4022
503.488	0	0	94.5404
520.493	0	0	94.6786
522.74	0	0	94.8169
547.833	0	0	94.9551
548.689	0	0	95.0933
561.879	0	0	95.2315
563.087	0	0	95.3697
566.329	0	0	95.5079
583.705	0	0	95.6462
593.483	0	0	95.7844
600.226	0	0	95.9226
624.577	0	0	96.0608
628.461	0	0	96.199
656.514	0	0	96.3372
687.644	0	0	96.4755
698.581	0	0	96.6137
729.153	0	0	96.7519
