5.27102e-08	0	0	0
5.46764e-08	0	0	0
8.37888e-08	0	0	0
1.33928e-07	0	0	0
1.76151e-07	0	0	0
2.57615e-07	0	0	0
2.6445e-07	0	0	0
2.7842e-07	0	0	0
2.90432e-07	0	0	0
2.96505e-07	0	0	0
3.12174e-07	0	0	0
3.14433e-07	0	0	0
3.25395e-07	0	0	0
3.30224e-07	0	0	0
3.5346e-07	0	0	0
3.87073e-07	0	0	0
4.05682e-07	0	0	0
4.62798e-07	0	0	0
5.13981e-07	0	0	0
5.46102e-07	0	0	0
5.67659e-07	0	0	0
5.78077e-07	0	0	0
7.08837e-07	0	0	0
7.61998e-07	0	0	0
7.66448e-07	0	0	0
7.701e-07	0	0	0
7.71443e-07	0	0	0
7.97443e-07	0	0	0
8.40035e-07	0	0	0
8.61191e-07	0	0	0
8.63929e-07	0	0	0
8.71391e-07	0	0	0
8.92111e-07	0	0	0
9.2817e-07	0	0	0
9.3718e-07	0	0	0
9.52598e-07	0	0	0
9.57282e-07	0	0	0
1.00525e-06	0	0	0
1.00715e-06	0	0	0
1.02548e-06	0	0	0
1.03722e-06	0	0	0
1.05017e-06	0	0	0
1.05759e-06	0	0	0
1.06268e-06	0	0	0
1.0766e-06	0	0	0
1.07695e-06	0	0	0
1.10562e-06	0	0	0
1.13568e-06	0	0	0
1.16193e-06	0	0	0
1.17169e-06	0	0	0
1.17415e-06	0	0	0
1.1973e-06	0	0	0
1.21037e-06	0	0	0
1.2625e-06	0	0	0
1.27261e-06	0	0	0
1.27802e-06	0	0	0
1.29128e-06	0	0	0
1.29598e-06	0	0	0
1.30853e-06	0	0	0
1.30978e-06	0	0	0
1.31032e-06	0	0	0
1.31137e-06	0	0	0
1.31424e-06	0	0	0
1.33373e-06	0	0	0
1.35012e-06	0	0	0
1.35573e-06	0	0	0
1.36964e-06	0	0	0
1.39395e-06	0	0	0
1.39742e-06	0	0	0
1.40054e-06	0	0	0
1.44399e-06	0	0	0
1.46153e-06	0	0	0
1.46445e-06	0	0	0
1.50568e-06	0	0	0
1.56458e-06	0	0	0
1.58479e-06	0	0	0
1.62211e-06	0	0	0
1.6302e-06	0	0	0
1.63264e-06	0	0	0
1.65607e-06	0	0	0
1.66363e-06	0	0	0
1.70819e-06	0	0	0
1.72568e-06	0	0	0
1.7475e-06	0	0	0
1.773e-06	0	0	0
1.81757e-06	0	0	0
1.82894e-06	0	0	0
1.85041e-06	0	0	0
1.87779e-06	0	0	0
1.89538e-06	0	0	0
1.90367e-06	0	0	0
1.96046e-06	0	0	0
2.23272e-06	0	0	0
2.25765e-06	0	0	0
2.27493e-06	0	0	0
2.31109e-06	0	0	0
2.31342e-06	0	0	0
2.31434e-06	0	0	0
2.32188e-06	0	0	0
2.37504e-06	0	0	0
2.37712e-06	0	0	0
2.41664e-06	0	0	0
2.43287e-06	0	0	0
2.43799e-06	0	0	0
2.44933e-06	0	0	0
2.49428e-06	0	0	0
2.55532e-06	0	0	0
2.581e-06	0	0	0
2.61159e-06	0	0	0
2.62136e-06	0	0	0
2.6214e-06	0	0	0
2.6322e-06	0	0	0
2.63814e-06	0	0	0
2.65093e-06	0	0	0
2.65094e-06	0	0	0
2.65359e-06	0	0	0
2.65837e-06	0	0	0
2.69872e-06	0	0	0
2.72097e-06	0	0	0
2.72861e-06	0	0	0
2.73023e-06	0	0	0
2.7716e-06	0	0	0
2.78131e-06	0	0	0
2.79561e-06	0	0	0
2.85704e-06	0	0	0
2.85805e-06	0	0	0
2.8958e-06	0	0	0
2.91286e-06	0	0	0
2.9315e-06	0	0	0
2.9693e-06	0	0	0
3.04894e-06	0	0	0
3.0601e-06	0	0	0
3.06721e-06	0	0	0
3.13276e-06	0	0	0
3.17105e-06	0	0	0
3.22028e-06	0	0	0
3.23799e-06	0	0	0
3.25515e-06	0	0	0
3.25588e-06	0	0	0
3.27329e-06	0	0	0
3.27725e-06	0	0	0
3.32295e-06	0	0	0
3.43133e-06	0	0	0
3.43807e-06	0	0	0
3.45359e-06	0	0	0
3.46001e-06	0	0	0
3.48245e-06	0	0	0
3.49479e-06	0	0	0
3.55464e-06	0	0	0
3.55855e-06	0	0	0
3.69829e-06	0	0	0
3.7303e-06	0	0	0
3.73672e-06	0	0	0
3.73747e-06	0	0	0
3.74549e-06	0	0	0
3.76639e-06	0	0	0
3.77076e-06	0	0	0
3.77092e-06	0	0	0
3.79664e-06	0	0	0
3.81126e-06	0	0	0
3.83235e-06	0	0	0
3.8391e-06	0	0	0
3.93523e-06	0	0	0
3.94494e-06	0	0	0
4.03766e-06	0	0	0
4.03997e-06	0	0	0
4.05176e-06	0	0	0
4.12301e-06	0	0	0
4.14496e-06	0	0	0
4.14549e-06	0	0	0
4.19202e-06	0	0	0
4.25184e-06	0	0	0
4.32107e-06	0	0	0
4.41977e-06	0	0	0
4.44831e-06	0	0	0
4.44895e-06	0	0	0
4.49262e-06	0	0	0
4.51896e-06	0	0	0
4.51934e-06	0	0	0
4.62396e-06	0	0	0
4.64724e-06	0	0	0
4.67773e-06	0	0	0
4.67846e-06	0	0	0
4.70176e-06	0	0	0
4.71987e-06	0	0	0
4.85497e-06	0	0	0
4.89245e-06	0	0	0
4.89255e-06	0	0	0
4.90288e-06	0	0	0
4.91775e-06	0	0	0
4.93208e-06	0	0	0
4.96189e-06	0	0	0
4.99766e-06	0	0	0
5.06825e-06	0	0	0
5.15808e-06	0	0	0
5.19957e-06	0	0	0
5.3791e-06	0	0	0
5.40885e-06	0	0	0
5.41412e-06	0	0	0
5.46983e-06	0	0	0
5.48913e-06	0	0	0
5.51216e-06	0	0	0
5.52471e-06	0	0	0
5.54073e-06	0	0	0
5.62232e-06	0	0	0
5.62956e-06	0	0	0
5.6902e-06	0	0	0
5.74443e-06	0	0	0
5.75453e-06	0	0	0
5.82646e-06	0	0	0
5.86369e-06	0	0	0
5.90725e-06	0	0	0
5.93896e-06	0	0	0
5.96142e-06	0	0	0
6.04142e-06	0	0	0
6.09189e-06	0	0	0
6.14246e-06	0	0	0
6.17478e-06	0	0	0
6.21593e-06	0	0	0
6.23353e-06	0	0	0
6.26868e-06	0	0	0
6.35619e-06	0	0	0
6.36593e-06	0	0	0
6.37044e-06	0	0	0
6.40912e-06	0	0	0
6.53385e-06	0	0	0
6.53866e-06	0	0	0
6.64738e-06	0	0	0
6.68736e-06	0	0	0
6.69014e-06	0	0	0
6.69666e-06	0	0	0
6.7161e-06	0	0	0
6.93047e-06	0	0	0
6.96079e-06	0	0	0
6.98852e-06	0	0	0
7.0786e-06	0	0	0
7.07906e-06	0	0	0
7.12178e-06	0	0	0
7.13197e-06	0	0	0
7.13959e-06	0	0	0
7.1734e-06	0	0	0
7.25732e-06	0	0	0
7.26046e-06	0	0	0
7.32913e-06	0	0	0
7.34822e-06	0	0	0
7.35503e-06	0	0	0
7.36905e-06	0	0	0
7.36921e-06	0	0	0
7.40749e-06	0	0	0
7.40963e-06	0	0	0
7.53145e-06	0	0	0
7.56189e-06	0	0	0
7.58117e-06	0	0	0
7.66314e-06	0	0	0
7.66441e-06	0	0	0
7.68577e-06	0	0	0
7.84948e-06	0	0	0
7.87008e-06	0	0	0
7.99754e-06	0	0	0
8.00424e-06	0	0	0
8.04915e-06	0	0	0
8.09273e-06	0	0	0
8.18876e-06	0	0	0
8.273e-06	0	0	0
8.28977e-06	0	0	0
8.40424e-06	0	0	0
8.45333e-06	0	0	0
8.53286e-06	0	0	0
8.57455e-06	0	0	0
8.59442e-06	0	0	0
8.6434e-06	0	0	0
8.72297e-06	0	0	0
8.90642e-06	0	0	0
8.91659e-06	0	0	0
8.92403e-06	0	0	0
8.93168e-06	0	0	0
9.00547e-06	0	0	0
9.04536e-06	0	0	0
9.08189e-06	0	0	0
9.18833e-06	0	0	0
9.24543e-06	0	0	0
9.42583e-06	0	0	0
9.47314e-06	0	0	0
9.51284e-06	0	0	0
9.5247e-06	0	0	0
9.59957e-06	0	0	0
9.68834e-06	0	0	0
9.76497e-06	0	0	0
9.79381e-06	0	0	0
9.82893e-06	0	0	0
9.85338e-06	0	0	0
9.85813e-06	0	0	0
9.87792e-06	0	0	0
9.92969e-06	0	0	0
1.00113e-05	0	0	0
1.00258e-05	0	0	0
1.00774e-05	0	0	0
1.00799e-05	0	0	0
1.00905e-05	0	0	0
1.01267e-05	0	0	0
1.01312e-05	0	0	0
1.01569e-05	0	0	0
1.0202e-05	0	0	0
1.02062e-05	0	0	0
1.02671e-05	0	0	0
1.02774e-05	0	0	0
1.02995e-05	0	0	0
1.03341e-05	0	0	0
1.0341e-05	0	0	0
1.03518e-05	0	0	0
1.03731e-05	0	0	0
1.0433e-05	0	0	0
1.04436e-05	0	0	0
1.04539e-05	0	0	0
1.06847e-05	0	0	0
1.07002e-05	0	0	0
1.07676e-05	0	0	0
1.07746e-05	0	0	0
1.07986e-05	0	0	0
1.10208e-05	0	0	0
1.10572e-05	0	0	0
1.10825e-05	0	0	0
1.1098e-05	0	0	0
1.11691e-05	0	0	0
1.11721e-05	0	0	0
1.11926e-05	0	0	0
1.11959e-05	0	0	0
1.12656e-05	0	0	0
1.12815e-05	0	0	0
1.12872e-05	0	0	0
1.12943e-05	0	0	0
1.13715e-05	0	0	0
1.14029e-05	0	0	0
1.14103e-05	0	0	0
1.14618e-05	0	0	0
1.14943e-05	0	0	0
1.15072e-05	0	0	0
1.15146e-05	0	0	0
1.16219e-05	0	0	0
1.18516e-05	0	0	0
1.18838e-05	0	0	0
1.19062e-05	0	0	0
1.19163e-05	0	0	0
1.19281e-05	0	0	0
1.20553e-05	0	0	0
1.20848e-05	0	0	0
1.20959e-05	0	0	0
1.21068e-05	0	0	0
1.21288e-05	0	0	0
1.21412e-05	0	0	0
1.2194e-05	0	0	0
1.2233e-05	0	0	0
1.22479e-05	0	0	0
1.23114e-05	0	0	0
1.24729e-05	0	0	0
1.27933e-05	0	0	0
1.28144e-05	0	0	0
1.28442e-05	0	0	0
1.28588e-05	0	0	0
1.30952e-05	0	0	0
1.31305e-05	0	0	0
1.32396e-05	0	0	0
1.329e-05	0	0	0
1.32956e-05	0	0	0
1.32995e-05	0	0	0
1.33255e-05	0	0	0
1.33929e-05	0	0	0
1.34374e-05	0	0	0
1.35409e-05	0	0	0
1.37092e-05	0	0	0
1.37404e-05	0	0	0
1.38602e-05	0	0	0
1.38994e-05	0	0	0
1.39627e-05	0	0	0
1.40235e-05	0	0	0
1.40875e-05	0	0	0
1.41894e-05	0	0	0
1.4338e-05	0	0	0
1.43401e-05	0	0	0
1.44099e-05	0	0	0
1.44322e-05	0	0	0
1.44392e-05	0	0	0
1.4443e-05	0	0	0
1.4491e-05	0	0	0
1.45062e-05	0	0	0
1.45263e-05	0	0	0
1.46154e-05	0	0	0
1.48148e-05	0	0	0
1.48813e-05	0	0	0
1.49057e-05	0	0	0
1.49104e-05	0	0	0
1.49931e-05	0	0	0
1.51452e-05	0	0	0
1.5197e-05	0	0	0
1.52379e-05	0	0	0
1.54016e-05	0	0	0
1.54093e-05	0	0	0
1.54743e-05	0	0	0
1.54806e-05	0	0	0
1.56967e-05	0	0	0
1.57254e-05	0	0	0
1.58146e-05	0	0	0
1.59409e-05	0	0	0
1.60271e-05	0	0	0
1.60871e-05	0	0	0
1.61472e-05	0	0	0
1.61495e-05	0	0	0
1.61811e-05	0	0	0
1.63117e-05	0	0	0
1.63353e-05	0	0	0
1.63358e-05	0	0	0
1.64081e-05	0	0	0
1.64619e-05	0	0	0
1.65779e-05	0	0	0
1.65851e-05	0	0	0
1.66127e-05	0	0	0
1.67379e-05	0	0	0
1.68201e-05	0	0	0
1.69183e-05	0	0	0
1.72135e-05	0	0	0
1.72152e-05	0	0	0
1.72513e-05	0	0	0
1.72847e-05	0	0	0
1.73174e-05	0	0	0
1.73175e-05	0	0	0
1.74717e-05	0	0	0
1.766e-05	0	0	0
1.76694e-05	0	0	0
1.76809e-05	0	0	0
1.77786e-05	0	0	0
1.77801e-05	0	0	0
1.77806e-05	0	0	0
1.7796e-05	0	0	0
1.78481e-05	0	0	0
1.79886e-05	0	0	0
1.80635e-05	0	0	0
1.80671e-05	0	0	0
1.80958e-05	0	0	0
1.81293e-05	0	0	0
1.82176e-05	0	0	0
1.84572e-05	0	0	0
1.84615e-05	0	0	0
1.84637e-05	0	0	0
1.86872e-05	0	0	0
1.86886e-05	0	0	0
1.87039e-05	0	0	0
1.88874e-05	0	0	0
1.89952e-05	0	0	0
1.90735e-05	0	0	0
1.92531e-05	0	0	0
1.94083e-05	0	0	0
1.94385e-05	0	0	0
1.95583e-05	0	0	0
1.96079e-05	0	0	0
1.96202e-05	0	0	0
1.96304e-05	0	0	0
1.96911e-05	0	0	0
1.97599e-05	0	0	0
1.98167e-05	0	0	0
1.99619e-05	0	0	0
1.9981e-05	0	0	0
2.00381e-05	0	0	0
2.00837e-05	0	0	0
2.015e-05	0	0	0
2.03784e-05	0	0	0
2.05548e-05	0	0	0
2.07114e-05	0	0	0
2.08116e-05	0	0	0
2.09316e-05	0	0	0
2.09681e-05	0	0	0
2.09919e-05	0	0	0
2.11043e-05	0	0	0
2.11708e-05	0	0	0
2.11808e-05	0	0	0
2.12183e-05	0	0	0
2.13193e-05	0	0	0
2.13691e-05	0	0	0
2.15198e-05	0	0	0
2.16536e-05	0	0	0
2.16761e-05	0	0	0
2.17273e-05	0	0	0
2.17303e-05	0	0	0
2.18286e-05	0	0	0
2.19246e-05	0	0	0
2.20121e-05	0	0	0
2.20835e-05	0	0	0
2.21061e-05	0	0	0
2.22098e-05	0	0	0
2.22335e-05	0	0	0
2.22405e-05	0	0	0
2.23797e-05	0	0	0
2.23897e-05	0	0	0
2.23962e-05	0	0	0
2.24349e-05	0	0	0
2.26552e-05	0	0	0
2.26588e-05	0	0	0
2.26818e-05	0	0	0
2.29044e-05	0	0	0
2.29328e-05	0	0	0
2.29726e-05	0	0	0
2.29794e-05	0	0	0
2.33212e-05	0	0	0
2.33564e-05	0	0	0
2.35223e-05	0	0	0
2.39175e-05	0	0	0
2.39733e-05	0	0	0
2.39766e-05	0	0	0
2.44478e-05	0	0	0
2.45325e-05	0	0	0
2.45619e-05	0	0	0
2.46458e-05	0	0	0
2.47288e-05	0	0	0
2.47559e-05	0	0	0
2.49565e-05	0	0	0
2.50418e-05	0	0	0
2.50873e-05	0	0	0
2.52655e-05	0	0	0
2.52744e-05	0	0	0
2.54889e-05	0	0	0
2.558e-05	0	0	0
2.56032e-05	0	0	0
2.5648e-05	0	0	0
2.57302e-05	0	0	0
2.57756e-05	0	0	0
2.58138e-05	0	0	0
2.58736e-05	0	0	0
2.58811e-05	0	0	0
2.59487e-05	0	0	0
2.6084e-05	0	0	0
2.61477e-05	0	0	0
2.6161e-05	0	0	0
2.63456e-05	0	0	0
2.65063e-05	0	0	0
2.70784e-05	0	0	0
2.70925e-05	0	0	0
2.71663e-05	0	0	0
2.73849e-05	0	0	0
2.74221e-05	0	0	0
2.75035e-05	0	0	0
2.75536e-05	0	0	0
2.76088e-05	0	0	0
2.76937e-05	0	0	0
2.78139e-05	0	0	0
2.78685e-05	0	0	0
2.80483e-05	0	0	0
2.8069e-05	0	0	0
2.80738e-05	0	0	0
2.81251e-05	0	0	0
2.8439e-05	0	0	0
2.85043e-05	0	0	0
2.85509e-05	0	0	0
2.86194e-05	0	0	0
2.86344e-05	0	0	0
2.86565e-05	0	0	0
2.87883e-05	0	0	0
2.88306e-05	0	0	0
2.93115e-05	0	0	0
2.95707e-05	0	0	0
2.97344e-05	0	0	0
2.98911e-05	0	0	0
3.04142e-05	0	0	0
3.06497e-05	0	0	0
3.08409e-05	0	0	0
3.13337e-05	0	0	0
3.14072e-05	0	0	0
3.14931e-05	0	0	0
3.15943e-05	0	0	0
3.18477e-05	0	0	0
3.19631e-05	0	0	0
3.19721e-05	0	0	0
3.2035e-05	0	0	0
3.20427e-05	0	0	0
3.22659e-05	0	0	0
3.24992e-05	0	0	0
3.26671e-05	0	0	0
3.29293e-05	0	0	0
3.29573e-05	0	0	0
3.30518e-05	0	0	0
3.31497e-05	0	0	0
3.3479e-05	0	0	0
3.35603e-05	0	0	0
3.38514e-05	0	0	0
3.40355e-05	0	0	0
3.40398e-05	0	0	0
3.42549e-05	0	0	0
3.43229e-05	0	0	0
3.4424e-05	0	0	0
3.44355e-05	0	0	0
3.44378e-05	0	0	0
3.45597e-05	0	0	0
3.45648e-05	0	0	0
3.46947e-05	0	0	0
3.48577e-05	0	0	0
3.51051e-05	0	0	0
3.53598e-05	0	0	0
3.54041e-05	0	0	0
3.54319e-05	0	0	0
3.57405e-05	0	0	0
3.57869e-05	0	0	0
3.58035e-05	0	0	0
3.58254e-05	0	0	0
3.59011e-05	0	0	0
3.59959e-05	0	0	0
3.60526e-05	0	0	0
3.62285e-05	0	0	0
3.62686e-05	0	0	0
3.6358e-05	0	0	0
3.68117e-05	0	0	0
3.68446e-05	0	0	0
3.68983e-05	0	0	0
3.70736e-05	0	0	0
3.71005e-05	0	0	0
3.72589e-05	0	0	0
3.76283e-05	0	0	0
3.77398e-05	0	0	0
3.77456e-05	0	0	0
3.80288e-05	0	0	0
3.81468e-05	0	0	0
3.81862e-05	0	0	0
3.81895e-05	0	0	0
3.8307e-05	0	0	0
3.83899e-05	0	0	0
3.85211e-05	0	0	0
3.86396e-05	0	0	0
3.87476e-05	0	0	0
3.88566e-05	0	0	0
3.88977e-05	0	0	0
3.89533e-05	0	0	0
3.90524e-05	0	0	0
3.92581e-05	0	0	0
3.93048e-05	0	0	0
3.9387e-05	0	0	0
3.95496e-05	0	0	0
3.98225e-05	0	0	0
3.98294e-05	0	0	0
3.98403e-05	0	0	0
3.99866e-05	0	0	0
4.00262e-05	0	0	0
4.0031e-05	0	0	0
4.01533e-05	0	0	0
4.03668e-05	0	0	0
4.03989e-05	0	0	0
4.04113e-05	0	0	0
4.04285e-05	0	0	0
4.05206e-05	0	0	0
4.0657e-05	0	0	0
4.08369e-05	0	0	0
4.0976e-05	0	0	0
4.10449e-05	0	0	0
4.10953e-05	0	0	0
4.12713e-05	0	0	0
4.13903e-05	0	0	0
4.14403e-05	0	0	0
4.1716e-05	0	0	0
4.19152e-05	0	0	0
4.19181e-05	0	0	0
4.19364e-05	0	0	0
4.22275e-05	0	0	0
4.22595e-05	0	0	0
4.24244e-05	0	0	0
4.24964e-05	0	0	0
4.25045e-05	0	0	0
4.25548e-05	0	0	0
4.27008e-05	0	0	0
4.30741e-05	0	0	0
4.31064e-05	0	0	0
4.34494e-05	0	0	0
4.3559e-05	0	0	0
4.36836e-05	0	0	0
4.38267e-05	0	0	0
4.39411e-05	0	0	0
4.39527e-05	0	0	0
4.40904e-05	0	0	0
4.41954e-05	0	0	0
4.42024e-05	0	0	0
4.42031e-05	0	0	0
4.42688e-05	0	0	0
4.43118e-05	0	0	0
4.46099e-05	0	0	0
4.46481e-05	0	0	0
4.46994e-05	0	0	0
4.48734e-05	0	0	0
4.54593e-05	0	0	0
4.54935e-05	0	0	0
4.61768e-05	0	0	0
4.65839e-05	0	0	0
4.66925e-05	0	0	0
4.69794e-05	0	0	0
4.71359e-05	0	0	0
4.81591e-05	0	0	0
4.82432e-05	0	0	0
4.83874e-05	0	0	0
4.86441e-05	0	0	0
4.89873e-05	0	0	0
4.95371e-05	0	0	0
4.97916e-05	0	0	0
5.0296e-05	0	0	0
5.03198e-05	0	0	0
5.05141e-05	0	0	0
5.05754e-05	0	0	0
5.09711e-05	0	0	0
5.11578e-05	0	0	0
5.13217e-05	0	0	0
5.14215e-05	0	0	0
5.16477e-05	0	0	0
5.16683e-05	0	0	0
5.17137e-05	0	0	0
5.19049e-05	0	0	0
5.22633e-05	0	0	0
5.24645e-05	0	0	0
5.24648e-05	0	0	0
5.25704e-05	0	0	0
5.29316e-05	0	0	0
5.30225e-05	0	0	0
5.33538e-05	0	0	0
5.33798e-05	0	0	0
5.34126e-05	0	0	0
5.34542e-05	0	0	0
5.39821e-05	0	0	0
5.42309e-05	0	0	0
5.43871e-05	0	0	0
5.44153e-05	0	0	0
5.45413e-05	0	0	0
5.45542e-05	0	0	0
5.46464e-05	0	0	0
5.50131e-05	0	0	0
5.50924e-05	0	0	0
5.50968e-05	0	0	0
5.52946e-05	0	0	0
5.53641e-05	0	0	0
5.55451e-05	0	0	0
5.56783e-05	0	0	0
5.59521e-05	0	0	0
5.60457e-05	0	0	0
5.66753e-05	0	0	0
5.70795e-05	0	0	0
5.72469e-05	0	0	0
5.7287e-05	0	0	0
5.77688e-05	0	0	0
5.87825e-05	0	0	0
5.87965e-05	0	0	0
5.92545e-05	0	0	0
5.9286e-05	0	0	0
5.97403e-05	0	0	0
5.99382e-05	0	0	0
6.05092e-05	0	0	0
6.07171e-05	0	0	0
6.07548e-05	0	0	0
6.10269e-05	0	0	0
6.10853e-05	0	0	0
6.26758e-05	0	0	0
6.30917e-05	0	0	0
6.31683e-05	0	0	0
6.32328e-05	0	0	0
6.32483e-05	0	0	0
6.39722e-05	0	0	0
6.46643e-05	0	0	0
6.46858e-05	0	0	0
6.47027e-05	0	0	0
6.50659e-05	0	0	0
6.56657e-05	0	0	0
6.57992e-05	0	0	0
6.6074e-05	0	0	0
6.62435e-05	0	0	0
6.64969e-05	0	0	0
6.6763e-05	0	0	0
6.67879e-05	0	0	0
6.68371e-05	0	0	0
6.72172e-05	0	0	0
6.7469e-05	0	0	0
6.805e-05	0	0	0
6.81665e-05	0	0	0
6.8316e-05	0	0	0
6.8812e-05	0	0	0
6.89759e-05	0	0	0
7.02151e-05	0	0	0
7.05278e-05	0	0	0
7.06331e-05	0	0	0
7.08894e-05	0	0	0
7.1042e-05	0	0	0
7.18772e-05	0	0	0
7.21658e-05	0	0	0
7.27721e-05	0	0	0
7.33813e-05	0	0	0
7.34026e-05	0	0	0
7.37945e-05	0	0	0
7.38044e-05	0	0	0
7.42487e-05	0	0	0
7.43734e-05	0	0	0
7.45888e-05	0	0	0
7.47862e-05	0	0	0
7.53033e-05	0	0	0
7.56063e-05	0	0	0
7.56146e-05	0	0	0
7.58241e-05	0	0	0
7.60593e-05	0	0	0
7.60955e-05	0	0	0
7.62756e-05	0	0	0
7.65734e-05	0	0	0
7.66448e-05	0	0	0
7.66892e-05	0	0	0
7.70841e-05	0	0	0
7.73842e-05	0	0	0
7.74098e-05	0	0	0
7.76763e-05	0	0	0
7.84182e-05	0	0	0
7.85524e-05	0	0	0
7.90058e-05	0	0	0
7.94302e-05	0	0	0
8.03693e-05	0	0	0
8.04731e-05	0	0	0
8.12813e-05	0	0	0
8.17225e-05	0	0	0
8.18492e-05	0	0	0
8.23478e-05	0	0	0
8.41322e-05	0	0	0
8.46324e-05	0	0	0
8.59783e-05	0	0	0
8.63571e-05	0	0	0
8.68582e-05	0	0	0
8.69634e-05	0	0	0
8.69656e-05	0	0	0
8.74901e-05	0	0	0
8.85821e-05	0	0	0
8.8628e-05	0	0	0
8.94674e-05	0	0	0
9.01359e-05	0	0	0
9.02814e-05	0	0	0
9.08274e-05	0	0	0
9.15153e-05	0	0	0
9.17391e-05	0	0	0
9.28779e-05	0	0	0
9.50169e-05	0	0	0
9.70693e-05	0	0	0
9.77417e-05	0	0	0
9.80657e-05	0	0	0
9.8525e-05	0	0	0
0.000100255	0	0	0
0.000100481	0	0	0
0.000100566	0	0	0
0.000101052	0	0	0
0.000101195	0	0	0
0.000101423	0	0	0
0.000101992	0	0	0
0.000102255	0	0	0
0.000102923	0	0	0
0.000103184	0	0	0
0.000103247	0	0	0
0.000103671	0	0	0
0.000103902	0	0	0
0.000108819	0	0	0
0.00011075	0	0	0
0.00011094	0	0	0
0.000112358	0	0	0
0.00011258	0	0	0
0.000117026	0	0	0
0.000117356	0	0	0
0.000118815	0	0	0
0.000119224	0	0	0
0.000119876	0	0	0
0.000120532	0	0	0
0.000120851	0	0	0
0.000121968	0	0	0
0.000122046	0	0	0
0.000123811	0	0	0
0.000125698	0	0	0
0.000125989	0	0	0
0.000129358	0	0	0
0.000133598	0	0	0
0.000133921	0	0	0
0.000135486	0	0	0
0.000136939	0	0	0
0.00013714	0	0	0
0.000138473	0	0	0
0.000139913	0	0	0
0.000141872	0	0	0
0.000143812	0	0	0
0.000144143	0	0	0
0.000146441	0	0	0
0.000147464	0	0	0
0.000148087	0	0	0
0.000148247	0	0	0
0.000150962	0	0	0
0.000151614	0	0	0
0.00015169	0	0	0
0.000154229	0	0	0
0.000154702	0	0	0
0.000155277	0	0	0
0.000155478	0	0	0
0.000156602	0	0	0
0.000158842	0	0	0
0.000159416	0	0	0
0.000159976	0	0	0
0.000161028	0	0	0
0.000166407	0	0	0
0.000167034	0	0	0
0.000168581	0	0	0
0.000174643	0	0	0
0.00017494	0	0	0
0.000176593	0	0	0
0.000179858	0	0	0
0.000183393	0	0	0
0.000185296	0	0	0
0.00019106	0	0	0
0.000194732	0	0	0
0.000207685	0	0	0
0.000209381	0	0	0
0.000210675	0	0	0
0.000214132	0	0	0
0.000215801	0	0	0
0.000229673	0	0	0
0.000230438	0	0	0
0.000231307	0	0	0
0.00023215	0	0	0
0.000252466	0	0	0
0.000270268	0	0	0
0.000276083	0	0	0
0.000278103	0	0	0
0.000278743	0	0	0
0.000286011	0	0	0
0.000289241	0	0	0
0.00029083	0	0	0
0.000318622	0	0	0
0.000326245	0	0	0
0.000331888	0	0	0
0.000336907	0	0	0
0.000345884	0	0	0
0.000351651	0	0	0
0.000354422	0	0	0
0.000354975	0	0	0
0.000381377	0	0	0
0.000382355	0	0	0
0.000391944	0	0	0
0.000398604	0	0	0
0.000403979	0	0	0
0.000406049	0	0	0
0.000414038	0	0	0
0.000452331	0	0	0
0.000480218	0	0	0
0.000501951	0	0	0
0.000509065	0	0	0
0.000524353	0	0	0
0.000531672	0	0	0
0.000532627	0	0	0
0.000552035	0	0	0
0.00057921	0	0	0
0.000583757	0	0	0
0.000655186	0	0	0
0.000660899	0	0	0
0.000690203	0	0	0
0.000705607	0	0	0
0.000716782	0	0	0
0.000724109	0	0	0
0.000804776	0	0	0
0.000807458	0	0	0
0.000838303	0	0	0
0.000865444	0	0	0
0.000875554	0	0	0
0.000890452	0	0	0
0.000893642	0	0	0
0.00090878	0	0	0
0.000980901	0	0	0
0.00101538	0	0	0
0.00121674	0	0	0
0.00125406	0	0	0
0.00142071	0	0	0
0.00145417	0	0	0
0.00151388	0	0	0
0.00172853	0	0	0
0.00175902	0	0	0
0.00183163	0	0	0
0.00198961	0	0	0
0.00212966	0	0	0
0.00225093	0	0	0
0.00240521	0	0	0
0.00240797	0	0	0
0.00241793	0	0	0
0.00244023	0	0	0
0.00268801	0	0	0
0.00274256	0	0	0
0.00285626	0	0	0
0.00286855	0	0	0
0.00348449	0	0	0
0.00355782	0	0	0
0.00412296	0	0	0
0.0045033	0	0	0
0.00488412	0	0	0
0.00556192	0	0	0
0.00671984	0	0	0
0.00683081	0	0	0
0.00773839	0	0	0
0.00837669	0	0	0
0.0102992	0	0	0
0.0106263	0	0	0
0.0107928	0	0	0
0.0110491	0	0	0
0.015356	0	0	0
0.0166548	0	0	0.0691085
0.0171137	0	0	0.0691085
0.0219813	0	0	0.0691085
0.0219971	0	0	0.0691085
0.0228174	0	0	0.0691085
0.0248404	0	0	0.0691085
0.0457759	0	0	0.0691085
0.0457847	0	0	0.0691085
0.0457896	0	0	0.0691085
0.0458681	0	0	0.0691085
0.0458856	0	0	0.0691085
0.0458919	0	0	0.0691085
0.0760801	0	0	0.0691085
0.0882038	0	0	0.0691085
0.0882283	0	0	0.138217
0.0882386	0	0	0.138217
0.088305	0	0	0.138217
0.0884105	0	0	0.138217
0.0884649	0	0	0.138217
0.167394	0	0	0.138217
0.287845	0	0	0.138217
0.324697	0	0	0.138217
0.332802	0	0	0.138217
0.332815	0	0	0.138217
0.332864	0	0	0.138217
0.332881	0	0	0.138217
0.332905	0	0	0.138217
0.332914	0	0	0.138217
0.332943	0	0	0.138217
0.400651	0	0	0.138217
0.470194	0	0	0.138217
0.545414	0	0	0.138217
0.618292	0	0	0.207326
0.652008	0	0	0.207326
0.652013	0	0	0.207326
0.703135	0	0	0.207326
0.736273	0	0	0.207326
0.795285	0	0	0.276434
0.795658	0	0	0.276434
0.795687	0	0	0.276434
0.795712	0	0	0.276434
0.799174	0	0	0.276434
0.799221	0	0	0.276434
0.799225	0	0	0.276434
0.799282	0	0	0.276434
0.799345	0	0	0.276434
0.799353	0	0	0.276434
0.858348	0	0	0.276434
0.858373	0	0	0.276434
0.864872	0	0	0.276434
0.864875	0	0	0.276434
0.867205	0	0	0.276434
0.86725	0	0	0.276434
0.867256	0	0	0.276434
0.867267	0	0	0.276434
0.867339	0	0	0.276434
0.867361	0	0	0.276434
0.867385	0	0	0.276434
0.897133	0	0	0.276434
0.897139	0	0	0.276434
0.89717	0	0	0.276434
0.897177	0	0	0.276434
0.89719	0	0	0.276434
0.897223	0	0	0.276434
0.897293	0	0	0.276434
0.903741	0	0	0.276434
0.903764	0	0	0.276434
0.925191	0	0	0.276434
0.925191	0	0	0.276434
0.925211	0	0	0.276434
0.956636	0	0	0.276434
0.956646	0	0	0.276434
0.956741	0	0	0.276434
1.02894	0	0	0.276434
1.02905	0	0	0.276434
1.06922	0	0	0.276434
1.13512	0	0	0.276434
1.20065	0	0	0.276434
1.20067	0	0	0.276434
1.20068	0	0	0.276434
1.20072	0	0	0.276434
1.20358	0	0	0.276434
1.21901	0	0	0.276434
1.21902	0	0	0.276434
1.28896	0	0	0.276434
1.30317	0	0	0.345543
1.36637	0	0	0.345543
1.37627	0	0	0.345543
1.37627	0	0	0.345543
1.37628	0	0	0.345543
1.44604	0	0	0.345543
1.44616	0	0	0.345543
1.44628	0	0	0.345543
1.44629	0	0	0.345543
1.47467	0	0	0.345543
1.48649	0	0	0.345543
1.4865	0	0	0.345543
1.61168	0	0	0.345543
1.69964	0	0	0.345543
1.69965	0	0	0.345543
1.78053	0	0	0.345543
1.83371	0	0	0.345543
1.88279	0	0	0.345543
1.91972	0	0	0.345543
1.93539	0	0	0.345543
1.9354	0	0	0.345543
1.95979	0	0	0.345543
1.9598	0	0	0.345543
2.03449	0	0	0.345543
2.03454	0	0	0.345543
2.03455	0	0	0.345543
2.03458	0	0	0.345543
2.09118	0	0	0.345543
2.09376	0	0	0.345543
2.09985	0	0	0.345543
2.17954	0	0	0.345543
2.19606	0	0	0.345543
2.19613	0	0	0.345543
2.19615	0	0	0.345543
2.20002	0	0	0.345543
2.20006	0	0	0.345543
2.20009	0	0	0.345543
2.23969	0	0	0.345543
2.294	0	0	0.345543
2.3268	0	0	0.345543
2.37619	0	0	0.48376
2.48599	0	0	0.48376
2.48601	0	0	0.48376
2.48601	0	0	0.48376
2.48602	0	0	0.48376
2.48614	0	0	0.48376
2.50629	0	0	0.48376
2.57276	0	0	0.48376
2.57278	0	0	0.48376
2.57278	0	0	0.48376
2.60538	0	0	0.48376
2.64062	0	0	0.48376
2.74115	0	0	0.48376
2.77483	0	0	0.48376
2.79927	0	0	0.48376
2.85657	0	0	0.48376
2.91179	0	0	0.48376
2.91903	0	0	0.48376
2.91904	0	0	0.48376
2.92811	0	0	0.48376
3.05404	0	0	0.48376
3.05412	0	0	0.48376
3.11996	0	0	0.48376
3.11997	0	0	0.48376
3.24837	0	0	0.48376
3.4173	0	0	0.48376
3.4372	0	0	0.552868
3.6325	0	0	0.552868
3.6325	0	0	0.621977
3.81453	0	0	0.621977
3.94336	0	0	0.621977
3.94341	0	0	0.691085
3.94405	0	0	0.691085
3.94411	0	0	0.691085
3.97832	0	0	0.691085
3.97836	0	0	0.691085
3.97844	0	0	0.691085
3.98038	0	0	0.691085
4.07729	0	0	0.691085
4.16193	0	0	0.691085
4.16193	0	0	0.691085
4.16199	0	0	0.691085
4.19334	0	0	0.691085
4.20532	0	0	0.691085
4.21671	0	0	0.760194
4.25531	0	0	0.760194
4.27094	0	0	0.760194
4.275	0	0	0.760194
4.29884	0	0	0.829302
4.40109	0	0	0.829302
4.46003	0	0	0.829302
4.4865	0	0	0.829302
4.48652	0	0	0.829302
4.48654	0	0	0.829302
4.48765	0	0	0.829302
4.48767	0	0	0.829302
4.49405	0	0	0.829302
4.49408	0	0	0.829302
4.53747	0	0	0.829302
4.54528	0	0	0.829302
4.54532	0	0	0.829302
4.54533	0	0	0.829302
4.55731	0	0	0.829302
4.55735	0	0	0.829302
4.56215	0	0	0.829302
4.59907	0	0	0.829302
4.61085	0	0	0.898411
4.61093	0	0	0.898411
4.61095	0	0	0.898411
4.61099	0	0	0.898411
4.61103	0	0	0.898411
4.61103	0	0	0.898411
4.62652	0	0	0.898411
4.65876	0	0	0.898411
4.6639	0	0	0.967519
4.66399	0	0	0.967519
4.67421	0	0	0.967519
4.74671	0	0	0.967519
4.74675	0	0	1.03663
4.74675	0	0	1.03663
4.74681	0	0	1.03663
4.74683	0	0	1.03663
4.74688	0	0	1.03663
4.7469	0	0	1.03663
4.7498	0	0	1.03663
4.74982	0	0	1.03663
4.75235	0	0	1.03663
4.81332	0	0	1.03663
4.83674	0	0	1.10574
4.92157	0	0	1.10574
4.92158	0	0	1.10574
4.92159	0	0	1.10574
4.92159	0	0	1.10574
4.9244	0	0	1.10574
4.96139	0	0	1.10574
4.966	0	0	1.10574
4.96603	0	0	1.10574
4.96604	0	0	1.10574
4.96904	0	0	1.10574
5.02941	0	0	1.10574
5.02941	0	0	1.10574
5.04515	0	0	1.10574
5.05642	0	0	1.10574
5.08841	0	0	1.10574
5.11068	0	0	1.17484
5.1578	0	0	1.17484
5.1578	0	0	1.17484
5.1578	0	0	1.17484
5.15791	0	0	1.17484
5.241	0	0	1.17484
5.24105	0	0	1.17484
5.25256	0	0	1.17484
5.25261	0	0	1.17484
5.27289	0	0	1.17484
5.27787	0	0	1.17484
5.32125	0	0	1.17484
5.34554	0	0	1.24395
5.38381	0	0	1.31306
5.47855	0	0	1.31306
5.53068	0	0	1.31306
5.54836	0	0	1.31306
5.57093	0	0	1.31306
5.57093	0	0	1.31306
5.57093	0	0	1.31306
5.57094	0	0	1.31306
5.57094	0	0	1.31306
5.57095	0	0	1.31306
5.571	0	0	1.31306
5.75038	0	0	1.31306
5.78172	0	0	1.31306
5.78172	0	0	1.31306
5.79213	0	0	1.31306
5.80059	0	0	1.31306
5.8006	0	0	1.31306
5.80063	0	0	1.31306
5.80065	0	0	1.31306
5.80066	0	0	1.31306
5.80068	0	0	1.31306
5.8007	0	0	1.31306
5.82277	0	0	1.31306
5.8838	0	0	1.31306
5.8838	0	0	1.31306
5.88383	0	0	1.31306
5.95278	0	0	1.31306
5.96037	0	0	1.38217
5.96041	0	0	1.38217
5.96042	0	0	1.38217
5.96043	0	0	1.38217
5.96044	0	0	1.38217
5.9605	0	0	1.38217
5.96059	0	0	1.38217
6.02699	0	0	1.38217
6.02709	0	0	1.38217
6.0271	0	0	1.38217
6.13599	0	0	1.38217
6.4203	0	0	1.38217
6.44818	0	0	1.38217
6.58156	0	0	1.38217
6.71608	0	0	1.38217
6.74714	0	0	1.38217
6.8181	0	0	1.38217
6.81811	0	0	1.38217
6.82499	0	0	1.38217
6.85505	0	0	1.45128
6.88417	0	0	1.45128
6.88419	0	0	1.45128
6.88421	0	0	1.45128
7.01138	0	0	1.45128
7.10128	0	0	1.45128
7.11121	0	0	1.5895
7.11121	0	0	1.5895
7.11123	0	0	1.5895
7.18136	0	0	1.5895
7.19378	0	0	1.6586
7.1938	0	0	1.6586
7.19384	0	0	1.6586
7.21292	0	0	1.6586
7.24953	0	0	1.6586
7.2496	0	0	1.6586
7.24962	0	0	1.6586
7.57593	0	0	1.6586
7.57593	0	0	1.72771
7.57595	0	0	1.72771
7.57776	0	0	1.72771
7.61872	0	0	1.79682
7.8206	0	0	1.79682
7.84085	0	0	1.79682
7.90153	0	0	1.79682
7.96313	0	0	1.79682
8.03725	0	0	1.86593
8.04992	0	0	1.86593
8.04995	0	0	1.86593
8.04996	0	0	1.86593
8.04996	0	0	1.86593
8.05	0	0	1.86593
8.05002	0	0	1.86593
8.0863	0	0	1.86593
8.09634	0	0	2.00415
8.10163	0	0	2.00415
8.10163	0	0	2.00415
8.13348	0	0	2.00415
8.13356	0	0	2.00415
8.13358	0	0	2.00415
8.19168	0	0	2.00415
8.1917	0	0	2.00415
8.19172	0	0	2.00415
8.19174	0	0	2.00415
8.22215	0	0	2.00415
8.2496	0	0	2.00415
8.2901	0	0	2.07326
8.29021	0	0	2.07326
8.30891	0	0	2.07326
8.30898	0	0	2.07326
8.31745	0	0	2.07326
8.31746	0	0	2.07326
8.31747	0	0	2.07326
8.31748	0	0	2.07326
8.33447	0	0	2.07326
8.33447	0	0	2.07326
8.33451	0	0	2.07326
8.33452	0	0	2.07326
8.36605	0	0	2.07326
8.36608	0	0	2.07326
8.43486	0	0	2.07326
8.43487	0	0	2.07326
8.43492	0	0	2.07326
8.50821	0	0	2.07326
8.53933	0	0	2.14236
8.72577	0	0	2.14236
8.72584	0	0	2.14236
8.72589	0	0	2.14236
8.78835	0	0	2.14236
8.82177	0	0	2.14236
8.85176	0	0	2.14236
8.85177	0	0	2.14236
8.85177	0	0	2.14236
8.85762	0	0	2.14236
8.85763	0	0	2.21147
8.89421	0	0	2.21147
8.89435	0	0	2.21147
8.89436	0	0	2.28058
8.89436	0	0	2.28058
8.89446	0	0	2.28058
8.90748	0	0	2.28058
8.96568	0	0	2.28058
9.01411	0	0	2.34969
9.01412	0	0	2.34969
9.03745	0	0	2.34969
9.04464	0	0	2.34969
9.04465	0	0	2.4188
9.04467	0	0	2.4188
9.10268	0	0	2.4188
9.10274	0	0	2.4188
9.10303	0	0	2.4188
9.13963	0	0	2.4188
9.1969	0	0	2.4188
9.25056	0	0	2.4188
9.30574	0	0	2.4188
9.34781	0	0	2.4188
9.35421	0	0	2.4188
9.35423	0	0	2.48791
9.44868	0	0	2.48791
9.44869	0	0	2.55701
9.44874	0	0	2.55701
9.58472	0	0	2.55701
9.58473	0	0	2.55701
9.58474	0	0	2.55701
9.8585	0	0	2.55701
9.85852	0	0	2.55701
9.85854	0	0	2.55701
9.85854	0	0	2.55701
9.92447	0	0	2.55701
9.92459	0	0	2.55701
9.92461	0	0	2.55701
9.92462	0	0	2.55701
9.94082	0	0	2.55701
9.94085	0	0	2.62612
9.94085	0	0	2.62612
9.94087	0	0	2.62612
9.94087	0	0	2.62612
10.0918	0	0	2.62612
10.0919	0	0	2.62612
10.1232	0	0	2.62612
10.1283	0	0	2.62612
10.2428	0	0	2.62612
10.2626	0	0	2.62612
10.3253	0	0	2.62612
10.3667	0	0	2.62612
10.4635	0	0	2.69523
10.512	0	0	2.76434
10.5286	0	0	2.76434
10.555	0	0	2.76434
10.5551	0	0	2.76434
10.5551	0	0	2.76434
10.5552	0	0	2.76434
10.5552	0	0	2.76434
10.5698	0	0	2.76434
10.6261	0	0	2.76434
10.6919	0	0	2.76434
10.6919	0	0	2.76434
10.7217	0	0	2.76434
10.7217	0	0	2.83345
10.7218	0	0	2.83345
10.7218	0	0	2.83345
10.7218	0	0	2.83345
10.7531	0	0	2.83345
10.8115	0	0	2.83345
10.8672	0	0	2.83345
10.8674	0	0	2.83345
11.0486	0	0	2.83345
11.0487	0	0	2.83345
11.1356	0	0	2.83345
11.1553	0	0	2.90256
11.1554	0	0	2.90256
11.1564	0	0	2.90256
11.2808	0	0	2.90256
11.2886	0	0	2.97167
11.4233	0	0	2.97167
11.4879	0	0	2.97167
11.488	0	0	2.97167
11.5171	0	0	2.97167
11.5414	0	0	2.97167
11.5838	0	0	3.04077
11.5838	0	0	3.10988
11.5838	0	0	3.10988
11.5838	0	0	3.10988
11.5839	0	0	3.10988
11.584	0	0	3.10988
11.584	0	0	3.10988
11.6657	0	0	3.10988
11.6658	0	0	3.10988
11.6658	0	0	3.10988
11.6658	0	0	3.10988
11.6775	0	0	3.10988
11.7307	0	0	3.17899
11.763	0	0	3.2481
11.8101	0	0	3.2481
11.812	0	0	3.2481
11.8569	0	0	3.31721
11.8663	0	0	3.31721
11.8663	0	0	3.31721
11.8663	0	0	3.31721
11.8663	0	0	3.31721
11.8663	0	0	3.31721
12.0126	0	0	3.31721
12.2015	0	0	3.38632
12.2835	0	0	3.52453
12.2835	0	0	3.52453
12.2835	0	0	3.52453
12.3507	0	0	3.52453
12.3507	0	0	3.52453
12.3507	0	0	3.52453
12.4865	0	0	3.52453
12.4866	0	0	3.59364
12.4866	0	0	3.59364
12.5246	0	0	3.59364
12.5299	0	0	3.59364
12.5299	0	0	3.59364
12.53	0	0	3.59364
12.5671	0	0	3.59364
12.5676	0	0	3.59364
12.7747	0	0	3.59364
12.8181	0	0	3.59364
12.8181	0	0	3.59364
12.8181	0	0	3.59364
12.8182	0	0	3.59364
12.8197	0	0	3.59364
12.907	0	0	3.59364
12.9394	0	0	3.59364
12.9509	0	0	3.66275
12.9875	0	0	3.66275
13.0025	0	0	3.73186
13.0089	0	0	3.80097
13.0089	0	0	3.80097
13.079	0	0	3.80097
13.0791	0	0	3.80097
13.1597	0	0	3.80097
13.1758	0	0	3.87008
13.2381	0	0	3.87008
13.2504	0	0	3.87008
13.3597	0	0	4.00829
13.3666	0	0	4.00829
13.3667	0	0	4.00829
13.3729	0	0	4.00829
13.4454	0	0	4.00829
13.6156	0	0	4.0774
13.6156	0	0	4.0774
13.6156	0	0	4.0774
13.6156	0	0	4.0774
13.6659	0	0	4.0774
13.6659	0	0	4.0774
13.7422	0	0	4.0774
13.7527	0	0	4.14651
13.7528	0	0	4.14651
13.7607	0	0	4.14651
13.7797	0	0	4.21562
13.8771	0	0	4.21562
13.8771	0	0	4.21562
13.9223	0	0	4.21562
13.9223	0	0	4.28473
13.9343	0	0	4.28473
14.0008	0	0	4.35384
14.0008	0	0	4.35384
14.0008	0	0	4.35384
14.0008	0	0	4.35384
14.0009	0	0	4.35384
14.049	0	0	4.35384
14.0491	0	0	4.35384
14.0491	0	0	4.35384
14.0491	0	0	4.35384
14.0491	0	0	4.35384
14.0491	0	0	4.35384
14.0492	0	0	4.35384
14.0492	0	0	4.35384
14.1083	0	0	4.35384
14.1084	0	0	4.35384
14.1084	0	0	4.35384
14.1084	0	0	4.35384
14.1084	0	0	4.35384
14.1084	0	0	4.35384
14.1546	0	0	4.42294
14.1574	0	0	4.42294
14.1574	0	0	4.42294
14.18	0	0	4.42294
14.1801	0	0	4.42294
14.1801	0	0	4.42294
14.2557	0	0	4.42294
14.3243	0	0	4.56116
14.3243	0	0	4.56116
14.3244	0	0	4.56116
14.4653	0	0	4.56116
14.6864	0	0	4.63027
14.7607	0	0	4.63027
14.7797	0	0	4.69938
14.7989	0	0	4.76849
14.8007	0	0	4.8376
14.8296	0	0	4.9067
14.8297	0	0	5.04492
14.8513	0	0	5.04492
14.8657	0	0	5.11403
14.8657	0	0	5.11403
14.8657	0	0	5.11403
14.8657	0	0	5.11403
14.9675	0	0	5.11403
15.0003	0	0	5.11403
15.0345	0	0	5.11403
15.1181	0	0	5.18314
15.1541	0	0	5.18314
15.2141	0	0	5.25225
15.2659	0	0	5.25225
15.2687	0	0	5.25225
15.3857	0	0	5.25225
15.5974	0	0	5.32135
15.5975	0	0	5.32135
15.5975	0	0	5.32135
15.5975	0	0	5.32135
15.5976	0	0	5.32135
15.5983	0	0	5.32135
15.5983	0	0	5.32135
15.5983	0	0	5.32135
15.5984	0	0	5.32135
15.6324	0	0	5.32135
15.6325	0	0	5.32135
15.6721	0	0	5.32135
15.6721	0	0	5.32135
15.6996	0	0	5.32135
15.7132	0	0	5.39046
15.7495	0	0	5.45957
15.8119	0	0	5.45957
15.8271	0	0	5.59779
15.8587	0	0	5.59779
15.8588	0	0	5.59779
15.8588	0	0	5.59779
15.8588	0	0	5.59779
15.8588	0	0	5.59779
15.8589	0	0	5.59779
15.8589	0	0	5.59779
15.8958	0	0	5.59779
15.8958	0	0	5.6669
15.8958	0	0	5.6669
15.8958	0	0	5.6669
15.9745	0	0	5.6669
16.0303	0	0	5.6669
16.0434	0	0	5.73601
16.0554	0	0	5.80511
16.0649	0	0	5.80511
16.13	0	0	5.87422
16.1302	0	0	5.87422
16.1302	0	0	5.87422
16.1302	0	0	5.87422
16.1302	0	0	5.87422
16.1302	0	0	5.87422
16.1761	0	0	5.87422
16.2736	0	0	5.94333
16.2872	0	0	6.08155
16.2872	0	0	6.08155
16.2874	0	0	6.08155
16.2874	0	0	6.08155
16.2978	0	0	6.08155
16.4351	0	0	6.15066
16.4565	0	0	6.21977
16.4566	0	0	6.21977
16.4566	0	0	6.21977
16.4801	0	0	6.21977
16.6055	0	0	6.35798
16.6055	0	0	6.35798
16.6149	0	0	6.35798
16.7347	0	0	6.42709
16.7348	0	0	6.42709
16.7448	0	0	6.42709
16.7478	0	0	6.42709
16.7945	0	0	6.4962
16.8304	0	0	6.4962
16.8305	0	0	6.4962
16.8501	0	0	6.4962
16.8501	0	0	6.4962
16.8501	0	0	6.4962
16.8501	0	0	6.4962
16.8501	0	0	6.4962
16.8502	0	0	6.4962
16.8502	0	0	6.4962
16.8508	0	0	6.4962
16.9753	0	0	6.56531
17.1194	0	0	6.56531
17.1194	0	0	6.56531
17.1203	0	0	6.56531
17.1204	0	0	6.63442
17.1388	0	0	6.63442
17.201	0	0	6.63442
17.2184	0	0	6.70352
17.2462	0	0	6.84174
17.2463	0	0	6.84174
17.2463	0	0	6.84174
17.2464	0	0	6.84174
17.2634	0	0	6.84174
17.2634	0	0	6.84174
17.3499	0	0	6.84174
17.384	0	0	6.91085
17.5218	0	0	6.97996
17.5399	0	0	6.97996
17.5712	0	0	6.97996
17.5712	0	0	6.97996
17.5712	0	0	6.97996
17.6349	0	0	6.97996
17.6351	0	0	6.97996
17.657	0	0	6.97996
17.7765	0	0	6.97996
17.7919	0	0	7.04907
17.8134	0	0	7.11818
17.9572	0	0	7.11818
17.9841	0	0	7.11818
18.0286	0	0	7.11818
18.1444	0	0	7.11818
18.1444	0	0	7.11818
18.1444	0	0	7.11818
18.2606	0	0	7.11818
18.2705	0	0	7.11818
18.2705	0	0	7.11818
18.2705	0	0	7.11818
18.2706	0	0	7.11818
18.3262	0	0	7.11818
18.3263	0	0	7.18728
18.7376	0	0	7.18728
18.7376	0	0	7.25639
18.7672	0	0	7.25639
18.9279	0	0	7.3255
18.928	0	0	7.3255
18.9718	0	0	7.3255
19.1091	0	0	7.39461
19.1386	0	0	7.39461
19.1386	0	0	7.39461
19.1726	0	0	7.39461
19.1726	0	0	7.39461
19.1726	0	0	7.39461
19.1804	0	0	7.39461
19.2604	0	0	7.39461
19.2604	0	0	7.39461
19.321	0	0	7.39461
19.3682	0	0	7.46372
19.3682	0	0	7.46372
19.3682	0	0	7.46372
19.3682	0	0	7.46372
19.4042	0	0	7.46372
19.4506	0	0	7.53283
19.4506	0	0	7.53283
19.4506	0	0	7.53283
19.4507	0	0	7.53283
19.4917	0	0	7.53283
19.5958	0	0	7.53283
19.6019	0	0	7.60194
19.6953	0	0	7.67104
19.7	0	0	7.67104
19.7	0	0	7.67104
19.8363	0	0	7.67104
19.8692	0	0	7.67104
19.9414	0	0	7.67104
19.9468	0	0	7.80926
19.9468	0	0	7.80926
20.1331	0	0	7.80926
20.1331	0	0	7.80926
20.1331	0	0	7.80926
20.1332	0	0	7.80926
20.1333	0	0	7.80926
20.1355	0	0	7.80926
20.2509	0	0	7.87837
20.2939	0	0	7.94748
20.3063	0	0	8.01659
20.3218	0	0	8.01659
20.3426	0	0	8.01659
20.3426	0	0	8.01659
20.3427	0	0	8.01659
20.3463	0	0	8.01659
20.3554	0	0	8.01659
20.372	0	0	8.01659
20.5887	0	0	8.01659
20.5932	0	0	8.01659
20.6328	0	0	8.08569
20.7452	0	0	8.08569
20.7697	0	0	8.22391
20.7979	0	0	8.29302
20.8233	0	0	8.36213
20.907	0	0	8.50035
21.1057	0	0	8.56945
21.1115	0	0	8.70767
21.234	0	0	8.70767
21.234	0	0	8.77678
21.234	0	0	8.77678
21.238	0	0	8.77678
21.2857	0	0	8.84589
21.4486	0	0	8.84589
21.4558	0	0	8.915
21.4559	0	0	8.915
21.4559	0	0	8.915
21.4763	0	0	8.915
21.4929	0	0	8.98411
21.5033	0	0	9.05321
21.5705	0	0	9.12232
21.5978	0	0	9.19143
21.6167	0	0	9.26054
21.6762	0	0	9.32965
21.7064	0	0	9.39876
21.7446	0	0	9.53697
21.8518	0	0	9.67519
21.939	0	0	9.81341
21.9419	0	0	9.81341
21.9419	0	0	9.81341
21.9419	0	0	9.81341
21.942	0	0	9.81341
21.942	0	0	9.81341
21.942	0	0	9.81341
21.942	0	0	9.81341
21.9464	0	0	9.81341
22.1084	0	0	9.81341
22.1084	0	0	9.88252
22.1084	0	0	9.88252
22.1484	0	0	9.88252
22.2437	0	0	9.88252
22.2514	0	0	9.95162
22.3326	0	0	10.0207
22.3386	0	0	10.0207
22.4734	0	0	10.0207
22.4812	0	0	10.0898
22.5058	0	0	10.1589
22.6307	0	0	10.2281
22.6933	0	0	10.2281
22.7488	0	0	10.2972
22.8485	0	0	10.2972
22.9297	0	0	10.2972
23.0781	0	0	10.2972
23.1714	0	0	10.3663
23.1714	0	0	10.4354
23.2017	0	0	10.4354
23.2636	0	0	10.4354
23.2864	0	0	10.4354
23.3314	0	0	10.5045
23.4957	0	0	10.5045
23.564	0	0	10.5045
23.5818	0	0	10.6427
23.5907	0	0	10.7118
23.6072	0	0	10.7118
23.6663	0	0	10.7118
23.6664	0	0	10.7809
23.773	0	0	10.7809
23.8601	0	0	10.7809
23.9398	0	0	10.85
24.1254	0	0	10.9191
24.1437	0	0	10.9191
24.1438	0	0	10.9883
24.1928	0	0	10.9883
24.1928	0	0	10.9883
24.1928	0	0	10.9883
24.2331	0	0	10.9883
24.2354	0	0	11.0574
24.3328	0	0	11.1265
24.3737	0	0	11.1956
24.3738	0	0	11.2647
24.3739	0	0	11.2647
24.387	0	0	11.2647
24.4149	0	0	11.2647
24.4454	0	0	11.2647
24.4669	0	0	11.3338
24.4669	0	0	11.3338
24.4669	0	0	11.3338
24.4938	0	0	11.3338
24.6626	0	0	11.3338
24.6628	0	0	11.4029
24.6771	0	0	11.472
24.828	0	0	11.472
24.843	0	0	11.472
24.8905	0	0	11.472
24.9475	0	0	11.472
24.9546	0	0	11.472
24.9546	0	0	11.6102
24.9546	0	0	11.6102
24.9546	0	0	11.6102
24.9547	0	0	11.6102
24.9547	0	0	11.6102
24.9655	0	0	11.6102
25.1384	0	0	11.6793
25.1859	0	0	11.7484
25.2378	0	0	11.7484
25.2378	0	0	11.7484
25.4756	0	0	11.7484
25.4808	0	0	11.8176
25.6683	0	0	11.9558
25.7585	0	0	11.9558
25.8414	0	0	12.094
25.8414	0	0	12.094
25.9113	0	0	12.094
25.9589	0	0	12.094
26.0336	0	0	12.094
26.0406	0	0	12.1631
26.054	0	0	12.3013
26.1209	0	0	12.3704
26.1243	0	0	12.3704
26.1304	0	0	12.3704
26.1881	0	0	12.4395
26.2502	0	0	12.5086
26.3463	0	0	12.5777
26.444	0	0	12.6469
26.6023	0	0	12.716
26.6091	0	0	12.716
26.8029	0	0	12.7851
26.8084	0	0	12.9233
26.8101	0	0	12.9924
26.8406	0	0	12.9924
26.9108	0	0	13.1306
27.0695	0	0	13.1306
27.1432	0	0	13.2688
27.3173	0	0	13.3379
27.3174	0	0	13.3379
27.3174	0	0	13.3379
27.3174	0	0	13.3379
27.3811	0	0	13.3379
27.6267	0	0	13.407
27.6327	0	0	13.4762
27.6818	0	0	13.4762
27.7249	0	0	13.4762
27.8114	0	0	13.6144
27.867	0	0	13.6835
27.891	0	0	13.6835
27.8996	0	0	13.7526
27.9366	0	0	13.7526
28.0146	0	0	13.7526
28.0147	0	0	13.8217
28.1213	0	0	13.8217
28.2181	0	0	13.8217
28.2181	0	0	13.8908
28.2181	0	0	13.8908
28.2181	0	0	13.8908
28.2579	0	0	13.8908
28.258	0	0	13.8908
28.258	0	0	13.8908
28.2581	0	0	13.8908
28.2671	0	0	13.8908
28.4202	0	0	14.029
28.4898	0	0	14.0981
28.498	0	0	14.0981
28.59	0	0	14.0981
28.6484	0	0	14.1672
28.6948	0	0	14.2364
28.7058	0	0	14.2364
28.7375	0	0	14.3746
28.8893	0	0	14.4437
28.9583	0	0	14.5819
29.0252	0	0	14.651
29.0873	0	0	14.7892
29.0998	0	0	14.8583
29.1173	0	0	14.9274
29.1699	0	0	14.9274
29.2278	0	0	14.9274
29.2331	0	0	15.0657
29.2894	0	0	15.2039
29.4563	0	0	15.2039
29.5665	0	0	15.2039
29.5728	0	0	15.273
29.5728	0	0	15.3421
29.5728	0	0	15.3421
29.6182	0	0	15.3421
29.7145	0	0	15.3421
29.8714	0	0	15.4803
29.9544	0	0	15.6185
29.9656	0	0	15.7567
30.0147	0	0	15.7567
30.1444	0	0	15.7567
30.2626	0	0	15.8258
30.3093	0	0	15.895
30.3093	0	0	15.895
30.3153	0	0	15.895
30.3544	0	0	15.9641
30.3687	0	0	16.0332
30.3798	0	0	16.0332
30.4312	0	0	16.1023
30.5225	0	0	16.1023
30.5225	0	0	16.1023
30.5225	0	0	16.1023
30.6156	0	0	16.1023
30.6156	0	0	16.1714
30.6156	0	0	16.1714
30.6285	0	0	16.1714
30.6601	0	0	16.2405
30.7776	0	0	16.3787
30.8177	0	0	16.4478
30.8939	0	0	16.4478
30.9327	0	0	16.5169
31.0083	0	0	16.586
31.0213	0	0	16.586
31.0213	0	0	16.586
31.0213	0	0	16.586
31.0214	0	0	16.586
31.0214	0	0	16.586
31.0831	0	0	16.586
31.1157	0	0	16.6551
31.2206	0	0	16.7243
31.3026	0	0	16.7934
31.341	0	0	16.7934
31.3672	0	0	16.9316
31.4126	0	0	17.0698
31.5899	0	0	17.1389
31.6045	0	0	17.2771
31.86	0	0	17.4153
31.86	0	0	17.4845
31.9709	0	0	17.4845
32.0763	0	0	17.4845
32.089	0	0	17.5536
32.1286	0	0	17.6918
32.282	0	0	17.83
32.3113	0	0	17.83
32.5811	0	0	17.8991
32.5811	0	0	17.9682
32.5812	0	0	17.9682
32.6468	0	0	17.9682
32.6468	0	0	18.0373
32.683	0	0	18.0373
32.6847	0	0	18.0373
32.6987	0	0	18.0373
32.6987	0	0	18.0373
32.6988	0	0	18.0373
32.7194	0	0	18.0373
32.7492	0	0	18.1755
32.7966	0	0	18.1755
32.8987	0	0	18.1755
33.0252	0	0	18.1755
33.138	0	0	18.2446
33.1868	0	0	18.3829
33.1868	0	0	18.3829
33.1869	0	0	18.3829
33.1869	0	0	18.3829
33.2601	0	0	18.3829
33.2795	0	0	18.3829
33.325	0	0	18.3829
33.325	0	0	18.3829
33.3251	0	0	18.3829
33.4786	0	0	18.3829
33.8953	0	0	18.452
33.9471	0	0	18.5211
34.0154	0	0	18.5902
34.0361	0	0	18.6593
34.043	0	0	18.6593
34.0625	0	0	18.7284
34.0964	0	0	18.7284
34.1354	0	0	18.7284
34.2857	0	0	18.7975
34.5937	0	0	18.8666
34.6403	0	0	18.8666
34.6667	0	0	18.9357
34.7489	0	0	19.0739
34.792	0	0	19.1431
34.8199	0	0	19.2122
34.9504	0	0	19.2122
34.9677	0	0	19.3504
35.0145	0	0	19.4886
35.0884	0	0	19.5577
35.1189	0	0	19.6959
35.3041	0	0	19.765
35.3193	0	0	19.8341
35.3662	0	0	19.9032
35.3663	0	0	20.0415
35.5373	0	0	20.0415
35.568	0	0	20.1106
35.6281	0	0	20.1797
35.813	0	0	20.2488
35.819	0	0	20.2488
35.916	0	0	20.3179
35.9277	0	0	20.387
35.9386	0	0	20.4561
35.9468	0	0	20.4561
35.949	0	0	20.5252
36.1096	0	0	20.5943
36.2099	0	0	20.6634
36.2297	0	0	20.7326
36.233	0	0	20.7326
36.233	0	0	20.7326
36.233	0	0	20.8017
36.5135	0	0	20.8017
36.5136	0	0	20.8708
36.5845	0	0	20.8708
36.7402	0	0	20.9399
36.7402	0	0	21.009
36.7402	0	0	21.009
36.7581	0	0	21.009
36.8266	0	0	21.0781
36.8608	0	0	21.2163
36.9176	0	0	21.2854
36.9941	0	0	21.4236
37.0585	0	0	21.5619
37.0965	0	0	21.631
37.2134	0	0	21.7001
37.2953	0	0	21.7001
37.3739	0	0	21.8383
37.3964	0	0	21.8383
37.4119	0	0	21.9074
37.4942	0	0	21.9765
37.5824	0	0	22.1147
37.5824	0	0	22.1838
37.5824	0	0	22.1838
37.5825	0	0	22.1838
37.6102	0	0	22.1838
37.6738	0	0	22.322
37.6881	0	0	22.3912
37.7263	0	0	22.5294
37.7274	0	0	22.5294
37.7519	0	0	22.6676
37.7939	0	0	22.8058
37.943	0	0	22.8058
37.9551	0	0	22.8749
38.093	0	0	22.944
38.093	0	0	22.944
38.0931	0	0	22.944
38.4754	0	0	22.944
38.5494	0	0	23.0131
38.6448	0	0	23.0822
38.6548	0	0	23.1513
38.6549	0	0	23.2205
38.7593	0	0	23.2205
38.8943	0	0	23.2896
38.8943	0	0	23.3587
39.0236	0	0	23.3587
39.1899	0	0	23.4969
39.2316	0	0	23.6351
39.596	0	0	23.7042
39.7476	0	0	23.8424
39.8062	0	0	23.9806
39.8688	0	0	24.0498
39.8874	0	0	24.0498
39.9623	0	0	24.0498
40.0431	0	0	24.0498
40.0688	0	0	24.1189
40.0882	0	0	24.2571
40.211	0	0	24.2571
40.3445	0	0	24.2571
40.3815	0	0	24.3262
40.4318	0	0	24.3262
40.4733	0	0	24.3953
40.4975	0	0	24.4644
40.6777	0	0	24.5335
40.8084	0	0	24.6026
40.8992	0	0	24.6717
40.9257	0	0	24.7408
40.9257	0	0	24.8791
40.9373	0	0	24.8791
41.2311	0	0	25.0173
41.2494	0	0	25.1555
41.2629	0	0	25.2246
41.2654	0	0	25.3628
41.3376	0	0	25.4319
41.369	0	0	25.501
41.4513	0	0	25.6393
41.4989	0	0	25.7775
41.6362	0	0	25.8466
42.0194	0	0	25.9157
42.2327	0	0	25.9848
42.2393	0	0	26.123
42.2471	0	0	26.1921
42.2471	0	0	26.2612
42.4406	0	0	26.2612
42.515	0	0	26.3303
42.8149	0	0	26.3303
42.815	0	0	26.3994
42.815	0	0	26.3994
42.9732	0	0	26.3994
42.9732	0	0	26.5377
42.9733	0	0	26.5377
43.0625	0	0	26.5377
43.123	0	0	26.6068
43.1311	0	0	26.745
43.2819	0	0	26.8832
43.3287	0	0	27.0214
43.3301	0	0	27.0905
43.3553	0	0	27.1596
43.3913	0	0	27.1596
43.4235	0	0	27.2287
43.4355	0	0	27.2287
43.4646	0	0	27.2287
43.4744	0	0	27.367
43.4745	0	0	27.367
43.4745	0	0	27.367
43.4786	0	0	27.367
43.4786	0	0	27.4361
43.5792	0	0	27.4361
43.6088	0	0	27.5052
43.7005	0	0	27.5743
43.7182	0	0	27.6434
43.7456	0	0	27.7125
43.7639	0	0	27.8507
43.8364	0	0	27.9889
43.8476	0	0	28.0581
43.8568	0	0	28.0581
43.9442	0	0	28.1963
43.9442	0	0	28.3345
43.9442	0	0	28.3345
44.1051	0	0	28.3345
44.2044	0	0	28.4036
44.4274	0	0	28.4036
44.4275	0	0	28.4727
44.4869	0	0	28.4727
44.8267	0	0	28.5418
44.8472	0	0	28.5418
44.8472	0	0	28.6109
44.8473	0	0	28.6109
44.8715	0	0	28.6109
45.0671	0	0	28.6109
45.109	0	0	28.68
45.2045	0	0	28.8182
45.3955	0	0	28.9565
45.3963	0	0	29.0947
45.402	0	0	29.1638
45.4449	0	0	29.302
45.4508	0	0	29.4402
45.4608	0	0	29.5093
45.4608	0	0	29.5784
45.4986	0	0	29.5784
45.8313	0	0	29.7167
45.87	0	0	29.8549
45.9216	0	0	29.8549
45.9559	0	0	29.9931
46.1595	0	0	30.1313
46.1748	0	0	30.2695
46.2088	0	0	30.2695
46.3437	0	0	30.4077
46.416	0	0	30.4077
46.4288	0	0	30.4768
46.4412	0	0	30.4768
46.6921	0	0	30.6151
46.7929	0	0	30.7533
46.815	0	0	30.8224
46.8167	0	0	30.8915
46.856	0	0	30.8915
46.8562	0	0	30.9606
47.1259	0	0	30.9606
47.1816	0	0	31.0297
47.1816	0	0	31.1679
47.1817	0	0	31.1679
47.3413	0	0	31.1679
47.5145	0	0	31.237
47.8424	0	0	31.3062
47.9469	0	0	31.3753
47.947	0	0	31.4444
47.9759	0	0	31.4444
47.9836	0	0	31.5135
47.9836	0	0	31.5826
48.0859	0	0	31.5826
48.1098	0	0	31.6517
48.1747	0	0	31.7899
48.4872	0	0	31.859
48.5054	0	0	31.859
48.5054	0	0	31.9281
48.5054	0	0	31.9281
48.5587	0	0	31.9281
48.6646	0	0	32.0663
48.8571	0	0	32.1355
48.9296	0	0	32.2046
49.047	0	0	32.2737
49.1788	0	0	32.3428
49.1789	0	0	32.4119
49.1921	0	0	32.4119
49.2843	0	0	32.5501
49.2843	0	0	32.5501
49.3665	0	0	32.5501
49.3695	0	0	32.6883
49.516	0	0	32.7574
49.5406	0	0	32.8265
49.6341	0	0	32.9648
49.7149	0	0	33.0339
50.0071	0	0	33.1721
50.0503	0	0	33.3103
50.3232	0	0	33.4485
50.4248	0	0	33.5867
50.6209	0	0	33.7249
50.6739	0	0	33.7249
50.8781	0	0	33.7249
50.8782	0	0	33.8632
50.8782	0	0	33.8632
50.9854	0	0	33.8632
51.0013	0	0	33.9323
51.0013	0	0	33.9323
51.0013	0	0	33.9323
51.1671	0	0	33.9323
51.1997	0	0	34.0014
51.2446	0	0	34.0705
51.2447	0	0	34.1396
51.2447	0	0	34.1396
51.2488	0	0	34.1396
51.3951	0	0	34.2087
51.4133	0	0	34.3469
51.4523	0	0	34.4851
51.4863	0	0	34.6234
51.5804	0	0	34.7616
51.5871	0	0	34.8998
51.6072	0	0	35.038
51.7016	0	0	35.1071
51.8193	0	0	35.1762
51.8292	0	0	35.2453
51.857	0	0	35.3836
52.0589	0	0	35.5218
52.091	0	0	35.5909
52.1033	0	0	35.66
52.1637	0	0	35.66
52.3692	0	0	35.7982
52.3987	0	0	35.9364
52.3987	0	0	36.0055
52.3987	0	0	36.0055
52.4116	0	0	36.0055
52.4118	0	0	36.0746
52.9178	0	0	36.0746
53.0803	0	0	36.2129
53.16	0	0	36.2129
53.1601	0	0	36.2129
53.1602	0	0	36.2129
53.1602	0	0	36.2129
53.1812	0	0	36.2129
53.2009	0	0	36.3511
53.2261	0	0	36.4202
53.2725	0	0	36.4893
53.3049	0	0	36.4893
53.3471	0	0	36.5584
53.5372	0	0	36.6966
53.5377	0	0	36.8348
53.7003	0	0	36.9039
53.8521	0	0	37.0422
53.9972	0	0	37.0422
54.0996	0	0	37.1113
54.1248	0	0	37.2495
54.3076	0	0	37.3877
54.3077	0	0	37.4568
54.4226	0	0	37.4568
54.4636	0	0	37.5259
54.4735	0	0	37.595
54.5431	0	0	37.595
54.5493	0	0	37.6641
54.5517	0	0	37.8023
54.5878	0	0	37.8715
54.6048	0	0	37.9406
54.7339	0	0	38.0097
54.759	0	0	38.1479
54.8686	0	0	38.2861
54.9356	0	0	38.4243
54.9449	0	0	38.4934
55.1477	0	0	38.4934
55.3232	0	0	38.5625
55.3789	0	0	38.7008
55.4404	0	0	38.7699
55.4711	0	0	38.839
55.4819	0	0	38.9772
55.5824	0	0	39.1154
55.6036	0	0	39.1845
55.7638	0	0	39.2536
56.0246	0	0	39.3227
56.1318	0	0	39.3918
56.1318	0	0	39.5301
56.1318	0	0	39.5301
56.1318	0	0	39.5301
56.1559	0	0	39.5301
56.3091	0	0	39.5992
56.4395	0	0	39.6683
56.4395	0	0	39.6683
56.4396	0	0	39.6683
56.5711	0	0	39.6683
56.6312	0	0	39.7374
56.8836	0	0	39.8065
56.9509	0	0	39.9447
56.9509	0	0	40.0138
56.951	0	0	40.0138
56.9674	0	0	40.0138
57.2373	0	0	40.152
57.3862	0	0	40.2211
57.3988	0	0	40.3594
57.5238	0	0	40.4285
57.5549	0	0	40.4976
57.5669	0	0	40.6358
57.5669	0	0	40.7049
57.567	0	0	40.7049
57.567	0	0	40.7049
57.567	0	0	40.7049
57.567	0	0	40.7049
57.567	0	0	40.7049
57.5984	0	0	40.7049
57.6581	0	0	40.8431
57.7694	0	0	40.9122
57.7872	0	0	40.9813
57.7974	0	0	41.0504
57.9504	0	0	41.1887
57.9803	0	0	41.3269
58.1578	0	0	41.4651
58.246	0	0	41.4651
58.4244	0	0	41.4651
58.5194	0	0	41.4651
58.5911	0	0	41.6033
58.6295	0	0	41.6724
58.7864	0	0	41.8106
58.8871	0	0	41.8798
59.0601	0	0	41.9489
59.1283	0	0	42.0871
59.1283	0	0	42.1562
59.1284	0	0	42.1562
59.197	0	0	42.1562
59.5223	0	0	42.2253
59.5412	0	0	42.2944
59.7468	0	0	42.4326
60.1698	0	0	42.5708
60.279	0	0	42.7091
60.291	0	0	42.7782
60.326	0	0	42.9164
60.3985	0	0	42.9855
60.3986	0	0	43.0546
60.6474	0	0	43.0546
60.9357	0	0	43.1237
61.0007	0	0	43.1928
61.0307	0	0	43.2619
61.094	0	0	43.2619
61.277	0	0	43.4001
61.277	0	0	43.4001
61.2771	0	0	43.4001
61.2771	0	0	43.4001
61.2842	0	0	43.4001
61.408	0	0	43.4001
61.5143	0	0	43.4692
61.7883	0	0	43.5384
61.7883	0	0	43.6075
62.0535	0	0	43.6075
62.1025	0	0	43.6075
62.1027	0	0	43.7457
62.259	0	0	43.7457
62.3712	0	0	43.8148
62.4518	0	0	43.953
62.4691	0	0	44.0221
62.6388	0	0	44.1603
62.6388	0	0	44.1603
62.6388	0	0	44.1603
62.6482	0	0	44.1603
62.6482	0	0	44.2294
62.6815	0	0	44.2294
63.1476	0	0	44.3677
63.1476	0	0	44.5059
63.1476	0	0	44.5059
63.306	0	0	44.5059
63.3145	0	0	44.6441
63.4037	0	0	44.7823
63.4037	0	0	44.9205
63.4039	0	0	44.9205
63.5057	0	0	44.9205
63.5163	0	0	45.0587
63.6847	0	0	45.1279
63.7073	0	0	45.197
63.7371	0	0	45.2661
63.7371	0	0	45.3352
63.7371	0	0	45.3352
63.9781	0	0	45.3352
64.0231	0	0	45.4734
64.0642	0	0	45.5425
64.1888	0	0	45.6807
64.2643	0	0	45.8189
64.3172	0	0	45.9572
64.3966	0	0	46.0263
64.4804	0	0	46.1645
64.5675	0	0	46.3027
64.6558	0	0	46.4409
64.8169	0	0	46.5791
64.9288	0	0	46.5791
64.9553	0	0	46.6482
65.1268	0	0	46.7173
65.2742	0	0	46.7865
65.2742	0	0	46.8556
65.2743	0	0	46.8556
65.2743	0	0	46.8556
65.2743	0	0	46.8556
65.3852	0	0	46.8556
65.4174	0	0	46.9938
65.5429	0	0	46.9938
65.556	0	0	47.0629
65.5992	0	0	47.2011
65.74	0	0	47.2702
66.0066	0	0	47.2702
66.1134	0	0	47.3393
66.1212	0	0	47.4084
66.3657	0	0	47.4775
66.4908	0	0	47.6158
66.5199	0	0	47.6849
66.7663	0	0	47.754
66.7926	0	0	47.8922
66.8162	0	0	47.9613
66.8355	0	0	48.0995
66.8381	0	0	48.1686
66.8934	0	0	48.2377
66.8961	0	0	48.3068
66.9607	0	0	48.4451
66.9941	0	0	48.5833
67.6281	0	0	48.7215
67.6837	0	0	48.7215
67.8476	0	0	48.7906
67.9748	0	0	48.8597
67.9748	0	0	48.9979
68.0369	0	0	48.9979
68.1135	0	0	49.067
68.1135	0	0	49.2053
68.1802	0	0	49.2053
68.4657	0	0	49.2744
68.4685	0	0	49.4126
68.4941	0	0	49.4817
68.6116	0	0	49.4817
69.2648	0	0	49.5508
69.3631	0	0	49.6199
69.4322	0	0	49.7581
69.6624	0	0	49.8272
69.8159	0	0	49.8963
70.0845	0	0	50.0346
70.1628	0	0	50.1037
70.2639	0	0	50.2419
70.5644	0	0	50.3801
70.6396	0	0	50.4492
70.7596	0	0	50.5183
70.9045	0	0	50.5874
70.95	0	0	50.7256
70.9896	0	0	50.7947
71.0096	0	0	50.933
71.1454	0	0	51.0712
71.1454	0	0	51.1403
71.2506	0	0	51.1403
71.4266	0	0	51.2785
71.7247	0	0	51.3476
71.8339	0	0	51.4167
71.8455	0	0	51.5549
71.9908	0	0	51.6932
71.9934	0	0	51.7623
72.0748	0	0	51.8314
72.3485	0	0	51.9005
72.353	0	0	51.9696
72.3909	0	0	52.0387
72.7051	0	0	52.1078
72.7895	0	0	52.1769
72.8778	0	0	52.3151
72.9399	0	0	52.3842
72.9534	0	0	52.5225
72.977	0	0	52.6607
73.0515	0	0	52.7298
73.2428	0	0	52.7989
73.4027	0	0	52.7989
73.4027	0	0	52.9371
73.6944	0	0	52.9371
73.695	0	0	53.0062
73.7792	0	0	53.0753
74.1743	0	0	53.2135
74.2209	0	0	53.3518
74.2343	0	0	53.49
74.278	0	0	53.6282
74.3642	0	0	53.6973
74.6055	0	0	53.7664
74.6754	0	0	53.9046
74.8186	0	0	53.9737
75.261	0	0	54.0428
75.4568	0	0	54.112
75.4637	0	0	54.112
75.8118	0	0	54.2502
75.8366	0	0	54.3193
75.8662	0	0	54.3884
75.9532	0	0	54.5266
76.0313	0	0	54.5957
76.0905	0	0	54.6648
76.0908	0	0	54.803
76.4959	0	0	54.8721
76.5896	0	0	55.0104
76.7649	0	0	55.1486
76.9359	0	0	55.2868
77.0006	0	0	55.425
77.0007	0	0	55.4941
77.1167	0	0	55.4941
77.2013	0	0	55.6323
77.5082	0	0	55.7015
77.6361	0	0	55.8397
77.7277	0	0	55.9779
77.7277	0	0	56.047
77.7277	0	0	56.047
77.8985	0	0	56.047
78.2275	0	0	56.047
78.3611	0	0	56.1161
78.3611	0	0	56.1852
78.5757	0	0	56.1852
78.7702	0	0	56.3234
78.7855	0	0	56.3925
78.8872	0	0	56.4616
79.1898	0	0	56.5308
79.2114	0	0	56.669
79.243	0	0	56.8072
79.2431	0	0	56.9454
79.4477	0	0	56.9454
80.3337	0	0	57.0145
80.4377	0	0	57.0836
80.4913	0	0	57.2218
80.5545	0	0	57.2909
80.6628	0	0	57.3601
80.9427	0	0	57.4292
81.079	0	0	57.5674
81.3041	0	0	57.6365
81.342	0	0	57.7747
81.4494	0	0	57.8438
81.4495	0	0	57.9129
81.676	0	0	57.9129
81.6949	0	0	58.0511
82.0967	0	0	58.1202
82.2204	0	0	58.2585
82.4665	0	0	58.3276
82.4665	0	0	58.3967
82.5798	0	0	58.3967
82.7345	0	0	58.5349
83.112	0	0	58.6731
83.112	0	0	58.8113
83.112	0	0	58.8113
83.112	0	0	58.8113
83.1121	0	0	58.8113
83.1121	0	0	58.8113
83.2012	0	0	58.8113
83.2378	0	0	58.8113
83.6605	0	0	58.8804
83.6652	0	0	59.0187
83.69	0	0	59.1569
83.8681	0	0	59.226
84.2399	0	0	59.3642
84.24	0	0	59.4333
84.24	0	0	59.4333
84.24	0	0	59.4333
84.2849	0	0	59.4333
84.386	0	0	59.5715
84.4383	0	0	59.6406
85.0995	0	0	59.7097
85.106	0	0	59.848
85.1681	0	0	59.9171
85.3089	0	0	59.9862
85.5801	0	0	60.0553
85.6312	0	0	60.0553
85.7643	0	0	60.1935
85.7667	0	0	60.3317
85.8898	0	0	60.4699
86.1971	0	0	60.6082
86.309	0	0	60.7464
86.4727	0	0	60.8846
86.5462	0	0	61.0228
86.5736	0	0	61.0228
86.7458	0	0	61.0919
86.8142	0	0	61.2301
86.8931	0	0	61.3683
86.9138	0	0	61.5066
87.0077	0	0	61.6448
87.1339	0	0	61.783
87.1339	0	0	61.9212
87.1339	0	0	61.9212
87.4256	0	0	61.9212
87.5854	0	0	62.0594
87.6313	0	0	62.1977
87.8007	0	0	62.3359
88.318	0	0	62.405
88.3413	0	0	62.4741
88.3413	0	0	62.6123
88.3967	0	0	62.6123
88.3967	0	0	62.6814
88.3968	0	0	62.6814
88.6993	0	0	62.6814
88.7367	0	0	62.8196
88.7548	0	0	62.8887
89.0871	0	0	63.027
89.7693	0	0	63.027
89.8286	0	0	63.1652
90.168	0	0	63.2343
90.3754	0	0	63.3725
90.441	0	0	63.5107
90.5754	0	0	63.5798
90.7026	0	0	63.718
90.9465	0	0	63.8563
90.9465	0	0	63.9254
91.1355	0	0	63.9254
91.1404	0	0	63.9945
91.1404	0	0	64.1327
91.1404	0	0	64.1327
91.1405	0	0	64.1327
91.1405	0	0	64.1327
91.1406	0	0	64.1327
91.1819	0	0	64.2018
91.3582	0	0	64.34
91.4278	0	0	64.4091
91.8724	0	0	64.4782
92.2587	0	0	64.6164
92.9071	0	0	64.6856
92.9478	0	0	64.8238
92.9692	0	0	64.8929
93.4272	0	0	65.0311
93.5749	0	0	65.1002
93.8048	0	0	65.2384
94.0761	0	0	65.3766
94.1793	0	0	65.5149
94.6033	0	0	65.6531
94.6761	0	0	65.7913
94.8232	0	0	65.9295
95.6337	0	0	65.9986
95.7382	0	0	66.1368
95.7969	0	0	66.2751
95.9316	0	0	66.4133
95.968	0	0	66.4824
96.2826	0	0	66.5515
96.3879	0	0	66.6897
96.4605	0	0	66.7588
96.6742	0	0	66.897
96.6771	0	0	67.0352
96.8095	0	0	67.1735
96.9502	0	0	67.3117
97.3242	0	0	67.4499
98.132	0	0	67.5881
98.3359	0	0	67.7263
98.788	0	0	67.7954
98.7881	0	0	67.9337
98.9328	0	0	67.9337
99.0149	0	0	68.0028
99.029	0	0	68.0028
99.2301	0	0	68.141
99.2836	0	0	68.2101
99.3993	0	0	68.3483
99.5877	0	0	68.4865
99.9894	0	0	68.5556
100.294	0	0	68.6247
100.458	0	0	68.763
100.54	0	0	68.9012
100.657	0	0	68.9703
100.86	0	0	69.1085
101.21	0	0	69.1085
101.666	0	0	69.2467
101.705	0	0	69.3849
101.79	0	0	69.5232
102.247	0	0	69.5923
102.34	0	0	69.6614
103.035	0	0	69.7996
103.172	0	0	69.9378
103.311	0	0	70.076
103.449	0	0	70.2142
103.923	0	0	70.3525
104.058	0	0	70.4216
104.215	0	0	70.5598
104.275	0	0	70.698
104.275	0	0	70.8362
104.564	0	0	70.8362
104.575	0	0	70.9744
104.776	0	0	71.1126
104.857	0	0	71.2509
104.984	0	0	71.3891
105.191	0	0	71.5273
105.486	0	0	71.6655
105.546	0	0	71.7346
105.962	0	0	71.8728
106.126	0	0	71.9419
106.162	0	0	72.0802
106.537	0	0	72.1493
106.794	0	0	72.2875
107.317	0	0	72.4257
107.357	0	0	72.4948
107.387	0	0	72.633
107.478	0	0	72.7713
107.908	0	0	72.9095
108.23	0	0	72.9095
108.459	0	0	72.9786
108.898	0	0	73.1168
109.832	0	0	73.255
110.187	0	0	73.3241
110.432	0	0	73.4623
110.638	0	0	73.6006
110.756	0	0	73.7388
110.803	0	0	73.8079
111.102	0	0	73.9461
111.164	0	0	74.0843
111.213	0	0	74.2225
111.524	0	0	74.3607
112.047	0	0	74.499
112.141	0	0	74.5681
112.143	0	0	74.7063
112.658	0	0	74.8445
112.757	0	0	74.9827
113.84	0	0	75.0518
114.019	0	0	75.1209
114.41	0	0	75.2592
114.453	0	0	75.3974
114.507	0	0	75.4665
114.926	0	0	75.6047
114.926	0	0	75.6738
114.952	0	0	75.6738
114.956	0	0	75.812
114.973	0	0	75.9502
115.496	0	0	76.0885
115.749	0	0	76.2267
116.715	0	0	76.3649
116.715	0	0	76.434
117.087	0	0	76.434
117.563	0	0	76.5031
117.892	0	0	76.6413
117.968	0	0	76.7795
118.97	0	0	76.9178
119.157	0	0	76.9869
119.375	0	0	77.1251
119.375	0	0	77.2633
119.48	0	0	77.2633
119.481	0	0	77.3324
119.63	0	0	77.3324
119.832	0	0	77.4706
119.887	0	0	77.6088
120.839	0	0	77.7471
121.147	0	0	77.8162
121.899	0	0	77.9544
122.128	0	0	78.0926
122.226	0	0	78.2308
122.316	0	0	78.369
122.612	0	0	78.5073
124.553	0	0	78.6455
124.599	0	0	78.7837
124.69	0	0	78.9219
125.084	0	0	78.991
125.084	0	0	79.1292
125.084	0	0	79.1292
125.084	0	0	79.1292
125.482	0	0	79.1292
126.07	0	0	79.2674
126.266	0	0	79.4057
126.74	0	0	79.4748
126.972	0	0	79.5439
127.137	0	0	79.6821
127.137	0	0	79.8203
127.184	0	0	79.8203
127.39	0	0	79.8894
128.189	0	0	80.0276
128.31	0	0	80.1659
128.346	0	0	80.3041
129.851	0	0	80.4423
129.919	0	0	80.5805
130.009	0	0	80.6496
131.066	0	0	80.7878
131.178	0	0	80.9261
131.18	0	0	81.0643
131.352	0	0	81.2025
131.532	0	0	81.3407
131.817	0	0	81.4098
132.331	0	0	81.548
132.418	0	0	81.6171
132.722	0	0	81.6171
133.812	0	0	81.6862
133.977	0	0	81.8245
134.451	0	0	81.9627
135.008	0	0	82.1009
135.044	0	0	82.2391
135.044	0	0	82.3773
135.044	0	0	82.3773
135.107	0	0	82.3773
135.107	0	0	82.4464
135.315	0	0	82.4464
135.669	0	0	82.5847
137.12	0	0	82.7229
137.618	0	0	82.8611
138.419	0	0	82.9993
138.608	0	0	83.1375
138.774	0	0	83.2757
138.925	0	0	83.414
139.359	0	0	83.5522
139.359	0	0	83.6213
139.38	0	0	83.6213
139.461	0	0	83.7595
139.549	0	0	83.8977
139.559	0	0	84.0359
140.502	0	0	84.105
140.556	0	0	84.2433
141.503	0	0	84.3815
142.202	0	0	84.5197
142.501	0	0	84.5888
143.78	0	0	84.727
143.915	0	0	84.8652
143.973	0	0	85.0035
144.106	0	0	85.1417
145.418	0	0	85.2799
145.995	0	0	85.4181
146.121	0	0	85.5563
146.273	0	0	85.6945
146.47	0	0	85.8328
146.517	0	0	85.971
146.544	0	0	86.1092
147.305	0	0	86.2474
147.629	0	0	86.3856
147.833	0	0	86.5238
147.833	0	0	86.6621
148.983	0	0	86.6621
149.221	0	0	86.8003
149.505	0	0	86.9385
150.367	0	0	87.0767
150.521	0	0	87.2149
151.11	0	0	87.3531
152.196	0	0	87.4223
152.927	0	0	87.5605
153.299	0	0	87.6987
153.504	0	0	87.8369
154.754	0	0	87.9751
154.784	0	0	88.1133
155.945	0	0	88.2516
157.4	0	0	88.3898
158.224	0	0	88.528
158.542	0	0	88.6662
158.542	0	0	88.7353
158.542	0	0	88.7353
158.542	0	0	88.7353
158.769	0	0	88.7353
158.903	0	0	88.8735
159.004	0	0	89.0117
159.961	0	0	89.15
162.175	0	0	89.2882
164.461	0	0	89.4264
164.49	0	0	89.5646
166.803	0	0	89.7028
167.358	0	0	89.8411
167.442	0	0	89.9793
169.14	0	0	90.1175
169.365	0	0	90.2557
169.434	0	0	90.3939
169.475	0	0	90.5321
169.615	0	0	90.6012
170.625	0	0	90.7395
171.877	0	0	90.8777
172.631	0	0	91.0159
173.504	0	0	91.1541
175.905	0	0	91.2923
178.282	0	0	91.4305
181.614	0	0	91.5688
181.614	0	0	91.707
181.614	0	0	91.707
186.052	0	0	91.707
187.378	0	0	91.8452
187.444	0	0	91.9834
188.672	0	0	92.1216
189.217	0	0	92.2598
189.871	0	0	92.3981
190.549	0	0	92.5363
192.193	0	0	92.6745
192.714	0	0	92.8127
194.771	0	0	92.9509
196.537	0	0	93.0891
197.461	0	0	93.1583
198.595	0	0	93.2965
198.841	0	0	93.4347
201.22	0	0	93.5729
202.414	0	0	93.7111
202.414	0	0	93.8493
202.414	0	0	93.8493
202.414	0	0	93.8493
202.414	0	0	93.8493
202.713	0	0	93.8493
204.14	0	0	93.9876
205.466	0	0	94.0567
208.664	0	0	94.1949
211.184	0	0	94.3331
211.865	0	0	94.4713
213.434	0	0	94.6095
216.291	0	0	94.7478
218.335	0	0	94.886
220.111	0	0	95.0242
221.022	0	0	95.1624
221.06	0	0	95.3006
221.496	0	0	95.4388
221.539	0	0	95.5771
223.735	0	0	95.7153
226.182	0	0	95.8535
227.027	0	0	95.9917
229.945	0	0	96.1299
229.945	0	0	96.2681
232.859	0	0	96.2681
233.541	0	0	96.4064
233.541	0	0	96.5446
233.696	0	0	96.5446
236.16	0	0	96.6828
241.364	0	0	96.821
244.411	0	0	96.9592
247.235	0	0	97.0283
247.237	0	0	97.0974
257.865	0	0	97.0974
265.071	0	0	97.2357
266.261	0	0	97.3739
267.354	0	0	97.5121
270.277	0	0	97.6503
272.885	0	0	97.7885
277.13	0	0	97.9267
278.648	0	0	98.065
286.953	0	0	98.2032
288.139	0	0	98.3414
299.935	0	0	98.4796
307.653	0	0	98.6178
307.811	0	0	98.756
319.862	0	0	98.8943
331.22	0	0	99.0325
362.24	0	0	99.1707
364.797	0	0	99.3089
373.89	0	0	99.4471
383.65	0	0	99.5853
413.026	0	0	99.7236
526.416	0	0	99.8618
