1.19214e-09	0	0	0
4.9199e-08	0	0	0
1.60242e-07	0	0	0
2.62097e-07	0	0	0
2.83687e-07	0	0	0
3.89801e-07	0	0	0
4.11791e-07	0	0	0
4.36584e-07	0	0	0
5.10014e-07	0	0	0
5.71523e-07	0	0	0
6.94936e-07	0	0	0
7.00049e-07	0	0	0
7.39833e-07	0	0	0
1.02467e-06	0	0	0
1.13642e-06	0	0	0
1.57619e-06	0	0	0
1.63351e-06	0	0	0
1.83502e-06	0	0	0
1.85746e-06	0	0	0
1.88697e-06	0	0	0
1.93248e-06	0	0	0
1.93629e-06	0	0	0
2.01315e-06	0	0	0
2.08435e-06	0	0	0
2.26135e-06	0	0	0
2.47774e-06	0	0	0
2.53965e-06	0	0	0
2.55691e-06	0	0	0
2.69577e-06	0	0	0
2.78908e-06	0	0	0
2.84455e-06	0	0	0
3.19722e-06	0	0	0
3.40114e-06	0	0	0
3.4842e-06	0	0	0
3.55457e-06	0	0	0
3.55705e-06	0	0	0
3.75296e-06	0	0	0
3.80152e-06	0	0	0
3.83596e-06	0	0	0
3.95034e-06	0	0	0
4.02459e-06	0	0	0
4.23933e-06	0	0	0
4.26413e-06	0	0	0
4.33126e-06	0	0	0
4.41175e-06	0	0	0
4.44162e-06	0	0	0
4.52642e-06	0	0	0
4.56052e-06	0	0	0
4.78469e-06	0	0	0
4.7885e-06	0	0	0
4.94712e-06	0	0	0
4.96034e-06	0	0	0
5.04266e-06	0	0	0
5.05214e-06	0	0	0
5.17827e-06	0	0	0
5.23337e-06	0	0	0
5.25091e-06	0	0	0
5.28169e-06	0	0	0
5.28435e-06	0	0	0
5.53513e-06	0	0	0
5.61638e-06	0	0	0
5.77942e-06	0	0	0
5.99613e-06	0	0	0
5.99975e-06	0	0	0
6.10701e-06	0	0	0
6.13775e-06	0	0	0
6.21653e-06	0	0	0
6.32304e-06	0	0	0
6.35919e-06	0	0	0
6.43907e-06	0	0	0
6.4524e-06	0	0	0
6.54185e-06	0	0	0
6.58274e-06	0	0	0
6.67713e-06	0	0	0
6.72623e-06	0	0	0
6.75326e-06	0	0	0
6.77945e-06	0	0	0
6.81231e-06	0	0	0
6.88061e-06	0	0	0
6.90153e-06	0	0	0
6.93467e-06	0	0	0
6.95154e-06	0	0	0
7.03544e-06	0	0	0
7.07804e-06	0	0	0
7.17706e-06	0	0	0
7.23249e-06	0	0	0
7.53382e-06	0	0	0
7.79847e-06	0	0	0
7.85752e-06	0	0	0
7.93964e-06	0	0	0
8.05301e-06	0	0	0
8.06884e-06	0	0	0
8.1057e-06	0	0	0
8.26789e-06	0	0	0
8.72357e-06	0	0	0
8.92092e-06	0	0	0
9.16462e-06	0	0	0
9.17884e-06	0	0	0
9.2374e-06	0	0	0
9.30528e-06	0	0	0
9.31911e-06	0	0	0
9.37069e-06	0	0	0
9.50618e-06	0	0	0
9.54551e-06	0	0	0
9.55401e-06	0	0	0
9.57933e-06	0	0	0
9.72379e-06	0	0	0
9.87499e-06	0	0	0
9.9209e-06	0	0	0
1.00022e-05	0	0	0
1.01832e-05	0	0	0
1.03636e-05	0	0	0
1.04392e-05	0	0	0
1.06397e-05	0	0	0
1.06673e-05	0	0	0
1.07484e-05	0	0	0
1.0785e-05	0	0	0
1.08095e-05	0	0	0
1.09752e-05	0	0	0
1.10457e-05	0	0	0
1.11133e-05	0	0	0
1.12363e-05	0	0	0
1.12382e-05	0	0	0
1.1275e-05	0	0	0
1.12911e-05	0	0	0
1.13123e-05	0	0	0
1.18294e-05	0	0	0
1.20135e-05	0	0	0
1.20963e-05	0	0	0
1.22629e-05	0	0	0
1.25209e-05	0	0	0
1.26249e-05	0	0	0
1.27241e-05	0	0	0
1.29454e-05	0	0	0
1.31601e-05	0	0	0
1.33884e-05	0	0	0
1.33965e-05	0	0	0
1.35931e-05	0	0	0
1.36133e-05	0	0	0
1.36628e-05	0	0	0
1.36712e-05	0	0	0
1.37403e-05	0	0	0
1.37942e-05	0	0	0
1.37987e-05	0	0	0
1.38487e-05	0	0	0
1.39807e-05	0	0	0
1.44112e-05	0	0	0
1.45197e-05	0	0	0
1.45225e-05	0	0	0
1.45586e-05	0	0	0
1.46371e-05	0	0	0
1.47162e-05	0	0	0
1.48438e-05	0	0	0
1.48676e-05	0	0	0
1.4897e-05	0	0	0
1.49293e-05	0	0	0
1.49522e-05	0	0	0
1.51401e-05	0	0	0
1.52451e-05	0	0	0
1.5277e-05	0	0	0
1.55202e-05	0	0	0
1.58229e-05	0	0	0
1.58367e-05	0	0	0
1.59247e-05	0	0	0
1.59375e-05	0	0	0
1.61636e-05	0	0	0
1.62978e-05	0	0	0
1.63733e-05	0	0	0
1.6457e-05	0	0	0
1.66312e-05	0	0	0
1.69292e-05	0	0	0
1.69296e-05	0	0	0
1.70172e-05	0	0	0
1.70791e-05	0	0	0
1.75714e-05	0	0	0
1.77166e-05	0	0	0
1.77423e-05	0	0	0
1.7955e-05	0	0	0
1.80578e-05	0	0	0
1.84765e-05	0	0	0
1.85436e-05	0	0	0
1.86346e-05	0	0	0
1.87189e-05	0	0	0
1.90076e-05	0	0	0
1.90913e-05	0	0	0
1.9146e-05	0	0	0
1.92426e-05	0	0	0
1.93488e-05	0	0	0
1.942e-05	0	0	0
1.94933e-05	0	0	0
1.95264e-05	0	0	0
1.96566e-05	0	0	0
1.97055e-05	0	0	0
1.97115e-05	0	0	0
1.9774e-05	0	0	0
1.99272e-05	0	0	0
1.99757e-05	0	0	0
1.99866e-05	0	0	0
2.00528e-05	0	0	0
2.01151e-05	0	0	0
2.0141e-05	0	0	0
2.02031e-05	0	0	0
2.02547e-05	0	0	0
2.0626e-05	0	0	0
2.06818e-05	0	0	0
2.07345e-05	0	0	0
2.10031e-05	0	0	0
2.12661e-05	0	0	0
2.14895e-05	0	0	0
2.15584e-05	0	0	0
2.15666e-05	0	0	0
2.18712e-05	0	0	0
2.20223e-05	0	0	0
2.21118e-05	0	0	0
2.22041e-05	0	0	0
2.23036e-05	0	0	0
2.23291e-05	0	0	0
2.26096e-05	0	0	0
2.3006e-05	0	0	0
2.30513e-05	0	0	0
2.30727e-05	0	0	0
2.31742e-05	0	0	0
2.31869e-05	0	0	0
2.32111e-05	0	0	0
2.32832e-05	0	0	0
2.33002e-05	0	0	0
2.3436e-05	0	0	0
2.39273e-05	0	0	0
2.43523e-05	0	0	0
2.452e-05	0	0	0
2.45724e-05	0	0	0
2.46119e-05	0	0	0
2.47763e-05	0	0	0
2.50161e-05	0	0	0
2.50394e-05	0	0	0
2.5189e-05	0	0	0
2.52173e-05	0	0	0
2.52255e-05	0	0	0
2.54717e-05	0	0	0
2.55284e-05	0	0	0
2.57716e-05	0	0	0
2.62276e-05	0	0	0
2.63837e-05	0	0	0
2.63837e-05	0	0	0
2.66633e-05	0	0	0
2.66663e-05	0	0	0
2.69392e-05	0	0	0
2.69999e-05	0	0	0
2.70436e-05	0	0	0
2.74173e-05	0	0	0
2.75481e-05	0	0	0
2.75794e-05	0	0	0
2.79563e-05	0	0	0
2.89485e-05	0	0	0
2.89594e-05	0	0	0
2.91958e-05	0	0	0
2.92226e-05	0	0	0
2.94926e-05	0	0	0
2.96689e-05	0	0	0
2.97253e-05	0	0	0
3.04736e-05	0	0	0
3.05492e-05	0	0	0
3.08576e-05	0	0	0
3.09165e-05	0	0	0
3.09489e-05	0	0	0
3.11304e-05	0	0	0
3.13578e-05	0	0	0
3.20862e-05	0	0	0
3.21097e-05	0	0	0
3.21693e-05	0	0	0
3.22892e-05	0	0	0
3.28613e-05	0	0	0
3.33326e-05	0	0	0
3.35193e-05	0	0	0
3.35386e-05	0	0	0
3.42307e-05	0	0	0
3.43315e-05	0	0	0
3.46345e-05	0	0	0
3.47764e-05	0	0	0
3.50652e-05	0	0	0
3.52039e-05	0	0	0
3.5428e-05	0	0	0
3.55168e-05	0	0	0
3.5671e-05	0	0	0
3.68694e-05	0	0	0
3.69817e-05	0	0	0
3.73228e-05	0	0	0
3.74406e-05	0	0	0
3.75151e-05	0	0	0
3.77223e-05	0	0	0
3.7779e-05	0	0	0
3.80453e-05	0	0	0
3.80636e-05	0	0	0
3.80821e-05	0	0	0
3.82481e-05	0	0	0
3.83468e-05	0	0	0
3.88392e-05	0	0	0
3.90176e-05	0	0	0
3.93254e-05	0	0	0
3.93528e-05	0	0	0
3.94393e-05	0	0	0
3.94815e-05	0	0	0
3.95626e-05	0	0	0
3.9662e-05	0	0	0
3.96839e-05	0	0	0
3.97216e-05	0	0	0
3.97726e-05	0	0	0
3.99026e-05	0	0	0
4.02671e-05	0	0	0
4.03316e-05	0	0	0
4.03717e-05	0	0	0
4.05911e-05	0	0	0
4.06393e-05	0	0	0
4.11377e-05	0	0	0
4.12104e-05	0	0	0
4.16339e-05	0	0	0
4.27862e-05	0	0	0
4.28819e-05	0	0	0
4.30791e-05	0	0	0
4.3569e-05	0	0	0
4.35903e-05	0	0	0
4.42557e-05	0	0	0
4.45262e-05	0	0	0
4.49106e-05	0	0	0
4.53805e-05	0	0	0
4.58269e-05	0	0	0
4.62901e-05	0	0	0
4.66341e-05	0	0	0
4.68995e-05	0	0	0
4.70762e-05	0	0	0
4.71164e-05	0	0	0
4.73708e-05	0	0	0
4.74499e-05	0	0	0
4.85024e-05	0	0	0
4.95074e-05	0	0	0
4.95077e-05	0	0	0
5.02563e-05	0	0	0
5.03794e-05	0	0	0
5.12505e-05	0	0	0
5.12928e-05	0	0	0
5.14404e-05	0	0	0
5.16751e-05	0	0	0
5.17493e-05	0	0	0
5.19242e-05	0	0	0
5.20336e-05	0	0	0
5.23052e-05	0	0	0
5.24362e-05	0	0	0
5.24432e-05	0	0	0
5.2757e-05	0	0	0
5.30217e-05	0	0	0
5.32314e-05	0	0	0
5.33029e-05	0	0	0
5.35996e-05	0	0	0
5.36288e-05	0	0	0
5.37256e-05	0	0	0
5.37515e-05	0	0	0
5.37789e-05	0	0	0
5.39883e-05	0	0	0
5.40848e-05	0	0	0
5.43124e-05	0	0	0
5.45006e-05	0	0	0
5.47824e-05	0	0	0
5.48231e-05	0	0	0
5.48659e-05	0	0	0
5.51854e-05	0	0	0
5.52165e-05	0	0	0
5.55862e-05	0	0	0
5.68483e-05	0	0	0
5.7006e-05	0	0	0
5.81769e-05	0	0	0
5.81884e-05	0	0	0
5.83233e-05	0	0	0
5.87849e-05	0	0	0
5.90265e-05	0	0	0
5.93767e-05	0	0	0
5.95022e-05	0	0	0
5.96988e-05	0	0	0
5.99816e-05	0	0	0
6.07198e-05	0	0	0
6.10828e-05	0	0	0
6.11785e-05	0	0	0
6.14274e-05	0	0	0
6.23209e-05	0	0	0
6.24053e-05	0	0	0
6.26067e-05	0	0	0
6.26301e-05	0	0	0
6.27075e-05	0	0	0
6.28716e-05	0	0	0
6.3552e-05	0	0	0
6.38849e-05	0	0	0
6.39237e-05	0	0	0
6.40688e-05	0	0	0
6.47333e-05	0	0	0
6.49683e-05	0	0	0
6.5926e-05	0	0	0
6.63149e-05	0	0	0
6.67033e-05	0	0	0
6.69195e-05	0	0	0
6.70906e-05	0	0	0
6.73872e-05	0	0	0
6.77635e-05	0	0	0
6.79919e-05	0	0	0
6.80447e-05	0	0	0
6.83828e-05	0	0	0
6.87654e-05	0	0	0
6.88181e-05	0	0	0
6.93831e-05	0	0	0
6.9458e-05	0	0	0
6.96951e-05	0	0	0
6.98945e-05	0	0	0
7.03852e-05	0	0	0
7.0519e-05	0	0	0
7.05704e-05	0	0	0
7.10321e-05	0	0	0
7.16668e-05	0	0	0
7.17707e-05	0	0	0
7.2352e-05	0	0	0
7.25592e-05	0	0	0
7.31987e-05	0	0	0
7.34094e-05	0	0	0
7.34143e-05	0	0	0
7.41292e-05	0	0	0
7.42533e-05	0	0	0
7.42616e-05	0	0	0
7.49802e-05	0	0	0
7.52905e-05	0	0	0
7.58313e-05	0	0	0
7.58851e-05	0	0	0
7.58955e-05	0	0	0
7.59265e-05	0	0	0
7.5992e-05	0	0	0
7.6275e-05	0	0	0
7.69365e-05	0	0	0
7.73378e-05	0	0	0
7.74163e-05	0	0	0
7.77536e-05	0	0	0
7.78001e-05	0	0	0
7.78017e-05	0	0	0
7.78617e-05	0	0	0
7.80253e-05	0	0	0
7.80286e-05	0	0	0
7.80615e-05	0	0	0
7.84364e-05	0	0	0
7.87813e-05	0	0	0
7.91501e-05	0	0	0
7.93054e-05	0	0	0
7.95018e-05	0	0	0
7.96535e-05	0	0	0
7.97084e-05	0	0	0
7.98011e-05	0	0	0
8.08596e-05	0	0	0
8.13905e-05	0	0	0
8.15102e-05	0	0	0
8.19753e-05	0	0	0
8.25523e-05	0	0	0
8.26792e-05	0	0	0
8.28461e-05	0	0	0
8.29619e-05	0	0	0
8.37636e-05	0	0	0
8.37959e-05	0	0	0
8.39604e-05	0	0	0
8.46712e-05	0	0	0
8.52245e-05	0	0	0
8.52608e-05	0	0	0
8.71393e-05	0	0	0
8.71745e-05	0	0	0
8.7185e-05	0	0	0
8.72503e-05	0	0	0
8.72617e-05	0	0	0
8.74154e-05	0	0	0
8.76654e-05	0	0	0
8.789e-05	0	0	0
8.89106e-05	0	0	0
8.89434e-05	0	0	0
8.906e-05	0	0	0
8.94343e-05	0	0	0
9.03027e-05	0	0	0
9.07754e-05	0	0	0
9.09846e-05	0	0	0
9.12128e-05	0	0	0
9.13767e-05	0	0	0
9.14621e-05	0	0	0
9.15452e-05	0	0	0
9.19861e-05	0	0	0
9.23516e-05	0	0	0
9.24621e-05	0	0	0
9.26087e-05	0	0	0
9.30077e-05	0	0	0
9.49557e-05	0	0	0
9.70672e-05	0	0	0
9.72419e-05	0	0	0
9.72785e-05	0	0	0
9.737e-05	0	0	0
9.80949e-05	0	0	0
9.89668e-05	0	0	0
9.91112e-05	0	0	0
9.96558e-05	0	0	0
9.99758e-05	0	0	0
0.000100123	0	0	0
0.000100879	0	0	0
0.000100909	0	0	0
0.000100949	0	0	0
0.000100977	0	0	0
0.00010101	0	0	0
0.00010105	0	0	0
0.00010112	0	0	0
0.000101991	0	0	0
0.000102231	0	0	0
0.000102656	0	0	0
0.000102788	0	0	0
0.000102793	0	0	0
0.000103768	0	0	0
0.000103906	0	0	0
0.000104239	0	0	0
0.00010434	0	0	0
0.000104371	0	0	0
0.000105403	0	0	0
0.000106517	0	0	0
0.000107336	0	0	0
0.000107844	0	0	0
0.000107919	0	0	0
0.000107942	0	0	0
0.000108379	0	0	0
0.000108514	0	0	0
0.000108531	0	0	0
0.000108908	0	0	0
0.00010964	0	0	0
0.000109719	0	0	0
0.000110488	0	0	0
0.000111896	0	0	0
0.000112593	0	0	0
0.00011274	0	0	0
0.000112747	0	0	0
0.000112821	0	0	0
0.000113249	0	0	0
0.00011329	0	0	0
0.000113517	0	0	0
0.000114047	0	0	0
0.00011415	0	0	0
0.000114356	0	0	0
0.000114423	0	0	0
0.000114641	0	0	0
0.000114794	0	0	0
0.000116023	0	0	0
0.000116278	0	0	0
0.000116609	0	0	0
0.000117732	0	0	0
0.00011816	0	0	0
0.000118552	0	0	0
0.000118886	0	0	0
0.000121189	0	0	0
0.000121757	0	0	0
0.000121936	0	0	0
0.000122464	0	0	0
0.000122529	0	0	0
0.000122948	0	0	0
0.000123336	0	0	0
0.000124135	0	0	0
0.000124504	0	0	0
0.000124644	0	0	0
0.000124931	0	0	0
0.000125083	0	0	0
0.000125087	0	0	0
0.000125824	0	0	0
0.000126139	0	0	0
0.000126615	0	0	0
0.000126796	0	0	0
0.000127081	0	0	0
0.000127717	0	0	0
0.000128267	0	0	0
0.000128292	0	0	0
0.000128775	0	0	0
0.00012903	0	0	0
0.000130536	0	0	0
0.000131346	0	0	0
0.000132282	0	0	0
0.000133161	0	0	0
0.000133804	0	0	0
0.000134202	0	0	0
0.000134806	0	0	0
0.00013482	0	0	0
0.000135072	0	0	0
0.000136335	0	0	0
0.000137047	0	0	0
0.000137534	0	0	0
0.000138042	0	0	0
0.000138061	0	0	0
0.000138272	0	0	0
0.000138588	0	0	0
0.000138694	0	0	0
0.000139443	0	0	0
0.000139707	0	0	0
0.000140145	0	0	0
0.000140997	0	0	0
0.000141195	0	0	0
0.000142074	0	0	0
0.00014242	0	0	0
0.000142662	0	0	0
0.000142908	0	0	0
0.000143942	0	0	0
0.000145696	0	0	0
0.000145747	0	0	0
0.000146372	0	0	0
0.000146388	0	0	0
0.000146421	0	0	0
0.000146795	0	0	0
0.000147772	0	0	0
0.000148994	0	0	0
0.000149185	0	0	0
0.000151135	0	0	0
0.000151324	0	0	0
0.000151495	0	0	0
0.000151627	0	0	0
0.000151912	0	0	0
0.000152495	0	0	0
0.000153294	0	0	0
0.000153442	0	0	0
0.000154998	0	0	0
0.000155649	0	0	0
0.00015604	0	0	0
0.000156905	0	0	0
0.000157977	0	0	0
0.000158327	0	0	0
0.000159147	0	0	0
0.000159154	0	0	0
0.000160609	0	0	0
0.000160764	0	0	0
0.000160953	0	0	0
0.000161237	0	0	0
0.000161377	0	0	0
0.000163475	0	0	0
0.000163476	0	0	0
0.000163903	0	0	0
0.000164646	0	0	0
0.000164761	0	0	0
0.00016554	0	0	0
0.000165814	0	0	0
0.000166002	0	0	0
0.000166481	0	0	0
0.000166849	0	0	0
0.000167093	0	0	0
0.00016738	0	0	0
0.000167455	0	0	0
0.000167931	0	0	0
0.000168063	0	0	0
0.000168396	0	0	0
0.000168872	0	0	0
0.000168961	0	0	0
0.000169925	0	0	0
0.000169957	0	0	0
0.000170015	0	0	0
0.000170262	0	0	0
0.000170618	0	0	0
0.000170803	0	0	0
0.000171308	0	0	0
0.000172635	0	0	0
0.000173869	0	0	0
0.000173896	0	0	0
0.000174142	0	0	0
0.00017426	0	0	0
0.000174381	0	0	0
0.000174684	0	0	0
0.000175818	0	0	0
0.000176292	0	0	0
0.000176846	0	0	0
0.000178058	0	0	0
0.000180736	0	0	0
0.000181413	0	0	0
0.000181686	0	0	0
0.000183996	0	0	0
0.000184203	0	0	0
0.000184613	0	0	0
0.000184661	0	0	0
0.000185131	0	0	0
0.000187243	0	0	0
0.000187505	0	0	0
0.000187862	0	0	0
0.000189827	0	0	0
0.000190211	0	0	0
0.000190221	0	0	0
0.00019074	0	0	0
0.000190966	0	0	0
0.000193578	0	0	0
0.000193796	0	0	0
0.00019443	0	0	0
0.00019445	0	0	0
0.000194515	0	0	0
0.000194958	0	0	0
0.00019504	0	0	0
0.000195449	0	0	0
0.000196568	0	0	0
0.000196814	0	0	0
0.000197031	0	0	0
0.000197935	0	0	0
0.000198424	0	0	0
0.000198601	0	0	0
0.000198995	0	0	0
0.000199012	0	0	0
0.000199351	0	0	0
0.000200306	0	0	0
0.000201072	0	0	0
0.000201178	0	0	0
0.000201325	0	0	0
0.000202772	0	0	0
0.000203302	0	0	0
0.000203417	0	0	0
0.000204267	0	0	0
0.000206932	0	0	0
0.000209181	0	0	0
0.00020922	0	0	0
0.000209369	0	0	0
0.00020974	0	0	0
0.000210117	0	0	0
0.000210999	0	0	0
0.000211756	0	0	0
0.000211909	0	0	0
0.000213036	0	0	0
0.000213067	0	0	0
0.000215099	0	0	0
0.000215176	0	0	0
0.000215407	0	0	0
0.000215522	0	0	0
0.000216798	0	0	0
0.000217724	0	0	0
0.000218754	0	0	0
0.000218847	0	0	0
0.000221255	0	0	0
0.000225462	0	0	0
0.000226541	0	0	0
0.000226878	0	0	0
0.000229407	0	0	0
0.000229679	0	0	0
0.000230384	0	0	0
0.000231212	0	0	0
0.000232358	0	0	0
0.000232639	0	0	0
0.000232974	0	0	0
0.000233719	0	0	0
0.000233925	0	0	0
0.000235011	0	0	0
0.000235415	0	0	0
0.000237188	0	0	0
0.000237396	0	0	0
0.000237712	0	0	0
0.000238543	0	0	0
0.000238674	0	0	0
0.000238989	0	0	0
0.000241857	0	0	0
0.000243125	0	0	0
0.000243393	0	0	0
0.000244262	0	0	0
0.000245786	0	0	0
0.000246414	0	0	0
0.000246487	0	0	0
0.000247004	0	0	0
0.000247982	0	0	0
0.00025126	0	0	0
0.000251406	0	0	0
0.000251425	0	0	0
0.000252156	0	0	0
0.00025378	0	0	0
0.000255588	0	0	0
0.000255635	0	0	0
0.000256188	0	0	0
0.000257904	0	0	0
0.000258028	0	0	0
0.000258758	0	0	0
0.000259917	0	0	0
0.000261336	0	0	0
0.000262593	0	0	0
0.00026292	0	0	0
0.000263589	0	0	0
0.000264365	0	0	0
0.00026531	0	0	0
0.000265419	0	0	0
0.000265559	0	0	0
0.000265729	0	0	0
0.00026581	0	0	0
0.000266367	0	0	0
0.000267009	0	0	0
0.000267415	0	0	0
0.000267694	0	0	0
0.000268559	0	0	0
0.000269217	0	0	0
0.00026932	0	0	0
0.00026942	0	0	0
0.000271752	0	0	0
0.000273019	0	0	0
0.00027446	0	0	0
0.000274994	0	0	0
0.000275202	0	0	0
0.000275667	0	0	0
0.000278776	0	0	0
0.00027991	0	0	0
0.000280307	0	0	0
0.000282583	0	0	0
0.000284856	0	0	0
0.000285723	0	0	0
0.00028614	0	0	0
0.000287738	0	0	0
0.000287815	0	0	0
0.000288689	0	0	0
0.000292539	0	0	0
0.000294848	0	0	0
0.000295464	0	0	0
0.000295585	0	0	0
0.000299899	0	0	0
0.00029999	0	0	0
0.000300116	0	0	0
0.000301767	0	0	0
0.000302685	0	0	0
0.000303588	0	0	0
0.000306693	0	0	0
0.000307499	0	0	0
0.000309849	0	0	0
0.000310099	0	0	0
0.000315143	0	0	0
0.000316485	0	0	0
0.000318397	0	0	0
0.000318952	0	0	0
0.00031987	0	0	0
0.000322469	0	0	0
0.000323129	0	0	0
0.000324488	0	0	0
0.000327096	0	0	0
0.000327142	0	0	0
0.000327917	0	0	0
0.000333344	0	0	0
0.000335124	0	0	0
0.000336695	0	0	0
0.000338356	0	0	0
0.000343001	0	0	0
0.000343257	0	0	0
0.00034453	0	0	0
0.000347816	0	0	0
0.000348039	0	0	0
0.000348135	0	0	0
0.00035047	0	0	0
0.000357056	0	0	0
0.000360162	0	0	0
0.000361728	0	0	0
0.000363841	0	0	0
0.00036416	0	0	0
0.000365128	0	0	0
0.000371416	0	0	0
0.000371416	0	0	0
0.000372709	0	0	0
0.000373535	0	0	0
0.000376121	0	0	0
0.000376724	0	0	0
0.00037876	0	0	0
0.000379523	0	0	0
0.000379883	0	0	0
0.000380216	0	0	0
0.000384588	0	0	0
0.000385907	0	0	0
0.0003864	0	0	0
0.000386647	0	0	0
0.000388142	0	0	0
0.000395199	0	0	0
0.000395798	0	0	0
0.000396628	0	0	0
0.000397462	0	0	0
0.000397491	0	0	0
0.000400113	0	0	0
0.0004003	0	0	0
0.000401785	0	0	0
0.000402805	0	0	0
0.000403454	0	0	0
0.00040508	0	0	0
0.000405114	0	0	0
0.000406063	0	0	0
0.000408593	0	0	0
0.000413022	0	0	0
0.000414527	0	0	0
0.000415468	0	0	0
0.00041568	0	0	0
0.000416542	0	0	0
0.000422744	0	0	0
0.000426292	0	0	0
0.000426579	0	0	0
0.000427132	0	0	0
0.000433862	0	0	0
0.000433886	0	0	0
0.000434172	0	0	0
0.000437453	0	0	0
0.000439171	0	0	0
0.00043965	0	0	0
0.00044204	0	0	0
0.000442244	0	0	0
0.000445117	0	0	0
0.000447096	0	0	0
0.000448792	0	0	0
0.000448857	0	0	0
0.000449161	0	0	0
0.000461082	0	0	0
0.000465606	0	0	0
0.000465891	0	0	0
0.000469863	0	0	0
0.00047644	0	0	0
0.000478588	0	0	0
0.000481418	0	0	0
0.000482101	0	0	0
0.000483368	0	0	0
0.000483733	0	0	0
0.000484801	0	0	0
0.000494785	0	0	0
0.000500292	0	0	0
0.00050081	0	0	0
0.000501963	0	0	0
0.000504215	0	0	0
0.000512522	0	0	0
0.000517965	0	0	0
0.000522673	0	0	0
0.000523049	0	0	0
0.000524095	0	0	0
0.000524242	0	0	0
0.000524915	0	0	0
0.0005278	0	0	0
0.000528585	0	0	0
0.000533459	0	0	0
0.0005393	0	0	0
0.000539523	0	0	0
0.000539683	0	0	0
0.000540767	0	0	0
0.000545404	0	0	0
0.000546533	0	0	0
0.000550989	0	0	0
0.000552694	0	0	0
0.000552761	0	0	0
0.000552843	0	0	0
0.000560179	0	0	0
0.000560539	0	0	0
0.000560901	0	0	0
0.000560917	0	0	0
0.00056571	0	0	0
0.000567711	0	0	0
0.000567823	0	0	0
0.000569844	0	0	0
0.000571721	0	0	0
0.000581573	0	0	0
0.000591836	0	0	0
0.000607631	0	0	0
0.000610749	0	0	0
0.000622453	0	0	0
0.000629532	0	0	0
0.000635409	0	0	0
0.000636113	0	0	0
0.000645663	0	0	0
0.00064774	0	0	0
0.000650986	0	0	0
0.000661867	0	0	0
0.000667931	0	0	0
0.000672846	0	0	0
0.000684736	0	0	0
0.000695316	0	0	0
0.000712312	0	0	0
0.000731259	0	0	0
0.000734825	0	0	0
0.00073638	0	0	0
0.000737212	0	0	0
0.000739057	0	0	0
0.000781669	0	0	0
0.000791063	0	0	0
0.000820457	0	0	0
0.000826553	0	0	0
0.000840949	0	0	0
0.000841537	0	0	0
0.000848796	0	0	0
0.000869609	0	0	0
0.000880029	0	0	0
0.000881991	0	0	0
0.000919023	0	0	0
0.000922818	0	0	0
0.000927558	0	0	0
0.000929244	0	0	0
0.000986474	0	0	0
0.0010148	0	0	0
0.00101986	0	0	0
0.0010403	0	0	0
0.00104326	0	0	0
0.0010476	0	0	0
0.00107046	0	0	0
0.00112307	0	0	0
0.00112632	0	0	0
0.00113101	0	0	0
0.00114142	0	0	0
0.00116015	0	0	0
0.00116337	0	0	0
0.00120004	0	0	0
0.00125135	0	0	0
0.00128835	0	0	0
0.00236917	0	0	0
