2.28017e-07	0	0	0
2.93449e-07	0	0	0
5.13832e-07	0	0	0
5.30142e-07	0	0	0
5.87238e-07	0	0	0
5.96834e-07	0	0	0
6.76796e-07	0	0	0
6.82422e-07	0	0	0
7.53029e-07	0	0	0
9.0563e-07	0	0	0
1.17839e-06	0	0	0
1.18016e-06	0	0	0
1.20289e-06	0	0	0
1.30417e-06	0	0	0
1.35245e-06	0	0	0
1.49462e-06	0	0	0
1.70015e-06	0	0	0
1.817e-06	0	0	0
1.88509e-06	0	0	0
1.89276e-06	0	0	0
1.9245e-06	0	0	0
2.13041e-06	0	0	0
2.27199e-06	0	0	0
2.42723e-06	0	0	0
2.71846e-06	0	0	0
2.81373e-06	0	0	0
2.89419e-06	0	0	0
3.3507e-06	0	0	0
3.38639e-06	0	0	0
3.47088e-06	0	0	0
3.63723e-06	0	0	0
3.67074e-06	0	0	0
3.69889e-06	0	0	0
3.70527e-06	0	0	0
3.7949e-06	0	0	0
3.91308e-06	0	0	0
4.09811e-06	0	0	0
4.19303e-06	0	0	0
4.26994e-06	0	0	0
4.33806e-06	0	0	0
4.5251e-06	0	0	0
4.59023e-06	0	0	0
4.71283e-06	0	0	0
4.76833e-06	0	0	0
4.81139e-06	0	0	0
5.06644e-06	0	0	0
5.10752e-06	0	0	0
5.17093e-06	0	0	0
5.24898e-06	0	0	0
5.31037e-06	0	0	0
5.32211e-06	0	0	0
5.35986e-06	0	0	0
5.3683e-06	0	0	0
5.65606e-06	0	0	0
6.10584e-06	0	0	0
6.10817e-06	0	0	0
6.19389e-06	0	0	0
6.21605e-06	0	0	0
6.21657e-06	0	0	0
6.23848e-06	0	0	0
6.26643e-06	0	0	0
6.39573e-06	0	0	0
6.52449e-06	0	0	0
6.52667e-06	0	0	0
6.63592e-06	0	0	0
6.64524e-06	0	0	0
7.00816e-06	0	0	0
7.01544e-06	0	0	0
7.08532e-06	0	0	0
7.09293e-06	0	0	0
7.74028e-06	0	0	0
7.75885e-06	0	0	0
7.80396e-06	0	0	0
8.3124e-06	0	0	0
8.35083e-06	0	0	0
8.46025e-06	0	0	0
8.58186e-06	0	0	0
9.03191e-06	0	0	0
9.26468e-06	0	0	0
9.39808e-06	0	0	0
9.52053e-06	0	0	0
9.54009e-06	0	0	0
9.57506e-06	0	0	0
9.96816e-06	0	0	0
1.00256e-05	0	0	0
1.00417e-05	0	0	0
1.00938e-05	0	0	0
1.01495e-05	0	0	0
1.01584e-05	0	0	0
1.05176e-05	0	0	0
1.05184e-05	0	0	0
1.05267e-05	0	0	0
1.09087e-05	0	0	0
1.09611e-05	0	0	0
1.09912e-05	0	0	0
1.10385e-05	0	0	0
1.10817e-05	0	0	0
1.13479e-05	0	0	0
1.13974e-05	0	0	0
1.15386e-05	0	0	0
1.16844e-05	0	0	0
1.16879e-05	0	0	0
1.17368e-05	0	0	0
1.20491e-05	0	0	0
1.26075e-05	0	0	0
1.28209e-05	0	0	0
1.30754e-05	0	0	0
1.30875e-05	0	0	0
1.31301e-05	0	0	0
1.35776e-05	0	0	0
1.36326e-05	0	0	0
1.36754e-05	0	0	0
1.37227e-05	0	0	0
1.37632e-05	0	0	0
1.38064e-05	0	0	0
1.38713e-05	0	0	0
1.38973e-05	0	0	0
1.39629e-05	0	0	0
1.40519e-05	0	0	0
1.41451e-05	0	0	0
1.42281e-05	0	0	0
1.45006e-05	0	0	0
1.46057e-05	0	0	0
1.46626e-05	0	0	0
1.46927e-05	0	0	0
1.48984e-05	0	0	0
1.49198e-05	0	0	0
1.49336e-05	0	0	0
1.51054e-05	0	0	0
1.51709e-05	0	0	0
1.55228e-05	0	0	0
1.55229e-05	0	0	0
1.55665e-05	0	0	0
1.58838e-05	0	0	0
1.59129e-05	0	0	0
1.62976e-05	0	0	0
1.64547e-05	0	0	0
1.65192e-05	0	0	0
1.65452e-05	0	0	0
1.66069e-05	0	0	0
1.66144e-05	0	0	0
1.68694e-05	0	0	0
1.69446e-05	0	0	0
1.6959e-05	0	0	0
1.70026e-05	0	0	0
1.71566e-05	0	0	0
1.7235e-05	0	0	0
1.74823e-05	0	0	0
1.76107e-05	0	0	0
1.76994e-05	0	0	0
1.80256e-05	0	0	0
1.84206e-05	0	0	0
1.85004e-05	0	0	0
1.85057e-05	0	0	0
1.8709e-05	0	0	0
1.89996e-05	0	0	0
1.90554e-05	0	0	0
1.92534e-05	0	0	0
1.92822e-05	0	0	0
1.94819e-05	0	0	0
1.94942e-05	0	0	0
1.95044e-05	0	0	0
1.95414e-05	0	0	0
1.96007e-05	0	0	0
1.98884e-05	0	0	0
1.99218e-05	0	0	0
2.00816e-05	0	0	0
2.00853e-05	0	0	0
2.04196e-05	0	0	0
2.04755e-05	0	0	0
2.05574e-05	0	0	0
2.05693e-05	0	0	0
2.06533e-05	0	0	0
2.09424e-05	0	0	0
2.0965e-05	0	0	0
2.10497e-05	0	0	0
2.10982e-05	0	0	0
2.12728e-05	0	0	0
2.1354e-05	0	0	0
2.15119e-05	0	0	0
2.1637e-05	0	0	0
2.17831e-05	0	0	0
2.19403e-05	0	0	0
2.20244e-05	0	0	0
2.20707e-05	0	0	0
2.2214e-05	0	0	0
2.23084e-05	0	0	0
2.23087e-05	0	0	0
2.24003e-05	0	0	0
2.25612e-05	0	0	0
2.26394e-05	0	0	0
2.27034e-05	0	0	0
2.2782e-05	0	0	0
2.2925e-05	0	0	0
2.31467e-05	0	0	0
2.32487e-05	0	0	0
2.32935e-05	0	0	0
2.35113e-05	0	0	0
2.35681e-05	0	0	0
2.38461e-05	0	0	0
2.389e-05	0	0	0
2.40862e-05	0	0	0
2.4095e-05	0	0	0
2.41452e-05	0	0	0
2.4227e-05	0	0	0
2.43756e-05	0	0	0
2.44327e-05	0	0	0
2.44393e-05	0	0	0
2.48942e-05	0	0	0
2.52895e-05	0	0	0
2.5496e-05	0	0	0
2.55203e-05	0	0	0
2.57624e-05	0	0	0
2.58363e-05	0	0	0
2.59684e-05	0	0	0
2.62345e-05	0	0	0
2.62505e-05	0	0	0
2.63563e-05	0	0	0
2.65904e-05	0	0	0
2.65993e-05	0	0	0
2.66428e-05	0	0	0
2.70528e-05	0	0	0
2.71064e-05	0	0	0
2.73634e-05	0	0	0
2.76871e-05	0	0	0
2.80411e-05	0	0	0
2.83046e-05	0	0	0
2.83145e-05	0	0	0
2.87756e-05	0	0	0
2.90836e-05	0	0	0
2.92534e-05	0	0	0
2.93303e-05	0	0	0
2.98727e-05	0	0	0
3.01273e-05	0	0	0
3.08759e-05	0	0	0
3.10023e-05	0	0	0
3.11098e-05	0	0	0
3.14739e-05	0	0	0
3.14882e-05	0	0	0
3.16916e-05	0	0	0
3.17163e-05	0	0	0
3.1733e-05	0	0	0
3.18733e-05	0	0	0
3.20154e-05	0	0	0
3.21622e-05	0	0	0
3.22706e-05	0	0	0
3.22858e-05	0	0	0
3.2317e-05	0	0	0
3.23322e-05	0	0	0
3.23914e-05	0	0	0
3.24051e-05	0	0	0
3.247e-05	0	0	0
3.24916e-05	0	0	0
3.26213e-05	0	0	0
3.32627e-05	0	0	0
3.33329e-05	0	0	0
3.33352e-05	0	0	0
3.33913e-05	0	0	0
3.34041e-05	0	0	0
3.34878e-05	0	0	0
3.36716e-05	0	0	0
3.39005e-05	0	0	0
3.40285e-05	0	0	0
3.43689e-05	0	0	0
3.44595e-05	0	0	0
3.46371e-05	0	0	0
3.47189e-05	0	0	0
3.48475e-05	0	0	0
3.49267e-05	0	0	0
3.52854e-05	0	0	0
3.53505e-05	0	0	0
3.53834e-05	0	0	0
3.5451e-05	0	0	0
3.54577e-05	0	0	0
3.54736e-05	0	0	0
3.5592e-05	0	0	0
3.58889e-05	0	0	0
3.65471e-05	0	0	0
3.66205e-05	0	0	0
3.72915e-05	0	0	0
3.76675e-05	0	0	0
3.77146e-05	0	0	0
3.79562e-05	0	0	0
3.80331e-05	0	0	0
3.82265e-05	0	0	0
3.82689e-05	0	0	0
3.84041e-05	0	0	0
3.87864e-05	0	0	0
3.88025e-05	0	0	0
3.89496e-05	0	0	0
3.89794e-05	0	0	0
3.93995e-05	0	0	0
3.95936e-05	0	0	0
3.97776e-05	0	0	0
4.02199e-05	0	0	0
4.02596e-05	0	0	0
4.026e-05	0	0	0
4.02657e-05	0	0	0
4.06491e-05	0	0	0
4.07322e-05	0	0	0
4.1278e-05	0	0	0
4.16399e-05	0	0	0
4.18503e-05	0	0	0
4.19965e-05	0	0	0
4.20364e-05	0	0	0
4.20448e-05	0	0	0
4.20682e-05	0	0	0
4.31612e-05	0	0	0
4.35309e-05	0	0	0
4.36098e-05	0	0	0
4.39645e-05	0	0	0
4.45393e-05	0	0	0
4.45862e-05	0	0	0
4.48169e-05	0	0	0
4.48818e-05	0	0	0
4.49105e-05	0	0	0
4.51187e-05	0	0	0
4.51656e-05	0	0	0
4.51916e-05	0	0	0
4.52062e-05	0	0	0
4.58484e-05	0	0	0
4.58653e-05	0	0	0
4.60197e-05	0	0	0
4.62669e-05	0	0	0
4.67958e-05	0	0	0
4.68043e-05	0	0	0
4.70734e-05	0	0	0
4.73333e-05	0	0	0
4.73418e-05	0	0	0
4.77811e-05	0	0	0
4.81328e-05	0	0	0
4.81858e-05	0	0	0
4.82292e-05	0	0	0
4.8742e-05	0	0	0
4.88442e-05	0	0	0
4.88569e-05	0	0	0
4.88795e-05	0	0	0
4.90903e-05	0	0	0
4.98017e-05	0	0	0
5.02757e-05	0	0	0
5.0977e-05	0	0	0
5.21631e-05	0	0	0
5.22609e-05	0	0	0
5.24905e-05	0	0	0
5.29005e-05	0	0	0
5.30308e-05	0	0	0
5.305e-05	0	0	0
5.33884e-05	0	0	0
5.35686e-05	0	0	0
5.36281e-05	0	0	0
5.37748e-05	0	0	0
5.38614e-05	0	0	0
5.4184e-05	0	0	0
5.41858e-05	0	0	0
5.46165e-05	0	0	0
5.47224e-05	0	0	0
5.51667e-05	0	0	0
5.56671e-05	0	0	0
5.57473e-05	0	0	0
5.65099e-05	0	0	0
5.6536e-05	0	0	0
5.71562e-05	0	0	0
5.7237e-05	0	0	0
5.77619e-05	0	0	0
5.90018e-05	0	0	0
5.92051e-05	0	0	0
5.95072e-05	0	0	0
5.97872e-05	0	0	0
5.9904e-05	0	0	0
6.00646e-05	0	0	0
6.02481e-05	0	0	0
6.0431e-05	0	0	0
6.0712e-05	0	0	0
6.0783e-05	0	0	0
6.16007e-05	0	0	0
6.19288e-05	0	0	0
6.19578e-05	0	0	0
6.21528e-05	0	0	0
6.26998e-05	0	0	0
6.37909e-05	0	0	0
6.3807e-05	0	0	0
6.41201e-05	0	0	0
6.41735e-05	0	0	0
6.45327e-05	0	0	0
6.47007e-05	0	0	0
6.54789e-05	0	0	0
6.58921e-05	0	0	0
6.59136e-05	0	0	0
6.61856e-05	0	0	0
6.66538e-05	0	0	0
6.70465e-05	0	0	0
6.70943e-05	0	0	0
6.72161e-05	0	0	0
6.73692e-05	0	0	0
6.7517e-05	0	0	0
6.79575e-05	0	0	0
6.80396e-05	0	0	0
6.84921e-05	0	0	0
6.85416e-05	0	0	0
7.00934e-05	0	0	0
7.01165e-05	0	0	0
7.10748e-05	0	0	0
7.14121e-05	0	0	0
7.2009e-05	0	0	0
7.27173e-05	0	0	0
7.2853e-05	0	0	0
7.3155e-05	0	0	0
7.32025e-05	0	0	0
7.3417e-05	0	0	0
7.35827e-05	0	0	0
7.37076e-05	0	0	0
7.4184e-05	0	0	0
7.43391e-05	0	0	0
7.45146e-05	0	0	0
7.45358e-05	0	0	0
7.4595e-05	0	0	0
7.46247e-05	0	0	0
7.48151e-05	0	0	0
7.54623e-05	0	0	0
7.60066e-05	0	0	0
7.661e-05	0	0	0
7.6694e-05	0	0	0
7.78634e-05	0	0	0
7.81005e-05	0	0	0
7.85174e-05	0	0	0
7.85892e-05	0	0	0
7.91952e-05	0	0	0
7.94057e-05	0	0	0
8.03202e-05	0	0	0
8.05342e-05	0	0	0
8.06529e-05	0	0	0
8.13163e-05	0	0	0
8.22611e-05	0	0	0
8.32079e-05	0	0	0
8.3307e-05	0	0	0
8.34983e-05	0	0	0
8.37669e-05	0	0	0
8.38448e-05	0	0	0
8.39732e-05	0	0	0
8.45565e-05	0	0	0
8.48212e-05	0	0	0
8.53511e-05	0	0	0
8.5568e-05	0	0	0
8.56634e-05	0	0	0
8.58311e-05	0	0	0
8.62372e-05	0	0	0
8.6479e-05	0	0	0
8.66448e-05	0	0	0
8.66732e-05	0	0	0
8.66951e-05	0	0	0
8.7906e-05	0	0	0
8.88733e-05	0	0	0
9.00989e-05	0	0	0
9.01824e-05	0	0	0
9.04331e-05	0	0	0
9.09946e-05	0	0	0
9.10522e-05	0	0	0
9.15279e-05	0	0	0
9.20857e-05	0	0	0
9.31668e-05	0	0	0
9.33305e-05	0	0	0
9.34582e-05	0	0	0
9.34913e-05	0	0	0
9.35222e-05	0	0	0
9.3721e-05	0	0	0
9.43537e-05	0	0	0
9.44129e-05	0	0	0
9.47419e-05	0	0	0
9.57963e-05	0	0	0
9.59283e-05	0	0	0
9.6775e-05	0	0	0
9.70047e-05	0	0	0
9.79571e-05	0	0	0
9.80424e-05	0	0	0
9.824e-05	0	0	0
9.90783e-05	0	0	0
9.92969e-05	0	0	0
9.95028e-05	0	0	0
9.96388e-05	0	0	0
9.96699e-05	0	0	0
9.98916e-05	0	0	0
0.000100003	0	0	0
0.000101729	0	0	0
0.000102281	0	0	0
0.000102698	0	0	0
0.000103037	0	0	0
0.00010368	0	0	0
0.000103812	0	0	0
0.000103995	0	0	0
0.000104691	0	0	0
0.000104755	0	0	0
0.00010501	0	0	0
0.000105717	0	0	0
0.000106247	0	0	0
0.000106824	0	0	0
0.000107719	0	0	0
0.0001089	0	0	0
0.000108922	0	0	0
0.000109013	0	0	0
0.000110598	0	0	0
0.000110691	0	0	0
0.00011129	0	0	0
0.000111852	0	0	0
0.000112296	0	0	0
0.000112734	0	0	0
0.000113005	0	0	0
0.000113247	0	0	0
0.000113448	0	0	0
0.000113748	0	0	0
0.000114548	0	0	0
0.000114923	0	0	0
0.000115629	0	0	0
0.000116175	0	0	0
0.000116326	0	0	0
0.000116332	0	0	0
0.000116676	0	0	0
0.000116878	0	0	0
0.00011694	0	0	0
0.00011707	0	0	0
0.000117094	0	0	0
0.000117279	0	0	0
0.000118739	0	0	0
0.00011878	0	0	0
0.000118925	0	0	0
0.000120147	0	0	0
0.000120505	0	0	0
0.000121013	0	0	0
0.000121076	0	0	0
0.000121136	0	0	0
0.000122364	0	0	0
0.000122391	0	0	0
0.000122507	0	0	0
0.00012368	0	0	0
0.000124124	0	0	0
0.000124933	0	0	0
0.000126169	0	0	0
0.000126692	0	0	0
0.000126744	0	0	0
0.000126765	0	0	0
0.000127705	0	0	0
0.000128431	0	0	0
0.000128468	0	0	0
0.000128698	0	0	0
0.00012874	0	0	0
0.000128813	0	0	0
0.000128828	0	0	0
0.000128962	0	0	0
0.000129217	0	0	0
0.000129819	0	0	0
0.000129829	0	0	0
0.00013153	0	0	0
0.000132601	0	0	0
0.000133822	0	0	0
0.000134157	0	0	0
0.000134383	0	0	0
0.000134988	0	0	0
0.000135896	0	0	0
0.000135959	0	0	0
0.000136092	0	0	0
0.000136859	0	0	0
0.00013692	0	0	0
0.000137375	0	0	0
0.00013759	0	0	0
0.000138957	0	0	0
0.000139016	0	0	0
0.000139263	0	0	0
0.000139663	0	0	0
0.000141747	0	0	0
0.000142092	0	0	0
0.000143178	0	0	0
0.00014319	0	0	0
0.000143655	0	0	0
0.000145946	0	0	0
0.000146252	0	0	0
0.000146259	0	0	0
0.000146417	0	0	0
0.000147673	0	0	0
0.000148533	0	0	0
0.000150092	0	0	0
0.000150929	0	0	0
0.000151706	0	0	0
0.000151928	0	0	0
0.000152292	0	0	0
0.000153141	0	0	0
0.000153469	0	0	0
0.000154086	0	0	0
0.000155071	0	0	0
0.000155621	0	0	0
0.000155719	0	0	0
0.000157535	0	0	0
0.000157572	0	0	0
0.000157731	0	0	0
0.000157972	0	0	0
0.000159609	0	0	0
0.000162392	0	0	0
0.000163373	0	0	0
0.000163421	0	0	0
0.000163579	0	0	0
0.00016423	0	0	0
0.000164348	0	0	0
0.000164576	0	0	0
0.000164932	0	0	0
0.000165452	0	0	0
0.000166829	0	0	0
0.000167013	0	0	0
0.000167173	0	0	0
0.000167314	0	0	0
0.000167709	0	0	0
0.000169739	0	0	0
0.00016987	0	0	0
0.000170031	0	0	0
0.000171649	0	0	0
0.000171781	0	0	0
0.000172418	0	0	0
0.00017288	0	0	0
0.000172886	0	0	0
0.000173421	0	0	0
0.000175191	0	0	0
0.000176095	0	0	0
0.00017632	0	0	0
0.000176392	0	0	0
0.000177086	0	0	0
0.000177352	0	0	0
0.000179021	0	0	0
0.000179149	0	0	0
0.000179611	0	0	0
0.000180127	0	0	0
0.000181395	0	0	0
0.000182323	0	0	0
0.000183325	0	0	0
0.000183504	0	0	0
0.00018459	0	0	0
0.00018717	0	0	0
0.000188318	0	0	0
0.000189131	0	0	0
0.000189332	0	0	0
0.00019127	0	0	0
0.00019168	0	0	0
0.000192036	0	0	0
0.000192849	0	0	0
0.00019308	0	0	0
0.00019337	0	0	0
0.00019396	0	0	0
0.000195053	0	0	0
0.000197813	0	0	0
0.000197824	0	0	0
0.000197877	0	0	0
0.00019797	0	0	0
0.00019952	0	0	0
0.000201294	0	0	0
0.000201671	0	0	0
0.000201895	0	0	0
0.000203828	0	0	0
0.000205526	0	0	0
0.000206303	0	0	0
0.000207742	0	0	0
0.000208194	0	0	0
0.000208647	0	0	0
0.000209927	0	0	0
0.000210548	0	0	0
0.000212166	0	0	0
0.000212172	0	0	0
0.00021258	0	0	0
0.000212658	0	0	0
0.000213011	0	0	0
0.000213153	0	0	0
0.000213231	0	0	0
0.000214086	0	0	0
0.000214207	0	0	0
0.000214278	0	0	0
0.000214871	0	0	0
0.000217733	0	0	0
0.000218994	0	0	0
0.000219809	0	0	0
0.000221363	0	0	0
0.000221538	0	0	0
0.000223549	0	0	0
0.000224537	0	0	0
0.000224832	0	0	0
0.000224843	0	0	0
0.000225447	0	0	0
0.000226256	0	0	0
0.000226555	0	0	0
0.00022748	0	0	0
0.000229306	0	0	0
0.000229436	0	0	0
0.000230116	0	0	0
0.000230243	0	0	0
0.000230305	0	0	0
0.0002307	0	0	0
0.000231797	0	0	0
0.000232039	0	0	0
0.000234924	0	0	0
0.000235116	0	0	0
0.0002406	0	0	0
0.000240615	0	0	0
0.000241417	0	0	0
0.000241714	0	0	0
0.000244243	0	0	0
0.000244663	0	0	0
0.000246605	0	0	0
0.000247475	0	0	0
0.000248437	0	0	0
0.000250807	0	0	0
0.000251287	0	0	0
0.000251471	0	0	0
0.000251496	0	0	0
0.000253883	0	0	0
0.000254207	0	0	0
0.000259378	0	0	0
0.000262946	0	0	0
0.000263201	0	0	0
0.000263704	0	0	0
0.00026436	0	0	0
0.000267738	0	0	0
0.000268122	0	0	0
0.000268686	0	0	0
0.000270192	0	0	0
0.000270493	0	0	0
0.000271129	0	0	0
0.000272421	0	0	0
0.000273255	0	0	0
0.000275154	0	0	0
0.000276978	0	0	0
0.000277173	0	0	0
0.00027895	0	0	0
0.000279823	0	0	0
0.000279894	0	0	0
0.00028017	0	0	0
0.000282853	0	0	0
0.000283489	0	0	0
0.000288751	0	0	0
0.000289068	0	0	0
0.000289313	0	0	0
0.000289341	0	0	0
0.000290013	0	0	0
0.000291339	0	0	0
0.000294339	0	0	0
0.000295351	0	0	0
0.000297106	0	0	0
0.00029751	0	0	0
0.000297699	0	0	0
0.000298859	0	0	0
0.000302605	0	0	0
0.000306256	0	0	0
0.00030713	0	0	0
0.000307998	0	0	0
0.00030855	0	0	0
0.000310301	0	0	0
0.000312574	0	0	0
0.000312855	0	0	0
0.00031324	0	0	0
0.000313789	0	0	0
0.00031432	0	0	0
0.0003145	0	0	0
0.000318092	0	0	0
0.000319048	0	0	0
0.000324358	0	0	0
0.000325196	0	0	0
0.000325941	0	0	0
0.000326678	0	0	0
0.000327238	0	0	0
0.000329139	0	0	0
0.000330721	0	0	0
0.000332329	0	0	0
0.000332533	0	0	0
0.000337216	0	0	0
0.000339077	0	0	0
0.000339668	0	0	0
0.000341815	0	0	0
0.000342403	0	0	0
0.000342687	0	0	0
0.000343082	0	0	0
0.000344015	0	0	0
0.000345119	0	0	0
0.00034612	0	0	0
0.000346866	0	0	0
0.000347583	0	0	0
0.000348324	0	0	0
0.000351145	0	0	0
0.0003516	0	0	0
0.00035446	0	0	0
0.000355492	0	0	0
0.000355692	0	0	0
0.000361126	0	0	0
0.000363837	0	0	0
0.000364185	0	0	0
0.000365306	0	0	0
0.000366975	0	0	0
0.000368092	0	0	0
0.000368613	0	0	0
0.0003688	0	0	0
0.000369287	0	0	0
0.000370959	0	0	0
0.000373496	0	0	0
0.000376996	0	0	0
0.000377731	0	0	0
0.000383883	0	0	0
0.000386134	0	0	0
0.000387632	0	0	0
0.000388878	0	0	0
0.000389983	0	0	0
0.000391027	0	0	0
0.000394322	0	0	0
0.00039877	0	0	0
0.000399029	0	0	0
0.000399725	0	0	0
0.000400303	0	0	0
0.000400563	0	0	0
0.000400854	0	0	0
0.000403096	0	0	0
0.000403541	0	0	0
0.000404546	0	0	0
0.000405186	0	0	0
0.000405545	0	0	0
0.000406874	0	0	0
0.000410652	0	0	0
0.000411751	0	0	0
0.000412602	0	0	0
0.000415387	0	0	0
0.000416024	0	0	0
0.000422612	0	0	0
0.000425426	0	0	0
0.00042567	0	0	0
0.000426773	0	0	0
0.000434445	0	0	0
0.000436074	0	0	0
0.000442248	0	0	0
0.000447038	0	0	0
0.000450989	0	0	0
0.000452761	0	0	0
0.000454101	0	0	0
0.000455292	0	0	0
0.00045896	0	0	0
0.000459056	0	0	0
0.000462591	0	0	0
0.00046277	0	0	0
0.000462819	0	0	0
0.000463616	0	0	0
0.000465843	0	0	0
0.000466875	0	0	0
0.00046778	0	0	0
0.00046792	0	0	0
0.000469738	0	0	0
0.000472873	0	0	0
0.000475088	0	0	0
0.000476895	0	0	0
0.000493534	0	0	0
0.00049413	0	0	0
0.000498818	0	0	0
0.0004996	0	0	0
0.000500244	0	0	0
0.000500939	0	0	0
0.000501297	0	0	0
0.000502345	0	0	0
0.00050329	0	0	0
0.000505339	0	0	0
0.000511497	0	0	0
0.000519919	0	0	0
0.000521161	0	0	0
0.000523259	0	0	0
0.000524818	0	0	0
0.000531283	0	0	0
0.000531398	0	0	0
0.000533501	0	0	0
0.000539873	0	0	0
0.000541854	0	0	0
0.000542574	0	0	0
0.000549521	0	0	0
0.000549988	0	0	0
0.000550174	0	0	0
0.000550369	0	0	0
0.00055166	0	0	0
0.000551958	0	0	0
0.00055378	0	0	0
0.000555712	0	0	0
0.00056039	0	0	0
0.000563009	0	0	0
0.000568375	0	0	0
0.000569826	0	0	0
0.000573606	0	0	0
0.000590076	0	0	0
0.000590369	0	0	0
0.000590895	0	0	0
0.000596128	0	0	0
0.000600469	0	0	0
0.000601443	0	0	0
0.000603813	0	0	0
0.000606657	0	0	0
0.00061039	0	0	0
0.000610623	0	0	0
0.00061288	0	0	0
0.000629595	0	0	0
0.000631763	0	0	0
0.000633894	0	0	0
0.000634172	0	0	0
0.000635397	0	0	0
0.00063674	0	0	0
0.000644334	0	0	0
0.000647545	0	0	0
0.000659819	0	0	0
0.000660974	0	0	0
0.000685629	0	0	0
0.000689891	0	0	0
0.000694534	0	0	0
0.000695345	0	0	0
0.000709356	0	0	0
0.000710973	0	0	0
0.000712306	0	0	0
0.00071809	0	0	0
0.000718928	0	0	0
0.000719132	0	0	0
0.000719977	0	0	0
0.000720019	0	0	0
0.000721456	0	0	0
0.000728277	0	0	0
0.000732972	0	0	0
0.000733685	0	0	0
0.000735556	0	0	0
0.00073776	0	0	0
0.000744342	0	0	0
0.00075246	0	0	0
0.000775551	0	0	0
0.000779355	0	0	0
0.000787957	0	0	0
0.000800815	0	0	0
0.000802145	0	0	0
0.000806673	0	0	0
0.000822587	0	0	0
0.000840179	0	0	0
0.000843936	0	0	0
0.000859365	0	0	0
0.000887165	0	0	0
0.000920123	0	0	0
0.000926627	0	0	0
0.000929763	0	0	0
0.000934249	0	0	0
0.000965939	0	0	0
0.000978744	0	0	0
0.000981153	0	0	0
0.000985078	0	0	0
0.000988474	0	0	0
0.000992125	0	0	0
0.00100284	0	0	0
0.00100832	0	0	0
0.00101739	0	0	0
0.00101758	0	0	0
0.00103991	0	0	0
0.00107098	0	0	0
0.00107645	0	0	0
0.00109915	0	0	0
0.00110057	0	0	0
0.00110991	0	0	0
0.0011233	0	0	0
0.00112715	0	0	0
0.0011687	0	0	0
0.00119468	0	0	0
0.00123571	0	0	0
0.00124208	0	0	0
0.00124845	0	0	0
0.00126699	0	0	0
0.00129687	0	0	0
0.0015478	0	0	0
0.00155508	0	0	0
0.00167523	0	0	0
0.00200714	0	0	0
