1.46718e-07	0	0	0
1.9217e-07	0	0	0
2.13657e-07	0	0	0
2.48578e-07	0	0	0
3.59185e-07	0	0	0
6.91657e-07	0	0	0
9.02065e-07	0	0	0
1.12481e-06	0	0	0
1.14971e-06	0	0	0
1.29023e-06	0	0	0
1.39911e-06	0	0	0
1.47176e-06	0	0	0
1.62641e-06	0	0	0
1.73947e-06	0	0	0
1.79746e-06	0	0	0
2.02213e-06	0	0	0
2.03861e-06	0	0	0
2.04306e-06	0	0	0
2.05562e-06	0	0	0
2.06321e-06	0	0	0
2.12118e-06	0	0	0
2.14055e-06	0	0	0
2.27315e-06	0	0	0
2.28205e-06	0	0	0
2.62941e-06	0	0	0
2.87231e-06	0	0	0
3.00297e-06	0	0	0
3.02647e-06	0	0	0
3.07521e-06	0	0	0
3.13453e-06	0	0	0
3.69538e-06	0	0	0
4.05472e-06	0	0	0
4.16399e-06	0	0	0
4.2164e-06	0	0	0
4.25315e-06	0	0	0
4.27e-06	0	0	0
4.27983e-06	0	0	0
4.30015e-06	0	0	0
4.34576e-06	0	0	0
4.46376e-06	0	0	0
4.82279e-06	0	0	0
4.95748e-06	0	0	0
5.17947e-06	0	0	0
5.41317e-06	0	0	0
5.46908e-06	0	0	0
5.97954e-06	0	0	0
6.11589e-06	0	0	0
6.19078e-06	0	0	0
6.2964e-06	0	0	0
6.51893e-06	0	0	0
6.71319e-06	0	0	0
6.96921e-06	0	0	0
7.20129e-06	0	0	0
7.41253e-06	0	0	0
7.48831e-06	0	0	0
7.51102e-06	0	0	0
7.53638e-06	0	0	0
7.58564e-06	0	0	0
7.64438e-06	0	0	0
7.80926e-06	0	0	0
7.82413e-06	0	0	0
7.95699e-06	0	0	0
8.1271e-06	0	0	0
8.24529e-06	0	0	0
8.26216e-06	0	0	0
8.4945e-06	0	0	0
8.50436e-06	0	0	0
8.5695e-06	0	0	0
8.59035e-06	0	0	0
8.88532e-06	0	0	0
9.77992e-06	0	0	0
9.79034e-06	0	0	0
9.85258e-06	0	0	0
1.0034e-05	0	0	0
1.01263e-05	0	0	0
1.01267e-05	0	0	0
1.01856e-05	0	0	0
1.02479e-05	0	0	0
1.05004e-05	0	0	0
1.0636e-05	0	0	0
1.0783e-05	0	0	0
1.08586e-05	0	0	0
1.091e-05	0	0	0
1.09471e-05	0	0	0
1.1011e-05	0	0	0
1.1661e-05	0	0	0
1.18223e-05	0	0	0
1.19181e-05	0	0	0
1.19849e-05	0	0	0
1.20282e-05	0	0	0
1.22428e-05	0	0	0
1.23471e-05	0	0	0
1.23818e-05	0	0	0
1.24383e-05	0	0	0
1.24651e-05	0	0	0
1.25216e-05	0	0	0
1.27498e-05	0	0	0
1.27553e-05	0	0	0
1.28447e-05	0	0	0
1.30116e-05	0	0	0
1.30306e-05	0	0	0
1.33485e-05	0	0	0
1.35887e-05	0	0	0
1.35987e-05	0	0	0
1.38349e-05	0	0	0
1.38496e-05	0	0	0
1.38518e-05	0	0	0
1.39216e-05	0	0	0
1.39811e-05	0	0	0
1.4008e-05	0	0	0
1.40292e-05	0	0	0
1.43074e-05	0	0	0
1.44023e-05	0	0	0
1.44805e-05	0	0	0
1.47856e-05	0	0	0
1.47969e-05	0	0	0
1.49959e-05	0	0	0
1.53084e-05	0	0	0
1.55062e-05	0	0	0
1.5846e-05	0	0	0
1.58514e-05	0	0	0
1.59567e-05	0	0	0
1.59923e-05	0	0	0
1.59935e-05	0	0	0
1.60152e-05	0	0	0
1.60846e-05	0	0	0
1.65391e-05	0	0	0
1.65795e-05	0	0	0
1.65836e-05	0	0	0
1.66197e-05	0	0	0
1.6724e-05	0	0	0
1.70877e-05	0	0	0
1.71931e-05	0	0	0
1.75851e-05	0	0	0
1.76604e-05	0	0	0
1.76709e-05	0	0	0
1.78053e-05	0	0	0
1.82809e-05	0	0	0
1.84978e-05	0	0	0
1.85006e-05	0	0	0
1.85501e-05	0	0	0
1.85877e-05	0	0	0
1.8634e-05	0	0	0
1.87007e-05	0	0	0
1.88224e-05	0	0	0
1.88703e-05	0	0	0
1.89519e-05	0	0	0
1.9096e-05	0	0	0
1.92017e-05	0	0	0
1.9352e-05	0	0	0
1.93882e-05	0	0	0
1.94977e-05	0	0	0
2.02417e-05	0	0	0
2.03513e-05	0	0	0
2.06629e-05	0	0	0
2.08437e-05	0	0	0
2.11559e-05	0	0	0
2.12616e-05	0	0	0
2.14804e-05	0	0	0
2.17886e-05	0	0	0
2.18722e-05	0	0	0
2.19329e-05	0	0	0
2.20485e-05	0	0	0
2.20944e-05	0	0	0
2.22768e-05	0	0	0
2.24711e-05	0	0	0
2.26294e-05	0	0	0
2.26397e-05	0	0	0
2.28449e-05	0	0	0
2.31085e-05	0	0	0
2.31198e-05	0	0	0
2.3399e-05	0	0	0
2.37091e-05	0	0	0
2.37517e-05	0	0	0
2.45229e-05	0	0	0
2.46254e-05	0	0	0
2.52255e-05	0	0	0
2.62126e-05	0	0	0
2.64122e-05	0	0	0
2.64516e-05	0	0	0
2.65479e-05	0	0	0
2.67076e-05	0	0	0
2.69699e-05	0	0	0
2.6976e-05	0	0	0
2.70271e-05	0	0	0
2.78165e-05	0	0	0
2.78808e-05	0	0	0
2.78827e-05	0	0	0
2.79451e-05	0	0	0
2.80937e-05	0	0	0
2.81196e-05	0	0	0
2.8483e-05	0	0	0
2.8913e-05	0	0	0
2.9322e-05	0	0	0
2.97986e-05	0	0	0
2.99804e-05	0	0	0
3.01497e-05	0	0	0
3.03524e-05	0	0	0
3.05482e-05	0	0	0
3.09981e-05	0	0	0
3.1049e-05	0	0	0
3.11446e-05	0	0	0
3.1304e-05	0	0	0
3.14498e-05	0	0	0
3.17042e-05	0	0	0
3.18549e-05	0	0	0
3.18917e-05	0	0	0
3.22006e-05	0	0	0
3.22222e-05	0	0	0
3.25011e-05	0	0	0
3.25081e-05	0	0	0
3.30472e-05	0	0	0
3.31067e-05	0	0	0
3.31205e-05	0	0	0
3.31255e-05	0	0	0
3.31892e-05	0	0	0
3.33214e-05	0	0	0
3.34113e-05	0	0	0
3.34764e-05	0	0	0
3.35915e-05	0	0	0
3.36628e-05	0	0	0
3.36709e-05	0	0	0
3.46299e-05	0	0	0
3.47345e-05	0	0	0
3.50731e-05	0	0	0
3.50895e-05	0	0	0
3.57683e-05	0	0	0
3.6216e-05	0	0	0
3.6223e-05	0	0	0
3.63301e-05	0	0	0
3.72429e-05	0	0	0
3.7306e-05	0	0	0
3.73851e-05	0	0	0
3.74226e-05	0	0	0
3.75606e-05	0	0	0
3.79178e-05	0	0	0
3.80507e-05	0	0	0
3.80619e-05	0	0	0
3.82332e-05	0	0	0
3.82622e-05	0	0	0
3.84853e-05	0	0	0
3.88407e-05	0	0	0
3.99571e-05	0	0	0
3.99586e-05	0	0	0
4.01714e-05	0	0	0
4.05933e-05	0	0	0
4.07548e-05	0	0	0
4.08967e-05	0	0	0
4.10513e-05	0	0	0
4.11675e-05	0	0	0
4.12875e-05	0	0	0
4.16545e-05	0	0	0
4.21456e-05	0	0	0
4.22644e-05	0	0	0
4.22953e-05	0	0	0
4.23842e-05	0	0	0
4.25616e-05	0	0	0
4.28324e-05	0	0	0
4.30147e-05	0	0	0
4.30736e-05	0	0	0
4.32401e-05	0	0	0
4.32884e-05	0	0	0
4.33286e-05	0	0	0
4.33449e-05	0	0	0
4.37295e-05	0	0	0
4.38588e-05	0	0	0
4.41749e-05	0	0	0
4.44411e-05	0	0	0
4.4569e-05	0	0	0
4.47065e-05	0	0	0
4.47459e-05	0	0	0
4.50323e-05	0	0	0
4.52506e-05	0	0	0
4.5283e-05	0	0	0
4.5512e-05	0	0	0
4.61982e-05	0	0	0
4.6204e-05	0	0	0
4.6295e-05	0	0	0
4.64045e-05	0	0	0
4.6484e-05	0	0	0
4.66027e-05	0	0	0
4.66405e-05	0	0	0
4.68534e-05	0	0	0
4.69425e-05	0	0	0
4.71938e-05	0	0	0
4.72753e-05	0	0	0
4.77767e-05	0	0	0
4.78393e-05	0	0	0
4.78823e-05	0	0	0
4.836e-05	0	0	0
4.84658e-05	0	0	0
4.94794e-05	0	0	0
4.9652e-05	0	0	0
4.99133e-05	0	0	0
4.99186e-05	0	0	0
5.01284e-05	0	0	0
5.02203e-05	0	0	0
5.07435e-05	0	0	0
5.09478e-05	0	0	0
5.10272e-05	0	0	0
5.13349e-05	0	0	0
5.1719e-05	0	0	0
5.178e-05	0	0	0
5.18708e-05	0	0	0
5.24282e-05	0	0	0
5.27197e-05	0	0	0
5.28039e-05	0	0	0
5.28152e-05	0	0	0
5.30152e-05	0	0	0
5.31431e-05	0	0	0
5.33429e-05	0	0	0
5.3592e-05	0	0	0
5.45223e-05	0	0	0
5.49374e-05	0	0	0
5.4948e-05	0	0	0
5.51629e-05	0	0	0
5.52149e-05	0	0	0
5.52174e-05	0	0	0
5.54799e-05	0	0	0
5.56305e-05	0	0	0
5.62507e-05	0	0	0
5.68561e-05	0	0	0
5.72966e-05	0	0	0
5.78287e-05	0	0	0
5.7928e-05	0	0	0
5.82524e-05	0	0	0
5.83449e-05	0	0	0
5.9348e-05	0	0	0
5.96004e-05	0	0	0
5.99853e-05	0	0	0
5.99876e-05	0	0	0
6.01848e-05	0	0	0
6.05333e-05	0	0	0
6.07603e-05	0	0	0
6.08411e-05	0	0	0
6.08995e-05	0	0	0
6.15088e-05	0	0	0
6.1527e-05	0	0	0
6.16728e-05	0	0	0
6.17624e-05	0	0	0
6.2178e-05	0	0	0
6.34366e-05	0	0	0
6.35553e-05	0	0	0
6.36241e-05	0	0	0
6.39828e-05	0	0	0
6.41337e-05	0	0	0
6.41439e-05	0	0	0
6.4759e-05	0	0	0
6.52201e-05	0	0	0
6.52376e-05	0	0	0
6.56231e-05	0	0	0
6.56535e-05	0	0	0
6.56909e-05	0	0	0
6.56947e-05	0	0	0
6.58682e-05	0	0	0
6.58787e-05	0	0	0
6.59684e-05	0	0	0
6.63101e-05	0	0	0
6.67862e-05	0	0	0
6.6889e-05	0	0	0
6.74643e-05	0	0	0
6.77375e-05	0	0	0
6.79545e-05	0	0	0
6.80942e-05	0	0	0
6.85526e-05	0	0	0
6.87271e-05	0	0	0
6.87891e-05	0	0	0
6.88434e-05	0	0	0
6.89125e-05	0	0	0
6.91929e-05	0	0	0
6.95764e-05	0	0	0
6.96153e-05	0	0	0
7.02693e-05	0	0	0
7.05719e-05	0	0	0
7.10921e-05	0	0	0
7.12811e-05	0	0	0
7.15038e-05	0	0	0
7.18775e-05	0	0	0
7.19183e-05	0	0	0
7.33277e-05	0	0	0
7.34979e-05	0	0	0
7.35382e-05	0	0	0
7.39444e-05	0	0	0
7.41872e-05	0	0	0
7.42368e-05	0	0	0
7.42723e-05	0	0	0
7.47549e-05	0	0	0
7.50645e-05	0	0	0
7.55508e-05	0	0	0
7.57086e-05	0	0	0
7.58974e-05	0	0	0
7.59051e-05	0	0	0
7.63714e-05	0	0	0
7.6568e-05	0	0	0
7.66493e-05	0	0	0
7.77585e-05	0	0	0
7.82765e-05	0	0	0
7.83625e-05	0	0	0
7.86472e-05	0	0	0
7.87859e-05	0	0	0
7.96571e-05	0	0	0
7.9664e-05	0	0	0
8.00581e-05	0	0	0
8.03619e-05	0	0	0
8.07302e-05	0	0	0
8.09198e-05	0	0	0
8.12072e-05	0	0	0
8.17338e-05	0	0	0
8.22551e-05	0	0	0
8.25182e-05	0	0	0
8.2726e-05	0	0	0
8.28557e-05	0	0	0
8.29837e-05	0	0	0
8.32186e-05	0	0	0
8.33419e-05	0	0	0
8.346e-05	0	0	0
8.49903e-05	0	0	0
8.50873e-05	0	0	0
8.51884e-05	0	0	0
8.54199e-05	0	0	0
8.56992e-05	0	0	0
8.59856e-05	0	0	0
8.71921e-05	0	0	0
8.7646e-05	0	0	0
8.77223e-05	0	0	0
8.92845e-05	0	0	0
9.00836e-05	0	0	0
9.03536e-05	0	0	0
9.06131e-05	0	0	0
9.1386e-05	0	0	0
9.15547e-05	0	0	0
9.18097e-05	0	0	0
9.26153e-05	0	0	0
9.34472e-05	0	0	0
9.51622e-05	0	0	0
9.52615e-05	0	0	0
9.56867e-05	0	0	0
9.59108e-05	0	0	0
9.68594e-05	0	0	0
9.78989e-05	0	0	0
9.83579e-05	0	0	0
9.8475e-05	0	0	0
9.91989e-05	0	0	0
9.99307e-05	0	0	0
0.000101232	0	0	0
0.000102077	0	0	0
0.000102868	0	0	0
0.000104311	0	0	0
0.000105113	0	0	0
0.00010522	0	0	0
0.000105637	0	0	0
0.000106359	0	0	0
0.000106452	0	0	0
0.000106862	0	0	0
0.000106957	0	0	0
0.000107009	0	0	0
0.000107121	0	0	0
0.000107355	0	0	0
0.00010749	0	0	0
0.000107533	0	0	0
0.000107776	0	0	0
0.000107912	0	0	0
0.000108153	0	0	0
0.000108163	0	0	0
0.000108722	0	0	0
0.000108835	0	0	0
0.000109803	0	0	0
0.000110296	0	0	0
0.000110315	0	0	0
0.000111937	0	0	0
0.000112699	0	0	0
0.00011272	0	0	0
0.000112805	0	0	0
0.000113012	0	0	0
0.000114537	0	0	0
0.000114711	0	0	0
0.000115151	0	0	0
0.000115179	0	0	0
0.000115729	0	0	0
0.000116014	0	0	0
0.000117031	0	0	0
0.000117084	0	0	0
0.000117591	0	0	0
0.000118411	0	0	0
0.000118891	0	0	0
0.000119966	0	0	0
0.000120372	0	0	0
0.000120403	0	0	0
0.000120456	0	0	0
0.000120645	0	0	0
0.000121047	0	0	0
0.000121115	0	0	0
0.000121298	0	0	0
0.000122293	0	0	0
0.000122414	0	0	0
0.000122992	0	0	0
0.000123188	0	0	0
0.000125367	0	0	0
0.000125727	0	0	0
0.000126226	0	0	0
0.00012774	0	0	0
0.000128338	0	0	0
0.000129254	0	0	0
0.000131056	0	0	0
0.000131132	0	0	0
0.000132476	0	0	0
0.000132748	0	0	0
0.000133218	0	0	0
0.000134203	0	0	0
0.000135484	0	0	0
0.000136268	0	0	0
0.000136909	0	0	0
0.00013793	0	0	0
0.000138611	0	0	0
0.000138778	0	0	0
0.000139465	0	0	0
0.000139653	0	0	0
0.000139908	0	0	0
0.000140599	0	0	0
0.000141403	0	0	0
0.000141875	0	0	0
0.00014196	0	0	0
0.000142193	0	0	0
0.000144016	0	0	0
0.000144375	0	0	0
0.000144415	0	0	0
0.000145063	0	0	0
0.000145118	0	0	0
0.000146123	0	0	0
0.000147731	0	0	0
0.000147936	0	0	0
0.000148184	0	0	0
0.000148802	0	0	0
0.000149267	0	0	0
0.000149598	0	0	0
0.000150068	0	0	0
0.000150366	0	0	0
0.000150719	0	0	0
0.000150806	0	0	0
0.000151662	0	0	0
0.000153726	0	0	0
0.000153812	0	0	0
0.000154752	0	0	0
0.00015519	0	0	0
0.000155413	0	0	0
0.000155684	0	0	0
0.000155778	0	0	0
0.00015593	0	0	0
0.000156611	0	0	0
0.000156761	0	0	0
0.00015699	0	0	0
0.000157595	0	0	0
0.000157644	0	0	0
0.000159054	0	0	0
0.000159079	0	0	0
0.00015932	0	0	0
0.000159394	0	0	0
0.000159528	0	0	0
0.000161069	0	0	0
0.000161199	0	0	0
0.000161601	0	0	0
0.000162327	0	0	0
0.000163606	0	0	0
0.000163758	0	0	0
0.000163784	0	0	0
0.000164639	0	0	0
0.000165219	0	0	0
0.000165761	0	0	0
0.000166741	0	0	0
0.00016675	0	0	0
0.000167178	0	0	0
0.000167803	0	0	0
0.000168898	0	0	0
0.000169356	0	0	0
0.000169728	0	0	0
0.000171291	0	0	0
0.000171388	0	0	0
0.000171941	0	0	0
0.000172097	0	0	0
0.000172286	0	0	0
0.000173661	0	0	0
0.000173796	0	0	0
0.00017387	0	0	0
0.000174694	0	0	0
0.000175598	0	0	0
0.000176128	0	0	0
0.000177511	0	0	0
0.00017763	0	0	0
0.000178096	0	0	0
0.000178214	0	0	0
0.000179001	0	0	0
0.000181318	0	0	0
0.000181717	0	0	0
0.000182274	0	0	0
0.000182298	0	0	0
0.000182562	0	0	0
0.000183075	0	0	0
0.000183584	0	0	0
0.000183886	0	0	0
0.000183937	0	0	0
0.000183979	0	0	0
0.000184817	0	0	0
0.000185653	0	0	0
0.00018589	0	0	0
0.000187103	0	0	0
0.000187766	0	0	0
0.000188319	0	0	0
0.000189327	0	0	0
0.000189573	0	0	0
0.000190198	0	0	0
0.000190907	0	0	0
0.000191761	0	0	0
0.000191995	0	0	0
0.000192067	0	0	0
0.000192603	0	0	0
0.000193022	0	0	0
0.000193203	0	0	0
0.000193293	0	0	0
0.000193411	0	0	0
0.000193784	0	0	0
0.000194135	0	0	0
0.000194261	0	0	0
0.000195043	0	0	0
0.00019615	0	0	0
0.000198467	0	0	0
0.000199402	0	0	0
0.000200517	0	0	0
0.000200624	0	0	0
0.000200658	0	0	0
0.000201656	0	0	0
0.00020233	0	0	0
0.000202476	0	0	0
0.000202715	0	0	0
0.000204173	0	0	0
0.000204979	0	0	0
0.000205291	0	0	0
0.000205555	0	0	0
0.000207056	0	0	0
0.000207849	0	0	0
0.000207989	0	0	0
0.000210533	0	0	0
0.000212437	0	0	0
0.000212846	0	0	0
0.000214624	0	0	0
0.000215165	0	0	0
0.000216935	0	0	0
0.000217748	0	0	0
0.000217968	0	0	0
0.000219442	0	0	0
0.000221241	0	0	0
0.000222012	0	0	0
0.000222702	0	0	0
0.000222809	0	0	0
0.000222844	0	0	0
0.000223319	0	0	0
0.000224501	0	0	0
0.000225413	0	0	0
0.000225691	0	0	0
0.000226699	0	0	0
0.000226777	0	0	0
0.000226929	0	0	0
0.000227492	0	0	0
0.000228742	0	0	0
0.000231058	0	0	0
0.000231787	0	0	0
0.00023219	0	0	0
0.00023236	0	0	0
0.000232747	0	0	0
0.000233177	0	0	0
0.000235289	0	0	0
0.000235417	0	0	0
0.000239079	0	0	0
0.000240313	0	0	0
0.000241466	0	0	0
0.000242443	0	0	0
0.000242546	0	0	0
0.000243106	0	0	0
0.0002442	0	0	0
0.000244399	0	0	0
0.00024444	0	0	0
0.000244938	0	0	0
0.000245684	0	0	0
0.000246559	0	0	0
0.000246736	0	0	0
0.000247518	0	0	0
0.000248289	0	0	0
0.000248713	0	0	0
0.000248947	0	0	0
0.000249375	0	0	0
0.000249657	0	0	0
0.000249921	0	0	0
0.000254866	0	0	0
0.00025635	0	0	0
0.000256999	0	0	0
0.000259069	0	0	0
0.000259155	0	0	0
0.000259803	0	0	0
0.000260261	0	0	0
0.000262522	0	0	0
0.000262575	0	0	0
0.000263358	0	0	0
0.000264366	0	0	0
0.00026578	0	0	0
0.000266711	0	0	0
0.000267093	0	0	0
0.000268031	0	0	0
0.000268719	0	0	0
0.000269577	0	0	0
0.000271983	0	0	0
0.000277638	0	0	0
0.000279369	0	0	0
0.000281087	0	0	0
0.000281595	0	0	0
0.000283379	0	0	0
0.000283749	0	0	0
0.000284021	0	0	0
0.000284862	0	0	0
0.000285723	0	0	0
0.000285921	0	0	0
0.000286207	0	0	0
0.000287657	0	0	0
0.000287889	0	0	0
0.000287924	0	0	0
0.000288528	0	0	0
0.000289357	0	0	0
0.000290374	0	0	0
0.000292417	0	0	0
0.000294108	0	0	0
0.000294287	0	0	0
0.000295591	0	0	0
0.000297945	0	0	0
0.000298886	0	0	0
0.000299391	0	0	0
0.000299463	0	0	0
0.00030349	0	0	0
0.000303631	0	0	0
0.000306185	0	0	0
0.000307353	0	0	0
0.0003095	0	0	0
0.000311536	0	0	0
0.000314527	0	0	0
0.000316322	0	0	0
0.000316828	0	0	0
0.000317715	0	0	0
0.000319895	0	0	0
0.000320328	0	0	0
0.000325649	0	0	0
0.000326469	0	0	0
0.000326736	0	0	0
0.000327993	0	0	0
0.000330481	0	0	0
0.000330676	0	0	0
0.000331613	0	0	0
0.000332505	0	0	0
0.000332697	0	0	0
0.000333348	0	0	0
0.000337106	0	0	0
0.000339238	0	0	0
0.000339504	0	0	0
0.000340196	0	0	0
0.00034087	0	0	0
0.000342046	0	0	0
0.000343139	0	0	0
0.000344976	0	0	0
0.00034898	0	0	0
0.000352239	0	0	0
0.000352691	0	0	0
0.000353701	0	0	0
0.000355214	0	0	0
0.000355853	0	0	0
0.000355991	0	0	0
0.00035921	0	0	0
0.000359514	0	0	0
0.000359588	0	0	0
0.000360921	0	0	0
0.000361099	0	0	0
0.00036131	0	0	0
0.00036223	0	0	0
0.000362735	0	0	0
0.000363543	0	0	0
0.000365488	0	0	0
0.000368097	0	0	0
0.000368324	0	0	0
0.000368429	0	0	0
0.000370179	0	0	0
0.000370324	0	0	0
0.000370384	0	0	0
0.000373351	0	0	0
0.000374281	0	0	0
0.00037717	0	0	0
0.000378753	0	0	0
0.000381672	0	0	0
0.000382574	0	0	0
0.000387198	0	0	0
0.000390199	0	0	0
0.000392765	0	0	0
0.000394742	0	0	0
0.000395954	0	0	0
0.000396291	0	0	0
0.000396711	0	0	0
0.00039842	0	0	0
0.000401325	0	0	0
0.000404042	0	0	0
0.000404292	0	0	0
0.000406199	0	0	0
0.000408248	0	0	0
0.000408293	0	0	0
0.000408357	0	0	0
0.000414442	0	0	0
0.000417174	0	0	0
0.000417941	0	0	0
0.000418627	0	0	0
0.000420514	0	0	0
0.000421881	0	0	0
0.000424347	0	0	0
0.000430645	0	0	0
0.000431761	0	0	0
0.000432639	0	0	0
0.000433698	0	0	0
0.000435491	0	0	0
0.000436361	0	0	0
0.000438115	0	0	0
0.0004385	0	0	0
0.00044003	0	0	0
0.000462813	0	0	0
0.000463712	0	0	0
0.00047289	0	0	0
0.000475477	0	0	0
0.000481358	0	0	0
0.000481398	0	0	0
0.000482161	0	0	0
0.000487729	0	0	0
0.000497379	0	0	0
0.000501495	0	0	0
0.000508598	0	0	0
0.000518037	0	0	0
0.000531909	0	0	0
0.000532061	0	0	0
0.000536183	0	0	0
0.000563218	0	0	0
0.000564434	0	0	0
0.000574518	0	0	0
0.000575475	0	0	0
0.00057627	0	0	0
0.000580381	0	0	0
0.000583727	0	0	0
0.000597737	0	0	0
0.000600087	0	0	0
0.000604655	0	0	0
0.000612565	0	0	0
0.000612819	0	0	0
0.000617367	0	0	0
0.000634029	0	0	0
0.000654105	0	0	0
0.000657337	0	0	0
0.000683954	0	0	0
0.000688487	0	0	0
0.00069371	0	0	0
0.000708139	0	0	0
0.000708691	0	0	0
0.0007285	0	0	0
0.000729497	0	0	0
0.000745308	0	0	0
0.000773917	0	0	0
0.000780643	0	0	0
0.000810127	0	0	0
0.000831974	0	0	0
0.000879383	0	0	0
0.000978189	0	0	0
0.0010056	0	0	0
0.00120875	0	0	0
0.001411	0	0	0
0.00143427	0	0	0
