3.38577e-08	0	0	0
2.18294e-07	0	0	0
2.60402e-07	0	0	0
2.81701e-07	0	0	0
4.87621e-07	0	0	0
5.798e-07	0	0	0
6.0171e-07	0	0	0
8.60936e-07	0	0	0
8.81626e-07	0	0	0
1.00754e-06	0	0	0
1.21804e-06	0	0	0
1.34378e-06	0	0	0
1.64887e-06	0	0	0
1.73107e-06	0	0	0
1.76225e-06	0	0	0
1.86561e-06	0	0	0
1.98256e-06	0	0	0
1.9917e-06	0	0	0
2.01591e-06	0	0	0
2.19366e-06	0	0	0
2.26137e-06	0	0	0
2.28491e-06	0	0	0
2.30652e-06	0	0	0
2.33922e-06	0	0	0
2.35937e-06	0	0	0
2.57465e-06	0	0	0
2.7437e-06	0	0	0
2.74892e-06	0	0	0
2.90581e-06	0	0	0
2.90982e-06	0	0	0
2.92212e-06	0	0	0
3.1164e-06	0	0	0
3.28971e-06	0	0	0
3.45781e-06	0	0	0
3.51541e-06	0	0	0
3.82517e-06	0	0	0
3.96534e-06	0	0	0
4.08181e-06	0	0	0
4.09644e-06	0	0	0
4.1944e-06	0	0	0
4.20886e-06	0	0	0
4.43908e-06	0	0	0
4.56775e-06	0	0	0
4.57676e-06	0	0	0
4.57941e-06	0	0	0
4.82467e-06	0	0	0
5.00535e-06	0	0	0
5.14601e-06	0	0	0
5.36386e-06	0	0	0
5.37784e-06	0	0	0
5.61209e-06	0	0	0
5.77792e-06	0	0	0
5.95121e-06	0	0	0
6.03491e-06	0	0	0
6.06484e-06	0	0	0
6.23309e-06	0	0	0
6.38061e-06	0	0	0
6.41706e-06	0	0	0
6.53849e-06	0	0	0
6.6039e-06	0	0	0
6.74755e-06	0	0	0
6.78745e-06	0	0	0
6.92025e-06	0	0	0
6.93882e-06	0	0	0
7.31421e-06	0	0	0
7.34727e-06	0	0	0
7.43645e-06	0	0	0
7.46443e-06	0	0	0
7.52566e-06	0	0	0
7.57692e-06	0	0	0
7.59261e-06	0	0	0
7.64963e-06	0	0	0
7.79647e-06	0	0	0
7.86328e-06	0	0	0
7.87304e-06	0	0	0
8.03921e-06	0	0	0
8.1775e-06	0	0	0
8.18398e-06	0	0	0
8.29563e-06	0	0	0
8.74226e-06	0	0	0
8.84092e-06	0	0	0
9.11774e-06	0	0	0
9.23398e-06	0	0	0
9.24556e-06	0	0	0
9.35119e-06	0	0	0
9.41618e-06	0	0	0
9.43013e-06	0	0	0
9.45793e-06	0	0	0
9.5273e-06	0	0	0
9.53698e-06	0	0	0
9.70805e-06	0	0	0
9.76033e-06	0	0	0
1.00816e-05	0	0	0
1.02094e-05	0	0	0
1.05603e-05	0	0	0
1.06426e-05	0	0	0
1.06618e-05	0	0	0
1.07444e-05	0	0	0
1.08828e-05	0	0	0
1.09091e-05	0	0	0
1.09294e-05	0	0	0
1.11252e-05	0	0	0
1.12206e-05	0	0	0
1.13294e-05	0	0	0
1.13517e-05	0	0	0
1.14058e-05	0	0	0
1.14712e-05	0	0	0
1.14934e-05	0	0	0
1.1576e-05	0	0	0
1.1584e-05	0	0	0
1.17086e-05	0	0	0
1.17519e-05	0	0	0
1.17677e-05	0	0	0
1.20156e-05	0	0	0
1.21973e-05	0	0	0
1.21998e-05	0	0	0
1.22037e-05	0	0	0
1.23465e-05	0	0	0
1.24245e-05	0	0	0
1.24534e-05	0	0	0
1.24855e-05	0	0	0
1.25393e-05	0	0	0
1.26138e-05	0	0	0
1.26565e-05	0	0	0
1.28736e-05	0	0	0
1.30018e-05	0	0	0
1.33437e-05	0	0	0
1.346e-05	0	0	0
1.3679e-05	0	0	0
1.37747e-05	0	0	0
1.40911e-05	0	0	0
1.41244e-05	0	0	0
1.41365e-05	0	0	0
1.44794e-05	0	0	0
1.45154e-05	0	0	0
1.4765e-05	0	0	0
1.48118e-05	0	0	0
1.48498e-05	0	0	0
1.49682e-05	0	0	0
1.51139e-05	0	0	0
1.52328e-05	0	0	0
1.53213e-05	0	0	0
1.53347e-05	0	0	0
1.54088e-05	0	0	0
1.54408e-05	0	0	0
1.54691e-05	0	0	0
1.57537e-05	0	0	0
1.57789e-05	0	0	0
1.5828e-05	0	0	0
1.59228e-05	0	0	0
1.61038e-05	0	0	0
1.61048e-05	0	0	0
1.6357e-05	0	0	0
1.63579e-05	0	0	0
1.64627e-05	0	0	0
1.65111e-05	0	0	0
1.71186e-05	0	0	0
1.72251e-05	0	0	0
1.74559e-05	0	0	0
1.74669e-05	0	0	0
1.75466e-05	0	0	0
1.77476e-05	0	0	0
1.81684e-05	0	0	0
1.81766e-05	0	0	0
1.81805e-05	0	0	0
1.82394e-05	0	0	0
1.83366e-05	0	0	0
1.83854e-05	0	0	0
1.85991e-05	0	0	0
1.89487e-05	0	0	0
1.89537e-05	0	0	0
1.90943e-05	0	0	0
1.91587e-05	0	0	0
1.91987e-05	0	0	0
1.93196e-05	0	0	0
1.93834e-05	0	0	0
1.96817e-05	0	0	0
1.98025e-05	0	0	0
1.99911e-05	0	0	0
2.00157e-05	0	0	0
2.01325e-05	0	0	0
2.01727e-05	0	0	0
2.02682e-05	0	0	0
2.05857e-05	0	0	0
2.05901e-05	0	0	0
2.06923e-05	0	0	0
2.10006e-05	0	0	0
2.13775e-05	0	0	0
2.15004e-05	0	0	0
2.15786e-05	0	0	0
2.16184e-05	0	0	0
2.16408e-05	0	0	0
2.17123e-05	0	0	0
2.21752e-05	0	0	0
2.25437e-05	0	0	0
2.26257e-05	0	0	0
2.26434e-05	0	0	0
2.2665e-05	0	0	0
2.26667e-05	0	0	0
2.26978e-05	0	0	0
2.27105e-05	0	0	0
2.28411e-05	0	0	0
2.29985e-05	0	0	0
2.3076e-05	0	0	0
2.31415e-05	0	0	0
2.31662e-05	0	0	0
2.32808e-05	0	0	0
2.37554e-05	0	0	0
2.40663e-05	0	0	0
2.41144e-05	0	0	0
2.44747e-05	0	0	0
2.4476e-05	0	0	0
2.45773e-05	0	0	0
2.48365e-05	0	0	0
2.4856e-05	0	0	0
2.48794e-05	0	0	0
2.50509e-05	0	0	0
2.51358e-05	0	0	0
2.51412e-05	0	0	0
2.52393e-05	0	0	0
2.5281e-05	0	0	0
2.55392e-05	0	0	0
2.55422e-05	0	0	0
2.55611e-05	0	0	0
2.55819e-05	0	0	0
2.57821e-05	0	0	0
2.58777e-05	0	0	0
2.65157e-05	0	0	0
2.65752e-05	0	0	0
2.69952e-05	0	0	0
2.70521e-05	0	0	0
2.70916e-05	0	0	0
2.71986e-05	0	0	0
2.72867e-05	0	0	0
2.74443e-05	0	0	0
2.76633e-05	0	0	0
2.81046e-05	0	0	0
2.81406e-05	0	0	0
2.8239e-05	0	0	0
2.82528e-05	0	0	0
2.84838e-05	0	0	0
2.85245e-05	0	0	0
2.85982e-05	0	0	0
2.86846e-05	0	0	0
2.87079e-05	0	0	0
2.87637e-05	0	0	0
2.88711e-05	0	0	0
2.90888e-05	0	0	0
2.92275e-05	0	0	0
2.94505e-05	0	0	0
2.94771e-05	0	0	0
2.94788e-05	0	0	0
2.99263e-05	0	0	0
3.01459e-05	0	0	0
3.01702e-05	0	0	0
3.01716e-05	0	0	0
3.04337e-05	0	0	0
3.04412e-05	0	0	0
3.0715e-05	0	0	0
3.08382e-05	0	0	0
3.10134e-05	0	0	0
3.11778e-05	0	0	0
3.12252e-05	0	0	0
3.1701e-05	0	0	0
3.17386e-05	0	0	0
3.18223e-05	0	0	0
3.18989e-05	0	0	0
3.19158e-05	0	0	0
3.20948e-05	0	0	0
3.23902e-05	0	0	0
3.24502e-05	0	0	0
3.26728e-05	0	0	0
3.3239e-05	0	0	0
3.34776e-05	0	0	0
3.34838e-05	0	0	0
3.37598e-05	0	0	0
3.38532e-05	0	0	0
3.40746e-05	0	0	0
3.42118e-05	0	0	0
3.42749e-05	0	0	0
3.43495e-05	0	0	0
3.44167e-05	0	0	0
3.46044e-05	0	0	0
3.48477e-05	0	0	0
3.51868e-05	0	0	0
3.52501e-05	0	0	0
3.53771e-05	0	0	0
3.5379e-05	0	0	0
3.56072e-05	0	0	0
3.62068e-05	0	0	0
3.63457e-05	0	0	0
3.65209e-05	0	0	0
3.6552e-05	0	0	0
3.67726e-05	0	0	0
3.69705e-05	0	0	0
3.7308e-05	0	0	0
3.74646e-05	0	0	0
3.74649e-05	0	0	0
3.7628e-05	0	0	0
3.77293e-05	0	0	0
3.78556e-05	0	0	0
3.83343e-05	0	0	0
3.84668e-05	0	0	0
3.88866e-05	0	0	0
3.89785e-05	0	0	0
4.00341e-05	0	0	0
4.0333e-05	0	0	0
4.06449e-05	0	0	0
4.08396e-05	0	0	0
4.08441e-05	0	0	0
4.09815e-05	0	0	0
4.11052e-05	0	0	0
4.12487e-05	0	0	0
4.16794e-05	0	0	0
4.18568e-05	0	0	0
4.21025e-05	0	0	0
4.29127e-05	0	0	0
4.29373e-05	0	0	0
4.30501e-05	0	0	0
4.32768e-05	0	0	0
4.33883e-05	0	0	0
4.35613e-05	0	0	0
4.36102e-05	0	0	0
4.37292e-05	0	0	0
4.38894e-05	0	0	0
4.39586e-05	0	0	0
4.39996e-05	0	0	0
4.40832e-05	0	0	0
4.43528e-05	0	0	0
4.45551e-05	0	0	0
4.45914e-05	0	0	0
4.46373e-05	0	0	0
4.48866e-05	0	0	0
4.50673e-05	0	0	0
4.50703e-05	0	0	0
4.50784e-05	0	0	0
4.51151e-05	0	0	0
4.5488e-05	0	0	0
4.57084e-05	0	0	0
4.60961e-05	0	0	0
4.62241e-05	0	0	0
4.62749e-05	0	0	0
4.69009e-05	0	0	0
4.69761e-05	0	0	0
4.70417e-05	0	0	0
4.76575e-05	0	0	0
4.79252e-05	0	0	0
4.81298e-05	0	0	0
4.81899e-05	0	0	0
4.83101e-05	0	0	0
4.86016e-05	0	0	0
4.86187e-05	0	0	0
4.88045e-05	0	0	0
4.89616e-05	0	0	0
4.91497e-05	0	0	0
4.93833e-05	0	0	0
4.9924e-05	0	0	0
4.99327e-05	0	0	0
5.00608e-05	0	0	0
5.01492e-05	0	0	0
5.02868e-05	0	0	0
5.02961e-05	0	0	0
5.04151e-05	0	0	0
5.06346e-05	0	0	0
5.0797e-05	0	0	0
5.11376e-05	0	0	0
5.12996e-05	0	0	0
5.14265e-05	0	0	0
5.16548e-05	0	0	0
5.16797e-05	0	0	0
5.17483e-05	0	0	0
5.18057e-05	0	0	0
5.21439e-05	0	0	0
5.28241e-05	0	0	0
5.29544e-05	0	0	0
5.29955e-05	0	0	0
5.32669e-05	0	0	0
5.33211e-05	0	0	0
5.34237e-05	0	0	0
5.38149e-05	0	0	0
5.4132e-05	0	0	0
5.41772e-05	0	0	0
5.45708e-05	0	0	0
5.45903e-05	0	0	0
5.47985e-05	0	0	0
5.48157e-05	0	0	0
5.51628e-05	0	0	0
5.609e-05	0	0	0
5.63241e-05	0	0	0
5.65461e-05	0	0	0
5.66949e-05	0	0	0
5.69257e-05	0	0	0
5.69564e-05	0	0	0
5.73343e-05	0	0	0
5.75544e-05	0	0	0
5.75889e-05	0	0	0
5.77736e-05	0	0	0
5.79188e-05	0	0	0
5.79922e-05	0	0	0
5.81289e-05	0	0	0
5.83852e-05	0	0	0
5.88021e-05	0	0	0
5.8896e-05	0	0	0
5.89158e-05	0	0	0
5.90232e-05	0	0	0
5.90768e-05	0	0	0
5.9173e-05	0	0	0
5.93695e-05	0	0	0
5.94429e-05	0	0	0
5.94611e-05	0	0	0
5.94849e-05	0	0	0
6.0025e-05	0	0	0
6.01688e-05	0	0	0
6.02873e-05	0	0	0
6.03715e-05	0	0	0
6.04334e-05	0	0	0
6.04539e-05	0	0	0
6.05058e-05	0	0	0
6.05082e-05	0	0	0
6.06024e-05	0	0	0
6.08755e-05	0	0	0
6.0977e-05	0	0	0
6.11019e-05	0	0	0
6.11375e-05	0	0	0
6.11628e-05	0	0	0
6.13375e-05	0	0	0
6.16633e-05	0	0	0
6.16807e-05	0	0	0
6.24099e-05	0	0	0
6.26975e-05	0	0	0
6.29899e-05	0	0	0
6.30097e-05	0	0	0
6.30408e-05	0	0	0
6.37951e-05	0	0	0
6.44011e-05	0	0	0
6.44075e-05	0	0	0
6.44563e-05	0	0	0
6.44987e-05	0	0	0
6.48488e-05	0	0	0
6.51633e-05	0	0	0
6.53289e-05	0	0	0
6.54952e-05	0	0	0
6.54999e-05	0	0	0
6.55074e-05	0	0	0
6.57822e-05	0	0	0
6.62383e-05	0	0	0
6.6409e-05	0	0	0
6.67479e-05	0	0	0
6.7165e-05	0	0	0
6.73089e-05	0	0	0
6.73297e-05	0	0	0
6.73675e-05	0	0	0
6.73885e-05	0	0	0
6.80016e-05	0	0	0
6.80546e-05	0	0	0
6.82835e-05	0	0	0
6.83681e-05	0	0	0
6.8882e-05	0	0	0
6.89875e-05	0	0	0
6.92629e-05	0	0	0
6.9355e-05	0	0	0
6.94956e-05	0	0	0
6.97113e-05	0	0	0
6.99979e-05	0	0	0
7.01684e-05	0	0	0
7.02239e-05	0	0	0
7.03083e-05	0	0	0
7.0557e-05	0	0	0
7.07286e-05	0	0	0
7.09681e-05	0	0	0
7.14455e-05	0	0	0
7.17767e-05	0	0	0
7.22715e-05	0	0	0
7.22733e-05	0	0	0
7.37261e-05	0	0	0
7.37567e-05	0	0	0
7.39235e-05	0	0	0
7.39415e-05	0	0	0
7.42716e-05	0	0	0
7.44677e-05	0	0	0
7.5018e-05	0	0	0
7.51146e-05	0	0	0
7.56718e-05	0	0	0
7.64182e-05	0	0	0
7.66158e-05	0	0	0
7.67923e-05	0	0	0
7.67969e-05	0	0	0
7.69675e-05	0	0	0
7.69947e-05	0	0	0
7.69973e-05	0	0	0
7.70056e-05	0	0	0
7.71925e-05	0	0	0
7.73303e-05	0	0	0
7.73375e-05	0	0	0
7.74916e-05	0	0	0
7.76112e-05	0	0	0
7.76882e-05	0	0	0
7.77202e-05	0	0	0
7.79826e-05	0	0	0
7.82097e-05	0	0	0
7.85926e-05	0	0	0
7.86609e-05	0	0	0
7.87935e-05	0	0	0
7.90561e-05	0	0	0
7.90919e-05	0	0	0
7.9124e-05	0	0	0
7.92883e-05	0	0	0
7.95662e-05	0	0	0
7.986e-05	0	0	0
7.99631e-05	0	0	0
7.99975e-05	0	0	0
8.04863e-05	0	0	0
8.05112e-05	0	0	0
8.07124e-05	0	0	0
8.08075e-05	0	0	0
8.08086e-05	0	0	0
8.1085e-05	0	0	0
8.11542e-05	0	0	0
8.13229e-05	0	0	0
8.13601e-05	0	0	0
8.14339e-05	0	0	0
8.15883e-05	0	0	0
8.19142e-05	0	0	0
8.21939e-05	0	0	0
8.24117e-05	0	0	0
8.26388e-05	0	0	0
8.43404e-05	0	0	0
8.51109e-05	0	0	0
8.5466e-05	0	0	0
8.57504e-05	0	0	0
8.59318e-05	0	0	0
8.61588e-05	0	0	0
8.62253e-05	0	0	0
8.64146e-05	0	0	0
8.65847e-05	0	0	0
8.66407e-05	0	0	0
8.69145e-05	0	0	0
8.72813e-05	0	0	0
8.72854e-05	0	0	0
8.73833e-05	0	0	0
8.76376e-05	0	0	0
8.77143e-05	0	0	0
8.79033e-05	0	0	0
8.8327e-05	0	0	0
8.85144e-05	0	0	0
8.85314e-05	0	0	0
8.85435e-05	0	0	0
8.88329e-05	0	0	0
8.93667e-05	0	0	0
8.96485e-05	0	0	0
8.9781e-05	0	0	0
8.98043e-05	0	0	0
8.99241e-05	0	0	0
9.0263e-05	0	0	0
9.04763e-05	0	0	0
9.08023e-05	0	0	0
9.12084e-05	0	0	0
9.17256e-05	0	0	0
9.17998e-05	0	0	0
9.23453e-05	0	0	0
9.30128e-05	0	0	0
9.32077e-05	0	0	0
9.38688e-05	0	0	0
9.48005e-05	0	0	0
9.48621e-05	0	0	0
9.50272e-05	0	0	0
9.5291e-05	0	0	0
9.54428e-05	0	0	0
9.54737e-05	0	0	0
9.55197e-05	0	0	0
9.61457e-05	0	0	0
9.62441e-05	0	0	0
9.65935e-05	0	0	0
9.66749e-05	0	0	0
9.69967e-05	0	0	0
9.71922e-05	0	0	0
9.73452e-05	0	0	0
9.80692e-05	0	0	0
9.81635e-05	0	0	0
9.82195e-05	0	0	0
9.8277e-05	0	0	0
9.85685e-05	0	0	0
9.87938e-05	0	0	0
9.94463e-05	0	0	0
9.95383e-05	0	0	0
0.000100067	0	0	0
0.000100468	0	0	0
0.000100669	0	0	0
0.000101026	0	0	0
0.000101074	0	0	0
0.000101121	0	0	0
0.000101472	0	0	0
0.000102451	0	0	0
0.000102541	0	0	0
0.000102705	0	0	0
0.000102832	0	0	0
0.000102935	0	0	0
0.000102957	0	0	0
0.000103625	0	0	0
0.000104083	0	0	0
0.000104344	0	0	0
0.00010524	0	0	0
0.000105911	0	0	0
0.00010613	0	0	0
0.000106576	0	0	0
0.000106955	0	0	0
0.000107417	0	0	0
0.000107438	0	0	0
0.000107611	0	0	0
0.000107862	0	0	0
0.000108379	0	0	0
0.000109057	0	0	0
0.000109507	0	0	0
0.000109682	0	0	0
0.000111116	0	0	0
0.000111545	0	0	0
0.000111598	0	0	0
0.000111859	0	0	0
0.000111865	0	0	0
0.000112235	0	0	0
0.000112346	0	0	0
0.000113132	0	0	0
0.000113361	0	0	0
0.000113609	0	0	0
0.000113874	0	0	0
0.000114021	0	0	0
0.000114403	0	0	0
0.000114634	0	0	0
0.000114679	0	0	0
0.000115184	0	0	0
0.000115661	0	0	0
0.000115768	0	0	0
0.000116022	0	0	0
0.000116249	0	0	0
0.000116463	0	0	0
0.000116599	0	0	0
0.000117868	0	0	0
0.00011839	0	0	0
0.000118451	0	0	0
0.000118655	0	0	0
0.000119559	0	0	0
0.000119608	0	0	0
0.000119685	0	0	0
0.000119853	0	0	0
0.000120678	0	0	0
0.000120878	0	0	0
0.000121575	0	0	0
0.000121712	0	0	0
0.000121778	0	0	0
0.000123122	0	0	0
0.000123796	0	0	0
0.000123902	0	0	0
0.000124492	0	0	0
0.000125593	0	0	0
0.000125613	0	0	0
0.000126035	0	0	0
0.000126361	0	0	0
0.000127246	0	0	0
0.000127492	0	0	0
0.000127536	0	0	0
0.000128645	0	0	0
0.000128854	0	0	0
0.000128954	0	0	0
0.000129143	0	0	0
0.00012923	0	0	0
0.000129316	0	0	0
0.000129475	0	0	0
0.000130221	0	0	0
0.000130309	0	0	0
0.000130416	0	0	0
0.000130717	0	0	0
0.000131092	0	0	0
0.000131614	0	0	0
0.000132082	0	0	0
0.000132096	0	0	0
0.000132257	0	0	0
0.000132283	0	0	0
0.000132833	0	0	0
0.000133396	0	0	0
0.000133915	0	0	0
0.000134115	0	0	0
0.000134895	0	0	0
0.000135265	0	0	0
0.000135327	0	0	0
0.000136236	0	0	0
0.000136442	0	0	0
0.000136693	0	0	0
0.000137125	0	0	0
0.000137429	0	0	0
0.000137488	0	0	0
0.000137614	0	0	0
0.000138045	0	0	0
0.000138083	0	0	0
0.00013821	0	0	0
0.000138819	0	0	0
0.000138988	0	0	0
0.000139763	0	0	0
0.000139908	0	0	0
0.000140288	0	0	0
0.000140609	0	0	0
0.000141085	0	0	0
0.000141711	0	0	0
0.000142295	0	0	0
0.000142585	0	0	0
0.00014326	0	0	0
0.000143624	0	0	0
0.000143649	0	0	0
0.000144201	0	0	0
0.000145482	0	0	0
0.000146907	0	0	0
0.000148332	0	0	0
0.000148541	0	0	0
0.000148927	0	0	0
0.00014918	0	0	0
0.000149285	0	0	0
0.000149478	0	0	0
0.000149751	0	0	0
0.000150138	0	0	0
0.000150808	0	0	0
0.000151089	0	0	0
0.000152762	0	0	0
0.000152923	0	0	0
0.000153081	0	0	0
0.000153091	0	0	0
0.000153163	0	0	0
0.000153719	0	0	0
0.000154343	0	0	0
0.00015562	0	0	0
0.000156446	0	0	0
0.000156644	0	0	0
0.00015721	0	0	0
0.00015722	0	0	0
0.000157763	0	0	0
0.000160013	0	0	0
0.000160546	0	0	0
0.000162469	0	0	0
0.000162547	0	0	0
0.000162672	0	0	0
0.000162943	0	0	0
0.000163077	0	0	0
0.00016434	0	0	0
0.000165559	0	0	0
0.000165619	0	0	0
0.00016624	0	0	0
0.000166875	0	0	0
0.000166898	0	0	0
0.000168126	0	0	0
0.000168507	0	0	0
0.000169393	0	0	0
0.000169697	0	0	0
0.000171327	0	0	0
0.000171861	0	0	0
0.000171915	0	0	0
0.000173384	0	0	0
0.000173748	0	0	0
0.000174495	0	0	0
0.000174847	0	0	0
0.00017702	0	0	0
0.000177923	0	0	0
0.000180498	0	0	0
0.000180644	0	0	0
0.000181376	0	0	0
0.000182121	0	0	0
0.000182697	0	0	0
0.000182978	0	0	0
0.000183045	0	0	0
0.000185595	0	0	0
0.000186755	0	0	0
0.000187044	0	0	0
0.00018727	0	0	0
0.000188186	0	0	0
0.000189505	0	0	0
0.00018975	0	0	0
0.000191677	0	0	0
0.00019237	0	0	0
0.000192542	0	0	0
0.000193274	0	0	0
0.000193492	0	0	0
0.000193902	0	0	0
0.000194455	0	0	0
0.000194707	0	0	0
0.000195134	0	0	0
0.000195258	0	0	0
0.000195673	0	0	0
0.000195966	0	0	0
0.000197355	0	0	0
0.00019769	0	0	0
0.000198144	0	0	0
0.000198279	0	0	0
0.00019862	0	0	0
0.00020203	0	0	0
0.000202214	0	0	0
0.000202577	0	0	0
0.000203485	0	0	0
0.00020362	0	0	0
0.000204016	0	0	0
0.000204522	0	0	0
0.000204805	0	0	0
0.00020507	0	0	0
0.00020508	0	0	0
0.000205415	0	0	0
0.000206153	0	0	0
0.00020653	0	0	0
0.000207276	0	0	0
0.000208507	0	0	0
0.000208985	0	0	0
0.000209281	0	0	0
0.000209303	0	0	0
0.000210184	0	0	0
0.000213016	0	0	0
0.000213364	0	0	0
0.000213447	0	0	0
0.000213528	0	0	0
0.000214237	0	0	0
0.000215986	0	0	0
0.00021702	0	0	0
0.000217879	0	0	0
0.000218631	0	0	0
0.000218983	0	0	0
0.000219233	0	0	0
0.000219598	0	0	0
0.000219713	0	0	0
0.000221167	0	0	0
0.000221383	0	0	0
0.000222321	0	0	0
0.000222452	0	0	0
0.000223695	0	0	0
0.000224276	0	0	0
0.000225319	0	0	0
0.000226009	0	0	0
0.000226528	0	0	0
0.000227924	0	0	0
0.000228244	0	0	0
0.000228848	0	0	0
0.000230404	0	0	0
0.000230577	0	0	0
0.000231657	0	0	0
0.000231744	0	0	0
0.000232047	0	0	0
0.000233275	0	0	0
0.000234219	0	0	0
0.000234607	0	0	0
0.000235012	0	0	0
0.000235708	0	0	0
0.000235898	0	0	0
0.00023682	0	0	0
0.000237458	0	0	0
0.000239354	0	0	0
0.000239729	0	0	0
0.00024061	0	0	0
0.000241503	0	0	0
0.000241928	0	0	0
0.000242166	0	0	0
0.000242245	0	0	0
0.000243429	0	0	0
0.000243759	0	0	0
0.00024481	0	0	0
0.000245482	0	0	0
0.000247096	0	0	0
0.000247267	0	0	0
0.000247807	0	0	0
0.000248505	0	0	0
0.000249246	0	0	0
0.000249433	0	0	0
0.000250153	0	0	0
0.000250849	0	0	0
0.000251879	0	0	0
0.000253569	0	0	0
0.000253854	0	0	0
0.00025393	0	0	0
0.000254695	0	0	0
0.000255085	0	0	0
0.000255836	0	0	0
0.000255959	0	0	0
0.000257244	0	0	0
0.000257567	0	0	0
0.00025846	0	0	0
0.000260872	0	0	0
0.000262251	0	0	0
0.000262258	0	0	0
0.000264264	0	0	0
0.000264438	0	0	0
0.00026517	0	0	0
0.000266019	0	0	0
0.000266639	0	0	0
0.00026848	0	0	0
0.000268553	0	0	0
0.000270925	0	0	0
0.000270971	0	0	0
0.000271225	0	0	0
0.000271372	0	0	0
0.000271706	0	0	0
0.000271783	0	0	0
0.000274411	0	0	0
0.000274605	0	0	0
0.00027628	0	0	0
0.000276371	0	0	0
0.000276905	0	0	0
0.000278866	0	0	0
0.000281292	0	0	0
0.000281804	0	0	0
0.000283618	0	0	0
0.000283912	0	0	0
0.000284157	0	0	0
0.000284264	0	0	0
0.000284658	0	0	0
0.00028572	0	0	0
0.000285938	0	0	0
0.000286487	0	0	0
0.000287758	0	0	0
0.000288419	0	0	0
0.000291409	0	0	0
0.000291793	0	0	0
0.000292295	0	0	0
0.000292809	0	0	0
0.000301011	0	0	0
0.000302561	0	0	0
0.000302675	0	0	0
0.000302759	0	0	0
0.000304014	0	0	0
0.000304359	0	0	0
0.00030518	0	0	0
0.000305702	0	0	0
0.000308094	0	0	0
0.000308196	0	0	0
0.000308308	0	0	0
0.000309192	0	0	0
0.000310101	0	0	0
0.00031641	0	0	0
0.000316635	0	0	0
0.000316752	0	0	0
0.000317319	0	0	0
0.000318759	0	0	0
0.000319285	0	0	0
0.000319335	0	0	0
0.000320098	0	0	0
0.000320868	0	0	0
0.000321564	0	0	0
0.000324661	0	0	0
0.000327655	0	0	0
0.000327864	0	0	0
0.000328136	0	0	0
0.000330827	0	0	0
0.000330973	0	0	0
0.000333779	0	0	0
0.000339116	0	0	0
0.000340482	0	0	0
0.000341968	0	0	0
0.000341987	0	0	0
0.000351435	0	0	0
0.00035232	0	0	0
0.000353225	0	0	0
0.000355073	0	0	0
0.000355203	0	0	0
0.00035545	0	0	0
0.000358111	0	0	0
0.000360091	0	0	0
0.000360296	0	0	0
0.000361071	0	0	0
0.000361771	0	0	0
0.000362138	0	0	0
0.000367296	0	0	0
0.000369441	0	0	0
0.000369586	0	0	0
0.000369788	0	0	0
0.000370318	0	0	0
0.000370866	0	0	0
0.000372191	0	0	0
0.000372531	0	0	0
0.000374252	0	0	0
0.000375413	0	0	0
0.000378212	0	0	0
0.000378446	0	0	0
0.000383169	0	0	0
0.000383372	0	0	0
0.000386105	0	0	0
0.000387498	0	0	0
0.000388403	0	0	0
0.000390389	0	0	0
0.00039262	0	0	0
0.000394051	0	0	0
0.00040215	0	0	0
0.000405727	0	0	0
0.00040746	0	0	0
0.00040814	0	0	0
0.000410304	0	0	0
0.000417521	0	0	0
0.000432258	0	0	0
0.000432325	0	0	0
0.000434304	0	0	0
0.00043439	0	0	0
0.000440338	0	0	0
0.000440434	0	0	0
0.000441002	0	0	0
0.000441406	0	0	0
0.000441807	0	0	0
0.000442887	0	0	0
0.000445089	0	0	0
0.000448503	0	0	0
0.000448998	0	0	0
0.000451592	0	0	0
0.000452586	0	0	0
0.000452827	0	0	0
0.000453894	0	0	0
0.000457493	0	0	0
0.000467806	0	0	0
0.00047018	0	0	0
0.000474838	0	0	0
0.000484941	0	0	0
0.000487411	0	0	0
0.000493395	0	0	0
0.000504654	0	0	0
0.00051052	0	0	0
0.00051708	0	0	0
0.000529617	0	0	0
0.000532839	0	0	0
0.000536547	0	0	0
0.000538925	0	0	0
0.000547225	0	0	0
0.000551682	0	0	0
0.000559753	0	0	0
0.000562916	0	0	0
0.000566615	0	0	0
0.000567917	0	0	0
0.000577926	0	0	0
0.000585709	0	0	0
0.000591528	0	0	0
0.000592688	0	0	0
0.000601247	0	0	0
0.00060201	0	0	0
0.000616372	0	0	0
0.00063199	0	0	0
0.000637268	0	0	0
0.00063952	0	0	0
0.000656218	0	0	0
0.000682368	0	0	0
0.000695494	0	0	0
0.000701711	0	0	0
0.00071627	0	0	0
0.000753304	0	0	0
0.000764829	0	0	0
0.00076737	0	0	0
0.000782678	0	0	0
0.000801466	0	0	0
0.000823713	0	0	0
0.000837338	0	0	0
0.000842511	0	0	0
0.000897375	0	0	0
0.0008976	0	0	0
0.00146754	0	0	0
0.00175973	0	0	0
0.00187444	0	0	0
0.00238131	0	0	0
