1.73993e-07	0	0	0
2.10749e-07	0	0	0
2.67461e-07	0	0	0
2.68507e-07	0	0	0
4.39129e-07	0	0	0
4.99681e-07	0	0	0
5.50462e-07	0	0	0
6.01738e-07	0	0	0
8.43755e-07	0	0	0
8.8709e-07	0	0	0
9.7581e-07	0	0	0
1.11856e-06	0	0	0
1.12178e-06	0	0	0
1.17904e-06	0	0	0
1.20177e-06	0	0	0
1.46167e-06	0	0	0
1.72092e-06	0	0	0
1.89335e-06	0	0	0
2.20596e-06	0	0	0
2.31521e-06	0	0	0
2.50131e-06	0	0	0
2.51175e-06	0	0	0
2.56388e-06	0	0	0
2.60215e-06	0	0	0
2.70892e-06	0	0	0
2.82839e-06	0	0	0
2.96264e-06	0	0	0
3.02151e-06	0	0	0
3.23499e-06	0	0	0
3.41326e-06	0	0	0
3.71204e-06	0	0	0
3.79352e-06	0	0	0
3.80111e-06	0	0	0
4.07109e-06	0	0	0
4.82551e-06	0	0	0
4.8936e-06	0	0	0
5.78487e-06	0	0	0
5.83042e-06	0	0	0
5.91168e-06	0	0	0
6.18654e-06	0	0	0
6.3132e-06	0	0	0
6.46918e-06	0	0	0
6.48846e-06	0	0	0
6.50655e-06	0	0	0
6.612e-06	0	0	0
6.78341e-06	0	0	0
6.81884e-06	0	0	0
6.84003e-06	0	0	0
6.92388e-06	0	0	0
7.23663e-06	0	0	0
7.31562e-06	0	0	0
7.80336e-06	0	0	0
8.08217e-06	0	0	0
8.42263e-06	0	0	0
8.57077e-06	0	0	0
8.88586e-06	0	0	0
8.902e-06	0	0	0
8.90524e-06	0	0	0
8.93391e-06	0	0	0
9.09503e-06	0	0	0
9.18852e-06	0	0	0
9.65077e-06	0	0	0
9.71857e-06	0	0	0
9.84538e-06	0	0	0
9.86997e-06	0	0	0
9.90513e-06	0	0	0
9.96263e-06	0	0	0
1.0099e-05	0	0	0
1.04108e-05	0	0	0
1.04294e-05	0	0	0
1.05173e-05	0	0	0
1.05992e-05	0	0	0
1.06322e-05	0	0	0
1.07355e-05	0	0	0
1.09039e-05	0	0	0
1.09245e-05	0	0	0
1.10367e-05	0	0	0
1.10694e-05	0	0	0
1.12913e-05	0	0	0
1.1396e-05	0	0	0
1.1478e-05	0	0	0
1.15192e-05	0	0	0
1.15521e-05	0	0	0
1.17859e-05	0	0	0
1.21253e-05	0	0	0
1.22557e-05	0	0	0
1.22572e-05	0	0	0
1.23306e-05	0	0	0
1.23818e-05	0	0	0
1.25757e-05	0	0	0
1.27271e-05	0	0	0
1.27302e-05	0	0	0
1.27794e-05	0	0	0
1.28713e-05	0	0	0
1.29144e-05	0	0	0
1.3362e-05	0	0	0
1.38845e-05	0	0	0
1.39159e-05	0	0	0
1.40278e-05	0	0	0
1.44708e-05	0	0	0
1.45247e-05	0	0	0
1.45658e-05	0	0	0
1.46322e-05	0	0	0
1.47804e-05	0	0	0
1.49765e-05	0	0	0
1.51324e-05	0	0	0
1.52176e-05	0	0	0
1.54692e-05	0	0	0
1.5472e-05	0	0	0
1.54887e-05	0	0	0
1.57143e-05	0	0	0
1.58745e-05	0	0	0
1.59507e-05	0	0	0
1.62672e-05	0	0	0
1.63804e-05	0	0	0
1.67938e-05	0	0	0
1.68609e-05	0	0	0
1.69123e-05	0	0	0
1.70032e-05	0	0	0
1.70476e-05	0	0	0
1.71664e-05	0	0	0
1.7467e-05	0	0	0
1.75829e-05	0	0	0
1.76177e-05	0	0	0
1.76857e-05	0	0	0
1.78562e-05	0	0	0
1.79771e-05	0	0	0
1.79896e-05	0	0	0
1.81568e-05	0	0	0
1.8427e-05	0	0	0
1.87072e-05	0	0	0
1.90595e-05	0	0	0
1.91875e-05	0	0	0
1.94066e-05	0	0	0
1.95329e-05	0	0	0
1.97272e-05	0	0	0
1.98053e-05	0	0	0
2.00609e-05	0	0	0
2.02919e-05	0	0	0
2.03326e-05	0	0	0
2.05388e-05	0	0	0
2.05707e-05	0	0	0
2.0917e-05	0	0	0
2.10297e-05	0	0	0
2.1082e-05	0	0	0
2.11651e-05	0	0	0
2.1565e-05	0	0	0
2.1614e-05	0	0	0
2.16205e-05	0	0	0
2.16343e-05	0	0	0
2.16589e-05	0	0	0
2.1699e-05	0	0	0
2.17744e-05	0	0	0
2.18518e-05	0	0	0
2.21192e-05	0	0	0
2.29819e-05	0	0	0
2.34333e-05	0	0	0
2.34751e-05	0	0	0
2.36672e-05	0	0	0
2.36963e-05	0	0	0
2.38195e-05	0	0	0
2.38785e-05	0	0	0
2.39337e-05	0	0	0
2.40859e-05	0	0	0
2.4223e-05	0	0	0
2.43908e-05	0	0	0
2.47769e-05	0	0	0
2.50206e-05	0	0	0
2.50471e-05	0	0	0
2.53884e-05	0	0	0
2.54877e-05	0	0	0
2.54938e-05	0	0	0
2.55564e-05	0	0	0
2.56415e-05	0	0	0
2.60279e-05	0	0	0
2.60293e-05	0	0	0
2.60434e-05	0	0	0
2.60646e-05	0	0	0
2.60828e-05	0	0	0
2.60969e-05	0	0	0
2.67695e-05	0	0	0
2.68585e-05	0	0	0
2.69617e-05	0	0	0
2.74011e-05	0	0	0
2.74716e-05	0	0	0
2.74841e-05	0	0	0
2.75828e-05	0	0	0
2.79574e-05	0	0	0
2.8086e-05	0	0	0
2.8338e-05	0	0	0
2.83588e-05	0	0	0
2.89996e-05	0	0	0
2.90146e-05	0	0	0
2.90635e-05	0	0	0
2.92533e-05	0	0	0
2.99114e-05	0	0	0
3.03479e-05	0	0	0
3.03751e-05	0	0	0
3.08097e-05	0	0	0
3.10783e-05	0	0	0
3.14883e-05	0	0	0
3.15695e-05	0	0	0
3.17425e-05	0	0	0
3.20942e-05	0	0	0
3.24856e-05	0	0	0
3.25553e-05	0	0	0
3.25984e-05	0	0	0
3.26266e-05	0	0	0
3.28903e-05	0	0	0
3.30424e-05	0	0	0
3.32077e-05	0	0	0
3.36813e-05	0	0	0
3.38774e-05	0	0	0
3.40991e-05	0	0	0
3.47289e-05	0	0	0
3.47872e-05	0	0	0
3.48117e-05	0	0	0
3.48998e-05	0	0	0
3.50102e-05	0	0	0
3.53305e-05	0	0	0
3.53384e-05	0	0	0
3.54874e-05	0	0	0
3.56723e-05	0	0	0
3.57683e-05	0	0	0
3.58326e-05	0	0	0
3.59092e-05	0	0	0
3.62613e-05	0	0	0
3.65191e-05	0	0	0
3.66744e-05	0	0	0
3.69413e-05	0	0	0
3.69587e-05	0	0	0
3.76049e-05	0	0	0
3.76991e-05	0	0	0
3.77004e-05	0	0	0
3.79946e-05	0	0	0
3.89399e-05	0	0	0
3.9003e-05	0	0	0
3.9107e-05	0	0	0
3.95616e-05	0	0	0
3.99569e-05	0	0	0
3.99731e-05	0	0	0
3.998e-05	0	0	0
4.01375e-05	0	0	0
4.01922e-05	0	0	0
4.02239e-05	0	0	0
4.06906e-05	0	0	0
4.08232e-05	0	0	0
4.10266e-05	0	0	0
4.12759e-05	0	0	0
4.14562e-05	0	0	0
4.16839e-05	0	0	0
4.17314e-05	0	0	0
4.19213e-05	0	0	0
4.19476e-05	0	0	0
4.22932e-05	0	0	0
4.25223e-05	0	0	0
4.25265e-05	0	0	0
4.3145e-05	0	0	0
4.33043e-05	0	0	0
4.35762e-05	0	0	0
4.35974e-05	0	0	0
4.39009e-05	0	0	0
4.49302e-05	0	0	0
4.50216e-05	0	0	0
4.59881e-05	0	0	0
4.61132e-05	0	0	0
4.61568e-05	0	0	0
4.65969e-05	0	0	0
4.67767e-05	0	0	0
4.70473e-05	0	0	0
4.78742e-05	0	0	0
4.80089e-05	0	0	0
4.80655e-05	0	0	0
4.82805e-05	0	0	0
4.86191e-05	0	0	0
4.87848e-05	0	0	0
4.88142e-05	0	0	0
4.89039e-05	0	0	0
4.9163e-05	0	0	0
4.93335e-05	0	0	0
4.93665e-05	0	0	0
4.94633e-05	0	0	0
4.95041e-05	0	0	0
4.99305e-05	0	0	0
5.03393e-05	0	0	0
5.08617e-05	0	0	0
5.0942e-05	0	0	0
5.17826e-05	0	0	0
5.21783e-05	0	0	0
5.2275e-05	0	0	0
5.23342e-05	0	0	0
5.24064e-05	0	0	0
5.26892e-05	0	0	0
5.27428e-05	0	0	0
5.3373e-05	0	0	0
5.34596e-05	0	0	0
5.38998e-05	0	0	0
5.40335e-05	0	0	0
5.42001e-05	0	0	0
5.42933e-05	0	0	0
5.43414e-05	0	0	0
5.4719e-05	0	0	0
5.54346e-05	0	0	0
5.54639e-05	0	0	0
5.56694e-05	0	0	0
5.5775e-05	0	0	0
5.57921e-05	0	0	0
5.63654e-05	0	0	0
5.66567e-05	0	0	0
5.69271e-05	0	0	0
5.69917e-05	0	0	0
5.71962e-05	0	0	0
5.72479e-05	0	0	0
5.75418e-05	0	0	0
5.78073e-05	0	0	0
5.79099e-05	0	0	0
5.80332e-05	0	0	0
5.85793e-05	0	0	0
5.87335e-05	0	0	0
5.92509e-05	0	0	0
5.95306e-05	0	0	0
6.04016e-05	0	0	0
6.1052e-05	0	0	0
6.19681e-05	0	0	0
6.24007e-05	0	0	0
6.24792e-05	0	0	0
6.2683e-05	0	0	0
6.2786e-05	0	0	0
6.28417e-05	0	0	0
6.30084e-05	0	0	0
6.36461e-05	0	0	0
6.37724e-05	0	0	0
6.3855e-05	0	0	0
6.42624e-05	0	0	0
6.43595e-05	0	0	0
6.49331e-05	0	0	0
6.49919e-05	0	0	0
6.5371e-05	0	0	0
6.54773e-05	0	0	0
6.54875e-05	0	0	0
6.64889e-05	0	0	0
6.70012e-05	0	0	0
6.74146e-05	0	0	0
6.79534e-05	0	0	0
6.82465e-05	0	0	0
6.83884e-05	0	0	0
6.88381e-05	0	0	0
6.92204e-05	0	0	0
6.99904e-05	0	0	0
7.01646e-05	0	0	0
7.03953e-05	0	0	0
7.16705e-05	0	0	0
7.18693e-05	0	0	0
7.20058e-05	0	0	0
7.2107e-05	0	0	0
7.22726e-05	0	0	0
7.26054e-05	0	0	0
7.28755e-05	0	0	0
7.28974e-05	0	0	0
7.50242e-05	0	0	0
7.50923e-05	0	0	0
7.58834e-05	0	0	0
7.6534e-05	0	0	0
7.65536e-05	0	0	0
7.65573e-05	0	0	0
7.65675e-05	0	0	0
7.70953e-05	0	0	0
7.91858e-05	0	0	0
7.93144e-05	0	0	0
7.96157e-05	0	0	0
7.96262e-05	0	0	0
8.00438e-05	0	0	0
8.14972e-05	0	0	0
8.21794e-05	0	0	0
8.25325e-05	0	0	0
8.25391e-05	0	0	0
8.25671e-05	0	0	0
8.27514e-05	0	0	0
8.30551e-05	0	0	0
8.31561e-05	0	0	0
8.32884e-05	0	0	0
8.36215e-05	0	0	0
8.39859e-05	0	0	0
8.40094e-05	0	0	0
8.44926e-05	0	0	0
8.51266e-05	0	0	0
8.57374e-05	0	0	0
8.61228e-05	0	0	0
8.61444e-05	0	0	0
8.64304e-05	0	0	0
8.6657e-05	0	0	0
8.74434e-05	0	0	0
8.83349e-05	0	0	0
8.86914e-05	0	0	0
8.87333e-05	0	0	0
8.90384e-05	0	0	0
8.94212e-05	0	0	0
9.04159e-05	0	0	0
9.0561e-05	0	0	0
9.07166e-05	0	0	0
9.08872e-05	0	0	0
9.1119e-05	0	0	0
9.11626e-05	0	0	0
9.11976e-05	0	0	0
9.12423e-05	0	0	0
9.13128e-05	0	0	0
9.17233e-05	0	0	0
9.18149e-05	0	0	0
9.30921e-05	0	0	0
9.31777e-05	0	0	0
9.50494e-05	0	0	0
9.50611e-05	0	0	0
9.53463e-05	0	0	0
9.53983e-05	0	0	0
9.5444e-05	0	0	0
9.68934e-05	0	0	0
9.8014e-05	0	0	0
9.83519e-05	0	0	0
9.86903e-05	0	0	0
9.88434e-05	0	0	0
9.88808e-05	0	0	0
9.95861e-05	0	0	0
0.000100498	0	0	0
0.000100844	0	0	0
0.000101545	0	0	0
0.000101579	0	0	0
0.000101871	0	0	0
0.000102313	0	0	0
0.000102519	0	0	0
0.00010253	0	0	0
0.000102844	0	0	0
0.000102876	0	0	0
0.000103271	0	0	0
0.000103344	0	0	0
0.000103917	0	0	0
0.000104113	0	0	0
0.000104883	0	0	0
0.000104909	0	0	0
0.00010514	0	0	0
0.00010526	0	0	0
0.000105283	0	0	0
0.000105338	0	0	0
0.000105513	0	0	0
0.000106265	0	0	0
0.00010633	0	0	0
0.000106719	0	0	0
0.000106767	0	0	0
0.000107668	0	0	0
0.000108131	0	0	0
0.000110106	0	0	0
0.000110122	0	0	0
0.000110707	0	0	0
0.000111008	0	0	0
0.000111081	0	0	0
0.000111631	0	0	0
0.000112627	0	0	0
0.000112956	0	0	0
0.000113161	0	0	0
0.000114507	0	0	0
0.000114605	0	0	0
0.000114767	0	0	0
0.000114829	0	0	0
0.00011538	0	0	0
0.000115652	0	0	0
0.000116977	0	0	0
0.000117113	0	0	0
0.000117285	0	0	0
0.000117289	0	0	0
0.000117509	0	0	0
0.000117615	0	0	0
0.00011787	0	0	0
0.000118156	0	0	0
0.000118727	0	0	0
0.000118813	0	0	0
0.000119158	0	0	0
0.000119586	0	0	0
0.000119664	0	0	0
0.000120097	0	0	0
0.000120198	0	0	0
0.000120311	0	0	0
0.000120522	0	0	0
0.000120726	0	0	0
0.000121208	0	0	0
0.000121727	0	0	0
0.000121807	0	0	0
0.000122037	0	0	0
0.000122273	0	0	0
0.000123031	0	0	0
0.000123057	0	0	0
0.000123211	0	0	0
0.000124344	0	0	0
0.000125502	0	0	0
0.000125525	0	0	0
0.000125625	0	0	0
0.000126047	0	0	0
0.000126229	0	0	0
0.000126537	0	0	0
0.000126542	0	0	0
0.000127169	0	0	0
0.000127293	0	0	0
0.000127344	0	0	0
0.000128302	0	0	0
0.000128315	0	0	0
0.00012835	0	0	0
0.000128634	0	0	0
0.000129417	0	0	0
0.000130131	0	0	0
0.000130463	0	0	0
0.000130491	0	0	0
0.000132039	0	0	0
0.000132312	0	0	0
0.000132356	0	0	0
0.000132599	0	0	0
0.000132642	0	0	0
0.000132685	0	0	0
0.000133087	0	0	0
0.000133303	0	0	0
0.000133921	0	0	0
0.000135171	0	0	0
0.000137139	0	0	0
0.000137436	0	0	0
0.000138446	0	0	0
0.000140351	0	0	0
0.000140542	0	0	0
0.000140633	0	0	0
0.000141063	0	0	0
0.00014111	0	0	0
0.000141789	0	0	0
0.000142291	0	0	0
0.000142969	0	0	0
0.000143037	0	0	0
0.000143609	0	0	0
0.000144039	0	0	0
0.000145338	0	0	0
0.000145517	0	0	0
0.000145978	0	0	0
0.000146158	0	0	0
0.000147684	0	0	0
0.0001481	0	0	0
0.00014857	0	0	0
0.000149395	0	0	0
0.000149631	0	0	0
0.000151004	0	0	0
0.000151099	0	0	0
0.000151137	0	0	0
0.000151247	0	0	0
0.000152257	0	0	0
0.000154351	0	0	0
0.000155598	0	0	0
0.000155799	0	0	0
0.000155818	0	0	0
0.000156738	0	0	0
0.000160176	0	0	0
0.000160324	0	0	0
0.000160956	0	0	0
0.000161204	0	0	0
0.000161848	0	0	0
0.000162574	0	0	0
0.000162783	0	0	0
0.000163026	0	0	0
0.000163064	0	0	0
0.000165056	0	0	0
0.00016584	0	0	0
0.000166235	0	0	0
0.00016693	0	0	0
0.000167397	0	0	0
0.000168342	0	0	0
0.000168993	0	0	0
0.000169287	0	0	0
0.000169665	0	0	0
0.000170104	0	0	0
0.000170323	0	0	0
0.000172946	0	0	0
0.000173211	0	0	0
0.000173294	0	0	0
0.000173808	0	0	0
0.000174952	0	0	0
0.000177655	0	0	0
0.00017773	0	0	0
0.000178092	0	0	0
0.000178447	0	0	0
0.000178926	0	0	0
0.000179626	0	0	0
0.000180425	0	0	0
0.000184557	0	0	0
0.000184747	0	0	0
0.000185304	0	0	0
0.000186326	0	0	0
0.00018696	0	0	0
0.00018919	0	0	0
0.00018928	0	0	0
0.000189472	0	0	0
0.000194552	0	0	0
0.000195561	0	0	0
0.000195582	0	0	0
0.00019616	0	0	0
0.000197271	0	0	0
0.00019846	0	0	0
0.000198993	0	0	0
0.000199677	0	0	0
0.000200229	0	0	0
0.000200365	0	0	0
0.000200698	0	0	0
0.000202711	0	0	0
0.000203497	0	0	0
0.000203967	0	0	0
0.00020617	0	0	0
0.000206864	0	0	0
0.00020844	0	0	0
0.000208763	0	0	0
0.000209669	0	0	0
0.000212077	0	0	0
0.000213809	0	0	0
0.000214448	0	0	0
0.000214877	0	0	0
0.00021515	0	0	0
0.000216452	0	0	0
0.000217417	0	0	0
0.000218573	0	0	0
0.000218734	0	0	0
0.00021926	0	0	0
0.000219846	0	0	0
0.000220326	0	0	0
0.000220484	0	0	0
0.000221072	0	0	0
0.000221935	0	0	0
0.000222587	0	0	0
0.000225413	0	0	0
0.000225657	0	0	0
0.000226888	0	0	0
0.000228792	0	0	0
0.000229726	0	0	0
0.000230185	0	0	0
0.000230919	0	0	0
0.000231169	0	0	0
0.000232352	0	0	0
0.00023321	0	0	0
0.000234727	0	0	0
0.000234872	0	0	0
0.000236853	0	0	0
0.000238614	0	0	0
0.000239647	0	0	0
0.000243371	0	0	0
0.000243911	0	0	0
0.000244189	0	0	0
0.000244347	0	0	0
0.000246288	0	0	0
0.00024767	0	0	0
0.000247868	0	0	0
0.000248367	0	0	0
0.00024903	0	0	0
0.000249548	0	0	0
0.000250541	0	0	0
0.000251907	0	0	0
0.00025405	0	0	0
0.000254253	0	0	0
0.000254923	0	0	0
0.000255129	0	0	0
0.000255805	0	0	0
0.000256601	0	0	0
0.000257095	0	0	0
0.000257287	0	0	0
0.000257584	0	0	0
0.000257643	0	0	0
0.000258109	0	0	0
0.00025841	0	0	0
0.000258668	0	0	0
0.000259778	0	0	0
0.000259783	0	0	0
0.000260105	0	0	0
0.000261247	0	0	0
0.000261323	0	0	0
0.000262174	0	0	0
0.000262278	0	0	0
0.000262755	0	0	0
0.000263037	0	0	0
0.000263064	0	0	0
0.000268525	0	0	0
0.000269622	0	0	0
0.000270483	0	0	0
0.000270546	0	0	0
0.000270709	0	0	0
0.000271464	0	0	0
0.000272766	0	0	0
0.000272949	0	0	0
0.000274226	0	0	0
0.000276407	0	0	0
0.000277308	0	0	0
0.000277566	0	0	0
0.000280701	0	0	0
0.000281068	0	0	0
0.000282446	0	0	0
0.000283775	0	0	0
0.000288291	0	0	0
0.000290571	0	0	0
0.000291533	0	0	0
0.00029243	0	0	0
0.000292787	0	0	0
0.000295135	0	0	0
0.000295898	0	0	0
0.000296889	0	0	0
0.000300206	0	0	0
0.000300947	0	0	0
0.000307206	0	0	0
0.000307912	0	0	0
0.000309488	0	0	0
0.000312798	0	0	0
0.000315705	0	0	0
0.000315872	0	0	0
0.000316851	0	0	0
0.000318126	0	0	0
0.000318906	0	0	0
0.000320015	0	0	0
0.000324583	0	0	0
0.000325294	0	0	0
0.00032544	0	0	0
0.000334913	0	0	0
0.000335277	0	0	0
0.000338109	0	0	0
0.000338203	0	0	0
0.000342737	0	0	0
0.000343071	0	0	0
0.000345632	0	0	0
0.000346848	0	0	0
0.000355725	0	0	0
0.000365525	0	0	0
0.000367017	0	0	0
0.00036763	0	0	0
0.000367802	0	0	0
0.00036792	0	0	0
0.000369596	0	0	0
0.000370788	0	0	0
0.000372508	0	0	0
0.000377731	0	0	0
0.000377752	0	0	0
0.000378889	0	0	0
0.000379952	0	0	0
0.000380568	0	0	0
0.000384505	0	0	0
0.000384715	0	0	0
0.000389514	0	0	0
0.000395166	0	0	0
0.000406984	0	0	0
0.000412226	0	0	0
0.000419115	0	0	0
0.00043841	0	0	0
0.000443533	0	0	0
0.000448253	0	0	0
0.000449408	0	0	0
0.000456766	0	0	0
0.000461667	0	0	0
0.000461719	0	0	0
0.000469863	0	0	0
0.000477565	0	0	0
0.000478275	0	0	0
0.000478614	0	0	0
0.00049524	0	0	0
0.000495505	0	0	0
0.000499845	0	0	0
0.000510334	0	0	0
0.000532621	0	0	0
0.000534779	0	0	0
0.000542155	0	0	0
0.000544345	0	0	0
0.000559125	0	0	0
0.000561704	0	0	0
0.000565339	0	0	0
0.000569187	0	0	0
0.000573351	0	0	0
0.0005948	0	0	0
0.000616095	0	0	0
0.000631106	0	0	0
0.000634061	0	0	0
0.000638331	0	0	0
0.000639717	0	0	0
0.000652325	0	0	0
0.000653364	0	0	0
0.000658139	0	0	0
0.000660001	0	0	0
0.000661653	0	0	0
0.000680388	0	0	0
0.000716796	0	0	0
0.000783274	0	0	0
0.000829974	0	0	0
0.000849947	0	0	0
0.000858802	0	0	0
0.000928936	0	0	0
0.000986773	0	0	0
0.00100604	0	0	0
0.00112737	0	0	0
0.00114791	0	0	0
0.00128876	0	0	0
