3.97501e-07	0	0	0
6.85351e-07	0	0	0
7.53689e-07	0	0	0
1.15103e-06	0	0	0
1.17714e-06	0	0	0
1.21364e-06	0	0	0
1.26423e-06	0	0	0
1.26439e-06	0	0	0
1.27025e-06	0	0	0
1.28371e-06	0	0	0
1.93095e-06	0	0	0
1.99158e-06	0	0	0
2.12304e-06	0	0	0
2.15373e-06	0	0	0
2.32247e-06	0	0	0
2.47257e-06	0	0	0
2.73382e-06	0	0	0
2.74857e-06	0	0	0
2.75429e-06	0	0	0
2.99351e-06	0	0	0
3.00444e-06	0	0	0
3.14435e-06	0	0	0
3.23827e-06	0	0	0
3.34397e-06	0	0	0
3.43877e-06	0	0	0
3.55773e-06	0	0	0
3.65334e-06	0	0	0
3.6924e-06	0	0	0
3.96291e-06	0	0	0
4.05237e-06	0	0	0
4.13016e-06	0	0	0
4.23881e-06	0	0	0
4.27676e-06	0	0	0
4.30107e-06	0	0	0
4.32627e-06	0	0	0
4.39476e-06	0	0	0
4.62469e-06	0	0	0
5.09273e-06	0	0	0
5.12566e-06	0	0	0
5.15276e-06	0	0	0
5.24837e-06	0	0	0
5.48038e-06	0	0	0
5.79599e-06	0	0	0
5.98745e-06	0	0	0
6.37936e-06	0	0	0
6.52189e-06	0	0	0
6.84773e-06	0	0	0
6.95657e-06	0	0	0
7.05295e-06	0	0	0
7.17276e-06	0	0	0
7.20183e-06	0	0	0
7.2142e-06	0	0	0
7.48279e-06	0	0	0
7.48671e-06	0	0	0
7.83705e-06	0	0	0
7.9472e-06	0	0	0
8.1937e-06	0	0	0
8.43639e-06	0	0	0
8.51871e-06	0	0	0
8.52961e-06	0	0	0
8.65492e-06	0	0	0
8.73896e-06	0	0	0
8.87682e-06	0	0	0
9.01787e-06	0	0	0
9.04449e-06	0	0	0
9.29079e-06	0	0	0
9.71088e-06	0	0	0
9.91177e-06	0	0	0
1.0001e-05	0	0	0
1.03208e-05	0	0	0
1.05791e-05	0	0	0
1.06432e-05	0	0	0
1.06647e-05	0	0	0
1.11206e-05	0	0	0
1.11496e-05	0	0	0
1.12204e-05	0	0	0
1.12608e-05	0	0	0
1.15588e-05	0	0	0
1.15949e-05	0	0	0
1.17768e-05	0	0	0
1.19916e-05	0	0	0
1.21947e-05	0	0	0
1.23727e-05	0	0	0
1.23972e-05	0	0	0
1.25577e-05	0	0	0
1.2681e-05	0	0	0
1.2727e-05	0	0	0
1.29834e-05	0	0	0
1.30143e-05	0	0	0
1.31104e-05	0	0	0
1.33398e-05	0	0	0
1.34863e-05	0	0	0
1.44589e-05	0	0	0
1.46204e-05	0	0	0
1.46792e-05	0	0	0
1.48429e-05	0	0	0
1.50182e-05	0	0	0
1.50564e-05	0	0	0
1.526e-05	0	0	0
1.55178e-05	0	0	0
1.56397e-05	0	0	0
1.59317e-05	0	0	0
1.64607e-05	0	0	0
1.66725e-05	0	0	0
1.69564e-05	0	0	0
1.70929e-05	0	0	0
1.71541e-05	0	0	0
1.73136e-05	0	0	0
1.75182e-05	0	0	0
1.77615e-05	0	0	0
1.79615e-05	0	0	0
1.84343e-05	0	0	0
1.86566e-05	0	0	0
1.8674e-05	0	0	0
1.89569e-05	0	0	0
1.91704e-05	0	0	0
1.93089e-05	0	0	0
1.96543e-05	0	0	0
1.98061e-05	0	0	0
1.98153e-05	0	0	0
1.99107e-05	0	0	0
2.00956e-05	0	0	0
2.03091e-05	0	0	0
2.03125e-05	0	0	0
2.05786e-05	0	0	0
2.06694e-05	0	0	0
2.07765e-05	0	0	0
2.08788e-05	0	0	0
2.11723e-05	0	0	0
2.17875e-05	0	0	0
2.2193e-05	0	0	0
2.24085e-05	0	0	0
2.24637e-05	0	0	0
2.27246e-05	0	0	0
2.3016e-05	0	0	0
2.30625e-05	0	0	0
2.30703e-05	0	0	0
2.38935e-05	0	0	0
2.39049e-05	0	0	0
2.3947e-05	0	0	0
2.3989e-05	0	0	0
2.42048e-05	0	0	0
2.43079e-05	0	0	0
2.45424e-05	0	0	0
2.50812e-05	0	0	0
2.51137e-05	0	0	0
2.524e-05	0	0	0
2.53964e-05	0	0	0
2.5912e-05	0	0	0
2.66612e-05	0	0	0
2.67958e-05	0	0	0
2.72721e-05	0	0	0
2.78014e-05	0	0	0
2.79034e-05	0	0	0
2.80454e-05	0	0	0
2.80852e-05	0	0	0
2.81404e-05	0	0	0
2.89653e-05	0	0	0
2.9139e-05	0	0	0
2.92833e-05	0	0	0
2.94737e-05	0	0	0
2.96523e-05	0	0	0
2.97546e-05	0	0	0
3.01447e-05	0	0	0
3.04015e-05	0	0	0
3.07311e-05	0	0	0
3.10004e-05	0	0	0
3.11781e-05	0	0	0
3.17354e-05	0	0	0
3.19676e-05	0	0	0
3.20184e-05	0	0	0
3.22013e-05	0	0	0
3.23023e-05	0	0	0
3.23123e-05	0	0	0
3.26711e-05	0	0	0
3.30739e-05	0	0	0
3.32551e-05	0	0	0
3.37736e-05	0	0	0
3.38254e-05	0	0	0
3.40094e-05	0	0	0
3.429e-05	0	0	0
3.44696e-05	0	0	0
3.47059e-05	0	0	0
3.48227e-05	0	0	0
3.48431e-05	0	0	0
3.51665e-05	0	0	0
3.53967e-05	0	0	0
3.55202e-05	0	0	0
3.60362e-05	0	0	0
3.62302e-05	0	0	0
3.64085e-05	0	0	0
3.64462e-05	0	0	0
3.67311e-05	0	0	0
3.68424e-05	0	0	0
3.68444e-05	0	0	0
3.69472e-05	0	0	0
3.7125e-05	0	0	0
3.82874e-05	0	0	0
3.83627e-05	0	0	0
3.83984e-05	0	0	0
3.84411e-05	0	0	0
3.88049e-05	0	0	0
3.88378e-05	0	0	0
3.88639e-05	0	0	0
3.91424e-05	0	0	0
3.95088e-05	0	0	0
3.98805e-05	0	0	0
3.98938e-05	0	0	0
4.00892e-05	0	0	0
4.01276e-05	0	0	0
4.05159e-05	0	0	0
4.07529e-05	0	0	0
4.10181e-05	0	0	0
4.10601e-05	0	0	0
4.10934e-05	0	0	0
4.11254e-05	0	0	0
4.12833e-05	0	0	0
4.17399e-05	0	0	0
4.20025e-05	0	0	0
4.20205e-05	0	0	0
4.24103e-05	0	0	0
4.24703e-05	0	0	0
4.24829e-05	0	0	0
4.25574e-05	0	0	0
4.29377e-05	0	0	0
4.29733e-05	0	0	0
4.31027e-05	0	0	0
4.31722e-05	0	0	0
4.33409e-05	0	0	0
4.3706e-05	0	0	0
4.40676e-05	0	0	0
4.41942e-05	0	0	0
4.43796e-05	0	0	0
4.45741e-05	0	0	0
4.53709e-05	0	0	0
4.58196e-05	0	0	0
4.58339e-05	0	0	0
4.60744e-05	0	0	0
4.63099e-05	0	0	0
4.63323e-05	0	0	0
4.64368e-05	0	0	0
4.65863e-05	0	0	0
4.70239e-05	0	0	0
4.70545e-05	0	0	0
4.7081e-05	0	0	0
4.78074e-05	0	0	0
4.79127e-05	0	0	0
4.85479e-05	0	0	0
4.87034e-05	0	0	0
4.91473e-05	0	0	0
4.93889e-05	0	0	0
4.95964e-05	0	0	0
4.96508e-05	0	0	0
5.00344e-05	0	0	0
5.09878e-05	0	0	0
5.1247e-05	0	0	0
5.13803e-05	0	0	0
5.13966e-05	0	0	0
5.14994e-05	0	0	0
5.17646e-05	0	0	0
5.18363e-05	0	0	0
5.21821e-05	0	0	0
5.22638e-05	0	0	0
5.23294e-05	0	0	0
5.23928e-05	0	0	0
5.26911e-05	0	0	0
5.27581e-05	0	0	0
5.28233e-05	0	0	0
5.32396e-05	0	0	0
5.33848e-05	0	0	0
5.37913e-05	0	0	0
5.38929e-05	0	0	0
5.42444e-05	0	0	0
5.43096e-05	0	0	0
5.45297e-05	0	0	0
5.46625e-05	0	0	0
5.5432e-05	0	0	0
5.54931e-05	0	0	0
5.55047e-05	0	0	0
5.57449e-05	0	0	0
5.59302e-05	0	0	0
5.63439e-05	0	0	0
5.63823e-05	0	0	0
5.65439e-05	0	0	0
5.67137e-05	0	0	0
5.78166e-05	0	0	0
5.78484e-05	0	0	0
5.82414e-05	0	0	0
5.86121e-05	0	0	0
5.94616e-05	0	0	0
5.95831e-05	0	0	0
5.96092e-05	0	0	0
5.9625e-05	0	0	0
5.96564e-05	0	0	0
6.10113e-05	0	0	0
6.10258e-05	0	0	0
6.15175e-05	0	0	0
6.17061e-05	0	0	0
6.17115e-05	0	0	0
6.23912e-05	0	0	0
6.27417e-05	0	0	0
6.31205e-05	0	0	0
6.31984e-05	0	0	0
6.37098e-05	0	0	0
6.43818e-05	0	0	0
6.43966e-05	0	0	0
6.44601e-05	0	0	0
6.47563e-05	0	0	0
6.48874e-05	0	0	0
6.49793e-05	0	0	0
6.57462e-05	0	0	0
6.60442e-05	0	0	0
6.61382e-05	0	0	0
6.62331e-05	0	0	0
6.64437e-05	0	0	0
6.67075e-05	0	0	0
6.69745e-05	0	0	0
6.73183e-05	0	0	0
6.79133e-05	0	0	0
6.82199e-05	0	0	0
6.87259e-05	0	0	0
6.89229e-05	0	0	0
6.89519e-05	0	0	0
6.9125e-05	0	0	0
7.04002e-05	0	0	0
7.06605e-05	0	0	0
7.19275e-05	0	0	0
7.25487e-05	0	0	0
7.25531e-05	0	0	0
7.29086e-05	0	0	0
7.30441e-05	0	0	0
7.31545e-05	0	0	0
7.32671e-05	0	0	0
7.37337e-05	0	0	0
7.37891e-05	0	0	0
7.41792e-05	0	0	0
7.42931e-05	0	0	0
7.45118e-05	0	0	0
7.53639e-05	0	0	0
7.56305e-05	0	0	0
7.70359e-05	0	0	0
7.72579e-05	0	0	0
7.73064e-05	0	0	0
7.74306e-05	0	0	0
7.82238e-05	0	0	0
7.83307e-05	0	0	0
7.88736e-05	0	0	0
7.92591e-05	0	0	0
7.98901e-05	0	0	0
8.06101e-05	0	0	0
8.0897e-05	0	0	0
8.20268e-05	0	0	0
8.2166e-05	0	0	0
8.30986e-05	0	0	0
8.31485e-05	0	0	0
8.35883e-05	0	0	0
8.49389e-05	0	0	0
8.50596e-05	0	0	0
8.51527e-05	0	0	0
8.52946e-05	0	0	0
8.56694e-05	0	0	0
8.60973e-05	0	0	0
8.6167e-05	0	0	0
8.63232e-05	0	0	0
8.64005e-05	0	0	0
8.65149e-05	0	0	0
8.67593e-05	0	0	0
8.76662e-05	0	0	0
8.80075e-05	0	0	0
8.81045e-05	0	0	0
8.8553e-05	0	0	0
8.87625e-05	0	0	0
8.92311e-05	0	0	0
9.00243e-05	0	0	0
9.02629e-05	0	0	0
9.1189e-05	0	0	0
9.16672e-05	0	0	0
9.19617e-05	0	0	0
9.26857e-05	0	0	0
9.29032e-05	0	0	0
9.32936e-05	0	0	0
9.33879e-05	0	0	0
9.38441e-05	0	0	0
9.39373e-05	0	0	0
9.39856e-05	0	0	0
9.44769e-05	0	0	0
9.46137e-05	0	0	0
9.51853e-05	0	0	0
9.60851e-05	0	0	0
9.62119e-05	0	0	0
9.6822e-05	0	0	0
9.68308e-05	0	0	0
9.72329e-05	0	0	0
9.77211e-05	0	0	0
9.78111e-05	0	0	0
9.78838e-05	0	0	0
9.8522e-05	0	0	0
9.87221e-05	0	0	0
9.8979e-05	0	0	0
9.95156e-05	0	0	0
9.98072e-05	0	0	0
0.000100311	0	0	0
0.000100346	0	0	0
0.000101049	0	0	0
0.000101823	0	0	0
0.000101872	0	0	0
0.000102006	0	0	0
0.00010219	0	0	0
0.000102688	0	0	0
0.000103429	0	0	0
0.000104544	0	0	0
0.000105382	0	0	0
0.000107193	0	0	0
0.000107305	0	0	0
0.000109621	0	0	0
0.000110909	0	0	0
0.000111025	0	0	0
0.000111778	0	0	0
0.000112379	0	0	0
0.000113104	0	0	0
0.000113651	0	0	0
0.000114067	0	0	0
0.00011422	0	0	0
0.000114324	0	0	0
0.00011522	0	0	0
0.00011552	0	0	0
0.000115541	0	0	0
0.000116232	0	0	0
0.000117303	0	0	0
0.000117518	0	0	0
0.000118847	0	0	0
0.000118986	0	0	0
0.000119361	0	0	0
0.000119402	0	0	0
0.000119464	0	0	0
0.000122221	0	0	0
0.000123393	0	0	0
0.00012431	0	0	0
0.00012451	0	0	0
0.000124871	0	0	0
0.000124926	0	0	0
0.000127069	0	0	0
0.000128265	0	0	0
0.000128946	0	0	0
0.000130674	0	0	0
0.000130793	0	0	0
0.00013085	0	0	0
0.000130857	0	0	0
0.000131172	0	0	0
0.00013123	0	0	0
0.00013135	0	0	0
0.000131366	0	0	0
0.000132518	0	0	0
0.000132528	0	0	0
0.000133747	0	0	0
0.000133754	0	0	0
0.000134164	0	0	0
0.000134264	0	0	0
0.000134673	0	0	0
0.000134988	0	0	0
0.000135234	0	0	0
0.000135903	0	0	0
0.000135984	0	0	0
0.000136269	0	0	0
0.000136374	0	0	0
0.00013701	0	0	0
0.000137344	0	0	0
0.000137574	0	0	0
0.000137783	0	0	0
0.000139935	0	0	0
0.000140192	0	0	0
0.000140904	0	0	0
0.000141071	0	0	0
0.000141164	0	0	0
0.000141242	0	0	0
0.000141985	0	0	0
0.000142218	0	0	0
0.000142292	0	0	0
0.000144266	0	0	0
0.000144793	0	0	0
0.000145442	0	0	0
0.000147218	0	0	0
0.000147303	0	0	0
0.00014768	0	0	0
0.000148134	0	0	0
0.000149236	0	0	0
0.000149716	0	0	0
0.000150044	0	0	0
0.000151213	0	0	0
0.000151342	0	0	0
0.000151402	0	0	0
0.000152543	0	0	0
0.000152791	0	0	0
0.000153105	0	0	0
0.000155482	0	0	0
0.00015572	0	0	0
0.000156729	0	0	0
0.000157429	0	0	0
0.000157777	0	0	0
0.000158603	0	0	0
0.000159322	0	0	0
0.00015973	0	0	0
0.000160004	0	0	0
0.000161007	0	0	0
0.00016111	0	0	0
0.000161542	0	0	0
0.000162806	0	0	0
0.000163117	0	0	0
0.000163201	0	0	0
0.000165316	0	0	0
0.000165675	0	0	0
0.000167235	0	0	0
0.000167672	0	0	0
0.000167819	0	0	0
0.000168549	0	0	0
0.000169305	0	0	0
0.000169713	0	0	0
0.000169801	0	0	0
0.000170987	0	0	0
0.000171058	0	0	0
0.00017138	0	0	0
0.000172028	0	0	0
0.000173826	0	0	0
0.000173833	0	0	0
0.000174566	0	0	0
0.000174907	0	0	0
0.000175197	0	0	0
0.000176118	0	0	0
0.000178199	0	0	0
0.000178891	0	0	0
0.000181912	0	0	0
0.000181924	0	0	0
0.000183107	0	0	0
0.000183705	0	0	0
0.000185198	0	0	0
0.000185542	0	0	0
0.000186284	0	0	0
0.000186873	0	0	0
0.000186939	0	0	0
0.00018733	0	0	0
0.000192332	0	0	0
0.000194228	0	0	0
0.000194322	0	0	0
0.000194483	0	0	0
0.000194921	0	0	0
0.000195657	0	0	0
0.00019569	0	0	0
0.000196637	0	0	0
0.00019779	0	0	0
0.000198753	0	0	0
0.000199419	0	0	0
0.000199423	0	0	0
0.000199618	0	0	0
0.000200082	0	0	0
0.000200454	0	0	0
0.000201023	0	0	0
0.000202536	0	0	0
0.000202948	0	0	0
0.000203367	0	0	0
0.000203466	0	0	0
0.00020388	0	0	0
0.000205214	0	0	0
0.000207022	0	0	0
0.000208123	0	0	0
0.000208452	0	0	0
0.00021057	0	0	0
0.000210871	0	0	0
0.000212707	0	0	0
0.000213238	0	0	0
0.000214096	0	0	0
0.000215152	0	0	0
0.000215373	0	0	0
0.000217612	0	0	0
0.000218288	0	0	0
0.000218844	0	0	0
0.000219338	0	0	0
0.000219391	0	0	0
0.000220266	0	0	0
0.000220311	0	0	0
0.000225427	0	0	0
0.000226269	0	0	0
0.000228151	0	0	0
0.00022992	0	0	0
0.000230729	0	0	0
0.00023294	0	0	0
0.000234658	0	0	0
0.000235139	0	0	0
0.000235216	0	0	0
0.000237663	0	0	0
0.000240226	0	0	0
0.00024114	0	0	0
0.000242385	0	0	0
0.000244678	0	0	0
0.00024472	0	0	0
0.000244816	0	0	0
0.000245132	0	0	0
0.000249077	0	0	0
0.000249277	0	0	0
0.000249324	0	0	0
0.000250477	0	0	0
0.000252135	0	0	0
0.000254183	0	0	0
0.000255001	0	0	0
0.000256502	0	0	0
0.000258552	0	0	0
0.000258822	0	0	0
0.000261988	0	0	0
0.000262036	0	0	0
0.000265045	0	0	0
0.000265074	0	0	0
0.000266692	0	0	0
0.00026759	0	0	0
0.000269924	0	0	0
0.000270596	0	0	0
0.00027137	0	0	0
0.00027221	0	0	0
0.000272477	0	0	0
0.000273401	0	0	0
0.00027377	0	0	0
0.000273848	0	0	0
0.000274154	0	0	0
0.000275511	0	0	0
0.00027982	0	0	0
0.000280896	0	0	0
0.000281195	0	0	0
0.00028134	0	0	0
0.000282348	0	0	0
0.000282393	0	0	0
0.000285426	0	0	0
0.000286626	0	0	0
0.000288566	0	0	0
0.000288983	0	0	0
0.000290072	0	0	0
0.000290599	0	0	0
0.000294294	0	0	0
0.000294603	0	0	0
0.000294863	0	0	0
0.000297874	0	0	0
0.000305347	0	0	0
0.000305463	0	0	0
0.000307976	0	0	0
0.000308644	0	0	0
0.000310421	0	0	0
0.000315331	0	0	0
0.000315343	0	0	0
0.000318059	0	0	0
0.000318981	0	0	0
0.000319715	0	0	0
0.000320003	0	0	0
0.000320356	0	0	0
0.00032475	0	0	0
0.000333195	0	0	0
0.000334731	0	0	0
0.000336044	0	0	0
0.000336174	0	0	0
0.0003369	0	0	0
0.000339545	0	0	0
0.000352089	0	0	0
0.000352997	0	0	0
0.000353312	0	0	0
0.000356045	0	0	0
0.00035647	0	0	0
0.000357542	0	0	0
0.000362561	0	0	0
0.00036311	0	0	0
0.000363157	0	0	0
0.000365602	0	0	0
0.000367828	0	0	0
0.000368318	0	0	0
0.000369213	0	0	0
0.000370014	0	0	0
0.00037448	0	0	0
0.000376314	0	0	0
0.000381384	0	0	0
0.000389225	0	0	0
0.000389603	0	0	0
0.000398356	0	0	0
0.000416481	0	0	0
0.000417739	0	0	0
0.000426826	0	0	0
0.000436869	0	0	0
0.000438869	0	0	0
0.000444413	0	0	0
0.000445144	0	0	0
0.000469909	0	0	0
0.000473115	0	0	0
0.000474389	0	0	0
0.000477595	0	0	0
0.000483162	0	0	0
0.000485366	0	0	0
0.000496728	0	0	0
0.000500971	0	0	0
0.000504023	0	0	0
0.000505047	0	0	0
0.000509473	0	0	0
0.000517244	0	0	0
0.000520811	0	0	0
0.000533931	0	0	0
0.00054789	0	0	0
0.000553021	0	0	0
0.000555764	0	0	0
0.000559934	0	0	0
0.00056437	0	0	0
0.000575667	0	0	0
0.000599193	0	0	0
0.000599851	0	0	0
0.000620118	0	0	0
0.000625897	0	0	0
0.000638359	0	0	0
0.000644074	0	0	0
0.000723726	0	0	0
0.00078307	0	0	0
0.000807924	0	0	0
0.000854774	0	0	0
0.000858129	0	0	0
0.000861672	0	0	0
0.000870552	0	0	0
0.000890871	0	0	0
0.000980461	0	0	0
0.00101071	0	0	0
0.00106486	0	0	0
0.00115184	0	0	0
