2.66814e-07	0	0	0
6.18468e-07	0	0	0
6.51659e-07	0	0	0
7.7075e-07	0	0	0
1.04729e-06	0	0	0
1.33456e-06	0	0	0
1.50843e-06	0	0	0
1.51313e-06	0	0	0
1.83192e-06	0	0	0
1.88132e-06	0	0	0
1.92379e-06	0	0	0
1.93078e-06	0	0	0
2.15762e-06	0	0	0
2.3131e-06	0	0	0
2.37203e-06	0	0	0
2.38348e-06	0	0	0
2.41153e-06	0	0	0
2.57036e-06	0	0	0
2.89236e-06	0	0	0
3.02403e-06	0	0	0
3.26598e-06	0	0	0
3.27035e-06	0	0	0
3.33531e-06	0	0	0
3.54214e-06	0	0	0
3.59966e-06	0	0	0
3.64635e-06	0	0	0
3.69612e-06	0	0	0
3.76311e-06	0	0	0
3.76435e-06	0	0	0
3.79787e-06	0	0	0
3.95093e-06	0	0	0
3.96146e-06	0	0	0
4.08639e-06	0	0	0
4.46695e-06	0	0	0
4.76406e-06	0	0	0
4.79046e-06	0	0	0
4.86676e-06	0	0	0
5.09043e-06	0	0	0
5.15893e-06	0	0	0
5.35198e-06	0	0	0
5.37925e-06	0	0	0
5.41559e-06	0	0	0
5.45697e-06	0	0	0
5.4666e-06	0	0	0
5.79311e-06	0	0	0
5.9572e-06	0	0	0
6.29463e-06	0	0	0
6.65498e-06	0	0	0
6.71815e-06	0	0	0
6.74582e-06	0	0	0
6.87886e-06	0	0	0
7.28722e-06	0	0	0
7.34296e-06	0	0	0
7.58094e-06	0	0	0
7.7799e-06	0	0	0
7.82113e-06	0	0	0
8.26289e-06	0	0	0
8.69333e-06	0	0	0
8.77789e-06	0	0	0
9.04789e-06	0	0	0
9.07413e-06	0	0	0
9.49188e-06	0	0	0
9.7493e-06	0	0	0
9.81324e-06	0	0	0
1.03295e-05	0	0	0
1.03793e-05	0	0	0
1.04631e-05	0	0	0
1.05764e-05	0	0	0
1.05769e-05	0	0	0
1.07177e-05	0	0	0
1.07586e-05	0	0	0
1.07967e-05	0	0	0
1.11742e-05	0	0	0
1.12952e-05	0	0	0
1.1388e-05	0	0	0
1.14146e-05	0	0	0
1.14154e-05	0	0	0
1.14385e-05	0	0	0
1.16977e-05	0	0	0
1.17382e-05	0	0	0
1.18059e-05	0	0	0
1.21485e-05	0	0	0
1.25033e-05	0	0	0
1.2596e-05	0	0	0
1.29495e-05	0	0	0
1.29989e-05	0	0	0
1.30726e-05	0	0	0
1.30767e-05	0	0	0
1.30959e-05	0	0	0
1.33493e-05	0	0	0
1.33553e-05	0	0	0
1.3489e-05	0	0	0
1.36925e-05	0	0	0
1.37686e-05	0	0	0
1.38546e-05	0	0	0
1.39352e-05	0	0	0
1.40036e-05	0	0	0
1.49935e-05	0	0	0
1.50194e-05	0	0	0
1.51984e-05	0	0	0
1.52794e-05	0	0	0
1.53253e-05	0	0	0
1.55144e-05	0	0	0
1.5848e-05	0	0	0
1.59005e-05	0	0	0
1.6013e-05	0	0	0
1.61739e-05	0	0	0
1.63945e-05	0	0	0
1.66972e-05	0	0	0
1.73127e-05	0	0	0
1.76847e-05	0	0	0
1.78807e-05	0	0	0
1.79505e-05	0	0	0
1.79848e-05	0	0	0
1.80262e-05	0	0	0
1.80625e-05	0	0	0
1.81065e-05	0	0	0
1.81955e-05	0	0	0
1.82996e-05	0	0	0
1.83742e-05	0	0	0
1.83956e-05	0	0	0
1.84727e-05	0	0	0
1.85273e-05	0	0	0
1.86312e-05	0	0	0
1.87933e-05	0	0	0
1.88261e-05	0	0	0
1.88383e-05	0	0	0
1.92205e-05	0	0	0
1.92487e-05	0	0	0
1.92582e-05	0	0	0
1.9368e-05	0	0	0
1.94391e-05	0	0	0
1.98924e-05	0	0	0
1.99463e-05	0	0	0
2.00679e-05	0	0	0
2.02321e-05	0	0	0
2.04055e-05	0	0	0
2.09733e-05	0	0	0
2.10896e-05	0	0	0
2.10993e-05	0	0	0
2.11539e-05	0	0	0
2.13813e-05	0	0	0
2.17477e-05	0	0	0
2.21794e-05	0	0	0
2.23155e-05	0	0	0
2.24369e-05	0	0	0
2.26171e-05	0	0	0
2.26564e-05	0	0	0
2.29312e-05	0	0	0
2.32381e-05	0	0	0
2.33255e-05	0	0	0
2.34478e-05	0	0	0
2.36676e-05	0	0	0
2.36917e-05	0	0	0
2.3766e-05	0	0	0
2.41166e-05	0	0	0
2.42986e-05	0	0	0
2.4677e-05	0	0	0
2.47053e-05	0	0	0
2.51238e-05	0	0	0
2.55223e-05	0	0	0
2.55535e-05	0	0	0
2.62281e-05	0	0	0
2.66336e-05	0	0	0
2.70949e-05	0	0	0
2.7249e-05	0	0	0
2.74687e-05	0	0	0
2.75669e-05	0	0	0
2.78597e-05	0	0	0
2.79734e-05	0	0	0
2.80581e-05	0	0	0
2.80757e-05	0	0	0
2.81131e-05	0	0	0
2.8256e-05	0	0	0
2.84203e-05	0	0	0
2.86879e-05	0	0	0
2.87842e-05	0	0	0
2.90179e-05	0	0	0
2.90932e-05	0	0	0
2.93175e-05	0	0	0
2.99652e-05	0	0	0
3.0168e-05	0	0	0
3.04659e-05	0	0	0
3.04848e-05	0	0	0
3.06908e-05	0	0	0
3.10461e-05	0	0	0
3.11813e-05	0	0	0
3.12731e-05	0	0	0
3.15028e-05	0	0	0
3.15381e-05	0	0	0
3.17351e-05	0	0	0
3.25946e-05	0	0	0
3.25998e-05	0	0	0
3.27611e-05	0	0	0
3.29489e-05	0	0	0
3.31387e-05	0	0	0
3.33184e-05	0	0	0
3.35381e-05	0	0	0
3.35949e-05	0	0	0
3.36946e-05	0	0	0
3.37267e-05	0	0	0
3.39816e-05	0	0	0
3.46845e-05	0	0	0
3.49332e-05	0	0	0
3.50468e-05	0	0	0
3.53858e-05	0	0	0
3.54792e-05	0	0	0
3.57649e-05	0	0	0
3.58903e-05	0	0	0
3.62322e-05	0	0	0
3.62611e-05	0	0	0
3.63264e-05	0	0	0
3.63853e-05	0	0	0
3.64096e-05	0	0	0
3.64192e-05	0	0	0
3.65647e-05	0	0	0
3.7029e-05	0	0	0
3.71405e-05	0	0	0
3.79224e-05	0	0	0
3.79371e-05	0	0	0
3.8239e-05	0	0	0
3.82801e-05	0	0	0
3.85174e-05	0	0	0
3.85435e-05	0	0	0
3.87815e-05	0	0	0
3.92343e-05	0	0	0
3.92872e-05	0	0	0
3.94427e-05	0	0	0
3.95069e-05	0	0	0
3.95652e-05	0	0	0
3.99543e-05	0	0	0
4.00731e-05	0	0	0
4.01674e-05	0	0	0
4.04578e-05	0	0	0
4.05064e-05	0	0	0
4.05811e-05	0	0	0
4.07226e-05	0	0	0
4.07777e-05	0	0	0
4.09623e-05	0	0	0
4.10752e-05	0	0	0
4.13e-05	0	0	0
4.15193e-05	0	0	0
4.18746e-05	0	0	0
4.21439e-05	0	0	0
4.22061e-05	0	0	0
4.29275e-05	0	0	0
4.30047e-05	0	0	0
4.30921e-05	0	0	0
4.33733e-05	0	0	0
4.3568e-05	0	0	0
4.38707e-05	0	0	0
4.41737e-05	0	0	0
4.44255e-05	0	0	0
4.45262e-05	0	0	0
4.46299e-05	0	0	0
4.47919e-05	0	0	0
4.50864e-05	0	0	0
4.51662e-05	0	0	0
4.55571e-05	0	0	0
4.5626e-05	0	0	0
4.58611e-05	0	0	0
4.67445e-05	0	0	0
4.73982e-05	0	0	0
4.75254e-05	0	0	0
4.77325e-05	0	0	0
4.77696e-05	0	0	0
4.77756e-05	0	0	0
4.88917e-05	0	0	0
4.91429e-05	0	0	0
4.96414e-05	0	0	0
4.96637e-05	0	0	0
4.97689e-05	0	0	0
5.02144e-05	0	0	0
5.02981e-05	0	0	0
5.04054e-05	0	0	0
5.05377e-05	0	0	0
5.08614e-05	0	0	0
5.09273e-05	0	0	0
5.09392e-05	0	0	0
5.09905e-05	0	0	0
5.12048e-05	0	0	0
5.12332e-05	0	0	0
5.15109e-05	0	0	0
5.15149e-05	0	0	0
5.19152e-05	0	0	0
5.19223e-05	0	0	0
5.23188e-05	0	0	0
5.2352e-05	0	0	0
5.24536e-05	0	0	0
5.25832e-05	0	0	0
5.28161e-05	0	0	0
5.28618e-05	0	0	0
5.28908e-05	0	0	0
5.32558e-05	0	0	0
5.34275e-05	0	0	0
5.39879e-05	0	0	0
5.41029e-05	0	0	0
5.41213e-05	0	0	0
5.43077e-05	0	0	0
5.46163e-05	0	0	0
5.56614e-05	0	0	0
5.60888e-05	0	0	0
5.60915e-05	0	0	0
5.78946e-05	0	0	0
5.83563e-05	0	0	0
5.86055e-05	0	0	0
5.86366e-05	0	0	0
5.87167e-05	0	0	0
5.87381e-05	0	0	0
5.90235e-05	0	0	0
5.9814e-05	0	0	0
6.03513e-05	0	0	0
6.03853e-05	0	0	0
6.05941e-05	0	0	0
6.08454e-05	0	0	0
6.20701e-05	0	0	0
6.2383e-05	0	0	0
6.28291e-05	0	0	0
6.28571e-05	0	0	0
6.2904e-05	0	0	0
6.30397e-05	0	0	0
6.32139e-05	0	0	0
6.32345e-05	0	0	0
6.35084e-05	0	0	0
6.46346e-05	0	0	0
6.61187e-05	0	0	0
6.71516e-05	0	0	0
6.82526e-05	0	0	0
6.83124e-05	0	0	0
6.83415e-05	0	0	0
6.86278e-05	0	0	0
6.97458e-05	0	0	0
7.00217e-05	0	0	0
7.00997e-05	0	0	0
7.0608e-05	0	0	0
7.07725e-05	0	0	0
7.08415e-05	0	0	0
7.15896e-05	0	0	0
7.17219e-05	0	0	0
7.26907e-05	0	0	0
7.26985e-05	0	0	0
7.32454e-05	0	0	0
7.36732e-05	0	0	0
7.46903e-05	0	0	0
7.54601e-05	0	0	0
7.58542e-05	0	0	0
7.60421e-05	0	0	0
7.66897e-05	0	0	0
7.67822e-05	0	0	0
7.70612e-05	0	0	0
7.74365e-05	0	0	0
7.76741e-05	0	0	0
7.77636e-05	0	0	0
7.83539e-05	0	0	0
7.85427e-05	0	0	0
7.88906e-05	0	0	0
7.93553e-05	0	0	0
7.95082e-05	0	0	0
7.95187e-05	0	0	0
7.98607e-05	0	0	0
8.01274e-05	0	0	0
8.02606e-05	0	0	0
8.03591e-05	0	0	0
8.0743e-05	0	0	0
8.08298e-05	0	0	0
8.08436e-05	0	0	0
8.14098e-05	0	0	0
8.18299e-05	0	0	0
8.23939e-05	0	0	0
8.24769e-05	0	0	0
8.25057e-05	0	0	0
8.26451e-05	0	0	0
8.39193e-05	0	0	0
8.42339e-05	0	0	0
8.45928e-05	0	0	0
8.46958e-05	0	0	0
8.46978e-05	0	0	0
8.53509e-05	0	0	0
8.74281e-05	0	0	0
8.79327e-05	0	0	0
8.8325e-05	0	0	0
8.87868e-05	0	0	0
8.89611e-05	0	0	0
8.89937e-05	0	0	0
8.92992e-05	0	0	0
8.94895e-05	0	0	0
8.94948e-05	0	0	0
8.96556e-05	0	0	0
8.98717e-05	0	0	0
9.03581e-05	0	0	0
9.09634e-05	0	0	0
9.10149e-05	0	0	0
9.30135e-05	0	0	0
9.34166e-05	0	0	0
9.36442e-05	0	0	0
9.37156e-05	0	0	0
9.37688e-05	0	0	0
9.40569e-05	0	0	0
9.41462e-05	0	0	0
9.43321e-05	0	0	0
9.47472e-05	0	0	0
9.49482e-05	0	0	0
9.57948e-05	0	0	0
9.6243e-05	0	0	0
9.63508e-05	0	0	0
9.66061e-05	0	0	0
9.66801e-05	0	0	0
9.78866e-05	0	0	0
9.86029e-05	0	0	0
9.86725e-05	0	0	0
9.88262e-05	0	0	0
9.9167e-05	0	0	0
9.92044e-05	0	0	0
9.94733e-05	0	0	0
9.97358e-05	0	0	0
9.98443e-05	0	0	0
0.000100067	0	0	0
0.000100067	0	0	0
0.000100658	0	0	0
0.00010085	0	0	0
0.000101019	0	0	0
0.000101986	0	0	0
0.000102187	0	0	0
0.000102276	0	0	0
0.000103892	0	0	0
0.000104024	0	0	0
0.000104329	0	0	0
0.00010662	0	0	0
0.000107161	0	0	0
0.000107769	0	0	0
0.000107951	0	0	0
0.000108695	0	0	0
0.000108782	0	0	0
0.000109247	0	0	0
0.000110348	0	0	0
0.000110409	0	0	0
0.000111599	0	0	0
0.000111714	0	0	0
0.000112316	0	0	0
0.000112694	0	0	0
0.000114447	0	0	0
0.000114651	0	0	0
0.000115849	0	0	0
0.000116676	0	0	0
0.000118498	0	0	0
0.000118526	0	0	0
0.000118856	0	0	0
0.000118897	0	0	0
0.000119169	0	0	0
0.000119834	0	0	0
0.000120358	0	0	0
0.000120862	0	0	0
0.000121879	0	0	0
0.000122267	0	0	0
0.000122427	0	0	0
0.00012253	0	0	0
0.000122705	0	0	0
0.000124768	0	0	0
0.000126168	0	0	0
0.000126372	0	0	0
0.00012642	0	0	0
0.000127755	0	0	0
0.000128826	0	0	0
0.000130245	0	0	0
0.000130474	0	0	0
0.00013052	0	0	0
0.000133299	0	0	0
0.000134025	0	0	0
0.000134191	0	0	0
0.000134495	0	0	0
0.000135756	0	0	0
0.000136742	0	0	0
0.000136905	0	0	0
0.000137645	0	0	0
0.00013848	0	0	0
0.000138667	0	0	0
0.000140073	0	0	0
0.000140693	0	0	0
0.00014172	0	0	0
0.000142986	0	0	0
0.00014357	0	0	0
0.000144067	0	0	0
0.000146162	0	0	0
0.000147149	0	0	0
0.000147473	0	0	0
0.000147488	0	0	0
0.00014907	0	0	0
0.000149229	0	0	0
0.000149398	0	0	0
0.000149474	0	0	0
0.0001497	0	0	0
0.000149739	0	0	0
0.000150987	0	0	0
0.000151066	0	0	0
0.000151197	0	0	0
0.000151703	0	0	0
0.000151917	0	0	0
0.000152377	0	0	0
0.000152588	0	0	0
0.000154712	0	0	0
0.000154717	0	0	0
0.00015509	0	0	0
0.00015562	0	0	0
0.000155761	0	0	0
0.000155783	0	0	0
0.000155901	0	0	0
0.000157145	0	0	0
0.000158401	0	0	0
0.000159638	0	0	0
0.000160096	0	0	0
0.000160559	0	0	0
0.000161925	0	0	0
0.000161983	0	0	0
0.000162055	0	0	0
0.000162082	0	0	0
0.000163127	0	0	0
0.000163717	0	0	0
0.000163924	0	0	0
0.00016443	0	0	0
0.000165888	0	0	0
0.000166382	0	0	0
0.000168754	0	0	0
0.000169742	0	0	0
0.000169887	0	0	0
0.000170333	0	0	0
0.000170371	0	0	0
0.000171766	0	0	0
0.000172277	0	0	0
0.000172284	0	0	0
0.000172922	0	0	0
0.000173241	0	0	0
0.000173683	0	0	0
0.000173755	0	0	0
0.000175083	0	0	0
0.000178683	0	0	0
0.000181591	0	0	0
0.000181905	0	0	0
0.00018248	0	0	0
0.000184881	0	0	0
0.000184965	0	0	0
0.00018705	0	0	0
0.000188633	0	0	0
0.00018945	0	0	0
0.000191491	0	0	0
0.000191808	0	0	0
0.000192926	0	0	0
0.000193693	0	0	0
0.000193983	0	0	0
0.000193986	0	0	0
0.000194313	0	0	0
0.000195502	0	0	0
0.00019684	0	0	0
0.000197819	0	0	0
0.000197873	0	0	0
0.000198182	0	0	0
0.000198737	0	0	0
0.000199019	0	0	0
0.000199641	0	0	0
0.000200245	0	0	0
0.000201763	0	0	0
0.000202421	0	0	0
0.000205296	0	0	0
0.000206969	0	0	0
0.000206976	0	0	0
0.000207337	0	0	0
0.000212673	0	0	0
0.000215546	0	0	0
0.000216051	0	0	0
0.000218517	0	0	0
0.000221096	0	0	0
0.000221738	0	0	0
0.000221847	0	0	0
0.000223708	0	0	0
0.000224428	0	0	0
0.000224766	0	0	0
0.000226968	0	0	0
0.000229406	0	0	0
0.000230305	0	0	0
0.000232425	0	0	0
0.000232866	0	0	0
0.000233149	0	0	0
0.0002333	0	0	0
0.000233404	0	0	0
0.00023345	0	0	0
0.000238528	0	0	0
0.000239898	0	0	0
0.000243329	0	0	0
0.000244324	0	0	0
0.000244703	0	0	0
0.000246573	0	0	0
0.000248771	0	0	0
0.00025189	0	0	0
0.000253455	0	0	0
0.000255201	0	0	0
0.000255297	0	0	0
0.000255799	0	0	0
0.000255994	0	0	0
0.000257327	0	0	0
0.000262223	0	0	0
0.000263791	0	0	0
0.000267157	0	0	0
0.000267377	0	0	0
0.000270017	0	0	0
0.000276254	0	0	0
0.000276521	0	0	0
0.00027715	0	0	0
0.0002833	0	0	0
0.00028543	0	0	0
0.000288446	0	0	0
0.000291376	0	0	0
0.000295165	0	0	0
0.000297586	0	0	0
0.000298178	0	0	0
0.000305689	0	0	0
0.000310549	0	0	0
0.000315195	0	0	0
0.000319269	0	0	0
0.000320619	0	0	0
0.000329923	0	0	0
0.00033027	0	0	0
0.000331933	0	0	0
0.000332136	0	0	0
0.000336471	0	0	0
0.000340649	0	0	0
0.000340746	0	0	0
0.000345758	0	0	0
0.000350382	0	0	0
0.000358954	0	0	0
0.000362839	0	0	0
0.000364266	0	0	0
0.000371851	0	0	0
0.000372451	0	0	0
0.000372731	0	0	0
0.000374343	0	0	0
0.000374674	0	0	0
0.000375382	0	0	0
0.000376746	0	0	0
0.000378247	0	0	0
0.000378632	0	0	0
0.000379509	0	0	0
0.000381855	0	0	0
0.00038902	0	0	0
0.000393504	0	0	0
0.000395695	0	0	0
0.000397075	0	0	0
0.000402775	0	0	0
0.000403043	0	0	0
0.000407873	0	0	0
0.000409216	0	0	0
0.000418579	0	0	0
0.000422839	0	0	0
0.000424617	0	0	0
0.000424702	0	0	0
0.000425759	0	0	0
0.000426694	0	0	0
0.000429543	0	0	0
0.000433592	0	0	0
0.000433986	0	0	0
0.000439769	0	0	0
0.00044095	0	0	0
0.000441704	0	0	0
0.000444021	0	0	0
0.000448132	0	0	0
0.000455358	0	0	0
0.000459987	0	0	0
0.000460913	0	0	0
0.000461887	0	0	0
0.000471656	0	0	0
0.000479053	0	0	0
0.000479644	0	0	0
0.000482891	0	0	0
0.000485626	0	0	0
0.000490151	0	0	0
0.000492041	0	0	0
0.000496638	0	0	0
0.000498637	0	0	0
0.000500614	0	0	0
0.00050443	0	0	0
0.000508461	0	0	0
0.000509335	0	0	0
0.000511997	0	0	0
0.000528086	0	0	0
0.000528131	0	0	0
0.000535224	0	0	0
0.000557755	0	0	0
0.000596938	0	0	0
0.000597674	0	0	0
0.000606174	0	0	0
0.000612542	0	0	0
0.000615744	0	0	0
0.000616655	0	0	0
0.000618984	0	0	0
0.000619938	0	0	0
0.000640348	0	0	0
0.000640425	0	0	0
0.000640563	0	0	0
0.000651646	0	0	0
0.0006697	0	0	0
0.000677469	0	0	0
0.000687082	0	0	0
0.000689941	0	0	0
0.00069036	0	0	0
0.000706731	0	0	0
0.000712759	0	0	0
0.000756811	0	0	0
0.000757636	0	0	0
0.000759082	0	0	0
0.000789274	0	0	0
0.000859912	0	0	0
0.000868067	0	0	0
0.000869514	0	0	0
0.000927298	0	0	0
0.000985291	0	0	0
0.000986914	0	0	0
0.00102625	0	0	0
0.00105839	0	0	0
0.00105912	0	0	0
0.00115724	0	0	0
0.00119163	0	0	0
