1.24548e-07	0	0	0
5.21661e-07	0	0	0
7.58254e-07	0	0	0
8.50748e-07	0	0	0
1.11759e-06	0	0	0
1.11996e-06	0	0	0
1.13653e-06	0	0	0
1.29872e-06	0	0	0
1.42503e-06	0	0	0
1.4944e-06	0	0	0
1.50275e-06	0	0	0
1.51632e-06	0	0	0
1.70135e-06	0	0	0
1.92704e-06	0	0	0
1.94938e-06	0	0	0
2.03329e-06	0	0	0
2.06182e-06	0	0	0
2.58839e-06	0	0	0
2.72644e-06	0	0	0
2.79224e-06	0	0	0
2.87282e-06	0	0	0
2.94778e-06	0	0	0
2.96005e-06	0	0	0
3.05422e-06	0	0	0
3.0604e-06	0	0	0
3.14986e-06	0	0	0
3.3298e-06	0	0	0
3.3316e-06	0	0	0
3.52237e-06	0	0	0
3.57984e-06	0	0	0
3.58326e-06	0	0	0
3.59665e-06	0	0	0
4.30652e-06	0	0	0
4.41337e-06	0	0	0
4.87179e-06	0	0	0
5.38024e-06	0	0	0
5.40445e-06	0	0	0
5.49202e-06	0	0	0
5.91576e-06	0	0	0
5.95181e-06	0	0	0
5.96491e-06	0	0	0
6.08328e-06	0	0	0
6.32286e-06	0	0	0
6.52169e-06	0	0	0
6.53229e-06	0	0	0
6.62938e-06	0	0	0
6.63783e-06	0	0	0
6.69247e-06	0	0	0
6.92862e-06	0	0	0
7.14312e-06	0	0	0
7.18731e-06	0	0	0
7.24145e-06	0	0	0
7.29031e-06	0	0	0
7.38425e-06	0	0	0
7.41294e-06	0	0	0
7.41351e-06	0	0	0
8.26594e-06	0	0	0
8.41747e-06	0	0	0
9.02201e-06	0	0	0
9.28962e-06	0	0	0
9.3522e-06	0	0	0
9.44862e-06	0	0	0
9.62144e-06	0	0	0
9.67869e-06	0	0	0
9.85666e-06	0	0	0
1.01279e-05	0	0	0
1.01336e-05	0	0	0
1.02326e-05	0	0	0
1.04472e-05	0	0	0
1.05752e-05	0	0	0
1.0634e-05	0	0	0
1.1105e-05	0	0	0
1.12342e-05	0	0	0
1.16365e-05	0	0	0
1.19261e-05	0	0	0
1.19975e-05	0	0	0
1.21146e-05	0	0	0
1.21575e-05	0	0	0
1.23872e-05	0	0	0
1.31289e-05	0	0	0
1.32519e-05	0	0	0
1.35228e-05	0	0	0
1.37025e-05	0	0	0
1.37855e-05	0	0	0
1.3937e-05	0	0	0
1.39783e-05	0	0	0
1.40126e-05	0	0	0
1.42601e-05	0	0	0
1.43635e-05	0	0	0
1.4573e-05	0	0	0
1.45749e-05	0	0	0
1.46433e-05	0	0	0
1.4716e-05	0	0	0
1.47977e-05	0	0	0
1.51598e-05	0	0	0
1.51621e-05	0	0	0
1.52206e-05	0	0	0
1.52822e-05	0	0	0
1.53453e-05	0	0	0
1.5388e-05	0	0	0
1.54033e-05	0	0	0
1.55754e-05	0	0	0
1.56508e-05	0	0	0
1.59967e-05	0	0	0
1.62116e-05	0	0	0
1.64716e-05	0	0	0
1.65344e-05	0	0	0
1.68474e-05	0	0	0
1.69406e-05	0	0	0
1.69636e-05	0	0	0
1.70725e-05	0	0	0
1.70731e-05	0	0	0
1.7154e-05	0	0	0
1.73516e-05	0	0	0
1.7366e-05	0	0	0
1.7514e-05	0	0	0
1.76657e-05	0	0	0
1.7675e-05	0	0	0
1.79038e-05	0	0	0
1.85422e-05	0	0	0
1.87662e-05	0	0	0
1.87975e-05	0	0	0
1.88008e-05	0	0	0
1.88207e-05	0	0	0
1.89261e-05	0	0	0
1.91149e-05	0	0	0
1.92154e-05	0	0	0
1.98733e-05	0	0	0
2.00525e-05	0	0	0
2.07261e-05	0	0	0
2.1004e-05	0	0	0
2.14853e-05	0	0	0
2.17101e-05	0	0	0
2.17718e-05	0	0	0
2.1971e-05	0	0	0
2.21766e-05	0	0	0
2.23458e-05	0	0	0
2.27912e-05	0	0	0
2.29964e-05	0	0	0
2.34457e-05	0	0	0
2.34549e-05	0	0	0
2.3554e-05	0	0	0
2.43821e-05	0	0	0
2.44158e-05	0	0	0
2.44564e-05	0	0	0
2.48506e-05	0	0	0
2.57527e-05	0	0	0
2.58021e-05	0	0	0
2.58131e-05	0	0	0
2.60034e-05	0	0	0
2.63368e-05	0	0	0
2.6767e-05	0	0	0
2.72322e-05	0	0	0
2.72375e-05	0	0	0
2.72525e-05	0	0	0
2.73025e-05	0	0	0
2.74253e-05	0	0	0
2.7685e-05	0	0	0
2.76901e-05	0	0	0
2.85112e-05	0	0	0
2.87034e-05	0	0	0
2.87676e-05	0	0	0
2.89395e-05	0	0	0
2.9054e-05	0	0	0
2.91063e-05	0	0	0
2.94884e-05	0	0	0
2.95504e-05	0	0	0
2.97657e-05	0	0	0
2.98582e-05	0	0	0
3.01875e-05	0	0	0
3.14814e-05	0	0	0
3.16014e-05	0	0	0
3.16298e-05	0	0	0
3.16944e-05	0	0	0
3.1765e-05	0	0	0
3.18919e-05	0	0	0
3.1991e-05	0	0	0
3.20288e-05	0	0	0
3.24045e-05	0	0	0
3.24513e-05	0	0	0
3.28037e-05	0	0	0
3.28216e-05	0	0	0
3.2927e-05	0	0	0
3.3103e-05	0	0	0
3.37104e-05	0	0	0
3.4462e-05	0	0	0
3.45018e-05	0	0	0
3.49353e-05	0	0	0
3.54339e-05	0	0	0
3.56786e-05	0	0	0
3.57449e-05	0	0	0
3.58889e-05	0	0	0
3.59099e-05	0	0	0
3.60033e-05	0	0	0
3.60983e-05	0	0	0
3.61009e-05	0	0	0
3.61818e-05	0	0	0
3.62701e-05	0	0	0
3.62803e-05	0	0	0
3.64035e-05	0	0	0
3.6437e-05	0	0	0
3.66595e-05	0	0	0
3.67686e-05	0	0	0
3.69932e-05	0	0	0
3.74056e-05	0	0	0
3.74537e-05	0	0	0
3.7508e-05	0	0	0
3.81289e-05	0	0	0
3.81753e-05	0	0	0
3.86283e-05	0	0	0
3.89438e-05	0	0	0
3.8954e-05	0	0	0
3.8955e-05	0	0	0
3.93334e-05	0	0	0
3.96773e-05	0	0	0
4.03563e-05	0	0	0
4.05727e-05	0	0	0
4.08641e-05	0	0	0
4.1162e-05	0	0	0
4.20352e-05	0	0	0
4.21556e-05	0	0	0
4.23767e-05	0	0	0
4.25945e-05	0	0	0
4.28181e-05	0	0	0
4.31431e-05	0	0	0
4.35626e-05	0	0	0
4.37284e-05	0	0	0
4.38733e-05	0	0	0
4.40861e-05	0	0	0
4.41548e-05	0	0	0
4.44709e-05	0	0	0
4.45644e-05	0	0	0
4.48026e-05	0	0	0
4.48448e-05	0	0	0
4.49536e-05	0	0	0
4.49608e-05	0	0	0
4.53216e-05	0	0	0
4.57779e-05	0	0	0
4.59278e-05	0	0	0
4.60869e-05	0	0	0
4.61351e-05	0	0	0
4.64957e-05	0	0	0
4.65624e-05	0	0	0
4.67233e-05	0	0	0
4.68134e-05	0	0	0
4.68327e-05	0	0	0
4.68477e-05	0	0	0
4.73419e-05	0	0	0
4.74846e-05	0	0	0
4.75465e-05	0	0	0
4.78582e-05	0	0	0
4.83385e-05	0	0	0
4.91806e-05	0	0	0
4.91892e-05	0	0	0
4.94579e-05	0	0	0
4.9581e-05	0	0	0
4.97188e-05	0	0	0
4.977e-05	0	0	0
5.05471e-05	0	0	0
5.06028e-05	0	0	0
5.09603e-05	0	0	0
5.10021e-05	0	0	0
5.11328e-05	0	0	0
5.1412e-05	0	0	0
5.14593e-05	0	0	0
5.16687e-05	0	0	0
5.22351e-05	0	0	0
5.25056e-05	0	0	0
5.27944e-05	0	0	0
5.31251e-05	0	0	0
5.35423e-05	0	0	0
5.41902e-05	0	0	0
5.42078e-05	0	0	0
5.42116e-05	0	0	0
5.44021e-05	0	0	0
5.54228e-05	0	0	0
5.57461e-05	0	0	0
5.59601e-05	0	0	0
5.61741e-05	0	0	0
5.62612e-05	0	0	0
5.65016e-05	0	0	0
5.73062e-05	0	0	0
5.77629e-05	0	0	0
5.85867e-05	0	0	0
5.86318e-05	0	0	0
5.86961e-05	0	0	0
5.95505e-05	0	0	0
5.9704e-05	0	0	0
6.02663e-05	0	0	0
6.02703e-05	0	0	0
6.02786e-05	0	0	0
6.03502e-05	0	0	0
6.04341e-05	0	0	0
6.11483e-05	0	0	0
6.12969e-05	0	0	0
6.15175e-05	0	0	0
6.16052e-05	0	0	0
6.17099e-05	0	0	0
6.19391e-05	0	0	0
6.2479e-05	0	0	0
6.28873e-05	0	0	0
6.32332e-05	0	0	0
6.34075e-05	0	0	0
6.35978e-05	0	0	0
6.39274e-05	0	0	0
6.48538e-05	0	0	0
6.49528e-05	0	0	0
6.49768e-05	0	0	0
6.56947e-05	0	0	0
6.57809e-05	0	0	0
6.66436e-05	0	0	0
6.66629e-05	0	0	0
6.6788e-05	0	0	0
6.90162e-05	0	0	0
6.91027e-05	0	0	0
6.95345e-05	0	0	0
6.97725e-05	0	0	0
7.01838e-05	0	0	0
7.03435e-05	0	0	0
7.0722e-05	0	0	0
7.17896e-05	0	0	0
7.24097e-05	0	0	0
7.29509e-05	0	0	0
7.37235e-05	0	0	0
7.40942e-05	0	0	0
7.42481e-05	0	0	0
7.46782e-05	0	0	0
7.55882e-05	0	0	0
7.62967e-05	0	0	0
7.66497e-05	0	0	0
7.67699e-05	0	0	0
7.75969e-05	0	0	0
7.76729e-05	0	0	0
7.7827e-05	0	0	0
7.89865e-05	0	0	0
7.96952e-05	0	0	0
8.05001e-05	0	0	0
8.0687e-05	0	0	0
8.07826e-05	0	0	0
8.11369e-05	0	0	0
8.12289e-05	0	0	0
8.13334e-05	0	0	0
8.1444e-05	0	0	0
8.16035e-05	0	0	0
8.17479e-05	0	0	0
8.20566e-05	0	0	0
8.21154e-05	0	0	0
8.23002e-05	0	0	0
8.29169e-05	0	0	0
8.30764e-05	0	0	0
8.31574e-05	0	0	0
8.32462e-05	0	0	0
8.33241e-05	0	0	0
8.35422e-05	0	0	0
8.43158e-05	0	0	0
8.47644e-05	0	0	0
8.49264e-05	0	0	0
8.66451e-05	0	0	0
8.70207e-05	0	0	0
8.71103e-05	0	0	0
8.71846e-05	0	0	0
8.77607e-05	0	0	0
8.82653e-05	0	0	0
9.01374e-05	0	0	0
9.06352e-05	0	0	0
9.06538e-05	0	0	0
9.0937e-05	0	0	0
9.14045e-05	0	0	0
9.2759e-05	0	0	0
9.27883e-05	0	0	0
9.28802e-05	0	0	0
9.31826e-05	0	0	0
9.32653e-05	0	0	0
9.35045e-05	0	0	0
9.4358e-05	0	0	0
9.55523e-05	0	0	0
9.59768e-05	0	0	0
9.59827e-05	0	0	0
9.67282e-05	0	0	0
9.76494e-05	0	0	0
9.76857e-05	0	0	0
9.80617e-05	0	0	0
9.89573e-05	0	0	0
9.96455e-05	0	0	0
0.000100162	0	0	0
0.000100216	0	0	0
0.000100357	0	0	0
0.000100608	0	0	0
0.000100677	0	0	0
0.000101772	0	0	0
0.00010245	0	0	0
0.000102877	0	0	0
0.000103467	0	0	0
0.000105117	0	0	0
0.000105559	0	0	0
0.000105918	0	0	0
0.00010604	0	0	0
0.000106232	0	0	0
0.000106943	0	0	0
0.000107295	0	0	0
0.000108966	0	0	0
0.000110261	0	0	0
0.000110339	0	0	0
0.000111721	0	0	0
0.000113372	0	0	0
0.000115747	0	0	0
0.000117231	0	0	0
0.000117266	0	0	0
0.000117674	0	0	0
0.000118111	0	0	0
0.000118206	0	0	0
0.000118547	0	0	0
0.00011855	0	0	0
0.000119284	0	0	0
0.000119607	0	0	0
0.000119775	0	0	0
0.000120483	0	0	0
0.000120614	0	0	0
0.00012087	0	0	0
0.000121265	0	0	0
0.000121307	0	0	0
0.00012142	0	0	0
0.0001219	0	0	0
0.000121999	0	0	0
0.000123219	0	0	0
0.000123876	0	0	0
0.000124346	0	0	0
0.000125397	0	0	0
0.000125771	0	0	0
0.000125904	0	0	0
0.000125999	0	0	0
0.000126107	0	0	0
0.000126648	0	0	0
0.000126933	0	0	0
0.000127234	0	0	0
0.000127352	0	0	0
0.000127792	0	0	0
0.00012787	0	0	0
0.000128779	0	0	0
0.000129296	0	0	0
0.000129475	0	0	0
0.000129866	0	0	0
0.000132274	0	0	0
0.000132525	0	0	0
0.000134386	0	0	0
0.000134538	0	0	0
0.000134908	0	0	0
0.000135878	0	0	0
0.000136537	0	0	0
0.000137006	0	0	0
0.000137454	0	0	0
0.000137952	0	0	0
0.000138179	0	0	0
0.00013858	0	0	0
0.000138724	0	0	0
0.000141007	0	0	0
0.000141043	0	0	0
0.000142802	0	0	0
0.000142888	0	0	0
0.000143037	0	0	0
0.00014441	0	0	0
0.000144831	0	0	0
0.000151587	0	0	0
0.000152176	0	0	0
0.000152786	0	0	0
0.000153103	0	0	0
0.000154335	0	0	0
0.000155272	0	0	0
0.000155468	0	0	0
0.000155474	0	0	0
0.000158935	0	0	0
0.000159367	0	0	0
0.000160453	0	0	0
0.00016201	0	0	0
0.000164888	0	0	0
0.000165074	0	0	0
0.000165463	0	0	0
0.000165696	0	0	0
0.0001659	0	0	0
0.000166203	0	0	0
0.00016746	0	0	0
0.000167909	0	0	0
0.000167921	0	0	0
0.000168299	0	0	0
0.000168323	0	0	0
0.000170664	0	0	0
0.000170737	0	0	0
0.000173356	0	0	0
0.000174024	0	0	0
0.000174065	0	0	0
0.000174265	0	0	0
0.000174455	0	0	0
0.000174949	0	0	0
0.000176469	0	0	0
0.000177578	0	0	0
0.000177922	0	0	0
0.000178284	0	0	0
0.000179753	0	0	0
0.000180666	0	0	0
0.000180674	0	0	0
0.000181041	0	0	0
0.000182089	0	0	0
0.000182181	0	0	0
0.000182369	0	0	0
0.000182755	0	0	0
0.00018504	0	0	0
0.000185196	0	0	0
0.00018605	0	0	0
0.000186953	0	0	0
0.000187055	0	0	0
0.000188427	0	0	0
0.000188853	0	0	0
0.000189503	0	0	0
0.000189512	0	0	0
0.000190661	0	0	0
0.000190761	0	0	0
0.000192345	0	0	0
0.000194332	0	0	0
0.000194574	0	0	0
0.000194712	0	0	0
0.000196909	0	0	0
0.000198131	0	0	0
0.000198163	0	0	0
0.000199732	0	0	0
0.000200473	0	0	0
0.000202651	0	0	0
0.00020403	0	0	0
0.000205196	0	0	0
0.000205527	0	0	0
0.000206152	0	0	0
0.000206878	0	0	0
0.000206973	0	0	0
0.000207062	0	0	0
0.000209238	0	0	0
0.000210098	0	0	0
0.000210725	0	0	0
0.000211393	0	0	0
0.000212097	0	0	0
0.000214156	0	0	0
0.000218066	0	0	0
0.000219535	0	0	0
0.000220169	0	0	0
0.000223494	0	0	0
0.000223825	0	0	0
0.000223874	0	0	0
0.000224454	0	0	0
0.000224828	0	0	0
0.00022983	0	0	0
0.000231821	0	0	0
0.000232043	0	0	0
0.000232278	0	0	0
0.000233247	0	0	0
0.000233612	0	0	0
0.00023399	0	0	0
0.000234961	0	0	0
0.000238953	0	0	0
0.000239458	0	0	0
0.000241504	0	0	0
0.000241986	0	0	0
0.00024309	0	0	0
0.000247181	0	0	0
0.000248301	0	0	0
0.000249483	0	0	0
0.000250279	0	0	0
0.000251082	0	0	0
0.000251181	0	0	0
0.000251594	0	0	0
0.000252001	0	0	0
0.000252282	0	0	0
0.000253291	0	0	0
0.000257364	0	0	0
0.000257826	0	0	0
0.000260253	0	0	0
0.000261552	0	0	0
0.000263279	0	0	0
0.000264138	0	0	0
0.000266387	0	0	0
0.000266483	0	0	0
0.000266613	0	0	0
0.000269195	0	0	0
0.000272538	0	0	0
0.000273306	0	0	0
0.0002738	0	0	0
0.000275156	0	0	0
0.000275275	0	0	0
0.000275506	0	0	0
0.00027631	0	0	0
0.000276869	0	0	0
0.000278715	0	0	0
0.000280343	0	0	0
0.000281479	0	0	0
0.000283655	0	0	0
0.000285643	0	0	0
0.000286391	0	0	0
0.000287512	0	0	0
0.000288127	0	0	0
0.00028865	0	0	0
0.000289244	0	0	0
0.00029366	0	0	0
0.000293843	0	0	0
0.000294369	0	0	0
0.000294396	0	0	0
0.000294844	0	0	0
0.000298763	0	0	0
0.000298949	0	0	0
0.000300178	0	0	0
0.000302185	0	0	0
0.000302338	0	0	0
0.000302924	0	0	0
0.000302989	0	0	0
0.000304708	0	0	0
0.000304942	0	0	0
0.000305861	0	0	0
0.0003091	0	0	0
0.000310081	0	0	0
0.000310754	0	0	0
0.000311237	0	0	0
0.000312721	0	0	0
0.000312728	0	0	0
0.000313099	0	0	0
0.000313107	0	0	0
0.000314748	0	0	0
0.000315091	0	0	0
0.000315869	0	0	0
0.000315902	0	0	0
0.000318088	0	0	0
0.000323182	0	0	0
0.000325591	0	0	0
0.000325802	0	0	0
0.000327414	0	0	0
0.000333931	0	0	0
0.000334365	0	0	0
0.000338518	0	0	0
0.000341271	0	0	0
0.000346956	0	0	0
0.000346991	0	0	0
0.000348552	0	0	0
0.000349122	0	0	0
0.000350732	0	0	0
0.000350968	0	0	0
0.000351265	0	0	0
0.000355023	0	0	0
0.000355283	0	0	0
0.000356305	0	0	0
0.000357303	0	0	0
0.00035796	0	0	0
0.000358673	0	0	0
0.000361792	0	0	0
0.000362327	0	0	0
0.000366929	0	0	0
0.000370301	0	0	0
0.000372452	0	0	0
0.000373989	0	0	0
0.00037598	0	0	0
0.000380195	0	0	0
0.00038322	0	0	0
0.000383254	0	0	0
0.000383307	0	0	0
0.000383366	0	0	0
0.000383408	0	0	0
0.000388319	0	0	0
0.000390351	0	0	0
0.000393471	0	0	0
0.000396617	0	0	0
0.000398592	0	0	0
0.000398648	0	0	0
0.000403661	0	0	0
0.000407185	0	0	0
0.000407864	0	0	0
0.000410039	0	0	0
0.000411938	0	0	0
0.000413404	0	0	0
0.000415092	0	0	0
0.00041517	0	0	0
0.000418477	0	0	0
0.000419098	0	0	0
0.0004327	0	0	0
0.000436597	0	0	0
0.000443002	0	0	0
0.000448718	0	0	0
0.000450956	0	0	0
0.000452428	0	0	0
0.000453801	0	0	0
0.000455027	0	0	0
0.000460663	0	0	0
0.000462595	0	0	0
0.000468735	0	0	0
0.000469257	0	0	0
0.000471445	0	0	0
0.00047207	0	0	0
0.000475151	0	0	0
0.000475207	0	0	0
0.000479855	0	0	0
0.000479948	0	0	0
0.000481176	0	0	0
0.000481698	0	0	0
0.000487748	0	0	0
0.000490234	0	0	0
0.000491333	0	0	0
0.000492826	0	0	0
0.000493252	0	0	0
0.000494565	0	0	0
0.000504176	0	0	0
0.000507611	0	0	0
0.000507974	0	0	0
0.000513586	0	0	0
0.000518331	0	0	0
0.000518965	0	0	0
0.000527599	0	0	0
0.000533033	0	0	0
0.000536323	0	0	0
0.000549952	0	0	0
0.000557232	0	0	0
0.000568481	0	0	0
0.000577115	0	0	0
0.000583157	0	0	0
0.000583779	0	0	0
0.000587497	0	0	0
0.000595228	0	0	0
0.000599615	0	0	0
0.000601996	0	0	0
0.000611853	0	0	0
0.000645454	0	0	0
0.000650221	0	0	0
0.000657558	0	0	0
0.000657736	0	0	0
0.000658866	0	0	0
0.000658977	0	0	0
0.000660442	0	0	0
0.000665071	0	0	0
0.00066598	0	0	0
0.000680428	0	0	0
0.00071623	0	0	0
0.000725295	0	0	0
0.000742756	0	0	0
0.0007468	0	0	0
0.000783058	0	0	0
0.000784076	0	0	0
0.000797349	0	0	0
0.000825988	0	0	0
0.000834301	0	0	0
0.000838874	0	0	0
0.000863975	0	0	0
0.000870703	0	0	0
0.000886232	0	0	0
0.000969335	0	0	0
0.00099611	0	0	0
0.00107229	0	0	0
0.00113359	0	0	0
0.00134527	0	0	0
0.00136785	0	0	0
0.00145234	0	0	0
0.00225509	0	0	0
