2.7006e-08	0	0	0
1.99928e-07	0	0	0
2.10953e-07	0	0	0
3.18532e-07	0	0	0
4.59101e-07	0	0	0
5.98491e-07	0	0	0
7.58213e-07	0	0	0
9.19109e-07	0	0	0
9.6962e-07	0	0	0
1.05139e-06	0	0	0
1.20592e-06	0	0	0
1.29907e-06	0	0	0
1.66894e-06	0	0	0
1.7177e-06	0	0	0
1.72857e-06	0	0	0
1.79233e-06	0	0	0
1.87125e-06	0	0	0
1.91739e-06	0	0	0
2.24775e-06	0	0	0
2.45106e-06	0	0	0
2.48268e-06	0	0	0
2.52299e-06	0	0	0
2.64497e-06	0	0	0
2.77585e-06	0	0	0
2.85117e-06	0	0	0
2.88377e-06	0	0	0
2.9727e-06	0	0	0
2.9994e-06	0	0	0
3.27571e-06	0	0	0
3.36078e-06	0	0	0
3.40916e-06	0	0	0
3.63357e-06	0	0	0
3.66448e-06	0	0	0
3.82974e-06	0	0	0
3.93656e-06	0	0	0
4.01004e-06	0	0	0
4.42258e-06	0	0	0
4.44498e-06	0	0	0
4.61071e-06	0	0	0
4.72622e-06	0	0	0
4.8962e-06	0	0	0
4.93588e-06	0	0	0
4.95433e-06	0	0	0
5.32381e-06	0	0	0
5.39184e-06	0	0	0
5.47397e-06	0	0	0
5.49736e-06	0	0	0
5.5186e-06	0	0	0
5.7736e-06	0	0	0
5.83963e-06	0	0	0
5.93673e-06	0	0	0
6.00796e-06	0	0	0
6.17803e-06	0	0	0
6.32127e-06	0	0	0
6.68766e-06	0	0	0
7.2953e-06	0	0	0
7.31005e-06	0	0	0
7.31202e-06	0	0	0
7.4075e-06	0	0	0
7.56847e-06	0	0	0
7.67814e-06	0	0	0
7.70962e-06	0	0	0
7.83167e-06	0	0	0
7.84902e-06	0	0	0
7.9455e-06	0	0	0
8.02795e-06	0	0	0
8.20834e-06	0	0	0
8.42731e-06	0	0	0
8.4489e-06	0	0	0
8.67989e-06	0	0	0
8.71983e-06	0	0	0
9.00267e-06	0	0	0
9.04208e-06	0	0	0
9.15291e-06	0	0	0
9.25855e-06	0	0	0
9.49204e-06	0	0	0
9.49739e-06	0	0	0
9.70808e-06	0	0	0
1.00418e-05	0	0	0
1.03081e-05	0	0	0
1.04654e-05	0	0	0
1.05911e-05	0	0	0
1.07433e-05	0	0	0
1.08583e-05	0	0	0
1.09587e-05	0	0	0
1.11755e-05	0	0	0
1.11897e-05	0	0	0
1.11926e-05	0	0	0
1.13634e-05	0	0	0
1.13877e-05	0	0	0
1.14258e-05	0	0	0
1.16682e-05	0	0	0
1.17946e-05	0	0	0
1.18149e-05	0	0	0
1.19372e-05	0	0	0
1.19643e-05	0	0	0
1.21507e-05	0	0	0
1.22558e-05	0	0	0
1.23729e-05	0	0	0
1.2653e-05	0	0	0
1.27883e-05	0	0	0
1.28162e-05	0	0	0
1.32926e-05	0	0	0
1.33556e-05	0	0	0
1.34158e-05	0	0	0
1.3517e-05	0	0	0
1.35961e-05	0	0	0
1.3677e-05	0	0	0
1.4152e-05	0	0	0
1.42499e-05	0	0	0
1.48067e-05	0	0	0
1.49878e-05	0	0	0
1.53358e-05	0	0	0
1.5365e-05	0	0	0
1.54978e-05	0	0	0
1.55858e-05	0	0	0
1.58222e-05	0	0	0
1.64121e-05	0	0	0
1.64456e-05	0	0	0
1.65928e-05	0	0	0
1.66318e-05	0	0	0
1.6903e-05	0	0	0
1.69462e-05	0	0	0
1.69888e-05	0	0	0
1.71724e-05	0	0	0
1.7362e-05	0	0	0
1.74512e-05	0	0	0
1.76237e-05	0	0	0
1.78449e-05	0	0	0
1.78476e-05	0	0	0
1.79665e-05	0	0	0
1.84538e-05	0	0	0
1.89378e-05	0	0	0
1.90516e-05	0	0	0
1.94553e-05	0	0	0
1.94835e-05	0	0	0
1.98448e-05	0	0	0
1.99473e-05	0	0	0
2.00701e-05	0	0	0
2.01245e-05	0	0	0
2.04766e-05	0	0	0
2.05246e-05	0	0	0
2.05474e-05	0	0	0
2.06274e-05	0	0	0
2.08396e-05	0	0	0
2.09448e-05	0	0	0
2.10692e-05	0	0	0
2.15188e-05	0	0	0
2.1608e-05	0	0	0
2.22465e-05	0	0	0
2.22819e-05	0	0	0
2.23451e-05	0	0	0
2.25897e-05	0	0	0
2.29404e-05	0	0	0
2.29958e-05	0	0	0
2.31363e-05	0	0	0
2.31855e-05	0	0	0
2.32361e-05	0	0	0
2.32389e-05	0	0	0
2.32395e-05	0	0	0
2.35431e-05	0	0	0
2.35554e-05	0	0	0
2.3629e-05	0	0	0
2.37757e-05	0	0	0
2.40163e-05	0	0	0
2.42895e-05	0	0	0
2.43428e-05	0	0	0
2.47616e-05	0	0	0
2.48105e-05	0	0	0
2.49508e-05	0	0	0
2.49627e-05	0	0	0
2.51145e-05	0	0	0
2.53287e-05	0	0	0
2.54476e-05	0	0	0
2.5753e-05	0	0	0
2.59837e-05	0	0	0
2.61495e-05	0	0	0
2.63367e-05	0	0	0
2.66189e-05	0	0	0
2.66411e-05	0	0	0
2.68767e-05	0	0	0
2.70823e-05	0	0	0
2.70851e-05	0	0	0
2.71107e-05	0	0	0
2.78398e-05	0	0	0
2.81684e-05	0	0	0
2.85695e-05	0	0	0
2.85797e-05	0	0	0
2.86783e-05	0	0	0
2.90849e-05	0	0	0
2.91256e-05	0	0	0
2.9749e-05	0	0	0
3.00423e-05	0	0	0
3.00739e-05	0	0	0
3.01807e-05	0	0	0
3.03482e-05	0	0	0
3.03894e-05	0	0	0
3.07384e-05	0	0	0
3.09844e-05	0	0	0
3.11511e-05	0	0	0
3.13298e-05	0	0	0
3.14622e-05	0	0	0
3.14893e-05	0	0	0
3.16963e-05	0	0	0
3.17395e-05	0	0	0
3.17729e-05	0	0	0
3.18148e-05	0	0	0
3.21572e-05	0	0	0
3.2333e-05	0	0	0
3.23606e-05	0	0	0
3.25976e-05	0	0	0
3.26337e-05	0	0	0
3.32169e-05	0	0	0
3.33081e-05	0	0	0
3.3448e-05	0	0	0
3.39134e-05	0	0	0
3.4016e-05	0	0	0
3.40494e-05	0	0	0
3.50539e-05	0	0	0
3.50883e-05	0	0	0
3.51008e-05	0	0	0
3.53271e-05	0	0	0
3.53352e-05	0	0	0
3.58123e-05	0	0	0
3.59999e-05	0	0	0
3.6501e-05	0	0	0
3.65346e-05	0	0	0
3.6853e-05	0	0	0
3.69845e-05	0	0	0
3.74733e-05	0	0	0
3.76909e-05	0	0	0
3.78357e-05	0	0	0
3.78635e-05	0	0	0
3.80599e-05	0	0	0
3.82159e-05	0	0	0
3.84727e-05	0	0	0
3.88803e-05	0	0	0
3.8884e-05	0	0	0
3.89531e-05	0	0	0
3.90168e-05	0	0	0
3.90442e-05	0	0	0
3.93111e-05	0	0	0
3.93786e-05	0	0	0
4.00018e-05	0	0	0
4.02551e-05	0	0	0
4.02659e-05	0	0	0
4.04535e-05	0	0	0
4.05613e-05	0	0	0
4.07342e-05	0	0	0
4.09605e-05	0	0	0
4.11535e-05	0	0	0
4.16297e-05	0	0	0
4.16616e-05	0	0	0
4.24306e-05	0	0	0
4.25878e-05	0	0	0
4.27277e-05	0	0	0
4.29694e-05	0	0	0
4.30867e-05	0	0	0
4.31122e-05	0	0	0
4.34409e-05	0	0	0
4.39925e-05	0	0	0
4.40201e-05	0	0	0
4.40216e-05	0	0	0
4.47286e-05	0	0	0
4.47968e-05	0	0	0
4.48235e-05	0	0	0
4.50054e-05	0	0	0
4.5393e-05	0	0	0
4.57601e-05	0	0	0
4.73048e-05	0	0	0
4.73651e-05	0	0	0
4.78103e-05	0	0	0
4.83559e-05	0	0	0
4.87172e-05	0	0	0
4.91331e-05	0	0	0
4.92723e-05	0	0	0
4.94689e-05	0	0	0
4.95136e-05	0	0	0
5.01239e-05	0	0	0
5.02676e-05	0	0	0
5.04982e-05	0	0	0
5.10382e-05	0	0	0
5.11079e-05	0	0	0
5.13187e-05	0	0	0
5.19946e-05	0	0	0
5.22883e-05	0	0	0
5.28123e-05	0	0	0
5.30883e-05	0	0	0
5.35059e-05	0	0	0
5.35629e-05	0	0	0
5.40094e-05	0	0	0
5.42914e-05	0	0	0
5.46748e-05	0	0	0
5.50679e-05	0	0	0
5.51766e-05	0	0	0
5.54244e-05	0	0	0
5.63572e-05	0	0	0
5.67556e-05	0	0	0
5.70544e-05	0	0	0
5.77617e-05	0	0	0
5.77683e-05	0	0	0
5.80898e-05	0	0	0
5.88329e-05	0	0	0
5.98714e-05	0	0	0
6.04764e-05	0	0	0
6.05499e-05	0	0	0
6.11538e-05	0	0	0
6.16438e-05	0	0	0
6.1717e-05	0	0	0
6.25153e-05	0	0	0
6.3244e-05	0	0	0
6.35524e-05	0	0	0
6.37072e-05	0	0	0
6.38682e-05	0	0	0
6.43606e-05	0	0	0
6.4417e-05	0	0	0
6.48277e-05	0	0	0
6.50262e-05	0	0	0
6.63133e-05	0	0	0
6.67926e-05	0	0	0
6.68239e-05	0	0	0
6.69678e-05	0	0	0
6.70108e-05	0	0	0
6.74046e-05	0	0	0
6.87732e-05	0	0	0
6.95314e-05	0	0	0
6.97603e-05	0	0	0
6.98636e-05	0	0	0
7.02289e-05	0	0	0
7.03447e-05	0	0	0
7.07154e-05	0	0	0
7.10905e-05	0	0	0
7.13893e-05	0	0	0
7.14228e-05	0	0	0
7.26547e-05	0	0	0
7.27939e-05	0	0	0
7.34604e-05	0	0	0
7.38136e-05	0	0	0
7.40347e-05	0	0	0
7.42415e-05	0	0	0
7.52527e-05	0	0	0
7.60316e-05	0	0	0
7.62026e-05	0	0	0
7.67797e-05	0	0	0
7.69347e-05	0	0	0
7.75232e-05	0	0	0
7.76844e-05	0	0	0
7.79936e-05	0	0	0
7.92614e-05	0	0	0
7.98967e-05	0	0	0
8.02729e-05	0	0	0
8.03344e-05	0	0	0
8.06532e-05	0	0	0
8.12595e-05	0	0	0
8.12805e-05	0	0	0
8.15891e-05	0	0	0
8.19252e-05	0	0	0
8.22206e-05	0	0	0
8.2515e-05	0	0	0
8.26603e-05	0	0	0
8.26805e-05	0	0	0
8.34615e-05	0	0	0
8.40782e-05	0	0	0
8.44728e-05	0	0	0
8.46747e-05	0	0	0
8.48249e-05	0	0	0
8.5322e-05	0	0	0
8.55889e-05	0	0	0
8.56577e-05	0	0	0
8.66906e-05	0	0	0
8.70937e-05	0	0	0
8.74661e-05	0	0	0
8.83557e-05	0	0	0
8.84176e-05	0	0	0
8.85184e-05	0	0	0
8.95407e-05	0	0	0
9.11188e-05	0	0	0
9.13093e-05	0	0	0
9.22283e-05	0	0	0
9.33748e-05	0	0	0
9.39088e-05	0	0	0
9.42098e-05	0	0	0
9.47121e-05	0	0	0
9.50965e-05	0	0	0
9.55934e-05	0	0	0
9.62137e-05	0	0	0
9.62394e-05	0	0	0
9.67057e-05	0	0	0
9.74307e-05	0	0	0
9.75777e-05	0	0	0
9.76506e-05	0	0	0
9.87262e-05	0	0	0
0.000100857	0	0	0
0.000102943	0	0	0
0.000103767	0	0	0
0.000103845	0	0	0
0.000104561	0	0	0
0.000105351	0	0	0
0.000106056	0	0	0
0.000107256	0	0	0
0.000109054	0	0	0
0.000110288	0	0	0
0.000110636	0	0	0
0.000112	0	0	0
0.000112164	0	0	0
0.000113014	0	0	0
0.000113658	0	0	0
0.000113802	0	0	0
0.000114404	0	0	0
0.000114999	0	0	0
0.000115737	0	0	0
0.000116017	0	0	0
0.000116473	0	0	0
0.000116775	0	0	0
0.00011713	0	0	0
0.000117281	0	0	0
0.000117661	0	0	0
0.000117856	0	0	0
0.000119434	0	0	0
0.000120266	0	0	0
0.000120899	0	0	0
0.000121118	0	0	0
0.000121673	0	0	0
0.000122336	0	0	0
0.000122516	0	0	0
0.000122685	0	0	0
0.000123007	0	0	0
0.000124161	0	0	0
0.000125953	0	0	0
0.000126139	0	0	0
0.000126262	0	0	0
0.000126369	0	0	0
0.000126938	0	0	0
0.000127117	0	0	0
0.000129147	0	0	0
0.000130271	0	0	0
0.000130474	0	0	0
0.00013141	0	0	0
0.00013161	0	0	0
0.000131682	0	0	0
0.000132352	0	0	0
0.00013241	0	0	0
0.000132638	0	0	0
0.000132743	0	0	0
0.000132782	0	0	0
0.000133786	0	0	0
0.000134473	0	0	0
0.000137325	0	0	0
0.000137898	0	0	0
0.000138718	0	0	0
0.000138981	0	0	0
0.000139367	0	0	0
0.000139957	0	0	0
0.000140269	0	0	0
0.000141157	0	0	0
0.000142171	0	0	0
0.0001436	0	0	0
0.000144558	0	0	0
0.000144656	0	0	0
0.00014483	0	0	0
0.000145683	0	0	0
0.000145999	0	0	0
0.000147177	0	0	0
0.000147249	0	0	0
0.000147563	0	0	0
0.000148271	0	0	0
0.000148817	0	0	0
0.000148964	0	0	0
0.00014917	0	0	0
0.000151356	0	0	0
0.000151492	0	0	0
0.000151806	0	0	0
0.000151884	0	0	0
0.000151946	0	0	0
0.000152212	0	0	0
0.000152266	0	0	0
0.000154714	0	0	0
0.000155127	0	0	0
0.000156822	0	0	0
0.000158084	0	0	0
0.000158541	0	0	0
0.000158597	0	0	0
0.00015995	0	0	0
0.00016193	0	0	0
0.000162622	0	0	0
0.000163448	0	0	0
0.000166099	0	0	0
0.000167285	0	0	0
0.000167612	0	0	0
0.000169389	0	0	0
0.000170091	0	0	0
0.000170321	0	0	0
0.000171815	0	0	0
0.000171857	0	0	0
0.000172882	0	0	0
0.000172954	0	0	0
0.000174129	0	0	0
0.000177109	0	0	0
0.000181168	0	0	0
0.000181646	0	0	0
0.000181828	0	0	0
0.000183662	0	0	0
0.000183978	0	0	0
0.00018403	0	0	0
0.0001845	0	0	0
0.000184847	0	0	0
0.000185253	0	0	0
0.000185746	0	0	0
0.000187797	0	0	0
0.000189514	0	0	0
0.00019041	0	0	0
0.000192057	0	0	0
0.000194347	0	0	0
0.000194808	0	0	0
0.000196912	0	0	0
0.000197716	0	0	0
0.000197757	0	0	0
0.000198414	0	0	0
0.000201158	0	0	0
0.000202647	0	0	0
0.000205141	0	0	0
0.000205189	0	0	0
0.000205226	0	0	0
0.000205798	0	0	0
0.000209134	0	0	0
0.000209303	0	0	0
0.000209949	0	0	0
0.000210562	0	0	0
0.000212153	0	0	0
0.000212744	0	0	0
0.00021823	0	0	0
0.000218695	0	0	0
0.000222364	0	0	0
0.0002224	0	0	0
0.000224634	0	0	0
0.000225306	0	0	0
0.000227121	0	0	0
0.000227913	0	0	0
0.00022813	0	0	0
0.000229487	0	0	0
0.0002298	0	0	0
0.000229856	0	0	0
0.0002305	0	0	0
0.000230847	0	0	0
0.000230983	0	0	0
0.000231661	0	0	0
0.000234792	0	0	0
0.000235463	0	0	0
0.000237404	0	0	0
0.000238999	0	0	0
0.000240435	0	0	0
0.000242512	0	0	0
0.000242684	0	0	0
0.000243717	0	0	0
0.000243885	0	0	0
0.000243931	0	0	0
0.000244631	0	0	0
0.000245384	0	0	0
0.000245868	0	0	0
0.000248158	0	0	0
0.000248515	0	0	0
0.000251954	0	0	0
0.000252205	0	0	0
0.000252901	0	0	0
0.000253237	0	0	0
0.000253603	0	0	0
0.000255564	0	0	0
0.000256431	0	0	0
0.000258185	0	0	0
0.000259004	0	0	0
0.000259716	0	0	0
0.000262488	0	0	0
0.000263158	0	0	0
0.00026587	0	0	0
0.000267597	0	0	0
0.000269692	0	0	0
0.000270292	0	0	0
0.000272114	0	0	0
0.000272119	0	0	0
0.000272643	0	0	0
0.000273566	0	0	0
0.000276533	0	0	0
0.000277305	0	0	0
0.000277953	0	0	0
0.000278007	0	0	0
0.000279336	0	0	0
0.00027983	0	0	0
0.000279966	0	0	0
0.00028028	0	0	0
0.000281527	0	0	0
0.000283198	0	0	0
0.000283247	0	0	0
0.000283769	0	0	0
0.000287114	0	0	0
0.000287517	0	0	0
0.000287761	0	0	0
0.000289332	0	0	0
0.000290222	0	0	0
0.000290418	0	0	0
0.000291341	0	0	0
0.000291419	0	0	0
0.000291817	0	0	0
0.000292015	0	0	0
0.000293292	0	0	0
0.00029367	0	0	0
0.000295094	0	0	0
0.000296014	0	0	0
0.000297622	0	0	0
0.000298814	0	0	0
0.000300201	0	0	0
0.000302464	0	0	0
0.000304769	0	0	0
0.000307776	0	0	0
0.000308672	0	0	0
0.00030906	0	0	0
0.000309728	0	0	0
0.000309998	0	0	0
0.000310923	0	0	0
0.000315903	0	0	0
0.000318036	0	0	0
0.00031854	0	0	0
0.000319153	0	0	0
0.000320748	0	0	0
0.000322676	0	0	0
0.000323193	0	0	0
0.000325611	0	0	0
0.000332815	0	0	0
0.000332883	0	0	0
0.000334533	0	0	0
0.000337264	0	0	0
0.000338076	0	0	0
0.000338652	0	0	0
0.00034217	0	0	0
0.000342208	0	0	0
0.000345302	0	0	0
0.000346007	0	0	0
0.000349502	0	0	0
0.000349723	0	0	0
0.000352262	0	0	0
0.000353079	0	0	0
0.000354575	0	0	0
0.000355484	0	0	0
0.000355675	0	0	0
0.000356466	0	0	0
0.000357559	0	0	0
0.000359449	0	0	0
0.000361433	0	0	0
0.000365312	0	0	0
0.000369564	0	0	0
0.000371328	0	0	0
0.000371691	0	0	0
0.000374721	0	0	0
0.000378026	0	0	0
0.000386539	0	0	0
0.00038894	0	0	0
0.000388981	0	0	0
0.000390465	0	0	0
0.000392426	0	0	0
0.000394126	0	0	0
0.000394455	0	0	0
0.000396129	0	0	0
0.000397529	0	0	0
0.000399423	0	0	0
0.000401016	0	0	0
0.000404014	0	0	0
0.000405578	0	0	0
0.000405936	0	0	0
0.000406621	0	0	0
0.000407844	0	0	0
0.000409218	0	0	0
0.000411742	0	0	0
0.000412252	0	0	0
0.000414447	0	0	0
0.000416398	0	0	0
0.000419932	0	0	0
0.000429624	0	0	0
0.000431262	0	0	0
0.00043926	0	0	0
0.000444718	0	0	0
0.000448324	0	0	0
0.000451074	0	0	0
0.00045342	0	0	0
0.000458508	0	0	0
0.000471217	0	0	0
0.000473203	0	0	0
0.000476977	0	0	0
0.000480994	0	0	0
0.000484113	0	0	0
0.000484443	0	0	0
0.000490324	0	0	0
0.000494319	0	0	0
0.000494562	0	0	0
0.000497053	0	0	0
0.000497716	0	0	0
0.000497883	0	0	0
0.000509153	0	0	0
0.000510447	0	0	0
0.000510704	0	0	0
0.000516374	0	0	0
0.000517646	0	0	0
0.00051852	0	0	0
0.000521535	0	0	0
0.000522475	0	0	0
0.000525225	0	0	0
0.000525563	0	0	0
0.00053396	0	0	0
0.000537415	0	0	0
0.000538279	0	0	0
0.000538816	0	0	0
0.000539035	0	0	0
0.000542336	0	0	0
0.000543305	0	0	0
0.00055044	0	0	0
0.000551076	0	0	0
0.000552384	0	0	0
0.00055598	0	0	0
0.000561477	0	0	0
0.000562433	0	0	0
0.000562946	0	0	0
0.000563856	0	0	0
0.000578736	0	0	0
0.000582173	0	0	0
0.000584511	0	0	0
0.000584809	0	0	0
0.0005922	0	0	0
0.000596201	0	0	0
0.000598879	0	0	0
0.000620029	0	0	0
0.0006338	0	0	0
0.000659156	0	0	0
0.00066073	0	0	0
0.000689384	0	0	0
0.000694295	0	0	0
0.000696012	0	0	0
0.000711052	0	0	0
0.000712421	0	0	0
0.000731106	0	0	0
0.000736583	0	0	0
0.000760805	0	0	0
0.000761106	0	0	0
0.000773013	0	0	0
0.000820399	0	0	0
0.000824724	0	0	0
0.000843289	0	0	0
0.000849918	0	0	0
0.00086115	0	0	0
0.000865397	0	0	0
0.000923031	0	0	0
0.000975949	0	0	0
0.000995	0	0	0
0.00101094	0	0	0
0.00107549	0	0	0
0.00112769	0	0	0
0.00117733	0	0	0
0.00129749	0	0	0
0.00131438	0	0	0
0.00136776	0	0	0
0.00138535	0	0	0
0.00145271	0	0	0
0.0015543	0	0	0
