1.40212e-07	0	0	0
2.0006e-07	0	0	0
3.04179e-07	0	0	0
3.62752e-07	0	0	0
4.33123e-07	0	0	0
7.18453e-07	0	0	0
7.61988e-07	0	0	0
8.64325e-07	0	0	0
8.93172e-07	0	0	0
9.38361e-07	0	0	0
1.10987e-06	0	0	0
1.26148e-06	0	0	0
1.43486e-06	0	0	0
1.49263e-06	0	0	0
1.56897e-06	0	0	0
1.66781e-06	0	0	0
1.77287e-06	0	0	0
1.90115e-06	0	0	0
2.04318e-06	0	0	0
2.33167e-06	0	0	0
2.40575e-06	0	0	0
2.47787e-06	0	0	0
2.49074e-06	0	0	0
2.52497e-06	0	0	0
2.66292e-06	0	0	0
2.82294e-06	0	0	0
2.90513e-06	0	0	0
3.02581e-06	0	0	0
3.03123e-06	0	0	0
3.20757e-06	0	0	0
3.21584e-06	0	0	0
3.2412e-06	0	0	0
3.24776e-06	0	0	0
3.28865e-06	0	0	0
3.30363e-06	0	0	0
3.51301e-06	0	0	0
3.5241e-06	0	0	0
3.73879e-06	0	0	0
3.86152e-06	0	0	0
3.86818e-06	0	0	0
4.38399e-06	0	0	0
4.63166e-06	0	0	0
4.74997e-06	0	0	0
5.22527e-06	0	0	0
5.34173e-06	0	0	0
5.56254e-06	0	0	0
5.59499e-06	0	0	0
5.66122e-06	0	0	0
5.79874e-06	0	0	0
5.86781e-06	0	0	0
5.8982e-06	0	0	0
5.92312e-06	0	0	0
6.00619e-06	0	0	0
6.23739e-06	0	0	0
6.34021e-06	0	0	0
6.58151e-06	0	0	0
6.68172e-06	0	0	0
6.82786e-06	0	0	0
6.88747e-06	0	0	0
6.93177e-06	0	0	0
6.96103e-06	0	0	0
7.15212e-06	0	0	0
7.17619e-06	0	0	0
7.26163e-06	0	0	0
7.26667e-06	0	0	0
7.49666e-06	0	0	0
7.51135e-06	0	0	0
7.63396e-06	0	0	0
7.65104e-06	0	0	0
7.76893e-06	0	0	0
7.81663e-06	0	0	0
7.93188e-06	0	0	0
8.03714e-06	0	0	0
8.18383e-06	0	0	0
8.2108e-06	0	0	0
8.24963e-06	0	0	0
8.41075e-06	0	0	0
8.56346e-06	0	0	0
8.70994e-06	0	0	0
9.18323e-06	0	0	0
9.27066e-06	0	0	0
9.30629e-06	0	0	0
9.48357e-06	0	0	0
9.48864e-06	0	0	0
9.54839e-06	0	0	0
9.5903e-06	0	0	0
9.73975e-06	0	0	0
9.75208e-06	0	0	0
9.81267e-06	0	0	0
9.96892e-06	0	0	0
1.00733e-05	0	0	0
1.03838e-05	0	0	0
1.04528e-05	0	0	0
1.10675e-05	0	0	0
1.13483e-05	0	0	0
1.15943e-05	0	0	0
1.21098e-05	0	0	0
1.22921e-05	0	0	0
1.24884e-05	0	0	0
1.27575e-05	0	0	0
1.30854e-05	0	0	0
1.32856e-05	0	0	0
1.32891e-05	0	0	0
1.35572e-05	0	0	0
1.38536e-05	0	0	0
1.38722e-05	0	0	0
1.39172e-05	0	0	0
1.39445e-05	0	0	0
1.3977e-05	0	0	0
1.41599e-05	0	0	0
1.41782e-05	0	0	0
1.46487e-05	0	0	0
1.47127e-05	0	0	0
1.47399e-05	0	0	0
1.47466e-05	0	0	0
1.49469e-05	0	0	0
1.5359e-05	0	0	0
1.56522e-05	0	0	0
1.56647e-05	0	0	0
1.59024e-05	0	0	0
1.59024e-05	0	0	0
1.59871e-05	0	0	0
1.60396e-05	0	0	0
1.60689e-05	0	0	0
1.64431e-05	0	0	0
1.65838e-05	0	0	0
1.67488e-05	0	0	0
1.67718e-05	0	0	0
1.68147e-05	0	0	0
1.73095e-05	0	0	0
1.73128e-05	0	0	0
1.7404e-05	0	0	0
1.75763e-05	0	0	0
1.77916e-05	0	0	0
1.78016e-05	0	0	0
1.78029e-05	0	0	0
1.78158e-05	0	0	0
1.80884e-05	0	0	0
1.84256e-05	0	0	0
1.85643e-05	0	0	0
1.87955e-05	0	0	0
1.88453e-05	0	0	0
1.88562e-05	0	0	0
1.8958e-05	0	0	0
1.90097e-05	0	0	0
1.90668e-05	0	0	0
1.96618e-05	0	0	0
1.97413e-05	0	0	0
1.98453e-05	0	0	0
2.17512e-05	0	0	0
2.17815e-05	0	0	0
2.18665e-05	0	0	0
2.19937e-05	0	0	0
2.20535e-05	0	0	0
2.23037e-05	0	0	0
2.23678e-05	0	0	0
2.24011e-05	0	0	0
2.2479e-05	0	0	0
2.25945e-05	0	0	0
2.26146e-05	0	0	0
2.29999e-05	0	0	0
2.30895e-05	0	0	0
2.31103e-05	0	0	0
2.31318e-05	0	0	0
2.3273e-05	0	0	0
2.34235e-05	0	0	0
2.34503e-05	0	0	0
2.34892e-05	0	0	0
2.38607e-05	0	0	0
2.40219e-05	0	0	0
2.4075e-05	0	0	0
2.40792e-05	0	0	0
2.41559e-05	0	0	0
2.41967e-05	0	0	0
2.47925e-05	0	0	0
2.49269e-05	0	0	0
2.49856e-05	0	0	0
2.51906e-05	0	0	0
2.52062e-05	0	0	0
2.53086e-05	0	0	0
2.56646e-05	0	0	0
2.56982e-05	0	0	0
2.60945e-05	0	0	0
2.62002e-05	0	0	0
2.62592e-05	0	0	0
2.62944e-05	0	0	0
2.6297e-05	0	0	0
2.63909e-05	0	0	0
2.64291e-05	0	0	0
2.64411e-05	0	0	0
2.65669e-05	0	0	0
2.65857e-05	0	0	0
2.66044e-05	0	0	0
2.66308e-05	0	0	0
2.67049e-05	0	0	0
2.67857e-05	0	0	0
2.68199e-05	0	0	0
2.7011e-05	0	0	0
2.70391e-05	0	0	0
2.70987e-05	0	0	0
2.71242e-05	0	0	0
2.73126e-05	0	0	0
2.73631e-05	0	0	0
2.74014e-05	0	0	0
2.74054e-05	0	0	0
2.75887e-05	0	0	0
2.75935e-05	0	0	0
2.8069e-05	0	0	0
2.80975e-05	0	0	0
2.82878e-05	0	0	0
2.84809e-05	0	0	0
2.85896e-05	0	0	0
2.89099e-05	0	0	0
2.89378e-05	0	0	0
2.89564e-05	0	0	0
2.91383e-05	0	0	0
2.97246e-05	0	0	0
2.98591e-05	0	0	0
2.99038e-05	0	0	0
2.99262e-05	0	0	0
2.99685e-05	0	0	0
3.00246e-05	0	0	0
3.01909e-05	0	0	0
3.02283e-05	0	0	0
3.02944e-05	0	0	0
3.06116e-05	0	0	0
3.07598e-05	0	0	0
3.08792e-05	0	0	0
3.10429e-05	0	0	0
3.16017e-05	0	0	0
3.17286e-05	0	0	0
3.22199e-05	0	0	0
3.26965e-05	0	0	0
3.30583e-05	0	0	0
3.32091e-05	0	0	0
3.32273e-05	0	0	0
3.32506e-05	0	0	0
3.33671e-05	0	0	0
3.35128e-05	0	0	0
3.35628e-05	0	0	0
3.40989e-05	0	0	0
3.45189e-05	0	0	0
3.47046e-05	0	0	0
3.51025e-05	0	0	0
3.51388e-05	0	0	0
3.5321e-05	0	0	0
3.54386e-05	0	0	0
3.56052e-05	0	0	0
3.56307e-05	0	0	0
3.57038e-05	0	0	0
3.60468e-05	0	0	0
3.62215e-05	0	0	0
3.64867e-05	0	0	0
3.66124e-05	0	0	0
3.67558e-05	0	0	0
3.71757e-05	0	0	0
3.73317e-05	0	0	0
3.73385e-05	0	0	0
3.75452e-05	0	0	0
3.76566e-05	0	0	0
3.76859e-05	0	0	0
3.78219e-05	0	0	0
3.78709e-05	0	0	0
3.82293e-05	0	0	0
3.87715e-05	0	0	0
3.89522e-05	0	0	0
3.89771e-05	0	0	0
3.91907e-05	0	0	0
3.95307e-05	0	0	0
3.98382e-05	0	0	0
4.04563e-05	0	0	0
4.09535e-05	0	0	0
4.09732e-05	0	0	0
4.15479e-05	0	0	0
4.16495e-05	0	0	0
4.17515e-05	0	0	0
4.18186e-05	0	0	0
4.18612e-05	0	0	0
4.1862e-05	0	0	0
4.18688e-05	0	0	0
4.19223e-05	0	0	0
4.20445e-05	0	0	0
4.2083e-05	0	0	0
4.22655e-05	0	0	0
4.24407e-05	0	0	0
4.26933e-05	0	0	0
4.29819e-05	0	0	0
4.31063e-05	0	0	0
4.3221e-05	0	0	0
4.33905e-05	0	0	0
4.34007e-05	0	0	0
4.38029e-05	0	0	0
4.3866e-05	0	0	0
4.38801e-05	0	0	0
4.41006e-05	0	0	0
4.45762e-05	0	0	0
4.46075e-05	0	0	0
4.48673e-05	0	0	0
4.49321e-05	0	0	0
4.50249e-05	0	0	0
4.55445e-05	0	0	0
4.56222e-05	0	0	0
4.60749e-05	0	0	0
4.60867e-05	0	0	0
4.61524e-05	0	0	0
4.64094e-05	0	0	0
4.65927e-05	0	0	0
4.70678e-05	0	0	0
4.71919e-05	0	0	0
4.72217e-05	0	0	0
4.73343e-05	0	0	0
4.74721e-05	0	0	0
4.7551e-05	0	0	0
4.75545e-05	0	0	0
4.76671e-05	0	0	0
4.77969e-05	0	0	0
4.7885e-05	0	0	0
4.79322e-05	0	0	0
4.79387e-05	0	0	0
4.80024e-05	0	0	0
4.80834e-05	0	0	0
4.80844e-05	0	0	0
4.80973e-05	0	0	0
4.86901e-05	0	0	0
4.88025e-05	0	0	0
4.89735e-05	0	0	0
4.96294e-05	0	0	0
4.97339e-05	0	0	0
4.97544e-05	0	0	0
5.00638e-05	0	0	0
5.02759e-05	0	0	0
5.06723e-05	0	0	0
5.14318e-05	0	0	0
5.15485e-05	0	0	0
5.15847e-05	0	0	0
5.18248e-05	0	0	0
5.21021e-05	0	0	0
5.21666e-05	0	0	0
5.23408e-05	0	0	0
5.2676e-05	0	0	0
5.26857e-05	0	0	0
5.32251e-05	0	0	0
5.32826e-05	0	0	0
5.366e-05	0	0	0
5.36888e-05	0	0	0
5.42982e-05	0	0	0
5.49094e-05	0	0	0
5.50879e-05	0	0	0
5.54934e-05	0	0	0
5.57004e-05	0	0	0
5.57892e-05	0	0	0
5.61304e-05	0	0	0
5.61695e-05	0	0	0
5.62969e-05	0	0	0
5.69652e-05	0	0	0
5.70116e-05	0	0	0
5.788e-05	0	0	0
5.84413e-05	0	0	0
5.85314e-05	0	0	0
5.86563e-05	0	0	0
5.87952e-05	0	0	0
5.89961e-05	0	0	0
5.91349e-05	0	0	0
5.96975e-05	0	0	0
5.97671e-05	0	0	0
5.98282e-05	0	0	0
5.99326e-05	0	0	0
6.03318e-05	0	0	0
6.04686e-05	0	0	0
6.05952e-05	0	0	0
6.09995e-05	0	0	0
6.13411e-05	0	0	0
6.1357e-05	0	0	0
6.13643e-05	0	0	0
6.18829e-05	0	0	0
6.20756e-05	0	0	0
6.21353e-05	0	0	0
6.25246e-05	0	0	0
6.26493e-05	0	0	0
6.27799e-05	0	0	0
6.2974e-05	0	0	0
6.34454e-05	0	0	0
6.38025e-05	0	0	0
6.42416e-05	0	0	0
6.4382e-05	0	0	0
6.4451e-05	0	0	0
6.44764e-05	0	0	0
6.46385e-05	0	0	0
6.47736e-05	0	0	0
6.5118e-05	0	0	0
6.56694e-05	0	0	0
6.58608e-05	0	0	0
6.58793e-05	0	0	0
6.60861e-05	0	0	0
6.61505e-05	0	0	0
6.74889e-05	0	0	0
6.76806e-05	0	0	0
6.79562e-05	0	0	0
6.82042e-05	0	0	0
6.82692e-05	0	0	0
6.88925e-05	0	0	0
6.90771e-05	0	0	0
6.91105e-05	0	0	0
6.95477e-05	0	0	0
6.98624e-05	0	0	0
7.05851e-05	0	0	0
7.07833e-05	0	0	0
7.09448e-05	0	0	0
7.09699e-05	0	0	0
7.1375e-05	0	0	0
7.17419e-05	0	0	0
7.21139e-05	0	0	0
7.23022e-05	0	0	0
7.24687e-05	0	0	0
7.26323e-05	0	0	0
7.2701e-05	0	0	0
7.31055e-05	0	0	0
7.31194e-05	0	0	0
7.31437e-05	0	0	0
7.33234e-05	0	0	0
7.36016e-05	0	0	0
7.38876e-05	0	0	0
7.41509e-05	0	0	0
7.43238e-05	0	0	0
7.4599e-05	0	0	0
7.50491e-05	0	0	0
7.53425e-05	0	0	0
7.54082e-05	0	0	0
7.55415e-05	0	0	0
7.61274e-05	0	0	0
7.61554e-05	0	0	0
7.63264e-05	0	0	0
7.73428e-05	0	0	0
7.7443e-05	0	0	0
7.78477e-05	0	0	0
7.86285e-05	0	0	0
7.87377e-05	0	0	0
7.8799e-05	0	0	0
7.92071e-05	0	0	0
7.9707e-05	0	0	0
7.97977e-05	0	0	0
8.07442e-05	0	0	0
8.09582e-05	0	0	0
8.10578e-05	0	0	0
8.14659e-05	0	0	0
8.20429e-05	0	0	0
8.28013e-05	0	0	0
8.2973e-05	0	0	0
8.30305e-05	0	0	0
8.33365e-05	0	0	0
8.36236e-05	0	0	0
8.38175e-05	0	0	0
8.39058e-05	0	0	0
8.44527e-05	0	0	0
8.4705e-05	0	0	0
8.5181e-05	0	0	0
8.53356e-05	0	0	0
8.53851e-05	0	0	0
8.58339e-05	0	0	0
8.6194e-05	0	0	0
8.62975e-05	0	0	0
8.65477e-05	0	0	0
8.7123e-05	0	0	0
8.84039e-05	0	0	0
8.85141e-05	0	0	0
8.91892e-05	0	0	0
8.9372e-05	0	0	0
8.96181e-05	0	0	0
8.97857e-05	0	0	0
8.99513e-05	0	0	0
9.09358e-05	0	0	0
9.14356e-05	0	0	0
9.16544e-05	0	0	0
9.16676e-05	0	0	0
9.17772e-05	0	0	0
9.18804e-05	0	0	0
9.19783e-05	0	0	0
9.20711e-05	0	0	0
9.27579e-05	0	0	0
9.36906e-05	0	0	0
9.37519e-05	0	0	0
9.61764e-05	0	0	0
9.67119e-05	0	0	0
9.67914e-05	0	0	0
9.75425e-05	0	0	0
0.000100074	0	0	0
0.000100951	0	0	0
0.000101342	0	0	0
0.000101474	0	0	0
0.000101915	0	0	0
0.000102246	0	0	0
0.000102437	0	0	0
0.000102732	0	0	0
0.000103111	0	0	0
0.000103799	0	0	0
0.000103905	0	0	0
0.000103983	0	0	0
0.000104421	0	0	0
0.000104849	0	0	0
0.000104849	0	0	0
0.000104942	0	0	0
0.000105264	0	0	0
0.000105474	0	0	0
0.00010575	0	0	0
0.000106994	0	0	0
0.000107197	0	0	0
0.000107319	0	0	0
0.0001074	0	0	0
0.000109379	0	0	0
0.0001098	0	0	0
0.000109801	0	0	0
0.000110099	0	0	0
0.000110566	0	0	0
0.000110651	0	0	0
0.000110687	0	0	0
0.000112163	0	0	0
0.000112604	0	0	0
0.000112655	0	0	0
0.000113265	0	0	0
0.000113527	0	0	0
0.000113853	0	0	0
0.000114268	0	0	0
0.000115393	0	0	0
0.000115454	0	0	0
0.000115514	0	0	0
0.000116489	0	0	0
0.000116672	0	0	0
0.000116733	0	0	0
0.000116958	0	0	0
0.00011731	0	0	0
0.000119221	0	0	0
0.00011947	0	0	0
0.000119789	0	0	0
0.000119902	0	0	0
0.000120708	0	0	0
0.000121066	0	0	0
0.000121159	0	0	0
0.000122009	0	0	0
0.000122147	0	0	0
0.000122224	0	0	0
0.000122343	0	0	0
0.000122367	0	0	0
0.000122372	0	0	0
0.000122458	0	0	0
0.000122975	0	0	0
0.000123084	0	0	0
0.000124393	0	0	0
0.00012447	0	0	0
0.00012484	0	0	0
0.000124959	0	0	0
0.000126105	0	0	0
0.000126608	0	0	0
0.000126881	0	0	0
0.000127258	0	0	0
0.000127339	0	0	0
0.000127696	0	0	0
0.000128068	0	0	0
0.000128459	0	0	0
0.000129489	0	0	0
0.000129777	0	0	0
0.000129921	0	0	0
0.000131209	0	0	0
0.000131737	0	0	0
0.000131747	0	0	0
0.000132145	0	0	0
0.000132415	0	0	0
0.000132467	0	0	0
0.000133526	0	0	0
0.000133776	0	0	0
0.000134066	0	0	0
0.000134993	0	0	0
0.000135467	0	0	0
0.000138449	0	0	0
0.000138684	0	0	0
0.000139083	0	0	0
0.00013971	0	0	0
0.000140111	0	0	0
0.000140679	0	0	0
0.000140918	0	0	0
0.000141206	0	0	0
0.0001413	0	0	0
0.000141655	0	0	0
0.000141714	0	0	0
0.000142118	0	0	0
0.000143175	0	0	0
0.000143391	0	0	0
0.000144428	0	0	0
0.000145278	0	0	0
0.00014557	0	0	0
0.000147451	0	0	0
0.000147702	0	0	0
0.000149992	0	0	0
0.000151031	0	0	0
0.000152142	0	0	0
0.000152622	0	0	0
0.000153695	0	0	0
0.000153744	0	0	0
0.000154963	0	0	0
0.000154986	0	0	0
0.000155179	0	0	0
0.000155341	0	0	0
0.000155401	0	0	0
0.000156674	0	0	0
0.000157121	0	0	0
0.000159434	0	0	0
0.000161907	0	0	0
0.000163164	0	0	0
0.000164328	0	0	0
0.000165081	0	0	0
0.000165145	0	0	0
0.000165797	0	0	0
0.000166701	0	0	0
0.000168005	0	0	0
0.000169106	0	0	0
0.000170588	0	0	0
0.000171116	0	0	0
0.000171761	0	0	0
0.000172074	0	0	0
0.000172096	0	0	0
0.000172506	0	0	0
0.000172714	0	0	0
0.000173192	0	0	0
0.000174563	0	0	0
0.000175373	0	0	0
0.000175456	0	0	0
0.000176104	0	0	0
0.000176485	0	0	0
0.000176997	0	0	0
0.000177555	0	0	0
0.000177601	0	0	0
0.000178749	0	0	0
0.000179315	0	0	0
0.000179998	0	0	0
0.000180077	0	0	0
0.000180842	0	0	0
0.000183193	0	0	0
0.000183441	0	0	0
0.000183973	0	0	0
0.000184433	0	0	0
0.000185468	0	0	0
0.000186374	0	0	0
0.000187871	0	0	0
0.000190944	0	0	0
0.000191814	0	0	0
0.000192045	0	0	0
0.000192524	0	0	0
0.000192788	0	0	0
0.000193323	0	0	0
0.000194175	0	0	0
0.000195424	0	0	0
0.000197208	0	0	0
0.000197769	0	0	0
0.000197781	0	0	0
0.000197825	0	0	0
0.000200266	0	0	0
0.00020045	0	0	0
0.000201864	0	0	0
0.000202116	0	0	0
0.00020338	0	0	0
0.000204711	0	0	0
0.000204938	0	0	0
0.000205041	0	0	0
0.000206328	0	0	0
0.000206975	0	0	0
0.000207102	0	0	0
0.000207743	0	0	0
0.000210772	0	0	0
0.00021132	0	0	0
0.000211761	0	0	0
0.000212027	0	0	0
0.000212984	0	0	0
0.000214016	0	0	0
0.000214402	0	0	0
0.00021745	0	0	0
0.000217577	0	0	0
0.00021786	0	0	0
0.000219675	0	0	0
0.000223625	0	0	0
0.000224063	0	0	0
0.000225908	0	0	0
0.000227211	0	0	0
0.000228415	0	0	0
0.000229286	0	0	0
0.000229415	0	0	0
0.000230664	0	0	0
0.00023116	0	0	0
0.000235632	0	0	0
0.000239206	0	0	0
0.000240117	0	0	0
0.00024032	0	0	0
0.00024131	0	0	0
0.000241846	0	0	0
0.00024274	0	0	0
0.000244539	0	0	0
0.000246146	0	0	0
0.000246195	0	0	0
0.000247476	0	0	0
0.000247593	0	0	0
0.000248499	0	0	0
0.000249369	0	0	0
0.00025014	0	0	0
0.000250167	0	0	0
0.000252062	0	0	0
0.000252109	0	0	0
0.000253139	0	0	0
0.000257456	0	0	0
0.000257901	0	0	0
0.000259017	0	0	0
0.000260786	0	0	0
0.000261813	0	0	0
0.000262474	0	0	0
0.000265235	0	0	0
0.000265911	0	0	0
0.000267588	0	0	0
0.000268264	0	0	0
0.000268897	0	0	0
0.000271378	0	0	0
0.000271657	0	0	0
0.000273878	0	0	0
0.000274087	0	0	0
0.000274919	0	0	0
0.000276176	0	0	0
0.000276203	0	0	0
0.0002767	0	0	0
0.000276864	0	0	0
0.000279032	0	0	0
0.000280883	0	0	0
0.000281379	0	0	0
0.000284843	0	0	0
0.000291042	0	0	0
0.000291652	0	0	0
0.000292095	0	0	0
0.000292105	0	0	0
0.00029234	0	0	0
0.000292351	0	0	0
0.00029545	0	0	0
0.000295834	0	0	0
0.000298741	0	0	0
0.000299649	0	0	0
0.000299687	0	0	0
0.000301387	0	0	0
0.00030185	0	0	0
0.000301942	0	0	0
0.00030676	0	0	0
0.00031153	0	0	0
0.000311532	0	0	0
0.000313723	0	0	0
0.000314351	0	0	0
0.000315779	0	0	0
0.000317691	0	0	0
0.000318423	0	0	0
0.000318762	0	0	0
0.000318842	0	0	0
0.000320051	0	0	0
0.000321911	0	0	0
0.000323183	0	0	0
0.000323397	0	0	0
0.000325689	0	0	0
0.000327071	0	0	0
0.000327687	0	0	0
0.000329152	0	0	0
0.000330361	0	0	0
0.00033054	0	0	0
0.000330949	0	0	0
0.000332537	0	0	0
0.000332587	0	0	0
0.000333073	0	0	0
0.000337323	0	0	0
0.000339792	0	0	0
0.000340199	0	0	0
0.000342251	0	0	0
0.000342764	0	0	0
0.000346175	0	0	0
0.000347824	0	0	0
0.000347829	0	0	0
0.000348976	0	0	0
0.000349948	0	0	0
0.000350874	0	0	0
0.000351002	0	0	0
0.000352922	0	0	0
0.00035317	0	0	0
0.000354244	0	0	0
0.000355592	0	0	0
0.000365604	0	0	0
0.000366381	0	0	0
0.000368229	0	0	0
0.000368845	0	0	0
0.000370883	0	0	0
0.0003712	0	0	0
0.000372098	0	0	0
0.00037579	0	0	0
0.000378023	0	0	0
0.000380256	0	0	0
0.000383826	0	0	0
0.000387031	0	0	0
0.000387119	0	0	0
0.000388153	0	0	0
0.000388827	0	0	0
0.000389576	0	0	0
0.000391043	0	0	0
0.000394458	0	0	0
0.00039491	0	0	0
0.000396477	0	0	0
0.000397444	0	0	0
0.000404561	0	0	0
0.000405554	0	0	0
0.0004076	0	0	0
0.000413385	0	0	0
0.000414826	0	0	0
0.000415812	0	0	0
0.000416602	0	0	0
0.000417669	0	0	0
0.000422289	0	0	0
0.000423497	0	0	0
0.000430421	0	0	0
0.000439049	0	0	0
0.000440668	0	0	0
0.000441016	0	0	0
0.000446003	0	0	0
0.000446621	0	0	0
0.00044946	0	0	0
0.000449745	0	0	0
0.000457902	0	0	0
0.000458649	0	0	0
0.000463188	0	0	0
0.00047104	0	0	0
0.000473314	0	0	0
0.000481934	0	0	0
0.000483493	0	0	0
0.000487338	0	0	0
0.000490363	0	0	0
0.000493734	0	0	0
0.000494326	0	0	0
0.000495751	0	0	0
0.000496715	0	0	0
0.000499876	0	0	0
0.000499926	0	0	0
0.000513668	0	0	0
0.00052352	0	0	0
0.000531937	0	0	0
0.000535642	0	0	0
0.000536484	0	0	0
0.000536536	0	0	0
0.000539249	0	0	0
0.00054736	0	0	0
0.000549406	0	0	0
0.000552927	0	0	0
0.000554954	0	0	0
0.000556232	0	0	0
0.000570413	0	0	0
0.000570718	0	0	0
0.000583553	0	0	0
0.000584199	0	0	0
0.000586094	0	0	0
0.000592939	0	0	0
0.000596202	0	0	0
0.000596246	0	0	0
0.000600507	0	0	0
0.000602201	0	0	0
0.000603583	0	0	0
0.000603817	0	0	0
0.000604543	0	0	0
0.000607635	0	0	0
0.000613216	0	0	0
0.00061872	0	0	0
0.00062254	0	0	0
0.000624563	0	0	0
0.000634221	0	0	0
0.000635188	0	0	0
0.000639997	0	0	0
0.000640081	0	0	0
0.000643305	0	0	0
0.000647039	0	0	0
0.000656	0	0	0
0.000673235	0	0	0
0.000678557	0	0	0
0.000684848	0	0	0
0.00068644	0	0	0
0.000687937	0	0	0
0.000696314	0	0	0
0.000709994	0	0	0
0.000713769	0	0	0
0.000721081	0	0	0
0.000732817	0	0	0
0.000740423	0	0	0
0.000783224	0	0	0
0.000787671	0	0	0
0.000794273	0	0	0
0.000805167	0	0	0
0.000828328	0	0	0
0.000830333	0	0	0
0.000835481	0	0	0
0.000854588	0	0	0
0.000860975	0	0	0
0.000868364	0	0	0
0.000913709	0	0	0
0.000923325	0	0	0
0.000927073	0	0	0
0.00108644	0	0	0
0.00124585	0	0	0
0.00127779	0	0	0
0.00202372	0	0	0
