7.91408e-08	0	0	0
9.81716e-08	0	0	0
1.51047e-07	0	0	0
1.59065e-07	0	0	0
5.54615e-07	0	0	0
6.92337e-07	0	0	0
8.51892e-07	0	0	0
1.13749e-06	0	0	0
1.29084e-06	0	0	0
1.44666e-06	0	0	0
1.56429e-06	0	0	0
1.74195e-06	0	0	0
1.82134e-06	0	0	0
1.89135e-06	0	0	0
2.01424e-06	0	0	0
2.06558e-06	0	0	0
2.20621e-06	0	0	0
2.40378e-06	0	0	0
2.42782e-06	0	0	0
2.62046e-06	0	0	0
2.72216e-06	0	0	0
2.74632e-06	0	0	0
2.96481e-06	0	0	0
2.99378e-06	0	0	0
3.22496e-06	0	0	0
3.56483e-06	0	0	0
3.82394e-06	0	0	0
3.84939e-06	0	0	0
3.90723e-06	0	0	0
4.14154e-06	0	0	0
4.18987e-06	0	0	0
4.27719e-06	0	0	0
4.47202e-06	0	0	0
4.69329e-06	0	0	0
4.79705e-06	0	0	0
4.90629e-06	0	0	0
4.9136e-06	0	0	0
5.05502e-06	0	0	0
5.2858e-06	0	0	0
5.45366e-06	0	0	0
5.55917e-06	0	0	0
5.84376e-06	0	0	0
5.9676e-06	0	0	0
6.06417e-06	0	0	0
6.10607e-06	0	0	0
6.24418e-06	0	0	0
6.26396e-06	0	0	0
6.40663e-06	0	0	0
6.70534e-06	0	0	0
6.97947e-06	0	0	0
7.11702e-06	0	0	0
7.32062e-06	0	0	0
7.40869e-06	0	0	0
7.42633e-06	0	0	0
7.42677e-06	0	0	0
7.48379e-06	0	0	0
7.75228e-06	0	0	0
7.94879e-06	0	0	0
7.94965e-06	0	0	0
8.02592e-06	0	0	0
8.02659e-06	0	0	0
8.0283e-06	0	0	0
8.41794e-06	0	0	0
8.61294e-06	0	0	0
8.65109e-06	0	0	0
8.65726e-06	0	0	0
8.84515e-06	0	0	0
8.96551e-06	0	0	0
9.07139e-06	0	0	0
9.11737e-06	0	0	0
9.26694e-06	0	0	0
9.30336e-06	0	0	0
9.50357e-06	0	0	0
9.5144e-06	0	0	0
9.541e-06	0	0	0
9.57332e-06	0	0	0
9.67903e-06	0	0	0
9.83682e-06	0	0	0
1.00504e-05	0	0	0
1.01353e-05	0	0	0
1.06109e-05	0	0	0
1.06416e-05	0	0	0
1.06625e-05	0	0	0
1.07027e-05	0	0	0
1.08787e-05	0	0	0
1.10458e-05	0	0	0
1.10965e-05	0	0	0
1.12624e-05	0	0	0
1.13212e-05	0	0	0
1.14642e-05	0	0	0
1.17659e-05	0	0	0
1.17741e-05	0	0	0
1.18072e-05	0	0	0
1.21221e-05	0	0	0
1.23233e-05	0	0	0
1.24774e-05	0	0	0
1.26218e-05	0	0	0
1.2651e-05	0	0	0
1.31014e-05	0	0	0
1.32391e-05	0	0	0
1.34638e-05	0	0	0
1.35444e-05	0	0	0
1.36202e-05	0	0	0
1.36452e-05	0	0	0
1.36958e-05	0	0	0
1.37764e-05	0	0	0
1.38669e-05	0	0	0
1.39142e-05	0	0	0
1.39758e-05	0	0	0
1.40425e-05	0	0	0
1.43102e-05	0	0	0
1.43548e-05	0	0	0
1.47272e-05	0	0	0
1.47374e-05	0	0	0
1.49612e-05	0	0	0
1.51449e-05	0	0	0
1.52534e-05	0	0	0
1.53252e-05	0	0	0
1.57657e-05	0	0	0
1.60862e-05	0	0	0
1.64831e-05	0	0	0
1.6564e-05	0	0	0
1.67259e-05	0	0	0
1.71903e-05	0	0	0
1.76246e-05	0	0	0
1.79718e-05	0	0	0
1.82424e-05	0	0	0
1.8497e-05	0	0	0
1.8569e-05	0	0	0
1.86552e-05	0	0	0
1.89601e-05	0	0	0
1.92438e-05	0	0	0
1.9264e-05	0	0	0
1.93091e-05	0	0	0
1.951e-05	0	0	0
1.95719e-05	0	0	0
1.99248e-05	0	0	0
2.01803e-05	0	0	0
2.0262e-05	0	0	0
2.03919e-05	0	0	0
2.05241e-05	0	0	0
2.07421e-05	0	0	0
2.084e-05	0	0	0
2.10288e-05	0	0	0
2.13914e-05	0	0	0
2.16766e-05	0	0	0
2.17342e-05	0	0	0
2.18893e-05	0	0	0
2.20737e-05	0	0	0
2.20957e-05	0	0	0
2.25858e-05	0	0	0
2.28337e-05	0	0	0
2.29088e-05	0	0	0
2.33068e-05	0	0	0
2.33565e-05	0	0	0
2.40646e-05	0	0	0
2.41583e-05	0	0	0
2.46108e-05	0	0	0
2.48042e-05	0	0	0
2.54591e-05	0	0	0
2.56137e-05	0	0	0
2.56822e-05	0	0	0
2.59895e-05	0	0	0
2.60219e-05	0	0	0
2.60278e-05	0	0	0
2.61403e-05	0	0	0
2.62035e-05	0	0	0
2.62726e-05	0	0	0
2.62862e-05	0	0	0
2.63464e-05	0	0	0
2.66247e-05	0	0	0
2.66829e-05	0	0	0
2.70161e-05	0	0	0
2.79049e-05	0	0	0
2.79892e-05	0	0	0
2.81529e-05	0	0	0
2.82712e-05	0	0	0
2.84651e-05	0	0	0
2.8547e-05	0	0	0
2.86382e-05	0	0	0
2.86726e-05	0	0	0
2.87755e-05	0	0	0
2.92099e-05	0	0	0
2.93965e-05	0	0	0
2.96985e-05	0	0	0
2.97158e-05	0	0	0
2.97363e-05	0	0	0
2.97814e-05	0	0	0
3.02068e-05	0	0	0
3.03194e-05	0	0	0
3.0412e-05	0	0	0
3.04472e-05	0	0	0
3.06349e-05	0	0	0
3.08232e-05	0	0	0
3.13105e-05	0	0	0
3.14433e-05	0	0	0
3.15566e-05	0	0	0
3.18745e-05	0	0	0
3.19793e-05	0	0	0
3.20996e-05	0	0	0
3.21492e-05	0	0	0
3.23263e-05	0	0	0
3.24357e-05	0	0	0
3.25732e-05	0	0	0
3.31172e-05	0	0	0
3.319e-05	0	0	0
3.31989e-05	0	0	0
3.32258e-05	0	0	0
3.36365e-05	0	0	0
3.37437e-05	0	0	0
3.38435e-05	0	0	0
3.39961e-05	0	0	0
3.40864e-05	0	0	0
3.41366e-05	0	0	0
3.41643e-05	0	0	0
3.42604e-05	0	0	0
3.4485e-05	0	0	0
3.45907e-05	0	0	0
3.47753e-05	0	0	0
3.50572e-05	0	0	0
3.52584e-05	0	0	0
3.52591e-05	0	0	0
3.53047e-05	0	0	0
3.56298e-05	0	0	0
3.57467e-05	0	0	0
3.61423e-05	0	0	0
3.71608e-05	0	0	0
3.75174e-05	0	0	0
3.78853e-05	0	0	0
3.79427e-05	0	0	0
3.79657e-05	0	0	0
3.81825e-05	0	0	0
3.81993e-05	0	0	0
3.84284e-05	0	0	0
3.89006e-05	0	0	0
3.89233e-05	0	0	0
3.89774e-05	0	0	0
3.90093e-05	0	0	0
3.91935e-05	0	0	0
3.93325e-05	0	0	0
3.93479e-05	0	0	0
3.9466e-05	0	0	0
3.95063e-05	0	0	0
4.00765e-05	0	0	0
4.01033e-05	0	0	0
4.01508e-05	0	0	0
4.02474e-05	0	0	0
4.04455e-05	0	0	0
4.05358e-05	0	0	0
4.05744e-05	0	0	0
4.0715e-05	0	0	0
4.09179e-05	0	0	0
4.13841e-05	0	0	0
4.1949e-05	0	0	0
4.21052e-05	0	0	0
4.22595e-05	0	0	0
4.30937e-05	0	0	0
4.31465e-05	0	0	0
4.35543e-05	0	0	0
4.38807e-05	0	0	0
4.40317e-05	0	0	0
4.42907e-05	0	0	0
4.441e-05	0	0	0
4.45951e-05	0	0	0
4.46529e-05	0	0	0
4.46865e-05	0	0	0
4.50062e-05	0	0	0
4.5319e-05	0	0	0
4.54389e-05	0	0	0
4.56382e-05	0	0	0
4.57544e-05	0	0	0
4.57919e-05	0	0	0
4.61578e-05	0	0	0
4.61964e-05	0	0	0
4.63444e-05	0	0	0
4.63498e-05	0	0	0
4.64197e-05	0	0	0
4.65696e-05	0	0	0
4.68465e-05	0	0	0
4.69582e-05	0	0	0
4.7087e-05	0	0	0
4.73008e-05	0	0	0
4.77452e-05	0	0	0
4.84987e-05	0	0	0
4.88004e-05	0	0	0
4.9052e-05	0	0	0
4.93172e-05	0	0	0
4.95401e-05	0	0	0
4.98068e-05	0	0	0
4.98345e-05	0	0	0
4.98653e-05	0	0	0
5.01694e-05	0	0	0
5.03868e-05	0	0	0
5.06581e-05	0	0	0
5.11005e-05	0	0	0
5.13436e-05	0	0	0
5.18228e-05	0	0	0
5.18425e-05	0	0	0
5.19034e-05	0	0	0
5.19478e-05	0	0	0
5.1988e-05	0	0	0
5.22104e-05	0	0	0
5.2757e-05	0	0	0
5.28412e-05	0	0	0
5.28544e-05	0	0	0
5.33438e-05	0	0	0
5.35239e-05	0	0	0
5.38096e-05	0	0	0
5.39644e-05	0	0	0
5.43979e-05	0	0	0
5.46057e-05	0	0	0
5.47754e-05	0	0	0
5.47824e-05	0	0	0
5.48193e-05	0	0	0
5.55579e-05	0	0	0
5.60201e-05	0	0	0
5.63907e-05	0	0	0
5.68394e-05	0	0	0
5.70214e-05	0	0	0
5.71194e-05	0	0	0
5.72319e-05	0	0	0
5.74823e-05	0	0	0
5.76207e-05	0	0	0
5.83332e-05	0	0	0
5.84073e-05	0	0	0
5.87073e-05	0	0	0
5.9257e-05	0	0	0
5.94186e-05	0	0	0
6.01951e-05	0	0	0
6.0429e-05	0	0	0
6.05556e-05	0	0	0
6.05855e-05	0	0	0
6.07412e-05	0	0	0
6.10335e-05	0	0	0
6.10459e-05	0	0	0
6.11285e-05	0	0	0
6.19216e-05	0	0	0
6.22788e-05	0	0	0
6.27224e-05	0	0	0
6.29144e-05	0	0	0
6.30774e-05	0	0	0
6.31414e-05	0	0	0
6.33618e-05	0	0	0
6.34622e-05	0	0	0
6.35514e-05	0	0	0
6.39859e-05	0	0	0
6.40754e-05	0	0	0
6.41501e-05	0	0	0
6.41769e-05	0	0	0
6.42334e-05	0	0	0
6.48599e-05	0	0	0
6.54886e-05	0	0	0
6.64585e-05	0	0	0
6.68484e-05	0	0	0
6.7032e-05	0	0	0
6.71746e-05	0	0	0
6.73359e-05	0	0	0
6.74152e-05	0	0	0
6.77772e-05	0	0	0
6.79573e-05	0	0	0
6.81718e-05	0	0	0
6.82023e-05	0	0	0
6.8273e-05	0	0	0
6.85585e-05	0	0	0
6.93045e-05	0	0	0
6.95231e-05	0	0	0
7.07234e-05	0	0	0
7.09908e-05	0	0	0
7.10516e-05	0	0	0
7.10593e-05	0	0	0
7.16242e-05	0	0	0
7.16671e-05	0	0	0
7.20785e-05	0	0	0
7.20985e-05	0	0	0
7.21046e-05	0	0	0
7.22777e-05	0	0	0
7.24437e-05	0	0	0
7.25503e-05	0	0	0
7.26688e-05	0	0	0
7.29564e-05	0	0	0
7.38246e-05	0	0	0
7.38603e-05	0	0	0
7.43375e-05	0	0	0
7.44389e-05	0	0	0
7.45248e-05	0	0	0
7.45951e-05	0	0	0
7.54659e-05	0	0	0
7.56436e-05	0	0	0
7.69152e-05	0	0	0
7.75266e-05	0	0	0
7.80245e-05	0	0	0
7.81476e-05	0	0	0
7.83082e-05	0	0	0
8.00829e-05	0	0	0
8.02899e-05	0	0	0
8.08169e-05	0	0	0
8.13048e-05	0	0	0
8.13339e-05	0	0	0
8.15308e-05	0	0	0
8.19226e-05	0	0	0
8.24659e-05	0	0	0
8.25357e-05	0	0	0
8.28309e-05	0	0	0
8.28759e-05	0	0	0
8.31699e-05	0	0	0
8.33573e-05	0	0	0
8.3546e-05	0	0	0
8.39522e-05	0	0	0
8.40681e-05	0	0	0
8.46519e-05	0	0	0
8.46602e-05	0	0	0
8.50113e-05	0	0	0
8.61007e-05	0	0	0
8.66171e-05	0	0	0
8.73404e-05	0	0	0
8.77355e-05	0	0	0
8.80242e-05	0	0	0
8.92306e-05	0	0	0
9.01355e-05	0	0	0
9.03649e-05	0	0	0
9.11232e-05	0	0	0
9.18999e-05	0	0	0
9.1903e-05	0	0	0
9.20656e-05	0	0	0
9.28525e-05	0	0	0
9.29451e-05	0	0	0
9.34639e-05	0	0	0
9.44709e-05	0	0	0
9.45724e-05	0	0	0
9.50503e-05	0	0	0
9.50534e-05	0	0	0
9.59685e-05	0	0	0
9.62435e-05	0	0	0
9.63353e-05	0	0	0
9.74151e-05	0	0	0
9.81753e-05	0	0	0
9.87792e-05	0	0	0
9.90776e-05	0	0	0
9.9303e-05	0	0	0
0.000100005	0	0	0
0.000100163	0	0	0
0.000100407	0	0	0
0.00010074	0	0	0
0.000101219	0	0	0
0.000101436	0	0	0
0.00010214	0	0	0
0.000102565	0	0	0
0.000102647	0	0	0
0.000103662	0	0	0
0.000103768	0	0	0
0.000106139	0	0	0
0.000106559	0	0	0
0.000106734	0	0	0
0.000107154	0	0	0
0.000107409	0	0	0
0.000107531	0	0	0
0.000107863	0	0	0
0.000107958	0	0	0
0.0001085	0	0	0
0.000109251	0	0	0
0.000110928	0	0	0
0.000111581	0	0	0
0.00011159	0	0	0
0.000111732	0	0	0
0.000112058	0	0	0
0.000112069	0	0	0
0.000112138	0	0	0
0.000112282	0	0	0
0.00011268	0	0	0
0.000112684	0	0	0
0.000113474	0	0	0
0.000114879	0	0	0
0.00011593	0	0	0
0.000118576	0	0	0
0.000119852	0	0	0
0.000120121	0	0	0
0.000121457	0	0	0
0.0001218	0	0	0
0.000122465	0	0	0
0.000122816	0	0	0
0.000124201	0	0	0
0.000124274	0	0	0
0.000125087	0	0	0
0.000126076	0	0	0
0.000126817	0	0	0
0.000127574	0	0	0
0.000127703	0	0	0
0.00012778	0	0	0
0.000128955	0	0	0
0.000129013	0	0	0
0.000129437	0	0	0
0.000129648	0	0	0
0.000130303	0	0	0
0.000131018	0	0	0
0.000131384	0	0	0
0.000131591	0	0	0
0.000131978	0	0	0
0.000132513	0	0	0
0.000133121	0	0	0
0.000133635	0	0	0
0.000134345	0	0	0
0.000135027	0	0	0
0.000135292	0	0	0
0.000135953	0	0	0
0.000136136	0	0	0
0.000137208	0	0	0
0.000137568	0	0	0
0.00013986	0	0	0
0.000142301	0	0	0
0.000144256	0	0	0
0.000145617	0	0	0
0.000145729	0	0	0
0.000145913	0	0	0
0.000146029	0	0	0
0.000146175	0	0	0
0.000147235	0	0	0
0.000147648	0	0	0
0.000147836	0	0	0
0.000148076	0	0	0
0.000149225	0	0	0
0.000149233	0	0	0
0.000149448	0	0	0
0.000149877	0	0	0
0.000150125	0	0	0
0.000150328	0	0	0
0.00015094	0	0	0
0.000151117	0	0	0
0.000151171	0	0	0
0.000152137	0	0	0
0.000152372	0	0	0
0.000153237	0	0	0
0.000153741	0	0	0
0.000153748	0	0	0
0.000154488	0	0	0
0.000154695	0	0	0
0.000155238	0	0	0
0.000155435	0	0	0
0.000155903	0	0	0
0.000156677	0	0	0
0.00015686	0	0	0
0.000157087	0	0	0
0.000157445	0	0	0
0.000157579	0	0	0
0.000159251	0	0	0
0.000159725	0	0	0
0.000161483	0	0	0
0.000161706	0	0	0
0.000161835	0	0	0
0.000162859	0	0	0
0.000164208	0	0	0
0.000164788	0	0	0
0.000164866	0	0	0
0.000165459	0	0	0
0.000166778	0	0	0
0.000166914	0	0	0
0.0001683	0	0	0
0.000168483	0	0	0
0.000168677	0	0	0
0.000169111	0	0	0
0.00017077	0	0	0
0.000171041	0	0	0
0.000172432	0	0	0
0.000174222	0	0	0
0.000175631	0	0	0
0.000175633	0	0	0
0.000176447	0	0	0
0.000176862	0	0	0
0.000178288	0	0	0
0.000178435	0	0	0
0.000178491	0	0	0
0.000178826	0	0	0
0.000179047	0	0	0
0.000179475	0	0	0
0.000179613	0	0	0
0.000179685	0	0	0
0.000181465	0	0	0
0.000183374	0	0	0
0.000183762	0	0	0
0.000183959	0	0	0
0.000183983	0	0	0
0.00018491	0	0	0
0.000185601	0	0	0
0.000185663	0	0	0
0.000186703	0	0	0
0.000187276	0	0	0
0.000188343	0	0	0
0.000190173	0	0	0
0.000191113	0	0	0
0.00019277	0	0	0
0.000192974	0	0	0
0.000193253	0	0	0
0.000194658	0	0	0
0.000195287	0	0	0
0.000196018	0	0	0
0.000197733	0	0	0
0.000198579	0	0	0
0.000200722	0	0	0
0.000200906	0	0	0
0.000201845	0	0	0
0.000204311	0	0	0
0.000204546	0	0	0
0.000204856	0	0	0
0.000204866	0	0	0
0.000204917	0	0	0
0.000205728	0	0	0
0.000206933	0	0	0
0.000208473	0	0	0
0.000209341	0	0	0
0.00021042	0	0	0
0.000210425	0	0	0
0.000210459	0	0	0
0.000211423	0	0	0
0.000212108	0	0	0
0.000212465	0	0	0
0.000212565	0	0	0
0.000212696	0	0	0
0.000215323	0	0	0
0.000215974	0	0	0
0.000218847	0	0	0
0.000219508	0	0	0
0.000219735	0	0	0
0.000221779	0	0	0
0.000223165	0	0	0
0.00022468	0	0	0
0.00022521	0	0	0
0.000226854	0	0	0
0.000227401	0	0	0
0.000227491	0	0	0
0.000228297	0	0	0
0.000229284	0	0	0
0.000233767	0	0	0
0.000235194	0	0	0
0.00023602	0	0	0
0.00023603	0	0	0
0.000236951	0	0	0
0.00023707	0	0	0
0.000237274	0	0	0
0.000237613	0	0	0
0.000237977	0	0	0
0.000238914	0	0	0
0.000240858	0	0	0
0.000242358	0	0	0
0.000243115	0	0	0
0.000243582	0	0	0
0.000244815	0	0	0
0.000247198	0	0	0
0.000248092	0	0	0
0.000248236	0	0	0
0.000248503	0	0	0
0.000249066	0	0	0
0.000249967	0	0	0
0.000250123	0	0	0
0.000251833	0	0	0
0.000253924	0	0	0
0.000254083	0	0	0
0.000256061	0	0	0
0.000256624	0	0	0
0.000258801	0	0	0
0.000260646	0	0	0
0.000261914	0	0	0
0.000263388	0	0	0
0.000264637	0	0	0
0.000265559	0	0	0
0.000265601	0	0	0
0.000266778	0	0	0
0.000269851	0	0	0
0.000271813	0	0	0
0.000272185	0	0	0
0.000272959	0	0	0
0.000275086	0	0	0
0.000275242	0	0	0
0.000275327	0	0	0
0.000278818	0	0	0
0.00027951	0	0	0
0.000280688	0	0	0
0.000281532	0	0	0
0.000283693	0	0	0
0.00028393	0	0	0
0.000287178	0	0	0
0.000289196	0	0	0
0.000292255	0	0	0
0.000292977	0	0	0
0.000298105	0	0	0
0.000299618	0	0	0
0.00030049	0	0	0
0.000300716	0	0	0
0.000301547	0	0	0
0.000308664	0	0	0
0.000309336	0	0	0
0.00031162	0	0	0
0.000312496	0	0	0
0.000316974	0	0	0
0.000318226	0	0	0
0.000320029	0	0	0
0.000321268	0	0	0
0.000325565	0	0	0
0.000326936	0	0	0
0.000327009	0	0	0
0.00032774	0	0	0
0.000328403	0	0	0
0.000329227	0	0	0
0.000329925	0	0	0
0.000332684	0	0	0
0.000334622	0	0	0
0.00033533	0	0	0
0.000336086	0	0	0
0.000336484	0	0	0
0.000338272	0	0	0
0.000342076	0	0	0
0.000345613	0	0	0
0.000345676	0	0	0
0.000346614	0	0	0
0.000351676	0	0	0
0.000354147	0	0	0
0.000363838	0	0	0
0.000366367	0	0	0
0.000368046	0	0	0
0.000368288	0	0	0
0.000368699	0	0	0
0.000369678	0	0	0
0.000376237	0	0	0
0.000379103	0	0	0
0.00037914	0	0	0
0.000382971	0	0	0
0.000388914	0	0	0
0.000394087	0	0	0
0.000395039	0	0	0
0.000397493	0	0	0
0.000400673	0	0	0
0.000404635	0	0	0
0.000414254	0	0	0
0.000417887	0	0	0
0.000420612	0	0	0
0.000423359	0	0	0
0.000423907	0	0	0
0.0004283	0	0	0
0.000429242	0	0	0
0.00043115	0	0	0
0.00043398	0	0	0
0.000436334	0	0	0
0.000440035	0	0	0
0.000442559	0	0	0
0.000443218	0	0	0
0.000445344	0	0	0
0.000445586	0	0	0
0.000448956	0	0	0
0.000450509	0	0	0
0.000450916	0	0	0
0.000452324	0	0	0
0.000456294	0	0	0
0.000461173	0	0	0
0.000462513	0	0	0
0.000462731	0	0	0
0.000462766	0	0	0
0.000463179	0	0	0
0.000467324	0	0	0
0.000467461	0	0	0
0.000474844	0	0	0
0.00047872	0	0	0
0.000483313	0	0	0
0.000484779	0	0	0
0.000492564	0	0	0
0.000492604	0	0	0
0.000494756	0	0	0
0.000502363	0	0	0
0.000509403	0	0	0
0.000512506	0	0	0
0.000515251	0	0	0
0.000519043	0	0	0
0.000531833	0	0	0
0.000534919	0	0	0
0.000541714	0	0	0
0.000545927	0	0	0
0.000548096	0	0	0
0.00054832	0	0	0
0.000548561	0	0	0
0.000548798	0	0	0
0.000550744	0	0	0
0.00055442	0	0	0
0.000559281	0	0	0
0.000563067	0	0	0
0.000563761	0	0	0
0.00056523	0	0	0
0.000565769	0	0	0
0.000570325	0	0	0
0.000571075	0	0	0
0.00057513	0	0	0
0.000575356	0	0	0
0.000579956	0	0	0
0.00058027	0	0	0
0.000582157	0	0	0
0.000589941	0	0	0
0.000593828	0	0	0
0.000595668	0	0	0
0.000601569	0	0	0
0.000602262	0	0	0
0.00061216	0	0	0
0.000619744	0	0	0
0.000619922	0	0	0
0.00062656	0	0	0
0.000634084	0	0	0
0.000634582	0	0	0
0.000635056	0	0	0
0.00064006	0	0	0
0.000647004	0	0	0
0.000651812	0	0	0
0.000654313	0	0	0
0.000659801	0	0	0
0.000664234	0	0	0
0.000669094	0	0	0
0.000672308	0	0	0
0.000676207	0	0	0
0.00067635	0	0	0
0.000678389	0	0	0
0.000682874	0	0	0
0.000685693	0	0	0
0.000714045	0	0	0
0.000725023	0	0	0
0.00073087	0	0	0
0.000754915	0	0	0
0.000794005	0	0	0
0.000797988	0	0	0
0.000801299	0	0	0
0.000802383	0	0	0
0.000804173	0	0	0
0.000810259	0	0	0
0.000816726	0	0	0
0.000833244	0	0	0
0.00084684	0	0	0
0.00084902	0	0	0
0.000856094	0	0	0
0.000867691	0	0	0
0.000890134	0	0	0
0.000895442	0	0	0
0.00089875	0	0	0
0.000908634	0	0	0
0.00092375	0	0	0
0.00093847	0	0	0
0.000974079	0	0	0
0.000998038	0	0	0
0.00102135	0	0	0
0.00106041	0	0	0
0.00108512	0	0	0
0.00109314	0	0	0
0.00111584	0	0	0
0.00116316	0	0	0
0.0012346	0	0	0
0.00138428	0	0	0
0.00139502	0	0	0
0.00141393	0	0	0
0.00143103	0	0	0
0.00146664	0	0	0
0.00178067	0	0	0
0.00179156	0	0	0
0.00200388	0	0	0
