9.39767e-10	0	0	0
1.49589e-09	0	0	0
2.32371e-09	0	0	0
3.57171e-09	0	0	0
4.27558e-09	0	0	0
4.99666e-09	0	0	0
5.02645e-09	0	0	0
5.0476e-09	0	0	0
8.58823e-09	0	0	0
8.80902e-09	0	0	0
1.01398e-08	0	0	0
1.08564e-08	0	0	0
1.10402e-08	0	0	0
1.15477e-08	0	0	0
1.27365e-08	0	0	0
1.41879e-08	0	0	0
1.49649e-08	0	0	0
1.7134e-08	0	0	0
1.94807e-08	0	0	0
2.30467e-08	0	0	0
2.36352e-08	0	0	0
2.38027e-08	0	0	0
2.4378e-08	0	0	0
2.52164e-08	0	0	0
2.60278e-08	0	0	0
2.80495e-08	0	0	0
2.87315e-08	0	0	0
2.9283e-08	0	0	0
2.95551e-08	0	0	0
3.05138e-08	0	0	0
3.3558e-08	0	0	0
3.70105e-08	0	0	0
3.79081e-08	0	0	0
3.80036e-08	0	0	0
3.86952e-08	0	0	0
4.04908e-08	0	0	0
4.2058e-08	0	0	0
4.29184e-08	0	0	0
4.40998e-08	0	0	0
4.55355e-08	0	0	0
4.59232e-08	0	0	0
4.83898e-08	0	0	0
4.88223e-08	0	0	0
5.08357e-08	0	0	0
5.15061e-08	0	0	0
5.15581e-08	0	0	0
5.3742e-08	0	0	0
5.53792e-08	0	0	0
5.72372e-08	0	0	0
5.77e-08	0	0	0
6.43083e-08	0	0	0
8.69949e-08	0	0	0
9.34248e-08	0	0	0
1.01495e-07	0	0	0
1.13181e-07	0	0	0
2.05656e-07	0	0	0
2.79336e-07	0	0	0
3.00482e-07	0	0	0
3.72928e-07	0	0	0
5.07264e-07	0	0	0
5.59092e-07	0	0	0
8.43727e-07	0	0	0
8.86866e-07	0	0	0
1.08276e-06	0	0	0
1.16152e-06	0	0	0
1.46274e-06	0	0	0
1.54347e-06	0	0	0
4.11533e-06	0	0	0
4.8364e-06	0	0	0
4.84537e-06	0	0	0
5.6335e-06	0	0	0
4.01631e-05	0	0	0
8.5296e-05	0	0	0
0.000304878	0	0	0
