2.80573e-10	0	0	0
5.89906e-10	0	0	0
9.37984e-10	0	0	0
1.12133e-09	0	0	0
4.23386e-09	0	0	0
5.46592e-09	0	0	0
6.67441e-09	0	0	0
7.41554e-09	0	0	0
7.61145e-09	0	0	0
8.80829e-09	0	0	0
8.93622e-09	0	0	0
1.22297e-08	0	0	0
1.28427e-08	0	0	0
1.44467e-08	0	0	0
1.56656e-08	0	0	0
1.58947e-08	0	0	0
1.60006e-08	0	0	0
1.63222e-08	0	0	0
1.76189e-08	0	0	0
1.81297e-08	0	0	0
1.91176e-08	0	0	0
1.97532e-08	0	0	0
2.04277e-08	0	0	0
2.22071e-08	0	0	0
2.3234e-08	0	0	0
2.44496e-08	0	0	0
2.49343e-08	0	0	0
2.52065e-08	0	0	0
2.7338e-08	0	0	0
2.95084e-08	0	0	0
3.05024e-08	0	0	0
3.05808e-08	0	0	0
3.17179e-08	0	0	0
3.47632e-08	0	0	0
3.58402e-08	0	0	0
4.05378e-08	0	0	0
4.25268e-08	0	0	0
4.58245e-08	0	0	0
4.69302e-08	0	0	0
4.83271e-08	0	0	0
4.95843e-08	0	0	0
5.25556e-08	0	0	0
5.62083e-08	0	0	0
7.51596e-08	0	0	0
7.60044e-08	0	0	0
1.02626e-07	0	0	0
1.08208e-07	0	0	0
1.1185e-07	0	0	0
1.15882e-07	0	0	0
1.1821e-07	0	0	0
1.22571e-07	0	0	0
1.30763e-07	0	0	0
1.42514e-07	0	0	0
1.52614e-07	0	0	0
1.56137e-07	0	0	0
2.08862e-07	0	0	0
4.54362e-07	0	0	0
5.95475e-07	0	0	0
9.08386e-07	0	0	0
1.03372e-06	0	0	0
1.34376e-06	0	0	0
1.45767e-06	0	0	0
1.66437e-06	0	0	0
2.46238e-06	0	0	0
2.60413e-06	0	0	0
3.33406e-06	0	0	0
4.82902e-06	0	0	0
5.36449e-06	0	0	0
5.94928e-06	0	0	0
8.91107e-06	0	0	0
1.33916e-05	0	0	0
1.73504e-05	0	0	0
