1.94836e-10	0	0	0
3.57079e-10	0	0	0
4.27773e-09	0	0	0
4.47594e-09	0	0	0
4.61679e-09	0	0	0
4.66259e-09	0	0	0
4.963e-09	0	0	0
5.65294e-09	0	0	0
5.93052e-09	0	0	0
6.24817e-09	0	0	0
7.58104e-09	0	0	0
8.88892e-09	0	0	0
9.13321e-09	0	0	0
9.52696e-09	0	0	0
1.05428e-08	0	0	0
1.34353e-08	0	0	0
1.34724e-08	0	0	0
1.63301e-08	0	0	0
1.72135e-08	0	0	0
1.81294e-08	0	0	0
1.88542e-08	0	0	0
2.15503e-08	0	0	0
2.27989e-08	0	0	0
2.4239e-08	0	0	0
2.63936e-08	0	0	0
2.74123e-08	0	0	0
2.99961e-08	0	0	0
3.03877e-08	0	0	0
3.26205e-08	0	0	0
3.53395e-08	0	0	0
3.97782e-08	0	0	0
4.04897e-08	0	0	0
4.20181e-08	0	0	0
4.31128e-08	0	0	0
4.51648e-08	0	0	0
4.74147e-08	0	0	0
5.00971e-08	0	0	0
5.02633e-08	0	0	0
5.10733e-08	0	0	0
8.36191e-08	0	0	0
8.43687e-08	0	0	0
8.76479e-08	0	0	0
9.13517e-08	0	0	0
9.64461e-08	0	0	0
1.00803e-07	0	0	0
1.107e-07	0	0	0
1.12018e-07	0	0	0
1.21312e-07	0	0	0
1.63569e-07	0	0	0
1.93881e-07	0	0	0
2.05233e-07	0	0	0
2.23244e-07	0	0	0
2.33747e-07	0	0	0
3.06656e-07	0	0	0
3.5035e-07	0	0	0
4.03316e-07	0	0	0
4.40081e-07	0	0	0
6.39962e-07	0	0	0
6.83267e-07	0	0	0
7.65162e-07	0	0	0
1.14598e-06	0	0	0
1.29034e-06	0	0	0
1.53013e-06	0	0	0
2.1613e-06	0	0	0
2.34828e-06	0	0	0
2.54306e-06	0	0	0
2.84638e-06	0	0	0
3.91502e-06	0	0	0
6.7743e-06	0	0	0
2.48368e-05	0	0	0
6.0037e-05	0	0	0
