1.14717e-10	0	0	0
1.29302e-09	0	0	0
1.38001e-09	0	0	0
3.21801e-09	0	0	0
3.43808e-09	0	0	0
4.02582e-09	0	0	0
4.0641e-09	0	0	0
4.70181e-09	0	0	0
5.41578e-09	0	0	0
6.3121e-09	0	0	0
7.03474e-09	0	0	0
8.58211e-09	0	0	0
8.89877e-09	0	0	0
9.48795e-09	0	0	0
9.67894e-09	0	0	0
1.02291e-08	0	0	0
1.03237e-08	0	0	0
1.15032e-08	0	0	0
1.16855e-08	0	0	0
1.22222e-08	0	0	0
1.31366e-08	0	0	0
1.32037e-08	0	0	0
1.39657e-08	0	0	0
1.5393e-08	0	0	0
1.62218e-08	0	0	0
1.69405e-08	0	0	0
1.73228e-08	0	0	0
1.94635e-08	0	0	0
2.07294e-08	0	0	0
2.15009e-08	0	0	0
2.7703e-08	0	0	0
3.35877e-08	0	0	0
3.38207e-08	0	0	0
3.59275e-08	0	0	0
3.60472e-08	0	0	0
3.80307e-08	0	0	0
3.81235e-08	0	0	0
4.10637e-08	0	0	0
4.52609e-08	0	0	0
4.62857e-08	0	0	0
5.10367e-08	0	0	0
5.18808e-08	0	0	0
5.26924e-08	0	0	0
5.29924e-08	0	0	0
5.45354e-08	0	0	0
6.33652e-08	0	0	0
6.87284e-08	0	0	0
6.95534e-08	0	0	0
8.64205e-08	0	0	0
9.42586e-08	0	0	0
9.8037e-08	0	0	0
1.5656e-07	0	0	0
1.74176e-07	0	0	0
2.40236e-07	0	0	0
3.43358e-07	0	0	0
4.28303e-07	0	0	0
4.56391e-07	0	0	0
4.61043e-07	0	0	0
6.21844e-07	0	0	0
9.06007e-07	0	0	0
9.38893e-07	0	0	0
1.1332e-06	0	0	0
1.42283e-06	0	0	0
1.52229e-06	0	0	0
1.67338e-06	0	0	0
1.85769e-06	0	0	0
2.17511e-06	0	0	0
2.2048e-06	0	0	0
2.21749e-06	0	0	0
2.58115e-06	0	0	0
3.2797e-06	0	0	0
5.46918e-06	0	0	0
