5.54626e-10	0	0	0
1.17079e-09	0	0	0
1.50985e-09	0	0	0
1.67807e-09	0	0	0
1.80854e-09	0	0	0
3.55922e-09	0	0	0
3.66054e-09	0	0	0
3.95955e-09	0	0	0
3.99492e-09	0	0	0
4.27348e-09	0	0	0
4.77863e-09	0	0	0
4.88475e-09	0	0	0
6.35425e-09	0	0	0
7.38018e-09	0	0	0
7.6898e-09	0	0	0
8.53984e-09	0	0	0
9.19459e-09	0	0	0
1.10772e-08	0	0	0
1.1265e-08	0	0	0
1.32454e-08	0	0	0
1.43998e-08	0	0	0
1.46858e-08	0	0	0
1.51879e-08	0	0	0
1.5671e-08	0	0	0
1.63641e-08	0	0	0
1.64099e-08	0	0	0
1.83102e-08	0	0	0
2.1011e-08	0	0	0
2.13247e-08	0	0	0
2.33731e-08	0	0	0
2.50484e-08	0	0	0
2.53828e-08	0	0	0
2.54659e-08	0	0	0
2.66078e-08	0	0	0
2.69959e-08	0	0	0
2.82909e-08	0	0	0
2.95808e-08	0	0	0
3.06266e-08	0	0	0
3.1993e-08	0	0	0
3.74794e-08	0	0	0
4.04194e-08	0	0	0
4.99213e-08	0	0	0
5.15197e-08	0	0	0
5.49538e-08	0	0	0
6.03956e-08	0	0	0
6.20993e-08	0	0	0
6.79561e-08	0	0	0
6.80854e-08	0	0	0
7.29688e-08	0	0	0
7.46533e-08	0	0	0
7.53342e-08	0	0	0
1.42588e-07	0	0	0
1.58649e-07	0	0	0
1.65319e-07	0	0	0
1.86683e-07	0	0	0
1.88493e-07	0	0	0
2.14299e-07	0	0	0
2.57122e-07	0	0	0
3.02605e-07	0	0	0
4.35315e-07	0	0	0
4.86765e-07	0	0	0
5.09424e-07	0	0	0
5.42748e-07	0	0	0
5.5239e-07	0	0	0
6.15981e-07	0	0	0
6.18112e-07	0	0	0
8.52688e-07	0	0	0
9.3861e-07	0	0	0
1.02416e-06	0	0	0
1.15281e-06	0	0	0
1.98471e-06	0	0	0
2.12681e-06	0	0	0
2.73097e-06	0	0	0
3.59208e-06	0	0	0
4.08135e-06	0	0	0
4.50788e-06	0	0	0
9.14132e-06	0	0	0
1.30838e-05	0	0	0
4.01192e-05	0	0	0
9.96319e-05	0	0	0
0.000219846	0	0	0
