6.26852e-10	0	0	0
8.97016e-10	0	0	0
1.41744e-09	0	0	0
2.56852e-09	0	0	0
2.59643e-09	0	0	0
3.20662e-09	0	0	0
3.2626e-09	0	0	0
3.2856e-09	0	0	0
3.46856e-09	0	0	0
3.85665e-09	0	0	0
4.35297e-09	0	0	0
5.03145e-09	0	0	0
5.16341e-09	0	0	0
5.3409e-09	0	0	0
5.64191e-09	0	0	0
6.29959e-09	0	0	0
7.86107e-09	0	0	0
9.92546e-09	0	0	0
1.07524e-08	0	0	0
1.07977e-08	0	0	0
1.09951e-08	0	0	0
1.13045e-08	0	0	0
1.21883e-08	0	0	0
1.22433e-08	0	0	0
1.22921e-08	0	0	0
1.31637e-08	0	0	0
1.48645e-08	0	0	0
1.81325e-08	0	0	0
1.91011e-08	0	0	0
1.98577e-08	0	0	0
2.03798e-08	0	0	0
2.08153e-08	0	0	0
2.23995e-08	0	0	0
2.30362e-08	0	0	0
2.40537e-08	0	0	0
2.50593e-08	0	0	0
2.53587e-08	0	0	0
3.03608e-08	0	0	0
3.2181e-08	0	0	0
3.4341e-08	0	0	0
3.9849e-08	0	0	0
4.30497e-08	0	0	0
4.4833e-08	0	0	0
5.10811e-08	0	0	0
5.50597e-08	0	0	0
5.53669e-08	0	0	0
6.08e-08	0	0	0
6.40157e-08	0	0	0
6.80973e-08	0	0	0
6.92744e-08	0	0	0
7.26253e-08	0	0	0
7.33672e-08	0	0	0
8.12193e-08	0	0	0
8.67061e-08	0	0	0
1.10363e-07	0	0	0
1.18387e-07	0	0	0
1.27015e-07	0	0	0
1.42917e-07	0	0	0
1.59801e-07	0	0	0
3.57426e-07	0	0	0
3.80097e-07	0	0	0
4.34623e-07	0	0	0
4.46511e-07	0	0	0
4.62536e-07	0	0	0
5.29207e-07	0	0	0
5.60683e-07	0	0	0
1.08042e-06	0	0	0
1.11706e-06	0	0	0
1.41501e-06	0	0	0
1.7306e-06	0	0	0
1.82879e-06	0	0	0
3.03277e-06	0	0	0
3.11302e-06	0	0	0
5.91095e-06	0	0	0
6.25682e-06	0	0	0
7.37846e-06	0	0	0
8.06428e-06	0	0	0
3.19153e-05	0	0	0
