5.27482e-10	0	0	0
5.63114e-10	0	0	0
1.24905e-09	0	0	0
2.35168e-09	0	0	0
3.38946e-09	0	0	0
3.44285e-09	0	0	0
3.87356e-09	0	0	0
4.11178e-09	0	0	0
5.00005e-09	0	0	0
5.35759e-09	0	0	0
6.24362e-09	0	0	0
6.56047e-09	0	0	0
6.9362e-09	0	0	0
7.00786e-09	0	0	0
8.61768e-09	0	0	0
8.97478e-09	0	0	0
9.68873e-09	0	0	0
9.75324e-09	0	0	0
1.0366e-08	0	0	0
1.15969e-08	0	0	0
1.18992e-08	0	0	0
1.3449e-08	0	0	0
1.35944e-08	0	0	0
1.37628e-08	0	0	0
1.38441e-08	0	0	0
1.41825e-08	0	0	0
1.78515e-08	0	0	0
1.82405e-08	0	0	0
1.85638e-08	0	0	0
1.93993e-08	0	0	0
1.96522e-08	0	0	0
2.19524e-08	0	0	0
2.60267e-08	0	0	0
2.6664e-08	0	0	0
2.8207e-08	0	0	0
2.84894e-08	0	0	0
2.93112e-08	0	0	0
3.12475e-08	0	0	0
3.20428e-08	0	0	0
3.39777e-08	0	0	0
4.11922e-08	0	0	0
4.29854e-08	0	0	0
4.32705e-08	0	0	0
4.69327e-08	0	0	0
4.94785e-08	0	0	0
5.11426e-08	0	0	0
5.24275e-08	0	0	0
5.2432e-08	0	0	0
5.34889e-08	0	0	0
5.55873e-08	0	0	0
6.58042e-08	0	0	0
9.0801e-08	0	0	0
1.19356e-07	0	0	0
2.01677e-07	0	0	0
2.09691e-07	0	0	0
2.30038e-07	0	0	0
2.77611e-07	0	0	0
3.64018e-07	0	0	0
4.38904e-07	0	0	0
4.46393e-07	0	0	0
4.64499e-07	0	0	0
4.74306e-07	0	0	0
5.3809e-07	0	0	0
5.68722e-07	0	0	0
7.47542e-07	0	0	0
7.71986e-07	0	0	0
9.4997e-07	0	0	0
9.95851e-07	0	0	0
1.04532e-06	0	0	0
1.63166e-06	0	0	0
1.66654e-06	0	0	0
1.79742e-06	0	0	0
1.90435e-06	0	0	0
2.4896e-06	0	0	0
2.90521e-06	0	0	0
