3.68719e-10	0	0	0
6.98666e-10	0	0	0
1.64877e-09	0	0	0
3.58807e-09	0	0	0
4.34553e-09	0	0	0
4.63468e-09	0	0	0
5.12348e-09	0	0	0
6.33818e-09	0	0	0
6.64796e-09	0	0	0
7.07653e-09	0	0	0
7.17344e-09	0	0	0
7.55131e-09	0	0	0
7.58451e-09	0	0	0
8.78697e-09	0	0	0
8.90193e-09	0	0	0
9.09804e-09	0	0	0
9.16943e-09	0	0	0
1.03957e-08	0	0	0
1.15529e-08	0	0	0
1.1596e-08	0	0	0
1.22649e-08	0	0	0
1.31521e-08	0	0	0
1.35963e-08	0	0	0
1.58174e-08	0	0	0
1.71159e-08	0	0	0
1.72038e-08	0	0	0
1.76776e-08	0	0	0
1.77851e-08	0	0	0
1.93021e-08	0	0	0
2.00194e-08	0	0	0
2.10089e-08	0	0	0
2.17953e-08	0	0	0
2.19924e-08	0	0	0
2.27855e-08	0	0	0
2.49765e-08	0	0	0
2.65982e-08	0	0	0
2.71182e-08	0	0	0
2.83095e-08	0	0	0
3.24243e-08	0	0	0
3.36325e-08	0	0	0
3.52135e-08	0	0	0
3.67319e-08	0	0	0
4.22064e-08	0	0	0
4.33634e-08	0	0	0
4.72547e-08	0	0	0
5.07573e-08	0	0	0
5.85995e-08	0	0	0
5.93123e-08	0	0	0
6.2689e-08	0	0	0
9.84263e-08	0	0	0
9.86736e-08	0	0	0
1.07653e-07	0	0	0
1.0915e-07	0	0	0
1.68347e-07	0	0	0
1.8017e-07	0	0	0
2.04646e-07	0	0	0
3.4204e-07	0	0	0
6.39102e-07	0	0	0
8.50049e-07	0	0	0
9.30003e-07	0	0	0
1.27139e-06	0	0	0
1.52797e-06	0	0	0
1.53262e-06	0	0	0
1.59606e-06	0	0	0
1.62949e-06	0	0	0
1.85961e-06	0	0	0
2.36155e-06	0	0	0
2.68409e-06	0	0	0
2.71257e-06	0	0	0
3.25324e-06	0	0	0
3.4374e-06	0	0	0
4.7094e-06	0	0	0
9.15715e-06	0	0	0
