5.02652e-10	0	0	0
1.1609e-09	0	0	0
1.9767e-09	0	0	0
2.1351e-09	0	0	0
2.30897e-09	0	0	0
2.52049e-09	0	0	0
2.81342e-09	0	0	0
2.87101e-09	0	0	0
2.99568e-09	0	0	0
3.1906e-09	0	0	0
3.52163e-09	0	0	0
4.17442e-09	0	0	0
4.42952e-09	0	0	0
4.72387e-09	0	0	0
5.61699e-09	0	0	0
5.86478e-09	0	0	0
6.63699e-09	0	0	0
6.73868e-09	0	0	0
7.7986e-09	0	0	0
8.3152e-09	0	0	0
8.87911e-09	0	0	0
9.09177e-09	0	0	0
9.58976e-09	0	0	0
1.04806e-08	0	0	0
1.11876e-08	0	0	0
1.17316e-08	0	0	0
1.23189e-08	0	0	0
1.245e-08	0	0	0
1.44372e-08	0	0	0
1.7063e-08	0	0	0
1.84814e-08	0	0	0
1.86196e-08	0	0	0
1.87258e-08	0	0	0
2.12211e-08	0	0	0
2.15405e-08	0	0	0
2.29811e-08	0	0	0
2.42573e-08	0	0	0
2.5169e-08	0	0	0
2.62061e-08	0	0	0
3.68629e-08	0	0	0
3.78676e-08	0	0	0
3.95167e-08	0	0	0
4.1936e-08	0	0	0
4.4798e-08	0	0	0
4.75733e-08	0	0	0
4.88688e-08	0	0	0
5.8282e-08	0	0	0
6.56059e-08	0	0	0
6.94928e-08	0	0	0
7.07894e-08	0	0	0
7.75469e-08	0	0	0
8.10743e-08	0	0	0
8.4869e-08	0	0	0
9.37662e-08	0	0	0
1.11368e-07	0	0	0
1.14945e-07	0	0	0
1.47815e-07	0	0	0
1.7901e-07	0	0	0
2.02998e-07	0	0	0
3.16176e-07	0	0	0
3.83666e-07	0	0	0
3.85883e-07	0	0	0
3.98964e-07	0	0	0
4.70147e-07	0	0	0
7.95047e-07	0	0	0
7.96435e-07	0	0	0
9.27272e-07	0	0	0
9.74732e-07	0	0	0
1.12099e-06	0	0	0
1.32634e-06	0	0	0
1.69123e-06	0	0	0
1.69282e-06	0	0	0
3.09001e-06	0	0	0
4.0927e-06	0	0	0
5.24236e-06	0	0	0
4.9045e-05	0	0	0
