6.59169e-11	0	0	0
2.18929e-10	0	0	0
6.01307e-10	0	0	0
8.77634e-10	0	0	0
1.08835e-09	0	0	0
1.28304e-09	0	0	0
2.3751e-09	0	0	0
3.59136e-09	0	0	0
3.76607e-09	0	0	0
4.47952e-09	0	0	0
6.85407e-09	0	0	0
7.92006e-09	0	0	0
8.48852e-09	0	0	0
9.44583e-09	0	0	0
1.09032e-08	0	0	0
1.14734e-08	0	0	0
1.15524e-08	0	0	0
1.22435e-08	0	0	0
1.3467e-08	0	0	0
1.38329e-08	0	0	0
1.54072e-08	0	0	0
1.75027e-08	0	0	0
1.75703e-08	0	0	0
1.84232e-08	0	0	0
1.95456e-08	0	0	0
2.20629e-08	0	0	0
2.53732e-08	0	0	0
2.74641e-08	0	0	0
2.78526e-08	0	0	0
3.0989e-08	0	0	0
3.46539e-08	0	0	0
3.50469e-08	0	0	0
3.57902e-08	0	0	0
3.77254e-08	0	0	0
3.96592e-08	0	0	0
4.19219e-08	0	0	0
4.31079e-08	0	0	0
4.31676e-08	0	0	0
4.38188e-08	0	0	0
4.54217e-08	0	0	0
4.73986e-08	0	0	0
4.93104e-08	0	0	0
5.07218e-08	0	0	0
5.08324e-08	0	0	0
5.37792e-08	0	0	0
5.39171e-08	0	0	0
5.75213e-08	0	0	0
6.53054e-08	0	0	0
7.02629e-08	0	0	0
7.28292e-08	0	0	0
8.47974e-08	0	0	0
9.37488e-08	0	0	0
9.71361e-08	0	0	0
1.09363e-07	0	0	0
1.20786e-07	0	0	0
1.60242e-07	0	0	0
2.2803e-07	0	0	0
2.34018e-07	0	0	0
2.88607e-07	0	0	0
3.58726e-07	0	0	0
3.97183e-07	0	0	0
4.02794e-07	0	0	0
4.37098e-07	0	0	0
6.13193e-07	0	0	0
7.61043e-07	0	0	0
7.93841e-07	0	0	0
9.68396e-07	0	0	0
1.06758e-06	0	0	0
1.08027e-06	0	0	0
1.0918e-06	0	0	0
1.15272e-06	0	0	0
1.40416e-06	0	0	0
1.40944e-06	0	0	0
1.63767e-06	0	0	0
2.30617e-06	0	0	0
3.71198e-06	0	0	0
4.31008e-06	0	0	0
6.1996e-06	0	0	0
2.17826e-05	0	0	0
3.22957e-05	0	0	0
8.61671e-05	0	0	0
