1.83628e-11	0	0	0
8.82537e-10	0	0	0
1.63542e-09	0	0	0
2.1699e-09	0	0	0
2.27008e-09	0	0	0
2.48215e-09	0	0	0
2.88797e-09	0	0	0
4.73572e-09	0	0	0
5.2238e-09	0	0	0
5.34247e-09	0	0	0
7.70362e-09	0	0	0
9.6339e-09	0	0	0
9.77109e-09	0	0	0
1.02533e-08	0	0	0
1.04885e-08	0	0	0
1.14531e-08	0	0	0
1.21175e-08	0	0	0
1.24954e-08	0	0	0
1.43197e-08	0	0	0
1.44278e-08	0	0	0
1.5514e-08	0	0	0
1.77069e-08	0	0	0
1.82889e-08	0	0	0
1.99114e-08	0	0	0
1.99124e-08	0	0	0
2.01314e-08	0	0	0
2.01978e-08	0	0	0
2.04493e-08	0	0	0
2.04546e-08	0	0	0
2.20145e-08	0	0	0
2.25518e-08	0	0	0
2.48041e-08	0	0	0
2.48366e-08	0	0	0
2.67167e-08	0	0	0
2.84974e-08	0	0	0
3.08236e-08	0	0	0
3.10228e-08	0	0	0
3.27172e-08	0	0	0
3.64763e-08	0	0	0
4.17288e-08	0	0	0
4.30353e-08	0	0	0
4.39971e-08	0	0	0
5.02624e-08	0	0	0
5.38863e-08	0	0	0
6.40562e-08	0	0	0
6.4702e-08	0	0	0
6.57813e-08	0	0	0
6.80472e-08	0	0	0
7.06043e-08	0	0	0
8.66813e-08	0	0	0
8.84173e-08	0	0	0
9.28102e-08	0	0	0
9.49116e-08	0	0	0
1.0012e-07	0	0	0
1.04761e-07	0	0	0
1.50952e-07	0	0	0
2.00829e-07	0	0	0
2.09184e-07	0	0	0
2.19605e-07	0	0	0
2.42974e-07	0	0	0
2.62549e-07	0	0	0
2.82866e-07	0	0	0
3.57452e-07	0	0	0
3.74458e-07	0	0	0
4.78124e-07	0	0	0
5.61268e-07	0	0	0
5.87259e-07	0	0	0
6.19747e-07	0	0	0
1.76434e-06	0	0	0
2.27739e-06	0	0	0
2.32671e-06	0	0	0
1.84506e-05	0	0	0
