1.42501e-09	0	0	0
1.61892e-09	0	0	0
3.55406e-09	0	0	0
4.2122e-09	0	0	0
4.21426e-09	0	0	0
4.22732e-09	0	0	0
5.29456e-09	0	0	0
6.12374e-09	0	0	0
6.40444e-09	0	0	0
8.14364e-09	0	0	0
9.10809e-09	0	0	0
9.42962e-09	0	0	0
9.76636e-09	0	0	0
1.01838e-08	0	0	0
1.08593e-08	0	0	0
1.22269e-08	0	0	0
1.25661e-08	0	0	0
1.28496e-08	0	0	0
1.39893e-08	0	0	0
1.42271e-08	0	0	0
1.53032e-08	0	0	0
1.73018e-08	0	0	0
1.85282e-08	0	0	0
1.99987e-08	0	0	0
2.02094e-08	0	0	0
2.04519e-08	0	0	0
2.35999e-08	0	0	0
2.52072e-08	0	0	0
2.64904e-08	0	0	0
2.86174e-08	0	0	0
3.05672e-08	0	0	0
3.34155e-08	0	0	0
3.53924e-08	0	0	0
3.86883e-08	0	0	0
3.97389e-08	0	0	0
3.98161e-08	0	0	0
4.23011e-08	0	0	0
4.4036e-08	0	0	0
4.57475e-08	0	0	0
4.68183e-08	0	0	0
4.82366e-08	0	0	0
4.87949e-08	0	0	0
5.93786e-08	0	0	0
6.00694e-08	0	0	0
6.407e-08	0	0	0
6.72912e-08	0	0	0
7.8686e-08	0	0	0
7.91844e-08	0	0	0
8.46184e-08	0	0	0
8.71555e-08	0	0	0
1.00335e-07	0	0	0
1.03206e-07	0	0	0
1.16771e-07	0	0	0
1.57755e-07	0	0	0
1.63428e-07	0	0	0
1.8525e-07	0	0	0
2.44112e-07	0	0	0
2.51653e-07	0	0	0
2.61143e-07	0	0	0
3.3525e-07	0	0	0
3.36624e-07	0	0	0
3.8543e-07	0	0	0
6.0537e-07	0	0	0
6.56518e-07	0	0	0
7.55941e-07	0	0	0
1.0143e-06	0	0	0
1.51187e-06	0	0	0
2.17377e-06	0	0	0
2.9444e-06	0	0	0
3.02622e-06	0	0	0
5.20367e-06	0	0	0
1.78495e-05	0	0	0
