1.06935e-10	0	0	0
1.13557e-09	0	0	0
1.55101e-09	0	0	0
1.65065e-09	0	0	0
1.8778e-09	0	0	0
1.98702e-09	0	0	0
2.44717e-09	0	0	0
3.31013e-09	0	0	0
3.64054e-09	0	0	0
4.49504e-09	0	0	0
5.13616e-09	0	0	0
5.80067e-09	0	0	0
6.47221e-09	0	0	0
6.9721e-09	0	0	0
7.19571e-09	0	0	0
8.44361e-09	0	0	0
9.48751e-09	0	0	0
9.54735e-09	0	0	0
1.04485e-08	0	0	0
1.04662e-08	0	0	0
1.17704e-08	0	0	0
1.26615e-08	0	0	0
1.27763e-08	0	0	0
1.35163e-08	0	0	0
1.49721e-08	0	0	0
1.51526e-08	0	0	0
1.8289e-08	0	0	0
1.83437e-08	0	0	0
2.20357e-08	0	0	0
2.26378e-08	0	0	0
2.29014e-08	0	0	0
2.35671e-08	0	0	0
2.40288e-08	0	0	0
2.86933e-08	0	0	0
2.87808e-08	0	0	0
2.90161e-08	0	0	0
3.08789e-08	0	0	0
3.28002e-08	0	0	0
3.4424e-08	0	0	0
3.49122e-08	0	0	0
3.81934e-08	0	0	0
4.19843e-08	0	0	0
4.68224e-08	0	0	0
4.8596e-08	0	0	0
4.89681e-08	0	0	0
5.07377e-08	0	0	0
5.26269e-08	0	0	0
5.33005e-08	0	0	0
7.41615e-08	0	0	0
7.81816e-08	0	0	0
8.92836e-08	0	0	0
9.95536e-08	0	0	0
1.00307e-07	0	0	0
1.01381e-07	0	0	0
1.46624e-07	0	0	0
1.82297e-07	0	0	0
1.88259e-07	0	0	0
1.94723e-07	0	0	0
2.3405e-07	0	0	0
2.4081e-07	0	0	0
2.8258e-07	0	0	0
4.94955e-07	0	0	0
5.03891e-07	0	0	0
5.52548e-07	0	0	0
1.12779e-06	0	0	0
1.247e-06	0	0	0
1.44611e-06	0	0	0
1.54003e-06	0	0	0
1.54712e-06	0	0	0
1.63433e-06	0	0	0
1.97471e-06	0	0	0
2.31563e-06	0	0	0
2.30919e-05	0	0	0
