1.49414e-10	0	0	0
1.92923e-10	0	0	0
2.93581e-10	0	0	0
1.47873e-09	0	0	0
2.31977e-09	0	0	0
2.33165e-09	0	0	0
3.14221e-09	0	0	0
3.20092e-09	0	0	0
3.29417e-09	0	0	0
3.43301e-09	0	0	0
3.55409e-09	0	0	0
3.79028e-09	0	0	0
4.4252e-09	0	0	0
5.40916e-09	0	0	0
5.98799e-09	0	0	0
6.94114e-09	0	0	0
7.02194e-09	0	0	0
7.70159e-09	0	0	0
7.89443e-09	0	0	0
8.54656e-09	0	0	0
8.73904e-09	0	0	0
8.98591e-09	0	0	0
9.43909e-09	0	0	0
9.68947e-09	0	0	0
1.00324e-08	0	0	0
1.2527e-08	0	0	0
1.46524e-08	0	0	0
1.57605e-08	0	0	0
1.75425e-08	0	0	0
1.89242e-08	0	0	0
1.97876e-08	0	0	0
2.08619e-08	0	0	0
2.1229e-08	0	0	0
2.80817e-08	0	0	0
2.81682e-08	0	0	0
3.29558e-08	0	0	0
3.40374e-08	0	0	0
3.90548e-08	0	0	0
4.09021e-08	0	0	0
4.29769e-08	0	0	0
5.06257e-08	0	0	0
5.22458e-08	0	0	0
5.58604e-08	0	0	0
5.62522e-08	0	0	0
6.05462e-08	0	0	0
7.42425e-08	0	0	0
8.13838e-08	0	0	0
9.24001e-08	0	0	0
1.01963e-07	0	0	0
1.11918e-07	0	0	0
1.15607e-07	0	0	0
1.22905e-07	0	0	0
1.39352e-07	0	0	0
1.44435e-07	0	0	0
1.5346e-07	0	0	0
1.60762e-07	0	0	0
1.61347e-07	0	0	0
1.72868e-07	0	0	0
1.91581e-07	0	0	0
3.42513e-07	0	0	0
3.47179e-07	0	0	0
3.52332e-07	0	0	0
4.26431e-07	0	0	0
6.67366e-07	0	0	0
8.07453e-07	0	0	0
9.60746e-07	0	0	0
1.04177e-06	0	0	0
1.32583e-06	0	0	0
1.4782e-06	0	0	0
1.71994e-06	0	0	0
2.61915e-06	0	0	0
4.08154e-06	0	0	0
4.5676e-06	0	0	0
7.32489e-06	0	0	0
8.88319e-06	0	0	0
0.000348004	0	0	0
