3.02239e-09	0	0	0
4.12814e-09	0	0	0
4.58531e-09	0	0	0
7.20207e-09	0	0	0
8.64302e-09	0	0	0
9.09856e-09	0	0	0
1.09225e-08	0	0	0
1.09599e-08	0	0	0
1.2812e-08	0	0	0
1.30461e-08	0	0	0
1.43528e-08	0	0	0
1.46293e-08	0	0	0
1.6363e-08	0	0	0
1.67534e-08	0	0	0
1.78621e-08	0	0	0
2.07861e-08	0	0	0
2.35973e-08	0	0	0
2.89755e-08	0	0	0
3.26375e-08	0	0	0
3.75307e-08	0	0	0
3.83829e-08	0	0	0
3.88433e-08	0	0	0
4.34098e-08	0	0	0
5.16319e-08	0	0	0
6.30832e-08	0	0	0
8.1595e-08	0	0	0
1.25832e-07	0	0	0
1.61673e-07	0	0	0
3.19924e-07	0	0	0
3.53339e-07	0	0	0
9.14224e-07	0	0	0
1.50264e-06	0	0	0
1.584e-06	0	0	0
1.7179e-06	0	0	0
1.94136e-06	0	0	0
2.73092e-06	0	0	0
2.89604e-06	0	0	0
4.09417e-06	0	0	0
4.37486e-06	0	0	0
6.08277e-06	0	0	0
7.8616e-06	0	0	0
1.54074e-05	0	0	0
1.596e-05	0	0	0
0.000105349	0	0	0
