2.81562e-10	0	0	0
1.24521e-09	0	0	0
1.82503e-09	0	0	0
2.54672e-09	0	0	0
4.00053e-09	0	0	0
4.49082e-09	0	0	0
5.0113e-09	0	0	0
5.02921e-09	0	0	0
5.68008e-09	0	0	0
7.01263e-09	0	0	0
9.03828e-09	0	0	0
9.3542e-09	0	0	0
1.61932e-08	0	0	0
2.00706e-08	0	0	0
2.2627e-08	0	0	0
2.32443e-08	0	0	0
3.21819e-08	0	0	0
3.47221e-08	0	0	0
3.54366e-08	0	0	0
3.99884e-08	0	0	0
5.44461e-08	0	0	0
5.58015e-08	0	0	0
5.97204e-08	0	0	0
7.74746e-08	0	0	0
7.91167e-08	0	0	0
9.32403e-08	0	0	0
9.41349e-08	0	0	0
9.70355e-08	0	0	0
1.07296e-07	0	0	0
1.39215e-07	0	0	0
3.81942e-07	0	0	0
6.16777e-07	0	0	0
1.18169e-06	0	0	0
1.56845e-06	0	0	0
1.60257e-06	0	0	0
2.07442e-06	0	0	0
2.56695e-06	0	0	0
3.08703e-06	0	0	0
3.50878e-06	0	0	0
4.03427e-06	0	0	0
4.05099e-06	0	0	0
4.42121e-06	0	0	0
4.92326e-06	0	0	0
5.50644e-06	0	0	0
1.03298e-05	0	0	0
1.60388e-05	0	0	0
3.00349e-05	0	0	0
8.55227e-05	0	0	0
