1.0861e-09	0	0	0
2.44585e-09	0	0	0
4.08367e-09	0	0	0
4.56321e-09	0	0	0
4.98479e-09	0	0	0
5.99185e-09	0	0	0
6.26506e-09	0	0	0
7.76765e-09	0	0	0
9.75184e-09	0	0	0
1.03284e-08	0	0	0
1.23487e-08	0	0	0
1.79237e-08	0	0	0
2.22726e-08	0	0	0
2.26036e-08	0	0	0
2.63293e-08	0	0	0
2.79943e-08	0	0	0
3.12007e-08	0	0	0
4.43633e-08	0	0	0
4.72028e-08	0	0	0
5.86374e-08	0	0	0
6.01668e-08	0	0	0
7.52251e-08	0	0	0
7.76574e-08	0	0	0
9.41229e-08	0	0	0
1.11778e-07	0	0	0
1.61162e-07	0	0	0
3.42561e-07	0	0	0
3.66623e-07	0	0	0
4.71496e-07	0	0	0
6.09626e-07	0	0	0
8.18882e-07	0	0	0
8.35937e-07	0	0	0
8.76717e-07	0	0	0
8.77318e-07	0	0	0
9.14279e-07	0	0	0
9.95382e-07	0	0	0
1.69661e-06	0	0	0
1.85458e-06	0	0	0
2.23064e-06	0	0	0
2.45671e-06	0	0	0
2.99632e-06	0	0	0
3.07497e-06	0	0	0
6.4027e-06	0	0	0
6.90373e-06	0	0	0
