7.05128e-10	0	0	0
8.54585e-10	0	0	0
2.10455e-09	0	0	0
2.48346e-09	0	0	0
2.49055e-09	0	0	0
3.86437e-09	0	0	0
7.04993e-09	0	0	0
7.63418e-09	0	0	0
9.1543e-09	0	0	0
1.09879e-08	0	0	0
1.20216e-08	0	0	0
1.48765e-08	0	0	0
1.86231e-08	0	0	0
2.31604e-08	0	0	0
2.37533e-08	0	0	0
2.78813e-08	0	0	0
3.33273e-08	0	0	0
3.51925e-08	0	0	0
4.43031e-08	0	0	0
6.03556e-08	0	0	0
8.43658e-08	0	0	0
9.68182e-08	0	0	0
1.08397e-07	0	0	0
1.19901e-07	0	0	0
1.35335e-07	0	0	0
1.90782e-07	0	0	0
5.92609e-07	0	0	0
8.10578e-07	0	0	0
9.51626e-07	0	0	0
1.2797e-06	0	0	0
2.03924e-06	0	0	0
2.12671e-06	0	0	0
2.64495e-06	0	0	0
2.84636e-06	0	0	0
3.8563e-06	0	0	0
4.26089e-06	0	0	0
5.05383e-06	0	0	0
5.18386e-06	0	0	0
6.32501e-06	0	0	0
7.11309e-06	0	0	0
7.37013e-06	0	0	0
9.07244e-06	0	0	0
1.81807e-05	0	0	0
