4.09057e-09	0	0	0
4.33521e-09	0	0	0
8.59496e-09	0	0	0
9.34571e-09	0	0	0
9.34928e-09	0	0	0
9.72463e-09	0	0	0
1.49323e-08	0	0	0
1.77845e-08	0	0	0
2.11507e-08	0	0	0
2.14694e-08	0	0	0
2.26771e-08	0	0	0
2.39249e-08	0	0	0
2.93738e-08	0	0	0
3.43787e-08	0	0	0
3.62565e-08	0	0	0
3.66458e-08	0	0	0
3.82249e-08	0	0	0
3.89925e-08	0	0	0
3.92618e-08	0	0	0
4.65075e-08	0	0	0
6.30316e-08	0	0	0
6.53855e-08	0	0	0
1.00422e-07	0	0	0
1.26297e-07	0	0	0
1.43284e-07	0	0	0
1.46984e-07	0	0	0
2.88717e-07	0	0	0
3.93755e-07	0	0	0
4.13407e-07	0	0	0
4.53609e-07	0	0	0
4.91271e-07	0	0	0
8.02308e-07	0	0	0
8.4312e-07	0	0	0
1.3376e-06	0	0	0
1.69783e-06	0	0	0
1.92277e-06	0	0	0
2.16646e-06	0	0	0
3.70769e-06	0	0	0
4.69543e-06	0	0	0
5.58059e-06	0	0	0
7.74873e-06	0	0	0
8.20493e-06	0	0	0
1.30264e-05	0	0	0
7.89538e-05	0	0	0
0.000160157	0	0	0
