6.11395e-10	0	0	0
6.35892e-10	0	0	0
7.30302e-10	0	0	0
1.68892e-09	0	0	0
2.39073e-09	0	0	0
6.37672e-09	0	0	0
7.44467e-09	0	0	0
8.59746e-09	0	0	0
8.96566e-09	0	0	0
9.7403e-09	0	0	0
9.897e-09	0	0	0
1.10003e-08	0	0	0
1.44706e-08	0	0	0
2.46995e-08	0	0	0
3.18405e-08	0	0	0
3.64782e-08	0	0	0
3.75105e-08	0	0	0
3.89914e-08	0	0	0
4.06679e-08	0	0	0
4.66403e-08	0	0	0
4.673e-08	0	0	0
5.86778e-08	0	0	0
6.17085e-08	0	0	0
1.00537e-07	0	0	0
1.20332e-07	0	0	0
1.21051e-07	0	0	0
1.37298e-07	0	0	0
4.76646e-07	0	0	0
7.58909e-07	0	0	0
7.69676e-07	0	0	0
7.84051e-07	0	0	0
1.03184e-06	0	0	0
1.52286e-06	0	0	0
1.59494e-06	0	0	0
1.85683e-06	0	0	0
1.94806e-06	0	0	0
1.95726e-06	0	0	0
2.08525e-06	0	0	0
2.76446e-06	0	0	0
3.13697e-06	0	0	0
5.47545e-06	0	0	0
2.7044e-05	0	0	0
