1.21815e-09	0	0	0
1.90066e-09	0	0	0
1.9497e-09	0	0	0
6.35865e-09	0	0	0
6.36027e-09	0	0	0
6.88078e-09	0	0	0
6.97039e-09	0	0	0
8.85155e-09	0	0	0
9.91572e-09	0	0	0
1.08728e-08	0	0	0
1.15057e-08	0	0	0
1.2868e-08	0	0	0
1.45252e-08	0	0	0
1.47726e-08	0	0	0
1.79224e-08	0	0	0
2.09972e-08	0	0	0
2.18442e-08	0	0	0
2.87815e-08	0	0	0
3.70141e-08	0	0	0
4.49723e-08	0	0	0
5.505e-08	0	0	0
5.52079e-08	0	0	0
5.98744e-08	0	0	0
1.1148e-07	0	0	0
1.2622e-07	0	0	0
1.27437e-07	0	0	0
2.518e-07	0	0	0
3.92809e-07	0	0	0
5.44551e-07	0	0	0
6.66701e-07	0	0	0
8.02728e-07	0	0	0
8.92131e-07	0	0	0
1.17278e-06	0	0	0
1.4555e-06	0	0	0
2.26297e-06	0	0	0
2.57659e-06	0	0	0
2.71483e-06	0	0	0
3.12221e-06	0	0	0
8.5113e-06	0	0	0
4.16944e-05	0	0	0
4.68028e-05	0	0	0
4.97009e-05	0	0	0
