7.55922e-11	0	0	0
2.08613e-10	0	0	0
5.75542e-10	0	0	0
1.88198e-09	0	0	0
2.20076e-09	0	0	0
2.49093e-09	0	0	0
5.0897e-09	0	0	0
5.73335e-09	0	0	0
6.31209e-09	0	0	0
7.96144e-09	0	0	0
7.98581e-09	0	0	0
1.24694e-08	0	0	0
1.57609e-08	0	0	0
1.77611e-08	0	0	0
1.8122e-08	0	0	0
2.4657e-08	0	0	0
2.55844e-08	0	0	0
3.39075e-08	0	0	0
3.74658e-08	0	0	0
3.87807e-08	0	0	0
3.98398e-08	0	0	0
4.4675e-08	0	0	0
7.00832e-08	0	0	0
7.89657e-08	0	0	0
1.01149e-07	0	0	0
1.03457e-07	0	0	0
1.71539e-07	0	0	0
2.20482e-07	0	0	0
3.47911e-07	0	0	0
3.70006e-07	0	0	0
5.77532e-07	0	0	0
1.34676e-06	0	0	0
2.18927e-06	0	0	0
2.20635e-06	0	0	0
2.44444e-06	0	0	0
3.35249e-06	0	0	0
4.10442e-06	0	0	0
4.21534e-06	0	0	0
5.49877e-06	0	0	0
7.26122e-06	0	0	0
