1.10525e-09	0	0	0
1.23623e-09	0	0	0
1.67812e-09	0	0	0
5.03736e-09	0	0	0
5.27168e-09	0	0	0
9.07552e-09	0	0	0
9.69927e-09	0	0	0
1.26526e-08	0	0	0
1.4397e-08	0	0	0
1.6411e-08	0	0	0
1.76873e-08	0	0	0
1.88971e-08	0	0	0
1.9068e-08	0	0	0
2.01955e-08	0	0	0
2.08732e-08	0	0	0
2.70473e-08	0	0	0
3.04099e-08	0	0	0
3.32187e-08	0	0	0
3.81318e-08	0	0	0
4.19487e-08	0	0	0
5.72437e-08	0	0	0
6.21396e-08	0	0	0
6.37054e-08	0	0	0
7.70991e-08	0	0	0
9.69564e-08	0	0	0
1.09115e-07	0	0	0
1.12877e-07	0	0	0
1.49595e-07	0	0	0
2.96851e-07	0	0	0
1.39365e-06	0	0	0
1.42006e-06	0	0	0
1.43638e-06	0	0	0
1.82593e-06	0	0	0
1.86853e-06	0	0	0
2.08748e-06	0	0	0
2.12822e-06	0	0	0
3.26868e-06	0	0	0
3.37422e-06	0	0	0
6.02062e-06	0	0	0
6.30896e-06	0	0	0
7.00019e-06	0	0	0
9.61942e-06	0	0	0
1.84488e-05	0	0	0
2.55687e-05	0	0	0
0.000323286	0	0	0
