9.5066e-08	0	0	0
1.25887e-07	0	0	0
1.6991e-07	0	0	0
2.5147e-07	0	0	0
2.54635e-07	0	0	0
2.65185e-07	0	0	0
2.71369e-07	0	0	0
8.83912e-07	0	0	0
9.70756e-07	0	0	0
1.11418e-06	0	0	0
1.2042e-06	0	0	0
1.68957e-06	0	0	0
1.89215e-06	0	0	0
1.9168e-06	0	0	0
2.21906e-06	0	0	0
2.99421e-06	0	0	0
3.01217e-06	0	0	0
3.06193e-06	0	0	0
3.54927e-06	0	0	0
4.0767e-06	0	0	0
4.23643e-06	0	0	0
5.46469e-06	0	0	0
5.46783e-06	0	0	0
5.97828e-06	0	0	0
5.99365e-06	0	0	0
6.07708e-06	0	0	0
6.44719e-06	0	0	0
6.56561e-06	0	0	0
6.5671e-06	0	0	0
6.69202e-06	0	0	0
6.69682e-06	0	0	0
6.85562e-06	0	0	0
6.95561e-06	0	0	0
7.55035e-06	0	0	0
7.59228e-06	0	0	0
7.85223e-06	0	0	0
7.88271e-06	0	0	0
7.91493e-06	0	0	0
8.49953e-06	0	0	0
8.63371e-06	0	0	0
9.0768e-06	0	0	0
1.04146e-05	0	0	0
1.13723e-05	0	0	0
1.14295e-05	0	0	0
1.14644e-05	0	0	0
1.14748e-05	0	0	0
1.15317e-05	0	0	0
1.18087e-05	0	0	0
1.19177e-05	0	0	0
1.20536e-05	0	0	0
1.24967e-05	0	0	0
1.2664e-05	0	0	0
1.37505e-05	0	0	0
1.4368e-05	0	0	0
1.50231e-05	0	0	0
1.5171e-05	0	0	0
1.52182e-05	0	0	0
1.54913e-05	0	0	0
1.5944e-05	0	0	0
1.60524e-05	0	0	0
1.60821e-05	0	0	0
1.60965e-05	0	0	0
1.63074e-05	0	0	0
1.69009e-05	0	0	0
1.69021e-05	0	0	0
1.7033e-05	0	0	0
1.71096e-05	0	0	0
1.74003e-05	0	0	0
1.7515e-05	0	0	0
1.75863e-05	0	0	0
1.91548e-05	0	0	0
1.92945e-05	0	0	0
1.98089e-05	0	0	0
2.006e-05	0	0	0
2.02052e-05	0	0	0
2.03374e-05	0	0	0
2.04581e-05	0	0	0
2.09175e-05	0	0	0
2.11256e-05	0	0	0
2.1769e-05	0	0	0
2.20282e-05	0	0	0
2.23337e-05	0	0	0
2.25564e-05	0	0	0
2.31974e-05	0	0	0
2.34643e-05	0	0	0
2.35239e-05	0	0	0
2.36832e-05	0	0	0
2.4676e-05	0	0	0
2.46854e-05	0	0	0
2.46897e-05	0	0	0
2.47801e-05	0	0	0
2.51754e-05	0	0	0
2.55043e-05	0	0	0
2.57735e-05	0	0	0
2.65253e-05	0	0	0
2.67484e-05	0	0	0
2.6908e-05	0	0	0
2.71e-05	0	0	0
2.74154e-05	0	0	0
2.77288e-05	0	0	0
2.7988e-05	0	0	0
2.82547e-05	0	0	0
2.83116e-05	0	0	0
2.89392e-05	0	0	0
2.94632e-05	0	0	0
2.95053e-05	0	0	0
2.97447e-05	0	0	0
3.03758e-05	0	0	0
3.05263e-05	0	0	0
3.13137e-05	0	0	0
3.19036e-05	0	0	0
3.20396e-05	0	0	0
3.2322e-05	0	0	0
3.24043e-05	0	0	0
3.25587e-05	0	0	0
3.25702e-05	0	0	0
3.2673e-05	0	0	0
3.29033e-05	0	0	0
3.30696e-05	0	0	0
3.31095e-05	0	0	0
3.34039e-05	0	0	0
3.34344e-05	0	0	0
3.36193e-05	0	0	0
3.36411e-05	0	0	0
3.42213e-05	0	0	0
3.45679e-05	0	0	0
3.51781e-05	0	0	0
3.60229e-05	0	0	0
3.65299e-05	0	0	0
3.65502e-05	0	0	0
3.68365e-05	0	0	0
3.71897e-05	0	0	0
3.82309e-05	0	0	0
3.8552e-05	0	0	0
3.88748e-05	0	0	0
3.92877e-05	0	0	0
3.94298e-05	0	0	0
4.04563e-05	0	0	0
4.07056e-05	0	0	0
4.13483e-05	0	0	0
4.14724e-05	0	0	0
4.20943e-05	0	0	0
4.22737e-05	0	0	0
4.30271e-05	0	0	0
4.41621e-05	0	0	0
4.52028e-05	0	0	0
4.53199e-05	0	0	0
4.53237e-05	0	0	0
4.53863e-05	0	0	0
4.58085e-05	0	0	0
4.7381e-05	0	0	0
4.76514e-05	0	0	0
4.85713e-05	0	0	0
4.95924e-05	0	0	0
4.99062e-05	0	0	0
5.08544e-05	0	0	0
5.20816e-05	0	0	0
5.23979e-05	0	0	0
5.25083e-05	0	0	0
5.28427e-05	0	0	0
5.31684e-05	0	0	0
5.33119e-05	0	0	0
5.36016e-05	0	0	0
5.41511e-05	0	0	0
5.47379e-05	0	0	0
5.57526e-05	0	0	0
5.58064e-05	0	0	0
5.63016e-05	0	0	0
5.6339e-05	0	0	0
5.71787e-05	0	0	0
5.80452e-05	0	0	0
5.87039e-05	0	0	0
5.90148e-05	0	0	0
5.97437e-05	0	0	0
6.02298e-05	0	0	0
6.12304e-05	0	0	0
6.16832e-05	0	0	0
6.18382e-05	0	0	0
6.30019e-05	0	0	0
6.32115e-05	0	0	0
6.3505e-05	0	0	0
6.37688e-05	0	0	0
6.40118e-05	0	0	0
6.41783e-05	0	0	0
6.47899e-05	0	0	0
6.49503e-05	0	0	0
6.49548e-05	0	0	0
6.49673e-05	0	0	0
6.6132e-05	0	0	0
6.64573e-05	0	0	0
6.66144e-05	0	0	0
6.68637e-05	0	0	0
6.70403e-05	0	0	0
6.72938e-05	0	0	0
6.85127e-05	0	0	0
7.05167e-05	0	0	0
7.14744e-05	0	0	0
7.17525e-05	0	0	0
7.24833e-05	0	0	0
7.25989e-05	0	0	0
7.28487e-05	0	0	0
7.31018e-05	0	0	0
7.58486e-05	0	0	0
7.61913e-05	0	0	0
7.80215e-05	0	0	0
7.80542e-05	0	0	0
7.86902e-05	0	0	0
7.9247e-05	0	0	0
7.94299e-05	0	0	0
7.94565e-05	0	0	0
7.99041e-05	0	0	0
8.02049e-05	0	0	0
8.18876e-05	0	0	0
8.28335e-05	0	0	0
8.28501e-05	0	0	0
8.30898e-05	0	0	0
8.39808e-05	0	0	0
8.43491e-05	0	0	0
8.6682e-05	0	0	0
8.76356e-05	0	0	0
8.77558e-05	0	0	0
8.84583e-05	0	0	0
8.8667e-05	0	0	0
8.92117e-05	0	0	0
9.01022e-05	0	0	0
9.01813e-05	0	0	0
9.08075e-05	0	0	0
9.08727e-05	0	0	0
9.12316e-05	0	0	0
9.14261e-05	0	0	0
9.15497e-05	0	0	0
9.26544e-05	0	0	0
9.35562e-05	0	0	0
9.4816e-05	0	0	0
9.56564e-05	0	0	0
9.61549e-05	0	0	0
9.6894e-05	0	0	0
9.70286e-05	0	0	0
9.7508e-05	0	0	0
9.96865e-05	0	0	0
0.000100477	0	0	0
0.000100519	0	0	0
0.000100699	0	0	0
0.000100969	0	0	0
0.000102052	0	0	0
0.000102523	0	0	0
0.00010294	0	0	0
0.000104393	0	0	0
0.000110381	0	0	0
0.000112476	0	0	0
0.00011346	0	0	0
0.00011556	0	0	0
0.000116376	0	0	0
0.000118258	0	0	0
0.000119207	0	0	0
0.000119325	0	0	0
0.000119671	0	0	0
0.000120104	0	0	0
0.000121174	0	0	0
0.000123693	0	0	0
0.00012453	0	0	0
0.000125475	0	0	0
0.000133643	0	0	0
0.000133717	0	0	0
0.000134347	0	0	0
0.000134416	0	0	0
0.000134731	0	0	0
0.000135592	0	0	0
0.000139362	0	0	0
0.000139751	0	0	0
0.000142858	0	0	0
0.000143264	0	0	0
0.000146858	0	0	0
0.000148301	0	0	0
0.000151454	0	0	0
0.000152394	0	0	0
0.000153647	0	0	0
0.00015474	0	0	0
0.000155318	0	0	0
0.000155436	0	0	0
0.000156032	0	0	0
0.0001583	0	0	0
0.000159092	0	0	0
0.00016739	0	0	0
0.000168879	0	0	0
0.000169214	0	0	0
0.000169782	0	0	0
0.000170633	0	0	0
0.000171981	0	0	0
0.000177356	0	0	0
0.000178907	0	0	0
0.000181165	0	0	0
0.000185789	0	0	0
0.000185832	0	0	0
0.00018623	0	0	0
0.000186752	0	0	0
0.00018732	0	0	0
0.000187567	0	0	0
0.000189949	0	0	0
0.00019118	0	0	0
0.000191206	0	0	0
0.000193609	0	0	0
0.000195078	0	0	0
0.000197621	0	0	0
0.000200393	0	0	0
0.00020086	0	0	0
0.000201504	0	0	0
0.000201707	0	0	0
0.000203671	0	0	0
0.000204316	0	0	0
0.000204631	0	0	0
0.000205616	0	0	0
0.000207307	0	0	0
0.000208216	0	0	0
0.000211626	0	0	0
0.000211888	0	0	0
0.000213664	0	0	0
0.000214366	0	0	0
0.000216244	0	0	0
0.000216714	0	0	0
0.000219597	0	0	0
0.000221661	0	0	0
0.000222583	0	0	0
0.000223562	0	0	0
0.000226046	0	0	0
0.000230946	0	0	0
0.000233648	0	0	0
0.000235995	0	0	0
0.000236811	0	0	0
0.000238057	0	0	0
0.000238164	0	0	0
0.000241326	0	0	0
0.000242119	0	0	0
0.000245463	0	0	0
0.000247386	0	0	0
0.000247936	0	0	0
0.000250313	0	0	0
0.000251606	0	0	0
0.000257398	0	0	0
0.0002582	0	0	0
0.000258718	0	0	0
0.000268357	0	0	0
0.000268592	0	0	0
0.000275126	0	0	0
0.000276434	0	0	0
0.000276555	0	0	0
0.00027693	0	0	0
0.000281059	0	0	0
0.000282226	0	0	0
0.000283024	0	0	0
0.000285132	0	0	0
0.000285356	0	0	0
0.000287627	0	0	0
0.000288006	0	0	0
0.000288974	0	0	0
0.000294161	0	0	0
0.000294591	0	0	0
0.000296547	0	0	0
0.000297519	0	0	0
0.00030452	0	0	0
0.000304833	0	0	0
0.000305481	0	0	0
0.00030862	0	0	0
0.000318422	0	0	0
0.000326367	0	0	0
0.000328838	0	0	0
0.000330795	0	0	0
0.000336469	0	0	0
0.000345679	0	0	0
0.000347728	0	0	0
0.00034894	0	0	0
0.000350127	0	0	0
0.000350342	0	0	0
0.000353623	0	0	0
0.000354042	0	0	0
0.00036175	0	0	0
0.00036526	0	0	0
0.000365383	0	0	0
0.000367417	0	0	0
0.00036904	0	0	0
0.000372665	0	0	0
0.000372887	0	0	0
0.000385949	0	0	0
0.000387592	0	0	0
0.00039008	0	0	0
0.000391569	0	0	0
0.000391706	0	0	0
0.000391883	0	0	0
0.000394662	0	0	0
0.000395246	0	0	0
0.000396963	0	0	0
0.000409052	0	0	0
0.000410143	0	0	0
0.000410778	0	0	0
0.000417252	0	0	0
0.000419771	0	0	0
0.000423462	0	0	0
0.00042469	0	0	0
0.000425775	0	0	0
0.000432461	0	0	0
0.00043447	0	0	0
0.000437723	0	0	0
0.00044001	0	0	0
0.000442238	0	0	0
0.00044593	0	0	0
0.000451838	0	0	0
0.000452204	0	0	0
0.00045705	0	0	0
0.00046245	0	0	0
0.000465111	0	0	0
0.000466651	0	0	0
0.000474501	0	0	0
0.000478619	0	0	0
0.000478945	0	0	0
0.000483222	0	0	0
0.000494195	0	0	0
0.000495343	0	0	0
0.00049626	0	0	0
0.000497509	0	0	0
0.000500708	0	0	0
0.000503259	0	0	0
0.000505306	0	0	0
0.00050716	0	0	0
0.000507424	0	0	0
0.000510674	0	0	0
0.000521269	0	0	0
0.000521481	0	0	0
0.00052195	0	0	0
0.000529669	0	0	0
0.000535608	0	0	0
0.000551651	0	0	0
0.000557014	0	0	0
0.000566121	0	0	0
0.000571139	0	0	0
0.000576698	0	0	0
0.000590682	0	0	0
0.000608451	0	0	0
0.000618249	0	0	0
0.000625548	0	0	0
0.000629657	0	0	0
0.000631079	0	0	0
0.000637868	0	0	0
0.000639461	0	0	0
0.000655675	0	0	0
0.000663793	0	0	0
0.000666219	0	0	0
0.000666805	0	0	0
0.000673979	0	0	0
0.000693508	0	0	0
0.0006941	0	0	0
0.000700797	0	0	0
0.000702442	0	0	0
0.000703827	0	0	0
0.000718953	0	0	0
0.000723749	0	0	0
0.0007299	0	0	0
0.000741328	0	0	0
0.000761115	0	0	0
0.000769494	0	0	0
0.000772896	0	0	0
0.000792096	0	0	0
0.000802817	0	0	0
0.000808519	0	0	0
0.000823269	0	0	0
0.000848027	0	0	0
0.000857701	0	0	0
0.000874394	0	0	0
0.00087493	0	0	0
0.000886503	0	0	0
0.000902872	0	0	0
0.00101701	0	0	0
0.00106286	0	0	0
0.0010816	0	0	0
0.00122634	0	0	0
0.00127635	0	0	0
0.00147431	0	0	0
0.00173457	0	0	0
0.00211197	0	0	0
0.0023189	0	0	0
0.00981513	0	0	0
