3.00877e-07	0	0	0
4.0743e-07	0	0	0
7.34526e-07	0	0	0
7.92386e-07	0	0	0
8.94702e-07	0	0	0
1.27854e-06	0	0	0
1.47283e-06	0	0	0
1.82336e-06	0	0	0
2.05798e-06	0	0	0
2.17266e-06	0	0	0
2.47298e-06	0	0	0
2.71124e-06	0	0	0
2.82085e-06	0	0	0
2.93041e-06	0	0	0
2.99092e-06	0	0	0
3.18308e-06	0	0	0
3.47885e-06	0	0	0
4.02553e-06	0	0	0
4.75427e-06	0	0	0
4.79409e-06	0	0	0
5.06792e-06	0	0	0
5.51108e-06	0	0	0
5.78232e-06	0	0	0
5.86312e-06	0	0	0
6.06352e-06	0	0	0
6.35919e-06	0	0	0
6.39429e-06	0	0	0
6.69012e-06	0	0	0
7.07176e-06	0	0	0
7.1674e-06	0	0	0
7.39266e-06	0	0	0
7.5994e-06	0	0	0
7.67041e-06	0	0	0
8.17363e-06	0	0	0
8.30652e-06	0	0	0
8.31274e-06	0	0	0
8.52146e-06	0	0	0
8.73031e-06	0	0	0
9.19977e-06	0	0	0
9.4601e-06	0	0	0
9.62312e-06	0	0	0
9.74058e-06	0	0	0
9.90156e-06	0	0	0
1.00286e-05	0	0	0
1.03692e-05	0	0	0
1.03902e-05	0	0	0
1.06788e-05	0	0	0
1.0945e-05	0	0	0
1.1139e-05	0	0	0
1.12072e-05	0	0	0
1.1732e-05	0	0	0
1.18805e-05	0	0	0
1.21976e-05	0	0	0
1.23287e-05	0	0	0
1.23618e-05	0	0	0
1.26355e-05	0	0	0
1.31738e-05	0	0	0
1.31953e-05	0	0	0
1.33405e-05	0	0	0
1.35738e-05	0	0	0
1.37241e-05	0	0	0
1.38426e-05	0	0	0
1.40937e-05	0	0	0
1.46556e-05	0	0	0
1.49125e-05	0	0	0
1.49256e-05	0	0	0
1.52241e-05	0	0	0
1.54739e-05	0	0	0
1.60525e-05	0	0	0
1.60548e-05	0	0	0
1.67314e-05	0	0	0
1.70074e-05	0	0	0
1.70566e-05	0	0	0
1.71908e-05	0	0	0
1.72289e-05	0	0	0
1.79586e-05	0	0	0
1.85269e-05	0	0	0
1.87952e-05	0	0	0
1.93893e-05	0	0	0
1.97216e-05	0	0	0
1.98277e-05	0	0	0
1.99917e-05	0	0	0
2.01121e-05	0	0	0
2.06465e-05	0	0	0
2.11623e-05	0	0	0
2.14762e-05	0	0	0
2.22484e-05	0	0	0
2.24642e-05	0	0	0
2.29556e-05	0	0	0
2.3755e-05	0	0	0
2.39707e-05	0	0	0
2.40572e-05	0	0	0
2.42271e-05	0	0	0
2.43044e-05	0	0	0
2.47383e-05	0	0	0
2.55203e-05	0	0	0
2.59182e-05	0	0	0
2.59372e-05	0	0	0
2.59845e-05	0	0	0
2.61928e-05	0	0	0
2.62408e-05	0	0	0
2.64828e-05	0	0	0
2.69424e-05	0	0	0
2.69516e-05	0	0	0
2.7352e-05	0	0	0
2.79564e-05	0	0	0
2.80441e-05	0	0	0
2.80684e-05	0	0	0
2.81906e-05	0	0	0
2.88959e-05	0	0	0
2.9069e-05	0	0	0
2.98163e-05	0	0	0
3.00145e-05	0	0	0
3.00308e-05	0	0	0
3.00556e-05	0	0	0
3.01038e-05	0	0	0
3.02206e-05	0	0	0
3.04059e-05	0	0	0
3.05655e-05	0	0	0
3.06201e-05	0	0	0
3.07478e-05	0	0	0
3.14094e-05	0	0	0
3.17448e-05	0	0	0
3.18736e-05	0	0	0
3.20941e-05	0	0	0
3.2465e-05	0	0	0
3.28001e-05	0	0	0
3.30388e-05	0	0	0
3.33374e-05	0	0	0
3.34693e-05	0	0	0
3.3479e-05	0	0	0
3.43445e-05	0	0	0
3.48788e-05	0	0	0
3.51111e-05	0	0	0
3.5767e-05	0	0	0
3.6553e-05	0	0	0
3.68133e-05	0	0	0
3.68403e-05	0	0	0
3.69026e-05	0	0	0
3.7164e-05	0	0	0
3.743e-05	0	0	0
3.81536e-05	0	0	0
3.86663e-05	0	0	0
3.98464e-05	0	0	0
3.98878e-05	0	0	0
4.00061e-05	0	0	0
4.00922e-05	0	0	0
4.03664e-05	0	0	0
4.07392e-05	0	0	0
4.0747e-05	0	0	0
4.08316e-05	0	0	0
4.09879e-05	0	0	0
4.11367e-05	0	0	0
4.1276e-05	0	0	0
4.15593e-05	0	0	0
4.18349e-05	0	0	0
4.19011e-05	0	0	0
4.19485e-05	0	0	0
4.2317e-05	0	0	0
4.25899e-05	0	0	0
4.27444e-05	0	0	0
4.29791e-05	0	0	0
4.29826e-05	0	0	0
4.30024e-05	0	0	0
4.31763e-05	0	0	0
4.3345e-05	0	0	0
4.33675e-05	0	0	0
4.36334e-05	0	0	0
4.40913e-05	0	0	0
4.41669e-05	0	0	0
4.42787e-05	0	0	0
4.43908e-05	0	0	0
4.53109e-05	0	0	0
4.55128e-05	0	0	0
4.57266e-05	0	0	0
4.62727e-05	0	0	0
4.70239e-05	0	0	0
4.71207e-05	0	0	0
4.76549e-05	0	0	0
4.83991e-05	0	0	0
4.86527e-05	0	0	0
4.90363e-05	0	0	0
4.94312e-05	0	0	0
5.0034e-05	0	0	0
5.04395e-05	0	0	0
5.0616e-05	0	0	0
5.20735e-05	0	0	0
5.2394e-05	0	0	0
5.34658e-05	0	0	0
5.40597e-05	0	0	0
5.59354e-05	0	0	0
5.59903e-05	0	0	0
5.60076e-05	0	0	0
5.66095e-05	0	0	0
5.66667e-05	0	0	0
5.76725e-05	0	0	0
5.77701e-05	0	0	0
5.87365e-05	0	0	0
5.94354e-05	0	0	0
5.94546e-05	0	0	0
5.94551e-05	0	0	0
5.95414e-05	0	0	0
6.20225e-05	0	0	0
6.21853e-05	0	0	0
6.21876e-05	0	0	0
6.26977e-05	0	0	0
6.27451e-05	0	0	0
6.34285e-05	0	0	0
6.37929e-05	0	0	0
6.40722e-05	0	0	0
6.40731e-05	0	0	0
6.42501e-05	0	0	0
6.44437e-05	0	0	0
6.46053e-05	0	0	0
6.65397e-05	0	0	0
6.67644e-05	0	0	0
6.75342e-05	0	0	0
6.75518e-05	0	0	0
6.80974e-05	0	0	0
6.88551e-05	0	0	0
6.91124e-05	0	0	0
6.99768e-05	0	0	0
7.00368e-05	0	0	0
7.04563e-05	0	0	0
7.10719e-05	0	0	0
7.16013e-05	0	0	0
7.25803e-05	0	0	0
7.30094e-05	0	0	0
7.32553e-05	0	0	0
7.39024e-05	0	0	0
7.39296e-05	0	0	0
7.50775e-05	0	0	0
7.52356e-05	0	0	0
7.52695e-05	0	0	0
7.56271e-05	0	0	0
7.58594e-05	0	0	0
7.79022e-05	0	0	0
7.83029e-05	0	0	0
7.9008e-05	0	0	0
7.91333e-05	0	0	0
7.99679e-05	0	0	0
8.07059e-05	0	0	0
8.15857e-05	0	0	0
8.17737e-05	0	0	0
8.3656e-05	0	0	0
8.38855e-05	0	0	0
8.39731e-05	0	0	0
8.42538e-05	0	0	0
8.46076e-05	0	0	0
8.55797e-05	0	0	0
8.57102e-05	0	0	0
8.59855e-05	0	0	0
8.60213e-05	0	0	0
8.63501e-05	0	0	0
8.6425e-05	0	0	0
8.71675e-05	0	0	0
8.73486e-05	0	0	0
8.81605e-05	0	0	0
8.83767e-05	0	0	0
8.90312e-05	0	0	0
8.97608e-05	0	0	0
9.21714e-05	0	0	0
9.28147e-05	0	0	0
9.29312e-05	0	0	0
9.39787e-05	0	0	0
9.42124e-05	0	0	0
9.49229e-05	0	0	0
9.5807e-05	0	0	0
9.66492e-05	0	0	0
9.66909e-05	0	0	0
9.67999e-05	0	0	0
9.85705e-05	0	0	0
0.000100264	0	0	0
0.000100374	0	0	0
0.00010072	0	0	0
0.000100949	0	0	0
0.000100989	0	0	0
0.000101053	0	0	0
0.000102556	0	0	0
0.000103074	0	0	0
0.000105291	0	0	0
0.000106979	0	0	0
0.000107814	0	0	0
0.000108142	0	0	0
0.000109119	0	0	0
0.0001097	0	0	0
0.000112988	0	0	0
0.000113421	0	0	0
0.000117191	0	0	0
0.00011753	0	0	0
0.000118346	0	0	0
0.00011976	0	0	0
0.000121795	0	0	0
0.000122578	0	0	0
0.000122681	0	0	0
0.000123143	0	0	0
0.000123981	0	0	0
0.000124894	0	0	0
0.0001255	0	0	0
0.000125805	0	0	0
0.000127838	0	0	0
0.000127956	0	0	0
0.000129057	0	0	0
0.000129545	0	0	0
0.000129565	0	0	0
0.000130227	0	0	0
0.000130244	0	0	0
0.000130278	0	0	0
0.000131078	0	0	0
0.000131269	0	0	0
0.000134255	0	0	0
0.000134955	0	0	0
0.000135534	0	0	0
0.000135536	0	0	0
0.000135676	0	0	0
0.000138121	0	0	0
0.000138807	0	0	0
0.000138844	0	0	0
0.000140617	0	0	0
0.000140754	0	0	0
0.000141591	0	0	0
0.0001419	0	0	0
0.000141926	0	0	0
0.000142493	0	0	0
0.000142673	0	0	0
0.000143247	0	0	0
0.00014588	0	0	0
0.000146034	0	0	0
0.000148645	0	0	0
0.000150259	0	0	0
0.000150962	0	0	0
0.000152094	0	0	0
0.000152762	0	0	0
0.000153297	0	0	0
0.000154211	0	0	0
0.000154306	0	0	0
0.000154409	0	0	0
0.000155142	0	0	0
0.000155251	0	0	0
0.000155648	0	0	0
0.000156733	0	0	0
0.000158377	0	0	0
0.000158489	0	0	0
0.000159376	0	0	0
0.000160281	0	0	0
0.000164828	0	0	0
0.000165986	0	0	0
0.000166173	0	0	0
0.000166244	0	0	0
0.00016691	0	0	0
0.000166958	0	0	0
0.000167304	0	0	0
0.00016855	0	0	0
0.000170541	0	0	0
0.000172517	0	0	0
0.000172933	0	0	0
0.000175496	0	0	0
0.000175778	0	0	0
0.000175911	0	0	0
0.000176439	0	0	0
0.00017817	0	0	0
0.000179868	0	0	0
0.000183032	0	0	0
0.000183215	0	0	0
0.000183901	0	0	0
0.000184101	0	0	0
0.000186254	0	0	0
0.000186768	0	0	0
0.000187538	0	0	0
0.000188461	0	0	0
0.000192387	0	0	0
0.000193124	0	0	0
0.000198844	0	0	0
0.000199559	0	0	0
0.000200452	0	0	0
0.000201441	0	0	0
0.000201699	0	0	0
0.000203592	0	0	0
0.000204372	0	0	0
0.000204565	0	0	0
0.000204787	0	0	0
0.000206478	0	0	0
0.000206952	0	0	0
0.00020698	0	0	0
0.000207121	0	0	0
0.000209108	0	0	0
0.000209572	0	0	0
0.00020978	0	0	0
0.000210995	0	0	0
0.000212177	0	0	0
0.000212654	0	0	0
0.00021326	0	0	0
0.000213675	0	0	0
0.000214277	0	0	0
0.00021522	0	0	0
0.000215872	0	0	0
0.000217743	0	0	0
0.0002186	0	0	0
0.000220452	0	0	0
0.000220941	0	0	0
0.000223591	0	0	0
0.000224246	0	0	0
0.000224472	0	0	0
0.000225639	0	0	0
0.00022962	0	0	0
0.000231182	0	0	0
0.000233245	0	0	0
0.00023816	0	0	0
0.000239366	0	0	0
0.000240382	0	0	0
0.000240764	0	0	0
0.000245685	0	0	0
0.000246815	0	0	0
0.000246996	0	0	0
0.000247638	0	0	0
0.000249742	0	0	0
0.000249925	0	0	0
0.000250331	0	0	0
0.000250468	0	0	0
0.000251483	0	0	0
0.000251961	0	0	0
0.000260113	0	0	0
0.000263552	0	0	0
0.000263682	0	0	0
0.000267711	0	0	0
0.000268149	0	0	0
0.00027103	0	0	0
0.00027332	0	0	0
0.000278098	0	0	0
0.000280025	0	0	0
0.000282455	0	0	0
0.00028285	0	0	0
0.000283856	0	0	0
0.000283893	0	0	0
0.00028571	0	0	0
0.000288403	0	0	0
0.000288898	0	0	0
0.000290341	0	0	0
0.000291574	0	0	0
0.000291961	0	0	0
0.000292541	0	0	0
0.000294253	0	0	0
0.000295103	0	0	0
0.000295833	0	0	0
0.000296494	0	0	0
0.000303827	0	0	0
0.00030487	0	0	0
0.00030565	0	0	0
0.000305872	0	0	0
0.000307172	0	0	0
0.000307319	0	0	0
0.00031136	0	0	0
0.000313629	0	0	0
0.000314946	0	0	0
0.000315471	0	0	0
0.000316369	0	0	0
0.000322523	0	0	0
0.000324384	0	0	0
0.000326206	0	0	0
0.000326816	0	0	0
0.000327829	0	0	0
0.000328035	0	0	0
0.000329257	0	0	0
0.000330026	0	0	0
0.00033005	0	0	0
0.000330484	0	0	0
0.00033091	0	0	0
0.000336255	0	0	0
0.000338802	0	0	0
0.000340261	0	0	0
0.000342933	0	0	0
0.000344098	0	0	0
0.000344254	0	0	0
0.000347796	0	0	0
0.000353181	0	0	0
0.000353984	0	0	0
0.000354396	0	0	0
0.000354844	0	0	0
0.000355139	0	0	0
0.000355162	0	0	0
0.000360266	0	0	0
0.00036566	0	0	0
0.000366605	0	0	0
0.000366627	0	0	0
0.000366824	0	0	0
0.000369763	0	0	0
0.000370209	0	0	0
0.000370537	0	0	0
0.000370646	0	0	0
0.000374605	0	0	0
0.000374756	0	0	0
0.000386897	0	0	0
0.000387329	0	0	0
0.000391549	0	0	0
0.00039725	0	0	0
0.000399835	0	0	0
0.000406658	0	0	0
0.000408552	0	0	0
0.000409159	0	0	0
0.000414806	0	0	0
0.000414896	0	0	0
0.000416934	0	0	0
0.000418865	0	0	0
0.000424056	0	0	0
0.000435845	0	0	0
0.000437772	0	0	0
0.000440663	0	0	0
0.000441877	0	0	0
0.000442395	0	0	0
0.000445983	0	0	0
0.000452069	0	0	0
0.000455491	0	0	0
0.0004585	0	0	0
0.000463591	0	0	0
0.000475885	0	0	0
0.000476812	0	0	0
0.000477289	0	0	0
0.000478489	0	0	0
0.000479796	0	0	0
0.000482228	0	0	0
0.000483153	0	0	0
0.000490269	0	0	0
0.000490386	0	0	0
0.000494678	0	0	0
0.00050501	0	0	0
0.000520166	0	0	0
0.000522426	0	0	0
0.000524258	0	0	0
0.000544695	0	0	0
0.000545558	0	0	0
0.000548756	0	0	0
0.000549714	0	0	0
0.000558782	0	0	0
0.000560276	0	0	0
0.000570947	0	0	0
0.000574358	0	0	0
0.000579997	0	0	0
0.000582337	0	0	0
0.000587811	0	0	0
0.000591478	0	0	0
0.00059373	0	0	0
0.000595266	0	0	0
0.000601668	0	0	0
0.000616259	0	0	0
0.000632916	0	0	0
0.00063453	0	0	0
0.000634666	0	0	0
0.000640532	0	0	0
0.000653032	0	0	0
0.000656885	0	0	0
0.000663507	0	0	0
0.000668757	0	0	0
0.000678238	0	0	0
0.000683187	0	0	0
0.000685681	0	0	0
0.000693067	0	0	0
0.000697531	0	0	0
0.000714618	0	0	0
0.000715006	0	0	0
0.000718889	0	0	0
0.00072623	0	0	0
0.000747986	0	0	0
0.000768702	0	0	0
0.00077268	0	0	0
0.000775464	0	0	0
0.000790562	0	0	0
0.000799167	0	0	0
0.0008046	0	0	0
0.000828203	0	0	0
0.000832582	0	0	0
0.000838487	0	0	0
0.000852923	0	0	0
0.000855496	0	0	0
0.000883577	0	0	0
0.000981579	0	0	0
0.00105803	0	0	0
0.00111188	0	0	0
0.00112182	0	0	0
0.00117296	0	0	0
0.00123127	0	0	0
0.00131671	0	0	0
0.00133395	0	0	0
0.00137586	0	0	0
0.00141063	0	0	0
0.00154737	0	0	0
0.00262686	0	0	0
0.00282446	0	0	0
0.00282671	0	0	0
0.003479	0	0	0
0.00372445	0	0	0
0.00458476	0	0	0
0.00468788	0	0	0
0.00524711	0	0	0
0.0057087	0	0	0
0.00766872	0	0	0
