1.19116e-07	0	0	0
3.42631e-07	0	0	0
5.93425e-07	0	0	0
7.87886e-07	0	0	0
8.17094e-07	0	0	0
9.99784e-07	0	0	0
1.07718e-06	0	0	0
1.4616e-06	0	0	0
1.746e-06	0	0	0
1.83975e-06	0	0	0
1.90409e-06	0	0	0
1.91132e-06	0	0	0
1.9307e-06	0	0	0
2.19332e-06	0	0	0
2.37215e-06	0	0	0
2.48698e-06	0	0	0
2.71945e-06	0	0	0
2.85195e-06	0	0	0
3.17735e-06	0	0	0
3.18137e-06	0	0	0
3.43785e-06	0	0	0
3.5315e-06	0	0	0
3.5863e-06	0	0	0
3.66764e-06	0	0	0
3.75726e-06	0	0	0
4.25094e-06	0	0	0
4.30143e-06	0	0	0
4.43806e-06	0	0	0
4.74912e-06	0	0	0
4.86612e-06	0	0	0
4.91318e-06	0	0	0
5.03417e-06	0	0	0
5.03845e-06	0	0	0
5.23979e-06	0	0	0
5.43508e-06	0	0	0
5.53605e-06	0	0	0
6.11029e-06	0	0	0
6.27387e-06	0	0	0
6.40017e-06	0	0	0
6.69944e-06	0	0	0
6.70687e-06	0	0	0
6.86205e-06	0	0	0
6.97959e-06	0	0	0
7.0272e-06	0	0	0
7.1153e-06	0	0	0
7.2961e-06	0	0	0
7.33725e-06	0	0	0
7.42733e-06	0	0	0
7.42966e-06	0	0	0
7.51672e-06	0	0	0
7.81231e-06	0	0	0
8.06271e-06	0	0	0
8.07074e-06	0	0	0
8.07965e-06	0	0	0
8.21684e-06	0	0	0
8.59612e-06	0	0	0
8.61214e-06	0	0	0
8.6215e-06	0	0	0
8.67197e-06	0	0	0
9.15378e-06	0	0	0
9.31235e-06	0	0	0
9.42264e-06	0	0	0
9.65669e-06	0	0	0
9.76067e-06	0	0	0
9.78948e-06	0	0	0
9.88476e-06	0	0	0
9.91024e-06	0	0	0
1.00284e-05	0	0	0
1.01579e-05	0	0	0
1.05826e-05	0	0	0
1.06512e-05	0	0	0
1.06996e-05	0	0	0
1.07729e-05	0	0	0
1.07838e-05	0	0	0
1.13601e-05	0	0	0
1.16593e-05	0	0	0
1.18558e-05	0	0	0
1.19542e-05	0	0	0
1.2026e-05	0	0	0
1.20334e-05	0	0	0
1.21901e-05	0	0	0
1.24687e-05	0	0	0
1.28438e-05	0	0	0
1.2848e-05	0	0	0
1.32066e-05	0	0	0
1.33073e-05	0	0	0
1.35006e-05	0	0	0
1.37411e-05	0	0	0
1.37553e-05	0	0	0
1.41187e-05	0	0	0
1.43939e-05	0	0	0
1.44787e-05	0	0	0
1.46148e-05	0	0	0
1.46777e-05	0	0	0
1.48702e-05	0	0	0
1.53147e-05	0	0	0
1.55929e-05	0	0	0
1.60677e-05	0	0	0
1.60794e-05	0	0	0
1.6106e-05	0	0	0
1.62324e-05	0	0	0
1.63141e-05	0	0	0
1.67782e-05	0	0	0
1.68491e-05	0	0	0
1.68828e-05	0	0	0
1.72727e-05	0	0	0
1.74999e-05	0	0	0
1.76782e-05	0	0	0
1.80424e-05	0	0	0
1.88572e-05	0	0	0
1.91339e-05	0	0	0
1.91545e-05	0	0	0
1.91784e-05	0	0	0
1.94639e-05	0	0	0
1.95186e-05	0	0	0
1.97116e-05	0	0	0
2.00598e-05	0	0	0
2.02071e-05	0	0	0
2.02735e-05	0	0	0
2.06555e-05	0	0	0
2.08251e-05	0	0	0
2.13211e-05	0	0	0
2.14636e-05	0	0	0
2.19013e-05	0	0	0
2.23725e-05	0	0	0
2.24537e-05	0	0	0
2.27924e-05	0	0	0
2.32156e-05	0	0	0
2.3525e-05	0	0	0
2.35726e-05	0	0	0
2.38604e-05	0	0	0
2.39657e-05	0	0	0
2.39668e-05	0	0	0
2.40224e-05	0	0	0
2.41388e-05	0	0	0
2.42083e-05	0	0	0
2.47829e-05	0	0	0
2.48446e-05	0	0	0
2.51505e-05	0	0	0
2.5415e-05	0	0	0
2.55247e-05	0	0	0
2.57452e-05	0	0	0
2.57553e-05	0	0	0
2.6279e-05	0	0	0
2.7309e-05	0	0	0
2.73315e-05	0	0	0
2.73403e-05	0	0	0
2.78992e-05	0	0	0
2.85008e-05	0	0	0
2.86135e-05	0	0	0
2.90232e-05	0	0	0
2.91576e-05	0	0	0
2.92576e-05	0	0	0
2.97637e-05	0	0	0
2.97715e-05	0	0	0
2.9844e-05	0	0	0
2.98749e-05	0	0	0
3.03183e-05	0	0	0
3.04627e-05	0	0	0
3.05417e-05	0	0	0
3.12119e-05	0	0	0
3.17958e-05	0	0	0
3.19062e-05	0	0	0
3.19908e-05	0	0	0
3.2081e-05	0	0	0
3.21123e-05	0	0	0
3.21855e-05	0	0	0
3.23566e-05	0	0	0
3.238e-05	0	0	0
3.27364e-05	0	0	0
3.294e-05	0	0	0
3.30457e-05	0	0	0
3.3109e-05	0	0	0
3.31681e-05	0	0	0
3.33612e-05	0	0	0
3.36407e-05	0	0	0
3.40735e-05	0	0	0
3.40837e-05	0	0	0
3.41803e-05	0	0	0
3.4192e-05	0	0	0
3.44219e-05	0	0	0
3.45665e-05	0	0	0
3.48123e-05	0	0	0
3.55256e-05	0	0	0
3.60804e-05	0	0	0
3.61189e-05	0	0	0
3.62217e-05	0	0	0
3.66994e-05	0	0	0
3.71614e-05	0	0	0
3.71727e-05	0	0	0
3.71943e-05	0	0	0
3.73331e-05	0	0	0
3.75325e-05	0	0	0
3.79059e-05	0	0	0
3.83648e-05	0	0	0
3.88114e-05	0	0	0
3.92049e-05	0	0	0
3.9748e-05	0	0	0
3.99774e-05	0	0	0
4.0121e-05	0	0	0
4.01288e-05	0	0	0
4.11209e-05	0	0	0
4.19035e-05	0	0	0
4.19788e-05	0	0	0
4.19801e-05	0	0	0
4.22427e-05	0	0	0
4.26986e-05	0	0	0
4.34195e-05	0	0	0
4.34253e-05	0	0	0
4.36889e-05	0	0	0
4.37938e-05	0	0	0
4.40945e-05	0	0	0
4.42054e-05	0	0	0
4.4319e-05	0	0	0
4.503e-05	0	0	0
4.58588e-05	0	0	0
4.58769e-05	0	0	0
4.60414e-05	0	0	0
4.62267e-05	0	0	0
4.66959e-05	0	0	0
4.78876e-05	0	0	0
4.80901e-05	0	0	0
4.82565e-05	0	0	0
4.89444e-05	0	0	0
4.90101e-05	0	0	0
4.99684e-05	0	0	0
5.0016e-05	0	0	0
5.02644e-05	0	0	0
5.03198e-05	0	0	0
5.03507e-05	0	0	0
5.05449e-05	0	0	0
5.11584e-05	0	0	0
5.14003e-05	0	0	0
5.15436e-05	0	0	0
5.15766e-05	0	0	0
5.16062e-05	0	0	0
5.21082e-05	0	0	0
5.28897e-05	0	0	0
5.31868e-05	0	0	0
5.32322e-05	0	0	0
5.32731e-05	0	0	0
5.33605e-05	0	0	0
5.343e-05	0	0	0
5.34731e-05	0	0	0
5.35398e-05	0	0	0
5.38209e-05	0	0	0
5.38319e-05	0	0	0
5.39889e-05	0	0	0
5.51263e-05	0	0	0
5.58507e-05	0	0	0
5.62604e-05	0	0	0
5.6355e-05	0	0	0
5.64732e-05	0	0	0
5.66075e-05	0	0	0
5.684e-05	0	0	0
5.791e-05	0	0	0
5.82479e-05	0	0	0
5.88579e-05	0	0	0
5.93601e-05	0	0	0
6.01687e-05	0	0	0
6.21617e-05	0	0	0
6.23636e-05	0	0	0
6.27692e-05	0	0	0
6.27785e-05	0	0	0
6.3292e-05	0	0	0
6.3582e-05	0	0	0
6.51825e-05	0	0	0
6.61525e-05	0	0	0
6.62415e-05	0	0	0
6.62557e-05	0	0	0
6.63952e-05	0	0	0
6.69618e-05	0	0	0
6.72854e-05	0	0	0
6.84396e-05	0	0	0
7.01857e-05	0	0	0
7.08186e-05	0	0	0
7.25143e-05	0	0	0
7.38187e-05	0	0	0
7.41825e-05	0	0	0
7.62529e-05	0	0	0
7.68752e-05	0	0	0
7.71093e-05	0	0	0
7.72834e-05	0	0	0
7.74332e-05	0	0	0
7.80169e-05	0	0	0
7.83659e-05	0	0	0
8.03657e-05	0	0	0
8.22389e-05	0	0	0
8.29095e-05	0	0	0
8.33008e-05	0	0	0
8.37938e-05	0	0	0
8.49037e-05	0	0	0
8.52807e-05	0	0	0
8.55235e-05	0	0	0
8.70209e-05	0	0	0
8.74387e-05	0	0	0
8.78744e-05	0	0	0
8.83071e-05	0	0	0
8.89138e-05	0	0	0
8.91923e-05	0	0	0
9.0403e-05	0	0	0
9.07919e-05	0	0	0
9.1392e-05	0	0	0
9.20377e-05	0	0	0
9.30519e-05	0	0	0
9.33826e-05	0	0	0
9.36414e-05	0	0	0
9.40558e-05	0	0	0
9.5288e-05	0	0	0
9.64091e-05	0	0	0
9.78163e-05	0	0	0
9.80307e-05	0	0	0
9.82737e-05	0	0	0
9.83047e-05	0	0	0
0.000100379	0	0	0
0.000100504	0	0	0
0.00010085	0	0	0
0.000101185	0	0	0
0.00010297	0	0	0
0.000103017	0	0	0
0.000104241	0	0	0
0.000105078	0	0	0
0.000105194	0	0	0
0.000105375	0	0	0
0.0001065	0	0	0
0.000107295	0	0	0
0.000107929	0	0	0
0.00011039	0	0	0
0.000111323	0	0	0
0.000111382	0	0	0
0.000112063	0	0	0
0.000112375	0	0	0
0.000113442	0	0	0
0.000114296	0	0	0
0.000115195	0	0	0
0.00011537	0	0	0
0.00011575	0	0	0
0.000117035	0	0	0
0.000117473	0	0	0
0.000117838	0	0	0
0.000118017	0	0	0
0.000119053	0	0	0
0.000119632	0	0	0
0.000120372	0	0	0
0.000121154	0	0	0
0.000121518	0	0	0
0.000122781	0	0	0
0.000123038	0	0	0
0.000123521	0	0	0
0.000123975	0	0	0
0.000124153	0	0	0
0.000124937	0	0	0
0.000125153	0	0	0
0.000125471	0	0	0
0.000125781	0	0	0
0.000127145	0	0	0
0.000127701	0	0	0
0.00013064	0	0	0
0.000130771	0	0	0
0.00013084	0	0	0
0.000131466	0	0	0
0.000133344	0	0	0
0.000133576	0	0	0
0.000137706	0	0	0
0.000138187	0	0	0
0.00013948	0	0	0
0.000141627	0	0	0
0.000144462	0	0	0
0.000144655	0	0	0
0.000144755	0	0	0
0.000146526	0	0	0
0.00014727	0	0	0
0.000148059	0	0	0
0.000148483	0	0	0
0.000148719	0	0	0
0.000150707	0	0	0
0.000151853	0	0	0
0.000152529	0	0	0
0.000154207	0	0	0
0.000154643	0	0	0
0.000155883	0	0	0
0.000156581	0	0	0
0.000158484	0	0	0
0.000158857	0	0	0
0.000162626	0	0	0
0.000166383	0	0	0
0.000166446	0	0	0
0.000167181	0	0	0
0.000167468	0	0	0
0.000168557	0	0	0
0.000168941	0	0	0
0.000169334	0	0	0
0.000169582	0	0	0
0.000169866	0	0	0
0.000171147	0	0	0
0.000175711	0	0	0
0.000176168	0	0	0
0.000176206	0	0	0
0.000177173	0	0	0
0.000177611	0	0	0
0.000178839	0	0	0
0.000179751	0	0	0
0.000182838	0	0	0
0.000184374	0	0	0
0.000187935	0	0	0
0.000189375	0	0	0
0.000189403	0	0	0
0.000190492	0	0	0
0.000191469	0	0	0
0.00019189	0	0	0
0.000193438	0	0	0
0.000195392	0	0	0
0.000196734	0	0	0
0.000197247	0	0	0
0.000198221	0	0	0
0.000198415	0	0	0
0.000199382	0	0	0
0.000199383	0	0	0
0.000200503	0	0	0
0.000200716	0	0	0
0.000201737	0	0	0
0.000202197	0	0	0
0.000204935	0	0	0
0.000206307	0	0	0
0.000206337	0	0	0
0.000206391	0	0	0
0.00020818	0	0	0
0.00020988	0	0	0
0.000213029	0	0	0
0.000217916	0	0	0
0.000219972	0	0	0
0.000222702	0	0	0
0.000223488	0	0	0
0.000226039	0	0	0
0.000227114	0	0	0
0.000228988	0	0	0
0.000230822	0	0	0
0.000230909	0	0	0
0.000233372	0	0	0
0.000234794	0	0	0
0.000235299	0	0	0
0.000235857	0	0	0
0.000236844	0	0	0
0.000238402	0	0	0
0.000242828	0	0	0
0.000243309	0	0	0
0.000244085	0	0	0
0.000245932	0	0	0
0.000246797	0	0	0
0.000247456	0	0	0
0.000248569	0	0	0
0.000249431	0	0	0
0.000250785	0	0	0
0.000252223	0	0	0
0.000252951	0	0	0
0.0002533	0	0	0
0.000253637	0	0	0
0.000256764	0	0	0
0.000257577	0	0	0
0.000258141	0	0	0
0.000258453	0	0	0
0.000269788	0	0	0
0.000269956	0	0	0
0.000271539	0	0	0
0.000281299	0	0	0
0.000283125	0	0	0
0.000283274	0	0	0
0.000287754	0	0	0
0.000293696	0	0	0
0.000294409	0	0	0
0.000295046	0	0	0
0.000295753	0	0	0
0.000296565	0	0	0
0.000297768	0	0	0
0.00030113	0	0	0
0.000303532	0	0	0
0.000304725	0	0	0
0.000304964	0	0	0
0.000305914	0	0	0
0.000311626	0	0	0
0.000312265	0	0	0
0.000313738	0	0	0
0.000314774	0	0	0
0.00031517	0	0	0
0.000315555	0	0	0
0.000315694	0	0	0
0.000318373	0	0	0
0.000321358	0	0	0
0.000321418	0	0	0
0.00032613	0	0	0
0.000326474	0	0	0
0.000329597	0	0	0
0.000331188	0	0	0
0.000333415	0	0	0
0.000334648	0	0	0
0.000335195	0	0	0
0.000337583	0	0	0
0.000341196	0	0	0
0.000342172	0	0	0
0.000348646	0	0	0
0.000349717	0	0	0
0.000349929	0	0	0
0.000361658	0	0	0
0.000361971	0	0	0
0.000362046	0	0	0
0.000362212	0	0	0
0.000371329	0	0	0
0.000373698	0	0	0
0.000381125	0	0	0
0.000385781	0	0	0
0.000388385	0	0	0
0.000398623	0	0	0
0.000402371	0	0	0
0.000403461	0	0	0
0.00040655	0	0	0
0.000412731	0	0	0
0.000412786	0	0	0
0.000414777	0	0	0
0.000415292	0	0	0
0.00041596	0	0	0
0.000417562	0	0	0
0.000418616	0	0	0
0.000428656	0	0	0
0.000429382	0	0	0
0.000433539	0	0	0
0.00043536	0	0	0
0.000436946	0	0	0
0.000447254	0	0	0
0.000448742	0	0	0
0.000453652	0	0	0
0.00045643	0	0	0
0.000456499	0	0	0
0.00046124	0	0	0
0.000462822	0	0	0
0.000468681	0	0	0
0.000468802	0	0	0
0.000469129	0	0	0
0.000470159	0	0	0
0.000472974	0	0	0
0.000474571	0	0	0
0.000474708	0	0	0
0.000487831	0	0	0
0.000487976	0	0	0
0.000493071	0	0	0
0.000494558	0	0	0
0.00049751	0	0	0
0.000506969	0	0	0
0.000510088	0	0	0
0.000510118	0	0	0
0.000512534	0	0	0
0.000513192	0	0	0
0.000517645	0	0	0
0.00052188	0	0	0
0.000524529	0	0	0
0.000525569	0	0	0
0.000528195	0	0	0
0.00053691	0	0	0
0.000537191	0	0	0
0.000542636	0	0	0
0.000556695	0	0	0
0.000562227	0	0	0
0.000563396	0	0	0
0.000564464	0	0	0
0.000567511	0	0	0
0.000573033	0	0	0
0.000574801	0	0	0
0.000579988	0	0	0
0.00060473	0	0	0
0.000605274	0	0	0
0.000613176	0	0	0
0.000614074	0	0	0
0.000620107	0	0	0
0.000621346	0	0	0
0.000627472	0	0	0
0.000634269	0	0	0
0.000638753	0	0	0
0.000645843	0	0	0
0.000652041	0	0	0
0.000652337	0	0	0
0.000665868	0	0	0
0.000679437	0	0	0
0.000697169	0	0	0
0.00073355	0	0	0
0.000757222	0	0	0
0.000772604	0	0	0
0.000782083	0	0	0
0.000811278	0	0	0
0.0008123	0	0	0
0.000816596	0	0	0
0.00087981	0	0	0
0.000889939	0	0	0
0.000918674	0	0	0
0.000935317	0	0	0
0.000940746	0	0	0
0.000943063	0	0	0
0.000950905	0	0	0
0.000987587	0	0	0
0.000990643	0	0	0
0.00100579	0	0	0
0.00102525	0	0	0
0.00104128	0	0	0
0.00107699	0	0	0
0.00112525	0	0	0
0.00115925	0	0	0
0.00116917	0	0	0
0.00119311	0	0	0
0.00120352	0	0	0
0.00122127	0	0	0
0.00123123	0	0	0
0.00123925	0	0	0
0.00123991	0	0	0
0.00124642	0	0	0
0.0013082	0	0	0
0.00131458	0	0	0
0.0013437	0	0	0
0.0013486	0	0	0
0.00147304	0	0	0
0.00154722	0	0	0
0.0015558	0	0	0
0.0016545	0	0	0
0.00185248	0	0	0
0.00187839	0	0	0
0.0019351	0	0	0
0.00231552	0	0	0
