7.40231e-08	0	0	0
2.26237e-07	0	0	0
5.75965e-07	0	0	0
8.47076e-07	0	0	0
2.38461e-06	0	0	0
2.47463e-06	0	0	0
2.4905e-06	0	0	0
2.58296e-06	0	0	0
3.26885e-06	0	0	0
3.32255e-06	0	0	0
3.33029e-06	0	0	0
3.71975e-06	0	0	0
4.00236e-06	0	0	0
4.10062e-06	0	0	0
4.13794e-06	0	0	0
4.36486e-06	0	0	0
4.51655e-06	0	0	0
4.93029e-06	0	0	0
5.31499e-06	0	0	0
5.41125e-06	0	0	0
5.68998e-06	0	0	0
5.89019e-06	0	0	0
6.02985e-06	0	0	0
6.09214e-06	0	0	0
6.39678e-06	0	0	0
6.46888e-06	0	0	0
6.52692e-06	0	0	0
6.91187e-06	0	0	0
7.30838e-06	0	0	0
7.6153e-06	0	0	0
7.69335e-06	0	0	0
8.00471e-06	0	0	0
8.16248e-06	0	0	0
9.13042e-06	0	0	0
9.69671e-06	0	0	0
9.78778e-06	0	0	0
9.87855e-06	0	0	0
1.03379e-05	0	0	0
1.0405e-05	0	0	0
1.05e-05	0	0	0
1.07703e-05	0	0	0
1.13182e-05	0	0	0
1.14384e-05	0	0	0
1.1583e-05	0	0	0
1.16755e-05	0	0	0
1.17696e-05	0	0	0
1.25036e-05	0	0	0
1.2911e-05	0	0	0
1.31591e-05	0	0	0
1.36159e-05	0	0	0
1.38043e-05	0	0	0
1.39581e-05	0	0	0
1.39784e-05	0	0	0
1.42369e-05	0	0	0
1.45593e-05	0	0	0
1.48153e-05	0	0	0
1.50256e-05	0	0	0
1.52821e-05	0	0	0
1.5304e-05	0	0	0
1.53361e-05	0	0	0
1.70445e-05	0	0	0
1.71246e-05	0	0	0
1.74109e-05	0	0	0
1.78357e-05	0	0	0
1.84133e-05	0	0	0
1.86129e-05	0	0	0
1.87706e-05	0	0	0
1.88791e-05	0	0	0
1.94715e-05	0	0	0
1.94791e-05	0	0	0
1.99496e-05	0	0	0
2.15922e-05	0	0	0
2.25217e-05	0	0	0
2.30235e-05	0	0	0
2.31519e-05	0	0	0
2.31612e-05	0	0	0
2.33837e-05	0	0	0
2.40115e-05	0	0	0
2.51066e-05	0	0	0
2.51967e-05	0	0	0
2.59504e-05	0	0	0
2.62246e-05	0	0	0
2.62585e-05	0	0	0
2.63472e-05	0	0	0
2.66137e-05	0	0	0
2.66525e-05	0	0	0
2.70282e-05	0	0	0
2.73539e-05	0	0	0
2.77985e-05	0	0	0
2.78101e-05	0	0	0
2.84515e-05	0	0	0
2.88718e-05	0	0	0
2.9601e-05	0	0	0
3.02421e-05	0	0	0
3.15354e-05	0	0	0
3.27111e-05	0	0	0
3.33322e-05	0	0	0
3.3359e-05	0	0	0
3.37677e-05	0	0	0
3.58465e-05	0	0	0
3.62398e-05	0	0	0
3.63283e-05	0	0	0
3.64867e-05	0	0	0
3.65352e-05	0	0	0
3.67153e-05	0	0	0
3.68499e-05	0	0	0
3.73e-05	0	0	0
3.74062e-05	0	0	0
3.79092e-05	0	0	0
3.84981e-05	0	0	0
3.85819e-05	0	0	0
3.87256e-05	0	0	0
3.9003e-05	0	0	0
3.99398e-05	0	0	0
4.01341e-05	0	0	0
4.05545e-05	0	0	0
4.19447e-05	0	0	0
4.21216e-05	0	0	0
4.23517e-05	0	0	0
4.24124e-05	0	0	0
4.30994e-05	0	0	0
4.3565e-05	0	0	0
4.37072e-05	0	0	0
4.5274e-05	0	0	0
4.56499e-05	0	0	0
4.64125e-05	0	0	0
4.70419e-05	0	0	0
4.75669e-05	0	0	0
4.86104e-05	0	0	0
5.01931e-05	0	0	0
5.11676e-05	0	0	0
5.16467e-05	0	0	0
5.43703e-05	0	0	0
5.4482e-05	0	0	0
5.47465e-05	0	0	0
5.49184e-05	0	0	0
5.54978e-05	0	0	0
5.59855e-05	0	0	0
5.60078e-05	0	0	0
5.67252e-05	0	0	0
5.67991e-05	0	0	0
5.75407e-05	0	0	0
5.86679e-05	0	0	0
5.87984e-05	0	0	0
6.06078e-05	0	0	0
6.07919e-05	0	0	0
6.14956e-05	0	0	0
6.26409e-05	0	0	0
6.26728e-05	0	0	0
6.30488e-05	0	0	0
6.31244e-05	0	0	0
6.34329e-05	0	0	0
6.49333e-05	0	0	0
6.50452e-05	0	0	0
6.65338e-05	0	0	0
6.66223e-05	0	0	0
6.66567e-05	0	0	0
6.7054e-05	0	0	0
6.71514e-05	0	0	0
6.74657e-05	0	0	0
6.77728e-05	0	0	0
6.86693e-05	0	0	0
7.06425e-05	0	0	0
7.17042e-05	0	0	0
7.26095e-05	0	0	0
7.38488e-05	0	0	0
7.48135e-05	0	0	0
7.59593e-05	0	0	0
7.62599e-05	0	0	0
7.69899e-05	0	0	0
7.91318e-05	0	0	0
8.11548e-05	0	0	0
8.1561e-05	0	0	0
8.2165e-05	0	0	0
8.50079e-05	0	0	0
8.52848e-05	0	0	0
8.61413e-05	0	0	0
9.10452e-05	0	0	0
9.27796e-05	0	0	0
9.32947e-05	0	0	0
9.35127e-05	0	0	0
9.40192e-05	0	0	0
9.44124e-05	0	0	0
9.5437e-05	0	0	0
9.65669e-05	0	0	0
9.70459e-05	0	0	0
9.78383e-05	0	0	0
9.80602e-05	0	0	0
9.82195e-05	0	0	0
9.88678e-05	0	0	0
0.000100109	0	0	0
0.000100727	0	0	0
0.000101701	0	0	0
0.000102024	0	0	0
0.000102296	0	0	0
0.000105125	0	0	0
0.000105518	0	0	0
0.000106019	0	0	0
0.000106032	0	0	0
0.000106089	0	0	0
0.000108171	0	0	0
0.000111555	0	0	0
0.000112094	0	0	0
0.000113301	0	0	0
0.000114665	0	0	0
0.000114872	0	0	0
0.000115668	0	0	0
0.000115899	0	0	0
0.000116324	0	0	0
0.000116354	0	0	0
0.000119724	0	0	0
0.000120043	0	0	0
0.000120056	0	0	0
0.000121462	0	0	0
0.000121723	0	0	0
0.000124559	0	0	0
0.000124565	0	0	0
0.000124851	0	0	0
0.00012495	0	0	0
0.0001276	0	0	0
0.000127814	0	0	0
0.000127899	0	0	0
0.000130331	0	0	0
0.000131743	0	0	0
0.000134359	0	0	0
0.000135017	0	0	0
0.000135202	0	0	0
0.000138673	0	0	0
0.000140852	0	0	0
0.000141359	0	0	0
0.000143102	0	0	0
0.00014348	0	0	0
0.000143707	0	0	0
0.000143829	0	0	0
0.000144176	0	0	0
0.000144462	0	0	0
0.000144574	0	0	0
0.000145149	0	0	0
0.000146857	0	0	0
0.000147783	0	0	0
0.000148874	0	0	0
0.000149242	0	0	0
0.000155737	0	0	0
0.000157153	0	0	0
0.000160022	0	0	0
0.000161291	0	0	0
0.000163873	0	0	0
0.000165324	0	0	0
0.000166362	0	0	0
0.000166649	0	0	0
0.000166992	0	0	0
0.000170118	0	0	0
0.000172758	0	0	0
0.000174311	0	0	0
0.000177279	0	0	0
0.000177683	0	0	0
0.000178601	0	0	0
0.000182601	0	0	0
0.000188862	0	0	0
0.000189918	0	0	0
0.000195741	0	0	0
0.0002034	0	0	0
0.000209488	0	0	0
0.000212178	0	0	0
0.000212533	0	0	0
0.000215914	0	0	0
0.000216286	0	0	0
0.00021859	0	0	0
0.000218918	0	0	0
0.000219703	0	0	0
0.000224032	0	0	0
0.000229119	0	0	0
0.000229712	0	0	0
0.000231058	0	0	0
0.000233764	0	0	0
0.00023925	0	0	0
0.000241568	0	0	0
0.000245462	0	0	0
0.000254659	0	0	0
0.00025689	0	0	0
0.000258919	0	0	0
0.000276302	0	0	0
0.000279243	0	0	0
0.000285497	0	0	0
0.00028581	0	0	0
0.000288875	0	0	0
0.000289919	0	0	0
0.000290728	0	0	0
0.000295513	0	0	0
0.000298168	0	0	0
0.000300045	0	0	0
0.000305522	0	0	0
0.000312269	0	0	0
0.000321488	0	0	0
0.000321966	0	0	0
0.000329569	0	0	0
0.000333087	0	0	0
0.000355022	0	0	0
0.000366304	0	0	0
0.000370483	0	0	0
0.000381892	0	0	0
0.000389126	0	0	0
0.000391931	0	0	0
0.000396798	0	0	0
0.000398833	0	0	0
0.000399562	0	0	0
0.000400543	0	0	0
0.000407533	0	0	0
0.000416633	0	0	0
0.000422919	0	0	0
0.000424945	0	0	0
0.000441302	0	0	0
0.000450194	0	0	0
0.000452901	0	0	0
0.000453416	0	0	0
0.000454459	0	0	0
0.000457391	0	0	0
0.000491595	0	0	0
0.000492342	0	0	0
0.000494886	0	0	0
0.000499795	0	0	0
0.000508085	0	0	0
0.000543466	0	0	0
0.00055169	0	0	0
0.000579143	0	0	0
0.000586111	0	0	0
0.0005876	0	0	0
0.000610384	0	0	0
0.000615578	0	0	0
0.00062043	0	0	0
0.000645673	0	0	0
0.000647921	0	0	0
0.000662485	0	0	0
0.000667349	0	0	0
0.000682885	0	0	0
0.000713544	0	0	0
0.000715582	0	0	0
0.000727819	0	0	0
0.000750629	0	0	0
0.000751556	0	0	0
0.000759779	0	0	0
0.000760694	0	0	0
0.000795867	0	0	0
0.000810365	0	0	0
0.000813007	0	0	0
0.000830809	0	0	0
0.000838476	0	0	0
0.000843108	0	0	0
0.000879837	0	0	0
0.000899471	0	0	0
0.000903394	0	0	0
0.000950105	0	0	0
0.000983107	0	0	0
0.00102936	0	0	0
0.00107516	0	0	0
0.00107719	0	0	0
0.00111125	0	0	0
0.00111175	0	0	0
0.0011628	0	0	0
0.00133352	0	0	0
0.001351	0	0	0
0.00146563	0	0	0
0.00152098	0	0	0
0.00209485	0	0	0
0.00236437	0	0	0
0.00299921	0	0	0
0.00339426	0	0	0
0.00345714	0	0	0
0.00369316	0	0	0
0.00435911	0	0	0
0.00441649	0	0	0
0.00714058	0	0	0
