3.66138e-07	0	0	0
7.90706e-07	0	0	0
8.45523e-07	0	0	0
1.2641e-06	0	0	0
1.44452e-06	0	0	0
1.58459e-06	0	0	0
1.96689e-06	0	0	0
2.00837e-06	0	0	0
2.19317e-06	0	0	0
2.2812e-06	0	0	0
2.70684e-06	0	0	0
2.73116e-06	0	0	0
2.74611e-06	0	0	0
2.91435e-06	0	0	0
2.97094e-06	0	0	0
3.02113e-06	0	0	0
3.14859e-06	0	0	0
3.37208e-06	0	0	0
3.39153e-06	0	0	0
3.63086e-06	0	0	0
3.88801e-06	0	0	0
4.1503e-06	0	0	0
4.18177e-06	0	0	0
4.21663e-06	0	0	0
4.64219e-06	0	0	0
4.68826e-06	0	0	0
4.72921e-06	0	0	0
5.09017e-06	0	0	0
5.13524e-06	0	0	0
5.99753e-06	0	0	0
6.67736e-06	0	0	0
7.22274e-06	0	0	0
7.25382e-06	0	0	0
7.39765e-06	0	0	0
8.548e-06	0	0	0
8.84034e-06	0	0	0
9.10691e-06	0	0	0
9.73551e-06	0	0	0
1.00821e-05	0	0	0
1.00925e-05	0	0	0
1.03198e-05	0	0	0
1.06498e-05	0	0	0
1.07412e-05	0	0	0
1.12049e-05	0	0	0
1.16508e-05	0	0	0
1.16737e-05	0	0	0
1.19795e-05	0	0	0
1.2262e-05	0	0	0
1.24756e-05	0	0	0
1.2623e-05	0	0	0
1.26945e-05	0	0	0
1.31062e-05	0	0	0
1.33244e-05	0	0	0
1.362e-05	0	0	0
1.36308e-05	0	0	0
1.39287e-05	0	0	0
1.40131e-05	0	0	0
1.43892e-05	0	0	0
1.49164e-05	0	0	0
1.52794e-05	0	0	0
1.55509e-05	0	0	0
1.58376e-05	0	0	0
1.64056e-05	0	0	0
1.66097e-05	0	0	0
1.69172e-05	0	0	0
1.69343e-05	0	0	0
1.73102e-05	0	0	0
1.77104e-05	0	0	0
1.85428e-05	0	0	0
1.85872e-05	0	0	0
1.88181e-05	0	0	0
1.907e-05	0	0	0
2.06166e-05	0	0	0
2.06243e-05	0	0	0
2.08557e-05	0	0	0
2.11746e-05	0	0	0
2.12916e-05	0	0	0
2.14329e-05	0	0	0
2.14541e-05	0	0	0
2.15317e-05	0	0	0
2.17857e-05	0	0	0
2.21319e-05	0	0	0
2.2434e-05	0	0	0
2.32098e-05	0	0	0
2.32148e-05	0	0	0
2.34529e-05	0	0	0
2.39587e-05	0	0	0
2.39619e-05	0	0	0
2.4007e-05	0	0	0
2.40288e-05	0	0	0
2.42494e-05	0	0	0
2.42714e-05	0	0	0
2.42896e-05	0	0	0
2.44388e-05	0	0	0
2.44461e-05	0	0	0
2.47893e-05	0	0	0
2.66434e-05	0	0	0
2.66938e-05	0	0	0
2.69827e-05	0	0	0
2.76375e-05	0	0	0
2.76458e-05	0	0	0
2.81262e-05	0	0	0
2.83119e-05	0	0	0
2.88364e-05	0	0	0
2.93089e-05	0	0	0
2.95777e-05	0	0	0
3.02785e-05	0	0	0
3.05268e-05	0	0	0
3.05741e-05	0	0	0
3.17944e-05	0	0	0
3.2327e-05	0	0	0
3.25599e-05	0	0	0
3.26313e-05	0	0	0
3.27381e-05	0	0	0
3.3012e-05	0	0	0
3.30959e-05	0	0	0
3.31938e-05	0	0	0
3.34543e-05	0	0	0
3.43032e-05	0	0	0
3.53573e-05	0	0	0
3.59027e-05	0	0	0
3.69387e-05	0	0	0
3.7098e-05	0	0	0
3.72374e-05	0	0	0
3.7539e-05	0	0	0
3.77334e-05	0	0	0
3.87801e-05	0	0	0
3.87978e-05	0	0	0
3.91209e-05	0	0	0
3.92921e-05	0	0	0
3.98553e-05	0	0	0
4.05575e-05	0	0	0
4.06413e-05	0	0	0
4.0741e-05	0	0	0
4.171e-05	0	0	0
4.24749e-05	0	0	0
4.26718e-05	0	0	0
4.27853e-05	0	0	0
4.2872e-05	0	0	0
4.36498e-05	0	0	0
4.39134e-05	0	0	0
4.39327e-05	0	0	0
4.41608e-05	0	0	0
4.52048e-05	0	0	0
4.58484e-05	0	0	0
4.69365e-05	0	0	0
4.70359e-05	0	0	0
4.7048e-05	0	0	0
4.76668e-05	0	0	0
4.83656e-05	0	0	0
4.90046e-05	0	0	0
4.93626e-05	0	0	0
4.97486e-05	0	0	0
5.00291e-05	0	0	0
5.01629e-05	0	0	0
5.1623e-05	0	0	0
5.17529e-05	0	0	0
5.27709e-05	0	0	0
5.29538e-05	0	0	0
5.30404e-05	0	0	0
5.32685e-05	0	0	0
5.37258e-05	0	0	0
5.51237e-05	0	0	0
5.59904e-05	0	0	0
5.62069e-05	0	0	0
5.74111e-05	0	0	0
5.82506e-05	0	0	0
5.84859e-05	0	0	0
5.86729e-05	0	0	0
6.00798e-05	0	0	0
6.21883e-05	0	0	0
6.51072e-05	0	0	0
6.53103e-05	0	0	0
6.67976e-05	0	0	0
6.72725e-05	0	0	0
6.73328e-05	0	0	0
6.78332e-05	0	0	0
6.80725e-05	0	0	0
6.91846e-05	0	0	0
6.98585e-05	0	0	0
7.06866e-05	0	0	0
7.13741e-05	0	0	0
7.18212e-05	0	0	0
7.18553e-05	0	0	0
7.19151e-05	0	0	0
7.29722e-05	0	0	0
7.54529e-05	0	0	0
7.59414e-05	0	0	0
7.89036e-05	0	0	0
7.89305e-05	0	0	0
7.93335e-05	0	0	0
7.988e-05	0	0	0
8.08023e-05	0	0	0
8.13839e-05	0	0	0
8.16366e-05	0	0	0
8.19945e-05	0	0	0
8.40088e-05	0	0	0
8.44088e-05	0	0	0
8.45222e-05	0	0	0
8.47569e-05	0	0	0
8.50912e-05	0	0	0
8.61693e-05	0	0	0
8.61802e-05	0	0	0
8.63792e-05	0	0	0
8.78989e-05	0	0	0
9.00005e-05	0	0	0
9.05198e-05	0	0	0
9.179e-05	0	0	0
9.38679e-05	0	0	0
9.4192e-05	0	0	0
9.47787e-05	0	0	0
9.48496e-05	0	0	0
9.7263e-05	0	0	0
9.73314e-05	0	0	0
9.80587e-05	0	0	0
0.000100274	0	0	0
0.000100488	0	0	0
0.000100628	0	0	0
0.00010197	0	0	0
0.000102551	0	0	0
0.000103664	0	0	0
0.000103763	0	0	0
0.000104405	0	0	0
0.000104796	0	0	0
0.000106275	0	0	0
0.000107105	0	0	0
0.000107244	0	0	0
0.000107553	0	0	0
0.000107639	0	0	0
0.000107865	0	0	0
0.000108349	0	0	0
0.000108471	0	0	0
0.000109024	0	0	0
0.000109762	0	0	0
0.000110245	0	0	0
0.000110497	0	0	0
0.000111727	0	0	0
0.000112585	0	0	0
0.000112687	0	0	0
0.000114731	0	0	0
0.000115163	0	0	0
0.000116573	0	0	0
0.000117307	0	0	0
0.000117987	0	0	0
0.000119415	0	0	0
0.000120577	0	0	0
0.000120926	0	0	0
0.000123194	0	0	0
0.000123675	0	0	0
0.000125388	0	0	0
0.000125594	0	0	0
0.000127488	0	0	0
0.000129209	0	0	0
0.00013162	0	0	0
0.000131848	0	0	0
0.000132563	0	0	0
0.000133341	0	0	0
0.000135194	0	0	0
0.000136126	0	0	0
0.000136628	0	0	0
0.000137656	0	0	0
0.000139591	0	0	0
0.000146233	0	0	0
0.000149072	0	0	0
0.000149645	0	0	0
0.000150656	0	0	0
0.000152243	0	0	0
0.000154327	0	0	0
0.000155358	0	0	0
0.000155468	0	0	0
0.000162497	0	0	0
0.000162629	0	0	0
0.000164551	0	0	0
0.000166175	0	0	0
0.000167566	0	0	0
0.000168248	0	0	0
0.000168259	0	0	0
0.000168356	0	0	0
0.000170459	0	0	0
0.000171045	0	0	0
0.000171061	0	0	0
0.000173231	0	0	0
0.000173928	0	0	0
0.000174449	0	0	0
0.00017466	0	0	0
0.000175028	0	0	0
0.000177536	0	0	0
0.00017776	0	0	0
0.000177988	0	0	0
0.000179252	0	0	0
0.000182677	0	0	0
0.000186265	0	0	0
0.000187269	0	0	0
0.000187306	0	0	0
0.000188876	0	0	0
0.000193738	0	0	0
0.000200583	0	0	0
0.000202212	0	0	0
0.000202863	0	0	0
0.000203823	0	0	0
0.000204558	0	0	0
0.000208636	0	0	0
0.000209758	0	0	0
0.000210918	0	0	0
0.000217044	0	0	0
0.00021912	0	0	0
0.000222219	0	0	0
0.000222995	0	0	0
0.0002234	0	0	0
0.00022355	0	0	0
0.000226514	0	0	0
0.000227405	0	0	0
0.000227572	0	0	0
0.000227979	0	0	0
0.000233695	0	0	0
0.000233745	0	0	0
0.00023486	0	0	0
0.000236778	0	0	0
0.00023809	0	0	0
0.000239949	0	0	0
0.000241736	0	0	0
0.000246788	0	0	0
0.000247162	0	0	0
0.000248293	0	0	0
0.000250099	0	0	0
0.000250856	0	0	0
0.000250889	0	0	0
0.000252024	0	0	0
0.000253271	0	0	0
0.000256018	0	0	0
0.000257846	0	0	0
0.000261248	0	0	0
0.000261964	0	0	0
0.000262108	0	0	0
0.00026305	0	0	0
0.000264043	0	0	0
0.000264069	0	0	0
0.000264491	0	0	0
0.00026516	0	0	0
0.000266445	0	0	0
0.000272045	0	0	0
0.000274202	0	0	0
0.000274804	0	0	0
0.000275328	0	0	0
0.000276277	0	0	0
0.000277099	0	0	0
0.000278641	0	0	0
0.000280826	0	0	0
0.000281353	0	0	0
0.000281361	0	0	0
0.000282629	0	0	0
0.000285684	0	0	0
0.000289008	0	0	0
0.000290363	0	0	0
0.000294846	0	0	0
0.000296029	0	0	0
0.000296657	0	0	0
0.000297818	0	0	0
0.000301404	0	0	0
0.000303486	0	0	0
0.000304974	0	0	0
0.000307378	0	0	0
0.000308668	0	0	0
0.000311259	0	0	0
0.00031166	0	0	0
0.000313591	0	0	0
0.000317304	0	0	0
0.000325165	0	0	0
0.000325329	0	0	0
0.000325834	0	0	0
0.000331096	0	0	0
0.000336047	0	0	0
0.000336652	0	0	0
0.000341851	0	0	0
0.000345965	0	0	0
0.000348214	0	0	0
0.000353873	0	0	0
0.000355464	0	0	0
0.000355679	0	0	0
0.000357186	0	0	0
0.000359521	0	0	0
0.000359586	0	0	0
0.000372141	0	0	0
0.000379239	0	0	0
0.000384186	0	0	0
0.000387746	0	0	0
0.000397985	0	0	0
0.000400808	0	0	0
0.000401753	0	0	0
0.000405067	0	0	0
0.000438194	0	0	0
0.000441011	0	0	0
0.000442741	0	0	0
0.000452935	0	0	0
0.000453606	0	0	0
0.000455554	0	0	0
0.000456255	0	0	0
0.000464095	0	0	0
0.000464229	0	0	0
0.000469565	0	0	0
0.000472196	0	0	0
0.000472542	0	0	0
0.000479773	0	0	0
0.000481934	0	0	0
0.000482653	0	0	0
0.000491089	0	0	0
0.000504444	0	0	0
0.000512052	0	0	0
0.000529571	0	0	0
0.000545001	0	0	0
0.000555895	0	0	0
0.000570069	0	0	0
0.000570957	0	0	0
0.000602437	0	0	0
0.000611694	0	0	0
0.00061745	0	0	0
0.000623704	0	0	0
0.000623976	0	0	0
0.000625795	0	0	0
0.000627712	0	0	0
0.000629726	0	0	0
0.000635081	0	0	0
0.000639282	0	0	0
0.000645746	0	0	0
0.00065128	0	0	0
0.000660662	0	0	0
0.000663564	0	0	0
0.000666781	0	0	0
0.0006704	0	0	0
0.000675312	0	0	0
0.000677848	0	0	0
0.000678096	0	0	0
0.000691381	0	0	0
0.000710031	0	0	0
0.000722443	0	0	0
0.00074105	0	0	0
0.000749253	0	0	0
0.000788701	0	0	0
0.00080028	0	0	0
0.00080209	0	0	0
0.0008459	0	0	0
0.000850542	0	0	0
0.00086226	0	0	0
0.000886295	0	0	0
0.000892034	0	0	0
0.000897466	0	0	0
0.000900523	0	0	0
0.000919475	0	0	0
0.00091962	0	0	0
0.00092485	0	0	0
0.000927526	0	0	0
0.000928476	0	0	0
0.00093147	0	0	0
0.000954749	0	0	0
0.000968416	0	0	0
0.000972572	0	0	0
0.000994587	0	0	0
0.00102452	0	0	0
0.00106391	0	0	0
0.00107073	0	0	0
0.00107611	0	0	0
0.00109783	0	0	0
0.00110614	0	0	0
0.00116277	0	0	0
0.00116385	0	0	0
0.00116718	0	0	0
0.00118289	0	0	0
0.00120794	0	0	0
0.00121617	0	0	0
0.00125892	0	0	0
0.00132331	0	0	0
0.00132638	0	0	0
0.00133101	0	0	0
0.00134717	0	0	0
0.00149941	0	0	0
0.00158429	0	0	0
0.0018386	0	0	0
0.00199084	0	0	0
0.00201147	0	0	0
0.00220038	0	0	0
0.00249987	0	0	0
