3.10533e-08	0	0	0
1.28689e-07	0	0	0
1.91415e-07	0	0	0
2.1975e-07	0	0	0
3.23991e-07	0	0	0
3.33864e-07	0	0	0
4.73283e-07	0	0	0
5.44518e-07	0	0	0
5.55859e-07	0	0	0
5.84671e-07	0	0	0
6.15784e-07	0	0	0
6.40324e-07	0	0	0
7.33307e-07	0	0	0
7.46279e-07	0	0	0
9.39094e-07	0	0	0
1.4176e-06	0	0	0
1.95203e-06	0	0	0
2.23028e-06	0	0	0
2.24225e-06	0	0	0
2.3797e-06	0	0	0
2.43781e-06	0	0	0
2.58278e-06	0	0	0
2.88308e-06	0	0	0
2.92399e-06	0	0	0
2.95707e-06	0	0	0
3.09622e-06	0	0	0
3.17832e-06	0	0	0
3.19083e-06	0	0	0
3.29598e-06	0	0	0
3.40833e-06	0	0	0
3.44549e-06	0	0	0
3.51855e-06	0	0	0
3.56601e-06	0	0	0
3.69303e-06	0	0	0
3.8687e-06	0	0	0
4.33256e-06	0	0	0
4.51437e-06	0	0	0
4.52559e-06	0	0	0
4.82257e-06	0	0	0
4.90283e-06	0	0	0
4.93398e-06	0	0	0
5.08822e-06	0	0	0
5.09677e-06	0	0	0
5.15484e-06	0	0	0
5.18211e-06	0	0	0
5.29769e-06	0	0	0
5.35857e-06	0	0	0
5.3857e-06	0	0	0
5.65498e-06	0	0	0
5.70828e-06	0	0	0
5.77156e-06	0	0	0
5.79758e-06	0	0	0
5.98117e-06	0	0	0
6.18521e-06	0	0	0
6.24876e-06	0	0	0
6.31292e-06	0	0	0
6.6284e-06	0	0	0
6.7762e-06	0	0	0
6.86915e-06	0	0	0
7.148e-06	0	0	0
7.37446e-06	0	0	0
7.40447e-06	0	0	0
7.46949e-06	0	0	0
7.49675e-06	0	0	0
7.5769e-06	0	0	0
7.74701e-06	0	0	0
7.86827e-06	0	0	0
8.32909e-06	0	0	0
8.83641e-06	0	0	0
9.01879e-06	0	0	0
9.14018e-06	0	0	0
9.24313e-06	0	0	0
9.46339e-06	0	0	0
9.60257e-06	0	0	0
9.93643e-06	0	0	0
1.03381e-05	0	0	0
1.03906e-05	0	0	0
1.04725e-05	0	0	0
1.07076e-05	0	0	0
1.12184e-05	0	0	0
1.15087e-05	0	0	0
1.16324e-05	0	0	0
1.17669e-05	0	0	0
1.28888e-05	0	0	0
1.29279e-05	0	0	0
1.3144e-05	0	0	0
1.34354e-05	0	0	0
1.36919e-05	0	0	0
1.40047e-05	0	0	0
1.40805e-05	0	0	0
1.41387e-05	0	0	0
1.455e-05	0	0	0
1.45836e-05	0	0	0
1.47359e-05	0	0	0
1.47461e-05	0	0	0
1.49997e-05	0	0	0
1.533e-05	0	0	0
1.55444e-05	0	0	0
1.57133e-05	0	0	0
1.6187e-05	0	0	0
1.62974e-05	0	0	0
1.64291e-05	0	0	0
1.65272e-05	0	0	0
1.65571e-05	0	0	0
1.65617e-05	0	0	0
1.65657e-05	0	0	0
1.68511e-05	0	0	0
1.70095e-05	0	0	0
1.72522e-05	0	0	0
1.73594e-05	0	0	0
1.84322e-05	0	0	0
1.87746e-05	0	0	0
1.94341e-05	0	0	0
2.02642e-05	0	0	0
2.04071e-05	0	0	0
2.04749e-05	0	0	0
2.04828e-05	0	0	0
2.04875e-05	0	0	0
2.06956e-05	0	0	0
2.11014e-05	0	0	0
2.12734e-05	0	0	0
2.14876e-05	0	0	0
2.15784e-05	0	0	0
2.15954e-05	0	0	0
2.1668e-05	0	0	0
2.21099e-05	0	0	0
2.26718e-05	0	0	0
2.27147e-05	0	0	0
2.27164e-05	0	0	0
2.316e-05	0	0	0
2.33375e-05	0	0	0
2.36438e-05	0	0	0
2.37267e-05	0	0	0
2.38859e-05	0	0	0
2.49225e-05	0	0	0
2.49945e-05	0	0	0
2.51528e-05	0	0	0
2.54183e-05	0	0	0
2.55669e-05	0	0	0
2.57839e-05	0	0	0
2.63285e-05	0	0	0
2.68151e-05	0	0	0
2.68771e-05	0	0	0
2.71147e-05	0	0	0
2.74431e-05	0	0	0
2.74704e-05	0	0	0
2.81755e-05	0	0	0
2.86214e-05	0	0	0
2.86257e-05	0	0	0
2.96159e-05	0	0	0
2.96435e-05	0	0	0
3.00651e-05	0	0	0
3.01042e-05	0	0	0
3.01694e-05	0	0	0
3.02522e-05	0	0	0
3.0541e-05	0	0	0
3.06047e-05	0	0	0
3.06157e-05	0	0	0
3.09061e-05	0	0	0
3.11825e-05	0	0	0
3.14499e-05	0	0	0
3.15145e-05	0	0	0
3.17515e-05	0	0	0
3.1831e-05	0	0	0
3.18438e-05	0	0	0
3.19304e-05	0	0	0
3.25847e-05	0	0	0
3.30829e-05	0	0	0
3.33486e-05	0	0	0
3.34392e-05	0	0	0
3.34393e-05	0	0	0
3.35987e-05	0	0	0
3.38815e-05	0	0	0
3.42471e-05	0	0	0
3.4633e-05	0	0	0
3.473e-05	0	0	0
3.53149e-05	0	0	0
3.53457e-05	0	0	0
3.57995e-05	0	0	0
3.59005e-05	0	0	0
3.61629e-05	0	0	0
3.71324e-05	0	0	0
3.72029e-05	0	0	0
3.79835e-05	0	0	0
3.8229e-05	0	0	0
3.89089e-05	0	0	0
3.89715e-05	0	0	0
3.91255e-05	0	0	0
4.07447e-05	0	0	0
4.08591e-05	0	0	0
4.08625e-05	0	0	0
4.11797e-05	0	0	0
4.16381e-05	0	0	0
4.18088e-05	0	0	0
4.25358e-05	0	0	0
4.255e-05	0	0	0
4.26513e-05	0	0	0
4.26604e-05	0	0	0
4.30149e-05	0	0	0
4.34069e-05	0	0	0
4.3614e-05	0	0	0
4.38058e-05	0	0	0
4.39432e-05	0	0	0
4.47496e-05	0	0	0
4.53908e-05	0	0	0
4.58764e-05	0	0	0
4.62744e-05	0	0	0
4.69371e-05	0	0	0
4.72792e-05	0	0	0
4.7586e-05	0	0	0
4.88917e-05	0	0	0
5.04641e-05	0	0	0
5.0618e-05	0	0	0
5.06206e-05	0	0	0
5.12282e-05	0	0	0
5.18963e-05	0	0	0
5.28309e-05	0	0	0
5.31628e-05	0	0	0
5.35418e-05	0	0	0
5.3743e-05	0	0	0
5.3956e-05	0	0	0
5.39563e-05	0	0	0
5.39851e-05	0	0	0
5.41174e-05	0	0	0
5.42206e-05	0	0	0
5.42984e-05	0	0	0
5.4402e-05	0	0	0
5.46397e-05	0	0	0
5.48472e-05	0	0	0
5.53376e-05	0	0	0
5.59018e-05	0	0	0
5.60445e-05	0	0	0
5.6155e-05	0	0	0
5.67125e-05	0	0	0
5.70489e-05	0	0	0
5.70694e-05	0	0	0
5.82246e-05	0	0	0
5.93094e-05	0	0	0
5.97944e-05	0	0	0
6.11096e-05	0	0	0
6.13663e-05	0	0	0
6.15658e-05	0	0	0
6.16305e-05	0	0	0
6.19647e-05	0	0	0
6.29604e-05	0	0	0
6.33486e-05	0	0	0
6.35766e-05	0	0	0
6.39149e-05	0	0	0
6.51929e-05	0	0	0
6.53116e-05	0	0	0
6.53121e-05	0	0	0
6.55851e-05	0	0	0
6.58236e-05	0	0	0
6.63633e-05	0	0	0
6.67559e-05	0	0	0
6.72515e-05	0	0	0
6.74673e-05	0	0	0
6.76758e-05	0	0	0
6.81061e-05	0	0	0
6.83225e-05	0	0	0
6.87196e-05	0	0	0
6.87735e-05	0	0	0
6.9431e-05	0	0	0
6.96539e-05	0	0	0
7.00172e-05	0	0	0
7.03835e-05	0	0	0
7.04458e-05	0	0	0
7.07528e-05	0	0	0
7.17018e-05	0	0	0
7.22132e-05	0	0	0
7.28308e-05	0	0	0
7.29448e-05	0	0	0
7.34109e-05	0	0	0
7.36313e-05	0	0	0
7.4388e-05	0	0	0
7.45069e-05	0	0	0
7.45638e-05	0	0	0
7.49846e-05	0	0	0
7.52231e-05	0	0	0
7.56149e-05	0	0	0
7.57919e-05	0	0	0
7.62093e-05	0	0	0
7.66774e-05	0	0	0
7.697e-05	0	0	0
7.77636e-05	0	0	0
7.85715e-05	0	0	0
7.90882e-05	0	0	0
7.94819e-05	0	0	0
7.95001e-05	0	0	0
7.95466e-05	0	0	0
7.98015e-05	0	0	0
7.98378e-05	0	0	0
8.13331e-05	0	0	0
8.24553e-05	0	0	0
8.32146e-05	0	0	0
8.35949e-05	0	0	0
8.52982e-05	0	0	0
8.55611e-05	0	0	0
8.61768e-05	0	0	0
8.62879e-05	0	0	0
8.86608e-05	0	0	0
8.94834e-05	0	0	0
8.97283e-05	0	0	0
9.0285e-05	0	0	0
9.05312e-05	0	0	0
9.05941e-05	0	0	0
9.09224e-05	0	0	0
9.09873e-05	0	0	0
9.12452e-05	0	0	0
9.14992e-05	0	0	0
9.22079e-05	0	0	0
9.23575e-05	0	0	0
9.29119e-05	0	0	0
9.29169e-05	0	0	0
9.31145e-05	0	0	0
9.40586e-05	0	0	0
9.47097e-05	0	0	0
9.5373e-05	0	0	0
9.55465e-05	0	0	0
9.5568e-05	0	0	0
9.56651e-05	0	0	0
9.6777e-05	0	0	0
9.75863e-05	0	0	0
9.82965e-05	0	0	0
9.90108e-05	0	0	0
9.91989e-05	0	0	0
9.9558e-05	0	0	0
9.98022e-05	0	0	0
0.000100419	0	0	0
0.000100844	0	0	0
0.000101103	0	0	0
0.000101187	0	0	0
0.000101316	0	0	0
0.000102485	0	0	0
0.00010303	0	0	0
0.000103204	0	0	0
0.000103419	0	0	0
0.000103471	0	0	0
0.000103643	0	0	0
0.000103833	0	0	0
0.000105073	0	0	0
0.000105249	0	0	0
0.000107592	0	0	0
0.00010846	0	0	0
0.000109048	0	0	0
0.000110617	0	0	0
0.000110848	0	0	0
0.000111953	0	0	0
0.000112282	0	0	0
0.000114263	0	0	0
0.000114402	0	0	0
0.00011486	0	0	0
0.000115232	0	0	0
0.000115529	0	0	0
0.000115563	0	0	0
0.000116639	0	0	0
0.000116686	0	0	0
0.000116893	0	0	0
0.000117562	0	0	0
0.000117862	0	0	0
0.000118013	0	0	0
0.000118458	0	0	0
0.000121081	0	0	0
0.000121108	0	0	0
0.000121117	0	0	0
0.000121209	0	0	0
0.000121554	0	0	0
0.000122215	0	0	0
0.000122592	0	0	0
0.000122887	0	0	0
0.000123031	0	0	0
0.00012379	0	0	0
0.000125069	0	0	0
0.000126256	0	0	0
0.000126559	0	0	0
0.000127062	0	0	0
0.000128018	0	0	0
0.000130694	0	0	0
0.00013109	0	0	0
0.000132402	0	0	0
0.000132438	0	0	0
0.000133945	0	0	0
0.000134096	0	0	0
0.000134148	0	0	0
0.000134243	0	0	0
0.000134498	0	0	0
0.000135916	0	0	0
0.000136497	0	0	0
0.000138397	0	0	0
0.000138953	0	0	0
0.000138974	0	0	0
0.000139108	0	0	0
0.000139625	0	0	0
0.000141855	0	0	0
0.000142434	0	0	0
0.000143383	0	0	0
0.000143533	0	0	0
0.00014494	0	0	0
0.000145689	0	0	0
0.000146259	0	0	0
0.000147545	0	0	0
0.000148641	0	0	0
0.000149581	0	0	0
0.00015144	0	0	0
0.000151605	0	0	0
0.00015215	0	0	0
0.000152715	0	0	0
0.000152818	0	0	0
0.00015327	0	0	0
0.000155611	0	0	0
0.000156127	0	0	0
0.000156542	0	0	0
0.000157054	0	0	0
0.000157214	0	0	0
0.000159163	0	0	0
0.000159616	0	0	0
0.000163615	0	0	0
0.000166114	0	0	0
0.000167521	0	0	0
0.000170934	0	0	0
0.000172244	0	0	0
0.000172733	0	0	0
0.000173074	0	0	0
0.00017523	0	0	0
0.00017631	0	0	0
0.000177538	0	0	0
0.000177565	0	0	0
0.000181078	0	0	0
0.000181098	0	0	0
0.000181507	0	0	0
0.00018273	0	0	0
0.000183222	0	0	0
0.000183224	0	0	0
0.000183444	0	0	0
0.000185838	0	0	0
0.000189755	0	0	0
0.000193692	0	0	0
0.000196174	0	0	0
0.000196398	0	0	0
0.000196475	0	0	0
0.00019915	0	0	0
0.000199237	0	0	0
0.000200658	0	0	0
0.000202796	0	0	0
0.000203176	0	0	0
0.000203185	0	0	0
0.000203422	0	0	0
0.000203657	0	0	0
0.000204373	0	0	0
0.000205002	0	0	0
0.000206028	0	0	0
0.000209784	0	0	0
0.000210961	0	0	0
0.00021237	0	0	0
0.000212983	0	0	0
0.000215235	0	0	0
0.000216346	0	0	0
0.00021812	0	0	0
0.000218219	0	0	0
0.000221598	0	0	0
0.000222701	0	0	0
0.000225	0	0	0
0.000226023	0	0	0
0.000228111	0	0	0
0.000230628	0	0	0
0.000231311	0	0	0
0.00023138	0	0	0
0.000235162	0	0	0
0.000235219	0	0	0
0.000237834	0	0	0
0.000237973	0	0	0
0.000238111	0	0	0
0.000238522	0	0	0
0.000244147	0	0	0
0.00024631	0	0	0
0.000246825	0	0	0
0.00024921	0	0	0
0.000251072	0	0	0
0.000252287	0	0	0
0.000253212	0	0	0
0.000253831	0	0	0
0.000254508	0	0	0
0.000260338	0	0	0
0.000261847	0	0	0
0.000266301	0	0	0
0.000268573	0	0	0
0.000270503	0	0	0
0.000273478	0	0	0
0.000276334	0	0	0
0.000277463	0	0	0
0.000279075	0	0	0
0.000279846	0	0	0
0.000281265	0	0	0
0.000284678	0	0	0
0.000286771	0	0	0
0.000286945	0	0	0
0.000294386	0	0	0
0.000294632	0	0	0
0.000294798	0	0	0
0.000295137	0	0	0
0.000299765	0	0	0
0.000300478	0	0	0
0.000305319	0	0	0
0.000305952	0	0	0
0.00030977	0	0	0
0.000310001	0	0	0
0.000313349	0	0	0
0.000323268	0	0	0
0.000323597	0	0	0
0.000328016	0	0	0
0.000328356	0	0	0
0.00033097	0	0	0
0.000332378	0	0	0
0.000336708	0	0	0
0.000338738	0	0	0
0.000339923	0	0	0
0.000341606	0	0	0
0.000344486	0	0	0
0.000354185	0	0	0
0.000356239	0	0	0
0.000381893	0	0	0
0.000383138	0	0	0
0.000384988	0	0	0
0.000384995	0	0	0
0.000387608	0	0	0
0.000389242	0	0	0
0.00039253	0	0	0
0.00039426	0	0	0
0.000395367	0	0	0
0.000403577	0	0	0
0.000405238	0	0	0
0.000405974	0	0	0
0.000408071	0	0	0
0.000419708	0	0	0
0.000422458	0	0	0
0.000431627	0	0	0
0.000434319	0	0	0
0.00044573	0	0	0
0.000452332	0	0	0
0.000453425	0	0	0
0.000455938	0	0	0
0.000456922	0	0	0
0.000462674	0	0	0
0.000465652	0	0	0
0.00047341	0	0	0
0.000480021	0	0	0
0.000480351	0	0	0
0.000488074	0	0	0
0.000492417	0	0	0
0.000506398	0	0	0
0.000508061	0	0	0
0.000510411	0	0	0
0.000510438	0	0	0
0.000512035	0	0	0
0.000537037	0	0	0
0.000547951	0	0	0
0.00055727	0	0	0
0.000558463	0	0	0
0.000565447	0	0	0
0.00058735	0	0	0
0.000587452	0	0	0
0.000592823	0	0	0
0.00060133	0	0	0
0.000610198	0	0	0
0.000627142	0	0	0
0.000637107	0	0	0
0.00064273	0	0	0
0.000645844	0	0	0
0.000663739	0	0	0
0.000681082	0	0	0
0.000688656	0	0	0
0.000702472	0	0	0
0.00070756	0	0	0
0.000711242	0	0	0
0.000726867	0	0	0
0.000749585	0	0	0
0.000754268	0	0	0
0.000767293	0	0	0
0.000798338	0	0	0
0.000809997	0	0	0
0.000818101	0	0	0
0.000829893	0	0	0
0.0008333	0	0	0
0.000866393	0	0	0
0.000870538	0	0	0
0.000889882	0	0	0
0.000942515	0	0	0
0.000969085	0	0	0
0.000985822	0	0	0
0.00103863	0	0	0
0.00111703	0	0	0
0.00117991	0	0	0
0.00123009	0	0	0
0.001238	0	0	0
0.00132642	0	0	0
0.00151117	0	0	0
0.0015674	0	0	0
0.00199195	0	0	0
0.00204774	0	0	0
0.0025377	0	0	0
0.00280068	0	0	0
0.00338101	0	0	0
0.00413717	0	0	0
