2.38047e-07	0	0	0
3.23031e-07	0	0	0
3.73864e-07	0	0	0
4.70726e-07	0	0	0
5.75149e-07	0	0	0
6.89965e-07	0	0	0
8.1941e-07	0	0	0
9.03672e-07	0	0	0
1.11847e-06	0	0	0
1.12122e-06	0	0	0
1.19572e-06	0	0	0
1.33264e-06	0	0	0
1.36084e-06	0	0	0
2.02175e-06	0	0	0
2.76e-06	0	0	0
3.24227e-06	0	0	0
3.87946e-06	0	0	0
4.06625e-06	0	0	0
4.10468e-06	0	0	0
4.1062e-06	0	0	0
4.52934e-06	0	0	0
5.17612e-06	0	0	0
5.45587e-06	0	0	0
6.10023e-06	0	0	0
6.11352e-06	0	0	0
6.13711e-06	0	0	0
6.55745e-06	0	0	0
6.94326e-06	0	0	0
7.03729e-06	0	0	0
7.07498e-06	0	0	0
7.2878e-06	0	0	0
7.30275e-06	0	0	0
7.57713e-06	0	0	0
7.87316e-06	0	0	0
8.12568e-06	0	0	0
8.13851e-06	0	0	0
8.15546e-06	0	0	0
8.30466e-06	0	0	0
8.43196e-06	0	0	0
8.4341e-06	0	0	0
9.11674e-06	0	0	0
9.39069e-06	0	0	0
9.74408e-06	0	0	0
1.04226e-05	0	0	0
1.12404e-05	0	0	0
1.14414e-05	0	0	0
1.15569e-05	0	0	0
1.15881e-05	0	0	0
1.16808e-05	0	0	0
1.18319e-05	0	0	0
1.21322e-05	0	0	0
1.24764e-05	0	0	0
1.27932e-05	0	0	0
1.2842e-05	0	0	0
1.30371e-05	0	0	0
1.32995e-05	0	0	0
1.33676e-05	0	0	0
1.34944e-05	0	0	0
1.38505e-05	0	0	0
1.38981e-05	0	0	0
1.41757e-05	0	0	0
1.42188e-05	0	0	0
1.422e-05	0	0	0
1.4949e-05	0	0	0
1.51052e-05	0	0	0
1.53339e-05	0	0	0
1.53582e-05	0	0	0
1.55732e-05	0	0	0
1.57254e-05	0	0	0
1.57361e-05	0	0	0
1.57573e-05	0	0	0
1.63397e-05	0	0	0
1.64225e-05	0	0	0
1.65355e-05	0	0	0
1.65776e-05	0	0	0
1.67737e-05	0	0	0
1.70954e-05	0	0	0
1.77113e-05	0	0	0
1.77592e-05	0	0	0
1.7895e-05	0	0	0
1.7925e-05	0	0	0
1.79908e-05	0	0	0
1.81505e-05	0	0	0
1.88735e-05	0	0	0
1.91268e-05	0	0	0
1.94698e-05	0	0	0
1.9473e-05	0	0	0
1.96653e-05	0	0	0
2.004e-05	0	0	0
2.01551e-05	0	0	0
2.06839e-05	0	0	0
2.08874e-05	0	0	0
2.18818e-05	0	0	0
2.21179e-05	0	0	0
2.25347e-05	0	0	0
2.27156e-05	0	0	0
2.30001e-05	0	0	0
2.30225e-05	0	0	0
2.31832e-05	0	0	0
2.33316e-05	0	0	0
2.35038e-05	0	0	0
2.38211e-05	0	0	0
2.44833e-05	0	0	0
2.48666e-05	0	0	0
2.48925e-05	0	0	0
2.53976e-05	0	0	0
2.56514e-05	0	0	0
2.58008e-05	0	0	0
2.59038e-05	0	0	0
2.61834e-05	0	0	0
2.65165e-05	0	0	0
2.80266e-05	0	0	0
2.81137e-05	0	0	0
2.84413e-05	0	0	0
2.87555e-05	0	0	0
2.92228e-05	0	0	0
2.96221e-05	0	0	0
3.03865e-05	0	0	0
3.05132e-05	0	0	0
3.13086e-05	0	0	0
3.14785e-05	0	0	0
3.14895e-05	0	0	0
3.22395e-05	0	0	0
3.25883e-05	0	0	0
3.28141e-05	0	0	0
3.32638e-05	0	0	0
3.33758e-05	0	0	0
3.33779e-05	0	0	0
3.35332e-05	0	0	0
3.39968e-05	0	0	0
3.42387e-05	0	0	0
3.45721e-05	0	0	0
3.50552e-05	0	0	0
3.51339e-05	0	0	0
3.55836e-05	0	0	0
3.5857e-05	0	0	0
3.63269e-05	0	0	0
3.64906e-05	0	0	0
3.67932e-05	0	0	0
3.68932e-05	0	0	0
3.7116e-05	0	0	0
3.71883e-05	0	0	0
3.72927e-05	0	0	0
3.74196e-05	0	0	0
3.8421e-05	0	0	0
3.85396e-05	0	0	0
3.8782e-05	0	0	0
3.94153e-05	0	0	0
3.9793e-05	0	0	0
3.9907e-05	0	0	0
4.04633e-05	0	0	0
4.06704e-05	0	0	0
4.10629e-05	0	0	0
4.15251e-05	0	0	0
4.15771e-05	0	0	0
4.28769e-05	0	0	0
4.30413e-05	0	0	0
4.31657e-05	0	0	0
4.39153e-05	0	0	0
4.40138e-05	0	0	0
4.40519e-05	0	0	0
4.51497e-05	0	0	0
4.71849e-05	0	0	0
4.75876e-05	0	0	0
4.78584e-05	0	0	0
4.81373e-05	0	0	0
4.8771e-05	0	0	0
4.94923e-05	0	0	0
5.0023e-05	0	0	0
5.00505e-05	0	0	0
5.02341e-05	0	0	0
5.05316e-05	0	0	0
5.14636e-05	0	0	0
5.16671e-05	0	0	0
5.16853e-05	0	0	0
5.17489e-05	0	0	0
5.25703e-05	0	0	0
5.27295e-05	0	0	0
5.36647e-05	0	0	0
5.46272e-05	0	0	0
5.47081e-05	0	0	0
5.49257e-05	0	0	0
5.55963e-05	0	0	0
5.59068e-05	0	0	0
5.61852e-05	0	0	0
5.62732e-05	0	0	0
5.67338e-05	0	0	0
5.71765e-05	0	0	0
5.74775e-05	0	0	0
5.76702e-05	0	0	0
5.8193e-05	0	0	0
5.81931e-05	0	0	0
5.84482e-05	0	0	0
5.84821e-05	0	0	0
5.88106e-05	0	0	0
5.88172e-05	0	0	0
5.90189e-05	0	0	0
5.9131e-05	0	0	0
5.93197e-05	0	0	0
5.95826e-05	0	0	0
6.02362e-05	0	0	0
6.04921e-05	0	0	0
6.07223e-05	0	0	0
6.2244e-05	0	0	0
6.23318e-05	0	0	0
6.24373e-05	0	0	0
6.28189e-05	0	0	0
6.34869e-05	0	0	0
6.48675e-05	0	0	0
6.4903e-05	0	0	0
6.57621e-05	0	0	0
6.58422e-05	0	0	0
6.63724e-05	0	0	0
6.64027e-05	0	0	0
6.65653e-05	0	0	0
6.68596e-05	0	0	0
6.6995e-05	0	0	0
6.71427e-05	0	0	0
6.91953e-05	0	0	0
6.99703e-05	0	0	0
7.03498e-05	0	0	0
7.06152e-05	0	0	0
7.07742e-05	0	0	0
7.13357e-05	0	0	0
7.18631e-05	0	0	0
7.19553e-05	0	0	0
7.21337e-05	0	0	0
7.29729e-05	0	0	0
7.37993e-05	0	0	0
7.42758e-05	0	0	0
7.63866e-05	0	0	0
7.64812e-05	0	0	0
7.69463e-05	0	0	0
8.08585e-05	0	0	0
8.15199e-05	0	0	0
8.26008e-05	0	0	0
8.28728e-05	0	0	0
8.36726e-05	0	0	0
8.43227e-05	0	0	0
8.54257e-05	0	0	0
8.5733e-05	0	0	0
8.64527e-05	0	0	0
8.74254e-05	0	0	0
8.77225e-05	0	0	0
8.91833e-05	0	0	0
9.06933e-05	0	0	0
9.12457e-05	0	0	0
9.2914e-05	0	0	0
9.3045e-05	0	0	0
9.33424e-05	0	0	0
9.47796e-05	0	0	0
9.49087e-05	0	0	0
9.49631e-05	0	0	0
9.61414e-05	0	0	0
9.64654e-05	0	0	0
9.70697e-05	0	0	0
9.79435e-05	0	0	0
9.8145e-05	0	0	0
9.82076e-05	0	0	0
9.85111e-05	0	0	0
9.8621e-05	0	0	0
9.87175e-05	0	0	0
0.00010299	0	0	0
0.000103109	0	0	0
0.00010345	0	0	0
0.000104832	0	0	0
0.000105728	0	0	0
0.000106976	0	0	0
0.000107367	0	0	0
0.000108784	0	0	0
0.000110817	0	0	0
0.000112439	0	0	0
0.000112634	0	0	0
0.000112934	0	0	0
0.000113754	0	0	0
0.000114307	0	0	0
0.000115803	0	0	0
0.000117189	0	0	0
0.000117199	0	0	0
0.000117337	0	0	0
0.000118773	0	0	0
0.000118783	0	0	0
0.00011904	0	0	0
0.000119494	0	0	0
0.000120712	0	0	0
0.000121333	0	0	0
0.000121776	0	0	0
0.000121795	0	0	0
0.000122767	0	0	0
0.000123125	0	0	0
0.000125173	0	0	0
0.000125407	0	0	0
0.000127809	0	0	0
0.00012833	0	0	0
0.000130282	0	0	0
0.00013422	0	0	0
0.000134304	0	0	0
0.000135445	0	0	0
0.000136602	0	0	0
0.000136825	0	0	0
0.000137346	0	0	0
0.000137485	0	0	0
0.000138086	0	0	0
0.000138623	0	0	0
0.000138892	0	0	0
0.00014035	0	0	0
0.000142211	0	0	0
0.000142323	0	0	0
0.00014422	0	0	0
0.000146492	0	0	0
0.000147579	0	0	0
0.000149337	0	0	0
0.000152643	0	0	0
0.000153707	0	0	0
0.000154957	0	0	0
0.00015623	0	0	0
0.000156451	0	0	0
0.00015666	0	0	0
0.000157328	0	0	0
0.000162592	0	0	0
0.000163155	0	0	0
0.000164354	0	0	0
0.000164618	0	0	0
0.000165647	0	0	0
0.000167153	0	0	0
0.000167969	0	0	0
0.000168097	0	0	0
0.0001705	0	0	0
0.000170922	0	0	0
0.000170988	0	0	0
0.000172508	0	0	0
0.00017297	0	0	0
0.000173156	0	0	0
0.000179535	0	0	0
0.000180006	0	0	0
0.000181601	0	0	0
0.000183673	0	0	0
0.000183758	0	0	0
0.000185706	0	0	0
0.000185757	0	0	0
0.000187336	0	0	0
0.000187566	0	0	0
0.000191155	0	0	0
0.000192462	0	0	0
0.000193134	0	0	0
0.000194707	0	0	0
0.000195611	0	0	0
0.000197451	0	0	0
0.000198244	0	0	0
0.000199157	0	0	0
0.000201632	0	0	0
0.000202734	0	0	0
0.000207435	0	0	0
0.00020924	0	0	0
0.000209308	0	0	0
0.00021296	0	0	0
0.000213547	0	0	0
0.000213558	0	0	0
0.000216048	0	0	0
0.000216361	0	0	0
0.000217397	0	0	0
0.000217426	0	0	0
0.000218163	0	0	0
0.000218736	0	0	0
0.000219607	0	0	0
0.000219849	0	0	0
0.000225838	0	0	0
0.000226094	0	0	0
0.000226181	0	0	0
0.000226861	0	0	0
0.000232534	0	0	0
0.000233009	0	0	0
0.000235291	0	0	0
0.000235839	0	0	0
0.00023631	0	0	0
0.00023773	0	0	0
0.000240865	0	0	0
0.000242912	0	0	0
0.000243592	0	0	0
0.000246717	0	0	0
0.000247063	0	0	0
0.000247294	0	0	0
0.00024844	0	0	0
0.000256496	0	0	0
0.000257021	0	0	0
0.00025719	0	0	0
0.00025723	0	0	0
0.000263696	0	0	0
0.000265357	0	0	0
0.000267784	0	0	0
0.000268968	0	0	0
0.000269537	0	0	0
0.000272581	0	0	0
0.000275882	0	0	0
0.000278782	0	0	0
0.000280329	0	0	0
0.000282412	0	0	0
0.000283283	0	0	0
0.000290221	0	0	0
0.000299077	0	0	0
0.000300967	0	0	0
0.00030248	0	0	0
0.000303944	0	0	0
0.000313715	0	0	0
0.000315757	0	0	0
0.000319216	0	0	0
0.000319886	0	0	0
0.000320943	0	0	0
0.000327191	0	0	0.0230362
0.000334891	0	0	0.0230362
0.000336962	0	0	0.0230362
0.000338556	0	0	0.0230362
0.000351223	0	0	0.0230362
0.000357057	0	0	0.0230362
0.000361313	0	0	0.0230362
0.000366419	0	0	0.0230362
0.000376118	0	0	0.0230362
0.000380292	0	0	0.0230362
0.000382274	0	0	0.0230362
0.000390462	0	0	0.0230362
0.000392754	0	0	0.0230362
0.000400406	0	0	0.0230362
0.000403192	0	0	0.0230362
0.000403997	0	0	0.0230362
0.000420909	0	0	0.0230362
0.000423545	0	0	0.0230362
0.000426034	0	0	0.0230362
0.000427542	0	0	0.0230362
0.00043612	0	0	0.0230362
0.000440905	0	0	0.0230362
0.000451522	0	0	0.0230362
0.000455578	0	0	0.0230362
0.000462734	0	0	0.0230362
0.00046451	0	0	0.0230362
0.000467339	0	0	0.0230362
0.000476501	0	0	0.0230362
0.000477798	0	0	0.0230362
0.000494727	0	0	0.0230362
0.000496106	0	0	0.0230362
0.000502092	0	0	0.0230362
0.000527175	0	0	0.0230362
0.000543417	0	0	0.0230362
0.000549656	0	0	0.0230362
0.000556808	0	0	0.0230362
0.000566691	0	0	0.0230362
0.000570001	0	0	0.0230362
0.000570841	0	0	0.0230362
0.000575076	0	0	0.0230362
0.000587308	0	0	0.0230362
0.000594571	0	0	0.0230362
0.000607188	0	0	0.0230362
0.000612666	0	0	0.0230362
0.000620506	0	0	0.0230362
0.000629782	0	0	0.0230362
0.00063298	0	0	0.0230362
0.000643317	0	0	0.0230362
0.000650737	0	0	0.0230362
0.00066428	0	0	0.0230362
0.000672511	0	0	0.0230362
0.000676343	0	0	0.0230362
0.000709611	0	0	0.0230362
0.000733838	0	0	0.0230362
0.000746738	0	0	0.0230362
0.000760369	0	0	0.0230362
0.000799077	0	0	0.0230362
0.000808555	0	0	0.0230362
0.000823771	0	0	0.0230362
0.000830554	0	0	0.0230362
0.000872298	0	0	0.0230362
0.000884647	0	0	0.0230362
0.00088697	0	0	0.0230362
0.000903839	0	0	0.0230362
0.000984696	0	0	0.0230362
0.00109228	0	0	0.0230362
0.00110261	0	0	0.0230362
0.00111519	0	0	0.0230362
0.00113816	0	0	0.0230362
0.00116715	0	0	0.0230362
0.00128017	0	0	0.0230362
0.00129067	0	0	0.0230362
0.00131046	0	0	0.0230362
0.00133108	0	0	0.0230362
0.00138642	0	0	0.0230362
0.00221186	0	0	0.0230362
0.00269789	0	0	0.0230362
