1.39565e-07	0	0	0
4.71863e-07	0	0	0
8.99239e-07	0	0	0
9.9276e-07	0	0	0
1.09834e-06	0	0	0
1.32746e-06	0	0	0
1.7334e-06	0	0	0
1.90755e-06	0	0	0
2.3511e-06	0	0	0
2.53035e-06	0	0	0
2.9682e-06	0	0	0
3.01987e-06	0	0	0
3.0877e-06	0	0	0
3.08945e-06	0	0	0
3.15085e-06	0	0	0
3.16514e-06	0	0	0
3.41261e-06	0	0	0
3.86115e-06	0	0	0
4.56829e-06	0	0	0
4.69752e-06	0	0	0
4.78624e-06	0	0	0
5.37151e-06	0	0	0
5.57062e-06	0	0	0
5.88694e-06	0	0	0
6.82757e-06	0	0	0
7.00852e-06	0	0	0
7.2945e-06	0	0	0
7.42129e-06	0	0	0
7.65252e-06	0	0	0
7.71426e-06	0	0	0
7.71532e-06	0	0	0
8.11115e-06	0	0	0
8.47821e-06	0	0	0
8.66901e-06	0	0	0
8.84917e-06	0	0	0
8.87679e-06	0	0	0
9.14373e-06	0	0	0
9.15153e-06	0	0	0
9.57743e-06	0	0	0
9.58022e-06	0	0	0
9.61423e-06	0	0	0
9.64291e-06	0	0	0
9.6705e-06	0	0	0
9.94466e-06	0	0	0
9.9845e-06	0	0	0
1.0037e-05	0	0	0
1.03706e-05	0	0	0
1.06086e-05	0	0	0
1.08087e-05	0	0	0
1.12658e-05	0	0	0
1.13664e-05	0	0	0
1.14886e-05	0	0	0
1.18191e-05	0	0	0
1.21239e-05	0	0	0
1.24381e-05	0	0	0
1.25321e-05	0	0	0
1.4783e-05	0	0	0
1.52708e-05	0	0	0
1.5495e-05	0	0	0
1.54982e-05	0	0	0
1.63352e-05	0	0	0
1.76302e-05	0	0	0
1.77233e-05	0	0	0
1.79188e-05	0	0	0
1.97254e-05	0	0	0
1.9752e-05	0	0	0
2.00493e-05	0	0	0
2.0129e-05	0	0	0
2.04971e-05	0	0	0
2.0584e-05	0	0	0
2.05986e-05	0	0	0
2.07561e-05	0	0	0
2.11621e-05	0	0	0
2.14445e-05	0	0	0
2.14768e-05	0	0	0
2.15587e-05	0	0	0
2.16857e-05	0	0	0
2.20719e-05	0	0	0
2.2448e-05	0	0	0
2.2708e-05	0	0	0
2.32113e-05	0	0	0
2.3774e-05	0	0	0
2.39511e-05	0	0	0
2.43315e-05	0	0	0
2.48679e-05	0	0	0
2.55992e-05	0	0	0
2.66794e-05	0	0	0
2.69591e-05	0	0	0
2.73244e-05	0	0	0
2.74076e-05	0	0	0
2.81793e-05	0	0	0
2.84686e-05	0	0	0
2.84735e-05	0	0	0
2.86387e-05	0	0	0
2.86971e-05	0	0	0
2.90414e-05	0	0	0
2.92364e-05	0	0	0
2.96217e-05	0	0	0
2.97572e-05	0	0	0
2.98378e-05	0	0	0
3.04028e-05	0	0	0
3.0535e-05	0	0	0
3.05909e-05	0	0	0
3.09708e-05	0	0	0
3.11914e-05	0	0	0
3.13893e-05	0	0	0
3.14732e-05	0	0	0
3.17111e-05	0	0	0
3.21331e-05	0	0	0
3.24864e-05	0	0	0
3.28973e-05	0	0	0
3.31423e-05	0	0	0
3.37114e-05	0	0	0
3.44826e-05	0	0	0
3.47047e-05	0	0	0
3.55429e-05	0	0	0
3.56776e-05	0	0	0
3.57239e-05	0	0	0
3.58808e-05	0	0	0
3.66726e-05	0	0	0
3.67459e-05	0	0	0
3.68688e-05	0	0	0
3.69606e-05	0	0	0
3.69607e-05	0	0	0
3.73359e-05	0	0	0
3.81697e-05	0	0	0
3.82902e-05	0	0	0
3.89396e-05	0	0	0
3.91782e-05	0	0	0
3.92336e-05	0	0	0
4.08447e-05	0	0	0
4.08819e-05	0	0	0
4.11702e-05	0	0	0
4.15558e-05	0	0	0
4.27808e-05	0	0	0
4.32445e-05	0	0	0
4.3337e-05	0	0	0
4.38563e-05	0	0	0
4.44128e-05	0	0	0
4.4677e-05	0	0	0
4.57854e-05	0	0	0
4.63753e-05	0	0	0
4.68735e-05	0	0	0
4.72969e-05	0	0	0
4.7439e-05	0	0	0
4.765e-05	0	0	0
4.77138e-05	0	0	0
4.78072e-05	0	0	0
4.79163e-05	0	0	0
4.81835e-05	0	0	0
4.84841e-05	0	0	0
4.88482e-05	0	0	0
4.91322e-05	0	0	0
4.93857e-05	0	0	0
4.98156e-05	0	0	0
4.99677e-05	0	0	0
5.01386e-05	0	0	0
5.02264e-05	0	0	0
5.0447e-05	0	0	0
5.18236e-05	0	0	0
5.18383e-05	0	0	0
5.19074e-05	0	0	0
5.20571e-05	0	0	0
5.22921e-05	0	0	0
5.23538e-05	0	0	0
5.30865e-05	0	0	0
5.4578e-05	0	0	0
5.46865e-05	0	0	0
5.47963e-05	0	0	0
5.50629e-05	0	0	0
5.50651e-05	0	0	0
5.5391e-05	0	0	0
5.54398e-05	0	0	0
5.5642e-05	0	0	0
5.68449e-05	0	0	0
5.77054e-05	0	0	0
5.78425e-05	0	0	0
5.98733e-05	0	0	0
6.14224e-05	0	0	0
6.17934e-05	0	0	0
6.1949e-05	0	0	0
6.23974e-05	0	0	0
6.35891e-05	0	0	0
6.39911e-05	0	0	0
6.40403e-05	0	0	0
6.41169e-05	0	0	0
6.47259e-05	0	0	0
6.50483e-05	0	0	0
6.59882e-05	0	0	0
6.73595e-05	0	0	0
6.78787e-05	0	0	0
6.81065e-05	0	0	0
6.87915e-05	0	0	0
6.88888e-05	0	0	0
6.91648e-05	0	0	0
6.98441e-05	0	0	0
7.04871e-05	0	0	0
7.10815e-05	0	0	0
7.10864e-05	0	0	0
7.22511e-05	0	0	0
7.29969e-05	0	0	0
7.31605e-05	0	0	0
7.32294e-05	0	0	0
7.36564e-05	0	0	0
7.55752e-05	0	0	0
7.58823e-05	0	0	0
7.60663e-05	0	0	0
7.77876e-05	0	0	0
7.83681e-05	0	0	0
7.96368e-05	0	0	0
7.96464e-05	0	0	0
8.0032e-05	0	0	0
8.03488e-05	0	0	0
8.04831e-05	0	0	0
8.0701e-05	0	0	0
8.18484e-05	0	0	0
8.20257e-05	0	0	0
8.26335e-05	0	0	0
8.27432e-05	0	0	0
8.27664e-05	0	0	0
8.32565e-05	0	0	0
8.47098e-05	0	0	0
8.47162e-05	0	0	0
8.47328e-05	0	0	0
8.49166e-05	0	0	0
8.51685e-05	0	0	0
8.53637e-05	0	0	0
8.56756e-05	0	0	0
8.60146e-05	0	0	0
8.80342e-05	0	0	0
8.8098e-05	0	0	0
8.82421e-05	0	0	0
8.88371e-05	0	0	0
8.94826e-05	0	0	0
8.95249e-05	0	0	0
8.9626e-05	0	0	0
9.07027e-05	0	0	0
9.12057e-05	0	0	0
9.19905e-05	0	0	0
9.2005e-05	0	0	0
9.31031e-05	0	0	0
9.33484e-05	0	0	0
9.34064e-05	0	0	0
9.36686e-05	0	0	0
9.37783e-05	0	0	0
9.40328e-05	0	0	0
9.47273e-05	0	0	0
9.51683e-05	0	0	0
9.58799e-05	0	0	0
9.62553e-05	0	0	0
9.64615e-05	0	0	0
9.65662e-05	0	0	0
9.74187e-05	0	0	0
9.83262e-05	0	0	0
9.94702e-05	0	0	0
9.96437e-05	0	0	0
0.000100188	0	0	0
0.000100488	0	0	0
0.000102611	0	0	0
0.000102897	0	0	0
0.000103038	0	0	0
0.000104516	0	0	0
0.000105548	0	0	0
0.000105838	0	0	0
0.000106008	0	0	0
0.000106345	0	0	0
0.00010653	0	0	0
0.000106777	0	0	0
0.00010813	0	0	0
0.000108556	0	0	0
0.000108672	0	0	0
0.000108815	0	0	0
0.00010894	0	0	0
0.000109038	0	0	0
0.000109561	0	0	0
0.000109667	0	0	0
0.000110269	0	0	0
0.000111576	0	0	0
0.000112723	0	0	0
0.000113951	0	0	0
0.00011495	0	0	0
0.000115225	0	0	0
0.000115257	0	0	0
0.000115999	0	0	0
0.000116063	0	0	0
0.000117336	0	0	0
0.000118006	0	0	0
0.00011816	0	0	0
0.0001185	0	0	0
0.000118882	0	0	0
0.000119881	0	0	0
0.000120639	0	0	0
0.000123542	0	0	0
0.000123765	0	0	0
0.000123841	0	0	0
0.000123904	0	0	0
0.000126546	0	0	0
0.000126718	0	0	0
0.000126804	0	0	0
0.000127139	0	0	0
0.000127218	0	0	0
0.000128489	0	0	0
0.000128664	0	0	0
0.000129942	0	0	0
0.00013029	0	0	0
0.000130739	0	0	0
0.000131656	0	0	0
0.000131955	0	0	0
0.000132267	0	0	0
0.000134174	0	0	0
0.0001351	0	0	0
0.000137264	0	0	0
0.000137383	0	0	0
0.000138604	0	0	0
0.000138864	0	0	0
0.00014063	0	0	0
0.000141197	0	0	0
0.000141239	0	0	0
0.000143147	0	0	0
0.000143793	0	0	0
0.000144524	0	0	0
0.000144553	0	0	0
0.00014471	0	0	0
0.000147484	0	0	0
0.000148906	0	0	0
0.000149547	0	0	0
0.00015005	0	0	0
0.00015181	0	0	0
0.000151953	0	0	0
0.000152037	0	0	0
0.000155323	0	0	0
0.000155848	0	0	0
0.00015594	0	0	0
0.000156177	0	0	0
0.000156309	0	0	0
0.000156315	0	0	0
0.000158277	0	0	0
0.000158559	0	0	0
0.000160512	0	0	0
0.000161806	0	0	0
0.000162884	0	0	0
0.000163059	0	0	0
0.00016467	0	0	0
0.000164723	0	0	0
0.000167658	0	0	0
0.000167703	0	0	0
0.000168031	0	0	0
0.00016908	0	0	0
0.000170125	0	0	0
0.000170896	0	0	0
0.000170946	0	0	0
0.000173828	0	0	0
0.000176145	0	0	0
0.000181085	0	0	0
0.00018306	0	0	0
0.000183592	0	0	0
0.000184263	0	0	0
0.000184669	0	0	0
0.000187234	0	0	0
0.000188002	0	0	0
0.000190071	0	0	0
0.000190143	0	0	0
0.000190565	0	0	0
0.00019088	0	0	0
0.000192177	0	0	0
0.000192605	0	0	0
0.000192976	0	0	0
0.000193255	0	0	0
0.000194009	0	0	0
0.000194771	0	0	0
0.000195921	0	0	0
0.000196758	0	0	0
0.000196793	0	0	0
0.000201093	0	0	0
0.000201095	0	0	0
0.000201578	0	0	0
0.000205558	0	0	0
0.000208859	0	0	0
0.000209814	0	0	0
0.000214082	0	0	0
0.000214166	0	0	0
0.000215406	0	0	0
0.000217367	0	0	0
0.000220286	0	0	0
0.000220537	0	0	0
0.000220801	0	0	0
0.000220874	0	0	0
0.000221973	0	0	0
0.000223104	0	0	0
0.000223189	0	0	0
0.000225052	0	0	0
0.000227097	0	0	0
0.000228604	0	0	0
0.000229304	0	0	0
0.000229533	0	0	0
0.000233986	0	0	0
0.000235777	0	0	0
0.000236022	0	0	0
0.00023629	0	0	0
0.000241133	0	0	0
0.000241897	0	0	0
0.000244891	0	0	0
0.000245624	0	0	0
0.000246812	0	0	0
0.000247825	0	0	0
0.000250499	0	0	0
0.00025267	0	0	0
0.000252764	0	0	0
0.000254094	0	0	0
0.000258377	0	0	0
0.000261844	0	0	0
0.000262872	0	0	0
0.000262959	0	0	0
0.000264709	0	0	0
0.000265157	0	0	0
0.000266266	0	0	0
0.000267178	0	0	0
0.000268593	0	0	0
0.000270084	0	0	0
0.000271044	0	0	0
0.000274158	0	0	0
0.000277076	0	0	0
0.000277614	0	0	0
0.000278185	0	0	0
0.000281314	0	0	0
0.000283039	0	0	0
0.00028401	0	0	0
0.00028466	0	0	0
0.000286982	0	0	0
0.000288382	0	0	0
0.000289154	0	0	0
0.000291541	0	0	0
0.000291961	0	0	0
0.000294633	0	0	0
0.00029498	0	0	0
0.000295309	0	0	0
0.000295826	0	0	0
0.000297392	0	0	0
0.000307939	0	0	0
0.000308731	0	0	0
0.000312808	0	0	0
0.000312844	0	0	0
0.00032252	0	0	0
0.000325892	0	0	0
0.000325902	0	0	0
0.000329235	0	0	0
0.000331002	0	0	0
0.000336547	0	0	0
0.000337427	0	0	0
0.000339448	0	0	0
0.000341203	0	0	0
0.000343698	0	0	0
0.000344423	0	0	0
0.000346036	0	0	0
0.000350519	0	0	0
0.000351883	0	0	0
0.00035293	0	0	0
0.000355021	0	0	0
0.000357605	0	0	0
0.000359817	0	0	0
0.000360118	0	0	0
0.000361737	0	0	0
0.000364148	0	0	0
0.000364494	0	0	0
0.000365129	0	0	0
0.000366519	0	0	0
0.000370272	0	0	0
0.000372213	0	0	0
0.000374576	0	0	0
0.000375059	0	0	0
0.000378271	0	0	0
0.000384004	0	0	0
0.000384836	0	0	0
0.000392521	0	0	0
0.000393234	0	0	0
0.000398089	0	0	0
0.000402033	0	0	0
0.000405495	0	0	0
0.000408933	0	0	0
0.000413394	0	0	0
0.000417213	0	0	0
0.000417456	0	0	0
0.000418184	0	0	0
0.000427999	0	0	0
0.000429539	0	0	0
0.000433282	0	0	0
0.000440598	0	0	0
0.000442365	0	0	0
0.000445512	0	0	0
0.000447507	0	0	0
0.000454012	0	0	0
0.000455609	0	0	0
0.000460458	0	0	0
0.00046924	0	0	0
0.000471875	0	0	0
0.000472018	0	0	0
0.000472976	0	0	0
0.000474976	0	0	0
0.000479067	0	0	0
0.000480609	0	0	0
0.00048096	0	0	0
0.000491302	0	0	0
0.000495988	0	0	0
0.000501632	0	0	0
0.000506838	0	0	0
0.000512557	0	0	0
0.000514908	0	0	0
0.000523829	0	0	0
0.000523937	0	0	0
0.000528025	0	0	0
0.000535055	0	0	0
0.000537685	0	0	0
0.000546239	0	0	0
0.000546411	0	0	0
0.000553525	0	0	0
0.000557743	0	0	0
0.000582095	0	0	0
0.000594158	0	0	0
0.000597851	0	0	0
0.000607807	0	0	0
0.000614587	0	0	0
0.00062989	0	0	0
0.00063208	0	0	0
0.000637365	0	0	0
0.000637762	0	0	0
0.000643103	0	0	0
0.000648416	0	0	0
0.000649068	0	0	0
0.000650849	0	0	0
0.000657832	0	0	0
0.000658731	0	0	0
0.000670116	0	0	0
0.000672115	0	0	0
0.000674771	0	0	0
0.000683119	0	0	0
0.000683295	0	0	0
0.000685462	0	0	0
0.000693184	0	0	0
0.000695653	0	0	0
0.000700005	0	0	0
0.000703369	0	0	0
0.000713498	0	0	0
0.000718679	0	0	0
0.000724266	0	0	0
0.000728002	0	0	0
0.000732431	0	0	0
0.000743289	0	0	0
0.000746893	0	0	0
0.000766981	0	0	0
0.000769087	0	0	0
0.00078066	0	0	0
0.000788484	0	0	0
0.000809766	0	0	0
0.000814136	0	0	0
0.000817349	0	0	0
0.000835912	0	0	0
0.000838577	0	0	0
0.000840933	0	0	0
0.000845576	0	0	0
0.000854454	0	0	0
0.000868399	0	0	0
0.000886672	0	0	0
0.000907067	0	0	0
0.000907704	0	0	0
0.000911288	0	0	0
0.000919057	0	0	0
0.000946859	0	0	0
0.000954035	0	0	0
0.000958244	0	0	0
0.000960604	0	0	0
0.000981703	0	0	0
0.000984859	0	0	0
0.000997755	0	0	0
0.00102074	0	0	0
0.00104511	0	0	0
0.00104754	0	0	0
0.00106354	0	0	0
0.00114167	0	0	0
0.00115232	0	0	0
0.00116598	0	0	0
0.0011779	0	0	0
0.00117908	0	0	0
0.00126261	0	0	0
0.00127389	0	0	0
0.00128676	0	0	0
0.00131791	0	0	0
0.00142654	0	0	0
0.00165242	0	0	0
0.0016992	0	0	0
0.00190628	0	0	0
0.002372	0	0	0
0.0027301	0	0	0
