1.98451e-07	0	0	0
3.23488e-07	0	0	0
5.30001e-07	0	0	0
6.48702e-07	0	0	0
7.20434e-07	0	0	0
1.19425e-06	0	0	0
1.35232e-06	0	0	0
1.40305e-06	0	0	0
1.4444e-06	0	0	0
2.27537e-06	0	0	0
2.34621e-06	0	0	0
2.51734e-06	0	0	0
2.71669e-06	0	0	0
2.96909e-06	0	0	0
3.19262e-06	0	0	0
4.03649e-06	0	0	0
4.29986e-06	0	0	0
4.30107e-06	0	0	0
4.35969e-06	0	0	0
4.69805e-06	0	0	0
4.72891e-06	0	0	0
4.98689e-06	0	0	0
5.18445e-06	0	0	0
5.38542e-06	0	0	0
5.41678e-06	0	0	0
5.5387e-06	0	0	0
5.93025e-06	0	0	0
6.01296e-06	0	0	0
6.0332e-06	0	0	0
6.38006e-06	0	0	0
6.45544e-06	0	0	0
6.57154e-06	0	0	0
6.85668e-06	0	0	0
7.43849e-06	0	0	0
7.60204e-06	0	0	0
7.72687e-06	0	0	0
7.86151e-06	0	0	0
8.14309e-06	0	0	0
8.2068e-06	0	0	0
8.29703e-06	0	0	0
8.33178e-06	0	0	0
8.96139e-06	0	0	0
9.65271e-06	0	0	0
9.84332e-06	0	0	0
9.88304e-06	0	0	0
1.05308e-05	0	0	0
1.08931e-05	0	0	0
1.11183e-05	0	0	0
1.12733e-05	0	0	0
1.13508e-05	0	0	0
1.14193e-05	0	0	0
1.149e-05	0	0	0
1.16775e-05	0	0	0
1.17547e-05	0	0	0
1.17576e-05	0	0	0
1.17907e-05	0	0	0
1.1827e-05	0	0	0
1.20525e-05	0	0	0
1.22574e-05	0	0	0
1.26531e-05	0	0	0
1.26657e-05	0	0	0
1.28038e-05	0	0	0
1.28083e-05	0	0	0
1.34364e-05	0	0	0
1.35228e-05	0	0	0
1.40983e-05	0	0	0
1.41869e-05	0	0	0
1.45342e-05	0	0	0
1.49866e-05	0	0	0
1.50721e-05	0	0	0
1.54697e-05	0	0	0
1.61129e-05	0	0	0
1.62122e-05	0	0	0
1.6431e-05	0	0	0
1.68183e-05	0	0	0
1.73796e-05	0	0	0
1.74393e-05	0	0	0
1.8056e-05	0	0	0
1.8788e-05	0	0	0
1.89457e-05	0	0	0
1.90018e-05	0	0	0
1.92821e-05	0	0	0
1.95938e-05	0	0	0
1.96803e-05	0	0	0
1.98177e-05	0	0	0
2.0459e-05	0	0	0
2.10388e-05	0	0	0
2.14649e-05	0	0	0
2.15295e-05	0	0	0
2.16735e-05	0	0	0
2.16778e-05	0	0	0
2.17131e-05	0	0	0
2.17263e-05	0	0	0
2.17783e-05	0	0	0
2.24688e-05	0	0	0
2.28493e-05	0	0	0
2.34508e-05	0	0	0
2.36347e-05	0	0	0
2.3813e-05	0	0	0
2.50689e-05	0	0	0
2.50989e-05	0	0	0
2.51116e-05	0	0	0
2.51221e-05	0	0	0
2.51999e-05	0	0	0
2.53395e-05	0	0	0
2.58807e-05	0	0	0
2.61731e-05	0	0	0
2.63666e-05	0	0	0
2.65343e-05	0	0	0
2.66086e-05	0	0	0
2.70428e-05	0	0	0
2.71658e-05	0	0	0
2.76238e-05	0	0	0
2.8136e-05	0	0	0
2.84904e-05	0	0	0
2.91526e-05	0	0	0
2.91574e-05	0	0	0
2.92045e-05	0	0	0
3.03862e-05	0	0	0
3.08857e-05	0	0	0
3.11321e-05	0	0	0
3.16332e-05	0	0	0
3.26784e-05	0	0	0
3.28439e-05	0	0	0
3.29068e-05	0	0	0
3.29773e-05	0	0	0
3.33704e-05	0	0	0
3.40378e-05	0	0	0
3.44174e-05	0	0	0
3.51551e-05	0	0	0
3.55826e-05	0	0	0
3.57248e-05	0	0	0
3.61508e-05	0	0	0
3.6304e-05	0	0	0
3.6814e-05	0	0	0
3.7557e-05	0	0	0
3.77748e-05	0	0	0
3.81276e-05	0	0	0
3.83649e-05	0	0	0
3.89933e-05	0	0	0
3.95218e-05	0	0	0
4.01164e-05	0	0	0
4.0742e-05	0	0	0
4.1188e-05	0	0	0
4.12228e-05	0	0	0
4.21036e-05	0	0	0
4.2609e-05	0	0	0
4.31344e-05	0	0	0
4.41328e-05	0	0	0
4.44094e-05	0	0	0
4.50026e-05	0	0	0
4.52101e-05	0	0	0
4.55278e-05	0	0	0
4.58866e-05	0	0	0
4.61087e-05	0	0	0
4.64217e-05	0	0	0
4.66683e-05	0	0	0
4.68778e-05	0	0	0
4.68783e-05	0	0	0
4.70295e-05	0	0	0
4.7048e-05	0	0	0
4.85421e-05	0	0	0
4.87105e-05	0	0	0
4.9159e-05	0	0	0
4.99656e-05	0	0	0
5.0107e-05	0	0	0
5.06867e-05	0	0	0
5.07542e-05	0	0	0
5.08635e-05	0	0	0
5.1292e-05	0	0	0
5.14073e-05	0	0	0
5.18148e-05	0	0	0
5.19276e-05	0	0	0
5.23887e-05	0	0	0
5.27287e-05	0	0	0
5.28179e-05	0	0	0
5.31842e-05	0	0	0
5.32211e-05	0	0	0
5.37767e-05	0	0	0
5.38086e-05	0	0	0
5.4405e-05	0	0	0
5.48689e-05	0	0	0
5.49237e-05	0	0	0
5.55121e-05	0	0	0
5.57033e-05	0	0	0
5.57454e-05	0	0	0
5.68557e-05	0	0	0
5.69706e-05	0	0	0
5.81635e-05	0	0	0
5.85577e-05	0	0	0
5.90508e-05	0	0	0
5.93842e-05	0	0	0
6.00313e-05	0	0	0
6.00994e-05	0	0	0
6.13618e-05	0	0	0
6.1664e-05	0	0	0
6.29227e-05	0	0	0
6.33798e-05	0	0	0
6.35625e-05	0	0	0
6.39573e-05	0	0	0
6.48521e-05	0	0	0
6.48801e-05	0	0	0
6.50628e-05	0	0	0
6.57293e-05	0	0	0
6.67711e-05	0	0	0
6.82822e-05	0	0	0
6.94778e-05	0	0	0
6.97811e-05	0	0	0
7.16453e-05	0	0	0
7.25792e-05	0	0	0
7.28867e-05	0	0	0
7.30427e-05	0	0	0
7.38995e-05	0	0	0
7.39385e-05	0	0	0
7.41254e-05	0	0	0
7.45473e-05	0	0	0
7.57289e-05	0	0	0
7.57783e-05	0	0	0
7.69076e-05	0	0	0
7.73317e-05	0	0	0
7.77326e-05	0	0	0
7.90484e-05	0	0	0
7.95555e-05	0	0	0
8.0897e-05	0	0	0
8.15002e-05	0	0	0
8.29519e-05	0	0	0
8.39132e-05	0	0	0
8.45404e-05	0	0	0
8.46183e-05	0	0	0
8.46298e-05	0	0	0
8.47923e-05	0	0	0
8.70737e-05	0	0	0
8.73443e-05	0	0	0
8.73739e-05	0	0	0
8.76572e-05	0	0	0
8.7942e-05	0	0	0
8.80791e-05	0	0	0
8.81069e-05	0	0	0
8.82849e-05	0	0	0
8.83448e-05	0	0	0
8.83554e-05	0	0	0
8.8624e-05	0	0	0
8.88774e-05	0	0	0
8.93108e-05	0	0	0
9.0319e-05	0	0	0
9.28332e-05	0	0	0
9.33321e-05	0	0	0
9.38771e-05	0	0	0
9.39371e-05	0	0	0
9.43008e-05	0	0	0
9.46281e-05	0	0	0
9.51216e-05	0	0	0
9.60212e-05	0	0	0
9.6088e-05	0	0	0
9.77587e-05	0	0	0
9.89957e-05	0	0	0
9.98726e-05	0	0	0
0.000100488	0	0	0
0.00010071	0	0	0
0.000101441	0	0	0
0.000101465	0	0	0
0.000102144	0	0	0
0.000102303	0	0	0
0.000104239	0	0	0
0.000104759	0	0	0
0.000104986	0	0	0
0.000105367	0	0	0
0.000105628	0	0	0
0.000105754	0	0	0
0.000106645	0	0	0
0.000106736	0	0	0
0.000108167	0	0	0
0.000109111	0	0	0
0.000109562	0	0	0
0.000109588	0	0	0
0.000110169	0	0	0
0.000111429	0	0	0
0.000112491	0	0	0
0.000113454	0	0	0
0.000114792	0	0	0
0.000115746	0	0	0
0.000116566	0	0	0
0.00011692	0	0	0
0.000117307	0	0	0
0.000117477	0	0	0
0.000118311	0	0	0
0.000118411	0	0	0
0.000119882	0	0	0
0.000121336	0	0	0
0.000121484	0	0	0
0.00012217	0	0	0
0.000122288	0	0	0
0.000122308	0	0	0
0.000124895	0	0	0
0.000125459	0	0	0
0.000126104	0	0	0
0.000126416	0	0	0
0.000128064	0	0	0
0.00012935	0	0	0
0.000133287	0	0	0
0.000133345	0	0	0
0.000135185	0	0	0
0.000135501	0	0	0
0.000137003	0	0	0
0.000137161	0	0	0
0.000137894	0	0	0
0.000138163	0	0	0
0.000139565	0	0	0
0.00013989	0	0	0
0.000140242	0	0	0
0.0001417	0	0	0
0.000143403	0	0	0
0.000144347	0	0	0
0.000147565	0	0	0
0.000150967	0	0	0
0.000152581	0	0	0
0.000152668	0	0	0
0.000153298	0	0	0
0.000154372	0	0	0
0.000154488	0	0	0
0.000154698	0	0	0
0.000154758	0	0	0
0.000156089	0	0	0
0.000156318	0	0	0
0.000156412	0	0	0
0.000157054	0	0	0
0.000157813	0	0	0
0.000157822	0	0	0
0.000158083	0	0	0
0.000158739	0	0	0
0.000161	0	0	0
0.000161117	0	0	0
0.000163407	0	0	0
0.000165642	0	0	0
0.00016797	0	0	0
0.000171166	0	0	0
0.000171343	0	0	0
0.000171353	0	0	0
0.000172305	0	0	0
0.000173523	0	0	0
0.000173582	0	0	0
0.000175248	0	0	0
0.000176891	0	0	0
0.000186871	0	0	0
0.000187336	0	0	0
0.00018797	0	0	0
0.000188639	0	0	0
0.000194557	0	0	0
0.000195986	0	0	0
0.000196719	0	0	0
0.000200487	0	0	0
0.000201249	0	0	0
0.000202461	0	0	0
0.000204182	0	0	0
0.00020436	0	0	0
0.000205815	0	0	0
0.00020624	0	0	0
0.000207137	0	0	0
0.000209625	0	0	0
0.000209658	0	0	0
0.000211467	0	0	0
0.000211654	0	0	0
0.000215593	0	0	0
0.000216091	0	0	0
0.000216395	0	0	0
0.000218128	0	0	0
0.000221107	0	0	0
0.000222784	0	0	0
0.000224128	0	0	0
0.000225723	0	0	0
0.000227128	0	0	0
0.000228525	0	0	0
0.000230883	0	0	0
0.000231608	0	0	0
0.000232342	0	0	0
0.000236196	0	0	0
0.000239253	0	0	0
0.000239794	0	0	0
0.00024089	0	0	0
0.000240949	0	0	0
0.000246831	0	0	0
0.00024859	0	0	0
0.000250654	0	0	0
0.000254486	0	0	0
0.000257557	0	0	0
0.000258376	0	0	0
0.000259611	0	0	0
0.000263698	0	0	0
0.000266832	0	0	0
0.000271803	0	0	0
0.000272949	0	0	0
0.000277832	0	0	0
0.000284171	0	0	0
0.00028712	0	0	0
0.000287773	0	0	0
0.000290065	0	0	0
0.000291629	0	0	0
0.000293697	0	0	0
0.000298968	0	0	0
0.000299142	0	0	0
0.000300325	0	0	0
0.000302695	0	0	0
0.000306014	0	0	0
0.000307423	0	0	0
0.000313067	0	0	0
0.000313763	0	0	0
0.000314227	0	0	0
0.000314234	0	0	0
0.000314609	0	0	0
0.000317375	0	0	0
0.000317542	0	0	0
0.000319952	0	0	0
0.00032206	0	0	0
0.000323544	0	0	0
0.000324627	0	0	0
0.000325039	0	0	0
0.000325491	0	0	0
0.000326509	0	0	0
0.00032914	0	0	0
0.000332107	0	0	0
0.000333821	0	0	0
0.00033439	0	0	0
0.000334749	0	0	0
0.000340626	0	0	0
0.000340785	0	0	0
0.000343772	0	0	0
0.000347648	0	0	0
0.000349132	0	0	0
0.000352251	0	0	0
0.000357312	0	0	0
0.000362925	0	0	0
0.000373115	0	0	0
0.000373284	0	0	0
0.000377523	0	0	0
0.000379033	0	0	0
0.000379436	0	0	0
0.000382149	0	0	0
0.000383131	0	0	0
0.000384156	0	0	0
0.000384463	0	0	0
0.000387823	0	0	0
0.000389964	0	0	0
0.000391378	0	0	0
0.000393527	0	0	0
0.000394349	0	0	0
0.000397677	0	0	0
0.000399203	0	0	0
0.000401752	0	0	0
0.000403469	0	0	0
0.000403605	0	0	0
0.00040487	0	0	0
0.000407112	0	0	0
0.00040741	0	0	0
0.0004156	0	0	0
0.000416001	0	0	0
0.00042287	0	0	0
0.000423951	0	0	0
0.000425002	0	0	0
0.000427105	0	0	0
0.000428894	0	0	0
0.000429385	0	0	0
0.000433792	0	0	0
0.000433894	0	0	0
0.000433998	0	0	0
0.000445121	0	0	0
0.000445876	0	0	0
0.00045117	0	0	0
0.000457429	0	0	0
0.000461332	0	0	0
0.000467991	0	0	0
0.000471811	0	0	0
0.000471913	0	0	0
0.000472158	0	0	0
0.000474171	0	0	0
0.000476501	0	0	0
0.000484454	0	0	0
0.000485057	0	0	0
0.000486484	0	0	0
0.000487313	0	0	0
0.000487369	0	0	0
0.00049213	0	0	0
0.000498028	0	0	0
0.000502409	0	0	0
0.000506536	0	0	0
0.000512062	0	0	0
0.000521504	0	0	0
0.000521602	0	0	0
0.000521843	0	0	0
0.000524902	0	0	0
0.000531349	0	0	0
0.000534626	0	0	0
0.00053737	0	0	0
0.000548378	0	0	0
0.000560329	0	0	0
0.000564941	0	0	0
0.000566805	0	0	0
0.000568021	0	0	0
0.000587201	0	0	0
0.000591432	0	0	0
0.000593944	0	0	0
0.000605851	0	0	0
0.000618962	0	0	0
0.000620893	0	0	0
0.00062626	0	0	0
0.000631185	0	0	0
0.000643137	0	0	0
0.000645121	0	0	0
0.000683151	0	0	0
0.000693183	0	0	0
0.000701547	0	0	0
0.000706531	0	0	0
0.000707633	0	0	0
0.000713883	0	0	0
0.000727879	0	0	0
0.000761116	0	0	0
0.000779348	0	0	0
0.000795783	0	0	0
0.000803204	0	0	0
0.000817415	0	0	0
0.000840723	0	0	0
0.000843216	0	0	0
0.000877428	0	0	0
0.000948998	0	0	0
0.000982582	0	0	0
0.00108906	0	0	0
0.00118005	0	0	0
0.00123027	0	0	0
0.00129392	0	0	0
0.00167082	0	0	0
0.001877	0	0	0
0.00224115	0	0	0
0.00228048	0	0	0
0.00298848	0	0	0
0.00326542	0	0	0
