6.23473e-07	0	0	0
7.4219e-07	0	0	0
9.60178e-07	0	0	0
1.03638e-06	0	0	0
1.08904e-06	0	0	0
1.1327e-06	0	0	0
1.20335e-06	0	0	0
1.69979e-06	0	0	0
1.70665e-06	0	0	0
1.75814e-06	0	0	0
1.8228e-06	0	0	0
1.89815e-06	0	0	0
2.2167e-06	0	0	0
2.31068e-06	0	0	0
2.60725e-06	0	0	0
2.74912e-06	0	0	0
3.32677e-06	0	0	0
3.33873e-06	0	0	0
3.65786e-06	0	0	0
3.74552e-06	0	0	0
4.20627e-06	0	0	0
4.51056e-06	0	0	0
4.5236e-06	0	0	0
4.69507e-06	0	0	0
4.85324e-06	0	0	0
4.8663e-06	0	0	0
4.91519e-06	0	0	0
4.99247e-06	0	0	0
5.09356e-06	0	0	0
5.77531e-06	0	0	0
5.79547e-06	0	0	0
6.46724e-06	0	0	0
6.53524e-06	0	0	0
6.56431e-06	0	0	0
6.67018e-06	0	0	0
6.74845e-06	0	0	0
7.30146e-06	0	0	0
7.355e-06	0	0	0
7.38923e-06	0	0	0
7.41435e-06	0	0	0
7.53435e-06	0	0	0
7.58488e-06	0	0	0
7.59423e-06	0	0	0
7.66122e-06	0	0	0
7.70395e-06	0	0	0
8.47525e-06	0	0	0
8.58647e-06	0	0	0
8.6403e-06	0	0	0
8.76149e-06	0	0	0
8.89214e-06	0	0	0
9.14854e-06	0	0	0
9.38888e-06	0	0	0
9.77804e-06	0	0	0
9.87798e-06	0	0	0
9.99559e-06	0	0	0
1.00196e-05	0	0	0
1.00919e-05	0	0	0
1.034e-05	0	0	0
1.10523e-05	0	0	0
1.164e-05	0	0	0
1.19007e-05	0	0	0
1.22412e-05	0	0	0
1.25567e-05	0	0	0
1.26408e-05	0	0	0
1.27671e-05	0	0	0
1.41041e-05	0	0	0
1.4336e-05	0	0	0
1.43458e-05	0	0	0
1.4484e-05	0	0	0
1.4589e-05	0	0	0
1.56786e-05	0	0	0
1.57336e-05	0	0	0
1.59688e-05	0	0	0
1.64383e-05	0	0	0
1.70386e-05	0	0	0
1.71846e-05	0	0	0
1.73086e-05	0	0	0
1.76238e-05	0	0	0
1.76391e-05	0	0	0
1.76402e-05	0	0	0
1.81202e-05	0	0	0
1.81888e-05	0	0	0
1.8204e-05	0	0	0
1.82446e-05	0	0	0
1.83566e-05	0	0	0
1.85319e-05	0	0	0
1.86397e-05	0	0	0
1.89052e-05	0	0	0
1.89807e-05	0	0	0
1.92388e-05	0	0	0
1.9729e-05	0	0	0
1.98965e-05	0	0	0
2.00329e-05	0	0	0
2.14647e-05	0	0	0
2.22799e-05	0	0	0
2.24413e-05	0	0	0
2.28495e-05	0	0	0
2.29622e-05	0	0	0
2.37053e-05	0	0	0
2.38989e-05	0	0	0
2.39408e-05	0	0	0
2.39565e-05	0	0	0
2.48546e-05	0	0	0
2.49851e-05	0	0	0
2.50227e-05	0	0	0
2.51248e-05	0	0	0
2.59747e-05	0	0	0
2.69437e-05	0	0	0
2.75024e-05	0	0	0
2.92652e-05	0	0	0
2.96641e-05	0	0	0
2.98916e-05	0	0	0
3.00052e-05	0	0	0
3.03583e-05	0	0	0
3.05294e-05	0	0	0
3.08614e-05	0	0	0
3.20939e-05	0	0	0
3.22562e-05	0	0	0
3.24534e-05	0	0	0
3.28391e-05	0	0	0
3.28437e-05	0	0	0
3.41382e-05	0	0	0
3.44424e-05	0	0	0
3.53897e-05	0	0	0
3.57198e-05	0	0	0
3.57344e-05	0	0	0
3.62381e-05	0	0	0
3.71181e-05	0	0	0
3.84158e-05	0	0	0
3.91468e-05	0	0	0
3.95586e-05	0	0	0
3.97518e-05	0	0	0
4.032e-05	0	0	0
4.05022e-05	0	0	0
4.06996e-05	0	0	0
4.10905e-05	0	0	0
4.1551e-05	0	0	0
4.19085e-05	0	0	0
4.20506e-05	0	0	0
4.24049e-05	0	0	0
4.3188e-05	0	0	0
4.34126e-05	0	0	0
4.34255e-05	0	0	0
4.41525e-05	0	0	0
4.46658e-05	0	0	0
4.4739e-05	0	0	0
4.5e-05	0	0	0
4.61711e-05	0	0	0
4.62019e-05	0	0	0
4.66354e-05	0	0	0
4.68489e-05	0	0	0
4.73436e-05	0	0	0
4.80999e-05	0	0	0
4.89315e-05	0	0	0
5.05633e-05	0	0	0
5.09018e-05	0	0	0
5.09542e-05	0	0	0
5.12777e-05	0	0	0
5.17636e-05	0	0	0
5.30796e-05	0	0	0
5.32161e-05	0	0	0
5.496e-05	0	0	0
5.72074e-05	0	0	0
5.80282e-05	0	0	0
5.83145e-05	0	0	0
5.86469e-05	0	0	0
5.87348e-05	0	0	0
5.9926e-05	0	0	0
6.01197e-05	0	0	0
6.02479e-05	0	0	0
6.05034e-05	0	0	0
6.12896e-05	0	0	0
6.39138e-05	0	0	0
6.39988e-05	0	0	0
6.47417e-05	0	0	0
6.51631e-05	0	0	0
6.66025e-05	0	0	0
6.76885e-05	0	0	0
6.79414e-05	0	0	0
6.85056e-05	0	0	0
6.90681e-05	0	0	0
7.01745e-05	0	0	0
7.19032e-05	0	0	0
7.30752e-05	0	0	0
7.48123e-05	0	0	0
7.53278e-05	0	0	0
7.53816e-05	0	0	0
7.54143e-05	0	0	0
7.54395e-05	0	0	0
7.66e-05	0	0	0
7.76043e-05	0	0	0
8.04767e-05	0	0	0
8.09516e-05	0	0	0
8.12027e-05	0	0	0
8.14143e-05	0	0	0
8.1591e-05	0	0	0
8.19255e-05	0	0	0
8.24877e-05	0	0	0
8.26998e-05	0	0	0
8.28139e-05	0	0	0
8.30196e-05	0	0	0
8.31043e-05	0	0	0
8.32258e-05	0	0	0
8.36331e-05	0	0	0
8.42928e-05	0	0	0
8.61648e-05	0	0	0
8.64549e-05	0	0	0
8.99069e-05	0	0	0
9.04457e-05	0	0	0
9.05425e-05	0	0	0
9.26592e-05	0	0	0
9.35949e-05	0	0	0
9.45209e-05	0	0	0
9.53561e-05	0	0	0
9.54397e-05	0	0	0
9.55226e-05	0	0	0
9.8411e-05	0	0	0
9.97143e-05	0	0	0
0.000100106	0	0	0
0.000102612	0	0	0
0.000102783	0	0	0
0.000105423	0	0	0
0.000105948	0	0	0
0.000108329	0	0	0
0.000112091	0	0	0
0.000112756	0	0	0
0.00011393	0	0	0
0.000114149	0	0	0
0.00011418	0	0	0
0.00011499	0	0	0
0.000116069	0	0	0
0.000116756	0	0	0
0.000117092	0	0	0
0.000120774	0	0	0
0.000120814	0	0	0
0.000122571	0	0	0
0.00012414	0	0	0
0.000129947	0	0	0
0.00013148	0	0	0
0.000131686	0	0	0
0.000132592	0	0	0
0.00013317	0	0	0
0.000134153	0	0	0
0.000134354	0	0	0
0.000134431	0	0	0
0.000135003	0	0	0
0.000137734	0	0	0
0.000138938	0	0	0
0.000139298	0	0	0
0.000139909	0	0	0
0.000142334	0	0	0
0.000145069	0	0	0
0.000145635	0	0	0
0.000145888	0	0	0
0.000146027	0	0	0
0.000147262	0	0	0
0.000148752	0	0	0
0.00015355	0	0	0
0.000155189	0	0	0
0.000155846	0	0	0
0.000158358	0	0	0
0.000158456	0	0	0
0.000160042	0	0	0
0.000160339	0	0	0
0.000160465	0	0	0
0.000161368	0	0	0
0.00016145	0	0	0
0.000161622	0	0	0
0.000163155	0	0	0
0.000166659	0	0	0
0.000167726	0	0	0
0.000168232	0	0	0
0.000168759	0	0	0
0.000169393	0	0	0
0.000170076	0	0	0
0.000170507	0	0	0
0.0001708	0	0	0
0.000171119	0	0	0
0.000174639	0	0	0
0.000175015	0	0	0
0.000175366	0	0	0
0.000175819	0	0	0
0.000176414	0	0	0
0.000177041	0	0	0
0.0001787	0	0	0
0.00018376	0	0	0
0.000184632	0	0	0
0.000185237	0	0	0
0.000186124	0	0	0
0.00018624	0	0	0
0.000186922	0	0	0
0.000189158	0	0	0
0.000190288	0	0	0
0.000190676	0	0	0
0.000191717	0	0	0
0.000192415	0	0	0
0.000192506	0	0	0
0.000194654	0	0	0
0.000198684	0	0	0
0.00020024	0	0	0
0.000201032	0	0	0
0.000201135	0	0	0
0.000203108	0	0	0
0.000207038	0	0	0
0.000207818	0	0	0
0.00020838	0	0	0
0.000209069	0	0	0
0.000210088	0	0	0
0.000211316	0	0	0
0.000211424	0	0	0
0.000211543	0	0	0
0.000212886	0	0	0
0.000214002	0	0	0
0.000217538	0	0	0
0.000219743	0	0	0
0.000219887	0	0	0
0.000221161	0	0	0
0.000221955	0	0	0
0.000223101	0	0	0
0.000223444	0	0	0
0.000224558	0	0	0
0.000225626	0	0	0
0.000226607	0	0	0
0.000229792	0	0	0
0.000230747	0	0	0
0.000231189	0	0	0
0.000232251	0	0	0
0.000234289	0	0	0
0.00023471	0	0	0
0.000240789	0	0	0
0.000244241	0	0	0
0.000246307	0	0	0
0.000249524	0	0	0
0.000259426	0	0	0
0.000260326	0	0	0
0.000261928	0	0	0
0.000266998	0	0	0
0.000274418	0	0	0
0.000274866	0	0	0
0.00027538	0	0	0
0.00028001	0	0	0
0.000281217	0	0	0
0.000283357	0	0	0
0.000284926	0	0	0
0.00028707	0	0	0
0.000287759	0	0	0
0.000289999	0	0	0
0.000290596	0	0	0
0.000292692	0	0	0
0.000294664	0	0	0
0.000305109	0	0	0
0.000310704	0	0	0
0.000312347	0	0	0
0.000313255	0	0	0
0.000316882	0	0	0
0.000335375	0	0	0
0.000337595	0	0	0
0.000338749	0	0	0
0.000342314	0	0	0
0.000343417	0	0	0
0.000343688	0	0	0
0.000344281	0	0	0
0.000348711	0	0	0
0.000351338	0	0	0
0.000358369	0	0	0
0.000358708	0	0	0
0.000368157	0	0	0
0.000375965	0	0	0
0.000376871	0	0	0
0.00037762	0	0	0
0.00037855	0	0	0
0.000385795	0	0	0
0.00038647	0	0	0
0.000389337	0	0	0
0.000392615	0	0	0
0.000396952	0	0	0
0.000397402	0	0	0
0.000408006	0	0	0
0.000410617	0	0	0
0.000412635	0	0	0
0.000422539	0	0	0
0.000422624	0	0	0
0.000424392	0	0	0
0.000426494	0	0	0
0.00044201	0	0	0
0.000443659	0	0	0
0.000445508	0	0	0
0.000449972	0	0	0
0.000454454	0	0	0
0.000466917	0	0	0
0.000467328	0	0	0
0.000467589	0	0	0
0.000470641	0	0	0
0.00047067	0	0	0
0.000483063	0	0	0
0.000489898	0	0	0
0.000494173	0	0	0
0.000498006	0	0	0
0.000506908	0	0	0
0.000507339	0	0	0
0.000508591	0	0	0
0.000523457	0	0	0
0.000533276	0	0	0
0.000541493	0	0	0
0.00054322	0	0	0
0.000549184	0	0	0
0.000571663	0	0	0
0.000582756	0	0	0
0.000583726	0	0	0
0.000590382	0	0	0
0.000592837	0	0	0
0.000605713	0	0	0
0.000615621	0	0	0
0.000648698	0	0	0
0.000653187	0	0	0
0.000658828	0	0	0
0.000660638	0	0	0
0.00067394	0	0	0
0.00067756	0	0	0
0.000681542	0	0	0
0.000690365	0	0	0
0.000747838	0	0	0
0.000760815	0	0	0
0.000776983	0	0	0
0.000790665	0	0	0
0.000814215	0	0	0
0.000982724	0	0	0
0.00102831	0	0	0
0.00108206	0	0	0
0.00122975	0	0	0
0.00125559	0	0	0
0.00133582	0	0	0
0.00152684	0	0	0
