1.76601e-07	0	0	0
3.52784e-07	0	0	0
3.64438e-07	0	0	0
8.83426e-07	0	0	0
9.09218e-07	0	0	0
1.11992e-06	0	0	0
1.79157e-06	0	0	0
1.82529e-06	0	0	0
1.86568e-06	0	0	0
2.26673e-06	0	0	0
2.65098e-06	0	0	0
2.67355e-06	0	0	0
2.81419e-06	0	0	0
3.15359e-06	0	0	0
3.85064e-06	0	0	0
3.86823e-06	0	0	0
3.98837e-06	0	0	0
4.1421e-06	0	0	0
4.40524e-06	0	0	0
4.70501e-06	0	0	0
4.82633e-06	0	0	0
5.16505e-06	0	0	0
5.30028e-06	0	0	0
5.54031e-06	0	0	0
5.5688e-06	0	0	0
5.84756e-06	0	0	0
6.16048e-06	0	0	0
6.25062e-06	0	0	0
6.41644e-06	0	0	0
6.43681e-06	0	0	0
6.45569e-06	0	0	0
6.5367e-06	0	0	0
6.69751e-06	0	0	0
6.71233e-06	0	0	0
6.77109e-06	0	0	0
6.80473e-06	0	0	0
6.81482e-06	0	0	0
6.95483e-06	0	0	0
7.75147e-06	0	0	0
7.88322e-06	0	0	0
8.34807e-06	0	0	0
8.66899e-06	0	0	0
8.67139e-06	0	0	0
8.80342e-06	0	0	0
8.90829e-06	0	0	0
8.93575e-06	0	0	0
8.95211e-06	0	0	0
8.98756e-06	0	0	0
9.04603e-06	0	0	0
9.21609e-06	0	0	0
9.4868e-06	0	0	0
9.52883e-06	0	0	0
9.6425e-06	0	0	0
9.65373e-06	0	0	0
9.74243e-06	0	0	0
9.85214e-06	0	0	0
1.027e-05	0	0	0
1.03706e-05	0	0	0
1.06314e-05	0	0	0
1.10078e-05	0	0	0
1.12354e-05	0	0	0
1.1816e-05	0	0	0
1.24758e-05	0	0	0
1.26723e-05	0	0	0
1.29294e-05	0	0	0
1.32383e-05	0	0	0
1.32745e-05	0	0	0
1.32821e-05	0	0	0
1.43693e-05	0	0	0
1.44017e-05	0	0	0
1.46669e-05	0	0	0
1.47858e-05	0	0	0
1.48927e-05	0	0	0
1.51569e-05	0	0	0
1.53919e-05	0	0	0
1.56146e-05	0	0	0
1.56388e-05	0	0	0
1.57838e-05	0	0	0
1.58721e-05	0	0	0
1.60083e-05	0	0	0
1.62592e-05	0	0	0
1.63469e-05	0	0	0
1.63703e-05	0	0	0
1.65501e-05	0	0	0
1.68432e-05	0	0	0
1.68821e-05	0	0	0
1.72515e-05	0	0	0
1.77933e-05	0	0	0
1.82436e-05	0	0	0
1.85333e-05	0	0	0
1.8565e-05	0	0	0
1.88117e-05	0	0	0
1.88441e-05	0	0	0
1.89191e-05	0	0	0
1.91559e-05	0	0	0
1.94397e-05	0	0	0
1.97389e-05	0	0	0
1.9763e-05	0	0	0
2.05403e-05	0	0	0
2.115e-05	0	0	0
2.12257e-05	0	0	0
2.21373e-05	0	0	0
2.27037e-05	0	0	0
2.27267e-05	0	0	0
2.35479e-05	0	0	0
2.37129e-05	0	0	0
2.37729e-05	0	0	0
2.40871e-05	0	0	0
2.42001e-05	0	0	0
2.4264e-05	0	0	0
2.44122e-05	0	0	0
2.46524e-05	0	0	0
2.47532e-05	0	0	0
2.48815e-05	0	0	0
2.48867e-05	0	0	0
2.55461e-05	0	0	0
2.63107e-05	0	0	0
2.65889e-05	0	0	0
2.67263e-05	0	0	0
2.70926e-05	0	0	0
2.73513e-05	0	0	0
2.74303e-05	0	0	0
2.7664e-05	0	0	0
2.78088e-05	0	0	0
2.82299e-05	0	0	0
2.82421e-05	0	0	0
2.83135e-05	0	0	0
2.91e-05	0	0	0
2.93137e-05	0	0	0
2.9668e-05	0	0	0
3.03003e-05	0	0	0
3.11702e-05	0	0	0
3.19098e-05	0	0	0
3.20889e-05	0	0	0
3.23752e-05	0	0	0
3.27139e-05	0	0	0
3.27248e-05	0	0	0
3.3177e-05	0	0	0
3.3341e-05	0	0	0
3.35588e-05	0	0	0
3.45733e-05	0	0	0
3.51868e-05	0	0	0
3.52312e-05	0	0	0
3.55987e-05	0	0	0
3.5899e-05	0	0	0
3.64524e-05	0	0	0
3.68117e-05	0	0	0
3.69202e-05	0	0	0
3.78578e-05	0	0	0
3.8027e-05	0	0	0
3.83829e-05	0	0	0
3.86552e-05	0	0	0
3.88696e-05	0	0	0
3.88849e-05	0	0	0
3.91779e-05	0	0	0
3.97024e-05	0	0	0
3.99141e-05	0	0	0
4.00022e-05	0	0	0
4.101e-05	0	0	0
4.10147e-05	0	0	0
4.10149e-05	0	0	0
4.1199e-05	0	0	0
4.14795e-05	0	0	0
4.16528e-05	0	0	0
4.17563e-05	0	0	0
4.27555e-05	0	0	0
4.2797e-05	0	0	0
4.31669e-05	0	0	0
4.38271e-05	0	0	0
4.41002e-05	0	0	0
4.42622e-05	0	0	0
4.44026e-05	0	0	0
4.48474e-05	0	0	0
4.54047e-05	0	0	0
4.55583e-05	0	0	0
4.56728e-05	0	0	0
4.59188e-05	0	0	0
4.59681e-05	0	0	0
4.6676e-05	0	0	0
4.6683e-05	0	0	0
4.69142e-05	0	0	0
4.70651e-05	0	0	0
4.7119e-05	0	0	0
4.73618e-05	0	0	0
4.77192e-05	0	0	0
4.77376e-05	0	0	0
4.78652e-05	0	0	0
4.79168e-05	0	0	0
4.82251e-05	0	0	0
4.8227e-05	0	0	0
4.85811e-05	0	0	0
4.87173e-05	0	0	0
4.88617e-05	0	0	0
4.89751e-05	0	0	0
4.93778e-05	0	0	0
5.01368e-05	0	0	0
5.02352e-05	0	0	0
5.04489e-05	0	0	0
5.07009e-05	0	0	0
5.14268e-05	0	0	0
5.15312e-05	0	0	0
5.16634e-05	0	0	0
5.22976e-05	0	0	0
5.28899e-05	0	0	0
5.30141e-05	0	0	0
5.37623e-05	0	0	0
5.41753e-05	0	0	0
5.46118e-05	0	0	0
5.47146e-05	0	0	0
5.52212e-05	0	0	0
5.53228e-05	0	0	0
5.59139e-05	0	0	0
5.6143e-05	0	0	0
5.63079e-05	0	0	0
5.67749e-05	0	0	0
5.72445e-05	0	0	0
5.73012e-05	0	0	0
5.7571e-05	0	0	0
5.82554e-05	0	0	0
5.88405e-05	0	0	0
5.90096e-05	0	0	0
5.96758e-05	0	0	0
6.10806e-05	0	0	0
6.11346e-05	0	0	0
6.3325e-05	0	0	0
6.35496e-05	0	0	0
6.42758e-05	0	0	0
6.62106e-05	0	0	0
6.64818e-05	0	0	0
6.65942e-05	0	0	0
6.71864e-05	0	0	0
6.73017e-05	0	0	0
6.75151e-05	0	0	0
6.83798e-05	0	0	0
6.84026e-05	0	0	0
6.94576e-05	0	0	0
6.98803e-05	0	0	0
7.21025e-05	0	0	0
7.29758e-05	0	0	0
7.30686e-05	0	0	0
7.35821e-05	0	0	0
7.40609e-05	0	0	0
7.47937e-05	0	0	0
7.51271e-05	0	0	0
7.52208e-05	0	0	0
7.69933e-05	0	0	0
7.8444e-05	0	0	0
7.86904e-05	0	0	0
7.95872e-05	0	0	0
7.97026e-05	0	0	0
8.11429e-05	0	0	0
8.16842e-05	0	0	0
8.16877e-05	0	0	0
8.18769e-05	0	0	0
8.20966e-05	0	0	0
8.23924e-05	0	0	0
8.38926e-05	0	0	0
8.41215e-05	0	0	0
8.82562e-05	0	0	0
8.85894e-05	0	0	0
8.90964e-05	0	0	0
8.93011e-05	0	0	0
8.94574e-05	0	0	0
8.95135e-05	0	0	0
8.96706e-05	0	0	0
9.04476e-05	0	0	0
9.06783e-05	0	0	0
9.29687e-05	0	0	0
9.43795e-05	0	0	0
9.56099e-05	0	0	0
9.59285e-05	0	0	0
0.000100176	0	0	0
0.000100661	0	0	0
0.000101278	0	0	0
0.000101588	0	0	0
0.000103416	0	0	0
0.000103595	0	0	0
0.000104276	0	0	0
0.000104364	0	0	0
0.000105433	0	0	0
0.000105742	0	0	0
0.000106087	0	0	0
0.00010661	0	0	0
0.00010729	0	0	0
0.000108251	0	0	0
0.000108411	0	0	0
0.000108468	0	0	0
0.000108623	0	0	0
0.000108893	0	0	0
0.000109333	0	0	0
0.000109357	0	0	0
0.000111131	0	0	0
0.000112769	0	0	0
0.000114039	0	0	0
0.000114475	0	0	0
0.000114709	0	0	0
0.000119034	0	0	0
0.000119203	0	0	0
0.000119731	0	0	0
0.00012033	0	0	0
0.000121332	0	0	0
0.000121659	0	0	0
0.00012265	0	0	0
0.000124492	0	0	0
0.000124668	0	0	0
0.000124924	0	0	0
0.00012737	0	0	0
0.00012817	0	0	0
0.000129149	0	0	0
0.000130478	0	0	0
0.000130969	0	0	0
0.000131282	0	0	0
0.000132034	0	0	0
0.000133284	0	0	0
0.000135828	0	0	0
0.00013627	0	0	0
0.000136658	0	0	0
0.000137853	0	0	0
0.000138995	0	0	0
0.00014075	0	0	0
0.000141002	0	0	0
0.000141074	0	0	0
0.000141111	0	0	0
0.00014217	0	0	0
0.000143386	0	0	0
0.000144781	0	0	0
0.000145867	0	0	0
0.000150023	0	0	0
0.000150142	0	0	0
0.000152606	0	0	0
0.000152792	0	0	0
0.00015335	0	0	0
0.000153888	0	0	0
0.000154295	0	0	0
0.000157236	0	0	0
0.000157438	0	0	0
0.000157442	0	0	0
0.000157643	0	0	0
0.000162041	0	0	0
0.000162511	0	0	0
0.000163135	0	0	0
0.000163991	0	0	0
0.000164049	0	0	0
0.000166697	0	0	0
0.000167787	0	0	0
0.000170485	0	0	0
0.00017252	0	0	0
0.000173557	0	0	0
0.00017971	0	0	0
0.000179982	0	0	0
0.000180382	0	0	0
0.000182607	0	0	0
0.000184203	0	0	0
0.000186302	0	0	0
0.000187698	0	0	0
0.000189257	0	0	0
0.000189895	0	0	0
0.000191819	0	0	0
0.000191979	0	0	0
0.000192303	0	0	0
0.000194937	0	0	0
0.000196771	0	0	0
0.000200711	0	0	0
0.000204433	0	0	0
0.000206091	0	0	0
0.00020798	0	0	0
0.000209267	0	0	0
0.0002119	0	0	0
0.000212035	0	0	0
0.000212762	0	0	0
0.000213588	0	0	0
0.000216424	0	0	0
0.000218288	0	0	0
0.000220509	0	0	0
0.000221059	0	0	0
0.000222139	0	0	0
0.000227999	0	0	0
0.00022891	0	0	0
0.000231121	0	0	0
0.000232351	0	0	0
0.000232598	0	0	0
0.000242671	0	0	0
0.000253433	0	0	0
0.000254014	0	0	0
0.000257594	0	0	0
0.000257998	0	0	0
0.000261485	0	0	0
0.000265533	0	0	0
0.000267417	0	0	0
0.000281522	0	0	0
0.000281589	0	0	0
0.000283965	0	0	0
0.000284359	0	0	0
0.000290013	0	0	0
0.00029113	0	0	0
0.000296129	0	0	0
0.000297693	0	0	0
0.000308459	0	0	0
0.000311346	0	0	0
0.000323434	0	0	0
0.000327556	0	0	0
0.000328727	0	0	0
0.000330508	0	0	0
0.000336216	0	0	0
0.000340587	0	0	0
0.000352174	0	0	0
0.000363889	0	0	0
0.000366451	0	0	0
0.000369964	0	0	0
0.000370754	0	0	0
0.000373344	0	0	0
0.000375044	0	0	0
0.00037809	0	0	0
0.000380633	0	0	0
0.000382053	0	0	0
0.00039429	0	0	0
0.000396698	0	0	0
0.000409752	0	0	0
0.000411273	0	0	0
0.000412883	0	0	0
0.000442434	0	0	0
0.000444987	0	0	0
0.000451153	0	0	0
0.000451718	0	0	0
0.000454864	0	0	0
0.000461299	0	0	0
0.000463795	0	0	0
0.000471187	0	0	0
0.000476792	0	0	0
0.000495864	0	0	0
0.000499022	0	0	0
0.000504914	0	0	0
0.000532665	0	0	0
0.000534262	0	0	0
0.000535864	0	0	0
0.000539997	0	0	0
0.000552386	0	0	0
0.000574854	0	0	0
0.000587565	0	0	0
0.000589779	0	0	0
0.000592132	0	0	0
0.00060238	0	0	0
0.000604376	0	0	0
0.000610441	0	0	0
0.000631637	0	0	0
0.000641451	0	0	0
0.000656551	0	0	0
0.000702846	0	0	0
0.000720114	0	0	0
0.000745021	0	0	0
0.000844797	0	0	0
0.000846947	0	0	0
0.000852224	0	0	0
0.000950341	0	0	0
0.000959032	0	0	0
0.00099917	0	0	0
0.00105161	0	0	0
0.00138099	0	0	0
0.00144461	0	0	0
0.00147091	0	0	0
0.00156291	0	0	0
0.00164529	0	0	0
0.00178232	0	0	0
0.00430097	0	0	0
