5.50736e-07	0	0	0
6.52352e-07	0	0	0
7.54393e-07	0	0	0
7.89541e-07	0	0	0
9.07325e-07	0	0	0
9.72518e-07	0	0	0
1.00853e-06	0	0	0
1.14325e-06	0	0	0
1.29115e-06	0	0	0
1.5506e-06	0	0	0
1.64503e-06	0	0	0
1.82209e-06	0	0	0
1.92841e-06	0	0	0
2.18778e-06	0	0	0
2.30041e-06	0	0	0
3.21301e-06	0	0	0
3.33016e-06	0	0	0
3.57028e-06	0	0	0
3.69052e-06	0	0	0
3.97601e-06	0	0	0
4.05715e-06	0	0	0
4.59456e-06	0	0	0
4.69119e-06	0	0	0
5.13276e-06	0	0	0
5.16109e-06	0	0	0
5.36397e-06	0	0	0
5.82513e-06	0	0	0
6.13169e-06	0	0	0
6.14872e-06	0	0	0
6.78491e-06	0	0	0
7.12058e-06	0	0	0
7.4102e-06	0	0	0
7.48494e-06	0	0	0
8.03186e-06	0	0	0
8.05885e-06	0	0	0
8.53106e-06	0	0	0
8.62624e-06	0	0	0
9.36093e-06	0	0	0
1.00121e-05	0	0	0
1.08157e-05	0	0	0
1.08851e-05	0	0	0
1.17057e-05	0	0	0
1.17787e-05	0	0	0
1.2035e-05	0	0	0
1.20894e-05	0	0	0
1.27625e-05	0	0	0
1.38707e-05	0	0	0
1.43422e-05	0	0	0
1.43707e-05	0	0	0
1.48867e-05	0	0	0
1.4949e-05	0	0	0
1.54286e-05	0	0	0
1.55422e-05	0	0	0
1.56602e-05	0	0	0
1.61357e-05	0	0	0
1.62291e-05	0	0	0
1.62368e-05	0	0	0
1.62693e-05	0	0	0
1.63457e-05	0	0	0
1.68092e-05	0	0	0
1.68963e-05	0	0	0
1.71431e-05	0	0	0
1.73174e-05	0	0	0
1.74203e-05	0	0	0
1.78019e-05	0	0	0
1.79956e-05	0	0	0
1.80664e-05	0	0	0
1.85692e-05	0	0	0
1.86607e-05	0	0	0
1.91578e-05	0	0	0
1.93182e-05	0	0	0
2.01211e-05	0	0	0
2.06455e-05	0	0	0
2.09771e-05	0	0	0
2.14811e-05	0	0	0
2.16039e-05	0	0	0
2.16364e-05	0	0	0
2.20609e-05	0	0	0
2.25764e-05	0	0	0
2.3099e-05	0	0	0
2.31603e-05	0	0	0
2.37719e-05	0	0	0
2.42757e-05	0	0	0
2.45415e-05	0	0	0
2.49202e-05	0	0	0
2.50453e-05	0	0	0
2.51261e-05	0	0	0
2.54107e-05	0	0	0
2.56082e-05	0	0	0
2.61104e-05	0	0	0
2.70943e-05	0	0	0
2.73506e-05	0	0	0
2.76286e-05	0	0	0
2.77063e-05	0	0	0
2.99114e-05	0	0	0
2.99166e-05	0	0	0
2.99872e-05	0	0	0
3.11371e-05	0	0	0
3.12815e-05	0	0	0
3.15932e-05	0	0	0
3.16116e-05	0	0	0
3.25351e-05	0	0	0
3.26472e-05	0	0	0
3.27479e-05	0	0	0
3.34861e-05	0	0	0
3.35057e-05	0	0	0
3.39549e-05	0	0	0
3.39674e-05	0	0	0
3.42121e-05	0	0	0
3.46282e-05	0	0	0
3.49918e-05	0	0	0
3.53406e-05	0	0	0
3.53687e-05	0	0	0
3.5369e-05	0	0	0
3.57514e-05	0	0	0
3.60488e-05	0	0	0
3.60905e-05	0	0	0
3.65593e-05	0	0	0
3.71294e-05	0	0	0
3.71323e-05	0	0	0
3.74773e-05	0	0	0
3.78065e-05	0	0	0
3.86553e-05	0	0	0
3.92429e-05	0	0	0
3.93249e-05	0	0	0
4.06604e-05	0	0	0
4.07133e-05	0	0	0
4.07319e-05	0	0	0
4.10388e-05	0	0	0
4.15096e-05	0	0	0
4.15459e-05	0	0	0
4.1954e-05	0	0	0
4.23642e-05	0	0	0
4.24225e-05	0	0	0
4.36955e-05	0	0	0
4.43619e-05	0	0	0
4.45758e-05	0	0	0
4.47289e-05	0	0	0
4.50977e-05	0	0	0
4.54014e-05	0	0	0
4.65298e-05	0	0	0
4.66533e-05	0	0	0
4.67911e-05	0	0	0
4.75995e-05	0	0	0
4.80082e-05	0	0	0
4.80439e-05	0	0	0
4.8235e-05	0	0	0
4.82989e-05	0	0	0
4.86097e-05	0	0	0
4.90031e-05	0	0	0
4.90516e-05	0	0	0
4.94343e-05	0	0	0
4.95614e-05	0	0	0
4.97909e-05	0	0	0
5.13104e-05	0	0	0
5.13343e-05	0	0	0
5.13846e-05	0	0	0
5.18622e-05	0	0	0
5.35329e-05	0	0	0
5.42394e-05	0	0	0
5.50919e-05	0	0	0
5.50987e-05	0	0	0
5.56995e-05	0	0	0
5.59247e-05	0	0	0
5.59764e-05	0	0	0
5.71591e-05	0	0	0
5.76455e-05	0	0	0
5.80382e-05	0	0	0
5.87988e-05	0	0	0
6.00459e-05	0	0	0
6.01344e-05	0	0	0
6.02258e-05	0	0	0
6.03682e-05	0	0	0
6.09552e-05	0	0	0
6.1135e-05	0	0	0
6.13512e-05	0	0	0
6.14351e-05	0	0	0
6.328e-05	0	0	0
6.33184e-05	0	0	0
6.36972e-05	0	0	0
6.46585e-05	0	0	0
6.47939e-05	0	0	0
6.6007e-05	0	0	0
6.72202e-05	0	0	0
6.73896e-05	0	0	0
6.75955e-05	0	0	0
6.87293e-05	0	0	0
6.95096e-05	0	0	0
7.00026e-05	0	0	0
7.09602e-05	0	0	0
7.10934e-05	0	0	0
7.12927e-05	0	0	0
7.21462e-05	0	0	0
7.2402e-05	0	0	0
7.26543e-05	0	0	0
7.39337e-05	0	0	0
7.41319e-05	0	0	0
7.50488e-05	0	0	0
7.64185e-05	0	0	0
7.69878e-05	0	0	0
7.81732e-05	0	0	0
7.85142e-05	0	0	0
7.87712e-05	0	0	0
7.89816e-05	0	0	0
7.97276e-05	0	0	0
7.97996e-05	0	0	0
8.16617e-05	0	0	0
8.23537e-05	0	0	0
8.34189e-05	0	0	0
8.35119e-05	0	0	0
8.53238e-05	0	0	0
8.70706e-05	0	0	0
8.8425e-05	0	0	0
8.90079e-05	0	0	0
8.9571e-05	0	0	0
9.15912e-05	0	0	0
9.24012e-05	0	0	0
9.31954e-05	0	0	0
9.43207e-05	0	0	0
9.59442e-05	0	0	0
9.6888e-05	0	0	0
9.73098e-05	0	0	0
9.91372e-05	0	0	0
0.000100724	0	0	0
0.000101367	0	0	0
0.000103334	0	0	0
0.000103418	0	0	0
0.000104344	0	0	0
0.000105914	0	0	0
0.000107417	0	0	0
0.000108212	0	0	0
0.000109835	0	0	0
0.00011093	0	0	0
0.000112298	0	0	0
0.000114236	0	0	0
0.000114821	0	0	0
0.000115249	0	0	0
0.000117427	0	0	0
0.000119875	0	0	0
0.000121086	0	0	0
0.000121548	0	0	0
0.000123408	0	0	0
0.000127457	0	0	0
0.000130135	0	0	0
0.000137062	0	0	0
0.000137309	0	0	0
0.000137922	0	0	0
0.000139297	0	0	0
0.000139427	0	0	0
0.00014014	0	0	0
0.000142158	0	0	0
0.000142511	0	0	0
0.000142972	0	0	0
0.000143025	0	0	0
0.000143755	0	0	0
0.000145397	0	0	0
0.000146707	0	0	0
0.000147408	0	0	0
0.00014815	0	0	0
0.000149848	0	0	0
0.000150265	0	0	0
0.000150618	0	0	0
0.000150835	0	0	0
0.000150952	0	0	0
0.000154444	0	0	0
0.000155843	0	0	0
0.000158733	0	0	0
0.000160135	0	0	0
0.000161983	0	0	0
0.00016623	0	0	0
0.000166575	0	0	0
0.000166609	0	0	0
0.000168284	0	0	0
0.000169284	0	0	0
0.000170412	0	0	0
0.000173464	0	0	0
0.000173692	0	0	0
0.000174383	0	0	0
0.000179988	0	0	0
0.000180952	0	0	0
0.00018192	0	0	0
0.0001837	0	0	0
0.000184711	0	0	0
0.00019003	0	0	0
0.000201158	0	0	0
0.000205821	0	0	0
0.000206812	0	0	0
0.000211091	0	0	0
0.000212632	0	0	0
0.000213577	0	0	0
0.000214223	0	0	0
0.000218135	0	0	0
0.000219997	0	0	0
0.000221328	0	0	0
0.000221518	0	0	0
0.000222864	0	0	0
0.000223461	0	0	0
0.000225495	0	0	0
0.000228336	0	0	0
0.000229362	0	0	0
0.000229913	0	0	0
0.000232098	0	0	0
0.000232527	0	0	0
0.000233536	0	0	0
0.000233949	0	0	0
0.000236879	0	0	0
0.000237108	0	0	0
0.000240874	0	0	0
0.000242274	0	0	0
0.000244978	0	0	0
0.000248634	0	0	0
0.000248894	0	0	0
0.000251143	0	0	0
0.000252501	0	0	0
0.000261579	0	0	0
0.000265543	0	0	0
0.000266018	0	0	0
0.00026663	0	0	0
0.000272375	0	0	0
0.000272862	0	0	0
0.000281858	0	0	0
0.000283182	0	0	0
0.0002863	0	0	0
0.000297096	0	0	0
0.000299409	0	0	0
0.000304394	0	0	0
0.000306373	0	0	0
0.000307798	0	0	0
0.000309523	0	0	0
0.000310372	0	0	0
0.000312626	0	0	0
0.000313977	0	0	0
0.000317945	0	0	0
0.000320554	0	0	0
0.000321172	0	0	0
0.000331105	0	0	0
0.000339066	0	0	0
0.000339934	0	0	0
0.000353651	0	0	0
0.000359351	0	0	0
0.00035982	0	0	0
0.000365251	0	0	0
0.000366979	0	0	0
0.000368999	0	0	0
0.000372117	0	0	0
0.000376051	0	0	0
0.000376592	0	0	0
0.00038389	0	0	0
0.000385615	0	0	0
0.000386812	0	0	0
0.000392132	0	0	0
0.000392264	0	0	0
0.000396055	0	0	0
0.00040114	0	0	0
0.000403397	0	0	0
0.00040701	0	0	0
0.000408037	0	0	0
0.000411995	0	0	0
0.000416893	0	0	0
0.000419272	0	0	0
0.00042633	0	0	0
0.000430277	0	0	0
0.000441015	0	0	0
0.000442484	0	0	0
0.000442531	0	0	0
0.000445908	0	0	0
0.000446662	0	0	0
0.000449429	0	0	0
0.000453677	0	0	0
0.000455006	0	0	0
0.000458034	0	0	0
0.000474873	0	0	0
0.000476988	0	0	0
0.000482083	0	0	0
0.000497677	0	0	0
0.000509669	0	0	0
0.000520724	0	0	0
0.000521127	0	0	0
0.000525703	0	0	0
0.000528315	0	0	0
0.000529983	0	0	0
0.000534558	0	0	0
0.000535058	0	0	0
0.000536802	0	0	0
0.000539903	0	0	0
0.000541236	0	0	0
0.000543771	0	0	0
0.000545744	0	0	0
0.000552908	0	0	0
0.000555194	0	0	0
0.000556133	0	0	0
0.000562587	0	0	0
0.000579153	0	0	0
0.000580383	0	0	0
0.000590976	0	0	0
0.000598859	0	0	0
0.000600526	0	0	0
0.000614564	0	0	0
0.000645437	0	0	0
0.000665347	0	0	0
0.000667794	0	0	0
0.000678111	0	0	0
0.000690111	0	0	0
0.000702486	0	0	0
0.000732331	0	0	0
0.000738597	0	0	0
0.00075572	0	0	0
0.000763656	0	0	0
0.000773965	0	0	0
0.000798464	0	0	0
0.000801054	0	0	0
0.00082869	0	0	0
0.000834934	0	0	0
0.000836371	0	0	0
0.000837731	0	0	0
0.000840178	0	0	0
0.000843626	0	0	0
0.000856125	0	0	0
0.000862069	0	0	0
0.000863374	0	0	0
0.000863966	0	0	0
0.000865113	0	0	0
0.000908369	0	0	0
0.000914338	0	0	0
0.000953613	0	0	0
0.000970616	0	0	0
0.000976414	0	0	0
0.00101479	0	0	0
0.00102454	0	0	0
0.00110792	0	0	0
0.00113463	0	0	0
0.00114655	0	0	0
0.00118476	0	0	0
0.00138135	0	0	0
0.00141214	0	0	0
0.00145781	0	0	0
0.0016353	0	0	0
0.00211372	0	0	0
0.00294405	0	0	0
0.00301144	0	0	0
0.00361543	0	0	0
0.00527579	0	0	0
