2.03464e-07	0	0	0
2.74351e-07	0	0	0
5.17714e-07	0	0	0
5.21435e-07	0	0	0
7.29936e-07	0	0	0
8.88847e-07	0	0	0
1.09076e-06	0	0	0
1.22276e-06	0	0	0
1.87104e-06	0	0	0
2.21325e-06	0	0	0
2.41665e-06	0	0	0
2.93393e-06	0	0	0
3.31103e-06	0	0	0
3.52562e-06	0	0	0
3.65474e-06	0	0	0
3.70083e-06	0	0	0
4.03272e-06	0	0	0
4.26006e-06	0	0	0
4.99712e-06	0	0	0
5.0544e-06	0	0	0
6.10869e-06	0	0	0
6.3675e-06	0	0	0
6.77431e-06	0	0	0
7.01081e-06	0	0	0
7.03924e-06	0	0	0
7.67121e-06	0	0	0
7.71009e-06	0	0	0
7.73784e-06	0	0	0
8.27286e-06	0	0	0
9.73145e-06	0	0	0
9.93437e-06	0	0	0
1.01865e-05	0	0	0
1.02025e-05	0	0	0
1.04974e-05	0	0	0
1.08115e-05	0	0	0
1.10362e-05	0	0	0
1.17799e-05	0	0	0
1.18264e-05	0	0	0
1.18959e-05	0	0	0
1.1927e-05	0	0	0
1.1934e-05	0	0	0
1.19992e-05	0	0	0
1.2092e-05	0	0	0
1.22903e-05	0	0	0
1.26509e-05	0	0	0
1.26884e-05	0	0	0
1.28662e-05	0	0	0
1.2932e-05	0	0	0
1.315e-05	0	0	0
1.31584e-05	0	0	0
1.36817e-05	0	0	0
1.38177e-05	0	0	0
1.3883e-05	0	0	0
1.39303e-05	0	0	0
1.4051e-05	0	0	0
1.41875e-05	0	0	0
1.44776e-05	0	0	0
1.47646e-05	0	0	0
1.49452e-05	0	0	0
1.49568e-05	0	0	0
1.53011e-05	0	0	0
1.58177e-05	0	0	0
1.59862e-05	0	0	0
1.64167e-05	0	0	0
1.67127e-05	0	0	0
1.67243e-05	0	0	0
1.69374e-05	0	0	0
1.69524e-05	0	0	0
1.74047e-05	0	0	0
1.77336e-05	0	0	0
1.91758e-05	0	0	0
1.99496e-05	0	0	0
2.00897e-05	0	0	0
2.06752e-05	0	0	0
2.12027e-05	0	0	0
2.13437e-05	0	0	0
2.14676e-05	0	0	0
2.1827e-05	0	0	0
2.18328e-05	0	0	0
2.18387e-05	0	0	0
2.19077e-05	0	0	0
2.21479e-05	0	0	0
2.22865e-05	0	0	0
2.23934e-05	0	0	0
2.24595e-05	0	0	0
2.25924e-05	0	0	0
2.26938e-05	0	0	0
2.31808e-05	0	0	0
2.3609e-05	0	0	0
2.38372e-05	0	0	0
2.40378e-05	0	0	0
2.43887e-05	0	0	0
2.47323e-05	0	0	0
2.49649e-05	0	0	0
2.5276e-05	0	0	0
2.53126e-05	0	0	0
2.60744e-05	0	0	0
2.68145e-05	0	0	0
2.71495e-05	0	0	0
2.74279e-05	0	0	0
2.76414e-05	0	0	0
2.78574e-05	0	0	0
2.83108e-05	0	0	0
2.851e-05	0	0	0
2.85505e-05	0	0	0
2.85554e-05	0	0	0
2.87408e-05	0	0	0
2.88901e-05	0	0	0
2.88935e-05	0	0	0
2.89155e-05	0	0	0
2.95551e-05	0	0	0
2.96704e-05	0	0	0
2.96915e-05	0	0	0
2.97066e-05	0	0	0
3.03879e-05	0	0	0
3.08123e-05	0	0	0
3.13163e-05	0	0	0
3.14231e-05	0	0	0
3.16357e-05	0	0	0
3.22036e-05	0	0	0
3.24086e-05	0	0	0
3.34479e-05	0	0	0
3.3889e-05	0	0	0
3.41966e-05	0	0	0
3.49297e-05	0	0	0
3.51253e-05	0	0	0
3.53421e-05	0	0	0
3.55169e-05	0	0	0
3.56387e-05	0	0	0
3.58014e-05	0	0	0
3.58955e-05	0	0	0
3.63643e-05	0	0	0
3.66005e-05	0	0	0
3.67279e-05	0	0	0
3.67485e-05	0	0	0
3.68112e-05	0	0	0
3.78619e-05	0	0	0
3.79012e-05	0	0	0
3.79778e-05	0	0	0
3.81415e-05	0	0	0
3.84911e-05	0	0	0
3.90112e-05	0	0	0
3.91265e-05	0	0	0
3.91505e-05	0	0	0
3.99216e-05	0	0	0
4.02366e-05	0	0	0
4.0634e-05	0	0	0
4.07186e-05	0	0	0
4.07353e-05	0	0	0
4.08039e-05	0	0	0
4.08667e-05	0	0	0
4.12633e-05	0	0	0
4.19327e-05	0	0	0
4.19563e-05	0	0	0
4.21901e-05	0	0	0
4.31629e-05	0	0	0
4.44628e-05	0	0	0
4.47176e-05	0	0	0
4.56694e-05	0	0	0
4.57746e-05	0	0	0
4.68134e-05	0	0	0
4.68191e-05	0	0	0
4.71359e-05	0	0	0
4.75225e-05	0	0	0
4.78058e-05	0	0	0
4.80631e-05	0	0	0
4.83243e-05	0	0	0
4.92253e-05	0	0	0
4.93872e-05	0	0	0
4.97267e-05	0	0	0
5.11304e-05	0	0	0
5.14429e-05	0	0	0
5.27648e-05	0	0	0
5.28936e-05	0	0	0
5.29382e-05	0	0	0
5.30575e-05	0	0	0
5.33077e-05	0	0	0
5.34365e-05	0	0	0
5.35606e-05	0	0	0
5.37544e-05	0	0	0
5.44437e-05	0	0	0
5.46218e-05	0	0	0
5.51067e-05	0	0	0
5.53467e-05	0	0	0
5.54289e-05	0	0	0
5.63705e-05	0	0	0
5.64293e-05	0	0	0
5.64424e-05	0	0	0
5.71236e-05	0	0	0
5.80493e-05	0	0	0
5.83042e-05	0	0	0
6.08328e-05	0	0	0
6.19141e-05	0	0	0
6.20536e-05	0	0	0
6.21096e-05	0	0	0
6.24047e-05	0	0	0
6.24758e-05	0	0	0
6.36794e-05	0	0	0
6.41813e-05	0	0	0
6.46572e-05	0	0	0
6.58434e-05	0	0	0
6.62608e-05	0	0	0
6.63303e-05	0	0	0
6.66965e-05	0	0	0
6.67421e-05	0	0	0
6.78016e-05	0	0	0
6.7948e-05	0	0	0
7.13706e-05	0	0	0
7.14046e-05	0	0	0
7.21915e-05	0	0	0
7.24201e-05	0	0	0
7.24576e-05	0	0	0
7.27002e-05	0	0	0
7.37209e-05	0	0	0
7.38151e-05	0	0	0
7.42059e-05	0	0	0
7.56845e-05	0	0	0
7.58806e-05	0	0	0
7.61708e-05	0	0	0
7.64142e-05	0	0	0
7.64273e-05	0	0	0
7.65348e-05	0	0	0
7.65711e-05	0	0	0
7.82594e-05	0	0	0
7.82978e-05	0	0	0
7.86795e-05	0	0	0
7.94243e-05	0	0	0
7.94418e-05	0	0	0
7.94581e-05	0	0	0
8.00308e-05	0	0	0
8.02606e-05	0	0	0
8.06564e-05	0	0	0
8.07707e-05	0	0	0
8.15301e-05	0	0	0
8.17842e-05	0	0	0
8.19258e-05	0	0	0
8.39936e-05	0	0	0
8.65377e-05	0	0	0
8.68346e-05	0	0	0
8.69504e-05	0	0	0
8.71947e-05	0	0	0
8.76965e-05	0	0	0
8.8349e-05	0	0	0
8.83945e-05	0	0	0
8.85929e-05	0	0	0
8.87954e-05	0	0	0
8.97182e-05	0	0	0
8.97662e-05	0	0	0
9.00145e-05	0	0	0
9.17796e-05	0	0	0
9.3051e-05	0	0	0
9.41348e-05	0	0	0
9.50031e-05	0	0	0
9.54582e-05	0	0	0
9.59844e-05	0	0	0
9.62762e-05	0	0	0
9.63152e-05	0	0	0
9.68716e-05	0	0	0
9.69783e-05	0	0	0
9.70729e-05	0	0	0
9.71188e-05	0	0	0
9.87098e-05	0	0	0
0.000100444	0	0	0
0.000100924	0	0	0
0.000101282	0	0	0
0.000102488	0	0	0
0.000103482	0	0	0
0.000104016	0	0	0
0.000105833	0	0	0
0.00010592	0	0	0
0.000106111	0	0	0
0.000107202	0	0	0
0.000108708	0	0	0
0.000111363	0	0	0
0.000111833	0	0	0
0.000111842	0	0	0
0.000112423	0	0	0
0.000113143	0	0	0
0.000113642	0	0	0
0.000113867	0	0	0
0.000114343	0	0	0
0.000114688	0	0	0
0.00011473	0	0	0
0.000115876	0	0	0
0.000115927	0	0	0
0.000116593	0	0	0
0.000118534	0	0	0
0.000119077	0	0	0
0.000119885	0	0	0
0.000121948	0	0	0
0.00012289	0	0	0
0.000123633	0	0	0
0.000124372	0	0	0
0.000125689	0	0	0
0.000125987	0	0	0
0.000126294	0	0	0
0.000128609	0	0	0
0.000129496	0	0	0
0.000130156	0	0	0
0.000131373	0	0	0
0.000133089	0	0	0
0.000133537	0	0	0
0.00013366	0	0	0
0.000135103	0	0	0
0.00013581	0	0	0
0.000136174	0	0	0
0.000136228	0	0	0
0.000136376	0	0	0
0.00013681	0	0	0
0.000136817	0	0	0
0.000136922	0	0	0
0.00013743	0	0	0
0.000137787	0	0	0
0.000138482	0	0	0
0.000138758	0	0	0
0.000139659	0	0	0
0.000139753	0	0	0
0.000139983	0	0	0
0.000140102	0	0	0
0.000140486	0	0	0
0.000140624	0	0	0
0.000142174	0	0	0
0.000145363	0	0	0
0.000145801	0	0	0
0.000145955	0	0	0
0.000146019	0	0	0
0.000146538	0	0	0
0.000147317	0	0	0
0.000147895	0	0	0
0.000150054	0	0	0
0.000150266	0	0	0
0.000150555	0	0	0
0.000151691	0	0	0
0.000152001	0	0	0
0.000154069	0	0	0
0.000154495	0	0	0
0.000154548	0	0	0
0.000155168	0	0	0
0.000155643	0	0	0
0.000156534	0	0	0
0.000156923	0	0	0
0.000157732	0	0	0
0.000158909	0	0	0
0.000159254	0	0	0
0.00016004	0	0	0
0.000160365	0	0	0
0.000160596	0	0	0
0.000160703	0	0	0
0.00016083	0	0	0
0.000163839	0	0	0
0.000164472	0	0	0
0.000165498	0	0	0
0.000166485	0	0	0
0.000167644	0	0	0
0.000169109	0	0	0
0.00016918	0	0	0
0.000169502	0	0	0
0.000170011	0	0	0
0.000170769	0	0	0
0.000172389	0	0	0
0.000172645	0	0	0
0.000173643	0	0	0
0.000174094	0	0	0
0.000174137	0	0	0
0.000174194	0	0	0
0.000174517	0	0	0
0.000174596	0	0	0
0.000175857	0	0	0
0.000183313	0	0	0
0.000185934	0	0	0
0.000185945	0	0	0
0.000187909	0	0	0
0.000188559	0	0	0
0.000188867	0	0	0
0.000189822	0	0	0
0.000190566	0	0	0
0.000194766	0	0	0
0.000194857	0	0	0
0.000196257	0	0	0
0.000196526	0	0	0
0.000198384	0	0	0
0.000199868	0	0	0
0.000200251	0	0	0
0.00020096	0	0	0
0.0002014	0	0	0
0.000201939	0	0	0
0.000203275	0	0	0
0.0002081	0	0	0
0.000210023	0	0	0
0.000211198	0	0	0
0.00021502	0	0	0
0.000218764	0	0	0
0.000220038	0	0	0
0.000220116	0	0	0
0.000220333	0	0	0
0.000220718	0	0	0
0.000220824	0	0	0
0.000222278	0	0	0
0.0002235	0	0	0
0.000223793	0	0	0
0.00022446	0	0	0
0.000229032	0	0	0
0.000230807	0	0	0
0.000232013	0	0	0
0.000232489	0	0	0
0.000233386	0	0	0
0.000235602	0	0	0
0.000238828	0	0	0
0.000239328	0	0	0
0.000243125	0	0	0
0.000246648	0	0	0
0.000246709	0	0	0
0.00024703	0	0	0
0.000247404	0	0	0
0.000247482	0	0	0
0.000250325	0	0	0
0.000250891	0	0	0
0.000253786	0	0	0
0.000255902	0	0	0
0.000255926	0	0	0
0.000259596	0	0	0
0.00026674	0	0	0
0.000266959	0	0	0
0.00026722	0	0	0
0.000269849	0	0	0
0.000271245	0	0	0
0.000272639	0	0	0
0.000273639	0	0	0
0.000274761	0	0	0
0.00027658	0	0	0
0.000279328	0	0	0
0.000285258	0	0	0
0.000286385	0	0	0
0.000290032	0	0	0
0.000294191	0	0	0
0.000296199	0	0	0
0.000297035	0	0	0
0.000297088	0	0	0
0.00029841	0	0	0
0.00030179	0	0	0
0.000306661	0	0	0
0.00030752	0	0	0
0.000307627	0	0	0
0.000311514	0	0	0
0.000313651	0	0	0
0.000322158	0	0	0
0.000323855	0	0	0
0.000329649	0	0	0
0.000330352	0	0	0
0.000330558	0	0	0
0.000334236	0	0	0
0.000335099	0	0	0
0.000335216	0	0	0
0.000337748	0	0	0
0.000341834	0	0	0
0.000342576	0	0	0
0.000344131	0	0	0
0.000348318	0	0	0
0.000348961	0	0	0
0.000351072	0	0	0
0.000351709	0	0	0
0.000352838	0	0	0
0.000359188	0	0	0
0.000359299	0	0	0
0.00036393	0	0	0
0.000367133	0	0	0
0.000369453	0	0	0
0.000375365	0	0	0
0.000380053	0	0	0
0.000383765	0	0	0
0.000385434	0	0	0
0.00039634	0	0	0
0.000404457	0	0	0
0.00040587	0	0	0
0.000406177	0	0	0
0.000408168	0	0	0
0.000408573	0	0	0
0.000411685	0	0	0
0.000413587	0	0	0
0.000419096	0	0	0
0.000424546	0	0	0
0.000425531	0	0	0
0.000425687	0	0	0
0.00043195	0	0	0
0.000431963	0	0	0
0.000435378	0	0	0
0.000437407	0	0	0
0.000448339	0	0	0
0.000456448	0	0	0
0.000458742	0	0	0
0.000459039	0	0	0
0.000459101	0	0	0
0.000462958	0	0	0
0.00046387	0	0	0
0.000469031	0	0	0
0.000470273	0	0	0
0.000473274	0	0	0
0.000482749	0	0	0
0.000484916	0	0	0
0.000489139	0	0	0
0.000492381	0	0	0
0.000503601	0	0	0
0.000504123	0	0	0
0.000511022	0	0	0
0.000519075	0	0	0
0.00052182	0	0	0
0.000524069	0	0	0
0.000527611	0	0	0
0.000527986	0	0	0
0.000539191	0	0	0
0.00054355	0	0	0
0.00054482	0	0	0
0.000553018	0	0	0
0.000553866	0	0	0
0.000555037	0	0	0
0.000564431	0	0	0
0.000565935	0	0	0
0.00056794	0	0	0
0.000574085	0	0	0
0.000590084	0	0	0
0.000590638	0	0	0
0.000593151	0	0	0
0.000597998	0	0	0
0.000598487	0	0	0
0.000599666	0	0	0
0.000608494	0	0	0
0.000610857	0	0	0
0.000611653	0	0	0
0.000617196	0	0	0
0.000625603	0	0	0
0.000631608	0	0	0
0.000638741	0	0	0
0.000644443	0	0	0
0.000650116	0	0	0
0.000656343	0	0	0
0.000656471	0	0	0
0.00066131	0	0	0
0.000666251	0	0	0
0.00068318	0	0	0
0.000691857	0	0	0
0.000692923	0	0	0
0.000698909	0	0	0
0.000700062	0	0	0
0.000712404	0	0	0
0.00072899	0	0	0
0.000736894	0	0	0
0.000742834	0	0	0
0.000790748	0	0	0
0.00080261	0	0	0
0.000806052	0	0	0
0.000815572	0	0	0
0.000820816	0	0	0
0.000832116	0	0	0
0.000836232	0	0	0
0.000844783	0	0	0
0.000850721	0	0	0
0.000858269	0	0	0
0.000863716	0	0	0
0.000863912	0	0	0
0.000870115	0	0	0
0.00089294	0	0	0
0.00091601	0	0	0
0.0009533	0	0	0
0.000976234	0	0	0
0.000980534	0	0	0
0.000981264	0	0	0
0.00100264	0	0	0
0.00104494	0	0	0
0.00117373	0	0	0
0.00120817	0	0	0
0.00121891	0	0	0
0.00134132	0	0	0
0.00140826	0	0	0
0.00142341	0	0	0
0.00145352	0	0	0
0.0014889	0	0	0
0.00154987	0	0	0
0.00159789	0	0	0
0.0016318	0	0	0
0.00174284	0	0	0
0.00177676	0	0	0
0.00282011	0	0	0
0.00340398	0	0	0
0.00365904	0	0	0
