7.3774e-11	0	0	0
1.00693e-09	0	0	0
2.90898e-09	0	0	0
2.91286e-09	0	0	0
2.93711e-09	0	0	0
3.1532e-09	0	0	0
3.5649e-09	0	0	0
4.29533e-09	0	0	0
4.7321e-09	0	0	0
6.21235e-09	0	0	0
7.25998e-09	0	0	0
7.5787e-09	0	0	0
8.08752e-09	0	0	0
8.93087e-09	0	0	0
1.23836e-08	0	0	0
1.2662e-08	0	0	0
1.35075e-08	0	0	0
1.38075e-08	0	0	0
1.40189e-08	0	0	0
1.54906e-08	0	0	0
1.74326e-08	0	0	0
1.84964e-08	0	0	0
2.058e-08	0	0	0
2.10405e-08	0	0	0
2.41417e-08	0	0	0
2.49226e-08	0	0	0
2.63234e-08	0	0	0
2.6638e-08	0	0	0
2.67335e-08	0	0	0
3.55649e-08	0	0	0
3.60314e-08	0	0	0
3.73685e-08	0	0	0
3.78381e-08	0	0	0
3.93319e-08	0	0	0
4.03258e-08	0	0	0
4.13042e-08	0	0	0
4.31368e-08	0	0	0
4.40082e-08	0	0	0
4.40778e-08	0	0	0
4.68387e-08	0	0	0
5.28899e-08	0	0	0
5.43913e-08	0	0	0
5.45659e-08	0	0	0
5.46281e-08	0	0	0
5.66342e-08	0	0	0
6.07913e-08	0	0	0
6.78461e-08	0	0	0
8.10103e-08	0	0	0
8.77995e-08	0	0	0
8.86258e-08	0	0	0
9.42963e-08	0	0	0
1.07589e-07	0	0	0
1.23851e-07	0	0	0
1.69333e-07	0	0	0
1.83208e-07	0	0	0
2.27522e-07	0	0	0
5.54518e-07	0	0	0
5.84841e-07	0	0	0
6.10421e-07	0	0	0
7.15576e-07	0	0	0
7.38611e-07	0	0	0
8.49085e-07	0	0	0
8.9822e-07	0	0	0
9.82266e-07	0	0	0
9.85426e-07	0	0	0
1.01815e-06	0	0	0
1.19929e-06	0	0	0
1.4344e-06	0	0	0
1.6361e-06	0	0	0
3.01241e-06	0	0	0
3.07617e-06	0	0	0
3.23497e-06	0	0	0
4.53828e-06	0	0	0
6.80633e-06	0	0	0
7.97081e-06	0	0	0
8.577e-06	0	0	0
3.52318e-05	0	0	0
