5.23109e-10	0	0	0
3.5074e-09	0	0	0
4.62839e-09	0	0	0
5.79209e-09	0	0	0
5.97265e-09	0	0	0
6.11081e-09	0	0	0
6.85886e-09	0	0	0
7.63789e-09	0	0	0
8.13998e-09	0	0	0
8.53456e-09	0	0	0
9.05362e-09	0	0	0
9.5636e-09	0	0	0
1.06381e-08	0	0	0
1.12756e-08	0	0	0
1.12839e-08	0	0	0
1.24596e-08	0	0	0
1.53135e-08	0	0	0
1.68526e-08	0	0	0
1.69359e-08	0	0	0
1.86248e-08	0	0	0
2.08273e-08	0	0	0
2.08737e-08	0	0	0
2.1422e-08	0	0	0
2.39173e-08	0	0	0
2.53355e-08	0	0	0
2.74378e-08	0	0	0
3.06616e-08	0	0	0
3.0939e-08	0	0	0
3.20903e-08	0	0	0
3.28523e-08	0	0	0
3.41322e-08	0	0	0
3.52734e-08	0	0	0
3.5972e-08	0	0	0
4.02156e-08	0	0	0
4.09956e-08	0	0	0
4.14728e-08	0	0	0
4.25979e-08	0	0	0
4.4948e-08	0	0	0
4.63297e-08	0	0	0
4.72808e-08	0	0	0
5.1948e-08	0	0	0
5.21155e-08	0	0	0
6.52356e-08	0	0	0
6.56387e-08	0	0	0
6.94212e-08	0	0	0
7.43782e-08	0	0	0
7.55703e-08	0	0	0
7.79107e-08	0	0	0
9.20541e-08	0	0	0
1.0465e-07	0	0	0
1.36716e-07	0	0	0
1.90266e-07	0	0	0
2.08117e-07	0	0	0
2.33439e-07	0	0	0
2.54748e-07	0	0	0
2.75533e-07	0	0	0
2.75719e-07	0	0	0
3.4641e-07	0	0	0
3.61063e-07	0	0	0
4.18011e-07	0	0	0
5.25608e-07	0	0	0
6.15885e-07	0	0	0
6.8429e-07	0	0	0
7.02956e-07	0	0	0
8.59988e-07	0	0	0
9.26938e-07	0	0	0
1.17594e-06	0	0	0
1.21597e-06	0	0	0
1.3574e-06	0	0	0
1.47758e-06	0	0	0
2.40634e-06	0	0	0
2.47858e-06	0	0	0
3.01924e-06	0	0	0
2.88461e-05	0	0	0
