5.81065e-10	0	0	0
6.18805e-10	0	0	0
1.42151e-09	0	0	0
2.49558e-09	0	0	0
4.15922e-09	0	0	0
4.44489e-09	0	0	0
5.3092e-09	0	0	0
5.56676e-09	0	0	0
5.74091e-09	0	0	0
6.62788e-09	0	0	0
6.65564e-09	0	0	0
7.00831e-09	0	0	0
7.16704e-09	0	0	0
7.64097e-09	0	0	0
8.51515e-09	0	0	0
9.2575e-09	0	0	0
9.63699e-09	0	0	0
1.16828e-08	0	0	0
1.19322e-08	0	0	0
1.53144e-08	0	0	0
1.5928e-08	0	0	0
1.62999e-08	0	0	0
1.68982e-08	0	0	0
1.99754e-08	0	0	0
2.33962e-08	0	0	0
2.52479e-08	0	0	0
2.63733e-08	0	0	0
2.70281e-08	0	0	0
2.82611e-08	0	0	0
2.97926e-08	0	0	0
3.00571e-08	0	0	0
3.05656e-08	0	0	0
3.77705e-08	0	0	0
3.88733e-08	0	0	0
3.92094e-08	0	0	0
4.17184e-08	0	0	0
4.27177e-08	0	0	0
4.72033e-08	0	0	0
4.85995e-08	0	0	0
5.84793e-08	0	0	0
6.11368e-08	0	0	0
6.22937e-08	0	0	0
6.317e-08	0	0	0
7.05185e-08	0	0	0
7.62057e-08	0	0	0
9.57612e-08	0	0	0
9.90535e-08	0	0	0
9.92624e-08	0	0	0
1.05848e-07	0	0	0
1.06608e-07	0	0	0
1.10548e-07	0	0	0
1.12224e-07	0	0	0
1.3356e-07	0	0	0
1.42357e-07	0	0	0
1.51382e-07	0	0	0
1.76208e-07	0	0	0
2.01981e-07	0	0	0
2.05056e-07	0	0	0
2.21755e-07	0	0	0
2.56749e-07	0	0	0
2.84243e-07	0	0	0
3.30005e-07	0	0	0
6.17126e-07	0	0	0
6.18328e-07	0	0	0
6.95123e-07	0	0	0
7.65326e-07	0	0	0
8.75436e-07	0	0	0
1.0989e-06	0	0	0
1.18397e-06	0	0	0
1.52301e-06	0	0	0
2.00288e-06	0	0	0
2.53789e-06	0	0	0
2.72995e-06	0	0	0
3.96382e-06	0	0	0
5.48775e-06	0	0	0
8.47999e-06	0	0	0
9.126e-06	0	0	0
5.40412e-05	0	0	0
