2.36961e-10	0	0	0
2.77768e-10	0	0	0
1.07241e-09	0	0	0
1.73251e-09	0	0	0
2.9601e-09	0	0	0
3.14398e-09	0	0	0
3.83894e-09	0	0	0
4.23415e-09	0	0	0
4.45275e-09	0	0	0
4.55172e-09	0	0	0
5.72038e-09	0	0	0
5.77961e-09	0	0	0
7.08684e-09	0	0	0
7.66743e-09	0	0	0
1.02542e-08	0	0	0
1.04908e-08	0	0	0
1.14058e-08	0	0	0
1.40932e-08	0	0	0
1.61468e-08	0	0	0
1.64689e-08	0	0	0
1.70321e-08	0	0	0
1.74009e-08	0	0	0
2.12174e-08	0	0	0
2.33671e-08	0	0	0
2.3786e-08	0	0	0
2.80422e-08	0	0	0
2.85785e-08	0	0	0
2.85921e-08	0	0	0
3.13569e-08	0	0	0
3.21378e-08	0	0	0
3.3104e-08	0	0	0
3.60116e-08	0	0	0
3.65704e-08	0	0	0
4.01889e-08	0	0	0
4.18811e-08	0	0	0
4.35704e-08	0	0	0
4.48097e-08	0	0	0
4.60392e-08	0	0	0
4.60867e-08	0	0	0
4.78066e-08	0	0	0
4.97434e-08	0	0	0
5.9647e-08	0	0	0
6.01603e-08	0	0	0
6.74918e-08	0	0	0
6.79871e-08	0	0	0
7.54739e-08	0	0	0
8.00473e-08	0	0	0
8.22286e-08	0	0	0
8.22738e-08	0	0	0
8.2568e-08	0	0	0
9.03848e-08	0	0	0
1.13739e-07	0	0	0
1.44656e-07	0	0	0
1.70093e-07	0	0	0
4.07361e-07	0	0	0
4.43741e-07	0	0	0
4.99466e-07	0	0	0
6.42227e-07	0	0	0
6.69061e-07	0	0	0
8.07128e-07	0	0	0
8.62101e-07	0	0	0
8.72231e-07	0	0	0
8.96443e-07	0	0	0
1.15177e-06	0	0	0
1.16261e-06	0	0	0
1.50472e-06	0	0	0
1.57374e-06	0	0	0
1.6749e-06	0	0	0
1.97178e-06	0	0	0
2.32194e-06	0	0	0
2.44803e-06	0	0	0
7.85244e-06	0	0	0
8.14533e-06	0	0	0
