1.1146e-09	0	0	0
1.34033e-09	0	0	0
1.53515e-09	0	0	0
2.34e-09	0	0	0
2.59051e-09	0	0	0
2.67506e-09	0	0	0
3.26931e-09	0	0	0
3.81224e-09	0	0	0
5.79027e-09	0	0	0
6.75782e-09	0	0	0
6.92757e-09	0	0	0
7.67766e-09	0	0	0
7.73267e-09	0	0	0
7.96604e-09	0	0	0
8.23218e-09	0	0	0
8.27522e-09	0	0	0
9.63139e-09	0	0	0
9.74359e-09	0	0	0
1.00126e-08	0	0	0
1.05626e-08	0	0	0
1.06012e-08	0	0	0
1.06278e-08	0	0	0
1.12656e-08	0	0	0
1.26705e-08	0	0	0
1.34477e-08	0	0	0
1.51443e-08	0	0	0
1.55269e-08	0	0	0
1.77269e-08	0	0	0
1.90092e-08	0	0	0
2.22998e-08	0	0	0
2.26756e-08	0	0	0
2.31357e-08	0	0	0
2.61057e-08	0	0	0
2.69483e-08	0	0	0
3.00765e-08	0	0	0
3.0213e-08	0	0	0
3.43978e-08	0	0	0
3.94536e-08	0	0	0
4.1099e-08	0	0	0
4.83343e-08	0	0	0
4.98976e-08	0	0	0
5.47275e-08	0	0	0
5.91983e-08	0	0	0
5.94033e-08	0	0	0
7.36919e-08	0	0	0
7.62484e-08	0	0	0
8.78036e-08	0	0	0
8.87905e-08	0	0	0
8.90048e-08	0	0	0
9.15439e-08	0	0	0
9.8257e-08	0	0	0
1.05432e-07	0	0	0
1.07483e-07	0	0	0
1.08089e-07	0	0	0
1.19064e-07	0	0	0
1.70979e-07	0	0	0
1.86517e-07	0	0	0
1.97639e-07	0	0	0
2.14503e-07	0	0	0
3.37523e-07	0	0	0
4.19536e-07	0	0	0
4.31519e-07	0	0	0
5.72779e-07	0	0	0
6.91921e-07	0	0	0
7.9243e-07	0	0	0
8.76102e-07	0	0	0
1.06125e-06	0	0	0
1.17868e-06	0	0	0
1.4518e-06	0	0	0
1.98248e-06	0	0	0
2.35553e-06	0	0	0
2.46295e-06	0	0	0
3.09578e-06	0	0	0
4.01095e-06	0	0	0
4.30571e-06	0	0	0
4.70124e-06	0	0	0
5.53818e-06	0	0	0
8.0262e-06	0	0	0
3.41521e-05	0	0	0
0.000102313	0	0	0
0.000152433	0	0	0
