1.05783e-08	0	0	0
1.38558e-08	0	0	0
3.10291e-08	0	0	0
3.58526e-08	0	0	0
3.90608e-08	0	0	0
7.64875e-08	0	0	0
8.58571e-08	0	0	0
1.07653e-07	0	0	0
1.16146e-07	0	0	0
1.23096e-07	0	0	0
1.32201e-07	0	0	0
1.32774e-07	0	0	0
1.37815e-07	0	0	0
1.47656e-07	0	0	0
1.50121e-07	0	0	0
1.70553e-07	0	0	0
1.76457e-07	0	0	0
2.01639e-07	0	0	0
2.13216e-07	0	0	0
2.19936e-07	0	0	0
2.20499e-07	0	0	0
2.49363e-07	0	0	0
2.90762e-07	0	0	0
2.92052e-07	0	0	0
3.29926e-07	0	0	0
3.38661e-07	0	0	0
3.54355e-07	0	0	0
3.6957e-07	0	0	0
3.75123e-07	0	0	0
3.82959e-07	0	0	0
3.8382e-07	0	0	0
3.92375e-07	0	0	0
3.969e-07	0	0	0
3.99419e-07	0	0	0
4.03787e-07	0	0	0
4.21615e-07	0	0	0
4.21989e-07	0	0	0
4.236e-07	0	0	0
4.45213e-07	0	0	0
4.46463e-07	0	0	0
4.57104e-07	0	0	0
4.67024e-07	0	0	0
5.24718e-07	0	0	0
5.3617e-07	0	0	0
5.47841e-07	0	0	0
5.50105e-07	0	0	0
5.80579e-07	0	0	0
5.96662e-07	0	0	0
6.05375e-07	0	0	0
6.21389e-07	0	0	0
6.36552e-07	0	0	0
6.44796e-07	0	0	0
6.75945e-07	0	0	0
6.96015e-07	0	0	0
7.39419e-07	0	0	0
7.44607e-07	0	0	0
7.47205e-07	0	0	0
7.47423e-07	0	0	0
7.63173e-07	0	0	0
7.65694e-07	0	0	0
7.74384e-07	0	0	0
7.95177e-07	0	0	0
8.22368e-07	0	0	0
8.24147e-07	0	0	0
8.27459e-07	0	0	0
8.34474e-07	0	0	0
8.5925e-07	0	0	0
9.13875e-07	0	0	0
9.6671e-07	0	0	0
9.83704e-07	0	0	0
1.05466e-06	0	0	0
1.05712e-06	0	0	0
1.09255e-06	0	0	0
1.09624e-06	0	0	0
1.10512e-06	0	0	0
1.11104e-06	0	0	0
1.14962e-06	0	0	0
1.24226e-06	0	0	0
1.24555e-06	0	0	0
1.28769e-06	0	0	0
1.33902e-06	0	0	0
1.35273e-06	0	0	0
1.35942e-06	0	0	0
1.36981e-06	0	0	0
1.3786e-06	0	0	0
1.38094e-06	0	0	0
1.38296e-06	0	0	0
1.40114e-06	0	0	0
1.41268e-06	0	0	0
1.42559e-06	0	0	0
1.43264e-06	0	0	0
1.47734e-06	0	0	0
1.49659e-06	0	0	0
1.49936e-06	0	0	0
1.50408e-06	0	0	0
1.51771e-06	0	0	0
1.54482e-06	0	0	0
1.56033e-06	0	0	0
1.5619e-06	0	0	0
1.58759e-06	0	0	0
1.59953e-06	0	0	0
1.60678e-06	0	0	0
1.66952e-06	0	0	0
1.68607e-06	0	0	0
1.71741e-06	0	0	0
1.74043e-06	0	0	0
1.75266e-06	0	0	0
1.76329e-06	0	0	0
1.80177e-06	0	0	0
1.80819e-06	0	0	0
1.82839e-06	0	0	0
1.83222e-06	0	0	0
1.83695e-06	0	0	0
1.85159e-06	0	0	0
1.85351e-06	0	0	0
1.91784e-06	0	0	0
1.92819e-06	0	0	0
1.95198e-06	0	0	0
1.96459e-06	0	0	0
2.02788e-06	0	0	0
2.02931e-06	0	0	0
2.03309e-06	0	0	0
2.03314e-06	0	0	0
2.0361e-06	0	0	0
2.05768e-06	0	0	0
2.07106e-06	0	0	0
2.09518e-06	0	0	0
2.09724e-06	0	0	0
2.13191e-06	0	0	0
2.14141e-06	0	0	0
2.14805e-06	0	0	0
2.16121e-06	0	0	0
2.18052e-06	0	0	0
2.19765e-06	0	0	0
2.20432e-06	0	0	0
2.25502e-06	0	0	0
2.26674e-06	0	0	0
2.27973e-06	0	0	0
2.28521e-06	0	0	0
2.28566e-06	0	0	0
2.28991e-06	0	0	0
2.31831e-06	0	0	0
2.3385e-06	0	0	0
2.34409e-06	0	0	0
2.34552e-06	0	0	0
2.37516e-06	0	0	0
2.38314e-06	0	0	0
2.40499e-06	0	0	0
2.40885e-06	0	0	0
2.41748e-06	0	0	0
2.41861e-06	0	0	0
2.42189e-06	0	0	0
2.42368e-06	0	0	0
2.44138e-06	0	0	0
2.44637e-06	0	0	0
2.47114e-06	0	0	0
2.47667e-06	0	0	0
2.4876e-06	0	0	0
2.48802e-06	0	0	0
2.54438e-06	0	0	0
2.57172e-06	0	0	0
2.58022e-06	0	0	0
2.583e-06	0	0	0
2.62364e-06	0	0	0
2.6531e-06	0	0	0
2.65385e-06	0	0	0
2.66923e-06	0	0	0
2.68671e-06	0	0	0
2.68862e-06	0	0	0
2.76173e-06	0	0	0
2.76477e-06	0	0	0
2.76488e-06	0	0	0
2.78223e-06	0	0	0
2.80059e-06	0	0	0
2.80683e-06	0	0	0
2.83758e-06	0	0	0
2.93242e-06	0	0	0
2.96073e-06	0	0	0
2.97613e-06	0	0	0
2.97759e-06	0	0	0
2.97821e-06	0	0	0
2.99028e-06	0	0	0
3.01376e-06	0	0	0
3.02772e-06	0	0	0
3.09115e-06	0	0	0
3.1033e-06	0	0	0
3.10468e-06	0	0	0
3.10839e-06	0	0	0
3.15704e-06	0	0	0
3.15868e-06	0	0	0
3.16194e-06	0	0	0
3.18182e-06	0	0	0
3.20318e-06	0	0	0
3.20581e-06	0	0	0
3.20709e-06	0	0	0
3.23623e-06	0	0	0
3.24728e-06	0	0	0
3.28046e-06	0	0	0
3.28817e-06	0	0	0
3.34502e-06	0	0	0
3.3501e-06	0	0	0
3.36618e-06	0	0	0
3.368e-06	0	0	0
3.44307e-06	0	0	0
3.44985e-06	0	0	0
3.45158e-06	0	0	0
3.47303e-06	0	0	0
3.4806e-06	0	0	0
3.50039e-06	0	0	0
3.50082e-06	0	0	0
3.51078e-06	0	0	0
3.51444e-06	0	0	0
3.52583e-06	0	0	0
3.54097e-06	0	0	0
3.55772e-06	0	0	0
3.58141e-06	0	0	0
3.61926e-06	0	0	0
3.62215e-06	0	0	0
3.62375e-06	0	0	0
3.62803e-06	0	0	0
3.62827e-06	0	0	0
3.63247e-06	0	0	0
3.64467e-06	0	0	0
3.65663e-06	0	0	0
3.69542e-06	0	0	0
3.70398e-06	0	0	0
3.71755e-06	0	0	0
3.73133e-06	0	0	0
3.73852e-06	0	0	0
3.75293e-06	0	0	0
3.7653e-06	0	0	0
3.80417e-06	0	0	0
3.81795e-06	0	0	0
3.84725e-06	0	0	0
3.87118e-06	0	0	0
3.8742e-06	0	0	0
3.87869e-06	0	0	0
3.9184e-06	0	0	0
3.95088e-06	0	0	0
3.9992e-06	0	0	0
4.07007e-06	0	0	0
4.07643e-06	0	0	0
4.10002e-06	0	0	0
4.12548e-06	0	0	0
4.15384e-06	0	0	0
4.16144e-06	0	0	0
4.17086e-06	0	0	0
4.20223e-06	0	0	0
4.21452e-06	0	0	0
4.26595e-06	0	0	0
4.26831e-06	0	0	0
4.28629e-06	0	0	0
4.29643e-06	0	0	0
4.35981e-06	0	0	0
4.36709e-06	0	0	0
4.37215e-06	0	0	0
4.37935e-06	0	0	0
4.40096e-06	0	0	0
4.48151e-06	0	0	0
4.48166e-06	0	0	0
4.53042e-06	0	0	0
4.54521e-06	0	0	0
4.58294e-06	0	0	0
4.58906e-06	0	0	0
4.59432e-06	0	0	0
4.59781e-06	0	0	0
4.63348e-06	0	0	0
4.63902e-06	0	0	0
4.65798e-06	0	0	0
4.6617e-06	0	0	0
4.69859e-06	0	0	0
4.73735e-06	0	0	0
4.73951e-06	0	0	0
4.78158e-06	0	0	0
4.78331e-06	0	0	0
4.80059e-06	0	0	0
4.81936e-06	0	0	0
4.82383e-06	0	0	0
4.8545e-06	0	0	0
4.86327e-06	0	0	0
4.93178e-06	0	0	0
4.95109e-06	0	0	0
4.96251e-06	0	0	0
4.96836e-06	0	0	0
5.03431e-06	0	0	0
5.04034e-06	0	0	0
5.12112e-06	0	0	0
5.12674e-06	0	0	0
5.17532e-06	0	0	0
5.23273e-06	0	0	0
5.28211e-06	0	0	0
5.29553e-06	0	0	0
5.32568e-06	0	0	0
5.34569e-06	0	0	0
5.37394e-06	0	0	0
5.376e-06	0	0	0
5.39576e-06	0	0	0
5.41662e-06	0	0	0
5.42783e-06	0	0	0
5.45618e-06	0	0	0
5.48343e-06	0	0	0
5.61642e-06	0	0	0
5.6424e-06	0	0	0
5.69544e-06	0	0	0
5.73732e-06	0	0	0
5.74957e-06	0	0	0
5.76235e-06	0	0	0
5.78432e-06	0	0	0
5.78588e-06	0	0	0
5.816e-06	0	0	0
5.86415e-06	0	0	0
5.86796e-06	0	0	0
5.87313e-06	0	0	0
5.89234e-06	0	0	0
5.91497e-06	0	0	0
5.92895e-06	0	0	0
5.94361e-06	0	0	0
5.96105e-06	0	0	0
5.98992e-06	0	0	0
6.01064e-06	0	0	0
6.03273e-06	0	0	0
6.08974e-06	0	0	0
6.10409e-06	0	0	0
6.13611e-06	0	0	0
6.2088e-06	0	0	0
6.21743e-06	0	0	0
6.3728e-06	0	0	0
6.37387e-06	0	0	0
6.39273e-06	0	0	0
6.41075e-06	0	0	0
6.41975e-06	0	0	0
6.42144e-06	0	0	0
6.42584e-06	0	0	0
6.45409e-06	0	0	0
6.47302e-06	0	0	0
6.48211e-06	0	0	0
6.49858e-06	0	0	0
6.52399e-06	0	0	0
6.53251e-06	0	0	0
6.57248e-06	0	0	0
6.57678e-06	0	0	0
6.61747e-06	0	0	0
6.62111e-06	0	0	0
6.63372e-06	0	0	0
6.64235e-06	0	0	0
6.69329e-06	0	0	0
6.69674e-06	0	0	0
6.69993e-06	0	0	0
6.71022e-06	0	0	0
6.71816e-06	0	0	0
6.72529e-06	0	0	0
6.79003e-06	0	0	0
6.82318e-06	0	0	0
6.83563e-06	0	0	0
6.84892e-06	0	0	0
6.85211e-06	0	0	0
6.85909e-06	0	0	0
6.87419e-06	0	0	0
6.88006e-06	0	0	0
6.94276e-06	0	0	0
6.96898e-06	0	0	0
6.97219e-06	0	0	0
6.99853e-06	0	0	0
7.01562e-06	0	0	0
7.03613e-06	0	0	0
7.04929e-06	0	0	0
7.06158e-06	0	0	0
7.06767e-06	0	0	0
7.07557e-06	0	0	0
7.10048e-06	0	0	0
7.10364e-06	0	0	0
7.13772e-06	0	0	0
7.16437e-06	0	0	0
7.19126e-06	0	0	0
7.20752e-06	0	0	0
7.21538e-06	0	0	0
7.25184e-06	0	0	0
7.27612e-06	0	0	0
7.307e-06	0	0	0
7.36027e-06	0	0	0
7.39231e-06	0	0	0
7.39512e-06	0	0	0
7.39651e-06	0	0	0
7.41601e-06	0	0	0
7.44352e-06	0	0	0
7.51147e-06	0	0	0
7.51866e-06	0	0	0
7.52425e-06	0	0	0
7.53202e-06	0	0	0
7.53879e-06	0	0	0
7.58887e-06	0	0	0
7.62485e-06	0	0	0
7.63422e-06	0	0	0
7.63848e-06	0	0	0
7.65689e-06	0	0	0
7.70079e-06	0	0	0
7.71318e-06	0	0	0
7.7573e-06	0	0	0
7.76366e-06	0	0	0
7.76482e-06	0	0	0
7.77484e-06	0	0	0
7.81208e-06	0	0	0
7.84686e-06	0	0	0
7.8481e-06	0	0	0
7.8496e-06	0	0	0
7.85658e-06	0	0	0
7.85885e-06	0	0	0
7.8861e-06	0	0	0
7.89107e-06	0	0	0
8.00287e-06	0	0	0
8.02215e-06	0	0	0
8.03638e-06	0	0	0
8.08825e-06	0	0	0
8.1077e-06	0	0	0
8.15333e-06	0	0	0
8.19624e-06	0	0	0
8.20138e-06	0	0	0
8.20866e-06	0	0	0
8.21269e-06	0	0	0
8.23799e-06	0	0	0
8.33125e-06	0	0	0
8.34235e-06	0	0	0
8.40606e-06	0	0	0
8.44168e-06	0	0	0
8.55123e-06	0	0	0
8.56774e-06	0	0	0
8.61348e-06	0	0	0
8.65282e-06	0	0	0
8.66307e-06	0	0	0
8.66361e-06	0	0	0
8.66871e-06	0	0	0
8.70413e-06	0	0	0
8.7253e-06	0	0	0
8.7497e-06	0	0	0
8.76907e-06	0	0	0
8.77425e-06	0	0	0
8.7898e-06	0	0	0
8.80844e-06	0	0	0
8.81562e-06	0	0	0
8.85335e-06	0	0	0
8.87394e-06	0	0	0
8.8796e-06	0	0	0
8.88668e-06	0	0	0
8.88752e-06	0	0	0
8.89047e-06	0	0	0
8.8987e-06	0	0	0
8.94561e-06	0	0	0
8.98649e-06	0	0	0
9.02985e-06	0	0	0
9.03e-06	0	0	0
9.06163e-06	0	0	0
9.08917e-06	0	0	0
9.09879e-06	0	0	0
9.10437e-06	0	0	0
9.12433e-06	0	0	0
9.19136e-06	0	0	0
9.19766e-06	0	0	0
9.22734e-06	0	0	0
9.31763e-06	0	0	0
9.31993e-06	0	0	0
9.33244e-06	0	0	0
9.42528e-06	0	0	0
9.42548e-06	0	0	0
9.44865e-06	0	0	0
9.45548e-06	0	0	0
9.48713e-06	0	0	0
9.48843e-06	0	0	0
9.51804e-06	0	0	0
9.53094e-06	0	0	0
9.63136e-06	0	0	0
9.66431e-06	0	0	0
9.72687e-06	0	0	0
9.72836e-06	0	0	0
9.76362e-06	0	0	0
9.79521e-06	0	0	0
9.8047e-06	0	0	0
9.81584e-06	0	0	0
9.85958e-06	0	0	0
9.86709e-06	0	0	0
9.91199e-06	0	0	0
9.96983e-06	0	0	0
1.011e-05	0	0	0
1.01303e-05	0	0	0
1.0164e-05	0	0	0
1.02275e-05	0	0	0
1.02431e-05	0	0	0
1.02718e-05	0	0	0
1.02788e-05	0	0	0
1.02904e-05	0	0	0
1.03997e-05	0	0	0
1.04298e-05	0	0	0
1.05302e-05	0	0	0
1.05479e-05	0	0	0
1.06111e-05	0	0	0
1.0616e-05	0	0	0
1.0626e-05	0	0	0
1.06377e-05	0	0	0
1.06416e-05	0	0	0
1.067e-05	0	0	0
1.07074e-05	0	0	0
1.07402e-05	0	0	0
1.07544e-05	0	0	0
1.07787e-05	0	0	0
1.0826e-05	0	0	0
1.08784e-05	0	0	0
1.09647e-05	0	0	0
1.09649e-05	0	0	0
1.09985e-05	0	0	0
1.10495e-05	0	0	0
1.10547e-05	0	0	0
1.1106e-05	0	0	0
1.11546e-05	0	0	0
1.11709e-05	0	0	0
1.12251e-05	0	0	0
1.13028e-05	0	0	0
1.14046e-05	0	0	0
1.14378e-05	0	0	0
1.15167e-05	0	0	0
1.15591e-05	0	0	0
1.15685e-05	0	0	0
1.16066e-05	0	0	0
1.16243e-05	0	0	0
1.16262e-05	0	0	0
1.16527e-05	0	0	0
1.16765e-05	0	0	0
1.17412e-05	0	0	0
1.17444e-05	0	0	0
1.18297e-05	0	0	0
1.19529e-05	0	0	0
1.20514e-05	0	0	0
1.20579e-05	0	0	0
1.21774e-05	0	0	0
1.22618e-05	0	0	0
1.23198e-05	0	0	0
1.23694e-05	0	0	0
1.23716e-05	0	0	0
1.24502e-05	0	0	0
1.24771e-05	0	0	0
1.24925e-05	0	0	0
1.25243e-05	0	0	0
1.26502e-05	0	0	0
1.27169e-05	0	0	0
1.27787e-05	0	0	0
1.28065e-05	0	0	0
1.28128e-05	0	0	0
1.28665e-05	0	0	0
1.30051e-05	0	0	0
1.30582e-05	0	0	0
1.30661e-05	0	0	0
1.31097e-05	0	0	0
1.32121e-05	0	0	0
1.32281e-05	0	0	0
1.32463e-05	0	0	0
1.32998e-05	0	0	0
1.33445e-05	0	0	0
1.34482e-05	0	0	0
1.34747e-05	0	0	0
1.34951e-05	0	0	0
1.35408e-05	0	0	0
1.36438e-05	0	0	0
1.37373e-05	0	0	0
1.38303e-05	0	0	0
1.38424e-05	0	0	0
1.39683e-05	0	0	0
1.39839e-05	0	0	0
1.40211e-05	0	0	0
1.40308e-05	0	0	0
1.40458e-05	0	0	0
1.40712e-05	0	0	0
1.40896e-05	0	0	0
1.4143e-05	0	0	0
1.41966e-05	0	0	0
1.42406e-05	0	0	0
1.42705e-05	0	0	0
1.44308e-05	0	0	0
1.45111e-05	0	0	0
1.45359e-05	0	0	0
1.46114e-05	0	0	0
1.46331e-05	0	0	0
1.47601e-05	0	0	0
1.47695e-05	0	0	0
1.47846e-05	0	0	0
1.48163e-05	0	0	0
1.4818e-05	0	0	0
1.48242e-05	0	0	0
1.48356e-05	0	0	0
1.48761e-05	0	0	0
1.50709e-05	0	0	0
1.51027e-05	0	0	0
1.51141e-05	0	0	0
1.51254e-05	0	0	0
1.51605e-05	0	0	0
1.51736e-05	0	0	0
1.51777e-05	0	0	0
1.51875e-05	0	0	0
1.54081e-05	0	0	0
1.5542e-05	0	0	0
1.56187e-05	0	0	0
1.56706e-05	0	0	0
1.57014e-05	0	0	0
1.57018e-05	0	0	0
1.57151e-05	0	0	0
1.57423e-05	0	0	0
1.58494e-05	0	0	0
1.59717e-05	0	0	0
1.60013e-05	0	0	0
1.61736e-05	0	0	0
1.62771e-05	0	0	0
1.6284e-05	0	0	0
1.63052e-05	0	0	0
1.6349e-05	0	0	0
1.64236e-05	0	0	0
1.65374e-05	0	0	0
1.65792e-05	0	0	0
1.66864e-05	0	0	0
1.6738e-05	0	0	0
1.69048e-05	0	0	0
1.692e-05	0	0	0
1.71145e-05	0	0	0
1.71423e-05	0	0	0
1.71631e-05	0	0	0
1.71851e-05	0	0	0
1.71923e-05	0	0	0
1.71933e-05	0	0	0
1.72276e-05	0	0	0
1.72443e-05	0	0	0
1.72624e-05	0	0	0
1.72938e-05	0	0	0
1.73674e-05	0	0	0
1.74078e-05	0	0	0
1.74542e-05	0	0	0
1.7513e-05	0	0	0
1.76771e-05	0	0	0
1.79151e-05	0	0	0
1.79551e-05	0	0	0
1.7979e-05	0	0	0
1.80277e-05	0	0	0
1.80456e-05	0	0	0
1.80753e-05	0	0	0
1.817e-05	0	0	0
1.81935e-05	0	0	0
1.83254e-05	0	0	0
1.83267e-05	0	0	0
1.83399e-05	0	0	0
1.83903e-05	0	0	0
1.83979e-05	0	0	0
1.84004e-05	0	0	0
1.84516e-05	0	0	0
1.84656e-05	0	0	0
1.85258e-05	0	0	0
1.86837e-05	0	0	0
1.86876e-05	0	0	0
1.87782e-05	0	0	0
1.87942e-05	0	0	0
1.88386e-05	0	0	0
1.88749e-05	0	0	0
1.89559e-05	0	0	0
1.89645e-05	0	0	0
1.89646e-05	0	0	0
1.91108e-05	0	0	0
1.92268e-05	0	0	0
1.92521e-05	0	0	0
1.93044e-05	0	0	0
1.9366e-05	0	0	0
1.94541e-05	0	0	0
1.95992e-05	0	0	0
1.98262e-05	0	0	0
1.98465e-05	0	0	0
1.98722e-05	0	0	0
2.00636e-05	0	0	0
2.00651e-05	0	0	0
2.02296e-05	0	0	0
2.03347e-05	0	0	0
2.03629e-05	0	0	0
2.03969e-05	0	0	0
2.04638e-05	0	0	0
2.05082e-05	0	0	0
2.07758e-05	0	0	0
2.0842e-05	0	0	0
2.08633e-05	0	0	0
2.09015e-05	0	0	0
2.09189e-05	0	0	0
2.09326e-05	0	0	0
2.09375e-05	0	0	0
2.10822e-05	0	0	0
2.13029e-05	0	0	0
2.13299e-05	0	0	0
2.13427e-05	0	0	0
2.16335e-05	0	0	0
2.18123e-05	0	0	0
2.18218e-05	0	0	0
2.18361e-05	0	0	0
2.18463e-05	0	0	0
2.18491e-05	0	0	0
2.18802e-05	0	0	0
2.20003e-05	0	0	0
2.2051e-05	0	0	0
2.20946e-05	0	0	0
2.21981e-05	0	0	0
2.24069e-05	0	0	0
2.24078e-05	0	0	0
2.24093e-05	0	0	0
2.24813e-05	0	0	0
2.25158e-05	0	0	0
2.25398e-05	0	0	0
2.265e-05	0	0	0
2.27648e-05	0	0	0
2.28138e-05	0	0	0
2.28306e-05	0	0	0
2.28696e-05	0	0	0
2.28726e-05	0	0	0
2.28809e-05	0	0	0
2.29386e-05	0	0	0
2.30264e-05	0	0	0
2.30448e-05	0	0	0
2.30476e-05	0	0	0
2.3084e-05	0	0	0
2.31651e-05	0	0	0
2.31671e-05	0	0	0
2.32899e-05	0	0	0
2.34175e-05	0	0	0
2.35593e-05	0	0	0
2.36192e-05	0	0	0
2.36742e-05	0	0	0
2.371e-05	0	0	0
2.38708e-05	0	0	0
2.39585e-05	0	0	0
2.39988e-05	0	0	0
2.40609e-05	0	0	0
2.41443e-05	0	0	0
2.41922e-05	0	0	0
2.43487e-05	0	0	0
2.45154e-05	0	0	0
2.45159e-05	0	0	0
2.45544e-05	0	0	0
2.45637e-05	0	0	0
2.45798e-05	0	0	0
2.4588e-05	0	0	0
2.46295e-05	0	0	0
2.4686e-05	0	0	0
2.47093e-05	0	0	0
2.47184e-05	0	0	0
2.47505e-05	0	0	0
2.49313e-05	0	0	0
2.49472e-05	0	0	0
2.49902e-05	0	0	0
2.50001e-05	0	0	0
2.51195e-05	0	0	0
2.51359e-05	0	0	0
2.51384e-05	0	0	0
2.53259e-05	0	0	0
2.53406e-05	0	0	0
2.53484e-05	0	0	0
2.54901e-05	0	0	0
2.54944e-05	0	0	0
2.55009e-05	0	0	0
2.5519e-05	0	0	0
2.57514e-05	0	0	0
2.59361e-05	0	0	0
2.59976e-05	0	0	0
2.60145e-05	0	0	0
2.6247e-05	0	0	0
2.63849e-05	0	0	0
2.64797e-05	0	0	0
2.65322e-05	0	0	0
2.65502e-05	0	0	0
2.66239e-05	0	0	0
2.66939e-05	0	0	0
2.67091e-05	0	0	0
2.67404e-05	0	0	0
2.67546e-05	0	0	0
2.67762e-05	0	0	0
2.69454e-05	0	0	0
2.69688e-05	0	0	0
2.71582e-05	0	0	0
2.72174e-05	0	0	0
2.72875e-05	0	0	0
2.74282e-05	0	0	0
2.74544e-05	0	0	0
2.75104e-05	0	0	0
2.76047e-05	0	0	0
2.76314e-05	0	0	0
2.787e-05	0	0	0
2.79684e-05	0	0	0
2.82171e-05	0	0	0
2.82976e-05	0	0	0
2.83369e-05	0	0	0
2.8359e-05	0	0	0
2.83888e-05	0	0	0
2.8436e-05	0	0	0
2.85172e-05	0	0	0
2.87075e-05	0	0	0
2.87642e-05	0	0	0
2.88226e-05	0	0	0
2.89223e-05	0	0	0
2.92932e-05	0	0	0
2.94182e-05	0	0	0
2.94282e-05	0	0	0
2.94648e-05	0	0	0
2.95113e-05	0	0	0
2.96658e-05	0	0	0
2.96723e-05	0	0	0
2.96894e-05	0	0	0
2.98035e-05	0	0	0
2.98306e-05	0	0	0
2.99121e-05	0	0	0
2.99276e-05	0	0	0
3.01044e-05	0	0	0
3.01829e-05	0	0	0
3.03513e-05	0	0	0
3.05652e-05	0	0	0
3.05698e-05	0	0	0
3.06803e-05	0	0	0
3.06975e-05	0	0	0
3.08732e-05	0	0	0
3.09041e-05	0	0	0
3.11167e-05	0	0	0
3.12031e-05	0	0	0
3.12095e-05	0	0	0
3.13114e-05	0	0	0
3.13822e-05	0	0	0
3.17001e-05	0	0	0
3.17817e-05	0	0	0
3.17936e-05	0	0	0
3.18787e-05	0	0	0
3.19494e-05	0	0	0
3.2074e-05	0	0	0
3.24724e-05	0	0	0
3.25054e-05	0	0	0
3.27511e-05	0	0	0
3.28958e-05	0	0	0
3.29198e-05	0	0	0
3.29634e-05	0	0	0
3.3008e-05	0	0	0
3.30297e-05	0	0	0
3.30498e-05	0	0	0
3.305e-05	0	0	0
3.31927e-05	0	0	0
3.32437e-05	0	0	0
3.3251e-05	0	0	0
3.32842e-05	0	0	0
3.33349e-05	0	0	0
3.33967e-05	0	0	0
3.34294e-05	0	0	0
3.35018e-05	0	0	0
3.358e-05	0	0	0
3.36624e-05	0	0	0
3.37385e-05	0	0	0
3.37398e-05	0	0	0
3.37407e-05	0	0	0
3.38339e-05	0	0	0
3.38439e-05	0	0	0
3.40503e-05	0	0	0
3.43034e-05	0	0	0
3.47023e-05	0	0	0
3.47176e-05	0	0	0
3.48061e-05	0	0	0
3.48648e-05	0	0	0
3.51163e-05	0	0	0
3.52765e-05	0	0	0
3.53831e-05	0	0	0
3.54175e-05	0	0	0
3.54459e-05	0	0	0
3.5635e-05	0	0	0
3.56675e-05	0	0	0
3.56963e-05	0	0	0
3.57507e-05	0	0	0
3.59878e-05	0	0	0
3.60902e-05	0	0	0
3.61198e-05	0	0	0
3.6198e-05	0	0	0
3.6223e-05	0	0	0
3.63255e-05	0	0	0
3.65389e-05	0	0	0
3.65528e-05	0	0	0
3.66576e-05	0	0	0
3.66862e-05	0	0	0
3.67422e-05	0	0	0
3.71935e-05	0	0	0
3.7217e-05	0	0	0
3.73061e-05	0	0	0
3.73114e-05	0	0	0
3.74095e-05	0	0	0
3.74732e-05	0	0	0
3.76699e-05	0	0	0
3.776e-05	0	0	0
3.77808e-05	0	0	0
3.78767e-05	0	0	0
3.78961e-05	0	0	0
3.79333e-05	0	0	0
3.80106e-05	0	0	0
3.80632e-05	0	0	0
3.81672e-05	0	0	0
3.82648e-05	0	0	0
3.83061e-05	0	0	0
3.83176e-05	0	0	0
3.85023e-05	0	0	0
3.87369e-05	0	0	0
3.87987e-05	0	0	0
3.88265e-05	0	0	0
3.89614e-05	0	0	0
3.93029e-05	0	0	0
3.9331e-05	0	0	0
3.94679e-05	0	0	0
3.95311e-05	0	0	0
3.9696e-05	0	0	0
3.99481e-05	0	0	0
4.00292e-05	0	0	0
4.00595e-05	0	0	0
4.01234e-05	0	0	0
4.03155e-05	0	0	0
4.0358e-05	0	0	0
4.04184e-05	0	0	0
4.04847e-05	0	0	0
4.06137e-05	0	0	0
4.07557e-05	0	0	0
4.08326e-05	0	0	0
4.09435e-05	0	0	0
4.09907e-05	0	0	0
4.12939e-05	0	0	0
4.14376e-05	0	0	0
4.16077e-05	0	0	0
4.16079e-05	0	0	0
4.17715e-05	0	0	0
4.21456e-05	0	0	0
4.23721e-05	0	0	0
4.24276e-05	0	0	0
4.25161e-05	0	0	0
4.25447e-05	0	0	0
4.26919e-05	0	0	0
4.29703e-05	0	0	0
4.30339e-05	0	0	0
4.31131e-05	0	0	0
4.315e-05	0	0	0
4.32792e-05	0	0	0
4.33644e-05	0	0	0
4.33946e-05	0	0	0
4.34225e-05	0	0	0
4.34678e-05	0	0	0
4.34839e-05	0	0	0
4.3833e-05	0	0	0
4.38452e-05	0	0	0
4.38753e-05	0	0	0
4.39965e-05	0	0	0
4.41147e-05	0	0	0
4.42137e-05	0	0	0
4.43518e-05	0	0	0
4.43609e-05	0	0	0
4.44035e-05	0	0	0
4.45102e-05	0	0	0
4.45841e-05	0	0	0
4.47878e-05	0	0	0
4.48103e-05	0	0	0
4.48248e-05	0	0	0
4.4855e-05	0	0	0
4.51342e-05	0	0	0
4.54852e-05	0	0	0
4.59715e-05	0	0	0
4.59853e-05	0	0	0
4.60194e-05	0	0	0
4.60347e-05	0	0	0
4.60859e-05	0	0	0
4.60953e-05	0	0	0
4.62391e-05	0	0	0
4.64704e-05	0	0	0
4.65558e-05	0	0	0
4.67288e-05	0	0	0
4.69321e-05	0	0	0
4.71934e-05	0	0	0
4.72304e-05	0	0	0
4.73648e-05	0	0	0
4.78114e-05	0	0	0
4.8141e-05	0	0	0
4.81428e-05	0	0	0
4.81789e-05	0	0	0
4.84182e-05	0	0	0
4.85638e-05	0	0	0
4.90181e-05	0	0	0
4.97532e-05	0	0	0
4.99247e-05	0	0	0
4.99663e-05	0	0	0
5.0464e-05	0	0	0
5.06449e-05	0	0	0
5.07998e-05	0	0	0
5.08924e-05	0	0	0
5.10036e-05	0	0	0
5.13009e-05	0	0	0
5.15273e-05	0	0	0
5.15748e-05	0	0	0
5.17913e-05	0	0	0
5.22569e-05	0	0	0
5.23327e-05	0	0	0
5.24167e-05	0	0	0
5.24629e-05	0	0	0
5.26155e-05	0	0	0
5.28131e-05	0	0	0
5.30037e-05	0	0	0
5.32358e-05	0	0	0
5.38354e-05	0	0	0
5.39931e-05	0	0	0
5.44325e-05	0	0	0
5.44412e-05	0	0	0
5.49266e-05	0	0	0
5.52885e-05	0	0	0
5.54372e-05	0	0	0
5.56694e-05	0	0	0
5.59165e-05	0	0	0
5.60434e-05	0	0	0
5.61186e-05	0	0	0
5.62185e-05	0	0	0
5.6334e-05	0	0	0
5.65897e-05	0	0	0
5.66926e-05	0	0	0
5.67314e-05	0	0	0
5.68759e-05	0	0	0
5.69703e-05	0	0	0
5.7131e-05	0	0	0
5.71319e-05	0	0	0
5.718e-05	0	0	0
5.74879e-05	0	0	0
5.78968e-05	0	0	0
5.79358e-05	0	0	0
5.82096e-05	0	0	0
5.8506e-05	0	0	0
5.86269e-05	0	0	0
5.86553e-05	0	0	0
5.90251e-05	0	0	0
5.90547e-05	0	0	0
5.91161e-05	0	0	0
5.93219e-05	0	0	0
5.93728e-05	0	0	0
5.96916e-05	0	0	0
5.99447e-05	0	0	0
6.01793e-05	0	0	0
6.03746e-05	0	0	0
6.04485e-05	0	0	0
6.07823e-05	0	0	0
6.11379e-05	0	0	0
6.11674e-05	0	0	0
6.13429e-05	0	0	0
6.16404e-05	0	0	0
6.16793e-05	0	0	0
6.22539e-05	0	0	0
6.239e-05	0	0	0
6.24206e-05	0	0	0
6.25162e-05	0	0	0
6.30688e-05	0	0	0
6.31627e-05	0	0	0
6.32507e-05	0	0	0
6.34151e-05	0	0	0
6.36123e-05	0	0	0
6.37399e-05	0	0	0
6.38372e-05	0	0	0
6.38875e-05	0	0	0
6.39436e-05	0	0	0
6.42943e-05	0	0	0
6.4298e-05	0	0	0
6.45224e-05	0	0	0
6.52921e-05	0	0	0
6.53987e-05	0	0	0
6.55846e-05	0	0	0
6.56285e-05	0	0	0
6.60607e-05	0	0	0
6.61168e-05	0	0	0
6.61413e-05	0	0	0
6.67962e-05	0	0	0
6.68441e-05	0	0	0
6.69299e-05	0	0	0
6.70081e-05	0	0	0
6.7035e-05	0	0	0
6.71571e-05	0	0	0
6.71718e-05	0	0	0
6.72977e-05	0	0	0
6.74603e-05	0	0	0
6.7475e-05	0	0	0
6.74917e-05	0	0	0
6.76489e-05	0	0	0
6.76783e-05	0	0	0
6.78345e-05	0	0	0
6.82506e-05	0	0	0
6.82733e-05	0	0	0
6.84266e-05	0	0	0
6.84347e-05	0	0	0
6.85681e-05	0	0	0
6.91295e-05	0	0	0
6.91536e-05	0	0	0
6.92565e-05	0	0	0
6.94969e-05	0	0	0
6.98378e-05	0	0	0
7.01596e-05	0	0	0
7.13973e-05	0	0	0
7.14496e-05	0	0	0
7.14751e-05	0	0	0
7.15513e-05	0	0	0
7.22952e-05	0	0	0
7.28659e-05	0	0	0
7.35356e-05	0	0	0
7.38262e-05	0	0	0
7.40828e-05	0	0	0
7.46003e-05	0	0	0
7.46626e-05	0	0	0
7.5994e-05	0	0	0
7.66144e-05	0	0	0
7.67475e-05	0	0	0
7.68268e-05	0	0	0
7.75324e-05	0	0	0
7.80535e-05	0	0	0
7.8088e-05	0	0	0
7.81303e-05	0	0	0
7.81762e-05	0	0	0
7.90578e-05	0	0	0
7.93451e-05	0	0	0
7.96371e-05	0	0	0
7.97932e-05	0	0	0
7.99274e-05	0	0	0
7.99377e-05	0	0	0
8.01448e-05	0	0	0
8.01569e-05	0	0	0
8.02062e-05	0	0	0
8.04755e-05	0	0	0
8.06716e-05	0	0	0
8.07041e-05	0	0	0
8.09259e-05	0	0	0
8.10013e-05	0	0	0
8.13847e-05	0	0	0
8.14368e-05	0	0	0
8.22297e-05	0	0	0
8.23855e-05	0	0	0
8.24353e-05	0	0	0
8.26791e-05	0	0	0
8.40691e-05	0	0	0
8.43336e-05	0	0	0
8.54165e-05	0	0	0
8.54577e-05	0	0	0
8.55296e-05	0	0	0
8.57073e-05	0	0	0
8.57233e-05	0	0	0
8.57975e-05	0	0	0
8.58581e-05	0	0	0
8.60355e-05	0	0	0
8.71887e-05	0	0	0
8.76532e-05	0	0	0
8.97316e-05	0	0	0
8.98934e-05	0	0	0
9.03708e-05	0	0	0
9.04885e-05	0	0	0
9.12092e-05	0	0	0
9.144e-05	0	0	0
9.16167e-05	0	0	0
9.30178e-05	0	0	0
9.37497e-05	0	0	0
9.49831e-05	0	0	0
9.67672e-05	0	0	0
9.71772e-05	0	0	0
9.7359e-05	0	0	0
9.76887e-05	0	0	0
9.77262e-05	0	0	0
9.78775e-05	0	0	0
9.80242e-05	0	0	0
9.8494e-05	0	0	0
9.87505e-05	0	0	0
9.88494e-05	0	0	0
9.94516e-05	0	0	0
9.99964e-05	0	0	0
0.000100305	0	0	0
0.000100351	0	0	0
0.000100473	0	0	0
0.000100583	0	0	0
0.000100997	0	0	0
0.000101875	0	0	0
0.000102165	0	0	0
0.000102527	0	0	0
0.000103569	0	0	0
0.000103783	0	0	0
0.000104675	0	0	0
0.000104819	0	0	0
0.000104881	0	0	0
0.000105152	0	0	0
0.000105428	0	0	0
0.000106033	0	0	0
0.00010631	0	0	0
0.0001068	0	0	0
0.000107751	0	0	0
0.000107839	0	0	0
0.000107925	0	0	0
0.000108241	0	0	0
0.000108471	0	0	0
0.000110046	0	0	0
0.000111851	0	0	0
0.000112184	0	0	0
0.000112248	0	0	0
0.000112316	0	0	0
0.000114429	0	0	0
0.000114813	0	0	0
0.000115266	0	0	0
0.000115505	0	0	0
0.000116066	0	0	0
0.000116151	0	0	0
0.000116967	0	0	0
0.000118129	0	0	0
0.000118364	0	0	0
0.000118406	0	0	0
0.000120064	0	0	0
0.000120515	0	0	0
0.000120615	0	0	0
0.000121182	0	0	0
0.000121367	0	0	0
0.000122027	0	0	0
0.000122131	0	0	0
0.000123158	0	0	0
0.000125036	0	0	0
0.000125481	0	0	0
0.000125784	0	0	0
0.000125829	0	0	0
0.000126744	0	0	0
0.000129905	0	0	0
0.000130287	0	0	0
0.00013043	0	0	0
0.000131314	0	0	0
0.000133986	0	0	0
0.000135423	0	0	0
0.000136426	0	0	0
0.000136795	0	0	0
0.000137591	0	0	0
0.000139834	0	0	0
0.000140625	0	0	0
0.000140743	0	0	0
0.000141595	0	0	0
0.000141792	0	0	0
0.000142127	0	0	0
0.000143195	0	0	0
0.000143442	0	0	0
0.000145321	0	0	0
0.000147452	0	0	0
0.000149759	0	0	0
0.000150692	0	0	0
0.000151364	0	0	0
0.000151659	0	0	0
0.000152341	0	0	0
0.000152698	0	0	0
0.000155172	0	0	0
0.000156915	0	0	0
0.000157042	0	0	0
0.000160363	0	0	0
0.000160878	0	0	0
0.000163297	0	0	0
0.000165953	0	0	0
0.000167004	0	0	0
0.000168428	0	0	0
0.000168639	0	0	0
0.000170285	0	0	0
0.000170351	0	0	0
0.000174167	0	0	0
0.000174442	0	0	0
0.000178118	0	0	0
0.000178607	0	0	0
0.000180341	0	0	0
0.000181282	0	0	0
0.000181823	0	0	0
0.000182172	0	0	0
0.000190519	0	0	0
0.000192417	0	0	0
0.000197709	0	0	0
0.00019999	0	0	0
0.000204202	0	0	0
0.00020751	0	0	0
0.00021029	0	0	0
0.000214277	0	0	0
0.000214492	0	0	0
0.000224916	0	0	0
0.000228622	0	0	0
0.000229659	0	0	0
0.000229673	0	0	0
0.000234988	0	0	0
0.000236912	0	0	0
0.000241136	0	0	0
0.000244309	0	0	0
0.000254758	0	0	0
0.000255917	0	0	0
0.000263388	0	0	0
0.00026573	0	0	0
0.000268836	0	0	0
0.00027203	0	0	0
0.000277621	0	0	0
0.000289021	0	0	0
0.000290278	0	0	0
0.000293108	0	0	0
0.000294817	0	0	0
0.000295613	0	0	0
0.000302064	0	0	0
0.000307236	0	0	0
0.000312608	0	0	0
0.000313737	0	0	0
0.000314531	0	0	0
0.000349469	0	0	0
0.000440163	0	0	0
0.000474252	0	0	0
0.00048214	0	0	0
0.000504295	0	0	0
0.000524513	0	0	0
0.000529455	0	0	0
0.000542167	0	0	0
0.000551489	0	0	0
0.000557759	0	0	0
0.000581095	0	0	0
0.000603764	0	0	0
0.000604462	0	0	0
0.000610886	0	0	0
0.000620597	0	0	0
0.000643773	0	0	0
0.000663726	0	0	0
0.000666211	0	0	0
0.000718678	0	0	0
0.000831611	0	0	0
0.000883765	0	0	0
0.000889209	0	0	0
0.000921265	0	0	0
0.000962788	0	0	0
0.000966033	0	0	0
0.000968191	0	0	0
0.00101319	0	0	0
0.00103728	0	0	0
0.00104517	0	0	0
0.00105261	0	0	0
0.00111572	0	0	0
0.00112665	0	0	0
0.00127447	0	0	0
0.00131287	0	0	0
0.00170268	0	0	0
0.00173134	0	0	0
0.00176783	0	0	0
0.00182524	0	0	0
0.00187507	0	0	0
0.00190532	0	0	0
0.00196621	0	0	0
0.00211083	0	0	0
0.00222843	0	0	0
0.00299895	0	0	0
0.00303028	0	0	0
0.00314733	0	0	0
0.00325797	0	0	0
0.00363129	0	0	0
0.00386243	0	0	0
0.00443884	0	0	0
0.0045486	0	0	0
0.00509587	0	0	0
0.00540505	0	0	0
0.00568466	0	0	0
0.00585637	0	0	0
0.00915468	0	0	0
0.0142022	0	0	0
