6.80125e-08	0	0	0
1.40253e-07	0	0	0
2.5083e-07	0	0	0
2.5992e-07	0	0	0
3.75657e-07	0	0	0
4.15835e-07	0	0	0
5.9842e-07	0	0	0
7.13305e-07	0	0	0
1.15164e-06	0	0	0
1.15912e-06	0	0	0
1.25608e-06	0	0	0
1.29994e-06	0	0	0
1.32464e-06	0	0	0
1.34259e-06	0	0	0
1.38593e-06	0	0	0
1.46053e-06	0	0	0
1.49668e-06	0	0	0
1.6299e-06	0	0	0
1.63571e-06	0	0	0
1.78598e-06	0	0	0
1.94736e-06	0	0	0
1.96159e-06	0	0	0
2.01432e-06	0	0	0
2.05037e-06	0	0	0
2.05768e-06	0	0	0
2.07203e-06	0	0	0
2.12724e-06	0	0	0
2.17032e-06	0	0	0
2.47056e-06	0	0	0
2.51456e-06	0	0	0
2.89855e-06	0	0	0
3.36964e-06	0	0	0
3.52231e-06	0	0	0
3.54786e-06	0	0	0
3.66347e-06	0	0	0
3.70432e-06	0	0	0
3.71261e-06	0	0	0
3.72292e-06	0	0	0
3.72487e-06	0	0	0
3.74793e-06	0	0	0
3.88726e-06	0	0	0
3.92322e-06	0	0	0
3.95983e-06	0	0	0
4.00364e-06	0	0	0
4.0971e-06	0	0	0
4.11856e-06	0	0	0
4.50613e-06	0	0	0
4.5886e-06	0	0	0
4.83676e-06	0	0	0
4.85557e-06	0	0	0
5.0757e-06	0	0	0
5.29979e-06	0	0	0
5.56036e-06	0	0	0
5.74294e-06	0	0	0
5.89545e-06	0	0	0
5.91674e-06	0	0	0
5.97324e-06	0	0	0
6.17494e-06	0	0	0
6.18956e-06	0	0	0
6.22207e-06	0	0	0
6.31941e-06	0	0	0
6.38291e-06	0	0	0
6.40729e-06	0	0	0
6.50287e-06	0	0	0
6.51906e-06	0	0	0
6.64904e-06	0	0	0
6.77006e-06	0	0	0
6.89054e-06	0	0	0
7.15387e-06	0	0	0
7.29065e-06	0	0	0
7.33567e-06	0	0	0
7.33932e-06	0	0	0
7.52465e-06	0	0	0
7.71247e-06	0	0	0
7.75387e-06	0	0	0
8.46086e-06	0	0	0
8.51465e-06	0	0	0
8.52064e-06	0	0	0
8.73263e-06	0	0	0
8.77111e-06	0	0	0
8.77376e-06	0	0	0
8.86797e-06	0	0	0
9.00244e-06	0	0	0
9.1854e-06	0	0	0
9.28643e-06	0	0	0
9.41177e-06	0	0	0
9.62943e-06	0	0	0
9.79052e-06	0	0	0
9.7978e-06	0	0	0
9.91632e-06	0	0	0
1.00832e-05	0	0	0
1.01206e-05	0	0	0
1.02508e-05	0	0	0
1.0262e-05	0	0	0
1.04755e-05	0	0	0
1.06481e-05	0	0	0
1.06987e-05	0	0	0
1.13487e-05	0	0	0
1.1518e-05	0	0	0
1.17814e-05	0	0	0
1.18565e-05	0	0	0
1.1904e-05	0	0	0
1.2008e-05	0	0	0
1.22127e-05	0	0	0
1.24322e-05	0	0	0
1.25487e-05	0	0	0
1.2627e-05	0	0	0
1.27171e-05	0	0	0
1.27424e-05	0	0	0
1.29143e-05	0	0	0
1.29198e-05	0	0	0
1.32394e-05	0	0	0
1.32406e-05	0	0	0
1.33776e-05	0	0	0
1.36442e-05	0	0	0
1.36573e-05	0	0	0
1.38182e-05	0	0	0
1.38832e-05	0	0	0
1.40552e-05	0	0	0
1.40707e-05	0	0	0
1.42908e-05	0	0	0
1.43409e-05	0	0	0
1.43864e-05	0	0	0
1.44543e-05	0	0	0
1.45337e-05	0	0	0
1.47901e-05	0	0	0
1.51411e-05	0	0	0
1.51538e-05	0	0	0
1.53131e-05	0	0	0
1.54134e-05	0	0	0
1.5432e-05	0	0	0
1.54328e-05	0	0	0
1.57647e-05	0	0	0
1.58926e-05	0	0	0
1.59269e-05	0	0	0
1.60048e-05	0	0	0
1.6066e-05	0	0	0
1.60869e-05	0	0	0
1.63709e-05	0	0	0
1.64668e-05	0	0	0
1.66104e-05	0	0	0
1.68821e-05	0	0	0
1.71238e-05	0	0	0
1.72559e-05	0	0	0
1.73506e-05	0	0	0
1.73611e-05	0	0	0
1.76231e-05	0	0	0
1.76977e-05	0	0	0
1.77059e-05	0	0	0
1.77606e-05	0	0	0
1.78314e-05	0	0	0
1.78367e-05	0	0	0
1.79619e-05	0	0	0
1.81076e-05	0	0	0
1.82584e-05	0	0	0
1.84661e-05	0	0	0
1.85467e-05	0	0	0
1.86263e-05	0	0	0
1.88718e-05	0	0	0
1.90855e-05	0	0	0
1.91675e-05	0	0	0
1.93451e-05	0	0	0
1.94618e-05	0	0	0
1.98523e-05	0	0	0
1.98526e-05	0	0	0
1.98966e-05	0	0	0
1.99293e-05	0	0	0
2.01733e-05	0	0	0
2.02391e-05	0	0	0
2.05028e-05	0	0	0
2.09452e-05	0	0	0
2.09804e-05	0	0	0
2.1391e-05	0	0	0
2.14306e-05	0	0	0
2.14938e-05	0	0	0
2.16558e-05	0	0	0
2.17087e-05	0	0	0
2.20072e-05	0	0	0
2.22349e-05	0	0	0
2.22517e-05	0	0	0
2.24798e-05	0	0	0
2.27894e-05	0	0	0
2.29939e-05	0	0	0
2.30553e-05	0	0	0
2.31199e-05	0	0	0
2.32327e-05	0	0	0
2.33057e-05	0	0	0
2.35306e-05	0	0	0
2.38453e-05	0	0	0
2.38806e-05	0	0	0
2.38927e-05	0	0	0
2.42465e-05	0	0	0
2.42495e-05	0	0	0
2.42641e-05	0	0	0
2.4357e-05	0	0	0
2.47559e-05	0	0	0
2.55599e-05	0	0	0
2.56381e-05	0	0	0
2.60552e-05	0	0	0
2.61758e-05	0	0	0
2.61857e-05	0	0	0
2.66962e-05	0	0	0
2.68273e-05	0	0	0
2.6842e-05	0	0	0
2.73091e-05	0	0	0
2.77078e-05	0	0	0
2.78259e-05	0	0	0
2.7986e-05	0	0	0
2.83318e-05	0	0	0
2.83663e-05	0	0	0
2.86418e-05	0	0	0
2.88805e-05	0	0	0
2.91301e-05	0	0	0
2.92721e-05	0	0	0
2.97525e-05	0	0	0
3.03041e-05	0	0	0
3.06507e-05	0	0	0
3.10685e-05	0	0	0
3.10847e-05	0	0	0
3.11771e-05	0	0	0
3.12442e-05	0	0	0
3.13229e-05	0	0	0
3.16175e-05	0	0	0
3.18048e-05	0	0	0
3.18338e-05	0	0	0
3.19589e-05	0	0	0
3.25667e-05	0	0	0
3.25803e-05	0	0	0
3.27807e-05	0	0	0
3.29719e-05	0	0	0
3.36743e-05	0	0	0
3.40215e-05	0	0	0
3.43828e-05	0	0	0
3.46123e-05	0	0	0
3.48773e-05	0	0	0
3.52738e-05	0	0	0
3.53882e-05	0	0	0
3.57455e-05	0	0	0
3.57787e-05	0	0	0
3.60495e-05	0	0	0
3.62688e-05	0	0	0
3.62779e-05	0	0	0
3.62963e-05	0	0	0
3.64673e-05	0	0	0
3.64681e-05	0	0	0
3.65212e-05	0	0	0
3.66246e-05	0	0	0
3.71692e-05	0	0	0
3.74103e-05	0	0	0
3.74714e-05	0	0	0
3.75163e-05	0	0	0
3.78958e-05	0	0	0
3.80119e-05	0	0	0
3.80436e-05	0	0	0
3.81591e-05	0	0	0
3.82548e-05	0	0	0
3.83005e-05	0	0	0
3.84541e-05	0	0	0
3.88932e-05	0	0	0
3.89741e-05	0	0	0
3.93221e-05	0	0	0
3.94586e-05	0	0	0
3.9932e-05	0	0	0
4.03188e-05	0	0	0
4.08398e-05	0	0	0
4.09137e-05	0	0	0
4.11019e-05	0	0	0
4.14331e-05	0	0	0
4.15279e-05	0	0	0
4.16381e-05	0	0	0
4.23364e-05	0	0	0
4.25408e-05	0	0	0
4.27535e-05	0	0	0
4.29439e-05	0	0	0
4.29688e-05	0	0	0
4.30656e-05	0	0	0
4.32384e-05	0	0	0
4.34618e-05	0	0	0
4.3535e-05	0	0	0
4.37915e-05	0	0	0
4.43402e-05	0	0	0
4.44468e-05	0	0	0
4.46267e-05	0	0	0
4.48982e-05	0	0	0
4.50774e-05	0	0	0
4.51495e-05	0	0	0
4.5175e-05	0	0	0
4.51881e-05	0	0	0
4.54133e-05	0	0	0
4.59585e-05	0	0	0
4.61108e-05	0	0	0
4.64687e-05	0	0	0
4.69667e-05	0	0	0
4.69939e-05	0	0	0
4.70481e-05	0	0	0
4.76034e-05	0	0	0
4.84196e-05	0	0	0
4.86549e-05	0	0	0
4.88553e-05	0	0	0
4.91135e-05	0	0	0
4.94086e-05	0	0	0
4.99868e-05	0	0	0
5.02566e-05	0	0	0
5.03773e-05	0	0	0
5.06296e-05	0	0	0
5.06574e-05	0	0	0
5.14744e-05	0	0	0
5.15611e-05	0	0	0
5.1629e-05	0	0	0
5.16349e-05	0	0	0
5.21005e-05	0	0	0
5.25256e-05	0	0	0
5.26401e-05	0	0	0
5.27964e-05	0	0	0
5.28431e-05	0	0	0
5.30177e-05	0	0	0
5.3156e-05	0	0	0
5.33209e-05	0	0	0
5.3371e-05	0	0	0
5.35718e-05	0	0	0
5.38733e-05	0	0	0
5.39778e-05	0	0	0
5.41849e-05	0	0	0
5.42335e-05	0	0	0
5.51873e-05	0	0	0
5.52558e-05	0	0	0
5.529e-05	0	0	0
5.53614e-05	0	0	0
5.53708e-05	0	0	0
5.5374e-05	0	0	0
5.56613e-05	0	0	0
5.56641e-05	0	0	0
5.65048e-05	0	0	0
5.69387e-05	0	0	0
5.73218e-05	0	0	0
5.76361e-05	0	0	0
5.7691e-05	0	0	0
5.86005e-05	0	0	0
5.91381e-05	0	0	0
5.91568e-05	0	0	0
5.91776e-05	0	0	0
5.97329e-05	0	0	0
6.03347e-05	0	0	0
6.04047e-05	0	0	0
6.05461e-05	0	0	0
6.06204e-05	0	0	0
6.11016e-05	0	0	0
6.23443e-05	0	0	0
6.30848e-05	0	0	0
6.34011e-05	0	0	0
6.35086e-05	0	0	0
6.3663e-05	0	0	0
6.36969e-05	0	0	0
6.39655e-05	0	0	0
6.40311e-05	0	0	0
6.41949e-05	0	0	0
6.46799e-05	0	0	0
6.48007e-05	0	0	0
6.48341e-05	0	0	0
6.53419e-05	0	0	0
6.54123e-05	0	0	0
6.54496e-05	0	0	0
6.57023e-05	0	0	0
6.59218e-05	0	0	0
6.61577e-05	0	0	0
6.63375e-05	0	0	0
6.65739e-05	0	0	0
6.66538e-05	0	0	0
6.66542e-05	0	0	0
6.67567e-05	0	0	0
6.68817e-05	0	0	0
6.71057e-05	0	0	0
6.71125e-05	0	0	0
6.76786e-05	0	0	0
6.83456e-05	0	0	0
6.85507e-05	0	0	0
6.88114e-05	0	0	0
6.9143e-05	0	0	0
6.95877e-05	0	0	0
7.00645e-05	0	0	0
7.10628e-05	0	0	0
7.13959e-05	0	0	0
7.14955e-05	0	0	0
7.15955e-05	0	0	0
7.17116e-05	0	0	0
7.21217e-05	0	0	0
7.21557e-05	0	0	0
7.23549e-05	0	0	0
7.2451e-05	0	0	0
7.2629e-05	0	0	0
7.27401e-05	0	0	0
7.30699e-05	0	0	0
7.30864e-05	0	0	0
7.34345e-05	0	0	0
7.39795e-05	0	0	0
7.47348e-05	0	0	0
7.54024e-05	0	0	0
7.55127e-05	0	0	0
7.61416e-05	0	0	0
7.61785e-05	0	0	0
7.62984e-05	0	0	0
7.6834e-05	0	0	0
7.72206e-05	0	0	0
7.79954e-05	0	0	0
7.92421e-05	0	0	0
7.93046e-05	0	0	0
7.94739e-05	0	0	0
7.99151e-05	0	0	0
8.04409e-05	0	0	0
8.05054e-05	0	0	0
8.12146e-05	0	0	0
8.19497e-05	0	0	0
8.25638e-05	0	0	0
8.27534e-05	0	0	0
8.28691e-05	0	0	0
8.30042e-05	0	0	0
8.36903e-05	0	0	0
8.37732e-05	0	0	0
8.41376e-05	0	0	0
8.57637e-05	0	0	0
8.59151e-05	0	0	0
8.67224e-05	0	0	0
8.6799e-05	0	0	0
8.75966e-05	0	0	0
8.76253e-05	0	0	0
8.80351e-05	0	0	0
8.82988e-05	0	0	0
8.89666e-05	0	0	0
8.91839e-05	0	0	0
8.95786e-05	0	0	0
9.0181e-05	0	0	0
9.15091e-05	0	0	0
9.16098e-05	0	0	0
9.23502e-05	0	0	0
9.25599e-05	0	0	0
9.35607e-05	0	0	0
9.43148e-05	0	0	0
9.56454e-05	0	0	0
9.56848e-05	0	0	0
9.58091e-05	0	0	0
9.59925e-05	0	0	0
9.63649e-05	0	0	0
9.69287e-05	0	0	0
9.75539e-05	0	0	0
9.76944e-05	0	0	0
9.7696e-05	0	0	0
9.79761e-05	0	0	0
9.81199e-05	0	0	0
9.84596e-05	0	0	0
9.90724e-05	0	0	0
9.90821e-05	0	0	0
9.9553e-05	0	0	0
0.000100369	0	0	0
0.000100615	0	0	0
0.000100866	0	0	0
0.000101244	0	0	0
0.000102432	0	0	0
0.000102933	0	0	0
0.000103524	0	0	0
0.000104748	0	0	0
0.000105423	0	0	0
0.000106686	0	0	0
0.000106876	0	0	0
0.000107403	0	0	0
0.000107418	0	0	0
0.000107497	0	0	0
0.000107758	0	0	0
0.000107788	0	0	0
0.000107884	0	0	0
0.000108486	0	0	0
0.000109104	0	0	0
0.000110221	0	0	0
0.000110556	0	0	0
0.000110909	0	0	0
0.000111413	0	0	0
0.000112343	0	0	0
0.000112465	0	0	0
0.000113012	0	0	0
0.00011323	0	0	0
0.00011382	0	0	0
0.000113935	0	0	0
0.000114484	0	0	0
0.000114729	0	0	0
0.000114774	0	0	0
0.000114777	0	0	0
0.000115224	0	0	0
0.000115547	0	0	0
0.000115851	0	0	0
0.000116379	0	0	0
0.000116929	0	0	0
0.000118008	0	0	0
0.000118571	0	0	0
0.000120278	0	0	0
0.00012032	0	0	0
0.000120826	0	0	0
0.000121375	0	0	0
0.000122005	0	0	0
0.000122722	0	0	0
0.000122792	0	0	0
0.000122958	0	0	0
0.00012326	0	0	0
0.000123676	0	0	0
0.000124038	0	0	0
0.000125054	0	0	0
0.000125132	0	0	0
0.000125177	0	0	0
0.000126881	0	0	0
0.000127515	0	0	0
0.000127613	0	0	0
0.000128745	0	0	0
0.000128943	0	0	0
0.000130213	0	0	0
0.000130858	0	0	0
0.000131691	0	0	0
0.00013206	0	0	0
0.000134065	0	0	0
0.000134155	0	0	0
0.000134162	0	0	0
0.000135172	0	0	0
0.000135307	0	0	0
0.00013586	0	0	0
0.000136118	0	0	0
0.000136368	0	0	0
0.000136465	0	0	0
0.000136604	0	0	0
0.000136675	0	0	0
0.000137036	0	0	0
0.000137718	0	0	0
0.000138473	0	0	0
0.000138908	0	0	0
0.000139173	0	0	0
0.000139402	0	0	0
0.000140663	0	0	0
0.000141238	0	0	0
0.000141832	0	0	0
0.000142632	0	0	0
0.000142906	0	0	0
0.000143002	0	0	0
0.000143476	0	0	0
0.000143614	0	0	0
0.000143975	0	0	0
0.000144309	0	0	0
0.000144653	0	0	0
0.000144855	0	0	0
0.00014523	0	0	0
0.0001457	0	0	0
0.00014632	0	0	0
0.000146564	0	0	0
0.000146822	0	0	0
0.000147137	0	0	0
0.000147446	0	0	0
0.00014802	0	0	0
0.000148277	0	0	0
0.000148327	0	0	0
0.000149317	0	0	0
0.000149387	0	0	0
0.000149757	0	0	0
0.000149953	0	0	0
0.000150039	0	0	0
0.00015021	0	0	0
0.000150394	0	0	0
0.000151515	0	0	0
0.000151746	0	0	0
0.000151746	0	0	0
0.000151831	0	0	0
0.000152053	0	0	0
0.000152362	0	0	0
0.000154144	0	0	0
0.00015553	0	0	0
0.000156011	0	0	0
0.000157323	0	0	0
0.000157357	0	0	0
0.0001576	0	0	0
0.000158447	0	0	0
0.000159388	0	0	0
0.000159473	0	0	0
0.000161111	0	0	0
0.00016137	0	0	0
0.000161412	0	0	0
0.000161497	0	0	0
0.000161666	0	0	0
0.000163029	0	0	0
0.000163718	0	0	0
0.000164607	0	0	0
0.000166052	0	0	0
0.000166073	0	0	0
0.000167363	0	0	0
0.000167666	0	0	0
0.000169316	0	0	0
0.000169532	0	0	0
0.000170737	0	0	0
0.000171326	0	0	0
0.00017176	0	0	0
0.000172025	0	0	0
0.000173125	0	0	0
0.000173243	0	0	0
0.000174746	0	0	0
0.000175777	0	0	0
0.000175965	0	0	0
0.00017615	0	0	0
0.000176217	0	0	0
0.000177657	0	0	0
0.000178479	0	0	0
0.000178782	0	0	0
0.000178896	0	0	0
0.000179396	0	0	0
0.000179624	0	0	0
0.000179633	0	0	0
0.000181954	0	0	0
0.000182236	0	0	0
0.000186145	0	0	0
0.000187678	0	0	0
0.000188386	0	0	0
0.000189481	0	0	0
0.000190697	0	0	0
0.000191925	0	0	0
0.000192004	0	0	0
0.00019386	0	0	0
0.000194803	0	0	0
0.000195105	0	0	0
0.000196391	0	0	0
0.000198895	0	0	0
0.000203429	0	0	0
0.000204596	0	0	0
0.000204913	0	0	0
0.000209571	0	0	0
0.000211619	0	0	0
0.000212601	0	0	0
0.000212791	0	0	0
0.000213281	0	0	0
0.000213289	0	0	0
0.000215031	0	0	0
0.000218067	0	0	0
0.000218299	0	0	0
0.000218366	0	0	0
0.000219473	0	0	0
0.000219781	0	0	0
0.000220563	0	0	0
0.0002219	0	0	0
0.000224128	0	0	0
0.000226186	0	0	0
0.000227405	0	0	0
0.000230443	0	0	0
0.00023072	0	0	0
0.000231446	0	0	0
0.000231912	0	0	0
0.000234277	0	0	0
0.000234296	0	0	0
0.000234725	0	0	0
0.000235019	0	0	0
0.000235995	0	0	0
0.000242309	0	0	0
0.000243736	0	0	0
0.000245022	0	0	0
0.000246233	0	0	0
0.000246959	0	0	0
0.000247174	0	0	0
0.000247358	0	0	0
0.000247616	0	0	0
0.000249593	0	0	0
0.000249713	0	0	0
0.000254887	0	0	0
0.000256432	0	0	0
0.000257136	0	0	0
0.000257302	0	0	0
0.00025764	0	0	0
0.000257704	0	0	0
0.000258607	0	0	0
0.000268267	0	0	0
0.000268696	0	0	0
0.000269735	0	0	0
0.000270128	0	0	0
0.000272691	0	0	0
0.000272809	0	0	0
0.000273934	0	0	0
0.000275623	0	0	0
0.000279611	0	0	0
0.000281592	0	0	0
0.000286311	0	0	0
0.00029205	0	0	0
0.000297927	0	0	0
0.000301558	0	0	0
0.000301749	0	0	0
0.000304878	0	0	0
0.000304899	0	0	0
0.000305521	0	0	0
0.000321016	0	0	0
0.000321532	0	0	0
0.000324962	0	0	0
0.00032557	0	0	0
0.000337586	0	0	0
0.000344883	0	0	0
0.000345985	0	0	0
0.000346719	0	0	0
0.000346862	0	0	0
0.000350894	0	0	0
0.000358917	0	0	0
0.000361708	0	0	0
0.000367608	0	0	0
0.000369966	0	0	0
0.000378764	0	0	0
0.000380454	0	0	0
0.000388279	0	0	0
0.000395916	0	0	0
0.000406371	0	0	0
0.000408317	0	0	0
0.000411875	0	0	0
0.000415493	0	0	0
0.000428087	0	0	0
0.00043173	0	0	0
0.00043677	0	0	0
0.000452579	0	0	0
0.000456897	0	0	0
0.000456907	0	0	0
0.000467747	0	0	0
0.000474238	0	0	0
0.0004781	0	0	0
0.000492593	0	0	0
0.000511979	0	0	0
0.000521796	0	0	0
0.000525717	0	0	0
0.00052839	0	0	0
0.000532418	0	0	0
0.000532594	0	0	0
0.000532798	0	0	0
0.000546693	0	0	0
0.000561257	0	0	0
0.000584793	0	0	0
0.000600216	0	0	0
0.000611103	0	0	0
0.000618265	0	0	0
0.000618882	0	0	0
0.000620016	0	0	0
0.00062199	0	0	0
0.000667113	0	0	0
0.000679652	0	0	0
0.00068477	0	0	0
0.000690951	0	0	0
0.00077004	0	0	0
0.000825337	0	0	0
0.000879891	0	0	0
0.000906028	0	0	0
0.00104688	0	0	0
0.0010761	0	0	0
0.00107802	0	0	0
0.00113279	0	0	0
