2.97292e-07	0	0	0
3.56043e-07	0	0	0
4.46569e-07	0	0	0
6.89543e-07	0	0	0
7.62601e-07	0	0	0
1.37621e-06	0	0	0
1.53104e-06	0	0	0
1.53854e-06	0	0	0
1.54733e-06	0	0	0
1.6497e-06	0	0	0
1.67333e-06	0	0	0
1.68221e-06	0	0	0
2.05375e-06	0	0	0
2.07857e-06	0	0	0
2.18657e-06	0	0	0
2.20711e-06	0	0	0
2.27484e-06	0	0	0
2.36324e-06	0	0	0
2.61102e-06	0	0	0
2.67969e-06	0	0	0
2.70999e-06	0	0	0
2.84337e-06	0	0	0
2.92015e-06	0	0	0
3.04976e-06	0	0	0
3.05986e-06	0	0	0
3.10334e-06	0	0	0
3.30479e-06	0	0	0
3.46505e-06	0	0	0
3.53789e-06	0	0	0
3.64286e-06	0	0	0
3.8041e-06	0	0	0
3.80736e-06	0	0	0
4.01448e-06	0	0	0
4.02333e-06	0	0	0
4.07903e-06	0	0	0
4.14991e-06	0	0	0
4.23982e-06	0	0	0
4.31178e-06	0	0	0
4.60632e-06	0	0	0
4.66744e-06	0	0	0
4.79754e-06	0	0	0
4.95964e-06	0	0	0
5.06403e-06	0	0	0
5.16349e-06	0	0	0
5.16399e-06	0	0	0
5.3369e-06	0	0	0
5.40981e-06	0	0	0
5.48269e-06	0	0	0
5.5809e-06	0	0	0
5.61038e-06	0	0	0
5.64297e-06	0	0	0
5.65541e-06	0	0	0
5.69995e-06	0	0	0
5.78824e-06	0	0	0
5.95508e-06	0	0	0
6.35191e-06	0	0	0
6.44435e-06	0	0	0
7.24609e-06	0	0	0
7.2475e-06	0	0	0
7.45575e-06	0	0	0
7.54617e-06	0	0	0
7.72976e-06	0	0	0
7.80192e-06	0	0	0
8.38292e-06	0	0	0
8.40027e-06	0	0	0
8.44979e-06	0	0	0
8.68416e-06	0	0	0
8.79922e-06	0	0	0
8.9784e-06	0	0	0
9.3072e-06	0	0	0
9.35917e-06	0	0	0
9.49651e-06	0	0	0
9.53753e-06	0	0	0
9.57341e-06	0	0	0
9.66256e-06	0	0	0
9.71314e-06	0	0	0
9.73739e-06	0	0	0
9.75554e-06	0	0	0
9.84998e-06	0	0	0
9.91725e-06	0	0	0
9.96012e-06	0	0	0
1.03454e-05	0	0	0
1.07345e-05	0	0	0
1.07543e-05	0	0	0
1.07665e-05	0	0	0
1.07886e-05	0	0	0
1.08519e-05	0	0	0
1.091e-05	0	0	0
1.09979e-05	0	0	0
1.11123e-05	0	0	0
1.11199e-05	0	0	0
1.12446e-05	0	0	0
1.14146e-05	0	0	0
1.15212e-05	0	0	0
1.17288e-05	0	0	0
1.17839e-05	0	0	0
1.19975e-05	0	0	0
1.20387e-05	0	0	0
1.2226e-05	0	0	0
1.22348e-05	0	0	0
1.2341e-05	0	0	0
1.2707e-05	0	0	0
1.2791e-05	0	0	0
1.28929e-05	0	0	0
1.29071e-05	0	0	0
1.32988e-05	0	0	0
1.34326e-05	0	0	0
1.34422e-05	0	0	0
1.3469e-05	0	0	0
1.3655e-05	0	0	0
1.37261e-05	0	0	0
1.39251e-05	0	0	0
1.39732e-05	0	0	0
1.40491e-05	0	0	0
1.41544e-05	0	0	0
1.45544e-05	0	0	0
1.46361e-05	0	0	0
1.48753e-05	0	0	0
1.51938e-05	0	0	0
1.52068e-05	0	0	0
1.5303e-05	0	0	0
1.54588e-05	0	0	0
1.56947e-05	0	0	0
1.58791e-05	0	0	0
1.67876e-05	0	0	0
1.69347e-05	0	0	0
1.70117e-05	0	0	0
1.75067e-05	0	0	0
1.76224e-05	0	0	0
1.7656e-05	0	0	0
1.7682e-05	0	0	0
1.80867e-05	0	0	0
1.81924e-05	0	0	0
1.81976e-05	0	0	0
1.82912e-05	0	0	0
1.83535e-05	0	0	0
1.88513e-05	0	0	0
1.88852e-05	0	0	0
1.89128e-05	0	0	0
1.89302e-05	0	0	0
1.90398e-05	0	0	0
1.92231e-05	0	0	0
1.92658e-05	0	0	0
1.93444e-05	0	0	0
1.96915e-05	0	0	0
1.98314e-05	0	0	0
1.98569e-05	0	0	0
2.03017e-05	0	0	0
2.0343e-05	0	0	0
2.03458e-05	0	0	0
2.04541e-05	0	0	0
2.06386e-05	0	0	0
2.09236e-05	0	0	0
2.09979e-05	0	0	0
2.12335e-05	0	0	0
2.13586e-05	0	0	0
2.13642e-05	0	0	0
2.15283e-05	0	0	0
2.15647e-05	0	0	0
2.15747e-05	0	0	0
2.15872e-05	0	0	0
2.17948e-05	0	0	0
2.19462e-05	0	0	0
2.19587e-05	0	0	0
2.20624e-05	0	0	0
2.21102e-05	0	0	0
2.23124e-05	0	0	0
2.2406e-05	0	0	0
2.24082e-05	0	0	0
2.27277e-05	0	0	0
2.28523e-05	0	0	0
2.30441e-05	0	0	0
2.34538e-05	0	0	0
2.3491e-05	0	0	0
2.36483e-05	0	0	0
2.38064e-05	0	0	0
2.38332e-05	0	0	0
2.39939e-05	0	0	0
2.42056e-05	0	0	0
2.46169e-05	0	0	0
2.46425e-05	0	0	0
2.4976e-05	0	0	0
2.50857e-05	0	0	0
2.51495e-05	0	0	0
2.51695e-05	0	0	0
2.52037e-05	0	0	0
2.53697e-05	0	0	0
2.54685e-05	0	0	0
2.56132e-05	0	0	0
2.56882e-05	0	0	0
2.5701e-05	0	0	0
2.57503e-05	0	0	0
2.66229e-05	0	0	0
2.67193e-05	0	0	0
2.67422e-05	0	0	0
2.67727e-05	0	0	0
2.67957e-05	0	0	0
2.68739e-05	0	0	0
2.72822e-05	0	0	0
2.73253e-05	0	0	0
2.73418e-05	0	0	0
2.77719e-05	0	0	0
2.80092e-05	0	0	0
2.80181e-05	0	0	0
2.81086e-05	0	0	0
2.82819e-05	0	0	0
2.8312e-05	0	0	0
2.83363e-05	0	0	0
2.85455e-05	0	0	0
2.86417e-05	0	0	0
2.89079e-05	0	0	0
2.9459e-05	0	0	0
2.95058e-05	0	0	0
2.95574e-05	0	0	0
2.96003e-05	0	0	0
2.9757e-05	0	0	0
2.98708e-05	0	0	0
2.99814e-05	0	0	0
3.01036e-05	0	0	0
3.03066e-05	0	0	0
3.04154e-05	0	0	0
3.06848e-05	0	0	0
3.07886e-05	0	0	0
3.09259e-05	0	0	0
3.11036e-05	0	0	0
3.12017e-05	0	0	0
3.15546e-05	0	0	0
3.17339e-05	0	0	0
3.18539e-05	0	0	0
3.21467e-05	0	0	0
3.21526e-05	0	0	0
3.28878e-05	0	0	0
3.34453e-05	0	0	0
3.40453e-05	0	0	0
3.41909e-05	0	0	0
3.42188e-05	0	0	0
3.42725e-05	0	0	0
3.44173e-05	0	0	0
3.48304e-05	0	0	0
3.51594e-05	0	0	0
3.5255e-05	0	0	0
3.52709e-05	0	0	0
3.52714e-05	0	0	0
3.53132e-05	0	0	0
3.53795e-05	0	0	0
3.55565e-05	0	0	0
3.62296e-05	0	0	0
3.63153e-05	0	0	0
3.6567e-05	0	0	0
3.69034e-05	0	0	0
3.75827e-05	0	0	0
3.75986e-05	0	0	0
3.76619e-05	0	0	0
3.81061e-05	0	0	0
3.82416e-05	0	0	0
3.86397e-05	0	0	0
3.87631e-05	0	0	0
3.89256e-05	0	0	0
3.91202e-05	0	0	0
3.91671e-05	0	0	0
3.91915e-05	0	0	0
3.92923e-05	0	0	0
3.93048e-05	0	0	0
3.94495e-05	0	0	0
3.94828e-05	0	0	0
3.95832e-05	0	0	0
3.96653e-05	0	0	0
3.97326e-05	0	0	0
3.99077e-05	0	0	0
3.99733e-05	0	0	0
4.0063e-05	0	0	0
4.02961e-05	0	0	0
4.02995e-05	0	0	0
4.05055e-05	0	0	0
4.05946e-05	0	0	0
4.11094e-05	0	0	0
4.12792e-05	0	0	0
4.14369e-05	0	0	0
4.1482e-05	0	0	0
4.15078e-05	0	0	0
4.15524e-05	0	0	0
4.21323e-05	0	0	0
4.22852e-05	0	0	0
4.22898e-05	0	0	0
4.23599e-05	0	0	0
4.24118e-05	0	0	0
4.26217e-05	0	0	0
4.27317e-05	0	0	0
4.28947e-05	0	0	0
4.2919e-05	0	0	0
4.30219e-05	0	0	0
4.3043e-05	0	0	0
4.35596e-05	0	0	0
4.3668e-05	0	0	0
4.37931e-05	0	0	0
4.40909e-05	0	0	0
4.4185e-05	0	0	0
4.45853e-05	0	0	0
4.47045e-05	0	0	0
4.50269e-05	0	0	0
4.51455e-05	0	0	0
4.54541e-05	0	0	0
4.55472e-05	0	0	0
4.57758e-05	0	0	0
4.61849e-05	0	0	0
4.63512e-05	0	0	0
4.68681e-05	0	0	0
4.69525e-05	0	0	0
4.70221e-05	0	0	0
4.71553e-05	0	0	0
4.73353e-05	0	0	0
4.77674e-05	0	0	0
4.79799e-05	0	0	0
4.79926e-05	0	0	0
4.79931e-05	0	0	0
4.80681e-05	0	0	0
4.81523e-05	0	0	0
4.81668e-05	0	0	0
4.84435e-05	0	0	0
4.88062e-05	0	0	0
4.91193e-05	0	0	0
4.92742e-05	0	0	0
4.9626e-05	0	0	0
5.00558e-05	0	0	0
5.06214e-05	0	0	0
5.08925e-05	0	0	0
5.12744e-05	0	0	0
5.21231e-05	0	0	0
5.22956e-05	0	0	0
5.25779e-05	0	0	0
5.28155e-05	0	0	0
5.31783e-05	0	0	0
5.39695e-05	0	0	0
5.39726e-05	0	0	0
5.4333e-05	0	0	0
5.47092e-05	0	0	0
5.51226e-05	0	0	0
5.5251e-05	0	0	0
5.52566e-05	0	0	0
5.54015e-05	0	0	0
5.5438e-05	0	0	0
5.61435e-05	0	0	0
5.62354e-05	0	0	0
5.63107e-05	0	0	0
5.70702e-05	0	0	0
5.71179e-05	0	0	0
5.72187e-05	0	0	0
5.76084e-05	0	0	0
5.76624e-05	0	0	0
5.78271e-05	0	0	0
5.78572e-05	0	0	0
5.79275e-05	0	0	0
5.82336e-05	0	0	0
5.83765e-05	0	0	0
5.84972e-05	0	0	0
5.92017e-05	0	0	0
5.9268e-05	0	0	0
5.95965e-05	0	0	0
5.97911e-05	0	0	0
5.98822e-05	0	0	0
6.02038e-05	0	0	0
6.02734e-05	0	0	0
6.04757e-05	0	0	0
6.04807e-05	0	0	0
6.11641e-05	0	0	0
6.14592e-05	0	0	0
6.21072e-05	0	0	0
6.22364e-05	0	0	0
6.23258e-05	0	0	0
6.23727e-05	0	0	0
6.24265e-05	0	0	0
6.24515e-05	0	0	0
6.25009e-05	0	0	0
6.25126e-05	0	0	0
6.2839e-05	0	0	0
6.34326e-05	0	0	0
6.34618e-05	0	0	0
6.35972e-05	0	0	0
6.37369e-05	0	0	0
6.39996e-05	0	0	0
6.40759e-05	0	0	0
6.41184e-05	0	0	0
6.55223e-05	0	0	0
6.61677e-05	0	0	0
6.66564e-05	0	0	0
6.66894e-05	0	0	0
6.69736e-05	0	0	0
6.79263e-05	0	0	0
6.79903e-05	0	0	0
6.8134e-05	0	0	0
6.82725e-05	0	0	0
6.82839e-05	0	0	0
6.83908e-05	0	0	0
6.84272e-05	0	0	0
6.86426e-05	0	0	0
6.87229e-05	0	0	0
6.92441e-05	0	0	0
6.94692e-05	0	0	0
6.95961e-05	0	0	0
6.99403e-05	0	0	0
7.06722e-05	0	0	0
7.07465e-05	0	0	0
7.11173e-05	0	0	0
7.11406e-05	0	0	0
7.11939e-05	0	0	0
7.15602e-05	0	0	0
7.18605e-05	0	0	0
7.18691e-05	0	0	0
7.23411e-05	0	0	0
7.25429e-05	0	0	0
7.26406e-05	0	0	0
7.27746e-05	0	0	0
7.27808e-05	0	0	0
7.29531e-05	0	0	0
7.36757e-05	0	0	0
7.37698e-05	0	0	0
7.40805e-05	0	0	0
7.4628e-05	0	0	0
7.4774e-05	0	0	0
7.48392e-05	0	0	0
7.494e-05	0	0	0
7.60101e-05	0	0	0
7.63526e-05	0	0	0
7.64137e-05	0	0	0
7.64915e-05	0	0	0
7.64947e-05	0	0	0
7.69575e-05	0	0	0
7.7297e-05	0	0	0
7.79728e-05	0	0	0
7.81076e-05	0	0	0
7.87474e-05	0	0	0
7.8888e-05	0	0	0
7.90423e-05	0	0	0
7.93766e-05	0	0	0
7.94792e-05	0	0	0
7.97272e-05	0	0	0
8.02921e-05	0	0	0
8.04417e-05	0	0	0
8.0554e-05	0	0	0
8.07848e-05	0	0	0
8.08314e-05	0	0	0
8.10652e-05	0	0	0
8.12063e-05	0	0	0
8.12583e-05	0	0	0
8.1696e-05	0	0	0
8.17053e-05	0	0	0
8.17286e-05	0	0	0
8.17838e-05	0	0	0
8.25335e-05	0	0	0
8.25915e-05	0	0	0
8.26084e-05	0	0	0
8.27819e-05	0	0	0
8.28493e-05	0	0	0
8.33939e-05	0	0	0
8.38609e-05	0	0	0
8.40142e-05	0	0	0
8.40675e-05	0	0	0
8.46297e-05	0	0	0
8.53782e-05	0	0	0
8.54732e-05	0	0	0
8.6069e-05	0	0	0
8.61306e-05	0	0	0
8.63582e-05	0	0	0
8.63664e-05	0	0	0
8.65195e-05	0	0	0
8.66126e-05	0	0	0
8.67584e-05	0	0	0
8.74617e-05	0	0	0
8.81186e-05	0	0	0
8.81691e-05	0	0	0
8.82188e-05	0	0	0
8.85469e-05	0	0	0
8.9243e-05	0	0	0
8.99133e-05	0	0	0
9.01001e-05	0	0	0
9.01675e-05	0	0	0
9.06844e-05	0	0	0
9.07337e-05	0	0	0
9.08287e-05	0	0	0
9.1391e-05	0	0	0
9.14161e-05	0	0	0
9.17582e-05	0	0	0
9.18656e-05	0	0	0
9.2066e-05	0	0	0
9.22215e-05	0	0	0
9.2473e-05	0	0	0
9.30147e-05	0	0	0
9.42151e-05	0	0	0
9.44548e-05	0	0	0
9.47551e-05	0	0	0
9.52797e-05	0	0	0
9.61646e-05	0	0	0
9.62096e-05	0	0	0
9.68344e-05	0	0	0
9.74032e-05	0	0	0
9.75907e-05	0	0	0
9.79091e-05	0	0	0
9.81595e-05	0	0	0
9.85529e-05	0	0	0
9.87435e-05	0	0	0
0.000100651	0	0	0
0.000101071	0	0	0
0.000101096	0	0	0
0.000101705	0	0	0
0.000102049	0	0	0
0.00010231	0	0	0
0.000102616	0	0	0
0.000102828	0	0	0
0.000103265	0	0	0
0.000103432	0	0	0
0.000103594	0	0	0
0.000104289	0	0	0
0.00010438	0	0	0
0.000104984	0	0	0
0.000105011	0	0	0
0.000105393	0	0	0
0.000106253	0	0	0
0.000106899	0	0	0
0.000107086	0	0	0
0.000108683	0	0	0
0.00010892	0	0	0
0.000109787	0	0	0
0.000110545	0	0	0
0.000112269	0	0	0
0.000112353	0	0	0
0.000113053	0	0	0
0.000113684	0	0	0
0.000115098	0	0	0
0.000115523	0	0	0
0.000115609	0	0	0
0.000116135	0	0	0
0.000116641	0	0	0
0.000116723	0	0	0
0.000116836	0	0	0
0.000117922	0	0	0
0.000118295	0	0	0
0.000118466	0	0	0
0.000118679	0	0	0
0.000118744	0	0	0
0.000118815	0	0	0
0.000118962	0	0	0
0.000119713	0	0	0
0.000120677	0	0	0
0.000121199	0	0	0
0.00012147	0	0	0
0.000121493	0	0	0
0.000121928	0	0	0
0.000122521	0	0	0
0.00012267	0	0	0
0.00012297	0	0	0
0.000124525	0	0	0
0.000124659	0	0	0
0.000125044	0	0	0
0.000125101	0	0	0
0.000125167	0	0	0
0.000125307	0	0	0
0.00012575	0	0	0
0.000126913	0	0	0
0.000128779	0	0	0
0.000129553	0	0	0
0.000130279	0	0	0
0.000130305	0	0	0
0.000130696	0	0	0
0.000133624	0	0	0
0.000133778	0	0	0
0.000133948	0	0	0
0.00013466	0	0	0
0.000134921	0	0	0
0.000135473	0	0	0
0.000135978	0	0	0
0.000136925	0	0	0
0.000137742	0	0	0
0.000137848	0	0	0
0.000137889	0	0	0
0.000138225	0	0	0
0.000138315	0	0	0
0.000138757	0	0	0
0.000139123	0	0	0
0.000139305	0	0	0
0.000139775	0	0	0
0.000141997	0	0	0
0.000142081	0	0	0
0.000142121	0	0	0
0.000143065	0	0	0
0.000144318	0	0	0
0.000144421	0	0	0
0.0001456	0	0	0
0.000146583	0	0	0
0.000147836	0	0	0
0.000147873	0	0	0
0.000148438	0	0	0
0.000149497	0	0	0
0.000150821	0	0	0
0.000152786	0	0	0
0.000152802	0	0	0
0.000152902	0	0	0
0.000152912	0	0	0
0.00015346	0	0	0
0.000155098	0	0	0
0.000155143	0	0	0
0.000155177	0	0	0
0.000156131	0	0	0
0.000157083	0	0	0
0.000157857	0	0	0
0.000158045	0	0	0
0.00015805	0	0	0
0.000158221	0	0	0
0.00015863	0	0	0
0.000158884	0	0	0
0.000158954	0	0	0
0.000159055	0	0	0
0.000159205	0	0	0
0.000160148	0	0	0
0.000161853	0	0	0
0.000161898	0	0	0
0.000162439	0	0	0
0.000162874	0	0	0
0.000163625	0	0	0
0.000163687	0	0	0
0.000164872	0	0	0
0.000165597	0	0	0
0.000166139	0	0	0
0.00016639	0	0	0
0.000166536	0	0	0
0.000166636	0	0	0
0.000167033	0	0	0
0.000169839	0	0	0
0.0001706	0	0	0
0.000172269	0	0	0
0.000173293	0	0	0
0.00017596	0	0	0
0.00017621	0	0	0
0.00017646	0	0	0
0.000177714	0	0	0
0.000178181	0	0	0
0.000178339	0	0	0
0.000179276	0	0	0
0.000180424	0	0	0
0.000181381	0	0	0
0.000181648	0	0	0
0.000182507	0	0	0
0.000182608	0	0	0
0.000185052	0	0	0
0.00018506	0	0	0
0.000186582	0	0	0
0.000186876	0	0	0
0.000187208	0	0	0
0.000187382	0	0	0
0.000187751	0	0	0
0.000191363	0	0	0
0.000191698	0	0	0
0.000191798	0	0	0
0.000193443	0	0	0
0.000194503	0	0	0
0.000194535	0	0	0
0.000195054	0	0	0
0.000195423	0	0	0
0.000196286	0	0	0
0.000196775	0	0	0
0.000198429	0	0	0
0.000198652	0	0	0
0.000201596	0	0	0
0.000202124	0	0	0
0.000202521	0	0	0
0.000203154	0	0	0
0.000203209	0	0	0
0.000203416	0	0	0
0.000204888	0	0	0
0.000205693	0	0	0
0.000206	0	0	0
0.000208717	0	0	0
0.000208832	0	0	0
0.000209092	0	0	0
0.000209653	0	0	0
0.000210206	0	0	0
0.000210624	0	0	0
0.000211006	0	0	0
0.000212104	0	0	0
0.000212377	0	0	0
0.000215105	0	0	0
0.000216003	0	0	0
0.000216259	0	0	0
0.000216727	0	0	0
0.000217336	0	0	0
0.000219002	0	0	0
0.000220776	0	0	0
0.000221261	0	0	0
0.000221367	0	0	0
0.000222448	0	0	0
0.000223003	0	0	0
0.000224894	0	0	0
0.000225607	0	0	0
0.000227085	0	0	0
0.000230372	0	0	0
0.000230671	0	0	0
0.000232352	0	0	0
0.000232851	0	0	0
0.000233535	0	0	0
0.000234911	0	0	0
0.000236978	0	0	0
0.000237086	0	0	0
0.000237089	0	0	0
0.000237829	0	0	0
0.000239913	0	0	0
0.000240508	0	0	0
0.000241782	0	0	0
0.000242031	0	0	0
0.000242361	0	0	0
0.000242627	0	0	0
0.000243836	0	0	0
0.000243991	0	0	0
0.000244574	0	0	0
0.000245095	0	0	0
0.000245683	0	0	0
0.00024808	0	0	0
0.000249133	0	0	0
0.000250613	0	0	0
0.000251736	0	0	0
0.00025193	0	0	0
0.000251942	0	0	0
0.000253842	0	0	0
0.000256486	0	0	0
0.000258776	0	0	0
0.000258885	0	0	0
0.000259278	0	0	0
0.000260767	0	0	0
0.000264414	0	0	0
0.000264712	0	0	0
0.000265538	0	0	0
0.00026564	0	0	0
0.000268474	0	0	0
0.000269237	0	0	0
0.000272612	0	0	0
0.00027292	0	0	0
0.000273192	0	0	0
0.000274331	0	0	0
0.000274474	0	0	0
0.000275227	0	0	0
0.000276424	0	0	0
0.000277135	0	0	0
0.000277231	0	0	0
0.000278075	0	0	0
0.000279252	0	0	0
0.00028028	0	0	0
0.000281352	0	0	0
0.000281983	0	0	0
0.000282148	0	0	0
0.000283149	0	0	0
0.000283243	0	0	0
0.000285501	0	0	0
0.00028612	0	0	0
0.000287176	0	0	0
0.000290164	0	0	0
0.00029029	0	0	0
0.000290999	0	0	0
0.000294026	0	0	0
0.00029411	0	0	0
0.000294667	0	0	0
0.000295279	0	0	0
0.000295721	0	0	0
0.000297016	0	0	0
0.000297389	0	0	0
0.000300124	0	0	0
0.000305445	0	0	0
0.000307652	0	0	0
0.00030812	0	0	0
0.000310061	0	0	0
0.000310089	0	0	0
0.000314128	0	0	0
0.000314614	0	0	0
0.000314999	0	0	0
0.000318564	0	0	0
0.000320246	0	0	0
0.000324002	0	0	0
0.000325733	0	0	0
0.000326763	0	0	0
0.000326857	0	0	0
0.000327211	0	0	0
0.000328199	0	0	0
0.000330375	0	0	0
0.000335206	0	0	0
0.000336922	0	0	0
0.000340618	0	0	0
0.000342563	0	0	0
0.000343814	0	0	0
0.000343839	0	0	0
0.000345494	0	0	0
0.000349471	0	0	0
0.000349765	0	0	0
0.000351257	0	0	0
0.000351763	0	0	0
0.000354003	0	0	0
0.00035773	0	0	0
0.000358903	0	0	0
0.0003595	0	0	0
0.000362357	0	0	0
0.000363196	0	0	0
0.000369389	0	0	0
0.000371897	0	0	0
0.000372481	0	0	0
0.000375809	0	0	0
0.00037668	0	0	0
0.000376685	0	0	0
0.000383096	0	0	0
0.000389716	0	0	0
0.000390159	0	0	0
0.000391436	0	0	0
0.000393175	0	0	0
0.000394734	0	0	0
0.000394798	0	0	0
0.000395079	0	0	0
0.000396992	0	0	0
0.000397113	0	0	0
0.000397652	0	0	0
0.000399668	0	0	0
0.000402702	0	0	0
0.000412177	0	0	0
0.000412497	0	0	0
0.000416296	0	0	0
0.000416501	0	0	0
0.0004168	0	0	0
0.000418079	0	0	0
0.000418447	0	0	0
0.000423976	0	0	0
0.000432346	0	0	0
0.000437313	0	0	0
0.000437477	0	0	0
0.000442708	0	0	0
0.000447957	0	0	0
0.000448029	0	0	0
0.000449532	0	0	0
0.000450098	0	0	0
0.000454867	0	0	0
0.00045539	0	0	0
0.00046483	0	0	0
0.000475168	0	0	0
0.000476414	0	0	0
0.00048755	0	0	0
0.000487896	0	0	0
0.000492696	0	0	0
0.000496595	0	0	0
0.000528826	0	0	0
0.000533518	0	0	0
0.000533871	0	0	0
0.000538033	0	0	0
0.000551073	0	0	0
0.000551628	0	0	0
0.000559485	0	0	0
0.000560748	0	0	0
0.000567434	0	0	0
0.000573429	0	0	0
0.000579607	0	0	0
0.000583233	0	0	0
0.000586359	0	0	0
0.000597912	0	0	0
0.000598012	0	0	0
0.000626198	0	0	0
0.000626637	0	0	0
0.000655952	0	0	0
0.00067797	0	0	0
0.000691179	0	0	0
0.000710289	0	0	0
0.000785397	0	0	0
0.000834369	0	0	0
0.00087186	0	0	0
0.000881444	0	0	0
0.000960142	0	0	0
0.00103729	0	0	0
0.00105146	0	0	0
0.00110486	0	0	0
0.00112302	0	0	0
0.00134458	0	0	0
0.00165168	0	0	0
