5.0915e-08	0	0	0
6.83952e-08	0	0	0
3.15378e-07	0	0	0
5.09042e-07	0	0	0
5.34813e-07	0	0	0
6.52257e-07	0	0	0
9.15363e-07	0	0	0
9.15796e-07	0	0	0
9.45531e-07	0	0	0
1.13461e-06	0	0	0
1.37939e-06	0	0	0
1.5518e-06	0	0	0
1.55423e-06	0	0	0
1.72355e-06	0	0	0
1.72898e-06	0	0	0
1.86318e-06	0	0	0
1.91037e-06	0	0	0
1.95479e-06	0	0	0
2.04298e-06	0	0	0
2.36931e-06	0	0	0
2.37357e-06	0	0	0
2.4784e-06	0	0	0
2.4809e-06	0	0	0
2.51711e-06	0	0	0
2.5177e-06	0	0	0
2.52859e-06	0	0	0
2.65804e-06	0	0	0
2.81446e-06	0	0	0
2.92403e-06	0	0	0
3.32024e-06	0	0	0
3.3277e-06	0	0	0
3.37676e-06	0	0	0
3.39947e-06	0	0	0
3.41075e-06	0	0	0
3.51354e-06	0	0	0
3.66252e-06	0	0	0
3.9637e-06	0	0	0
4.25409e-06	0	0	0
4.29445e-06	0	0	0
4.36951e-06	0	0	0
4.38742e-06	0	0	0
4.46468e-06	0	0	0
4.6716e-06	0	0	0
4.74313e-06	0	0	0
4.90443e-06	0	0	0
4.91868e-06	0	0	0
5.15145e-06	0	0	0
5.18217e-06	0	0	0
5.20165e-06	0	0	0
5.21636e-06	0	0	0
5.21871e-06	0	0	0
5.55408e-06	0	0	0
5.62191e-06	0	0	0
5.63366e-06	0	0	0
5.67682e-06	0	0	0
5.70714e-06	0	0	0
5.72578e-06	0	0	0
5.76237e-06	0	0	0
5.78711e-06	0	0	0
5.93108e-06	0	0	0
5.93902e-06	0	0	0
5.95446e-06	0	0	0
6.05094e-06	0	0	0
6.08157e-06	0	0	0
6.09949e-06	0	0	0
6.29221e-06	0	0	0
6.31491e-06	0	0	0
6.33e-06	0	0	0
6.38982e-06	0	0	0
6.5224e-06	0	0	0
6.57463e-06	0	0	0
6.61344e-06	0	0	0
6.66423e-06	0	0	0
6.67343e-06	0	0	0
6.7637e-06	0	0	0
6.77403e-06	0	0	0
7.07176e-06	0	0	0
7.21101e-06	0	0	0
7.25173e-06	0	0	0
7.40681e-06	0	0	0
7.46081e-06	0	0	0
7.58946e-06	0	0	0
7.60488e-06	0	0	0
7.90261e-06	0	0	0
8.15565e-06	0	0	0
8.22242e-06	0	0	0
8.36107e-06	0	0	0
8.3733e-06	0	0	0
8.39016e-06	0	0	0
8.41661e-06	0	0	0
8.41682e-06	0	0	0
8.46816e-06	0	0	0
8.47074e-06	0	0	0
8.62231e-06	0	0	0
8.66715e-06	0	0	0
8.92803e-06	0	0	0
8.94923e-06	0	0	0
8.96854e-06	0	0	0
9.05157e-06	0	0	0
9.08882e-06	0	0	0
9.47074e-06	0	0	0
9.47485e-06	0	0	0
9.74025e-06	0	0	0
9.90183e-06	0	0	0
1.0187e-05	0	0	0
1.03391e-05	0	0	0
1.0517e-05	0	0	0
1.0833e-05	0	0	0
1.09415e-05	0	0	0
1.09615e-05	0	0	0
1.09628e-05	0	0	0
1.11e-05	0	0	0
1.1194e-05	0	0	0
1.13285e-05	0	0	0
1.13738e-05	0	0	0
1.14725e-05	0	0	0
1.14782e-05	0	0	0
1.18707e-05	0	0	0
1.20236e-05	0	0	0
1.21201e-05	0	0	0
1.21407e-05	0	0	0
1.21523e-05	0	0	0
1.22565e-05	0	0	0
1.23244e-05	0	0	0
1.23271e-05	0	0	0
1.26035e-05	0	0	0
1.31102e-05	0	0	0
1.32574e-05	0	0	0
1.33263e-05	0	0	0
1.33426e-05	0	0	0
1.33798e-05	0	0	0
1.34721e-05	0	0	0
1.3649e-05	0	0	0
1.36971e-05	0	0	0
1.39373e-05	0	0	0
1.41101e-05	0	0	0
1.42139e-05	0	0	0
1.4263e-05	0	0	0
1.42684e-05	0	0	0
1.43894e-05	0	0	0
1.44675e-05	0	0	0
1.44802e-05	0	0	0
1.45584e-05	0	0	0
1.47635e-05	0	0	0
1.47917e-05	0	0	0
1.48409e-05	0	0	0
1.48652e-05	0	0	0
1.51491e-05	0	0	0
1.51829e-05	0	0	0
1.53583e-05	0	0	0
1.55776e-05	0	0	0
1.56214e-05	0	0	0
1.56421e-05	0	0	0
1.56426e-05	0	0	0
1.5768e-05	0	0	0
1.58125e-05	0	0	0
1.58465e-05	0	0	0
1.59181e-05	0	0	0
1.599e-05	0	0	0
1.62948e-05	0	0	0
1.65374e-05	0	0	0
1.66632e-05	0	0	0
1.66768e-05	0	0	0
1.70028e-05	0	0	0
1.71705e-05	0	0	0
1.72165e-05	0	0	0
1.7329e-05	0	0	0
1.81688e-05	0	0	0
1.83423e-05	0	0	0
1.84063e-05	0	0	0
1.84231e-05	0	0	0
1.84328e-05	0	0	0
1.84927e-05	0	0	0
1.87372e-05	0	0	0
1.87646e-05	0	0	0
1.89763e-05	0	0	0
1.90516e-05	0	0	0
1.91938e-05	0	0	0
1.92345e-05	0	0	0
1.93875e-05	0	0	0
1.9519e-05	0	0	0
1.97417e-05	0	0	0
1.97426e-05	0	0	0
1.98232e-05	0	0	0
1.99968e-05	0	0	0
2.01522e-05	0	0	0
2.02561e-05	0	0	0
2.03623e-05	0	0	0
2.06015e-05	0	0	0
2.07067e-05	0	0	0
2.0732e-05	0	0	0
2.08582e-05	0	0	0
2.09077e-05	0	0	0
2.09341e-05	0	0	0
2.10523e-05	0	0	0
2.12528e-05	0	0	0
2.14459e-05	0	0	0
2.15201e-05	0	0	0
2.16442e-05	0	0	0
2.18152e-05	0	0	0
2.24311e-05	0	0	0
2.24386e-05	0	0	0
2.25217e-05	0	0	0
2.276e-05	0	0	0
2.28283e-05	0	0	0
2.29802e-05	0	0	0
2.30516e-05	0	0	0
2.31482e-05	0	0	0
2.35672e-05	0	0	0
2.35902e-05	0	0	0
2.3829e-05	0	0	0
2.38404e-05	0	0	0
2.38899e-05	0	0	0
2.40742e-05	0	0	0
2.41864e-05	0	0	0
2.43394e-05	0	0	0
2.44092e-05	0	0	0
2.44471e-05	0	0	0
2.47634e-05	0	0	0
2.47907e-05	0	0	0
2.4912e-05	0	0	0
2.54452e-05	0	0	0
2.5609e-05	0	0	0
2.56493e-05	0	0	0
2.57085e-05	0	0	0
2.58104e-05	0	0	0
2.58715e-05	0	0	0
2.59208e-05	0	0	0
2.6067e-05	0	0	0
2.6116e-05	0	0	0
2.61975e-05	0	0	0
2.67e-05	0	0	0
2.68104e-05	0	0	0
2.70448e-05	0	0	0
2.70811e-05	0	0	0
2.72229e-05	0	0	0
2.75613e-05	0	0	0
2.76049e-05	0	0	0
2.77835e-05	0	0	0
2.79329e-05	0	0	0
2.79391e-05	0	0	0
2.8329e-05	0	0	0
2.8392e-05	0	0	0
2.86832e-05	0	0	0
2.87511e-05	0	0	0
2.88398e-05	0	0	0
2.88489e-05	0	0	0
2.89431e-05	0	0	0
2.90269e-05	0	0	0
2.93671e-05	0	0	0
2.93728e-05	0	0	0
2.94881e-05	0	0	0
2.97296e-05	0	0	0
2.9774e-05	0	0	0
2.98372e-05	0	0	0
2.99041e-05	0	0	0
2.99772e-05	0	0	0
3.00559e-05	0	0	0
3.02312e-05	0	0	0
3.02852e-05	0	0	0
3.055e-05	0	0	0
3.0615e-05	0	0	0
3.06516e-05	0	0	0
3.08765e-05	0	0	0
3.09121e-05	0	0	0
3.09595e-05	0	0	0
3.09641e-05	0	0	0
3.10287e-05	0	0	0
3.12705e-05	0	0	0
3.1653e-05	0	0	0
3.16696e-05	0	0	0
3.17115e-05	0	0	0
3.21844e-05	0	0	0
3.25201e-05	0	0	0
3.28155e-05	0	0	0
3.28629e-05	0	0	0
3.31113e-05	0	0	0
3.31567e-05	0	0	0
3.33032e-05	0	0	0
3.33612e-05	0	0	0
3.33938e-05	0	0	0
3.34348e-05	0	0	0
3.34431e-05	0	0	0
3.34843e-05	0	0	0
3.36887e-05	0	0	0
3.37301e-05	0	0	0
3.41086e-05	0	0	0
3.41544e-05	0	0	0
3.43995e-05	0	0	0
3.44478e-05	0	0	0
3.45399e-05	0	0	0
3.4708e-05	0	0	0
3.48687e-05	0	0	0
3.51948e-05	0	0	0
3.54003e-05	0	0	0
3.54101e-05	0	0	0
3.56921e-05	0	0	0
3.59482e-05	0	0	0
3.60272e-05	0	0	0
3.61916e-05	0	0	0
3.62943e-05	0	0	0
3.63478e-05	0	0	0
3.6368e-05	0	0	0
3.63987e-05	0	0	0
3.651e-05	0	0	0
3.65576e-05	0	0	0
3.65768e-05	0	0	0
3.66386e-05	0	0	0
3.69205e-05	0	0	0
3.74543e-05	0	0	0
3.78455e-05	0	0	0
3.79243e-05	0	0	0
3.80427e-05	0	0	0
3.80868e-05	0	0	0
3.81821e-05	0	0	0
3.83002e-05	0	0	0
3.89078e-05	0	0	0
3.89857e-05	0	0	0
3.90871e-05	0	0	0
3.91021e-05	0	0	0
3.91125e-05	0	0	0
3.93535e-05	0	0	0
3.99549e-05	0	0	0
4.04995e-05	0	0	0
4.0535e-05	0	0	0
4.06312e-05	0	0	0
4.0698e-05	0	0	0
4.07009e-05	0	0	0
4.07225e-05	0	0	0
4.08538e-05	0	0	0
4.09001e-05	0	0	0
4.11491e-05	0	0	0
4.11658e-05	0	0	0
4.11808e-05	0	0	0
4.13996e-05	0	0	0
4.14524e-05	0	0	0
4.19814e-05	0	0	0
4.20776e-05	0	0	0
4.23339e-05	0	0	0
4.23453e-05	0	0	0
4.24493e-05	0	0	0
4.24848e-05	0	0	0
4.25101e-05	0	0	0
4.25164e-05	0	0	0
4.29008e-05	0	0	0
4.29469e-05	0	0	0
4.29681e-05	0	0	0
4.33562e-05	0	0	0
4.36959e-05	0	0	0
4.38556e-05	0	0	0
4.39086e-05	0	0	0
4.39888e-05	0	0	0
4.42177e-05	0	0	0
4.42981e-05	0	0	0
4.46747e-05	0	0	0
4.50872e-05	0	0	0
4.50922e-05	0	0	0
4.5472e-05	0	0	0
4.55302e-05	0	0	0
4.55451e-05	0	0	0
4.56751e-05	0	0	0
4.6567e-05	0	0	0
4.69446e-05	0	0	0
4.70193e-05	0	0	0
4.72303e-05	0	0	0
4.72415e-05	0	0	0
4.72476e-05	0	0	0
4.73336e-05	0	0	0
4.74233e-05	0	0	0
4.76375e-05	0	0	0
4.77719e-05	0	0	0
4.7837e-05	0	0	0
4.79702e-05	0	0	0
4.81113e-05	0	0	0
4.82801e-05	0	0	0
4.82844e-05	0	0	0
4.85684e-05	0	0	0
4.89614e-05	0	0	0
4.89908e-05	0	0	0
4.91029e-05	0	0	0
4.91392e-05	0	0	0
4.91538e-05	0	0	0
4.9311e-05	0	0	0
4.98199e-05	0	0	0
4.98678e-05	0	0	0
4.99398e-05	0	0	0
4.99466e-05	0	0	0
5.00847e-05	0	0	0
5.03037e-05	0	0	0
5.03279e-05	0	0	0
5.0514e-05	0	0	0
5.07438e-05	0	0	0
5.08489e-05	0	0	0
5.10133e-05	0	0	0
5.10519e-05	0	0	0
5.11158e-05	0	0	0
5.14724e-05	0	0	0
5.15394e-05	0	0	0
5.16774e-05	0	0	0
5.17726e-05	0	0	0
5.19172e-05	0	0	0
5.20202e-05	0	0	0
5.24505e-05	0	0	0
5.32534e-05	0	0	0
5.35077e-05	0	0	0
5.36564e-05	0	0	0
5.37348e-05	0	0	0
5.39152e-05	0	0	0
5.39257e-05	0	0	0
5.43936e-05	0	0	0
5.47129e-05	0	0	0
5.48656e-05	0	0	0
5.49265e-05	0	0	0
5.5426e-05	0	0	0
5.54891e-05	0	0	0
5.57654e-05	0	0	0
5.58081e-05	0	0	0
5.63111e-05	0	0	0
5.64651e-05	0	0	0
5.65783e-05	0	0	0
5.65955e-05	0	0	0
5.70297e-05	0	0	0
5.72916e-05	0	0	0
5.74529e-05	0	0	0
5.74925e-05	0	0	0
5.75212e-05	0	0	0
5.77809e-05	0	0	0
5.78071e-05	0	0	0
5.78524e-05	0	0	0
5.79696e-05	0	0	0
5.81137e-05	0	0	0
5.82136e-05	0	0	0
5.8301e-05	0	0	0
5.88049e-05	0	0	0
5.89164e-05	0	0	0
5.90052e-05	0	0	0
5.91654e-05	0	0	0
5.9262e-05	0	0	0
5.97115e-05	0	0	0
5.97249e-05	0	0	0
6.00252e-05	0	0	0
6.0055e-05	0	0	0
6.01582e-05	0	0	0
6.04271e-05	0	0	0
6.12801e-05	0	0	0
6.15026e-05	0	0	0
6.15092e-05	0	0	0
6.1519e-05	0	0	0
6.20091e-05	0	0	0
6.21139e-05	0	0	0
6.22815e-05	0	0	0
6.23924e-05	0	0	0
6.24829e-05	0	0	0
6.25716e-05	0	0	0
6.25806e-05	0	0	0
6.26065e-05	0	0	0
6.34824e-05	0	0	0
6.44867e-05	0	0	0
6.51895e-05	0	0	0
6.54248e-05	0	0	0
6.55323e-05	0	0	0
6.60287e-05	0	0	0
6.61663e-05	0	0	0
6.68157e-05	0	0	0
6.7241e-05	0	0	0
6.74632e-05	0	0	0
6.75797e-05	0	0	0
6.77125e-05	0	0	0
6.83227e-05	0	0	0
6.87629e-05	0	0	0
6.88589e-05	0	0	0
6.91887e-05	0	0	0
6.93919e-05	0	0	0
6.94325e-05	0	0	0
6.97035e-05	0	0	0
6.9887e-05	0	0	0
6.99879e-05	0	0	0
6.99903e-05	0	0	0
7.0258e-05	0	0	0
7.03832e-05	0	0	0
7.04105e-05	0	0	0
7.04383e-05	0	0	0
7.06472e-05	0	0	0
7.12077e-05	0	0	0
7.13003e-05	0	0	0
7.19915e-05	0	0	0
7.20951e-05	0	0	0
7.21458e-05	0	0	0
7.2322e-05	0	0	0
7.24224e-05	0	0	0
7.24891e-05	0	0	0
7.25805e-05	0	0	0
7.26833e-05	0	0	0
7.27173e-05	0	0	0
7.32407e-05	0	0	0
7.36233e-05	0	0	0
7.36741e-05	0	0	0
7.37444e-05	0	0	0
7.39108e-05	0	0	0
7.44321e-05	0	0	0
7.47563e-05	0	0	0
7.49352e-05	0	0	0
7.51997e-05	0	0	0
7.53115e-05	0	0	0
7.53274e-05	0	0	0
7.57236e-05	0	0	0
7.58951e-05	0	0	0
7.62025e-05	0	0	0
7.62231e-05	0	0	0
7.6394e-05	0	0	0
7.66162e-05	0	0	0
7.66533e-05	0	0	0
7.66945e-05	0	0	0
7.7279e-05	0	0	0
7.76244e-05	0	0	0
7.76416e-05	0	0	0
7.79554e-05	0	0	0
7.79627e-05	0	0	0
7.80717e-05	0	0	0
7.82039e-05	0	0	0
7.84598e-05	0	0	0
7.88087e-05	0	0	0
7.92956e-05	0	0	0
7.95493e-05	0	0	0
7.95508e-05	0	0	0
7.98415e-05	0	0	0
8.01316e-05	0	0	0
8.04867e-05	0	0	0
8.05881e-05	0	0	0
8.06101e-05	0	0	0
8.0809e-05	0	0	0
8.10187e-05	0	0	0
8.22554e-05	0	0	0
8.27943e-05	0	0	0
8.29884e-05	0	0	0
8.31896e-05	0	0	0
8.32201e-05	0	0	0
8.44598e-05	0	0	0
8.47795e-05	0	0	0
8.63134e-05	0	0	0
8.66012e-05	0	0	0
8.68716e-05	0	0	0
8.70763e-05	0	0	0
8.72525e-05	0	0	0
8.73919e-05	0	0	0
8.75273e-05	0	0	0
8.76207e-05	0	0	0
8.82125e-05	0	0	0
8.87232e-05	0	0	0
8.87343e-05	0	0	0
8.88311e-05	0	0	0
8.8983e-05	0	0	0
8.903e-05	0	0	0
8.91077e-05	0	0	0
8.91448e-05	0	0	0
8.91662e-05	0	0	0
9.05593e-05	0	0	0
9.08268e-05	0	0	0
9.08963e-05	0	0	0
9.21312e-05	0	0	0
9.26013e-05	0	0	0
9.26938e-05	0	0	0
9.33336e-05	0	0	0
9.37101e-05	0	0	0
9.37504e-05	0	0	0
9.39119e-05	0	0	0
9.4696e-05	0	0	0
9.49214e-05	0	0	0
9.49329e-05	0	0	0
9.52926e-05	0	0	0
9.54515e-05	0	0	0
9.54598e-05	0	0	0
9.5755e-05	0	0	0
9.5876e-05	0	0	0
9.65098e-05	0	0	0
9.65595e-05	0	0	0
9.68524e-05	0	0	0
9.69532e-05	0	0	0
9.73654e-05	0	0	0
9.78205e-05	0	0	0
9.78902e-05	0	0	0
9.80195e-05	0	0	0
9.88658e-05	0	0	0
9.90616e-05	0	0	0
9.92928e-05	0	0	0
9.94301e-05	0	0	0
0.000100207	0	0	0
0.0001005	0	0	0
0.000100921	0	0	0
0.000100957	0	0	0
0.000101237	0	0	0
0.000101914	0	0	0
0.000101936	0	0	0
0.000102023	0	0	0
0.000102401	0	0	0
0.00010256	0	0	0
0.000102921	0	0	0
0.00010307	0	0	0
0.000103132	0	0	0
0.000103439	0	0	0
0.000103982	0	0	0
0.000104138	0	0	0
0.000104487	0	0	0
0.00010497	0	0	0
0.000105209	0	0	0
0.000105439	0	0	0
0.000105985	0	0	0
0.000106294	0	0	0
0.000106435	0	0	0
0.000106559	0	0	0
0.00010667	0	0	0
0.000107038	0	0	0
0.000107656	0	0	0
0.000107678	0	0	0
0.00010789	0	0	0
0.000108152	0	0	0
0.000108162	0	0	0
0.00010831	0	0	0
0.000108485	0	0	0
0.000108525	0	0	0
0.000109352	0	0	0
0.000109387	0	0	0
0.000110877	0	0	0
0.000111512	0	0	0
0.000111722	0	0	0
0.000111815	0	0	0
0.000111863	0	0	0
0.000112343	0	0	0
0.000112352	0	0	0
0.000112541	0	0	0
0.00011319	0	0	0
0.000113419	0	0	0
0.000114036	0	0	0
0.000114405	0	0	0
0.000114819	0	0	0
0.000115403	0	0	0
0.000115438	0	0	0
0.00011585	0	0	0
0.0001162	0	0	0
0.000116303	0	0	0
0.000116311	0	0	0
0.000116793	0	0	0
0.000116919	0	0	0
0.000117222	0	0	0
0.00011756	0	0	0
0.000118301	0	0	0
0.000118325	0	0	0
0.000118814	0	0	0
0.000118922	0	0	0
0.000118972	0	0	0
0.000119135	0	0	0
0.000119583	0	0	0
0.000119884	0	0	0
0.000120644	0	0	0
0.000121067	0	0	0
0.000121619	0	0	0
0.000122361	0	0	0
0.000122412	0	0	0
0.000122632	0	0	0
0.000122687	0	0	0
0.000122739	0	0	0
0.00012384	0	0	0
0.000124341	0	0	0
0.000124449	0	0	0
0.000124763	0	0	0
0.000125357	0	0	0
0.000125545	0	0	0
0.000125572	0	0	0
0.00012559	0	0	0
0.000125712	0	0	0
0.000125737	0	0	0
0.000125958	0	0	0
0.000126259	0	0	0
0.000126412	0	0	0
0.000126477	0	0	0
0.000127224	0	0	0
0.000127418	0	0	0
0.000127482	0	0	0
0.00012755	0	0	0
0.00012803	0	0	0
0.000128049	0	0	0
0.000128325	0	0	0
0.000130791	0	0	0
0.000131276	0	0	0
0.00013175	0	0	0
0.000134217	0	0	0
0.000134601	0	0	0
0.000134761	0	0	0
0.00013529	0	0	0
0.000135341	0	0	0
0.000135719	0	0	0
0.000136132	0	0	0
0.000137034	0	0	0
0.00013718	0	0	0
0.000137189	0	0	0
0.000137418	0	0	0
0.000137971	0	0	0
0.000138256	0	0	0
0.000138703	0	0	0
0.000138743	0	0	0
0.000138749	0	0	0
0.000139629	0	0	0
0.000141331	0	0	0
0.000142116	0	0	0
0.000142455	0	0	0
0.000143666	0	0	0
0.000144917	0	0	0
0.000145033	0	0	0
0.000145502	0	0	0
0.000145836	0	0	0
0.00014728	0	0	0
0.00014778	0	0	0
0.000148106	0	0	0
0.000148652	0	0	0
0.000150559	0	0	0
0.000150675	0	0	0
0.000151049	0	0	0
0.000151145	0	0	0
0.000152567	0	0	0
0.000152778	0	0	0
0.000153619	0	0	0
0.000153868	0	0	0
0.000153901	0	0	0
0.00015482	0	0	0
0.000154885	0	0	0
0.000154954	0	0	0
0.000157082	0	0	0
0.000157345	0	0	0
0.000157411	0	0	0
0.000157626	0	0	0
0.00015787	0	0	0
0.000158149	0	0	0
0.000158599	0	0	0
0.000159245	0	0	0
0.000159589	0	0	0
0.000160403	0	0	0
0.000160415	0	0	0
0.000160665	0	0	0
0.000160844	0	0	0
0.000160913	0	0	0
0.000162717	0	0	0
0.000162793	0	0	0
0.000163442	0	0	0
0.000163459	0	0	0
0.000163643	0	0	0
0.000166502	0	0	0
0.000167079	0	0	0
0.000167267	0	0	0
0.000168026	0	0	0
0.000168402	0	0	0
0.000168427	0	0	0
0.000168617	0	0	0
0.000168674	0	0	0
0.000169333	0	0	0
0.000169358	0	0	0
0.000169714	0	0	0
0.000169976	0	0	0
0.000170282	0	0	0
0.000170417	0	0	0
0.000171146	0	0	0
0.000171535	0	0	0
0.00017183	0	0	0
0.000172038	0	0	0
0.000172076	0	0	0
0.000172205	0	0	0
0.000173258	0	0	0
0.000173797	0	0	0
0.000173833	0	0	0
0.000174623	0	0	0
0.000175062	0	0	0
0.000175173	0	0	0
0.000175747	0	0	0
0.000175865	0	0	0
0.000176307	0	0	0
0.000176344	0	0	0
0.000176388	0	0	0
0.000176793	0	0	0
0.000177427	0	0	0
0.000178888	0	0	0
0.000178992	0	0	0
0.000179301	0	0	0
0.000179601	0	0	0
0.000181336	0	0	0
0.000181378	0	0	0
0.000182001	0	0	0
0.000182114	0	0	0
0.000182546	0	0	0
0.00018382	0	0	0
0.00018445	0	0	0
0.000184473	0	0	0
0.000184599	0	0	0
0.000184789	0	0	0
0.000185701	0	0	0
0.000185734	0	0	0
0.000186156	0	0	0
0.000186559	0	0	0
0.0001872	0	0	0
0.00018768	0	0	0
0.000188327	0	0	0
0.000188466	0	0	0
0.000188992	0	0	0
0.000190065	0	0	0
0.000191538	0	0	0
0.000192386	0	0	0
0.00019245	0	0	0
0.000193411	0	0	0
0.000193482	0	0	0
0.000193957	0	0	0
0.000193974	0	0	0
0.00019441	0	0	0
0.00019522	0	0	0
0.000195346	0	0	0
0.00019692	0	0	0
0.00019888	0	0	0
0.000198894	0	0	0
0.000199451	0	0	0
0.000199925	0	0	0
0.000199996	0	0	0
0.000200964	0	0	0
0.00020112	0	0	0
0.000202189	0	0	0
0.000202618	0	0	0
0.000203298	0	0	0
0.000203543	0	0	0
0.000204139	0	0	0
0.00020536	0	0	0
0.000206785	0	0	0
0.000206998	0	0	0
0.000207807	0	0	0
0.000208414	0	0	0
0.000208832	0	0	0
0.000209102	0	0	0
0.000209534	0	0	0
0.000209984	0	0	0
0.00021034	0	0	0
0.000210694	0	0	0
0.000211107	0	0	0
0.000211726	0	0	0
0.000212165	0	0	0
0.000212166	0	0	0
0.000212241	0	0	0
0.000212357	0	0	0
0.000212392	0	0	0
0.00021308	0	0	0
0.000213812	0	0	0
0.000214128	0	0	0
0.000215165	0	0	0
0.000215517	0	0	0
0.00021564	0	0	0
0.000215676	0	0	0
0.000215775	0	0	0
0.000216148	0	0	0
0.000217363	0	0	0
0.000218362	0	0	0
0.000219451	0	0	0
0.000219718	0	0	0
0.000219947	0	0	0
0.00022134	0	0	0
0.000221466	0	0	0
0.000221982	0	0	0
0.000222374	0	0	0
0.000222764	0	0	0
0.000222837	0	0	0
0.000223772	0	0	0
0.00022482	0	0	0
0.000225508	0	0	0
0.000225953	0	0	0
0.000226596	0	0	0
0.000228561	0	0	0
0.000229755	0	0	0
0.000230132	0	0	0
0.000230308	0	0	0
0.000230478	0	0	0
0.000230596	0	0	0
0.000230673	0	0	0
0.000231135	0	0	0
0.00023459	0	0	0
0.000234621	0	0	0
0.000235052	0	0	0
0.000236333	0	0	0
0.00023672	0	0	0
0.000236797	0	0	0
0.000240021	0	0	0
0.000240364	0	0	0
0.000240618	0	0	0
0.000240655	0	0	0
0.000240749	0	0	0
0.000240924	0	0	0
0.000241462	0	0	0
0.000243081	0	0	0
0.000243136	0	0	0
0.000243789	0	0	0
0.000244897	0	0	0
0.000246641	0	0	0
0.000247202	0	0	0
0.000247451	0	0	0
0.000247487	0	0	0
0.000248509	0	0	0
0.00024875	0	0	0
0.000248868	0	0	0
0.000249219	0	0	0
0.000250189	0	0	0
0.000250205	0	0	0
0.000250304	0	0	0
0.000250535	0	0	0
0.000250743	0	0	0
0.000250885	0	0	0
0.000252519	0	0	0
0.000252564	0	0	0
0.000252577	0	0	0
0.000252958	0	0	0
0.000253039	0	0	0
0.000253276	0	0	0
0.000256509	0	0	0
0.000257186	0	0	0
0.000258584	0	0	0
0.000259226	0	0	0
0.000259377	0	0	0
0.000261521	0	0	0
0.000261728	0	0	0
0.000263613	0	0	0
0.000263767	0	0	0
0.000263778	0	0	0
0.000267332	0	0	0
0.00026779	0	0	0
0.000269827	0	0	0
0.000271324	0	0	0
0.000271788	0	0	0
0.000273111	0	0	0
0.000273234	0	0	0
0.000273796	0	0	0
0.000274615	0	0	0
0.000276313	0	0	0
0.000276352	0	0	0
0.000278292	0	0	0
0.000278493	0	0	0
0.000279135	0	0	0
0.00027939	0	0	0
0.000280528	0	0	0
0.000280766	0	0	0
0.000283104	0	0	0
0.000283968	0	0	0
0.000284149	0	0	0
0.00028419	0	0	0
0.000284721	0	0	0
0.00028516	0	0	0
0.000285164	0	0	0
0.000286778	0	0	0
0.000286829	0	0	0
0.000286856	0	0	0
0.000287503	0	0	0
0.000288552	0	0	0
0.000288805	0	0	0
0.000288941	0	0	0
0.000289026	0	0	0
0.00028949	0	0	0
0.00028967	0	0	0
0.000291274	0	0	0
0.000292008	0	0	0
0.000293157	0	0	0
0.000293699	0	0	0
0.000295664	0	0	0
0.000295771	0	0	0
0.000297515	0	0	0
0.000297543	0	0	0
0.000298539	0	0	0
0.000302631	0	0	0
0.000302886	0	0	0
0.000303214	0	0	0
0.000304077	0	0	0
0.000306255	0	0	0
0.000306361	0	0	0
0.000306441	0	0	0
0.000306993	0	0	0
0.000307291	0	0	0
0.000307592	0	0	0
0.00030771	0	0	0
0.000308179	0	0	0
0.000309816	0	0	0
0.000309927	0	0	0
0.000310434	0	0	0
0.000310524	0	0	0
0.000310534	0	0	0
0.000311035	0	0	0
0.000311183	0	0	0
0.000311835	0	0	0
0.000312416	0	0	0
0.000312716	0	0	0
0.00031305	0	0	0
0.000316075	0	0	0
0.000316147	0	0	0
0.000319006	0	0	0
0.000319492	0	0	0
0.000320698	0	0	0
0.000321205	0	0	0
0.000321755	0	0	0
0.000322526	0	0	0
0.000323609	0	0	0
0.000327366	0	0	0
0.000328653	0	0	0
0.000329075	0	0	0
0.000329326	0	0	0
0.000332068	0	0	0
0.000332704	0	0	0
0.000334503	0	0	0
0.000336221	0	0	0
0.000338088	0	0	0
0.000338151	0	0	0
0.000339123	0	0	0
0.000342035	0	0	0
0.000344878	0	0	0
0.00034495	0	0	0
0.00034686	0	0	0
0.000348304	0	0	0
0.000348324	0	0	0
0.000348865	0	0	0
0.000351934	0	0	0
0.000352536	0	0	0
0.00035294	0	0	0
0.000353051	0	0	0
0.0003535	0	0	0
0.000354144	0	0	0
0.000355372	0	0	0
0.000356151	0	0	0
0.000356941	0	0	0
0.000357239	0	0	0
0.000358373	0	0	0
0.000358439	0	0	0
0.000359396	0	0	0
0.000359404	0	0	0
0.000359471	0	0	0
0.000360529	0	0	0
0.000362812	0	0	0
0.000362885	0	0	0
0.00036309	0	0	0
0.000363645	0	0	0
0.000365041	0	0	0
0.000365568	0	0	0
0.000366485	0	0	0
0.000368993	0	0	0
0.000370798	0	0	0
0.000372027	0	0	0
0.000372212	0	0	0
0.000373566	0	0	0
0.000374103	0	0	0
0.00037428	0	0	0
0.000374823	0	0	0
0.00037567	0	0	0
0.000376912	0	0	0
0.000377102	0	0	0
0.000377581	0	0	0
0.000377992	0	0	0
0.000379376	0	0	0
0.00038187	0	0	0
0.000384204	0	0	0
0.000386587	0	0	0
0.00038755	0	0	0
0.000388473	0	0	0
0.000390978	0	0	0
0.000393306	0	0	0
0.000393592	0	0	0
0.000394008	0	0	0
0.000394206	0	0	0
0.000394806	0	0	0
0.000395283	0	0	0
0.000395455	0	0	0
0.000396845	0	0	0
0.000398599	0	0	0
0.000399173	0	0	0
0.000401648	0	0	0
0.000402438	0	0	0
0.000405758	0	0	0
0.000408025	0	0	0
0.000413161	0	0	0
0.000414486	0	0	0
0.00041545	0	0	0
0.000417124	0	0	0
0.000418214	0	0	0
0.000418387	0	0	0
0.000423647	0	0	0
0.000424203	0	0	0
0.000429309	0	0	0
0.000430562	0	0	0
0.000434662	0	0	0
0.000435729	0	0	0
0.000435902	0	0	0
0.000436501	0	0	0
0.000436739	0	0	0
0.000437151	0	0	0
0.000437717	0	0	0
0.000438643	0	0	0
0.00044415	0	0	0
0.000445381	0	0	0
0.000447725	0	0	0
0.000447906	0	0	0
0.000449626	0	0	0
0.000451281	0	0	0
0.000452983	0	0	0
0.00045352	0	0	0
0.000459511	0	0	0
0.000460041	0	0	0
0.00046022	0	0	0
0.000460427	0	0	0
0.000461491	0	0	0
0.000462273	0	0	0
0.000462658	0	0	0
0.000463184	0	0	0
0.000464037	0	0	0
0.000464296	0	0	0
0.000465465	0	0	0
0.000466287	0	0	0
0.000466991	0	0	0
0.000467014	0	0	0
0.00046795	0	0	0
0.000468705	0	0	0
0.000472766	0	0	0
0.000473564	0	0	0
0.000474811	0	0	0
0.000480878	0	0	0
0.000483286	0	0	0
0.000484892	0	0	0
0.000486864	0	0	0
0.000490123	0	0	0
0.00049093	0	0	0
0.000496471	0	0	0
0.000500453	0	0	0
0.000505713	0	0	0
0.000505881	0	0	0
0.000506769	0	0	0
0.000506845	0	0	0
0.000507109	0	0	0
0.000509118	0	0	0
0.000510572	0	0	0
0.000511284	0	0	0
0.000515999	0	0	0
0.000517134	0	0	0
0.000521424	0	0	0
0.000521818	0	0	0
0.000522096	0	0	0
0.000528856	0	0	0
0.000529723	0	0	0
0.000530425	0	0	0
0.000531298	0	0	0
0.00053475	0	0	0
0.000538743	0	0	0
0.000538995	0	0	0
0.000544174	0	0	0
0.000545562	0	0	0
0.000545825	0	0	0
0.000546785	0	0	0
0.000547316	0	0	0
0.000547994	0	0	0
0.000550655	0	0	0
0.000550769	0	0	0
0.000554862	0	0	0
0.000556408	0	0	0
0.00056119	0	0	0
0.000563404	0	0	0
0.000563925	0	0	0
0.000570589	0	0	0
0.000571249	0	0	0
0.000577362	0	0	0
0.00058283	0	0	0
0.000585628	0	0	0
0.000587466	0	0	0
0.000590201	0	0	0
0.00059103	0	0	0
0.000591394	0	0	0
0.000597876	0	0	0
0.00060383	0	0	0
0.000605718	0	0	0
0.000615362	0	0	0
0.000615394	0	0	0
0.000616676	0	0	0
0.000616796	0	0	0
0.000621911	0	0	0
0.000623635	0	0	0
0.000625187	0	0	0
0.000625206	0	0	0
0.000627115	0	0	0
0.000628103	0	0	0
0.000632482	0	0	0
0.000633541	0	0	0
0.000634079	0	0	0
0.000637403	0	0	0
0.000648911	0	0	0
0.000652855	0	0	0
0.000654217	0	0	0
0.000657014	0	0	0
0.000657541	0	0	0
0.000660205	0	0	0
0.000661741	0	0	0
0.000663596	0	0	0
0.000684199	0	0	0
0.000687014	0	0	0
0.000688639	0	0	0
0.000698702	0	0	0
0.000700149	0	0	0
0.00070031	0	0	0
0.000702334	0	0	0
0.000705015	0	0	0
0.000705969	0	0	0
0.00070766	0	0	0
0.000709152	0	0	0
0.000709175	0	0	0
0.00071517	0	0	0
0.000716843	0	0	0
0.000719821	0	0	0
0.000722349	0	0	0
0.000735005	0	0	0
0.000742694	0	0	0
0.000742793	0	0	0
0.000743246	0	0	0
0.000743907	0	0	0
0.000748791	0	0	0
0.000759978	0	0	0
0.000763937	0	0	0
0.000769387	0	0	0
0.000770335	0	0	0
0.000777211	0	0	0
0.000781299	0	0	0
0.000783313	0	0	0
0.000785889	0	0	0
0.000789962	0	0	0
0.000795975	0	0	0
0.000806322	0	0	0
0.000808724	0	0	0
0.000827786	0	0	0
0.000833862	0	0	0
0.00083765	0	0	0
0.000838582	0	0	0
0.000843259	0	0	0
0.000846679	0	0	0
0.000853235	0	0	0
0.000858899	0	0	0
0.000860577	0	0	0
0.000865795	0	0	0
0.000891348	0	0	0
0.000892015	0	0	0
0.00090003	0	0	0
0.000900189	0	0	0
0.000905146	0	0	0
0.000911278	0	0	0
0.000913313	0	0	0
0.000918122	0	0	0
0.000919448	0	0	0
0.000923565	0	0	0
0.000940606	0	0	0
0.000943394	0	0	0
0.000950073	0	0	0
0.000950174	0	0	0
0.000966513	0	0	0
0.000975847	0	0	0
0.00097755	0	0	0
0.000982126	0	0	0
0.000983475	0	0	0
0.00102316	0	0	0
0.00105103	0	0	0
0.00106049	0	0	0
0.00106649	0	0	0
0.00110327	0	0	0
0.00111258	0	0	0
0.0011162	0	0	0
0.00113453	0	0	0
0.00115655	0	0	0
0.00120539	0	0	0
0.00126899	0	0	0
0.00128647	0	0	0
0.00139743	0	0	0
0.00146634	0	0	0
0.00153955	0	0	0
0.00164458	0	0	0
