3.58495e-08	0	0	0
4.05683e-08	0	0	0
4.19732e-08	0	0	0
5.51665e-08	0	0	0
6.50386e-08	0	0	0
9.23074e-08	0	0	0
1.30628e-07	0	0	0
1.53745e-07	0	0	0
1.68196e-07	0	0	0
2.17002e-07	0	0	0
2.18306e-07	0	0	0
2.19441e-07	0	0	0
2.56503e-07	0	0	0
2.69699e-07	0	0	0
3.4021e-07	0	0	0
3.97569e-07	0	0	0
4.19486e-07	0	0	0
4.20261e-07	0	0	0
4.44081e-07	0	0	0
4.72048e-07	0	0	0
4.87344e-07	0	0	0
4.97137e-07	0	0	0
5.07371e-07	0	0	0
5.2765e-07	0	0	0
5.73528e-07	0	0	0
5.7387e-07	0	0	0
5.77427e-07	0	0	0
6.01463e-07	0	0	0
7.08994e-07	0	0	0
7.19326e-07	0	0	0
7.34858e-07	0	0	0
7.44336e-07	0	0	0
7.45597e-07	0	0	0
7.67774e-07	0	0	0
7.93831e-07	0	0	0
8.04038e-07	0	0	0
8.10066e-07	0	0	0
8.39581e-07	0	0	0
9.09422e-07	0	0	0
9.45851e-07	0	0	0
9.66235e-07	0	0	0
1.01023e-06	0	0	0
1.02522e-06	0	0	0
1.06096e-06	0	0	0
1.08771e-06	0	0	0
1.08927e-06	0	0	0
1.13979e-06	0	0	0
1.14152e-06	0	0	0
1.15123e-06	0	0	0
1.1766e-06	0	0	0
1.17794e-06	0	0	0
1.20338e-06	0	0	0
1.21099e-06	0	0	0
1.2174e-06	0	0	0
1.22242e-06	0	0	0
1.22581e-06	0	0	0
1.2292e-06	0	0	0
1.23037e-06	0	0	0
1.23311e-06	0	0	0
1.24128e-06	0	0	0
1.24918e-06	0	0	0
1.26411e-06	0	0	0
1.28246e-06	0	0	0
1.29222e-06	0	0	0
1.30134e-06	0	0	0
1.30497e-06	0	0	0
1.34465e-06	0	0	0
1.39483e-06	0	0	0
1.3955e-06	0	0	0
1.39688e-06	0	0	0
1.40533e-06	0	0	0
1.40731e-06	0	0	0
1.41951e-06	0	0	0
1.43649e-06	0	0	0
1.45692e-06	0	0	0
1.46874e-06	0	0	0
1.47595e-06	0	0	0
1.49467e-06	0	0	0
1.52983e-06	0	0	0
1.5461e-06	0	0	0
1.54681e-06	0	0	0
1.55432e-06	0	0	0
1.56e-06	0	0	0
1.56613e-06	0	0	0
1.59456e-06	0	0	0
1.64881e-06	0	0	0
1.6521e-06	0	0	0
1.66223e-06	0	0	0
1.7274e-06	0	0	0
1.74175e-06	0	0	0
1.75995e-06	0	0	0
1.81795e-06	0	0	0
1.84089e-06	0	0	0
1.8713e-06	0	0	0
1.87289e-06	0	0	0
1.91091e-06	0	0	0
1.91493e-06	0	0	0
1.93783e-06	0	0	0
1.96285e-06	0	0	0
1.96943e-06	0	0	0
1.97964e-06	0	0	0
2.05962e-06	0	0	0
2.10959e-06	0	0	0
2.12357e-06	0	0	0
2.13198e-06	0	0	0
2.13854e-06	0	0	0
2.19794e-06	0	0	0
2.20351e-06	0	0	0
2.24414e-06	0	0	0
2.26964e-06	0	0	0
2.35808e-06	0	0	0
2.36645e-06	0	0	0
2.37717e-06	0	0	0
2.39361e-06	0	0	0
2.41897e-06	0	0	0
2.43389e-06	0	0	0
2.46166e-06	0	0	0
2.53625e-06	0	0	0
2.53963e-06	0	0	0
2.55521e-06	0	0	0
2.58497e-06	0	0	0
2.59288e-06	0	0	0
2.61739e-06	0	0	0
2.64132e-06	0	0	0
2.64314e-06	0	0	0
2.64487e-06	0	0	0
2.64488e-06	0	0	0
2.68832e-06	0	0	0
2.70593e-06	0	0	0
2.7317e-06	0	0	0
2.73233e-06	0	0	0
2.74077e-06	0	0	0
2.77466e-06	0	0	0
2.79167e-06	0	0	0
2.79509e-06	0	0	0
2.79859e-06	0	0	0
2.80639e-06	0	0	0
2.82814e-06	0	0	0
2.8569e-06	0	0	0
2.88316e-06	0	0	0
2.91228e-06	0	0	0
2.91879e-06	0	0	0
2.93465e-06	0	0	0
2.96596e-06	0	0	0
3.02961e-06	0	0	0
3.05477e-06	0	0	0
3.06982e-06	0	0	0
3.07927e-06	0	0	0
3.12973e-06	0	0	0
3.18478e-06	0	0	0
3.1985e-06	0	0	0
3.27897e-06	0	0	0
3.30752e-06	0	0	0
3.30767e-06	0	0	0
3.31774e-06	0	0	0
3.36442e-06	0	0	0
3.42294e-06	0	0	0
3.44379e-06	0	0	0
3.4629e-06	0	0	0
3.50139e-06	0	0	0
3.50671e-06	0	0	0
3.55944e-06	0	0	0
3.59999e-06	0	0	0
3.65094e-06	0	0	0
3.69714e-06	0	0	0
3.70998e-06	0	0	0
3.75638e-06	0	0	0
3.78742e-06	0	0	0
3.83677e-06	0	0	0
3.83852e-06	0	0	0
3.84069e-06	0	0	0
3.87305e-06	0	0	0
3.91283e-06	0	0	0
3.92877e-06	0	0	0
3.95022e-06	0	0	0
3.96289e-06	0	0	0
4.01833e-06	0	0	0
4.05281e-06	0	0	0
4.06071e-06	0	0	0
4.11029e-06	0	0	0
4.12507e-06	0	0	0
4.14275e-06	0	0	0
4.17638e-06	0	0	0
4.23064e-06	0	0	0
4.23418e-06	0	0	0
4.24528e-06	0	0	0
4.25905e-06	0	0	0
4.27167e-06	0	0	0
4.27609e-06	0	0	0
4.27722e-06	0	0	0
4.30539e-06	0	0	0
4.32218e-06	0	0	0
4.3229e-06	0	0	0
4.34446e-06	0	0	0
4.35959e-06	0	0	0
4.36768e-06	0	0	0
4.40819e-06	0	0	0
4.4659e-06	0	0	0
4.49991e-06	0	0	0
4.50254e-06	0	0	0
4.50429e-06	0	0	0
4.51071e-06	0	0	0
4.5412e-06	0	0	0
4.58448e-06	0	0	0
4.5877e-06	0	0	0
4.61049e-06	0	0	0
4.65791e-06	0	0	0
4.66455e-06	0	0	0
4.67643e-06	0	0	0
4.68473e-06	0	0	0
4.69039e-06	0	0	0
4.69069e-06	0	0	0
4.7149e-06	0	0	0
4.81431e-06	0	0	0
4.85605e-06	0	0	0
4.86518e-06	0	0	0
4.86539e-06	0	0	0
4.88116e-06	0	0	0
4.9117e-06	0	0	0
4.91368e-06	0	0	0
4.92656e-06	0	0	0
4.95322e-06	0	0	0
4.97126e-06	0	0	0
5.02468e-06	0	0	0
5.05124e-06	0	0	0
5.07168e-06	0	0	0
5.09743e-06	0	0	0
5.16906e-06	0	0	0
5.18843e-06	0	0	0
5.19672e-06	0	0	0
5.25068e-06	0	0	0
5.26624e-06	0	0	0
5.32496e-06	0	0	0
5.34414e-06	0	0	0
5.35299e-06	0	0	0
5.3584e-06	0	0	0
5.38111e-06	0	0	0
5.38118e-06	0	0	0
5.4415e-06	0	0	0
5.46256e-06	0	0	0
5.4902e-06	0	0	0
5.54666e-06	0	0	0
5.62207e-06	0	0	0
5.70634e-06	0	0	0
5.71087e-06	0	0	0
5.71843e-06	0	0	0
5.78425e-06	0	0	0
5.81399e-06	0	0	0
5.84555e-06	0	0	0
5.85452e-06	0	0	0
5.91869e-06	0	0	0
5.94588e-06	0	0	0
5.95869e-06	0	0	0
6.00935e-06	0	0	0
6.03951e-06	0	0	0
6.08948e-06	0	0	0
6.13266e-06	0	0	0
6.14516e-06	0	0	0
6.15198e-06	0	0	0
6.17212e-06	0	0	0
6.18037e-06	0	0	0
6.19036e-06	0	0	0
6.26487e-06	0	0	0
6.2753e-06	0	0	0
6.28363e-06	0	0	0
6.30386e-06	0	0	0
6.31894e-06	0	0	0
6.35017e-06	0	0	0
6.43615e-06	0	0	0
6.46595e-06	0	0	0
6.53421e-06	0	0	0
6.56348e-06	0	0	0
6.60937e-06	0	0	0
6.75687e-06	0	0	0
6.76541e-06	0	0	0
6.86301e-06	0	0	0
6.91315e-06	0	0	0
6.9606e-06	0	0	0
6.97069e-06	0	0	0
7.00031e-06	0	0	0
7.07056e-06	0	0	0
7.13677e-06	0	0	0
7.15465e-06	0	0	0
7.1699e-06	0	0	0
7.1874e-06	0	0	0
7.28419e-06	0	0	0
7.29162e-06	0	0	0
7.29998e-06	0	0	0
7.30169e-06	0	0	0
7.31783e-06	0	0	0
7.32665e-06	0	0	0
7.36535e-06	0	0	0
7.36982e-06	0	0	0
7.4712e-06	0	0	0
7.49112e-06	0	0	0
7.49516e-06	0	0	0
7.56037e-06	0	0	0
7.61778e-06	0	0	0
7.61952e-06	0	0	0
7.6507e-06	0	0	0
7.66329e-06	0	0	0
7.694e-06	0	0	0
7.79043e-06	0	0	0
7.79378e-06	0	0	0
7.80243e-06	0	0	0
7.81872e-06	0	0	0
7.8688e-06	0	0	0
7.89026e-06	0	0	0
7.90936e-06	0	0	0
7.92164e-06	0	0	0
8.02613e-06	0	0	0
8.05604e-06	0	0	0
8.10795e-06	0	0	0
8.24971e-06	0	0	0
8.25739e-06	0	0	0
8.27735e-06	0	0	0
8.2913e-06	0	0	0
8.31829e-06	0	0	0
8.35794e-06	0	0	0
8.38602e-06	0	0	0
8.42026e-06	0	0	0
8.46989e-06	0	0	0
8.54633e-06	0	0	0
8.62411e-06	0	0	0
8.66117e-06	0	0	0
8.674e-06	0	0	0
8.68294e-06	0	0	0
8.74407e-06	0	0	0
8.79073e-06	0	0	0
8.84217e-06	0	0	0
8.84409e-06	0	0	0
8.84447e-06	0	0	0
8.88444e-06	0	0	0
8.92599e-06	0	0	0
8.96565e-06	0	0	0
9.01586e-06	0	0	0
9.02934e-06	0	0	0
9.13709e-06	0	0	0
9.18857e-06	0	0	0
9.3101e-06	0	0	0
9.33176e-06	0	0	0
9.34318e-06	0	0	0
9.3769e-06	0	0	0
9.41313e-06	0	0	0
9.55488e-06	0	0	0
9.55846e-06	0	0	0
9.59239e-06	0	0	0
9.60821e-06	0	0	0
9.63096e-06	0	0	0
9.66112e-06	0	0	0
9.6983e-06	0	0	0
9.70531e-06	0	0	0
9.71434e-06	0	0	0
9.72065e-06	0	0	0
9.74538e-06	0	0	0
9.76105e-06	0	0	0
9.77716e-06	0	0	0
9.7772e-06	0	0	0
9.79058e-06	0	0	0
9.85835e-06	0	0	0
9.87522e-06	0	0	0
1.00402e-05	0	0	0
1.00455e-05	0	0	0
1.02586e-05	0	0	0
1.02783e-05	0	0	0
1.03249e-05	0	0	0
1.0336e-05	0	0	0
1.034e-05	0	0	0
1.0379e-05	0	0	0
1.04872e-05	0	0	0
1.05042e-05	0	0	0
1.05537e-05	0	0	0
1.05975e-05	0	0	0
1.06375e-05	0	0	0
1.07265e-05	0	0	0
1.07602e-05	0	0	0
1.07663e-05	0	0	0
1.07784e-05	0	0	0
1.09507e-05	0	0	0
1.09765e-05	0	0	0
1.09786e-05	0	0	0
1.09824e-05	0	0	0
1.10127e-05	0	0	0
1.10672e-05	0	0	0
1.10937e-05	0	0	0
1.11523e-05	0	0	0
1.1155e-05	0	0	0
1.11722e-05	0	0	0
1.11777e-05	0	0	0
1.12257e-05	0	0	0
1.1233e-05	0	0	0
1.12704e-05	0	0	0
1.12898e-05	0	0	0
1.12992e-05	0	0	0
1.13381e-05	0	0	0
1.13388e-05	0	0	0
1.13571e-05	0	0	0
1.13659e-05	0	0	0
1.14968e-05	0	0	0
1.15423e-05	0	0	0
1.16254e-05	0	0	0
1.16768e-05	0	0	0
1.17297e-05	0	0	0
1.17578e-05	0	0	0
1.17895e-05	0	0	0
1.19294e-05	0	0	0
1.19846e-05	0	0	0
1.20691e-05	0	0	0
1.20702e-05	0	0	0
1.20818e-05	0	0	0
1.22909e-05	0	0	0
1.23677e-05	0	0	0
1.23974e-05	0	0	0
1.25025e-05	0	0	0
1.25137e-05	0	0	0
1.25553e-05	0	0	0
1.25717e-05	0	0	0
1.26099e-05	0	0	0
1.26175e-05	0	0	0
1.26338e-05	0	0	0
1.27713e-05	0	0	0
1.28324e-05	0	0	0
1.28567e-05	0	0	0
1.287e-05	0	0	0
1.29233e-05	0	0	0
1.30732e-05	0	0	0
1.31906e-05	0	0	0
1.33148e-05	0	0	0
1.33163e-05	0	0	0
1.33487e-05	0	0	0
1.33779e-05	0	0	0
1.34171e-05	0	0	0
1.34617e-05	0	0	0
1.34691e-05	0	0	0
1.34922e-05	0	0	0
1.35016e-05	0	0	0
1.35227e-05	0	0	0
1.35282e-05	0	0	0
1.35635e-05	0	0	0
1.36334e-05	0	0	0
1.37263e-05	0	0	0
1.37325e-05	0	0	0
1.37395e-05	0	0	0
1.37774e-05	0	0	0
1.37997e-05	0	0	0
1.38324e-05	0	0	0
1.3852e-05	0	0	0
1.39213e-05	0	0	0
1.39441e-05	0	0	0
1.40588e-05	0	0	0
1.4068e-05	0	0	0
1.41203e-05	0	0	0
1.42512e-05	0	0	0
1.42522e-05	0	0	0
1.43028e-05	0	0	0
1.43417e-05	0	0	0
1.43904e-05	0	0	0
1.4465e-05	0	0	0
1.45369e-05	0	0	0
1.46308e-05	0	0	0
1.46318e-05	0	0	0
1.46559e-05	0	0	0
1.46841e-05	0	0	0
1.47365e-05	0	0	0
1.47784e-05	0	0	0
1.47902e-05	0	0	0
1.48445e-05	0	0	0
1.49993e-05	0	0	0
1.50012e-05	0	0	0
1.50976e-05	0	0	0
1.51233e-05	0	0	0
1.51581e-05	0	0	0
1.51853e-05	0	0	0
1.54329e-05	0	0	0
1.5484e-05	0	0	0
1.55677e-05	0	0	0
1.5591e-05	0	0	0
1.55933e-05	0	0	0
1.56782e-05	0	0	0
1.57694e-05	0	0	0
1.58379e-05	0	0	0
1.59186e-05	0	0	0
1.59856e-05	0	0	0
1.60951e-05	0	0	0
1.61752e-05	0	0	0
1.62146e-05	0	0	0
1.62461e-05	0	0	0
1.63768e-05	0	0	0
1.64456e-05	0	0	0
1.64585e-05	0	0	0
1.64686e-05	0	0	0
1.64694e-05	0	0	0
1.64779e-05	0	0	0
1.6515e-05	0	0	0
1.65384e-05	0	0	0
1.65954e-05	0	0	0
1.66935e-05	0	0	0
1.67134e-05	0	0	0
1.67447e-05	0	0	0
1.67612e-05	0	0	0
1.68479e-05	0	0	0
1.69115e-05	0	0	0
1.69583e-05	0	0	0
1.69637e-05	0	0	0
1.70634e-05	0	0	0
1.7076e-05	0	0	0
1.72383e-05	0	0	0
1.72768e-05	0	0	0
1.74095e-05	0	0	0
1.74236e-05	0	0	0
1.74353e-05	0	0	0
1.74474e-05	0	0	0
1.74629e-05	0	0	0
1.75653e-05	0	0	0
1.7584e-05	0	0	0
1.77473e-05	0	0	0
1.79325e-05	0	0	0
1.80038e-05	0	0	0
1.80303e-05	0	0	0
1.80366e-05	0	0	0
1.81314e-05	0	0	0
1.839e-05	0	0	0
1.85182e-05	0	0	0
1.85347e-05	0	0	0
1.887e-05	0	0	0
1.92004e-05	0	0	0
1.92974e-05	0	0	0
1.92998e-05	0	0	0
1.93989e-05	0	0	0
1.95272e-05	0	0	0
1.96567e-05	0	0	0
1.97359e-05	0	0	0
1.97604e-05	0	0	0
1.98223e-05	0	0	0
2.00925e-05	0	0	0
2.01151e-05	0	0	0
2.02119e-05	0	0	0
2.02402e-05	0	0	0
2.02838e-05	0	0	0
2.02905e-05	0	0	0
2.03255e-05	0	0	0
2.0561e-05	0	0	0
2.06351e-05	0	0	0
2.07126e-05	0	0	0
2.10301e-05	0	0	0
2.10953e-05	0	0	0
2.1263e-05	0	0	0
2.13346e-05	0	0	0
2.13364e-05	0	0	0
2.13567e-05	0	0	0
2.13648e-05	0	0	0
2.14393e-05	0	0	0
2.15673e-05	0	0	0
2.16035e-05	0	0	0
2.16603e-05	0	0	0
2.16837e-05	0	0	0
2.19167e-05	0	0	0
2.20019e-05	0	0	0
2.20357e-05	0	0	0
2.20844e-05	0	0	0
2.21145e-05	0	0	0
2.21421e-05	0	0	0
2.23097e-05	0	0	0
2.24207e-05	0	0	0
2.24832e-05	0	0	0
2.25394e-05	0	0	0
2.25911e-05	0	0	0
2.25941e-05	0	0	0
2.26282e-05	0	0	0
2.27997e-05	0	0	0
2.28178e-05	0	0	0
2.28872e-05	0	0	0
2.29613e-05	0	0	0
2.32497e-05	0	0	0
2.33538e-05	0	0	0
2.34035e-05	0	0	0
2.34771e-05	0	0	0
2.36409e-05	0	0	0
2.36556e-05	0	0	0
2.3663e-05	0	0	0
2.3876e-05	0	0	0
2.39722e-05	0	0	0
2.40252e-05	0	0	0
2.40421e-05	0	0	0
2.41441e-05	0	0	0
2.42905e-05	0	0	0
2.43653e-05	0	0	0
2.44113e-05	0	0	0
2.44335e-05	0	0	0
2.44895e-05	0	0	0
2.4784e-05	0	0	0
2.48335e-05	0	0	0
2.48354e-05	0	0	0
2.4886e-05	0	0	0
2.49963e-05	0	0	0
2.50272e-05	0	0	0
2.52336e-05	0	0	0
2.52426e-05	0	0	0
2.53541e-05	0	0	0
2.54071e-05	0	0	0
2.55249e-05	0	0	0
2.56403e-05	0	0	0
2.56459e-05	0	0	0
2.5807e-05	0	0	0
2.59241e-05	0	0	0
2.59296e-05	0	0	0
2.61454e-05	0	0	0
2.61655e-05	0	0	0
2.61707e-05	0	0	0
2.63467e-05	0	0	0
2.7178e-05	0	0	0
2.71878e-05	0	0	0
2.73127e-05	0	0	0
2.73562e-05	0	0	0
2.7619e-05	0	0	0
2.79338e-05	0	0	0
2.7988e-05	0	0	0
2.80582e-05	0	0	0
2.82522e-05	0	0	0
2.85667e-05	0	0	0
2.8726e-05	0	0	0
2.89213e-05	0	0	0
2.89903e-05	0	0	0
2.89978e-05	0	0	0
2.90064e-05	0	0	0
2.90585e-05	0	0	0
2.92044e-05	0	0	0
2.93569e-05	0	0	0
2.95933e-05	0	0	0
2.963e-05	0	0	0
2.96448e-05	0	0	0
2.98751e-05	0	0	0
3.00761e-05	0	0	0
3.00817e-05	0	0	0
3.02418e-05	0	0	0
3.03158e-05	0	0	0
3.03436e-05	0	0	0
3.03552e-05	0	0	0
3.03965e-05	0	0	0
3.04728e-05	0	0	0
3.05467e-05	0	0	0
3.07373e-05	0	0	0
3.07618e-05	0	0	0
3.08515e-05	0	0	0
3.10273e-05	0	0	0
3.109e-05	0	0	0
3.14511e-05	0	0	0
3.14725e-05	0	0	0
3.14875e-05	0	0	0
3.15678e-05	0	0	0
3.16709e-05	0	0	0
3.17834e-05	0	0	0
3.21423e-05	0	0	0
3.2262e-05	0	0	0
3.24187e-05	0	0	0
3.24642e-05	0	0	0
3.259e-05	0	0	0
3.26287e-05	0	0	0
3.27782e-05	0	0	0
3.27862e-05	0	0	0
3.27883e-05	0	0	0
3.27901e-05	0	0	0
3.31953e-05	0	0	0
3.33697e-05	0	0	0
3.34724e-05	0	0	0
3.35694e-05	0	0	0
3.37437e-05	0	0	0
3.37581e-05	0	0	0
3.38427e-05	0	0	0
3.397e-05	0	0	0
3.40002e-05	0	0	0
3.41495e-05	0	0	0
3.42616e-05	0	0	0
3.43121e-05	0	0	0
3.43932e-05	0	0	0
3.46446e-05	0	0	0
3.48252e-05	0	0	0
3.5303e-05	0	0	0
3.53507e-05	0	0	0
3.54645e-05	0	0	0
3.54773e-05	0	0	0
3.56123e-05	0	0	0
3.59398e-05	0	0	0
3.59806e-05	0	0	0
3.61617e-05	0	0	0
3.62272e-05	0	0	0
3.62848e-05	0	0	0
3.63441e-05	0	0	0
3.63562e-05	0	0	0
3.65522e-05	0	0	0
3.6619e-05	0	0	0
3.66905e-05	0	0	0
3.6939e-05	0	0	0
3.69584e-05	0	0	0
3.73203e-05	0	0	0
3.74302e-05	0	0	0
3.77246e-05	0	0	0
3.78271e-05	0	0	0
3.81033e-05	0	0	0
3.83478e-05	0	0	0
3.84024e-05	0	0	0
3.85308e-05	0	0	0
3.85641e-05	0	0	0
3.85759e-05	0	0	0
3.86214e-05	0	0	0
3.87252e-05	0	0	0
3.8752e-05	0	0	0
3.91763e-05	0	0	0
3.93962e-05	0	0	0
3.95974e-05	0	0	0
3.97431e-05	0	0	0
3.99876e-05	0	0	0
3.99923e-05	0	0	0
4.01463e-05	0	0	0
4.02923e-05	0	0	0
4.02939e-05	0	0	0
4.04696e-05	0	0	0
4.08267e-05	0	0	0
4.08726e-05	0	0	0
4.10017e-05	0	0	0
4.11082e-05	0	0	0
4.15859e-05	0	0	0
4.19818e-05	0	0	0
4.20811e-05	0	0	0
4.21692e-05	0	0	0
4.22545e-05	0	0	0
4.22946e-05	0	0	0
4.24027e-05	0	0	0
4.25668e-05	0	0	0
4.26011e-05	0	0	0
4.26976e-05	0	0	0
4.28883e-05	0	0	0
4.29885e-05	0	0	0
4.30472e-05	0	0	0
4.32536e-05	0	0	0
4.33872e-05	0	0	0
4.38464e-05	0	0	0
4.41449e-05	0	0	0
4.42718e-05	0	0	0
4.43086e-05	0	0	0
4.43829e-05	0	0	0
4.43846e-05	0	0	0
4.46927e-05	0	0	0
4.52831e-05	0	0	0
4.5538e-05	0	0	0
4.55683e-05	0	0	0
4.58273e-05	0	0	0
4.61751e-05	0	0	0
4.63806e-05	0	0	0
4.65906e-05	0	0	0
4.6871e-05	0	0	0
4.68787e-05	0	0	0
4.73856e-05	0	0	0
4.74639e-05	0	0	0
4.77755e-05	0	0	0
4.78068e-05	0	0	0
4.79854e-05	0	0	0
4.81528e-05	0	0	0
4.87487e-05	0	0	0
4.87641e-05	0	0	0
4.90604e-05	0	0	0
4.92168e-05	0	0	0
4.9633e-05	0	0	0
4.97262e-05	0	0	0
4.98897e-05	0	0	0
5.00604e-05	0	0	0
5.02136e-05	0	0	0
5.04799e-05	0	0	0
5.05034e-05	0	0	0
5.05372e-05	0	0	0
5.06583e-05	0	0	0
5.1226e-05	0	0	0
5.1268e-05	0	0	0
5.14431e-05	0	0	0
5.1676e-05	0	0	0
5.18592e-05	0	0	0
5.21991e-05	0	0	0
5.23759e-05	0	0	0
5.24632e-05	0	0	0
5.30413e-05	0	0	0
5.30722e-05	0	0	0
5.3278e-05	0	0	0
5.36802e-05	0	0	0
5.41639e-05	0	0	0
5.42413e-05	0	0	0
5.47579e-05	0	0	0
5.47783e-05	0	0	0
5.51116e-05	0	0	0
5.54105e-05	0	0	0
5.54167e-05	0	0	0
5.54619e-05	0	0	0
5.54661e-05	0	0	0
5.58352e-05	0	0	0
5.60866e-05	0	0	0
5.62372e-05	0	0	0
5.62411e-05	0	0	0
5.70138e-05	0	0	0
5.71521e-05	0	0	0
5.73669e-05	0	0	0
5.75878e-05	0	0	0
5.80518e-05	0	0	0
5.81575e-05	0	0	0
5.82571e-05	0	0	0
5.85737e-05	0	0	0
5.85941e-05	0	0	0
5.89359e-05	0	0	0
5.9059e-05	0	0	0
5.94364e-05	0	0	0
6.02386e-05	0	0	0
6.04763e-05	0	0	0
6.06779e-05	0	0	0
6.07136e-05	0	0	0
6.18526e-05	0	0	0
6.19902e-05	0	0	0
6.21214e-05	0	0	0
6.22531e-05	0	0	0
6.29348e-05	0	0	0
6.32302e-05	0	0	0
6.33229e-05	0	0	0
6.38792e-05	0	0	0
6.39458e-05	0	0	0
6.40523e-05	0	0	0
6.43656e-05	0	0	0
6.49143e-05	0	0	0
6.50457e-05	0	0	0
6.54958e-05	0	0	0
6.56361e-05	0	0	0
6.59837e-05	0	0	0
6.62646e-05	0	0	0
6.73291e-05	0	0	0
6.75332e-05	0	0	0
6.75891e-05	0	0	0
6.75892e-05	0	0	0
6.78108e-05	0	0	0
6.79252e-05	0	0	0
6.80098e-05	0	0	0
6.80611e-05	0	0	0
6.81522e-05	0	0	0
6.81945e-05	0	0	0
6.83482e-05	0	0	0
6.85048e-05	0	0	0
6.89664e-05	0	0	0
6.91041e-05	0	0	0
6.96485e-05	0	0	0
7.03187e-05	0	0	0
7.0829e-05	0	0	0
7.3416e-05	0	0	0
7.35176e-05	0	0	0
7.51701e-05	0	0	0
7.54216e-05	0	0	0
7.57088e-05	0	0	0
7.58448e-05	0	0	0
7.59635e-05	0	0	0
7.60954e-05	0	0	0
7.6342e-05	0	0	0
7.64791e-05	0	0	0
7.72528e-05	0	0	0
7.80938e-05	0	0	0
7.8313e-05	0	0	0
7.90623e-05	0	0	0
7.92954e-05	0	0	0
7.94561e-05	0	0	0
7.98813e-05	0	0	0
7.98901e-05	0	0	0
7.99098e-05	0	0	0
8.06169e-05	0	0	0
8.06347e-05	0	0	0
8.09698e-05	0	0	0
8.17135e-05	0	0	0
8.19305e-05	0	0	0
8.19983e-05	0	0	0
8.23721e-05	0	0	0
8.46819e-05	0	0	0
8.56134e-05	0	0	0
8.62256e-05	0	0	0
8.62532e-05	0	0	0
8.83187e-05	0	0	0
8.83579e-05	0	0	0
8.86894e-05	0	0	0
8.9071e-05	0	0	0
8.97076e-05	0	0	0
8.9772e-05	0	0	0
9.01276e-05	0	0	0
9.09888e-05	0	0	0
9.10629e-05	0	0	0
9.13562e-05	0	0	0
9.14649e-05	0	0	0
9.30093e-05	0	0	0
9.3304e-05	0	0	0
9.33408e-05	0	0	0
9.44551e-05	0	0	0
9.47688e-05	0	0	0
9.51525e-05	0	0	0
9.54173e-05	0	0	0
9.57844e-05	0	0	0
9.62246e-05	0	0	0
9.62844e-05	0	0	0
9.81999e-05	0	0	0
9.8967e-05	0	0	0
9.93105e-05	0	0	0
9.96165e-05	0	0	0
0.000102603	0	0	0
0.000103295	0	0	0
0.00010399	0	0	0
0.000104706	0	0	0
0.000106066	0	0	0
0.000110848	0	0	0
0.000113801	0	0	0
0.000113831	0	0	0
0.000114881	0	0	0
0.000115499	0	0	0
0.00011683	0	0	0
0.00011774	0	0	0
0.000119042	0	0	0
0.00011905	0	0	0
0.000119113	0	0	0
0.000120066	0	0	0
0.000120996	0	0	0
0.000122477	0	0	0
0.00012277	0	0	0
0.000123781	0	0	0
0.00012714	0	0	0
0.000128108	0	0	0
0.000128213	0	0	0
0.000128487	0	0	0
0.000130343	0	0	0
0.000131123	0	0	0
0.000139999	0	0	0
0.000141942	0	0	0
0.00014319	0	0	0
0.000143928	0	0	0
0.00014469	0	0	0
0.000145443	0	0	0
0.000146599	0	0	0
0.00014827	0	0	0
0.000149234	0	0	0
0.00015116	0	0	0
0.000151928	0	0	0
0.000152532	0	0	0
0.000155592	0	0	0
0.00015605	0	0	0
0.0001575	0	0	0
0.000157963	0	0	0
0.000158029	0	0	0
0.000158733	0	0	0
0.000161294	0	0	0
0.000162022	0	0	0
0.000162566	0	0	0
0.000165619	0	0	0
0.000167184	0	0	0
0.000168483	0	0	0
0.000170053	0	0	0
0.000170247	0	0	0
0.000173245	0	0	0
0.000175733	0	0	0
0.000177339	0	0	0
0.000182896	0	0	0
0.000184048	0	0	0
0.000184643	0	0	0
0.000190651	0	0	0
0.000191325	0	0	0
0.000192321	0	0	0
0.000194036	0	0	0
0.000196716	0	0	0
0.000201796	0	0	0
0.0002084	0	0	0
0.00021308	0	0	0
0.000214584	0	0	0
0.000220768	0	0	0
0.000221006	0	0	0
0.00022112	0	0	0
0.000221242	0	0	0
0.000241533	0	0	0
0.00024896	0	0	0
0.000259399	0	0	0
0.000260267	0	0	0
0.000275444	0	0	0
0.000275473	0	0	0
0.00028341	0	0	0
0.000283526	0	0	0
0.000299344	0	0	0
0.000316643	0	0	0
0.000328482	0	0	0
0.000342074	0	0	0
0.000353086	0	0	0
0.000367223	0	0	0
0.000372876	0	0	0
0.000377101	0	0	0
0.000387694	0	0	0
0.00039194	0	0	0
0.000415387	0	0	0
0.000423989	0	0	0
0.00042453	0	0	0
0.00043699	0	0	0
0.00043996	0	0	0
0.00046446	0	0	0
0.000470756	0	0	0
0.000500462	0	0	0
0.000508875	0	0	0
0.000521294	0	0	0
0.000530729	0	0	0
0.000551004	0	0	0
0.000553265	0	0	0
0.000557954	0	0	0
0.000614017	0	0	0
0.000617159	0	0	0
0.000647821	0	0	0
0.00065204	0	0	0
0.000664327	0	0	0
0.00069387	0	0	0
0.000699242	0	0	0
0.000710835	0	0	0
0.000711426	0	0	0
0.000711909	0	0	0
0.00089499	0	0	0
0.00109463	0	0	0
0.00114696	0	0	0
0.00121682	0	0	0
0.00127903	0	0	0
0.00134011	0	0	0
0.0014143	0	0	0
0.00142834	0	0	0
0.0015421	0	0	0
0.00155493	0	0	0
0.00173353	0	0	0
0.00187696	0	0	0
0.00198318	0	0	0
0.00244232	0	0	0
0.00261838	0	0	0
0.00275142	0	0	0
0.00287437	0	0	0
0.00288466	0	0	0
0.00320353	0	0	0
0.00368948	0	0	0
0.00420751	0	0	0
0.00474341	0	0	0
0.00517787	0	0	0
0.00582259	0	0	0
0.0062022	0	0	0
0.0070713	0	0	0
0.00909483	0	0	0
0.0113265	0	0	0
0.0146316	0	0	0
