2.40305e-08	0	0	0
3.4755e-08	0	0	0
4.85654e-08	0	0	0
8.32508e-08	0	0	0
8.5911e-08	0	0	0
9.86348e-08	0	0	0
1.18541e-07	0	0	0
1.20018e-07	0	0	0
1.46248e-07	0	0	0
1.59014e-07	0	0	0
1.67551e-07	0	0	0
1.68074e-07	0	0	0
1.9677e-07	0	0	0
1.99784e-07	0	0	0
2.27604e-07	0	0	0
2.29288e-07	0	0	0
2.41627e-07	0	0	0
2.80359e-07	0	0	0
2.97711e-07	0	0	0
3.12218e-07	0	0	0
3.27628e-07	0	0	0
3.28292e-07	0	0	0
3.4023e-07	0	0	0
3.47956e-07	0	0	0
3.61201e-07	0	0	0
3.73733e-07	0	0	0
3.74663e-07	0	0	0
3.90599e-07	0	0	0
3.92555e-07	0	0	0
3.98794e-07	0	0	0
4.17774e-07	0	0	0
4.43326e-07	0	0	0
4.61493e-07	0	0	0
4.90522e-07	0	0	0
5.26517e-07	0	0	0
5.27004e-07	0	0	0
5.91655e-07	0	0	0
5.99604e-07	0	0	0
6.06439e-07	0	0	0
6.20951e-07	0	0	0
6.22885e-07	0	0	0
6.48303e-07	0	0	0
6.89253e-07	0	0	0
6.91907e-07	0	0	0
7.05515e-07	0	0	0
7.54434e-07	0	0	0
7.9332e-07	0	0	0
8.07081e-07	0	0	0
8.08591e-07	0	0	0
8.38861e-07	0	0	0
8.58474e-07	0	0	0
8.9234e-07	0	0	0
9.05426e-07	0	0	0
9.23868e-07	0	0	0
9.3027e-07	0	0	0
9.42346e-07	0	0	0
9.81179e-07	0	0	0
9.88437e-07	0	0	0
1.0146e-06	0	0	0
1.01993e-06	0	0	0
1.04352e-06	0	0	0
1.07289e-06	0	0	0
1.11963e-06	0	0	0
1.14017e-06	0	0	0
1.15331e-06	0	0	0
1.17036e-06	0	0	0
1.19352e-06	0	0	0
1.21671e-06	0	0	0
1.23278e-06	0	0	0
1.27301e-06	0	0	0
1.30485e-06	0	0	0
1.36007e-06	0	0	0
1.39893e-06	0	0	0
1.40359e-06	0	0	0
1.40862e-06	0	0	0
1.41638e-06	0	0	0
1.42109e-06	0	0	0
1.44223e-06	0	0	0
1.46608e-06	0	0	0
1.50207e-06	0	0	0
1.5235e-06	0	0	0
1.52943e-06	0	0	0
1.55257e-06	0	0	0
1.57347e-06	0	0	0
1.59193e-06	0	0	0
1.59232e-06	0	0	0
1.62596e-06	0	0	0
1.64783e-06	0	0	0
1.67301e-06	0	0	0
1.69131e-06	0	0	0
1.69709e-06	0	0	0
1.74284e-06	0	0	0
1.772e-06	0	0	0
1.83868e-06	0	0	0
1.8466e-06	0	0	0
1.8596e-06	0	0	0
1.86766e-06	0	0	0
1.87543e-06	0	0	0
1.91164e-06	0	0	0
1.9121e-06	0	0	0
1.91331e-06	0	0	0
1.92356e-06	0	0	0
1.92691e-06	0	0	0
1.93888e-06	0	0	0
1.9951e-06	0	0	0
2.08956e-06	0	0	0
2.09024e-06	0	0	0
2.10542e-06	0	0	0
2.11033e-06	0	0	0
2.12876e-06	0	0	0
2.13817e-06	0	0	0
2.13899e-06	0	0	0
2.14175e-06	0	0	0
2.15907e-06	0	0	0
2.18532e-06	0	0	0
2.20147e-06	0	0	0
2.21116e-06	0	0	0
2.22052e-06	0	0	0
2.29612e-06	0	0	0
2.34127e-06	0	0	0
2.37815e-06	0	0	0
2.41611e-06	0	0	0
2.494e-06	0	0	0
2.51468e-06	0	0	0
2.51718e-06	0	0	0
2.52653e-06	0	0	0
2.5951e-06	0	0	0
2.60338e-06	0	0	0
2.61091e-06	0	0	0
2.65312e-06	0	0	0
2.65624e-06	0	0	0
2.71118e-06	0	0	0
2.72495e-06	0	0	0
2.7579e-06	0	0	0
2.76562e-06	0	0	0
2.77362e-06	0	0	0
2.79784e-06	0	0	0
2.83745e-06	0	0	0
2.90273e-06	0	0	0
2.91285e-06	0	0	0
2.92204e-06	0	0	0
2.95776e-06	0	0	0
2.97624e-06	0	0	0
2.97731e-06	0	0	0
2.99861e-06	0	0	0
3.05777e-06	0	0	0
3.13717e-06	0	0	0
3.15628e-06	0	0	0
3.19769e-06	0	0	0
3.19916e-06	0	0	0
3.21715e-06	0	0	0
3.28471e-06	0	0	0
3.28791e-06	0	0	0
3.30276e-06	0	0	0
3.32907e-06	0	0	0
3.35338e-06	0	0	0
3.36258e-06	0	0	0
3.37556e-06	0	0	0
3.40595e-06	0	0	0
3.42363e-06	0	0	0
3.42454e-06	0	0	0
3.46294e-06	0	0	0
3.50428e-06	0	0	0
3.50611e-06	0	0	0
3.54888e-06	0	0	0
3.5859e-06	0	0	0
3.59971e-06	0	0	0
3.62901e-06	0	0	0
3.63183e-06	0	0	0
3.72908e-06	0	0	0
3.75016e-06	0	0	0
3.79538e-06	0	0	0
3.7992e-06	0	0	0
3.83238e-06	0	0	0
3.87358e-06	0	0	0
3.87906e-06	0	0	0
3.88185e-06	0	0	0
3.89289e-06	0	0	0
3.90991e-06	0	0	0
3.92164e-06	0	0	0
3.92596e-06	0	0	0
3.93718e-06	0	0	0
3.95449e-06	0	0	0
3.97129e-06	0	0	0
3.97734e-06	0	0	0
3.999e-06	0	0	0
4.00699e-06	0	0	0
4.02635e-06	0	0	0
4.03021e-06	0	0	0
4.03194e-06	0	0	0
4.04228e-06	0	0	0
4.05555e-06	0	0	0
4.08399e-06	0	0	0
4.12178e-06	0	0	0
4.12485e-06	0	0	0
4.12626e-06	0	0	0
4.18338e-06	0	0	0
4.18852e-06	0	0	0
4.19235e-06	0	0	0
4.21907e-06	0	0	0
4.23671e-06	0	0	0
4.27549e-06	0	0	0
4.34234e-06	0	0	0
4.34332e-06	0	0	0
4.34733e-06	0	0	0
4.34799e-06	0	0	0
4.37538e-06	0	0	0
4.37909e-06	0	0	0
4.39936e-06	0	0	0
4.40061e-06	0	0	0
4.40457e-06	0	0	0
4.41645e-06	0	0	0
4.4223e-06	0	0	0
4.43704e-06	0	0	0
4.45539e-06	0	0	0
4.45948e-06	0	0	0
4.46853e-06	0	0	0
4.46971e-06	0	0	0
4.47331e-06	0	0	0
4.51666e-06	0	0	0
4.52117e-06	0	0	0
4.53033e-06	0	0	0
4.53779e-06	0	0	0
4.55151e-06	0	0	0
4.55817e-06	0	0	0
4.58443e-06	0	0	0
4.58992e-06	0	0	0
4.59705e-06	0	0	0
4.59869e-06	0	0	0
4.61001e-06	0	0	0
4.62516e-06	0	0	0
4.70443e-06	0	0	0
4.70463e-06	0	0	0
4.70624e-06	0	0	0
4.75196e-06	0	0	0
4.76164e-06	0	0	0
4.7921e-06	0	0	0
4.79795e-06	0	0	0
4.81868e-06	0	0	0
4.91217e-06	0	0	0
4.91978e-06	0	0	0
4.9651e-06	0	0	0
4.99871e-06	0	0	0
5.00489e-06	0	0	0
5.01296e-06	0	0	0
5.01794e-06	0	0	0
5.04699e-06	0	0	0
5.07306e-06	0	0	0
5.14492e-06	0	0	0
5.15925e-06	0	0	0
5.16424e-06	0	0	0
5.26065e-06	0	0	0
5.28151e-06	0	0	0
5.28938e-06	0	0	0
5.30841e-06	0	0	0
5.31051e-06	0	0	0
5.36097e-06	0	0	0
5.36263e-06	0	0	0
5.36456e-06	0	0	0
5.39298e-06	0	0	0
5.39684e-06	0	0	0
5.40226e-06	0	0	0
5.41338e-06	0	0	0
5.44526e-06	0	0	0
5.46006e-06	0	0	0
5.46035e-06	0	0	0
5.50918e-06	0	0	0
5.51282e-06	0	0	0
5.5331e-06	0	0	0
5.55207e-06	0	0	0
5.61715e-06	0	0	0
5.65082e-06	0	0	0
5.67844e-06	0	0	0
5.72471e-06	0	0	0
5.75396e-06	0	0	0
5.82868e-06	0	0	0
5.88967e-06	0	0	0
5.91499e-06	0	0	0
5.97829e-06	0	0	0
5.98433e-06	0	0	0
5.98605e-06	0	0	0
6.05245e-06	0	0	0
6.06253e-06	0	0	0
6.06254e-06	0	0	0
6.07191e-06	0	0	0
6.09733e-06	0	0	0
6.16907e-06	0	0	0
6.18133e-06	0	0	0
6.1979e-06	0	0	0
6.21115e-06	0	0	0
6.21291e-06	0	0	0
6.23892e-06	0	0	0
6.2484e-06	0	0	0
6.31637e-06	0	0	0
6.35827e-06	0	0	0
6.39622e-06	0	0	0
6.39851e-06	0	0	0
6.50684e-06	0	0	0
6.51696e-06	0	0	0
6.55135e-06	0	0	0
6.62958e-06	0	0	0
6.65301e-06	0	0	0
6.65734e-06	0	0	0
6.67019e-06	0	0	0
6.72911e-06	0	0	0
6.75137e-06	0	0	0
6.75516e-06	0	0	0
6.76134e-06	0	0	0
6.76649e-06	0	0	0
6.8564e-06	0	0	0
6.8886e-06	0	0	0
6.94958e-06	0	0	0
6.97455e-06	0	0	0
7.02246e-06	0	0	0
7.02296e-06	0	0	0
7.03504e-06	0	0	0
7.10155e-06	0	0	0
7.13194e-06	0	0	0
7.1333e-06	0	0	0
7.1552e-06	0	0	0
7.20401e-06	0	0	0
7.26123e-06	0	0	0
7.32745e-06	0	0	0
7.32882e-06	0	0	0
7.32916e-06	0	0	0
7.34266e-06	0	0	0
7.36945e-06	0	0	0
7.38814e-06	0	0	0
7.44969e-06	0	0	0
7.45307e-06	0	0	0
7.45583e-06	0	0	0
7.47576e-06	0	0	0
7.47926e-06	0	0	0
7.48505e-06	0	0	0
7.52981e-06	0	0	0
7.58422e-06	0	0	0
7.62128e-06	0	0	0
7.7408e-06	0	0	0
7.76566e-06	0	0	0
7.77272e-06	0	0	0
7.79559e-06	0	0	0
7.80532e-06	0	0	0
7.83585e-06	0	0	0
7.84506e-06	0	0	0
7.88223e-06	0	0	0
7.90255e-06	0	0	0
7.9089e-06	0	0	0
7.9603e-06	0	0	0
8.00617e-06	0	0	0
8.08431e-06	0	0	0
8.1637e-06	0	0	0
8.19124e-06	0	0	0
8.22926e-06	0	0	0
8.23791e-06	0	0	0
8.31906e-06	0	0	0
8.40186e-06	0	0	0
8.43176e-06	0	0	0
8.45581e-06	0	0	0
8.47001e-06	0	0	0
8.50853e-06	0	0	0
8.51966e-06	0	0	0
8.5889e-06	0	0	0
8.59291e-06	0	0	0
8.5998e-06	0	0	0
8.61307e-06	0	0	0
8.63857e-06	0	0	0
8.6552e-06	0	0	0
8.66006e-06	0	0	0
8.6631e-06	0	0	0
8.66977e-06	0	0	0
8.73221e-06	0	0	0
8.75406e-06	0	0	0
8.82199e-06	0	0	0
8.83841e-06	0	0	0
8.93003e-06	0	0	0
9.09313e-06	0	0	0
9.14089e-06	0	0	0
9.15871e-06	0	0	0
9.17938e-06	0	0	0
9.20069e-06	0	0	0
9.3286e-06	0	0	0
9.37963e-06	0	0	0
9.40785e-06	0	0	0
9.42183e-06	0	0	0
9.43409e-06	0	0	0
9.49424e-06	0	0	0
9.67734e-06	0	0	0
9.6993e-06	0	0	0
9.72253e-06	0	0	0
9.82485e-06	0	0	0
9.87678e-06	0	0	0
9.87829e-06	0	0	0
9.88704e-06	0	0	0
1.00324e-05	0	0	0
1.00747e-05	0	0	0
1.00863e-05	0	0	0
1.00988e-05	0	0	0
1.01416e-05	0	0	0
1.01681e-05	0	0	0
1.0207e-05	0	0	0
1.02125e-05	0	0	0
1.023e-05	0	0	0
1.0314e-05	0	0	0
1.03549e-05	0	0	0
1.03933e-05	0	0	0
1.04358e-05	0	0	0
1.04499e-05	0	0	0
1.0461e-05	0	0	0
1.05939e-05	0	0	0
1.06035e-05	0	0	0
1.06325e-05	0	0	0
1.06442e-05	0	0	0
1.06808e-05	0	0	0
1.07896e-05	0	0	0
1.08916e-05	0	0	0
1.1067e-05	0	0	0
1.10788e-05	0	0	0
1.10885e-05	0	0	0
1.1171e-05	0	0	0
1.11728e-05	0	0	0
1.12215e-05	0	0	0
1.12596e-05	0	0	0
1.12709e-05	0	0	0
1.13034e-05	0	0	0
1.14708e-05	0	0	0
1.1489e-05	0	0	0
1.15043e-05	0	0	0
1.15168e-05	0	0	0
1.152e-05	0	0	0
1.15786e-05	0	0	0
1.17225e-05	0	0	0
1.17477e-05	0	0	0
1.18022e-05	0	0	0
1.19315e-05	0	0	0
1.20696e-05	0	0	0
1.20852e-05	0	0	0
1.21006e-05	0	0	0
1.21341e-05	0	0	0
1.21692e-05	0	0	0
1.23602e-05	0	0	0
1.24518e-05	0	0	0
1.25101e-05	0	0	0
1.25469e-05	0	0	0
1.25516e-05	0	0	0
1.26156e-05	0	0	0
1.27453e-05	0	0	0
1.27773e-05	0	0	0
1.27836e-05	0	0	0
1.28869e-05	0	0	0
1.29114e-05	0	0	0
1.29185e-05	0	0	0
1.29286e-05	0	0	0
1.3008e-05	0	0	0
1.3074e-05	0	0	0
1.30942e-05	0	0	0
1.32475e-05	0	0	0
1.3249e-05	0	0	0
1.32753e-05	0	0	0
1.33119e-05	0	0	0
1.34152e-05	0	0	0
1.34402e-05	0	0	0
1.35055e-05	0	0	0
1.36601e-05	0	0	0
1.36885e-05	0	0	0
1.37656e-05	0	0	0
1.388e-05	0	0	0
1.39022e-05	0	0	0
1.39615e-05	0	0	0
1.40928e-05	0	0	0
1.41311e-05	0	0	0
1.41708e-05	0	0	0
1.4177e-05	0	0	0
1.418e-05	0	0	0
1.42734e-05	0	0	0
1.42966e-05	0	0	0
1.43124e-05	0	0	0
1.44269e-05	0	0	0
1.45104e-05	0	0	0
1.45138e-05	0	0	0
1.45309e-05	0	0	0
1.46088e-05	0	0	0
1.4655e-05	0	0	0
1.4719e-05	0	0	0
1.48174e-05	0	0	0
1.48591e-05	0	0	0
1.49704e-05	0	0	0
1.51874e-05	0	0	0
1.52275e-05	0	0	0
1.53671e-05	0	0	0
1.54653e-05	0	0	0
1.54734e-05	0	0	0
1.55708e-05	0	0	0
1.56607e-05	0	0	0
1.57003e-05	0	0	0
1.57414e-05	0	0	0
1.58137e-05	0	0	0
1.58159e-05	0	0	0
1.59083e-05	0	0	0
1.59533e-05	0	0	0
1.59966e-05	0	0	0
1.60709e-05	0	0	0
1.61456e-05	0	0	0
1.61658e-05	0	0	0
1.62427e-05	0	0	0
1.6287e-05	0	0	0
1.63241e-05	0	0	0
1.63909e-05	0	0	0
1.65617e-05	0	0	0
1.65908e-05	0	0	0
1.6664e-05	0	0	0
1.66779e-05	0	0	0
1.67003e-05	0	0	0
1.67666e-05	0	0	0
1.69117e-05	0	0	0
1.69972e-05	0	0	0
1.71125e-05	0	0	0
1.73128e-05	0	0	0
1.73849e-05	0	0	0
1.74227e-05	0	0	0
1.74633e-05	0	0	0
1.75084e-05	0	0	0
1.75268e-05	0	0	0
1.75757e-05	0	0	0
1.76106e-05	0	0	0
1.76309e-05	0	0	0
1.76441e-05	0	0	0
1.77407e-05	0	0	0
1.776e-05	0	0	0
1.78019e-05	0	0	0
1.79094e-05	0	0	0
1.7916e-05	0	0	0
1.79201e-05	0	0	0
1.79397e-05	0	0	0
1.80967e-05	0	0	0
1.81062e-05	0	0	0
1.8147e-05	0	0	0
1.81692e-05	0	0	0
1.82012e-05	0	0	0
1.8208e-05	0	0	0
1.84551e-05	0	0	0
1.86358e-05	0	0	0
1.8682e-05	0	0	0
1.87565e-05	0	0	0
1.87683e-05	0	0	0
1.8847e-05	0	0	0
1.89334e-05	0	0	0
1.89527e-05	0	0	0
1.90727e-05	0	0	0
1.91492e-05	0	0	0
1.92703e-05	0	0	0
1.93692e-05	0	0	0
1.94032e-05	0	0	0
1.94845e-05	0	0	0
1.95162e-05	0	0	0
1.97511e-05	0	0	0
1.97742e-05	0	0	0
1.9813e-05	0	0	0
1.9858e-05	0	0	0
1.98649e-05	0	0	0
2.01106e-05	0	0	0
2.01125e-05	0	0	0
2.01503e-05	0	0	0
2.01991e-05	0	0	0
2.02585e-05	0	0	0
2.03117e-05	0	0	0
2.03923e-05	0	0	0
2.04549e-05	0	0	0
2.05673e-05	0	0	0
2.06686e-05	0	0	0
2.06981e-05	0	0	0
2.07769e-05	0	0	0
2.07857e-05	0	0	0
2.08207e-05	0	0	0
2.0907e-05	0	0	0
2.1025e-05	0	0	0
2.10299e-05	0	0	0
2.1095e-05	0	0	0
2.11553e-05	0	0	0
2.12625e-05	0	0	0
2.12748e-05	0	0	0
2.16107e-05	0	0	0
2.1796e-05	0	0	0
2.18913e-05	0	0	0
2.19316e-05	0	0	0
2.20223e-05	0	0	0
2.21436e-05	0	0	0
2.23249e-05	0	0	0
2.23924e-05	0	0	0
2.24389e-05	0	0	0
2.24438e-05	0	0	0
2.24818e-05	0	0	0
2.25017e-05	0	0	0
2.25077e-05	0	0	0
2.27202e-05	0	0	0
2.27406e-05	0	0	0
2.3098e-05	0	0	0
2.31779e-05	0	0	0
2.33169e-05	0	0	0
2.33404e-05	0	0	0
2.34045e-05	0	0	0
2.34213e-05	0	0	0
2.34964e-05	0	0	0
2.36282e-05	0	0	0
2.37064e-05	0	0	0
2.3759e-05	0	0	0
2.39541e-05	0	0	0
2.41158e-05	0	0	0
2.41316e-05	0	0	0
2.41525e-05	0	0	0
2.41981e-05	0	0	0
2.42915e-05	0	0	0
2.43103e-05	0	0	0
2.44042e-05	0	0	0
2.44062e-05	0	0	0
2.44915e-05	0	0	0
2.44986e-05	0	0	0
2.46109e-05	0	0	0
2.46457e-05	0	0	0
2.46797e-05	0	0	0
2.47798e-05	0	0	0
2.48308e-05	0	0	0
2.48671e-05	0	0	0
2.49001e-05	0	0	0
2.50976e-05	0	0	0
2.51568e-05	0	0	0
2.53877e-05	0	0	0
2.5456e-05	0	0	0
2.5524e-05	0	0	0
2.55496e-05	0	0	0
2.56976e-05	0	0	0
2.57255e-05	0	0	0
2.57837e-05	0	0	0
2.59187e-05	0	0	0
2.59434e-05	0	0	0
2.59908e-05	0	0	0
2.63981e-05	0	0	0
2.64195e-05	0	0	0
2.64352e-05	0	0	0
2.65396e-05	0	0	0
2.65528e-05	0	0	0
2.66421e-05	0	0	0
2.6686e-05	0	0	0
2.69183e-05	0	0	0
2.69599e-05	0	0	0
2.69766e-05	0	0	0
2.71574e-05	0	0	0
2.71908e-05	0	0	0
2.72729e-05	0	0	0
2.72731e-05	0	0	0
2.74087e-05	0	0	0
2.74389e-05	0	0	0
2.75525e-05	0	0	0
2.76497e-05	0	0	0
2.77294e-05	0	0	0
2.77443e-05	0	0	0
2.78727e-05	0	0	0
2.79784e-05	0	0	0
2.80224e-05	0	0	0
2.80382e-05	0	0	0
2.81703e-05	0	0	0
2.82319e-05	0	0	0
2.8583e-05	0	0	0
2.90895e-05	0	0	0
2.90928e-05	0	0	0
2.9352e-05	0	0	0
2.93689e-05	0	0	0
2.94348e-05	0	0	0
2.94405e-05	0	0	0
2.95451e-05	0	0	0
2.95908e-05	0	0	0
2.96173e-05	0	0	0
2.96303e-05	0	0	0
2.9738e-05	0	0	0
2.99038e-05	0	0	0
2.99175e-05	0	0	0
3.00008e-05	0	0	0
3.00169e-05	0	0	0
3.01017e-05	0	0	0
3.02488e-05	0	0	0
3.04281e-05	0	0	0
3.05171e-05	0	0	0
3.06319e-05	0	0	0
3.07852e-05	0	0	0
3.07893e-05	0	0	0
3.09851e-05	0	0	0
3.10143e-05	0	0	0
3.11071e-05	0	0	0
3.11132e-05	0	0	0
3.12109e-05	0	0	0
3.14881e-05	0	0	0
3.14956e-05	0	0	0
3.15077e-05	0	0	0
3.17373e-05	0	0	0
3.18146e-05	0	0	0
3.18681e-05	0	0	0
3.195e-05	0	0	0
3.22754e-05	0	0	0
3.24228e-05	0	0	0
3.24687e-05	0	0	0
3.26418e-05	0	0	0
3.26507e-05	0	0	0
3.28345e-05	0	0	0
3.29399e-05	0	0	0
3.30747e-05	0	0	0
3.30847e-05	0	0	0
3.31289e-05	0	0	0
3.3164e-05	0	0	0
3.32531e-05	0	0	0
3.32933e-05	0	0	0
3.35073e-05	0	0	0
3.35093e-05	0	0	0
3.37696e-05	0	0	0
3.37989e-05	0	0	0
3.38137e-05	0	0	0
3.39428e-05	0	0	0
3.40703e-05	0	0	0
3.41107e-05	0	0	0
3.41623e-05	0	0	0
3.42912e-05	0	0	0
3.44214e-05	0	0	0
3.44258e-05	0	0	0
3.44308e-05	0	0	0
3.44418e-05	0	0	0
3.44801e-05	0	0	0
3.45111e-05	0	0	0
3.48599e-05	0	0	0
3.48727e-05	0	0	0
3.49554e-05	0	0	0
3.50548e-05	0	0	0
3.51624e-05	0	0	0
3.52197e-05	0	0	0
3.52313e-05	0	0	0
3.52392e-05	0	0	0
3.52572e-05	0	0	0
3.55131e-05	0	0	0
3.554e-05	0	0	0
3.56394e-05	0	0	0
3.5735e-05	0	0	0
3.57843e-05	0	0	0
3.58081e-05	0	0	0
3.58164e-05	0	0	0
3.5954e-05	0	0	0
3.59885e-05	0	0	0
3.59936e-05	0	0	0
3.66312e-05	0	0	0
3.67019e-05	0	0	0
3.68381e-05	0	0	0
3.691e-05	0	0	0
3.71337e-05	0	0	0
3.7236e-05	0	0	0
3.73197e-05	0	0	0
3.74682e-05	0	0	0
3.77958e-05	0	0	0
3.78941e-05	0	0	0
3.79738e-05	0	0	0
3.87248e-05	0	0	0
3.88423e-05	0	0	0
3.88491e-05	0	0	0
3.89483e-05	0	0	0
3.89684e-05	0	0	0
3.91366e-05	0	0	0
3.92777e-05	0	0	0
3.93378e-05	0	0	0
3.96139e-05	0	0	0
3.97226e-05	0	0	0
3.98302e-05	0	0	0
3.9836e-05	0	0	0
3.98886e-05	0	0	0
4.00005e-05	0	0	0
4.00159e-05	0	0	0
4.02582e-05	0	0	0
4.04172e-05	0	0	0
4.05368e-05	0	0	0
4.09081e-05	0	0	0
4.09429e-05	0	0	0
4.126e-05	0	0	0
4.13165e-05	0	0	0
4.1384e-05	0	0	0
4.14871e-05	0	0	0
4.18084e-05	0	0	0
4.20483e-05	0	0	0
4.26863e-05	0	0	0
4.30412e-05	0	0	0
4.35457e-05	0	0	0
4.36024e-05	0	0	0
4.39149e-05	0	0	0
4.39258e-05	0	0	0
4.39455e-05	0	0	0
4.40602e-05	0	0	0
4.41453e-05	0	0	0
4.41583e-05	0	0	0
4.43888e-05	0	0	0
4.45566e-05	0	0	0
4.49964e-05	0	0	0
4.50486e-05	0	0	0
4.51976e-05	0	0	0
4.58423e-05	0	0	0
4.59484e-05	0	0	0
4.59758e-05	0	0	0
4.61217e-05	0	0	0
4.6244e-05	0	0	0
4.67518e-05	0	0	0
4.68791e-05	0	0	0
4.7165e-05	0	0	0
4.77645e-05	0	0	0
4.77797e-05	0	0	0
4.77906e-05	0	0	0
4.81842e-05	0	0	0
4.83511e-05	0	0	0
4.85157e-05	0	0	0
4.87571e-05	0	0	0
4.89985e-05	0	0	0
4.92662e-05	0	0	0
4.92716e-05	0	0	0
4.94005e-05	0	0	0
4.94489e-05	0	0	0
4.99586e-05	0	0	0
5.02905e-05	0	0	0
5.03025e-05	0	0	0
5.07762e-05	0	0	0
5.1101e-05	0	0	0
5.11919e-05	0	0	0
5.11948e-05	0	0	0
5.16642e-05	0	0	0
5.2141e-05	0	0	0
5.21909e-05	0	0	0
5.25675e-05	0	0	0
5.27331e-05	0	0	0
5.27468e-05	0	0	0
5.29228e-05	0	0	0
5.30222e-05	0	0	0
5.35377e-05	0	0	0
5.40638e-05	0	0	0
5.40907e-05	0	0	0
5.42205e-05	0	0	0
5.43093e-05	0	0	0
5.45976e-05	0	0	0
5.46757e-05	0	0	0
5.46927e-05	0	0	0
5.48103e-05	0	0	0
5.48439e-05	0	0	0
5.48664e-05	0	0	0
5.50604e-05	0	0	0
5.51548e-05	0	0	0
5.54835e-05	0	0	0
5.55354e-05	0	0	0
5.5823e-05	0	0	0
5.61348e-05	0	0	0
5.6426e-05	0	0	0
5.70736e-05	0	0	0
5.70998e-05	0	0	0
5.72562e-05	0	0	0
5.73532e-05	0	0	0
5.75488e-05	0	0	0
5.75966e-05	0	0	0
5.76899e-05	0	0	0
5.77882e-05	0	0	0
5.78517e-05	0	0	0
5.82903e-05	0	0	0
5.86282e-05	0	0	0
5.89603e-05	0	0	0
5.93688e-05	0	0	0
5.97918e-05	0	0	0
6.00333e-05	0	0	0
6.11362e-05	0	0	0
6.1157e-05	0	0	0
6.14124e-05	0	0	0
6.14445e-05	0	0	0
6.15163e-05	0	0	0
6.15304e-05	0	0	0
6.16278e-05	0	0	0
6.19464e-05	0	0	0
6.25981e-05	0	0	0
6.26285e-05	0	0	0
6.27422e-05	0	0	0
6.28171e-05	0	0	0
6.30567e-05	0	0	0
6.32832e-05	0	0	0
6.34694e-05	0	0	0
6.35842e-05	0	0	0
6.35877e-05	0	0	0
6.37174e-05	0	0	0
6.3725e-05	0	0	0
6.44195e-05	0	0	0
6.46029e-05	0	0	0
6.5183e-05	0	0	0
6.60338e-05	0	0	0
6.62038e-05	0	0	0
6.65247e-05	0	0	0
6.65364e-05	0	0	0
6.71262e-05	0	0	0
6.74465e-05	0	0	0
6.75527e-05	0	0	0
6.76446e-05	0	0	0
6.76559e-05	0	0	0
6.82273e-05	0	0	0
6.86085e-05	0	0	0
6.86996e-05	0	0	0
6.93588e-05	0	0	0
7.0636e-05	0	0	0
7.0642e-05	0	0	0
7.07399e-05	0	0	0
7.12211e-05	0	0	0
7.1252e-05	0	0	0
7.12666e-05	0	0	0
7.14632e-05	0	0	0
7.15694e-05	0	0	0
7.17047e-05	0	0	0
7.20066e-05	0	0	0
7.22247e-05	0	0	0
7.27853e-05	0	0	0
7.31993e-05	0	0	0
7.37802e-05	0	0	0
7.42105e-05	0	0	0
7.43903e-05	0	0	0
7.46241e-05	0	0	0
7.49196e-05	0	0	0
7.51032e-05	0	0	0
7.52865e-05	0	0	0
7.55832e-05	0	0	0
7.57463e-05	0	0	0
7.6533e-05	0	0	0
7.6602e-05	0	0	0
7.68596e-05	0	0	0
7.7009e-05	0	0	0
7.71566e-05	0	0	0
7.74678e-05	0	0	0
7.74977e-05	0	0	0
7.80866e-05	0	0	0
8.07129e-05	0	0	0
8.12811e-05	0	0	0
8.13788e-05	0	0	0
8.14126e-05	0	0	0
8.19862e-05	0	0	0
8.22617e-05	0	0	0
8.22847e-05	0	0	0
8.35142e-05	0	0	0
8.35448e-05	0	0	0
8.36469e-05	0	0	0
8.40644e-05	0	0	0
8.46176e-05	0	0	0
8.47208e-05	0	0	0
8.47438e-05	0	0	0
8.49109e-05	0	0	0
8.49924e-05	0	0	0
8.50313e-05	0	0	0
8.58175e-05	0	0	0
8.59956e-05	0	0	0
8.64524e-05	0	0	0
8.65781e-05	0	0	0
8.66649e-05	0	0	0
8.68222e-05	0	0	0
8.70858e-05	0	0	0
8.7318e-05	0	0	0
8.74869e-05	0	0	0
8.8144e-05	0	0	0
8.84656e-05	0	0	0
8.85698e-05	0	0	0
8.89789e-05	0	0	0
8.92771e-05	0	0	0
8.93158e-05	0	0	0
8.97864e-05	0	0	0
8.98477e-05	0	0	0
9.05473e-05	0	0	0
9.05879e-05	0	0	0
9.09453e-05	0	0	0
9.26712e-05	0	0	0
9.35801e-05	0	0	0
9.43954e-05	0	0	0
9.53694e-05	0	0	0
9.56326e-05	0	0	0
9.59363e-05	0	0	0
9.60235e-05	0	0	0
9.70511e-05	0	0	0
9.70843e-05	0	0	0
9.73074e-05	0	0	0
9.8116e-05	0	0	0
9.85073e-05	0	0	0
9.86261e-05	0	0	0
9.92984e-05	0	0	0
9.93295e-05	0	0	0
9.93622e-05	0	0	0
9.94045e-05	0	0	0
9.96064e-05	0	0	0
0.000100054	0	0	0
0.000100606	0	0	0
0.000100958	0	0	0
0.000102278	0	0	0
0.00010242	0	0	0
0.000102525	0	0	0
0.000103373	0	0	0
0.000103803	0	0	0
0.000105664	0	0	0
0.000105815	0	0	0
0.000106396	0	0	0
0.000106536	0	0	0
0.00010742	0	0	0
0.000107552	0	0	0
0.000107711	0	0	0
0.000108323	0	0	0
0.000108561	0	0	0
0.000109492	0	0	0
0.000111192	0	0	0
0.000112098	0	0	0
0.000112612	0	0	0
0.000114113	0	0	0
0.000116071	0	0	0
0.000116119	0	0	0
0.000118495	0	0	0
0.000118767	0	0	0
0.00011953	0	0	0
0.000119621	0	0	0
0.000119819	0	0	0
0.000119854	0	0	0
0.000121794	0	0	0
0.000122297	0	0	0
0.000123164	0	0	0
0.000123229	0	0	0
0.000124738	0	0	0
0.000125386	0	0	0
0.000125771	0	0	0
0.000127093	0	0	0
0.000127672	0	0	0
0.000127978	0	0	0
0.000128472	0	0	0
0.000128746	0	0	0
0.000128909	0	0	0
0.000130625	0	0	0
0.000130653	0	0	0
0.000130886	0	0	0
0.000134234	0	0	0
0.000134435	0	0	0
0.000135293	0	0	0
0.000136922	0	0	0
0.000138646	0	0	0
0.000138914	0	0	0
0.000140568	0	0	0
0.000141543	0	0	0
0.000142734	0	0	0
0.00014366	0	0	0
0.000145582	0	0	0
0.000145976	0	0	0
0.000148648	0	0	0
0.000149162	0	0	0
0.000149403	0	0	0
0.000149779	0	0	0
0.000151326	0	0	0
0.000151353	0	0	0
0.000156567	0	0	0
0.000158966	0	0	0
0.000160539	0	0	0
0.000160554	0	0	0
0.000160797	0	0	0
0.000162367	0	0	0
0.000162575	0	0	0
0.000163324	0	0	0
0.000169287	0	0	0
0.000171755	0	0	0
0.000173997	0	0	0
0.000174665	0	0	0
0.000176503	0	0	0
0.00019222	0	0	0
0.000192539	0	0	0
0.000194316	0	0	0
0.000194342	0	0	0
0.000199763	0	0	0
0.000204861	0	0	0
0.000206404	0	0	0
0.000206783	0	0	0
0.000212505	0	0	0
0.000216778	0	0	0
0.000221083	0	0	0
0.000223123	0	0	0
0.000224209	0	0	0
0.000226232	0	0	0
0.000228379	0	0	0
0.000232775	0	0	0
0.000236552	0	0	0
0.000243133	0	0	0
0.000244727	0	0	0
0.000246468	0	0	0
0.00025721	0	0	0
0.000259818	0	0	0
0.00027233	0	0	0
0.0002768	0	0	0
0.000279923	0	0	0
0.000292443	0	0	0
0.000295283	0	0	0
0.000296884	0	0	0
0.000297308	0	0	0
0.000300544	0	0	0
0.000310574	0	0	0
0.000332795	0	0	0
0.000332937	0	0	0
0.000342512	0	0	0
0.000342628	0	0	0
0.000352519	0	0	0
0.000362116	0	0	0
0.000384058	0	0	0
0.000387929	0	0	0
0.000400344	0	0	0
0.000434362	0	0	0
0.000452601	0	0	0
0.000484388	0	0	0
0.000530978	0	0	0
0.000551595	0	0	0
0.000635612	0	0	0
0.00064714	0	0	0
0.000671972	0	0	0
0.000686854	0	0	0
0.000718511	0	0	0
0.000741737	0	0	0
0.000744422	0	0	0
0.000749383	0	0	0
0.000768347	0	0	0
0.000818825	0	0	0
0.000835101	0	0	0
0.000879346	0	0	0
0.000910393	0	0	0
0.000941255	0	0	0
0.000951239	0	0	0
0.000964617	0	0	0
0.00101013	0	0	0
0.0011072	0	0	0
0.00112134	0	0	0
0.00115316	0	0	0
0.00117996	0	0	0
0.00122104	0	0	0
0.00135393	0	0	0
0.00139123	0	0	0
0.00144736	0	0	0
0.00152371	0	0	0
0.00157382	0	0	0
0.00163423	0	0	0
0.00168091	0	0	0
0.00194591	0	0	0
0.00216912	0	0	0
0.00235481	0	0	0
0.0024646	0	0	0
0.0032447	0	0	0
0.00368469	0	0	0
0.00386314	0	0	0
0.00393513	0	0	0
0.0043674	0	0	0
0.0044299	0	0	0
0.00467681	0	0	0
0.00560667	0	0	0
0.00769486	0	0	0
