4.02296e-09	0	0	0
3.27405e-08	0	0	0
5.92647e-08	0	0	0
6.34337e-08	0	0	0
6.71068e-08	0	0	0
7.8443e-08	0	0	0
8.96786e-08	0	0	0
1.01039e-07	0	0	0
1.2685e-07	0	0	0
1.39744e-07	0	0	0
1.53228e-07	0	0	0
2.10555e-07	0	0	0
2.24674e-07	0	0	0
2.47907e-07	0	0	0
2.84683e-07	0	0	0
2.85703e-07	0	0	0
3.07685e-07	0	0	0
3.5022e-07	0	0	0
3.5229e-07	0	0	0
3.66381e-07	0	0	0
4.11297e-07	0	0	0
4.42274e-07	0	0	0
4.63162e-07	0	0	0
4.65081e-07	0	0	0
4.68237e-07	0	0	0
4.69436e-07	0	0	0
4.75752e-07	0	0	0
5.16133e-07	0	0	0
5.68193e-07	0	0	0
6.07269e-07	0	0	0
6.20995e-07	0	0	0
6.74074e-07	0	0	0
7.00042e-07	0	0	0
7.27593e-07	0	0	0
7.30994e-07	0	0	0
7.32137e-07	0	0	0
7.43918e-07	0	0	0
7.69871e-07	0	0	0
8.13222e-07	0	0	0
8.22574e-07	0	0	0
8.62668e-07	0	0	0
8.78356e-07	0	0	0
8.80042e-07	0	0	0
8.83179e-07	0	0	0
9.09302e-07	0	0	0
9.2105e-07	0	0	0
9.58792e-07	0	0	0
9.95487e-07	0	0	0
1.00398e-06	0	0	0
1.01451e-06	0	0	0
1.04703e-06	0	0	0
1.06924e-06	0	0	0
1.09143e-06	0	0	0
1.09893e-06	0	0	0
1.10608e-06	0	0	0
1.12036e-06	0	0	0
1.13712e-06	0	0	0
1.14454e-06	0	0	0
1.16006e-06	0	0	0
1.21598e-06	0	0	0
1.22281e-06	0	0	0
1.27883e-06	0	0	0
1.27931e-06	0	0	0
1.30546e-06	0	0	0
1.31015e-06	0	0	0
1.40518e-06	0	0	0
1.41038e-06	0	0	0
1.42595e-06	0	0	0
1.50421e-06	0	0	0
1.50633e-06	0	0	0
1.51735e-06	0	0	0
1.58974e-06	0	0	0
1.61009e-06	0	0	0
1.61759e-06	0	0	0
1.64138e-06	0	0	0
1.6595e-06	0	0	0
1.664e-06	0	0	0
1.66918e-06	0	0	0
1.73999e-06	0	0	0
1.74017e-06	0	0	0
1.74615e-06	0	0	0
1.76194e-06	0	0	0
1.78799e-06	0	0	0
1.81345e-06	0	0	0
1.85369e-06	0	0	0
1.93871e-06	0	0	0
1.94118e-06	0	0	0
1.95359e-06	0	0	0
1.99032e-06	0	0	0
1.99054e-06	0	0	0
1.99788e-06	0	0	0
2.00116e-06	0	0	0
2.00196e-06	0	0	0
2.00778e-06	0	0	0
2.01956e-06	0	0	0
2.02659e-06	0	0	0
2.03397e-06	0	0	0
2.03694e-06	0	0	0
2.03721e-06	0	0	0
2.04375e-06	0	0	0
2.04797e-06	0	0	0
2.08131e-06	0	0	0
2.10994e-06	0	0	0
2.11233e-06	0	0	0
2.11388e-06	0	0	0
2.20761e-06	0	0	0
2.22428e-06	0	0	0
2.23104e-06	0	0	0
2.24287e-06	0	0	0
2.24488e-06	0	0	0
2.25105e-06	0	0	0
2.26726e-06	0	0	0
2.26796e-06	0	0	0
2.31311e-06	0	0	0
2.31691e-06	0	0	0
2.32446e-06	0	0	0
2.37957e-06	0	0	0
2.41377e-06	0	0	0
2.43081e-06	0	0	0
2.48432e-06	0	0	0
2.49619e-06	0	0	0
2.50438e-06	0	0	0
2.54387e-06	0	0	0
2.56427e-06	0	0	0
2.56596e-06	0	0	0
2.57538e-06	0	0	0
2.63717e-06	0	0	0
2.64137e-06	0	0	0
2.64353e-06	0	0	0
2.70951e-06	0	0	0
2.72669e-06	0	0	0
2.73818e-06	0	0	0
2.78513e-06	0	0	0
2.79781e-06	0	0	0
2.85374e-06	0	0	0
2.86087e-06	0	0	0
2.86418e-06	0	0	0
2.86456e-06	0	0	0
2.89739e-06	0	0	0
2.90828e-06	0	0	0
2.90968e-06	0	0	0
2.94097e-06	0	0	0
2.944e-06	0	0	0
2.97357e-06	0	0	0
3.00097e-06	0	0	0
3.00156e-06	0	0	0
3.01202e-06	0	0	0
3.03201e-06	0	0	0
3.11756e-06	0	0	0
3.12911e-06	0	0	0
3.13905e-06	0	0	0
3.14535e-06	0	0	0
3.15676e-06	0	0	0
3.16206e-06	0	0	0
3.16548e-06	0	0	0
3.16579e-06	0	0	0
3.17499e-06	0	0	0
3.22024e-06	0	0	0
3.2243e-06	0	0	0
3.24988e-06	0	0	0
3.25648e-06	0	0	0
3.26018e-06	0	0	0
3.34604e-06	0	0	0
3.37913e-06	0	0	0
3.42541e-06	0	0	0
3.45931e-06	0	0	0
3.4609e-06	0	0	0
3.46673e-06	0	0	0
3.48841e-06	0	0	0
3.51169e-06	0	0	0
3.51853e-06	0	0	0
3.54471e-06	0	0	0
3.62067e-06	0	0	0
3.65361e-06	0	0	0
3.66161e-06	0	0	0
3.67382e-06	0	0	0
3.67889e-06	0	0	0
3.69959e-06	0	0	0
3.72393e-06	0	0	0
3.80414e-06	0	0	0
3.82062e-06	0	0	0
3.88179e-06	0	0	0
3.88416e-06	0	0	0
3.98527e-06	0	0	0
3.98585e-06	0	0	0
4.00255e-06	0	0	0
4.02067e-06	0	0	0
4.03694e-06	0	0	0
4.04228e-06	0	0	0
4.05885e-06	0	0	0
4.06818e-06	0	0	0
4.10404e-06	0	0	0
4.12513e-06	0	0	0
4.13162e-06	0	0	0
4.13388e-06	0	0	0
4.14809e-06	0	0	0
4.22057e-06	0	0	0
4.23248e-06	0	0	0
4.28917e-06	0	0	0
4.34847e-06	0	0	0
4.36885e-06	0	0	0
4.40822e-06	0	0	0
4.44295e-06	0	0	0
4.44794e-06	0	0	0
4.45732e-06	0	0	0
4.4673e-06	0	0	0
4.47135e-06	0	0	0
4.48103e-06	0	0	0
4.49408e-06	0	0	0
4.51809e-06	0	0	0
4.54037e-06	0	0	0
4.56043e-06	0	0	0
4.56597e-06	0	0	0
4.61488e-06	0	0	0
4.61799e-06	0	0	0
4.63004e-06	0	0	0
4.63861e-06	0	0	0
4.65383e-06	0	0	0
4.71774e-06	0	0	0
4.74703e-06	0	0	0
4.75931e-06	0	0	0
4.76203e-06	0	0	0
4.7677e-06	0	0	0
4.83478e-06	0	0	0
4.8433e-06	0	0	0
4.89877e-06	0	0	0
4.91213e-06	0	0	0
4.9241e-06	0	0	0
4.93751e-06	0	0	0
5.00374e-06	0	0	0
5.01538e-06	0	0	0
5.11859e-06	0	0	0
5.12021e-06	0	0	0
5.17076e-06	0	0	0
5.19587e-06	0	0	0
5.24114e-06	0	0	0
5.24219e-06	0	0	0
5.2625e-06	0	0	0
5.26837e-06	0	0	0
5.30111e-06	0	0	0
5.3055e-06	0	0	0
5.3372e-06	0	0	0
5.34147e-06	0	0	0
5.35757e-06	0	0	0
5.39002e-06	0	0	0
5.43364e-06	0	0	0
5.45433e-06	0	0	0
5.45513e-06	0	0	0
5.48339e-06	0	0	0
5.48779e-06	0	0	0
5.49542e-06	0	0	0
5.50103e-06	0	0	0
5.51387e-06	0	0	0
5.51931e-06	0	0	0
5.52426e-06	0	0	0
5.54087e-06	0	0	0
5.55426e-06	0	0	0
5.56779e-06	0	0	0
5.56802e-06	0	0	0
5.62688e-06	0	0	0
5.63568e-06	0	0	0
5.64996e-06	0	0	0
5.65554e-06	0	0	0
5.69118e-06	0	0	0
5.76721e-06	0	0	0
5.77627e-06	0	0	0
5.81166e-06	0	0	0
5.81973e-06	0	0	0
5.82399e-06	0	0	0
5.86215e-06	0	0	0
5.88742e-06	0	0	0
5.88863e-06	0	0	0
5.91834e-06	0	0	0
5.92534e-06	0	0	0
5.94316e-06	0	0	0
5.96179e-06	0	0	0
5.96296e-06	0	0	0
6.05314e-06	0	0	0
6.08635e-06	0	0	0
6.10685e-06	0	0	0
6.172e-06	0	0	0
6.17334e-06	0	0	0
6.1748e-06	0	0	0
6.20074e-06	0	0	0
6.22491e-06	0	0	0
6.24137e-06	0	0	0
6.26968e-06	0	0	0
6.27372e-06	0	0	0
6.28898e-06	0	0	0
6.31138e-06	0	0	0
6.317e-06	0	0	0
6.39402e-06	0	0	0
6.39718e-06	0	0	0
6.41262e-06	0	0	0
6.4226e-06	0	0	0
6.44322e-06	0	0	0
6.44844e-06	0	0	0
6.48558e-06	0	0	0
6.54682e-06	0	0	0
6.55145e-06	0	0	0
6.57724e-06	0	0	0
6.64597e-06	0	0	0
6.65374e-06	0	0	0
6.66088e-06	0	0	0
6.66899e-06	0	0	0
6.72049e-06	0	0	0
6.73188e-06	0	0	0
6.73941e-06	0	0	0
6.74681e-06	0	0	0
6.75765e-06	0	0	0
6.79168e-06	0	0	0
6.91773e-06	0	0	0
6.93931e-06	0	0	0
6.97012e-06	0	0	0
6.99312e-06	0	0	0
7.01954e-06	0	0	0
7.03376e-06	0	0	0
7.07411e-06	0	0	0
7.08037e-06	0	0	0
7.1362e-06	0	0	0
7.15893e-06	0	0	0
7.16743e-06	0	0	0
7.18515e-06	0	0	0
7.187e-06	0	0	0
7.20239e-06	0	0	0
7.26835e-06	0	0	0
7.29931e-06	0	0	0
7.3057e-06	0	0	0
7.31376e-06	0	0	0
7.39918e-06	0	0	0
7.43291e-06	0	0	0
7.46374e-06	0	0	0
7.55011e-06	0	0	0
7.64859e-06	0	0	0
7.70639e-06	0	0	0
7.74254e-06	0	0	0
7.74399e-06	0	0	0
7.75836e-06	0	0	0
7.80296e-06	0	0	0
7.81156e-06	0	0	0
7.85592e-06	0	0	0
7.90494e-06	0	0	0
7.94827e-06	0	0	0
7.9507e-06	0	0	0
7.98185e-06	0	0	0
7.99353e-06	0	0	0
8.06803e-06	0	0	0
8.08282e-06	0	0	0
8.18428e-06	0	0	0
8.18468e-06	0	0	0
8.22217e-06	0	0	0
8.2346e-06	0	0	0
8.36013e-06	0	0	0
8.42969e-06	0	0	0
8.44117e-06	0	0	0
8.45799e-06	0	0	0
8.47258e-06	0	0	0
8.53382e-06	0	0	0
8.59653e-06	0	0	0
8.75257e-06	0	0	0
8.81424e-06	0	0	0
8.85014e-06	0	0	0
8.8724e-06	0	0	0
8.91608e-06	0	0	0
8.93558e-06	0	0	0
8.94927e-06	0	0	0
8.98679e-06	0	0	0
8.99876e-06	0	0	0
9.0929e-06	0	0	0
9.09978e-06	0	0	0
9.13979e-06	0	0	0
9.14178e-06	0	0	0
9.16667e-06	0	0	0
9.25378e-06	0	0	0
9.37802e-06	0	0	0
9.40505e-06	0	0	0
9.41475e-06	0	0	0
9.47756e-06	0	0	0
9.51801e-06	0	0	0
9.53517e-06	0	0	0
9.5364e-06	0	0	0
9.56478e-06	0	0	0
9.61869e-06	0	0	0
9.64356e-06	0	0	0
9.64443e-06	0	0	0
9.68606e-06	0	0	0
9.70163e-06	0	0	0
9.76977e-06	0	0	0
9.84626e-06	0	0	0
9.91166e-06	0	0	0
9.95186e-06	0	0	0
1.00408e-05	0	0	0
1.01197e-05	0	0	0
1.01283e-05	0	0	0
1.01296e-05	0	0	0
1.01513e-05	0	0	0
1.01516e-05	0	0	0
1.02257e-05	0	0	0
1.02475e-05	0	0	0
1.02495e-05	0	0	0
1.03157e-05	0	0	0
1.03442e-05	0	0	0
1.03589e-05	0	0	0
1.03592e-05	0	0	0
1.03666e-05	0	0	0
1.03845e-05	0	0	0
1.03867e-05	0	0	0
1.04043e-05	0	0	0
1.04085e-05	0	0	0
1.04319e-05	0	0	0
1.04321e-05	0	0	0
1.04516e-05	0	0	0
1.04846e-05	0	0	0
1.07472e-05	0	0	0
1.07562e-05	0	0	0
1.09687e-05	0	0	0
1.10625e-05	0	0	0
1.12237e-05	0	0	0
1.12522e-05	0	0	0
1.12675e-05	0	0	0
1.12709e-05	0	0	0
1.12867e-05	0	0	0
1.12918e-05	0	0	0
1.13432e-05	0	0	0
1.14067e-05	0	0	0
1.14218e-05	0	0	0
1.15194e-05	0	0	0
1.15559e-05	0	0	0
1.15604e-05	0	0	0
1.15634e-05	0	0	0
1.15662e-05	0	0	0
1.15663e-05	0	0	0
1.16678e-05	0	0	0
1.16778e-05	0	0	0
1.16783e-05	0	0	0
1.17027e-05	0	0	0
1.17305e-05	0	0	0
1.17944e-05	0	0	0
1.18485e-05	0	0	0
1.19388e-05	0	0	0
1.19755e-05	0	0	0
1.19982e-05	0	0	0
1.20776e-05	0	0	0
1.20971e-05	0	0	0
1.21322e-05	0	0	0
1.21684e-05	0	0	0
1.22212e-05	0	0	0
1.23077e-05	0	0	0
1.23981e-05	0	0	0
1.24064e-05	0	0	0
1.24758e-05	0	0	0
1.25193e-05	0	0	0
1.2574e-05	0	0	0
1.25891e-05	0	0	0
1.26162e-05	0	0	0
1.26387e-05	0	0	0
1.27062e-05	0	0	0
1.27431e-05	0	0	0
1.28354e-05	0	0	0
1.28558e-05	0	0	0
1.28986e-05	0	0	0
1.29751e-05	0	0	0
1.31949e-05	0	0	0
1.32173e-05	0	0	0
1.32211e-05	0	0	0
1.32212e-05	0	0	0
1.32247e-05	0	0	0
1.33271e-05	0	0	0
1.33938e-05	0	0	0
1.3441e-05	0	0	0
1.34777e-05	0	0	0
1.34797e-05	0	0	0
1.34974e-05	0	0	0
1.35369e-05	0	0	0
1.36246e-05	0	0	0
1.37085e-05	0	0	0
1.37192e-05	0	0	0
1.38011e-05	0	0	0
1.38036e-05	0	0	0
1.39454e-05	0	0	0
1.39675e-05	0	0	0
1.3978e-05	0	0	0
1.40354e-05	0	0	0
1.40641e-05	0	0	0
1.40753e-05	0	0	0
1.40766e-05	0	0	0
1.41579e-05	0	0	0
1.42168e-05	0	0	0
1.44009e-05	0	0	0
1.44796e-05	0	0	0
1.44969e-05	0	0	0
1.47697e-05	0	0	0
1.49234e-05	0	0	0
1.49519e-05	0	0	0
1.50617e-05	0	0	0
1.5065e-05	0	0	0
1.52133e-05	0	0	0
1.54524e-05	0	0	0
1.56368e-05	0	0	0
1.58473e-05	0	0	0
1.58958e-05	0	0	0
1.59409e-05	0	0	0
1.59627e-05	0	0	0
1.60327e-05	0	0	0
1.60839e-05	0	0	0
1.60856e-05	0	0	0
1.62182e-05	0	0	0
1.62215e-05	0	0	0
1.62416e-05	0	0	0
1.63459e-05	0	0	0
1.63807e-05	0	0	0
1.64413e-05	0	0	0
1.65559e-05	0	0	0
1.66439e-05	0	0	0
1.67262e-05	0	0	0
1.6735e-05	0	0	0
1.67941e-05	0	0	0
1.68401e-05	0	0	0
1.69339e-05	0	0	0
1.69358e-05	0	0	0
1.69453e-05	0	0	0
1.70436e-05	0	0	0
1.7069e-05	0	0	0
1.70947e-05	0	0	0
1.71158e-05	0	0	0
1.71343e-05	0	0	0
1.71466e-05	0	0	0
1.71843e-05	0	0	0
1.72687e-05	0	0	0
1.73407e-05	0	0	0
1.73798e-05	0	0	0
1.74373e-05	0	0	0
1.75923e-05	0	0	0
1.76991e-05	0	0	0
1.78472e-05	0	0	0
1.78739e-05	0	0	0
1.79614e-05	0	0	0
1.80099e-05	0	0	0
1.80976e-05	0	0	0
1.81614e-05	0	0	0
1.81616e-05	0	0	0
1.81642e-05	0	0	0
1.83201e-05	0	0	0
1.84411e-05	0	0	0
1.84811e-05	0	0	0
1.84825e-05	0	0	0
1.85492e-05	0	0	0
1.85887e-05	0	0	0
1.86213e-05	0	0	0
1.86275e-05	0	0	0
1.86618e-05	0	0	0
1.86928e-05	0	0	0
1.87073e-05	0	0	0
1.87346e-05	0	0	0
1.88301e-05	0	0	0
1.88382e-05	0	0	0
1.88495e-05	0	0	0
1.90074e-05	0	0	0
1.91045e-05	0	0	0
1.91134e-05	0	0	0
1.91351e-05	0	0	0
1.91505e-05	0	0	0
1.91591e-05	0	0	0
1.91895e-05	0	0	0
1.9299e-05	0	0	0
1.93646e-05	0	0	0
1.94104e-05	0	0	0
1.94293e-05	0	0	0
1.9442e-05	0	0	0
1.94504e-05	0	0	0
1.94594e-05	0	0	0
1.9499e-05	0	0	0
1.95788e-05	0	0	0
1.95931e-05	0	0	0
1.95937e-05	0	0	0
1.9624e-05	0	0	0
1.96974e-05	0	0	0
1.97089e-05	0	0	0
1.97173e-05	0	0	0
1.97252e-05	0	0	0
1.97886e-05	0	0	0
1.99875e-05	0	0	0
2.00163e-05	0	0	0
2.00257e-05	0	0	0
2.00304e-05	0	0	0
2.02249e-05	0	0	0
2.02404e-05	0	0	0
2.03385e-05	0	0	0
2.04368e-05	0	0	0
2.05515e-05	0	0	0
2.06049e-05	0	0	0
2.07095e-05	0	0	0
2.0741e-05	0	0	0
2.0762e-05	0	0	0
2.07897e-05	0	0	0
2.081e-05	0	0	0
2.09156e-05	0	0	0
2.09281e-05	0	0	0
2.1161e-05	0	0	0
2.13157e-05	0	0	0
2.13632e-05	0	0	0
2.14085e-05	0	0	0
2.14773e-05	0	0	0
2.15301e-05	0	0	0
2.16184e-05	0	0	0
2.16337e-05	0	0	0
2.17176e-05	0	0	0
2.17222e-05	0	0	0
2.18601e-05	0	0	0
2.18808e-05	0	0	0
2.19212e-05	0	0	0
2.20355e-05	0	0	0
2.21028e-05	0	0	0
2.22065e-05	0	0	0
2.22827e-05	0	0	0
2.23531e-05	0	0	0
2.2365e-05	0	0	0
2.25706e-05	0	0	0
2.25806e-05	0	0	0
2.25839e-05	0	0	0
2.27888e-05	0	0	0
2.28438e-05	0	0	0
2.30279e-05	0	0	0
2.3032e-05	0	0	0
2.31107e-05	0	0	0
2.32505e-05	0	0	0
2.32735e-05	0	0	0
2.33381e-05	0	0	0
2.33873e-05	0	0	0
2.34144e-05	0	0	0
2.34569e-05	0	0	0
2.34625e-05	0	0	0
2.35307e-05	0	0	0
2.36536e-05	0	0	0
2.37692e-05	0	0	0
2.38639e-05	0	0	0
2.3958e-05	0	0	0
2.41017e-05	0	0	0
2.41125e-05	0	0	0
2.44331e-05	0	0	0
2.44878e-05	0	0	0
2.45413e-05	0	0	0
2.46322e-05	0	0	0
2.46615e-05	0	0	0
2.47735e-05	0	0	0
2.48264e-05	0	0	0
2.48958e-05	0	0	0
2.52894e-05	0	0	0
2.53768e-05	0	0	0
2.56135e-05	0	0	0
2.56244e-05	0	0	0
2.56842e-05	0	0	0
2.57744e-05	0	0	0
2.58295e-05	0	0	0
2.58484e-05	0	0	0
2.59068e-05	0	0	0
2.60542e-05	0	0	0
2.60617e-05	0	0	0
2.61504e-05	0	0	0
2.62304e-05	0	0	0
2.63263e-05	0	0	0
2.63364e-05	0	0	0
2.64586e-05	0	0	0
2.65792e-05	0	0	0
2.65931e-05	0	0	0
2.66808e-05	0	0	0
2.66825e-05	0	0	0
2.67416e-05	0	0	0
2.68097e-05	0	0	0
2.69017e-05	0	0	0
2.69565e-05	0	0	0
2.70151e-05	0	0	0
2.71052e-05	0	0	0
2.71359e-05	0	0	0
2.71469e-05	0	0	0
2.72225e-05	0	0	0
2.72616e-05	0	0	0
2.72726e-05	0	0	0
2.73211e-05	0	0	0
2.74499e-05	0	0	0
2.74688e-05	0	0	0
2.75865e-05	0	0	0
2.77161e-05	0	0	0
2.77322e-05	0	0	0
2.77611e-05	0	0	0
2.79265e-05	0	0	0
2.8254e-05	0	0	0
2.82854e-05	0	0	0
2.83783e-05	0	0	0
2.86206e-05	0	0	0
2.87252e-05	0	0	0
2.87753e-05	0	0	0
2.87788e-05	0	0	0
2.88671e-05	0	0	0
2.88756e-05	0	0	0
2.94287e-05	0	0	0
2.95911e-05	0	0	0
2.98013e-05	0	0	0
2.99267e-05	0	0	0
3.00466e-05	0	0	0
3.00756e-05	0	0	0
3.01732e-05	0	0	0
3.02675e-05	0	0	0
3.03408e-05	0	0	0
3.05145e-05	0	0	0
3.05413e-05	0	0	0
3.07193e-05	0	0	0
3.07792e-05	0	0	0
3.08319e-05	0	0	0
3.08552e-05	0	0	0
3.11559e-05	0	0	0
3.1206e-05	0	0	0
3.12181e-05	0	0	0
3.12672e-05	0	0	0
3.14948e-05	0	0	0
3.18702e-05	0	0	0
3.19079e-05	0	0	0
3.19562e-05	0	0	0
3.20461e-05	0	0	0
3.20928e-05	0	0	0
3.23008e-05	0	0	0
3.24581e-05	0	0	0
3.26632e-05	0	0	0
3.26721e-05	0	0	0
3.27419e-05	0	0	0
3.32842e-05	0	0	0
3.33137e-05	0	0	0
3.33976e-05	0	0	0
3.38105e-05	0	0	0
3.38692e-05	0	0	0
3.39356e-05	0	0	0
3.40001e-05	0	0	0
3.40362e-05	0	0	0
3.42835e-05	0	0	0
3.4552e-05	0	0	0
3.45544e-05	0	0	0
3.48402e-05	0	0	0
3.51564e-05	0	0	0
3.52353e-05	0	0	0
3.53979e-05	0	0	0
3.54546e-05	0	0	0
3.55012e-05	0	0	0
3.56033e-05	0	0	0
3.56392e-05	0	0	0
3.57653e-05	0	0	0
3.5772e-05	0	0	0
3.59705e-05	0	0	0
3.6019e-05	0	0	0
3.61423e-05	0	0	0
3.61693e-05	0	0	0
3.62667e-05	0	0	0
3.63132e-05	0	0	0
3.63136e-05	0	0	0
3.65481e-05	0	0	0
3.66706e-05	0	0	0
3.68009e-05	0	0	0
3.68165e-05	0	0	0
3.6821e-05	0	0	0
3.71605e-05	0	0	0
3.75484e-05	0	0	0
3.76168e-05	0	0	0
3.76459e-05	0	0	0
3.79109e-05	0	0	0
3.85456e-05	0	0	0
3.85618e-05	0	0	0
3.85625e-05	0	0	0
3.86095e-05	0	0	0
3.89224e-05	0	0	0
3.90094e-05	0	0	0
3.90127e-05	0	0	0
3.92018e-05	0	0	0
3.92759e-05	0	0	0
3.93435e-05	0	0	0
3.93454e-05	0	0	0
3.94153e-05	0	0	0
3.94597e-05	0	0	0
3.96117e-05	0	0	0
3.96575e-05	0	0	0
3.99488e-05	0	0	0
4.02987e-05	0	0	0
4.0421e-05	0	0	0
4.05188e-05	0	0	0
4.05637e-05	0	0	0
4.05992e-05	0	0	0
4.09183e-05	0	0	0
4.09475e-05	0	0	0
4.09532e-05	0	0	0
4.09666e-05	0	0	0
4.11204e-05	0	0	0
4.13041e-05	0	0	0
4.13042e-05	0	0	0
4.13789e-05	0	0	0
4.17687e-05	0	0	0
4.19812e-05	0	0	0
4.20037e-05	0	0	0
4.21204e-05	0	0	0
4.2405e-05	0	0	0
4.25331e-05	0	0	0
4.2679e-05	0	0	0
4.29883e-05	0	0	0
4.31954e-05	0	0	0
4.32967e-05	0	0	0
4.3902e-05	0	0	0
4.39213e-05	0	0	0
4.45827e-05	0	0	0
4.53845e-05	0	0	0
4.54888e-05	0	0	0
4.55583e-05	0	0	0
4.55607e-05	0	0	0
4.62082e-05	0	0	0
4.63731e-05	0	0	0
4.66739e-05	0	0	0
4.69616e-05	0	0	0
4.71354e-05	0	0	0
4.73878e-05	0	0	0
4.74709e-05	0	0	0
4.77138e-05	0	0	0
4.77717e-05	0	0	0
4.80115e-05	0	0	0
4.84638e-05	0	0	0
4.8732e-05	0	0	0
4.87379e-05	0	0	0
4.88011e-05	0	0	0
4.90274e-05	0	0	0
4.91032e-05	0	0	0
4.91364e-05	0	0	0
4.92187e-05	0	0	0
4.94779e-05	0	0	0
4.9553e-05	0	0	0
4.9562e-05	0	0	0
4.95791e-05	0	0	0
5.00011e-05	0	0	0
5.13378e-05	0	0	0
5.16053e-05	0	0	0
5.20805e-05	0	0	0
5.20971e-05	0	0	0
5.23586e-05	0	0	0
5.26642e-05	0	0	0
5.26791e-05	0	0	0
5.27103e-05	0	0	0
5.2812e-05	0	0	0
5.32297e-05	0	0	0
5.32457e-05	0	0	0
5.33226e-05	0	0	0
5.33994e-05	0	0	0
5.34915e-05	0	0	0
5.37738e-05	0	0	0
5.38657e-05	0	0	0
5.41612e-05	0	0	0
5.44315e-05	0	0	0
5.44819e-05	0	0	0
5.45396e-05	0	0	0
5.45997e-05	0	0	0
5.46834e-05	0	0	0
5.50131e-05	0	0	0
5.51025e-05	0	0	0
5.51074e-05	0	0	0
5.53078e-05	0	0	0
5.65987e-05	0	0	0
5.66662e-05	0	0	0
5.71364e-05	0	0	0
5.72599e-05	0	0	0
5.74867e-05	0	0	0
5.75828e-05	0	0	0
5.78437e-05	0	0	0
5.80622e-05	0	0	0
5.81711e-05	0	0	0
5.8821e-05	0	0	0
5.88254e-05	0	0	0
5.9059e-05	0	0	0
5.90942e-05	0	0	0
5.93e-05	0	0	0
5.94801e-05	0	0	0
6.00044e-05	0	0	0
6.00056e-05	0	0	0
6.061e-05	0	0	0
6.07258e-05	0	0	0
6.08174e-05	0	0	0
6.09671e-05	0	0	0
6.15591e-05	0	0	0
6.17001e-05	0	0	0
6.1706e-05	0	0	0
6.18623e-05	0	0	0
6.25288e-05	0	0	0
6.26357e-05	0	0	0
6.29061e-05	0	0	0
6.36447e-05	0	0	0
6.3909e-05	0	0	0
6.43079e-05	0	0	0
6.43143e-05	0	0	0
6.5122e-05	0	0	0
6.53513e-05	0	0	0
6.55886e-05	0	0	0
6.58463e-05	0	0	0
6.61559e-05	0	0	0
6.61831e-05	0	0	0
6.64122e-05	0	0	0
6.67976e-05	0	0	0
6.71214e-05	0	0	0
6.73718e-05	0	0	0
6.74046e-05	0	0	0
6.76395e-05	0	0	0
6.77813e-05	0	0	0
6.78388e-05	0	0	0
6.80002e-05	0	0	0
6.80665e-05	0	0	0
6.86631e-05	0	0	0
6.90666e-05	0	0	0
6.9404e-05	0	0	0
6.97408e-05	0	0	0
6.97425e-05	0	0	0
6.98911e-05	0	0	0
6.99442e-05	0	0	0
7.03913e-05	0	0	0
7.04865e-05	0	0	0
7.05266e-05	0	0	0
7.05625e-05	0	0	0
7.06172e-05	0	0	0
7.12904e-05	0	0	0
7.14656e-05	0	0	0
7.14719e-05	0	0	0
7.18268e-05	0	0	0
7.20703e-05	0	0	0
7.35788e-05	0	0	0
7.38585e-05	0	0	0
7.39552e-05	0	0	0
7.40812e-05	0	0	0
7.42299e-05	0	0	0
7.45746e-05	0	0	0
7.48844e-05	0	0	0
7.52195e-05	0	0	0
7.53662e-05	0	0	0
7.59673e-05	0	0	0
7.64302e-05	0	0	0
7.64505e-05	0	0	0
7.66349e-05	0	0	0
7.73439e-05	0	0	0
7.7543e-05	0	0	0
7.76757e-05	0	0	0
7.80959e-05	0	0	0
7.84868e-05	0	0	0
7.87048e-05	0	0	0
7.91534e-05	0	0	0
7.92546e-05	0	0	0
7.98083e-05	0	0	0
8.0676e-05	0	0	0
8.09355e-05	0	0	0
8.12877e-05	0	0	0
8.14709e-05	0	0	0
8.18384e-05	0	0	0
8.2513e-05	0	0	0
8.28175e-05	0	0	0
8.33139e-05	0	0	0
8.35388e-05	0	0	0
8.57267e-05	0	0	0
8.58026e-05	0	0	0
8.61544e-05	0	0	0
8.63584e-05	0	0	0
8.63981e-05	0	0	0
8.66968e-05	0	0	0
8.67656e-05	0	0	0
8.70133e-05	0	0	0
8.72152e-05	0	0	0
8.79771e-05	0	0	0
8.83077e-05	0	0	0
8.86607e-05	0	0	0
8.95017e-05	0	0	0
9.08079e-05	0	0	0
9.29701e-05	0	0	0
9.32319e-05	0	0	0
9.37673e-05	0	0	0
9.41387e-05	0	0	0
9.4146e-05	0	0	0
9.5754e-05	0	0	0
9.59322e-05	0	0	0
9.60658e-05	0	0	0
9.72053e-05	0	0	0
9.78054e-05	0	0	0
9.79504e-05	0	0	0
9.83113e-05	0	0	0
9.93782e-05	0	0	0
9.97391e-05	0	0	0
9.98984e-05	0	0	0
0.00010102	0	0	0
0.000101286	0	0	0
0.000103201	0	0	0
0.000105328	0	0	0
0.000105605	0	0	0
0.000105927	0	0	0
0.000106927	0	0	0
0.000107453	0	0	0
0.000107806	0	0	0
0.000108524	0	0	0
0.000112995	0	0	0
0.000115892	0	0	0
0.000116433	0	0	0
0.000116847	0	0	0
0.00011743	0	0	0
0.000118129	0	0	0
0.000118201	0	0	0
0.00011839	0	0	0
0.000119674	0	0	0
0.000120046	0	0	0
0.000121119	0	0	0
0.000121489	0	0	0
0.000122865	0	0	0
0.000124259	0	0	0
0.000124913	0	0	0
0.000125911	0	0	0
0.000127372	0	0	0
0.00012744	0	0	0
0.00012888	0	0	0
0.000129098	0	0	0
0.000133614	0	0	0
0.000134306	0	0	0
0.000135632	0	0	0
0.000135855	0	0	0
0.000137412	0	0	0
0.000138122	0	0	0
0.000138627	0	0	0
0.000139776	0	0	0
0.000140383	0	0	0
0.000146914	0	0	0
0.000147164	0	0	0
0.000147957	0	0	0
0.000149575	0	0	0
0.000150808	0	0	0
0.00015141	0	0	0
0.000152987	0	0	0
0.000155477	0	0	0
0.000158319	0	0	0
0.000159229	0	0	0
0.000160719	0	0	0
0.000161155	0	0	0
0.000161559	0	0	0
0.000162081	0	0	0
0.00016332	0	0	0
0.000163803	0	0	0
0.000164757	0	0	0
0.000165199	0	0	0
0.000167176	0	0	0
0.000167339	0	0	0
0.000169208	0	0	0
0.000172989	0	0	0
0.000176363	0	0	0
0.000176401	0	0	0
0.000178441	0	0	0
0.000181439	0	0	0
0.000182942	0	0	0
0.000186738	0	0	0
0.000188532	0	0	0
0.000193183	0	0	0
0.000202815	0	0	0
0.000204078	0	0	0
0.000206424	0	0	0
0.000206753	0	0	0
0.000210938	0	0	0
0.00021508	0	0	0
0.000216564	0	0	0
0.000218726	0	0	0
0.000219136	0	0	0
0.000222149	0	0	0
0.00023382	0	0	0
0.000236816	0	0	0
0.00023683	0	0	0
0.000247419	0	0	0
0.000256669	0	0	0
0.000262155	0	0	0
0.000266972	0	0	0
0.000276817	0	0	0
0.000287898	0	0	0
0.000303021	0	0	0
0.000303545	0	0	0
0.00030607	0	0	0
0.000306895	0	0	0
0.000309172	0	0	0
0.000313294	0	0	0
0.00033187	0	0	0
0.000337321	0	0	0
0.000337755	0	0	0
0.000338671	0	0	0
0.000354929	0	0	0
0.000357219	0	0	0
0.000358313	0	0	0
0.000363433	0	0	0
0.000370855	0	0	0
0.000379865	0	0	0
0.00038034	0	0	0
0.000393802	0	0	0
0.000412443	0	0	0
0.000422252	0	0	0
0.000433741	0	0	0
0.000441012	0	0	0
0.000442839	0	0	0
0.000457878	0	0	0
0.00051215	0	0	0
0.000517372	0	0	0
0.000569936	0	0	0
0.000575143	0	0	0
0.000623497	0	0	0
0.000647287	0	0	0
0.000657424	0	0	0
0.000657516	0	0	0
0.00066894	0	0	0
0.000698331	0	0	0
0.000705323	0	0	0
0.000732126	0	0	0
0.00075136	0	0	0
0.000789546	0	0	0
0.000796058	0	0	0
0.000862073	0	0	0
0.000868152	0	0	0
0.000878317	0	0	0
0.000935867	0	0	0
0.00102638	0	0	0
0.00111897	0	0	0
0.0011828	0	0	0
0.00120779	0	0	0
0.00120813	0	0	0
0.00131493	0	0	0
0.00132166	0	0	0
0.00132373	0	0	0
0.0013451	0	0	0
0.00140324	0	0	0
0.00145384	0	0	0
0.00147553	0	0	0
0.00169372	0	0	0
0.00192462	0	0	0
0.00208987	0	0	0
0.00215957	0	0	0
0.00224195	0	0	0
0.00242638	0	0	0
0.00260076	0	0	0
0.00303648	0	0	0
0.00320323	0	0	0
0.00345911	0	0	0
0.00359098	0	0	0
0.00494409	0	0	0
0.00613051	0	0	0
0.0101135	0	0	0
0.0148783	0	0	0
0.0191516	0	0	0
