1.41396e-09	0	0	0
2.03206e-09	0	0	0
2.43876e-09	0	0	0
7.03791e-09	0	0	0
9.42291e-09	0	0	0
1.28238e-08	0	0	0
6.89826e-08	0	0	0
8.69023e-08	0	0	0
8.80321e-08	0	0	0
1.05765e-07	0	0	0
1.05931e-07	0	0	0
1.25366e-07	0	0	0
1.29688e-07	0	0	0
1.91799e-07	0	0	0
2.02536e-07	0	0	0
2.20534e-07	0	0	0
2.22323e-07	0	0	0
2.23133e-07	0	0	0
2.4433e-07	0	0	0
2.65069e-07	0	0	0
2.69841e-07	0	0	0
2.81298e-07	0	0	0
2.85108e-07	0	0	0
2.91056e-07	0	0	0
3.12931e-07	0	0	0
3.32528e-07	0	0	0
3.39457e-07	0	0	0
3.41324e-07	0	0	0
3.5368e-07	0	0	0
3.55933e-07	0	0	0
4.03161e-07	0	0	0
4.13217e-07	0	0	0
4.37983e-07	0	0	0
4.58397e-07	0	0	0
5.85922e-07	0	0	0
6.28376e-07	0	0	0
6.55434e-07	0	0	0
6.64964e-07	0	0	0
6.9545e-07	0	0	0
7.13731e-07	0	0	0
7.15519e-07	0	0	0
7.15665e-07	0	0	0
7.40413e-07	0	0	0
7.60994e-07	0	0	0
7.81814e-07	0	0	0
8.04817e-07	0	0	0
8.21101e-07	0	0	0
8.2448e-07	0	0	0
8.61115e-07	0	0	0
8.73357e-07	0	0	0
8.92918e-07	0	0	0
9.70701e-07	0	0	0
9.74298e-07	0	0	0
1.04423e-06	0	0	0
1.07657e-06	0	0	0
1.08509e-06	0	0	0
1.08666e-06	0	0	0
1.09223e-06	0	0	0
1.12967e-06	0	0	0
1.15941e-06	0	0	0
1.19366e-06	0	0	0
1.22129e-06	0	0	0
1.2522e-06	0	0	0
1.26523e-06	0	0	0
1.31669e-06	0	0	0
1.31683e-06	0	0	0
1.34374e-06	0	0	0
1.3466e-06	0	0	0
1.36691e-06	0	0	0
1.40892e-06	0	0	0
1.41645e-06	0	0	0
1.42798e-06	0	0	0
1.44529e-06	0	0	0
1.44704e-06	0	0	0
1.45477e-06	0	0	0
1.45813e-06	0	0	0
1.4784e-06	0	0	0
1.47954e-06	0	0	0
1.49647e-06	0	0	0
1.53051e-06	0	0	0
1.53763e-06	0	0	0
1.54628e-06	0	0	0
1.55261e-06	0	0	0
1.61022e-06	0	0	0
1.63255e-06	0	0	0
1.63478e-06	0	0	0
1.67154e-06	0	0	0
1.67166e-06	0	0	0
1.69082e-06	0	0	0
1.75515e-06	0	0	0
1.78306e-06	0	0	0
1.8049e-06	0	0	0
1.84689e-06	0	0	0
1.85992e-06	0	0	0
1.88103e-06	0	0	0
1.90225e-06	0	0	0
1.90999e-06	0	0	0
2.04965e-06	0	0	0
2.10048e-06	0	0	0
2.10679e-06	0	0	0
2.16156e-06	0	0	0
2.17111e-06	0	0	0
2.1924e-06	0	0	0
2.19931e-06	0	0	0
2.26451e-06	0	0	0
2.29125e-06	0	0	0
2.41071e-06	0	0	0
2.42629e-06	0	0	0
2.5352e-06	0	0	0
2.56394e-06	0	0	0
2.57309e-06	0	0	0
2.58353e-06	0	0	0
2.63173e-06	0	0	0
2.66454e-06	0	0	0
2.66793e-06	0	0	0
2.67183e-06	0	0	0
2.73484e-06	0	0	0
2.76308e-06	0	0	0
2.7795e-06	0	0	0
2.82022e-06	0	0	0
2.82108e-06	0	0	0
2.88965e-06	0	0	0
2.90186e-06	0	0	0
2.91497e-06	0	0	0
2.92291e-06	0	0	0
2.93431e-06	0	0	0
2.96692e-06	0	0	0
2.98481e-06	0	0	0
2.98578e-06	0	0	0
3.07276e-06	0	0	0
3.11917e-06	0	0	0
3.13356e-06	0	0	0
3.1342e-06	0	0	0
3.1353e-06	0	0	0
3.15933e-06	0	0	0
3.23822e-06	0	0	0
3.24962e-06	0	0	0
3.26535e-06	0	0	0
3.27297e-06	0	0	0
3.33767e-06	0	0	0
3.33842e-06	0	0	0
3.34106e-06	0	0	0
3.35847e-06	0	0	0
3.37538e-06	0	0	0
3.40587e-06	0	0	0
3.42189e-06	0	0	0
3.42632e-06	0	0	0
3.43568e-06	0	0	0
3.43616e-06	0	0	0
3.46121e-06	0	0	0
3.49301e-06	0	0	0
3.50188e-06	0	0	0
3.51228e-06	0	0	0
3.52753e-06	0	0	0
3.5316e-06	0	0	0
3.54836e-06	0	0	0
3.55121e-06	0	0	0
3.55131e-06	0	0	0
3.60071e-06	0	0	0
3.62005e-06	0	0	0
3.65095e-06	0	0	0
3.65982e-06	0	0	0
3.68578e-06	0	0	0
3.69804e-06	0	0	0
3.708e-06	0	0	0
3.74475e-06	0	0	0
3.75525e-06	0	0	0
3.77742e-06	0	0	0
3.79035e-06	0	0	0
3.8118e-06	0	0	0
3.83823e-06	0	0	0
3.84293e-06	0	0	0
3.89671e-06	0	0	0
3.92026e-06	0	0	0
3.93533e-06	0	0	0
3.95381e-06	0	0	0
3.99777e-06	0	0	0
4.04307e-06	0	0	0
4.11284e-06	0	0	0
4.11488e-06	0	0	0
4.15489e-06	0	0	0
4.16228e-06	0	0	0
4.18486e-06	0	0	0
4.21754e-06	0	0	0
4.24811e-06	0	0	0
4.32807e-06	0	0	0
4.32832e-06	0	0	0
4.37536e-06	0	0	0
4.3886e-06	0	0	0
4.42337e-06	0	0	0
4.43522e-06	0	0	0
4.47768e-06	0	0	0
4.47899e-06	0	0	0
4.51181e-06	0	0	0
4.54144e-06	0	0	0
4.55255e-06	0	0	0
4.58809e-06	0	0	0
4.72517e-06	0	0	0
4.7719e-06	0	0	0
4.82432e-06	0	0	0
4.83065e-06	0	0	0
4.83609e-06	0	0	0
4.93405e-06	0	0	0
5.01657e-06	0	0	0
5.05482e-06	0	0	0
5.11205e-06	0	0	0
5.17548e-06	0	0	0
5.23811e-06	0	0	0
5.24306e-06	0	0	0
5.25925e-06	0	0	0
5.3027e-06	0	0	0
5.33116e-06	0	0	0
5.43393e-06	0	0	0
5.4678e-06	0	0	0
5.5268e-06	0	0	0
5.61906e-06	0	0	0
5.62289e-06	0	0	0
5.71952e-06	0	0	0
5.74842e-06	0	0	0
5.8635e-06	0	0	0
5.97178e-06	0	0	0
5.99974e-06	0	0	0
6.02125e-06	0	0	0
6.02893e-06	0	0	0
6.03669e-06	0	0	0
6.05196e-06	0	0	0
6.0588e-06	0	0	0
6.07139e-06	0	0	0
6.14657e-06	0	0	0
6.16192e-06	0	0	0
6.16707e-06	0	0	0
6.1743e-06	0	0	0
6.2253e-06	0	0	0
6.29027e-06	0	0	0
6.31749e-06	0	0	0
6.3257e-06	0	0	0
6.39136e-06	0	0	0
6.42068e-06	0	0	0
6.45014e-06	0	0	0
6.48337e-06	0	0	0
6.50425e-06	0	0	0
6.55429e-06	0	0	0
6.59485e-06	0	0	0
6.60617e-06	0	0	0
6.64203e-06	0	0	0
6.64725e-06	0	0	0
6.65929e-06	0	0	0
6.65975e-06	0	0	0
6.66328e-06	0	0	0
6.72759e-06	0	0	0
6.79976e-06	0	0	0
6.82447e-06	0	0	0
6.85761e-06	0	0	0
6.87924e-06	0	0	0
6.8957e-06	0	0	0
6.90393e-06	0	0	0
6.91225e-06	0	0	0
7.0113e-06	0	0	0
7.04035e-06	0	0	0
7.1455e-06	0	0	0
7.15902e-06	0	0	0
7.18233e-06	0	0	0
7.26663e-06	0	0	0
7.30801e-06	0	0	0
7.43793e-06	0	0	0
7.47745e-06	0	0	0
7.49377e-06	0	0	0
7.50077e-06	0	0	0
7.50974e-06	0	0	0
7.52192e-06	0	0	0
7.55258e-06	0	0	0
7.57202e-06	0	0	0
7.6662e-06	0	0	0
7.68529e-06	0	0	0
7.68554e-06	0	0	0
7.70811e-06	0	0	0
7.82406e-06	0	0	0
7.844e-06	0	0	0
7.8649e-06	0	0	0
7.87114e-06	0	0	0
7.91504e-06	0	0	0
7.9259e-06	0	0	0
7.92693e-06	0	0	0
7.96284e-06	0	0	0
7.98132e-06	0	0	0
7.98238e-06	0	0	0
8.0003e-06	0	0	0
8.00268e-06	0	0	0
8.03282e-06	0	0	0
8.08779e-06	0	0	0
8.09917e-06	0	0	0
8.14062e-06	0	0	0
8.14281e-06	0	0	0
8.18836e-06	0	0	0
8.2159e-06	0	0	0
8.25786e-06	0	0	0
8.29347e-06	0	0	0
8.36137e-06	0	0	0
8.37258e-06	0	0	0
8.43744e-06	0	0	0
8.55532e-06	0	0	0
8.57759e-06	0	0	0
8.57958e-06	0	0	0
8.58823e-06	0	0	0
8.59519e-06	0	0	0
8.67039e-06	0	0	0
8.68473e-06	0	0	0
8.72848e-06	0	0	0
8.77386e-06	0	0	0
8.83312e-06	0	0	0
8.85038e-06	0	0	0
8.85373e-06	0	0	0
8.90528e-06	0	0	0
8.91064e-06	0	0	0
8.95416e-06	0	0	0
9.0421e-06	0	0	0
9.04834e-06	0	0	0
9.06652e-06	0	0	0
9.109e-06	0	0	0
9.11134e-06	0	0	0
9.11913e-06	0	0	0
9.16802e-06	0	0	0
9.1874e-06	0	0	0
9.20959e-06	0	0	0
9.21569e-06	0	0	0
9.23153e-06	0	0	0
9.24822e-06	0	0	0
9.25012e-06	0	0	0
9.27548e-06	0	0	0
9.28762e-06	0	0	0
9.32724e-06	0	0	0
9.36086e-06	0	0	0
9.39298e-06	0	0	0
9.47777e-06	0	0	0
9.48108e-06	0	0	0
9.56035e-06	0	0	0
9.5937e-06	0	0	0
9.61263e-06	0	0	0
9.62129e-06	0	0	0
9.62783e-06	0	0	0
9.69206e-06	0	0	0
9.69422e-06	0	0	0
9.69811e-06	0	0	0
9.72109e-06	0	0	0
9.7337e-06	0	0	0
9.78054e-06	0	0	0
9.87308e-06	0	0	0
9.88613e-06	0	0	0
9.89819e-06	0	0	0
1.00221e-05	0	0	0
1.00354e-05	0	0	0
1.0066e-05	0	0	0
1.01024e-05	0	0	0
1.02038e-05	0	0	0
1.0225e-05	0	0	0
1.02433e-05	0	0	0
1.02475e-05	0	0	0
1.02584e-05	0	0	0
1.02778e-05	0	0	0
1.0296e-05	0	0	0
1.0409e-05	0	0	0
1.05427e-05	0	0	0
1.05848e-05	0	0	0
1.06068e-05	0	0	0
1.07954e-05	0	0	0
1.08224e-05	0	0	0
1.08396e-05	0	0	0
1.08769e-05	0	0	0
1.08785e-05	0	0	0
1.09063e-05	0	0	0
1.09394e-05	0	0	0
1.09466e-05	0	0	0
1.09821e-05	0	0	0
1.10332e-05	0	0	0
1.10951e-05	0	0	0
1.11277e-05	0	0	0
1.11384e-05	0	0	0
1.11491e-05	0	0	0
1.11674e-05	0	0	0
1.12235e-05	0	0	0
1.12254e-05	0	0	0
1.12445e-05	0	0	0
1.12445e-05	0	0	0
1.12784e-05	0	0	0
1.12971e-05	0	0	0
1.13586e-05	0	0	0
1.13683e-05	0	0	0
1.1426e-05	0	0	0
1.14817e-05	0	0	0
1.14989e-05	0	0	0
1.16344e-05	0	0	0
1.17375e-05	0	0	0
1.17384e-05	0	0	0
1.1924e-05	0	0	0
1.20484e-05	0	0	0
1.2126e-05	0	0	0
1.21316e-05	0	0	0
1.21425e-05	0	0	0
1.2232e-05	0	0	0
1.22534e-05	0	0	0
1.22611e-05	0	0	0
1.22893e-05	0	0	0
1.23072e-05	0	0	0
1.23225e-05	0	0	0
1.24244e-05	0	0	0
1.24832e-05	0	0	0
1.25099e-05	0	0	0
1.25574e-05	0	0	0
1.25738e-05	0	0	0
1.26586e-05	0	0	0
1.26926e-05	0	0	0
1.2745e-05	0	0	0
1.27946e-05	0	0	0
1.27947e-05	0	0	0
1.28053e-05	0	0	0
1.28704e-05	0	0	0
1.29061e-05	0	0	0
1.29104e-05	0	0	0
1.29398e-05	0	0	0
1.29413e-05	0	0	0
1.30118e-05	0	0	0
1.32018e-05	0	0	0
1.32071e-05	0	0	0
1.32079e-05	0	0	0
1.32239e-05	0	0	0
1.32511e-05	0	0	0
1.3294e-05	0	0	0
1.33202e-05	0	0	0
1.33247e-05	0	0	0
1.33993e-05	0	0	0
1.34139e-05	0	0	0
1.35042e-05	0	0	0
1.35774e-05	0	0	0
1.36082e-05	0	0	0
1.36371e-05	0	0	0
1.3651e-05	0	0	0
1.37302e-05	0	0	0
1.37314e-05	0	0	0
1.37341e-05	0	0	0
1.37891e-05	0	0	0
1.37948e-05	0	0	0
1.38102e-05	0	0	0
1.38271e-05	0	0	0
1.38377e-05	0	0	0
1.38383e-05	0	0	0
1.38522e-05	0	0	0
1.39816e-05	0	0	0
1.4033e-05	0	0	0
1.40959e-05	0	0	0
1.41379e-05	0	0	0
1.41601e-05	0	0	0
1.42075e-05	0	0	0
1.43307e-05	0	0	0
1.43331e-05	0	0	0
1.45315e-05	0	0	0
1.46157e-05	0	0	0
1.46292e-05	0	0	0
1.46903e-05	0	0	0
1.4701e-05	0	0	0
1.47048e-05	0	0	0
1.47064e-05	0	0	0
1.47588e-05	0	0	0
1.47605e-05	0	0	0
1.49134e-05	0	0	0
1.4966e-05	0	0	0
1.49724e-05	0	0	0
1.50384e-05	0	0	0
1.50423e-05	0	0	0
1.51941e-05	0	0	0
1.52757e-05	0	0	0
1.52889e-05	0	0	0
1.53051e-05	0	0	0
1.53315e-05	0	0	0
1.54514e-05	0	0	0
1.55705e-05	0	0	0
1.55816e-05	0	0	0
1.56268e-05	0	0	0
1.5652e-05	0	0	0
1.57323e-05	0	0	0
1.57375e-05	0	0	0
1.58176e-05	0	0	0
1.58268e-05	0	0	0
1.58288e-05	0	0	0
1.59872e-05	0	0	0
1.59999e-05	0	0	0
1.60166e-05	0	0	0
1.60178e-05	0	0	0
1.61416e-05	0	0	0
1.61479e-05	0	0	0
1.61492e-05	0	0	0
1.6273e-05	0	0	0
1.62764e-05	0	0	0
1.62995e-05	0	0	0
1.63445e-05	0	0	0
1.64601e-05	0	0	0
1.64932e-05	0	0	0
1.65024e-05	0	0	0
1.65487e-05	0	0	0
1.66555e-05	0	0	0
1.66692e-05	0	0	0
1.66788e-05	0	0	0
1.67228e-05	0	0	0
1.67675e-05	0	0	0
1.67984e-05	0	0	0
1.68005e-05	0	0	0
1.6896e-05	0	0	0
1.70284e-05	0	0	0
1.70807e-05	0	0	0
1.70887e-05	0	0	0
1.70898e-05	0	0	0
1.71473e-05	0	0	0
1.72151e-05	0	0	0
1.7237e-05	0	0	0
1.73326e-05	0	0	0
1.73647e-05	0	0	0
1.74155e-05	0	0	0
1.74336e-05	0	0	0
1.75339e-05	0	0	0
1.75385e-05	0	0	0
1.76175e-05	0	0	0
1.76484e-05	0	0	0
1.76547e-05	0	0	0
1.76735e-05	0	0	0
1.77436e-05	0	0	0
1.78108e-05	0	0	0
1.81734e-05	0	0	0
1.82379e-05	0	0	0
1.82653e-05	0	0	0
1.83529e-05	0	0	0
1.84079e-05	0	0	0
1.8466e-05	0	0	0
1.86091e-05	0	0	0
1.87672e-05	0	0	0
1.87961e-05	0	0	0
1.88132e-05	0	0	0
1.88278e-05	0	0	0
1.88786e-05	0	0	0
1.89548e-05	0	0	0
1.90356e-05	0	0	0
1.90581e-05	0	0	0
1.90641e-05	0	0	0
1.90838e-05	0	0	0
1.90856e-05	0	0	0
1.90915e-05	0	0	0
1.91357e-05	0	0	0
1.91429e-05	0	0	0
1.91748e-05	0	0	0
1.92348e-05	0	0	0
1.92767e-05	0	0	0
1.93284e-05	0	0	0
1.93378e-05	0	0	0
1.93385e-05	0	0	0
1.93548e-05	0	0	0
1.94457e-05	0	0	0
1.96218e-05	0	0	0
1.97087e-05	0	0	0
1.98649e-05	0	0	0
1.99808e-05	0	0	0
1.99985e-05	0	0	0
2.00138e-05	0	0	0
2.00495e-05	0	0	0
2.0151e-05	0	0	0
2.02422e-05	0	0	0
2.02507e-05	0	0	0
2.02622e-05	0	0	0
2.02646e-05	0	0	0
2.03001e-05	0	0	0
2.03357e-05	0	0	0
2.03885e-05	0	0	0
2.05864e-05	0	0	0
2.07534e-05	0	0	0
2.07987e-05	0	0	0
2.08862e-05	0	0	0
2.08937e-05	0	0	0
2.09248e-05	0	0	0
2.10876e-05	0	0	0
2.11233e-05	0	0	0
2.1159e-05	0	0	0
2.1173e-05	0	0	0
2.14112e-05	0	0	0
2.14218e-05	0	0	0
2.14737e-05	0	0	0
2.14903e-05	0	0	0
2.15372e-05	0	0	0
2.17146e-05	0	0	0
2.17954e-05	0	0	0
2.1849e-05	0	0	0
2.19243e-05	0	0	0
2.19881e-05	0	0	0
2.20009e-05	0	0	0
2.20206e-05	0	0	0
2.20765e-05	0	0	0
2.20848e-05	0	0	0
2.22312e-05	0	0	0
2.22821e-05	0	0	0
2.2521e-05	0	0	0
2.25288e-05	0	0	0
2.26202e-05	0	0	0
2.26317e-05	0	0	0
2.26445e-05	0	0	0
2.26515e-05	0	0	0
2.28438e-05	0	0	0
2.29774e-05	0	0	0
2.31555e-05	0	0	0
2.31794e-05	0	0	0
2.31927e-05	0	0	0
2.33451e-05	0	0	0
2.33694e-05	0	0	0
2.34453e-05	0	0	0
2.34585e-05	0	0	0
2.35049e-05	0	0	0
2.35601e-05	0	0	0
2.35761e-05	0	0	0
2.35774e-05	0	0	0
2.3632e-05	0	0	0
2.36773e-05	0	0	0
2.37739e-05	0	0	0
2.38484e-05	0	0	0
2.38558e-05	0	0	0
2.39537e-05	0	0	0
2.39562e-05	0	0	0
2.4303e-05	0	0	0
2.44544e-05	0	0	0
2.44761e-05	0	0	0
2.46555e-05	0	0	0
2.46841e-05	0	0	0
2.49383e-05	0	0	0
2.51126e-05	0	0	0
2.51201e-05	0	0	0
2.52013e-05	0	0	0
2.52277e-05	0	0	0
2.5245e-05	0	0	0
2.5326e-05	0	0	0
2.54585e-05	0	0	0
2.55608e-05	0	0	0
2.56868e-05	0	0	0
2.56991e-05	0	0	0
2.5717e-05	0	0	0
2.58007e-05	0	0	0
2.5821e-05	0	0	0
2.62401e-05	0	0	0
2.62729e-05	0	0	0
2.63135e-05	0	0	0
2.64456e-05	0	0	0
2.66383e-05	0	0	0
2.68242e-05	0	0	0
2.69019e-05	0	0	0
2.70749e-05	0	0	0
2.7138e-05	0	0	0
2.71639e-05	0	0	0
2.71881e-05	0	0	0
2.71895e-05	0	0	0
2.73154e-05	0	0	0
2.73915e-05	0	0	0
2.75629e-05	0	0	0
2.77399e-05	0	0	0
2.77913e-05	0	0	0
2.78621e-05	0	0	0
2.79593e-05	0	0	0
2.79872e-05	0	0	0
2.80265e-05	0	0	0
2.81462e-05	0	0	0
2.83296e-05	0	0	0
2.83627e-05	0	0	0
2.83885e-05	0	0	0
2.85054e-05	0	0	0
2.86891e-05	0	0	0
2.90366e-05	0	0	0
2.90555e-05	0	0	0
2.92247e-05	0	0	0
2.94669e-05	0	0	0
2.94729e-05	0	0	0
2.96525e-05	0	0	0
2.96587e-05	0	0	0
2.96749e-05	0	0	0
2.97513e-05	0	0	0
2.98043e-05	0	0	0
2.98475e-05	0	0	0
2.98677e-05	0	0	0
2.99437e-05	0	0	0
3.0044e-05	0	0	0
3.00579e-05	0	0	0
3.01218e-05	0	0	0
3.02129e-05	0	0	0
3.02507e-05	0	0	0
3.04545e-05	0	0	0
3.05285e-05	0	0	0
3.05419e-05	0	0	0
3.07509e-05	0	0	0
3.08798e-05	0	0	0
3.10425e-05	0	0	0
3.10709e-05	0	0	0
3.114e-05	0	0	0
3.12187e-05	0	0	0
3.1426e-05	0	0	0
3.14708e-05	0	0	0
3.15983e-05	0	0	0
3.16938e-05	0	0	0
3.17915e-05	0	0	0
3.20446e-05	0	0	0
3.20835e-05	0	0	0
3.21182e-05	0	0	0
3.21543e-05	0	0	0
3.22596e-05	0	0	0
3.22683e-05	0	0	0
3.22908e-05	0	0	0
3.22977e-05	0	0	0
3.25075e-05	0	0	0
3.25858e-05	0	0	0
3.26986e-05	0	0	0
3.26999e-05	0	0	0
3.31451e-05	0	0	0
3.31981e-05	0	0	0
3.32539e-05	0	0	0
3.32646e-05	0	0	0
3.34499e-05	0	0	0
3.353e-05	0	0	0
3.35641e-05	0	0	0
3.36671e-05	0	0	0
3.39348e-05	0	0	0
3.39358e-05	0	0	0
3.39829e-05	0	0	0
3.42586e-05	0	0	0
3.42727e-05	0	0	0
3.44239e-05	0	0	0
3.46162e-05	0	0	0
3.46374e-05	0	0	0
3.47511e-05	0	0	0
3.48189e-05	0	0	0
3.49714e-05	0	0	0
3.50121e-05	0	0	0
3.50367e-05	0	0	0
3.54355e-05	0	0	0
3.56174e-05	0	0	0
3.58496e-05	0	0	0
3.61746e-05	0	0	0
3.6178e-05	0	0	0
3.62674e-05	0	0	0
3.66135e-05	0	0	0
3.67423e-05	0	0	0
3.68491e-05	0	0	0
3.68549e-05	0	0	0
3.71308e-05	0	0	0
3.72795e-05	0	0	0
3.7361e-05	0	0	0
3.74081e-05	0	0	0
3.7452e-05	0	0	0
3.76095e-05	0	0	0
3.76486e-05	0	0	0
3.80721e-05	0	0	0
3.82499e-05	0	0	0
3.82888e-05	0	0	0
3.83595e-05	0	0	0
3.85904e-05	0	0	0
3.90221e-05	0	0	0
3.91343e-05	0	0	0
3.92086e-05	0	0	0
3.92091e-05	0	0	0
3.92526e-05	0	0	0
3.96173e-05	0	0	0
3.99331e-05	0	0	0
3.99343e-05	0	0	0
3.99936e-05	0	0	0
4.00564e-05	0	0	0
4.00939e-05	0	0	0
4.03772e-05	0	0	0
4.04272e-05	0	0	0
4.04712e-05	0	0	0
4.07704e-05	0	0	0
4.093e-05	0	0	0
4.10167e-05	0	0	0
4.10604e-05	0	0	0
4.16877e-05	0	0	0
4.19867e-05	0	0	0
4.24913e-05	0	0	0
4.25883e-05	0	0	0
4.26299e-05	0	0	0
4.28812e-05	0	0	0
4.3e-05	0	0	0
4.32537e-05	0	0	0
4.32742e-05	0	0	0
4.32933e-05	0	0	0
4.33615e-05	0	0	0
4.40298e-05	0	0	0
4.43029e-05	0	0	0
4.44818e-05	0	0	0
4.45803e-05	0	0	0
4.50186e-05	0	0	0
4.53086e-05	0	0	0
4.5433e-05	0	0	0
4.55376e-05	0	0	0
4.55471e-05	0	0	0
4.56775e-05	0	0	0
4.60868e-05	0	0	0
4.63365e-05	0	0	0
4.63641e-05	0	0	0
4.64459e-05	0	0	0
4.70788e-05	0	0	0
4.72177e-05	0	0	0
4.75791e-05	0	0	0
4.76037e-05	0	0	0
4.76551e-05	0	0	0
4.77222e-05	0	0	0
4.8452e-05	0	0	0
4.84769e-05	0	0	0
4.8573e-05	0	0	0
4.88074e-05	0	0	0
4.95905e-05	0	0	0
4.96631e-05	0	0	0
5.00926e-05	0	0	0
5.04389e-05	0	0	0
5.06668e-05	0	0	0
5.08659e-05	0	0	0
5.10825e-05	0	0	0
5.13663e-05	0	0	0
5.13705e-05	0	0	0
5.18504e-05	0	0	0
5.20074e-05	0	0	0
5.21174e-05	0	0	0
5.22188e-05	0	0	0
5.2561e-05	0	0	0
5.25892e-05	0	0	0
5.26473e-05	0	0	0
5.28831e-05	0	0	0
5.29026e-05	0	0	0
5.31819e-05	0	0	0
5.33156e-05	0	0	0
5.33948e-05	0	0	0
5.37842e-05	0	0	0
5.41526e-05	0	0	0
5.42408e-05	0	0	0
5.42913e-05	0	0	0
5.43654e-05	0	0	0
5.44763e-05	0	0	0
5.46322e-05	0	0	0
5.49573e-05	0	0	0
5.52244e-05	0	0	0
5.52738e-05	0	0	0
5.53309e-05	0	0	0
5.54374e-05	0	0	0
5.54898e-05	0	0	0
5.56725e-05	0	0	0
5.57652e-05	0	0	0
5.59181e-05	0	0	0
5.59487e-05	0	0	0
5.62824e-05	0	0	0
5.64223e-05	0	0	0
5.66018e-05	0	0	0
5.66381e-05	0	0	0
5.66958e-05	0	0	0
5.69017e-05	0	0	0
5.71e-05	0	0	0
5.72697e-05	0	0	0
5.73601e-05	0	0	0
5.76631e-05	0	0	0
5.77489e-05	0	0	0
5.79181e-05	0	0	0
5.81345e-05	0	0	0
5.82146e-05	0	0	0
5.82646e-05	0	0	0
5.86455e-05	0	0	0
5.90473e-05	0	0	0
6.00335e-05	0	0	0
6.02537e-05	0	0	0
6.03193e-05	0	0	0
6.11033e-05	0	0	0
6.12442e-05	0	0	0
6.12597e-05	0	0	0
6.13097e-05	0	0	0
6.14859e-05	0	0	0
6.15502e-05	0	0	0
6.15694e-05	0	0	0
6.16791e-05	0	0	0
6.17158e-05	0	0	0
6.17987e-05	0	0	0
6.18115e-05	0	0	0
6.25407e-05	0	0	0
6.26641e-05	0	0	0
6.35493e-05	0	0	0
6.35641e-05	0	0	0
6.38305e-05	0	0	0
6.39828e-05	0	0	0
6.41289e-05	0	0	0
6.46103e-05	0	0	0
6.46812e-05	0	0	0
6.47531e-05	0	0	0
6.50449e-05	0	0	0
6.53424e-05	0	0	0
6.54029e-05	0	0	0
6.55317e-05	0	0	0
6.56094e-05	0	0	0
6.56866e-05	0	0	0
6.57804e-05	0	0	0
6.65938e-05	0	0	0
6.69484e-05	0	0	0
6.69568e-05	0	0	0
6.72088e-05	0	0	0
6.72827e-05	0	0	0
6.75925e-05	0	0	0
6.81005e-05	0	0	0
6.8453e-05	0	0	0
6.97809e-05	0	0	0
7.04393e-05	0	0	0
7.07896e-05	0	0	0
7.10933e-05	0	0	0
7.11666e-05	0	0	0
7.12705e-05	0	0	0
7.13987e-05	0	0	0
7.22366e-05	0	0	0
7.23185e-05	0	0	0
7.27677e-05	0	0	0
7.31354e-05	0	0	0
7.33268e-05	0	0	0
7.35094e-05	0	0	0
7.44315e-05	0	0	0
7.46779e-05	0	0	0
7.49617e-05	0	0	0
7.50708e-05	0	0	0
7.52517e-05	0	0	0
7.54436e-05	0	0	0
7.57126e-05	0	0	0
7.57168e-05	0	0	0
7.57716e-05	0	0	0
7.67249e-05	0	0	0
7.69069e-05	0	0	0
7.70421e-05	0	0	0
7.77439e-05	0	0	0
7.78333e-05	0	0	0
7.80352e-05	0	0	0
7.80875e-05	0	0	0
7.84668e-05	0	0	0
7.86911e-05	0	0	0
7.91619e-05	0	0	0
7.91781e-05	0	0	0
7.92532e-05	0	0	0
7.933e-05	0	0	0
7.95027e-05	0	0	0
7.95307e-05	0	0	0
8.03186e-05	0	0	0
8.06754e-05	0	0	0
8.07499e-05	0	0	0
8.10578e-05	0	0	0
8.19394e-05	0	0	0
8.19774e-05	0	0	0
8.20138e-05	0	0	0
8.2261e-05	0	0	0
8.23557e-05	0	0	0
8.31702e-05	0	0	0
8.31967e-05	0	0	0
8.33397e-05	0	0	0
8.38242e-05	0	0	0
8.42165e-05	0	0	0
8.61189e-05	0	0	0
8.6339e-05	0	0	0
8.6911e-05	0	0	0
8.75692e-05	0	0	0
8.81576e-05	0	0	0
8.91131e-05	0	0	0
9.01728e-05	0	0	0
9.08653e-05	0	0	0
9.10911e-05	0	0	0
9.11614e-05	0	0	0
9.12186e-05	0	0	0
9.13531e-05	0	0	0
9.17137e-05	0	0	0
9.19614e-05	0	0	0
9.1966e-05	0	0	0
9.36126e-05	0	0	0
9.37111e-05	0	0	0
9.37598e-05	0	0	0
9.38403e-05	0	0	0
9.51307e-05	0	0	0
9.51605e-05	0	0	0
9.5216e-05	0	0	0
9.6061e-05	0	0	0
9.61425e-05	0	0	0
9.62431e-05	0	0	0
9.65891e-05	0	0	0
9.71484e-05	0	0	0
9.78899e-05	0	0	0
9.8346e-05	0	0	0
9.84121e-05	0	0	0
9.85434e-05	0	0	0
9.862e-05	0	0	0
9.95249e-05	0	0	0
0.000100608	0	0	0
0.000101462	0	0	0
0.000102044	0	0	0
0.000102758	0	0	0
0.000104456	0	0	0
0.000104736	0	0	0
0.000106521	0	0	0
0.000107313	0	0	0
0.000107775	0	0	0
0.000107832	0	0	0
0.000107979	0	0	0
0.000108273	0	0	0
0.000109166	0	0	0
0.000109444	0	0	0
0.000109619	0	0	0
0.000109884	0	0	0
0.000110727	0	0	0
0.000111173	0	0	0
0.000111524	0	0	0
0.000111803	0	0	0
0.000112628	0	0	0
0.000112696	0	0	0
0.000112743	0	0	0
0.000113302	0	0	0
0.000113773	0	0	0
0.000113799	0	0	0
0.000115069	0	0	0
0.000115149	0	0	0
0.000115155	0	0	0
0.000115329	0	0	0
0.000115562	0	0	0
0.00011643	0	0	0
0.000116923	0	0	0
0.000118249	0	0	0
0.000119137	0	0	0
0.000121087	0	0	0
0.000121117	0	0	0
0.000121721	0	0	0
0.000123295	0	0	0
0.000124157	0	0	0
0.00012462	0	0	0
0.000125792	0	0	0
0.000126153	0	0	0
0.000127741	0	0	0
0.000127902	0	0	0
0.000127915	0	0	0
0.000127964	0	0	0
0.000128529	0	0	0
0.000128721	0	0	0
0.000128979	0	0	0
0.000129559	0	0	0
0.000130661	0	0	0
0.000131038	0	0	0
0.000135262	0	0	0
0.000135488	0	0	0
0.00013586	0	0	0
0.000136537	0	0	0
0.000137764	0	0	0
0.000140024	0	0	0
0.000140353	0	0	0
0.000141853	0	0	0
0.000142866	0	0	0
0.000145936	0	0	0
0.000151178	0	0	0
0.000152388	0	0	0
0.000153906	0	0	0
0.000156522	0	0	0
0.000156633	0	0	0
0.000157132	0	0	0
0.00015836	0	0	0
0.000161615	0	0	0
0.000162983	0	0	0
0.000165945	0	0	0
0.00016597	0	0	0
0.000170564	0	0	0
0.000170954	0	0	0
0.000171103	0	0	0
0.000172854	0	0	0
0.000175986	0	0	0
0.000181417	0	0	0
0.000191338	0	0	0
0.000195269	0	0	0
0.000198119	0	0	0
0.000199691	0	0	0
0.000200553	0	0	0
0.000206519	0	0	0
0.000213046	0	0	0
0.000216678	0	0	0
0.000216828	0	0	0
0.000219394	0	0	0
0.000219956	0	0	0
0.00022144	0	0	0
0.000228714	0	0	0
0.000229707	0	0	0
0.000231548	0	0	0
0.000241133	0	0	0
0.000244933	0	0	0
0.000246287	0	0	0
0.000247773	0	0	0
0.000249404	0	0	0
0.00025248	0	0	0
0.00025318	0	0	0
0.000253461	0	0	0
0.000262538	0	0	0
0.000272823	0	0	0
0.000273136	0	0	0
0.000277226	0	0	0
0.000292755	0	0	0
0.000304689	0	0	0
0.000306415	0	0	0
0.000320328	0	0	0
0.000323686	0	0	0
0.000352022	0	0	0
0.000363015	0	0	0
0.000376552	0	0	0
0.000383252	0	0	0
0.000383463	0	0	0
0.000420288	0	0	0
0.000421772	0	0	0
0.000441181	0	0	0
0.00044348	0	0	0
0.000477794	0	0	0
0.000502231	0	0	0
0.000519789	0	0	0
0.000521436	0	0	0
0.000534716	0	0	0
0.000549644	0	0	0
0.000557369	0	0	0
0.000567494	0	0	0
0.000667859	0	0	0
0.000775011	0	0	0
0.00084529	0	0	0
0.000857822	0	0	0
0.000896139	0	0	0
0.000934622	0	0	0
0.000955652	0	0	0
0.000972536	0	0	0
0.000992689	0	0	0
0.00101292	0	0	0
0.00103669	0	0	0
0.00106821	0	0	0
0.00107366	0	0	0
0.00107881	0	0	0
0.00108689	0	0	0
0.00110497	0	0	0
0.00122194	0	0	0
0.00127245	0	0	0
0.00135619	0	0	0
0.00136736	0	0	0
0.00137359	0	0	0
0.00137992	0	0	0
0.00145706	0	0	0
0.00158543	0	0	0
0.00160824	0	0	0
0.00165011	0	0	0
0.0017783	0	0	0
0.00194351	0	0	0
0.00202715	0	0	0
0.00218295	0	0	0
0.00235783	0	0	0
0.00531671	0	0	0
0.0067877	0	0	0
0.00747901	0	0	0
0.00915268	0	0	0
0.00943637	0	0	0
