3.20988e-08	0	0	0
3.3084e-08	0	0	0
5.67982e-08	0	0	0
7.44945e-08	0	0	0
1.08467e-07	0	0	0
1.31301e-07	0	0	0
1.32528e-07	0	0	0
2.01632e-07	0	0	0
2.0404e-07	0	0	0
2.43847e-07	0	0	0
2.45395e-07	0	0	0
2.61475e-07	0	0	0
2.64321e-07	0	0	0
2.737e-07	0	0	0
2.91291e-07	0	0	0
3.0675e-07	0	0	0
3.45849e-07	0	0	0
3.51531e-07	0	0	0
3.68074e-07	0	0	0
3.83718e-07	0	0	0
3.92899e-07	0	0	0
4.07163e-07	0	0	0
4.31473e-07	0	0	0
4.51907e-07	0	0	0
4.83527e-07	0	0	0
4.93958e-07	0	0	0
5.31112e-07	0	0	0
5.32835e-07	0	0	0
6.23953e-07	0	0	0
6.33969e-07	0	0	0
6.73563e-07	0	0	0
7.09226e-07	0	0	0
7.16803e-07	0	0	0
7.38884e-07	0	0	0
7.57255e-07	0	0	0
7.58424e-07	0	0	0
7.65489e-07	0	0	0
8.45897e-07	0	0	0
8.78994e-07	0	0	0
8.86796e-07	0	0	0
8.87599e-07	0	0	0
8.94818e-07	0	0	0
9.07621e-07	0	0	0
9.28802e-07	0	0	0
9.54028e-07	0	0	0
9.97157e-07	0	0	0
1.00244e-06	0	0	0
1.05655e-06	0	0	0
1.08788e-06	0	0	0
1.11182e-06	0	0	0
1.11991e-06	0	0	0
1.13744e-06	0	0	0
1.14697e-06	0	0	0
1.14751e-06	0	0	0
1.23765e-06	0	0	0
1.25854e-06	0	0	0
1.27537e-06	0	0	0
1.29742e-06	0	0	0
1.30489e-06	0	0	0
1.31131e-06	0	0	0
1.36579e-06	0	0	0
1.40127e-06	0	0	0
1.43102e-06	0	0	0
1.43832e-06	0	0	0
1.46653e-06	0	0	0
1.49008e-06	0	0	0
1.49978e-06	0	0	0
1.51195e-06	0	0	0
1.56893e-06	0	0	0
1.56956e-06	0	0	0
1.57348e-06	0	0	0
1.59392e-06	0	0	0
1.63203e-06	0	0	0
1.68779e-06	0	0	0
1.74355e-06	0	0	0
1.7485e-06	0	0	0
1.75211e-06	0	0	0
1.75586e-06	0	0	0
1.75854e-06	0	0	0
1.78096e-06	0	0	0
1.78326e-06	0	0	0
1.78699e-06	0	0	0
1.80887e-06	0	0	0
1.86918e-06	0	0	0
1.89338e-06	0	0	0
1.90023e-06	0	0	0
1.90646e-06	0	0	0
1.95515e-06	0	0	0
1.9603e-06	0	0	0
1.9634e-06	0	0	0
2.0458e-06	0	0	0
2.05083e-06	0	0	0
2.09738e-06	0	0	0
2.10162e-06	0	0	0
2.10615e-06	0	0	0
2.10746e-06	0	0	0
2.11711e-06	0	0	0
2.20095e-06	0	0	0
2.20531e-06	0	0	0
2.27463e-06	0	0	0
2.30919e-06	0	0	0
2.31138e-06	0	0	0
2.31527e-06	0	0	0
2.32408e-06	0	0	0
2.33578e-06	0	0	0
2.40699e-06	0	0	0
2.42316e-06	0	0	0
2.42568e-06	0	0	0
2.43472e-06	0	0	0
2.43575e-06	0	0	0
2.45587e-06	0	0	0
2.50561e-06	0	0	0
2.57106e-06	0	0	0
2.57255e-06	0	0	0
2.58383e-06	0	0	0
2.60841e-06	0	0	0
2.65713e-06	0	0	0
2.78046e-06	0	0	0
2.78634e-06	0	0	0
2.82394e-06	0	0	0
2.85181e-06	0	0	0
2.9111e-06	0	0	0
2.94706e-06	0	0	0
2.94805e-06	0	0	0
2.9669e-06	0	0	0
2.97326e-06	0	0	0
3.0245e-06	0	0	0
3.05349e-06	0	0	0
3.11975e-06	0	0	0
3.1284e-06	0	0	0
3.13063e-06	0	0	0
3.13907e-06	0	0	0
3.14607e-06	0	0	0
3.15066e-06	0	0	0
3.15968e-06	0	0	0
3.19271e-06	0	0	0
3.21342e-06	0	0	0
3.27808e-06	0	0	0
3.34089e-06	0	0	0
3.36362e-06	0	0	0
3.38425e-06	0	0	0
3.38511e-06	0	0	0
3.41013e-06	0	0	0
3.43421e-06	0	0	0
3.486e-06	0	0	0
3.48694e-06	0	0	0
3.51396e-06	0	0	0
3.52288e-06	0	0	0
3.54968e-06	0	0	0
3.59336e-06	0	0	0
3.61952e-06	0	0	0
3.66567e-06	0	0	0
3.70555e-06	0	0	0
3.73632e-06	0	0	0
3.85168e-06	0	0	0
3.85954e-06	0	0	0
3.91229e-06	0	0	0
4.01817e-06	0	0	0
4.0187e-06	0	0	0
4.09786e-06	0	0	0
4.10601e-06	0	0	0
4.15488e-06	0	0	0
4.16957e-06	0	0	0
4.23454e-06	0	0	0
4.29903e-06	0	0	0
4.30183e-06	0	0	0
4.37657e-06	0	0	0
4.41287e-06	0	0	0
4.42626e-06	0	0	0
4.47771e-06	0	0	0
4.66103e-06	0	0	0
4.66729e-06	0	0	0
4.69627e-06	0	0	0
4.72341e-06	0	0	0
4.78381e-06	0	0	0
4.79835e-06	0	0	0
4.81605e-06	0	0	0
4.83281e-06	0	0	0
4.84905e-06	0	0	0
4.85051e-06	0	0	0
4.88455e-06	0	0	0
4.90251e-06	0	0	0
4.91306e-06	0	0	0
4.93084e-06	0	0	0
4.97773e-06	0	0	0
4.99885e-06	0	0	0
5.00014e-06	0	0	0
5.01707e-06	0	0	0
5.11711e-06	0	0	0
5.11924e-06	0	0	0
5.13755e-06	0	0	0
5.15341e-06	0	0	0
5.18327e-06	0	0	0
5.18652e-06	0	0	0
5.19445e-06	0	0	0
5.24241e-06	0	0	0
5.26248e-06	0	0	0
5.31862e-06	0	0	0
5.32612e-06	0	0	0
5.36304e-06	0	0	0
5.37898e-06	0	0	0
5.45e-06	0	0	0
5.51049e-06	0	0	0
5.57406e-06	0	0	0
5.62786e-06	0	0	0
5.64425e-06	0	0	0
5.66997e-06	0	0	0
5.71291e-06	0	0	0
5.7186e-06	0	0	0
5.80556e-06	0	0	0
5.81964e-06	0	0	0
5.82098e-06	0	0	0
5.82214e-06	0	0	0
5.83855e-06	0	0	0
5.96623e-06	0	0	0
6.04432e-06	0	0	0
6.06519e-06	0	0	0
6.06757e-06	0	0	0
6.10799e-06	0	0	0
6.11525e-06	0	0	0
6.12032e-06	0	0	0
6.12445e-06	0	0	0
6.15135e-06	0	0	0
6.17625e-06	0	0	0
6.20483e-06	0	0	0
6.27752e-06	0	0	0
6.32783e-06	0	0	0
6.48605e-06	0	0	0
6.50685e-06	0	0	0
6.51687e-06	0	0	0
6.53392e-06	0	0	0
6.53695e-06	0	0	0
6.5717e-06	0	0	0
6.74866e-06	0	0	0
6.77449e-06	0	0	0
6.79214e-06	0	0	0
6.82862e-06	0	0	0
6.91306e-06	0	0	0
6.95116e-06	0	0	0
6.95893e-06	0	0	0
6.96181e-06	0	0	0
7.01924e-06	0	0	0
7.05465e-06	0	0	0
7.06693e-06	0	0	0
7.07846e-06	0	0	0
7.08652e-06	0	0	0
7.11901e-06	0	0	0
7.12043e-06	0	0	0
7.21954e-06	0	0	0
7.22167e-06	0	0	0
7.25135e-06	0	0	0
7.25642e-06	0	0	0
7.25801e-06	0	0	0
7.26156e-06	0	0	0
7.2671e-06	0	0	0
7.29657e-06	0	0	0
7.29757e-06	0	0	0
7.32702e-06	0	0	0
7.39379e-06	0	0	0
7.39594e-06	0	0	0
7.44248e-06	0	0	0
7.46282e-06	0	0	0
7.50077e-06	0	0	0
7.50406e-06	0	0	0
7.54793e-06	0	0	0
7.59605e-06	0	0	0
7.64267e-06	0	0	0
7.66567e-06	0	0	0
7.67158e-06	0	0	0
7.70028e-06	0	0	0
7.705e-06	0	0	0
7.70991e-06	0	0	0
7.80444e-06	0	0	0
7.8122e-06	0	0	0
7.91032e-06	0	0	0
7.91043e-06	0	0	0
7.92344e-06	0	0	0
7.94844e-06	0	0	0
7.9496e-06	0	0	0
8.00661e-06	0	0	0
8.0975e-06	0	0	0
8.1392e-06	0	0	0
8.16159e-06	0	0	0
8.17914e-06	0	0	0
8.20192e-06	0	0	0
8.23751e-06	0	0	0
8.24517e-06	0	0	0
8.2815e-06	0	0	0
8.41767e-06	0	0	0
8.4437e-06	0	0	0
8.53684e-06	0	0	0
8.57699e-06	0	0	0
8.58263e-06	0	0	0
8.63267e-06	0	0	0
8.64994e-06	0	0	0
8.65134e-06	0	0	0
8.95886e-06	0	0	0
9.05784e-06	0	0	0
9.11202e-06	0	0	0
9.15002e-06	0	0	0
9.20148e-06	0	0	0
9.22986e-06	0	0	0
9.25052e-06	0	0	0
9.25147e-06	0	0	0
9.27145e-06	0	0	0
9.27249e-06	0	0	0
9.3357e-06	0	0	0
9.45949e-06	0	0	0
9.50696e-06	0	0	0
9.54198e-06	0	0	0
9.55553e-06	0	0	0
9.5864e-06	0	0	0
9.61511e-06	0	0	0
9.64927e-06	0	0	0
9.64986e-06	0	0	0
9.67896e-06	0	0	0
9.7047e-06	0	0	0
9.74507e-06	0	0	0
9.7495e-06	0	0	0
9.80188e-06	0	0	0
1.00265e-05	0	0	0
1.00949e-05	0	0	0
1.01385e-05	0	0	0
1.02624e-05	0	0	0
1.03326e-05	0	0	0
1.03718e-05	0	0	0
1.04366e-05	0	0	0
1.04804e-05	0	0	0
1.05051e-05	0	0	0
1.05559e-05	0	0	0
1.05938e-05	0	0	0
1.06874e-05	0	0	0
1.06986e-05	0	0	0
1.07499e-05	0	0	0
1.07794e-05	0	0	0
1.09044e-05	0	0	0
1.09547e-05	0	0	0
1.09561e-05	0	0	0
1.10279e-05	0	0	0
1.11865e-05	0	0	0
1.13657e-05	0	0	0
1.14394e-05	0	0	0
1.15762e-05	0	0	0
1.16075e-05	0	0	0
1.1638e-05	0	0	0
1.16625e-05	0	0	0
1.17141e-05	0	0	0
1.17531e-05	0	0	0
1.17687e-05	0	0	0
1.17709e-05	0	0	0
1.18874e-05	0	0	0
1.21106e-05	0	0	0
1.21285e-05	0	0	0
1.21687e-05	0	0	0
1.22167e-05	0	0	0
1.23428e-05	0	0	0
1.23905e-05	0	0	0
1.24767e-05	0	0	0
1.25695e-05	0	0	0
1.25749e-05	0	0	0
1.2626e-05	0	0	0
1.26386e-05	0	0	0
1.29082e-05	0	0	0
1.29684e-05	0	0	0
1.29703e-05	0	0	0
1.3045e-05	0	0	0
1.31578e-05	0	0	0
1.31633e-05	0	0	0
1.32822e-05	0	0	0
1.34672e-05	0	0	0
1.35082e-05	0	0	0
1.36487e-05	0	0	0
1.38432e-05	0	0	0
1.3917e-05	0	0	0
1.39209e-05	0	0	0
1.3988e-05	0	0	0
1.40039e-05	0	0	0
1.40633e-05	0	0	0
1.42979e-05	0	0	0
1.43826e-05	0	0	0
1.44842e-05	0	0	0
1.45225e-05	0	0	0
1.46683e-05	0	0	0
1.46698e-05	0	0	0
1.47188e-05	0	0	0
1.48479e-05	0	0	0
1.49216e-05	0	0	0
1.50967e-05	0	0	0
1.52177e-05	0	0	0
1.52391e-05	0	0	0
1.52544e-05	0	0	0
1.52674e-05	0	0	0
1.52989e-05	0	0	0
1.53126e-05	0	0	0
1.54414e-05	0	0	0
1.54467e-05	0	0	0
1.55523e-05	0	0	0
1.56033e-05	0	0	0
1.56579e-05	0	0	0
1.56977e-05	0	0	0
1.57002e-05	0	0	0
1.58164e-05	0	0	0
1.58669e-05	0	0	0
1.58791e-05	0	0	0
1.59543e-05	0	0	0
1.60547e-05	0	0	0
1.61067e-05	0	0	0
1.61382e-05	0	0	0
1.61563e-05	0	0	0
1.61787e-05	0	0	0
1.62569e-05	0	0	0
1.63544e-05	0	0	0
1.63789e-05	0	0	0
1.63871e-05	0	0	0
1.65576e-05	0	0	0
1.6642e-05	0	0	0
1.66651e-05	0	0	0
1.67008e-05	0	0	0
1.67402e-05	0	0	0
1.67422e-05	0	0	0
1.67426e-05	0	0	0
1.68942e-05	0	0	0
1.69016e-05	0	0	0
1.70627e-05	0	0	0
1.70891e-05	0	0	0
1.70956e-05	0	0	0
1.71502e-05	0	0	0
1.72643e-05	0	0	0
1.73485e-05	0	0	0
1.74412e-05	0	0	0
1.76055e-05	0	0	0
1.76106e-05	0	0	0
1.76738e-05	0	0	0
1.7685e-05	0	0	0
1.76857e-05	0	0	0
1.76863e-05	0	0	0
1.76915e-05	0	0	0
1.78685e-05	0	0	0
1.78934e-05	0	0	0
1.79249e-05	0	0	0
1.79314e-05	0	0	0
1.81084e-05	0	0	0
1.81591e-05	0	0	0
1.82326e-05	0	0	0
1.83636e-05	0	0	0
1.83812e-05	0	0	0
1.85349e-05	0	0	0
1.86054e-05	0	0	0
1.86453e-05	0	0	0
1.86876e-05	0	0	0
1.87371e-05	0	0	0
1.87777e-05	0	0	0
1.89244e-05	0	0	0
1.89901e-05	0	0	0
1.9004e-05	0	0	0
1.90167e-05	0	0	0
1.90403e-05	0	0	0
1.91153e-05	0	0	0
1.91958e-05	0	0	0
1.92351e-05	0	0	0
1.94123e-05	0	0	0
1.94512e-05	0	0	0
1.94534e-05	0	0	0
1.95723e-05	0	0	0
1.9618e-05	0	0	0
1.96884e-05	0	0	0
1.97238e-05	0	0	0
1.98538e-05	0	0	0
1.98914e-05	0	0	0
2.00289e-05	0	0	0
2.01126e-05	0	0	0
2.01821e-05	0	0	0
2.02148e-05	0	0	0
2.02549e-05	0	0	0
2.02979e-05	0	0	0
2.03948e-05	0	0	0
2.04106e-05	0	0	0
2.04344e-05	0	0	0
2.04614e-05	0	0	0
2.04921e-05	0	0	0
2.05022e-05	0	0	0
2.05147e-05	0	0	0
2.05916e-05	0	0	0
2.07816e-05	0	0	0
2.08161e-05	0	0	0
2.08959e-05	0	0	0
2.10001e-05	0	0	0
2.10439e-05	0	0	0
2.10633e-05	0	0	0
2.12961e-05	0	0	0
2.13031e-05	0	0	0
2.13076e-05	0	0	0
2.13626e-05	0	0	0
2.14204e-05	0	0	0
2.15017e-05	0	0	0
2.18516e-05	0	0	0
2.1927e-05	0	0	0
2.19333e-05	0	0	0
2.21173e-05	0	0	0
2.21312e-05	0	0	0
2.2349e-05	0	0	0
2.25604e-05	0	0	0
2.28742e-05	0	0	0
2.29311e-05	0	0	0
2.30507e-05	0	0	0
2.30766e-05	0	0	0
2.31634e-05	0	0	0
2.32992e-05	0	0	0
2.33838e-05	0	0	0
2.33929e-05	0	0	0
2.34735e-05	0	0	0
2.34742e-05	0	0	0
2.36007e-05	0	0	0
2.37621e-05	0	0	0
2.3849e-05	0	0	0
2.40609e-05	0	0	0
2.41599e-05	0	0	0
2.41708e-05	0	0	0
2.43371e-05	0	0	0
2.43731e-05	0	0	0
2.44817e-05	0	0	0
2.46257e-05	0	0	0
2.47775e-05	0	0	0
2.48848e-05	0	0	0
2.52083e-05	0	0	0
2.5259e-05	0	0	0
2.52897e-05	0	0	0
2.52934e-05	0	0	0
2.53201e-05	0	0	0
2.53339e-05	0	0	0
2.53578e-05	0	0	0
2.57108e-05	0	0	0
2.65705e-05	0	0	0
2.66378e-05	0	0	0
2.6734e-05	0	0	0
2.67718e-05	0	0	0
2.67785e-05	0	0	0
2.69194e-05	0	0	0
2.69281e-05	0	0	0
2.69688e-05	0	0	0
2.69747e-05	0	0	0
2.69827e-05	0	0	0
2.72582e-05	0	0	0
2.7429e-05	0	0	0
2.77791e-05	0	0	0
2.78611e-05	0	0	0
2.79816e-05	0	0	0
2.8093e-05	0	0	0
2.81142e-05	0	0	0
2.81764e-05	0	0	0
2.85139e-05	0	0	0
2.85514e-05	0	0	0
2.87023e-05	0	0	0
2.87133e-05	0	0	0
2.87696e-05	0	0	0
2.88229e-05	0	0	0
2.88289e-05	0	0	0
2.89226e-05	0	0	0
2.89953e-05	0	0	0
2.90242e-05	0	0	0
2.92118e-05	0	0	0
2.92542e-05	0	0	0
2.92589e-05	0	0	0
2.92602e-05	0	0	0
2.9422e-05	0	0	0
2.94466e-05	0	0	0
2.97013e-05	0	0	0
2.97161e-05	0	0	0
2.98484e-05	0	0	0
2.99991e-05	0	0	0
3.00278e-05	0	0	0
3.00965e-05	0	0	0
3.03155e-05	0	0	0
3.04034e-05	0	0	0
3.05176e-05	0	0	0
3.0568e-05	0	0	0
3.08167e-05	0	0	0
3.09658e-05	0	0	0
3.10661e-05	0	0	0
3.1319e-05	0	0	0
3.13535e-05	0	0	0
3.17101e-05	0	0	0
3.20577e-05	0	0	0
3.2166e-05	0	0	0
3.22766e-05	0	0	0
3.22771e-05	0	0	0
3.24088e-05	0	0	0
3.25984e-05	0	0	0
3.2637e-05	0	0	0
3.27311e-05	0	0	0
3.27581e-05	0	0	0
3.30658e-05	0	0	0
3.30905e-05	0	0	0
3.31431e-05	0	0	0
3.36275e-05	0	0	0
3.37033e-05	0	0	0
3.38548e-05	0	0	0
3.39481e-05	0	0	0
3.40138e-05	0	0	0
3.40384e-05	0	0	0
3.40781e-05	0	0	0
3.40823e-05	0	0	0
3.41885e-05	0	0	0
3.42273e-05	0	0	0
3.4316e-05	0	0	0
3.47026e-05	0	0	0
3.49686e-05	0	0	0
3.50322e-05	0	0	0
3.50584e-05	0	0	0
3.51928e-05	0	0	0
3.52445e-05	0	0	0
3.55522e-05	0	0	0
3.55629e-05	0	0	0
3.55959e-05	0	0	0
3.56162e-05	0	0	0
3.56202e-05	0	0	0
3.56595e-05	0	0	0
3.57834e-05	0	0	0
3.58871e-05	0	0	0
3.60942e-05	0	0	0
3.61774e-05	0	0	0
3.68153e-05	0	0	0
3.68455e-05	0	0	0
3.68994e-05	0	0	0
3.69129e-05	0	0	0
3.72076e-05	0	0	0
3.74272e-05	0	0	0
3.75297e-05	0	0	0
3.76173e-05	0	0	0
3.78093e-05	0	0	0
3.81015e-05	0	0	0
3.81494e-05	0	0	0
3.81868e-05	0	0	0
3.82578e-05	0	0	0
3.82994e-05	0	0	0
3.86075e-05	0	0	0
3.92692e-05	0	0	0
3.92903e-05	0	0	0
3.95602e-05	0	0	0
3.95875e-05	0	0	0
3.9778e-05	0	0	0
3.97953e-05	0	0	0
4.00074e-05	0	0	0
4.0168e-05	0	0	0
4.02913e-05	0	0	0
4.05849e-05	0	0	0
4.07835e-05	0	0	0
4.09653e-05	0	0	0
4.10376e-05	0	0	0
4.12894e-05	0	0	0
4.14818e-05	0	0	0
4.15979e-05	0	0	0
4.20432e-05	0	0	0
4.25068e-05	0	0	0
4.25915e-05	0	0	0
4.27054e-05	0	0	0
4.28043e-05	0	0	0
4.29309e-05	0	0	0
4.29387e-05	0	0	0
4.30839e-05	0	0	0
4.31372e-05	0	0	0
4.34295e-05	0	0	0
4.37084e-05	0	0	0
4.37339e-05	0	0	0
4.39156e-05	0	0	0
4.41334e-05	0	0	0
4.43724e-05	0	0	0
4.44376e-05	0	0	0
4.47033e-05	0	0	0
4.47988e-05	0	0	0
4.48167e-05	0	0	0
4.48411e-05	0	0	0
4.48581e-05	0	0	0
4.5105e-05	0	0	0
4.52411e-05	0	0	0
4.53497e-05	0	0	0
4.53923e-05	0	0	0
4.54399e-05	0	0	0
4.60218e-05	0	0	0
4.61389e-05	0	0	0
4.62507e-05	0	0	0
4.64191e-05	0	0	0
4.64802e-05	0	0	0
4.67418e-05	0	0	0
4.68564e-05	0	0	0
4.71083e-05	0	0	0
4.71406e-05	0	0	0
4.71676e-05	0	0	0
4.73857e-05	0	0	0
4.81565e-05	0	0	0
4.85649e-05	0	0	0
4.87397e-05	0	0	0
4.8965e-05	0	0	0
4.91042e-05	0	0	0
4.92556e-05	0	0	0
4.948e-05	0	0	0
4.99025e-05	0	0	0
4.99439e-05	0	0	0
4.99573e-05	0	0	0
5.01313e-05	0	0	0
5.01803e-05	0	0	0
5.01827e-05	0	0	0
5.03107e-05	0	0	0
5.0696e-05	0	0	0
5.07954e-05	0	0	0
5.09732e-05	0	0	0
5.1127e-05	0	0	0
5.12988e-05	0	0	0
5.18467e-05	0	0	0
5.19201e-05	0	0	0
5.22739e-05	0	0	0
5.2378e-05	0	0	0
5.24033e-05	0	0	0
5.28316e-05	0	0	0
5.2882e-05	0	0	0
5.30895e-05	0	0	0
5.31373e-05	0	0	0
5.34666e-05	0	0	0
5.36435e-05	0	0	0
5.38188e-05	0	0	0
5.39526e-05	0	0	0
5.39622e-05	0	0	0
5.39997e-05	0	0	0
5.40654e-05	0	0	0
5.41235e-05	0	0	0
5.41548e-05	0	0	0
5.45259e-05	0	0	0
5.46113e-05	0	0	0
5.47217e-05	0	0	0
5.48586e-05	0	0	0
5.51027e-05	0	0	0
5.5249e-05	0	0	0
5.57971e-05	0	0	0
5.6229e-05	0	0	0
5.64428e-05	0	0	0
5.65688e-05	0	0	0
5.65732e-05	0	0	0
5.70984e-05	0	0	0
5.71274e-05	0	0	0
5.73382e-05	0	0	0
5.77792e-05	0	0	0
5.81165e-05	0	0	0
5.82521e-05	0	0	0
5.84207e-05	0	0	0
5.86655e-05	0	0	0
5.97946e-05	0	0	0
5.98549e-05	0	0	0
5.98957e-05	0	0	0
6.00301e-05	0	0	0
6.01326e-05	0	0	0
6.02991e-05	0	0	0
6.06377e-05	0	0	0
6.064e-05	0	0	0
6.10191e-05	0	0	0
6.18548e-05	0	0	0
6.19437e-05	0	0	0
6.21725e-05	0	0	0
6.23931e-05	0	0	0
6.27008e-05	0	0	0
6.34045e-05	0	0	0
6.36643e-05	0	0	0
6.43674e-05	0	0	0
6.45813e-05	0	0	0
6.55084e-05	0	0	0
6.60366e-05	0	0	0
6.60923e-05	0	0	0
6.62674e-05	0	0	0
6.63665e-05	0	0	0
6.68734e-05	0	0	0
6.69502e-05	0	0	0
6.69952e-05	0	0	0
6.78274e-05	0	0	0
6.80143e-05	0	0	0
6.85073e-05	0	0	0
6.89551e-05	0	0	0
6.90302e-05	0	0	0
6.90369e-05	0	0	0
6.90654e-05	0	0	0
6.91376e-05	0	0	0
6.93774e-05	0	0	0
6.94928e-05	0	0	0
6.95752e-05	0	0	0
7.03284e-05	0	0	0
7.10079e-05	0	0	0
7.12377e-05	0	0	0
7.22352e-05	0	0	0
7.23932e-05	0	0	0
7.24423e-05	0	0	0
7.27947e-05	0	0	0
7.29685e-05	0	0	0
7.34938e-05	0	0	0
7.39948e-05	0	0	0
7.40002e-05	0	0	0
7.44768e-05	0	0	0
7.45563e-05	0	0	0
7.48598e-05	0	0	0
7.71717e-05	0	0	0
7.728e-05	0	0	0
7.76365e-05	0	0	0
7.79398e-05	0	0	0
7.82598e-05	0	0	0
7.85103e-05	0	0	0
7.86672e-05	0	0	0
7.93213e-05	0	0	0
8.12667e-05	0	0	0
8.23073e-05	0	0	0
8.27517e-05	0	0	0
8.28589e-05	0	0	0
8.33787e-05	0	0	0
8.42773e-05	0	0	0
8.431e-05	0	0	0
8.45012e-05	0	0	0
8.45531e-05	0	0	0
8.63494e-05	0	0	0
8.69017e-05	0	0	0
8.73463e-05	0	0	0
8.75051e-05	0	0	0
8.79055e-05	0	0	0
8.79715e-05	0	0	0
8.81953e-05	0	0	0
8.878e-05	0	0	0
8.91588e-05	0	0	0
9.01199e-05	0	0	0
9.02499e-05	0	0	0
9.03043e-05	0	0	0
9.27267e-05	0	0	0
9.48054e-05	0	0	0
9.5492e-05	0	0	0
9.55607e-05	0	0	0
9.56922e-05	0	0	0
9.60137e-05	0	0	0
9.61003e-05	0	0	0
9.68202e-05	0	0	0
9.69061e-05	0	0	0
9.72957e-05	0	0	0
9.7631e-05	0	0	0
9.76821e-05	0	0	0
9.82251e-05	0	0	0
9.9221e-05	0	0	0
0.000100124	0	0	0
0.000100193	0	0	0
0.000101192	0	0	0
0.000101676	0	0	0
0.000102406	0	0	0
0.000103018	0	0	0
0.000103485	0	0	0
0.000104207	0	0	0
0.000104469	0	0	0
0.000104623	0	0	0
0.00010553	0	0	0
0.000106191	0	0	0
0.000106573	0	0	0
0.000106666	0	0	0
0.000107558	0	0	0
0.000107671	0	0	0
0.00010929	0	0	0
0.000109387	0	0	0
0.000109486	0	0	0
0.000109821	0	0	0
0.000110187	0	0	0
0.0001103	0	0	0
0.000110889	0	0	0
0.000111864	0	0	0
0.000112558	0	0	0
0.000112562	0	0	0
0.000113471	0	0	0
0.000114246	0	0	0
0.000115109	0	0	0
0.000117007	0	0	0
0.000117012	0	0	0
0.00011721	0	0	0
0.000117981	0	0	0
0.000119029	0	0	0
0.000120203	0	0	0
0.000121311	0	0	0
0.000121988	0	0	0
0.00012293	0	0	0
0.000123909	0	0	0
0.000124546	0	0	0
0.000125217	0	0	0
0.000128285	0	0	0
0.000128335	0	0	0
0.000129733	0	0	0
0.000130033	0	0	0
0.000131412	0	0	0
0.000131905	0	0	0
0.000133027	0	0	0
0.000134013	0	0	0
0.00013411	0	0	0
0.000137113	0	0	0
0.000138572	0	0	0
0.000138788	0	0	0
0.000141649	0	0	0
0.000145872	0	0	0
0.00014649	0	0	0
0.000147557	0	0	0
0.000148269	0	0	0
0.000149432	0	0	0
0.000150285	0	0	0
0.000150621	0	0	0
0.000151535	0	0	0
0.00015156	0	0	0
0.00015279	0	0	0
0.000153894	0	0	0
0.000159126	0	0	0
0.000159704	0	0	0
0.000160004	0	0	0
0.000161545	0	0	0
0.000162825	0	0	0
0.000164996	0	0	0
0.000170435	0	0	0
0.000172372	0	0	0
0.000172407	0	0	0
0.000174333	0	0	0
0.000177204	0	0	0
0.000178215	0	0	0
0.000181737	0	0	0
0.000183209	0	0	0
0.000186869	0	0	0
0.000189829	0	0	0
0.000190167	0	0	0
0.000193895	0	0	0
0.000198656	0	0	0
0.00019988	0	0	0
0.000208926	0	0	0
0.000211684	0	0	0
0.000221789	0	0	0
0.00023456	0	0	0
0.00024275	0	0	0
0.000245557	0	0	0
0.000247604	0	0	0
0.000253561	0	0	0
0.000257372	0	0	0
0.000262096	0	0	0
0.000265104	0	0	0
0.000273273	0	0	0
0.000281938	0	0	0
0.000295082	0	0	0
0.000301413	0	0	0
0.000302099	0	0	0
0.000314621	0	0	0
0.000332268	0	0	0
0.000340741	0	0	0
0.000353043	0	0	0
0.00036401	0	0	0
0.000366322	0	0	0
0.000367396	0	0	0
0.00037707	0	0	0
0.000385316	0	0	0
0.000389066	0	0	0
0.000391775	0	0	0
0.000400245	0	0	0
0.000425045	0	0	0
0.000428271	0	0	0
0.000432843	0	0	0
0.000435126	0	0	0
0.000439055	0	0	0
0.000439746	0.0138198	0.0276396	0
0.000462095	0.0138198	0.0276396	0
0.000480944	0.0138198	0.0276396	0
0.000492301	0.0138198	0.0276396	0
0.000495008	0.0138198	0.0276396	0
0.00050859	0.0138198	0.0276396	0
0.000508974	0.0138198	0.0276396	0
0.00052631	0.0138198	0.0276396	0
0.000527233	0.0138198	0.0276396	0
0.000544941	0.0138198	0.0276396	0
0.00055836	0.0138198	0.0276396	0
0.000590757	0.0138198	0.0276396	0
0.000591871	0.0138198	0.0276396	0
0.00060821	0.0138198	0.0276396	0
0.000622622	0.0138198	0.0276396	0
0.000674985	0.0138198	0.0276396	0
0.000678865	0.0138198	0.0276396	0
0.000695052	0.0138198	0.0276396	0
0.000708299	0.0138198	0.0276396	0
0.000755578	0.0138198	0.0276396	0
0.000756797	0.0138198	0.0276396	0
0.000764885	0.0138198	0.0276396	0
0.000804406	0.0138198	0.0276396	0
0.000814551	0.0138198	0.0276396	0
0.000833112	0.0138198	0.0276396	0
0.000861291	0.0414594	0	0
0.000901761	0.0414594	0	0
0.000924514	0.0414594	0	0
0.000988863	0.0414594	0	0
0.000993142	0.0414594	0	0
0.0010085	0.0414594	0	0
0.0010235	0.0414594	0	0
0.00105879	0.0414594	0	0
0.00107357	0.0414594	0	0
0.00108953	0.0414594	0	0
0.00119107	0.0414594	0	0
0.00123565	0.0414594	0	0
0.00136037	0.0414594	0	0
0.00157077	0.0414594	0	0
0.00195614	0.0414594	0	0
0.00201898	0.0414594	0	0
0.0020468	0.0414594	0	0
0.00209217	0.0414594	0	0
0.00228073	0.0414594	0	0
0.0022913	0.0414594	0	0
0.00238371	0.0414594	0	0
0.00281308	0.0414594	0	0
0.00321085	0.0414594	0	0
0.00371962	0.0414594	0	0
0.00378095	0.0414594	0	0
0.00427747	0.0414594	0	0
0.00446527	0.0414594	0	0
0.0046574	0.0414594	0	0
0.00577493	0.0414594	0	0
0.0102243	0.0414594	0	0
0.0125591	0.0414594	0	0
