3.59803e-08	0	0	0
7.77929e-08	0	0	0
7.80624e-08	0	0	0
1.13277e-07	0	0	0
1.19684e-07	0	0	0
1.93555e-07	0	0	0
2.23865e-07	0	0	0
2.29452e-07	0	0	0
2.50528e-07	0	0	0
2.55968e-07	0	0	0
2.7428e-07	0	0	0
2.77256e-07	0	0	0
2.82091e-07	0	0	0
2.94922e-07	0	0	0
3.18613e-07	0	0	0
3.33457e-07	0	0	0
3.47524e-07	0	0	0
3.55431e-07	0	0	0
3.78366e-07	0	0	0
3.89876e-07	0	0	0
4.04647e-07	0	0	0
4.70377e-07	0	0	0
4.71073e-07	0	0	0
5.09385e-07	0	0	0
5.35348e-07	0	0	0
5.41167e-07	0	0	0
5.56903e-07	0	0	0
5.65151e-07	0	0	0
6.78741e-07	0	0	0
7.10373e-07	0	0	0
7.23805e-07	0	0	0
7.2637e-07	0	0	0
7.75473e-07	0	0	0
8.04124e-07	0	0	0
8.14631e-07	0	0	0
8.20742e-07	0	0	0
8.39531e-07	0	0	0
8.75444e-07	0	0	0
9.01615e-07	0	0	0
9.13237e-07	0	0	0
9.32921e-07	0	0	0
9.61845e-07	0	0	0
9.92273e-07	0	0	0
1.08608e-06	0	0	0
1.11704e-06	0	0	0
1.12641e-06	0	0	0
1.13908e-06	0	0	0
1.21487e-06	0	0	0
1.22572e-06	0	0	0
1.28747e-06	0	0	0
1.32163e-06	0	0	0
1.33527e-06	0	0	0
1.33567e-06	0	0	0
1.34575e-06	0	0	0
1.3794e-06	0	0	0
1.38874e-06	0	0	0
1.44275e-06	0	0	0
1.44864e-06	0	0	0
1.44943e-06	0	0	0
1.44966e-06	0	0	0
1.46891e-06	0	0	0
1.47193e-06	0	0	0
1.56992e-06	0	0	0
1.57207e-06	0	0	0
1.61333e-06	0	0	0
1.64473e-06	0	0	0
1.65141e-06	0	0	0
1.67088e-06	0	0	0
1.68024e-06	0	0	0
1.69093e-06	0	0	0
1.75635e-06	0	0	0
1.79577e-06	0	0	0
1.81336e-06	0	0	0
1.82517e-06	0	0	0
1.84478e-06	0	0	0
1.87269e-06	0	0	0
1.91936e-06	0	0	0
1.94676e-06	0	0	0
1.97568e-06	0	0	0
1.9829e-06	0	0	0
1.99976e-06	0	0	0
2.00436e-06	0	0	0
2.07173e-06	0	0	0
2.18849e-06	0	0	0
2.21136e-06	0	0	0
2.22141e-06	0	0	0
2.24047e-06	0	0	0
2.29612e-06	0	0	0
2.31149e-06	0	0	0
2.31624e-06	0	0	0
2.33835e-06	0	0	0
2.36784e-06	0	0	0
2.3863e-06	0	0	0
2.41233e-06	0	0	0
2.42779e-06	0	0	0
2.43457e-06	0	0	0
2.45739e-06	0	0	0
2.46636e-06	0	0	0
2.4664e-06	0	0	0
2.46691e-06	0	0	0
2.5004e-06	0	0	0
2.50391e-06	0	0	0
2.51978e-06	0	0	0
2.53655e-06	0	0	0
2.55598e-06	0	0	0
2.56496e-06	0	0	0
2.56651e-06	0	0	0
2.63016e-06	0	0	0
2.69766e-06	0	0	0
2.70312e-06	0	0	0
2.70487e-06	0	0	0
2.73924e-06	0	0	0
2.74219e-06	0	0	0
2.74805e-06	0	0	0
2.76885e-06	0	0	0
2.79017e-06	0	0	0
2.79515e-06	0	0	0
2.8057e-06	0	0	0
2.81168e-06	0	0	0
2.83105e-06	0	0	0
2.85159e-06	0	0	0
2.85445e-06	0	0	0
2.8978e-06	0	0	0
2.90294e-06	0	0	0
2.96388e-06	0	0	0
2.97276e-06	0	0	0
2.97455e-06	0	0	0
2.98317e-06	0	0	0
2.99679e-06	0	0	0
3.03941e-06	0	0	0
3.04005e-06	0	0	0
3.05071e-06	0	0	0
3.10525e-06	0	0	0
3.11898e-06	0	0	0
3.12664e-06	0	0	0
3.13979e-06	0	0	0
3.16417e-06	0	0	0
3.16621e-06	0	0	0
3.24288e-06	0	0	0
3.29593e-06	0	0	0
3.33584e-06	0	0	0
3.37244e-06	0	0	0
3.39853e-06	0	0	0
3.42872e-06	0	0	0
3.43787e-06	0	0	0
3.47303e-06	0	0	0
3.53608e-06	0	0	0
3.54558e-06	0	0	0
3.57716e-06	0	0	0
3.63897e-06	0	0	0
3.64105e-06	0	0	0
3.70916e-06	0	0	0
3.71083e-06	0	0	0
3.7345e-06	0	0	0
3.7762e-06	0	0	0
3.80474e-06	0	0	0
3.83889e-06	0	0	0
3.87899e-06	0	0	0
3.88528e-06	0	0	0
3.93523e-06	0	0	0
4.01193e-06	0	0	0
4.01563e-06	0	0	0
4.05726e-06	0	0	0
4.10404e-06	0	0	0
4.11638e-06	0	0	0
4.12365e-06	0	0	0
4.13851e-06	0	0	0
4.15012e-06	0	0	0
4.18107e-06	0	0	0
4.18805e-06	0	0	0
4.20516e-06	0	0	0
4.2265e-06	0	0	0
4.27987e-06	0	0	0
4.28421e-06	0	0	0
4.30624e-06	0	0	0
4.32635e-06	0	0	0
4.35689e-06	0	0	0
4.35774e-06	0	0	0
4.3653e-06	0	0	0
4.4316e-06	0	0	0
4.44673e-06	0	0	0
4.45219e-06	0	0	0
4.45536e-06	0	0	0
4.46718e-06	0	0	0
4.48524e-06	0	0	0
4.4944e-06	0	0	0
4.54015e-06	0	0	0
4.55499e-06	0	0	0
4.56355e-06	0	0	0
4.56411e-06	0	0	0
4.57313e-06	0	0	0
4.6093e-06	0	0	0
4.69839e-06	0	0	0
4.70064e-06	0	0	0
4.76511e-06	0	0	0
4.85983e-06	0	0	0
4.86656e-06	0	0	0
4.9199e-06	0	0	0
4.92214e-06	0	0	0
4.92719e-06	0	0	0
4.9324e-06	0	0	0
4.99857e-06	0	0	0
5.03871e-06	0	0	0
5.10114e-06	0	0	0
5.11876e-06	0	0	0
5.12502e-06	0	0	0
5.14427e-06	0	0	0
5.15022e-06	0	0	0
5.16245e-06	0	0	0
5.17219e-06	0	0	0
5.17862e-06	0	0	0
5.19424e-06	0	0	0
5.1988e-06	0	0	0
5.26606e-06	0	0	0
5.35287e-06	0	0	0
5.3932e-06	0	0	0
5.4092e-06	0	0	0
5.41428e-06	0	0	0
5.44275e-06	0	0	0
5.50409e-06	0	0	0
5.51726e-06	0	0	0
5.54392e-06	0	0	0
5.71594e-06	0	0	0
5.7645e-06	0	0	0
5.80618e-06	0	0	0
5.83523e-06	0	0	0
5.86875e-06	0	0	0
5.87766e-06	0	0	0
5.88555e-06	0	0	0
5.96779e-06	0	0	0
6.09743e-06	0	0	0
6.1086e-06	0	0	0
6.12663e-06	0	0	0
6.16218e-06	0	0	0
6.20501e-06	0	0	0
6.21591e-06	0	0	0
6.21962e-06	0	0	0
6.22904e-06	0	0	0
6.23247e-06	0	0	0
6.2337e-06	0	0	0
6.26053e-06	0	0	0
6.29679e-06	0	0	0
6.41332e-06	0	0	0
6.4381e-06	0	0	0
6.44437e-06	0	0	0
6.49062e-06	0	0	0
6.58791e-06	0	0	0
6.76017e-06	0	0	0
6.76968e-06	0	0	0
6.79911e-06	0	0	0
6.85273e-06	0	0	0
6.92406e-06	0	0	0
6.931e-06	0	0	0
6.94794e-06	0	0	0
7.02857e-06	0	0	0
7.07023e-06	0	0	0
7.09592e-06	0	0	0
7.14982e-06	0	0	0
7.18248e-06	0	0	0
7.18482e-06	0	0	0
7.19829e-06	0	0	0
7.21476e-06	0	0	0
7.34702e-06	0	0	0
7.34775e-06	0	0	0
7.38413e-06	0	0	0
7.4982e-06	0	0	0
7.5003e-06	0	0	0
7.50919e-06	0	0	0
7.5467e-06	0	0	0
7.55437e-06	0	0	0
7.56935e-06	0	0	0
7.57125e-06	0	0	0
7.58794e-06	0	0	0
7.61118e-06	0	0	0
7.62099e-06	0	0	0
7.62968e-06	0	0	0
7.63243e-06	0	0	0
7.63626e-06	0	0	0
7.63829e-06	0	0	0
7.6888e-06	0	0	0
7.75428e-06	0	0	0
7.75932e-06	0	0	0
7.76673e-06	0	0	0
7.77689e-06	0	0	0
7.84137e-06	0	0	0
7.8527e-06	0	0	0
7.85894e-06	0	0	0
7.88062e-06	0	0	0
7.89031e-06	0	0	0
7.90736e-06	0	0	0
7.96258e-06	0	0	0
7.97156e-06	0	0	0
7.97874e-06	0	0	0
8.04745e-06	0	0	0
8.07617e-06	0	0	0
8.08573e-06	0	0	0
8.09902e-06	0	0	0
8.10458e-06	0	0	0
8.11288e-06	0	0	0
8.11456e-06	0	0	0
8.11521e-06	0	0	0
8.19162e-06	0	0	0
8.33762e-06	0	0	0
8.39215e-06	0	0	0
8.41997e-06	0	0	0
8.45064e-06	0	0	0
8.57762e-06	0	0	0
8.60257e-06	0	0	0
8.70643e-06	0	0	0
8.71275e-06	0	0	0
8.76072e-06	0	0	0
8.83489e-06	0	0	0
8.93045e-06	0	0	0
8.93608e-06	0	0	0
9.00023e-06	0	0	0
9.28843e-06	0	0	0
9.29444e-06	0	0	0
9.30942e-06	0	0	0
9.3273e-06	0	0	0
9.33612e-06	0	0	0
9.38748e-06	0	0	0
9.39098e-06	0	0	0
9.41319e-06	0	0	0
9.50151e-06	0	0	0
9.52373e-06	0	0	0
9.59457e-06	0	0	0
9.63283e-06	0	0	0
9.65582e-06	0	0	0
9.80965e-06	0	0	0
9.8238e-06	0	0	0
9.83746e-06	0	0	0
9.90336e-06	0	0	0
9.92656e-06	0	0	0
1.01259e-05	0	0	0
1.02294e-05	0	0	0
1.02362e-05	0	0	0
1.02937e-05	0	0	0
1.03236e-05	0	0	0
1.0373e-05	0	0	0
1.03742e-05	0	0	0
1.04888e-05	0	0	0
1.05614e-05	0	0	0
1.05993e-05	0	0	0
1.06839e-05	0	0	0
1.06964e-05	0	0	0
1.08081e-05	0	0	0
1.08868e-05	0	0	0
1.0962e-05	0	0	0
1.09793e-05	0	0	0
1.10211e-05	0	0	0
1.1055e-05	0	0	0
1.10653e-05	0	0	0
1.10992e-05	0	0	0
1.11313e-05	0	0	0
1.11314e-05	0	0	0
1.11927e-05	0	0	0
1.12822e-05	0	0	0
1.14208e-05	0	0	0
1.15075e-05	0	0	0
1.15642e-05	0	0	0
1.16607e-05	0	0	0
1.17267e-05	0	0	0
1.17699e-05	0	0	0
1.1792e-05	0	0	0
1.18424e-05	0	0	0
1.18682e-05	0	0	0
1.19551e-05	0	0	0
1.25012e-05	0	0	0
1.25803e-05	0	0	0
1.26163e-05	0	0	0
1.26271e-05	0	0	0
1.26887e-05	0	0	0
1.27362e-05	0	0	0
1.27511e-05	0	0	0
1.2912e-05	0	0	0
1.29138e-05	0	0	0
1.29902e-05	0	0	0
1.30105e-05	0	0	0
1.30114e-05	0	0	0
1.30523e-05	0	0	0
1.30555e-05	0	0	0
1.31282e-05	0	0	0
1.31549e-05	0	0	0
1.31742e-05	0	0	0
1.31885e-05	0	0	0
1.31946e-05	0	0	0
1.33642e-05	0	0	0
1.34398e-05	0	0	0
1.34499e-05	0	0	0
1.36541e-05	0	0	0
1.38634e-05	0	0	0
1.3898e-05	0	0	0
1.39336e-05	0	0	0
1.4035e-05	0	0	0
1.40568e-05	0	0	0
1.40603e-05	0	0	0
1.41609e-05	0	0	0
1.43596e-05	0	0	0
1.4377e-05	0	0	0
1.44121e-05	0	0	0
1.45457e-05	0	0	0
1.45994e-05	0	0	0
1.47017e-05	0	0	0
1.47632e-05	0	0	0
1.48027e-05	0	0	0
1.48106e-05	0	0	0
1.48108e-05	0	0	0
1.48277e-05	0	0	0
1.48551e-05	0	0	0
1.50098e-05	0	0	0
1.50568e-05	0	0	0
1.50668e-05	0	0	0
1.51778e-05	0	0	0
1.5267e-05	0	0	0
1.54287e-05	0	0	0
1.54365e-05	0	0	0
1.54986e-05	0	0	0
1.55558e-05	0	0	0
1.55594e-05	0	0	0
1.57292e-05	0	0	0
1.57632e-05	0	0	0
1.57926e-05	0	0	0
1.58115e-05	0	0	0
1.58282e-05	0	0	0
1.60715e-05	0	0	0
1.60858e-05	0	0	0
1.62196e-05	0	0	0
1.62584e-05	0	0	0
1.62913e-05	0	0	0
1.63185e-05	0	0	0
1.63585e-05	0	0	0
1.65273e-05	0	0	0
1.65526e-05	0	0	0
1.65653e-05	0	0	0
1.65723e-05	0	0	0
1.65806e-05	0	0	0
1.66904e-05	0	0	0
1.67033e-05	0	0	0
1.68483e-05	0	0	0
1.69957e-05	0	0	0
1.70433e-05	0	0	0
1.72018e-05	0	0	0
1.73706e-05	0	0	0
1.73957e-05	0	0	0
1.74096e-05	0	0	0
1.74661e-05	0	0	0
1.74912e-05	0	0	0
1.74915e-05	0	0	0
1.76172e-05	0	0	0
1.77345e-05	0	0	0
1.78428e-05	0	0	0
1.78528e-05	0	0	0
1.78834e-05	0	0	0
1.79537e-05	0	0	0
1.7968e-05	0	0	0
1.80915e-05	0	0	0
1.81743e-05	0	0	0
1.81799e-05	0	0	0
1.82146e-05	0	0	0
1.82307e-05	0	0	0
1.83046e-05	0	0	0
1.84166e-05	0	0	0
1.84432e-05	0	0	0
1.85064e-05	0	0	0
1.86289e-05	0	0	0
1.86645e-05	0	0	0
1.86754e-05	0	0	0
1.86887e-05	0	0	0
1.87531e-05	0	0	0
1.88431e-05	0	0	0
1.88829e-05	0	0	0
1.90718e-05	0	0	0
1.90784e-05	0	0	0
1.91486e-05	0	0	0
1.92668e-05	0	0	0
1.92968e-05	0	0	0
1.92992e-05	0	0	0
1.93045e-05	0	0	0
1.93623e-05	0	0	0
1.94142e-05	0	0	0
1.94976e-05	0	0	0
1.95863e-05	0	0	0
1.96467e-05	0	0	0
1.96512e-05	0	0	0
1.99071e-05	0	0	0
2.00948e-05	0	0	0
2.01018e-05	0	0	0
2.01523e-05	0	0	0
2.04429e-05	0	0	0
2.06039e-05	0	0	0
2.06238e-05	0	0	0
2.06956e-05	0	0	0
2.08772e-05	0	0	0
2.09082e-05	0	0	0
2.11974e-05	0	0	0
2.13357e-05	0	0	0
2.13554e-05	0	0	0
2.14546e-05	0	0	0
2.14915e-05	0	0	0
2.15114e-05	0	0	0
2.15698e-05	0	0	0
2.17044e-05	0	0	0
2.21032e-05	0	0	0
2.21377e-05	0	0	0
2.21445e-05	0	0	0
2.21466e-05	0	0	0
2.22351e-05	0	0	0
2.23029e-05	0	0	0
2.23202e-05	0	0	0
2.25783e-05	0	0	0
2.25963e-05	0	0	0
2.27846e-05	0	0	0
2.28636e-05	0	0	0
2.28988e-05	0	0	0
2.29443e-05	0	0	0
2.31064e-05	0	0	0
2.317e-05	0	0	0
2.32761e-05	0	0	0
2.3893e-05	0	0	0
2.40828e-05	0	0	0
2.41851e-05	0	0	0
2.42164e-05	0	0	0
2.46592e-05	0	0	0
2.46655e-05	0	0	0
2.4703e-05	0	0	0
2.47418e-05	0	0	0
2.52207e-05	0	0	0
2.53379e-05	0	0	0
2.53666e-05	0	0	0
2.54057e-05	0	0	0
2.54907e-05	0	0	0
2.56394e-05	0	0	0
2.5734e-05	0	0	0
2.58102e-05	0	0	0
2.58155e-05	0	0	0
2.58862e-05	0	0	0
2.59857e-05	0	0	0
2.61392e-05	0	0	0
2.62683e-05	0	0	0
2.63532e-05	0	0	0
2.63696e-05	0	0	0
2.63946e-05	0	0	0
2.65143e-05	0	0	0
2.65533e-05	0	0	0
2.65953e-05	0	0	0
2.68503e-05	0	0	0
2.69216e-05	0	0	0
2.6974e-05	0	0	0
2.70511e-05	0	0	0
2.74268e-05	0	0	0
2.7428e-05	0	0	0
2.75118e-05	0	0	0
2.76139e-05	0	0	0
2.79103e-05	0	0	0
2.79658e-05	0	0	0
2.80203e-05	0	0	0
2.80872e-05	0	0	0
2.82056e-05	0	0	0
2.82242e-05	0	0	0
2.83154e-05	0	0	0
2.84079e-05	0	0	0
2.86702e-05	0	0	0
2.86985e-05	0	0	0
2.91608e-05	0	0	0
2.91653e-05	0	0	0
2.91994e-05	0	0	0
2.9347e-05	0	0	0
2.94135e-05	0	0	0
2.94407e-05	0	0	0
2.97419e-05	0	0	0
2.97815e-05	0	0	0
3.0028e-05	0	0	0
3.01708e-05	0	0	0
3.02125e-05	0	0	0
3.02621e-05	0	0	0
3.02767e-05	0	0	0
3.02857e-05	0	0	0
3.0315e-05	0	0	0
3.03201e-05	0	0	0
3.03784e-05	0	0	0
3.07599e-05	0	0	0
3.08756e-05	0	0	0
3.09047e-05	0	0	0
3.10175e-05	0	0	0
3.10291e-05	0	0	0
3.12157e-05	0	0	0
3.1221e-05	0	0	0
3.12587e-05	0	0	0
3.12663e-05	0	0	0
3.1573e-05	0	0	0
3.1655e-05	0	0	0
3.17295e-05	0	0	0
3.18998e-05	0	0	0
3.20292e-05	0	0	0
3.21708e-05	0	0	0
3.22143e-05	0	0	0
3.2224e-05	0	0	0
3.24226e-05	0	0	0
3.24667e-05	0	0	0
3.25306e-05	0	0	0
3.25847e-05	0	0	0
3.259e-05	0	0	0
3.25964e-05	0	0	0
3.28583e-05	0	0	0
3.29053e-05	0	0	0
3.31007e-05	0	0	0
3.31052e-05	0	0	0
3.32364e-05	0	0	0
3.33536e-05	0	0	0
3.34963e-05	0	0	0
3.37268e-05	0	0	0
3.39455e-05	0	0	0
3.40983e-05	0	0	0
3.41984e-05	0	0	0
3.43328e-05	0	0	0
3.44267e-05	0	0	0
3.44483e-05	0	0	0
3.44837e-05	0	0	0
3.46659e-05	0	0	0
3.476e-05	0	0	0
3.47689e-05	0	0	0
3.48027e-05	0	0	0
3.48909e-05	0	0	0
3.51866e-05	0	0	0
3.53962e-05	0	0	0
3.55144e-05	0	0	0
3.55621e-05	0	0	0
3.55807e-05	0	0	0
3.57015e-05	0	0	0
3.58592e-05	0	0	0
3.58945e-05	0	0	0
3.60797e-05	0	0	0
3.62925e-05	0	0	0
3.66505e-05	0	0	0
3.68312e-05	0	0	0
3.68392e-05	0	0	0
3.68695e-05	0	0	0
3.71922e-05	0	0	0
3.74793e-05	0	0	0
3.75285e-05	0	0	0
3.75644e-05	0	0	0
3.777e-05	0	0	0
3.82774e-05	0	0	0
3.83921e-05	0	0	0
3.84305e-05	0	0	0
3.87606e-05	0	0	0
3.88702e-05	0	0	0
3.90597e-05	0	0	0
3.90997e-05	0	0	0
3.92775e-05	0	0	0
3.93098e-05	0	0	0
3.96737e-05	0	0	0
3.995e-05	0	0	0
4.0071e-05	0	0	0
4.01317e-05	0	0	0
4.0523e-05	0	0	0
4.05763e-05	0	0	0
4.06311e-05	0	0	0
4.07823e-05	0	0	0
4.11938e-05	0	0	0
4.12995e-05	0	0	0
4.15813e-05	0	0	0
4.16093e-05	0	0	0
4.16383e-05	0	0	0
4.20284e-05	0	0	0
4.21741e-05	0	0	0
4.21756e-05	0	0	0
4.22223e-05	0	0	0
4.23141e-05	0	0	0
4.25536e-05	0	0	0
4.27103e-05	0	0	0
4.29546e-05	0	0	0
4.32617e-05	0	0	0
4.35977e-05	0	0	0
4.36251e-05	0	0	0
4.37932e-05	0	0	0
4.38401e-05	0	0	0
4.41308e-05	0	0	0
4.41963e-05	0	0	0
4.48174e-05	0	0	0
4.49024e-05	0	0	0
4.52045e-05	0	0	0
4.52422e-05	0	0	0
4.55973e-05	0	0	0
4.57123e-05	0	0	0
4.58086e-05	0	0	0
4.61055e-05	0	0	0
4.62868e-05	0	0	0
4.65581e-05	0	0	0
4.66392e-05	0	0	0
4.66462e-05	0	0	0
4.6747e-05	0	0	0
4.72192e-05	0	0	0
4.73678e-05	0	0	0
4.75528e-05	0	0	0
4.75687e-05	0	0	0
4.75991e-05	0	0	0
4.77543e-05	0	0	0
4.78314e-05	0	0	0
4.78649e-05	0	0	0
4.78803e-05	0	0	0
4.81844e-05	0	0	0
4.82101e-05	0	0	0
4.83351e-05	0	0	0
4.84813e-05	0	0	0
4.85212e-05	0	0	0
4.85754e-05	0	0	0
4.87062e-05	0	0	0
4.87222e-05	0	0	0
4.87441e-05	0	0	0
4.91076e-05	0	0	0
4.91912e-05	0	0	0
4.93021e-05	0	0	0
4.96951e-05	0	0	0
4.97254e-05	0	0	0
4.97841e-05	0	0	0
4.98685e-05	0	0	0
5.03107e-05	0	0	0
5.04277e-05	0	0	0
5.05446e-05	0	0	0
5.05485e-05	0	0	0
5.06632e-05	0	0	0
5.11887e-05	0	0	0
5.20187e-05	0	0	0
5.22491e-05	0	0	0
5.24448e-05	0	0	0
5.25081e-05	0	0	0
5.25937e-05	0	0	0
5.26864e-05	0	0	0
5.30136e-05	0	0	0
5.32011e-05	0	0	0
5.32609e-05	0	0	0
5.33435e-05	0	0	0
5.33782e-05	0	0	0
5.39984e-05	0	0	0
5.40661e-05	0	0	0
5.41025e-05	0	0	0
5.43234e-05	0	0	0
5.44004e-05	0	0	0
5.46098e-05	0	0	0
5.46842e-05	0	0	0
5.48282e-05	0	0	0
5.49402e-05	0	0	0
5.49588e-05	0	0	0
5.51691e-05	0	0	0
5.58357e-05	0	0	0
5.59845e-05	0	0	0
5.64828e-05	0	0	0
5.65112e-05	0	0	0
5.6869e-05	0	0	0
5.7035e-05	0	0	0
5.81317e-05	0	0	0
5.8297e-05	0	0	0
5.83742e-05	0	0	0
5.85213e-05	0	0	0
5.85916e-05	0	0	0
5.8726e-05	0	0	0
5.87574e-05	0	0	0
5.89631e-05	0	0	0
5.97148e-05	0	0	0
5.97443e-05	0	0	0
5.99177e-05	0	0	0
6.03494e-05	0	0	0
6.13e-05	0	0	0
6.15199e-05	0	0	0
6.15806e-05	0	0	0
6.16382e-05	0	0	0
6.23257e-05	0	0	0
6.26406e-05	0	0	0
6.29679e-05	0	0	0
6.32754e-05	0	0	0
6.38967e-05	0	0	0
6.39257e-05	0	0	0
6.4675e-05	0	0	0
6.4699e-05	0	0	0
6.53185e-05	0	0	0
6.53924e-05	0	0	0
6.56437e-05	0	0	0
6.58605e-05	0	0	0
6.62193e-05	0	0	0
6.67837e-05	0	0	0
6.72849e-05	0	0	0
6.77911e-05	0	0	0
6.78004e-05	0	0	0
6.85589e-05	0	0	0
6.85759e-05	0	0	0
6.95414e-05	0	0	0
7.01251e-05	0	0	0
7.12032e-05	0	0	0
7.15552e-05	0	0	0
7.16741e-05	0	0	0
7.19427e-05	0	0	0
7.19775e-05	0	0	0
7.21268e-05	0	0	0
7.21514e-05	0	0	0
7.22699e-05	0	0	0
7.23358e-05	0	0	0
7.25461e-05	0	0	0
7.42549e-05	0	0	0
7.42761e-05	0	0	0
7.43848e-05	0	0	0
7.45779e-05	0	0	0
7.49295e-05	0	0	0
7.51219e-05	0	0	0
7.56539e-05	0	0	0
7.66813e-05	0	0	0
7.80284e-05	0	0	0
7.80929e-05	0	0	0
7.8133e-05	0	0	0
7.8986e-05	0	0	0
7.91531e-05	0	0	0
7.95624e-05	0	0	0
7.97403e-05	0	0	0
8.02997e-05	0	0	0
8.05057e-05	0	0	0
8.07111e-05	0	0	0
8.11905e-05	0	0	0
8.13148e-05	0	0	0
8.13827e-05	0	0	0
8.1989e-05	0	0	0
8.20062e-05	0	0	0
8.28134e-05	0	0	0
8.29619e-05	0	0	0
8.32565e-05	0	0	0
8.35556e-05	0	0	0
8.38106e-05	0	0	0
8.48676e-05	0	0	0
8.55355e-05	0	0	0
8.63732e-05	0	0	0
8.72326e-05	0	0	0
8.80285e-05	0	0	0
8.81117e-05	0	0	0
8.83494e-05	0	0	0
8.84075e-05	0	0	0
8.92346e-05	0	0	0
8.9648e-05	0	0	0
8.97638e-05	0	0	0
9.0672e-05	0	0	0
9.06968e-05	0	0	0
9.09553e-05	0	0	0
9.31814e-05	0	0	0
9.32462e-05	0	0	0
9.34997e-05	0	0	0
9.47958e-05	0	0	0
9.5143e-05	0	0	0
9.51738e-05	0	0	0
9.56556e-05	0	0	0
9.57697e-05	0	0	0
9.59998e-05	0	0	0
9.60437e-05	0	0	0
9.7404e-05	0	0	0
9.75996e-05	0	0	0
9.77305e-05	0	0	0
9.8687e-05	0	0	0
9.97527e-05	0	0	0
9.9907e-05	0	0	0
0.000101215	0	0	0
0.000101514	0	0	0
0.000102097	0	0	0
0.000102835	0	0	0
0.00010292	0	0	0
0.000103378	0	0	0
0.000103593	0	0	0
0.000104674	0	0	0
0.000105403	0	0	0
0.000106383	0	0	0
0.000106773	0	0	0
0.000106878	0	0	0
0.000106904	0	0	0
0.000107171	0	0	0
0.000107396	0	0	0
0.000107671	0	0	0
0.000109387	0	0	0
0.00011016	0	0	0
0.000110337	0	0	0
0.000110628	0	0	0
0.000111491	0	0	0
0.000113654	0	0	0
0.000113784	0	0	0
0.00011533	0	0	0
0.00011561	0	0	0
0.000117243	0	0	0
0.000117725	0	0	0
0.000118043	0	0	0
0.00011828	0	0	0
0.000119018	0	0	0
0.000119372	0	0	0
0.000119476	0	0	0
0.000121522	0	0	0
0.000122471	0	0	0
0.000122793	0	0	0
0.000123609	0	0	0
0.00012432	0	0	0
0.000124723	0	0	0
0.000124816	0	0	0
0.000125529	0	0	0
0.00012621	0	0	0
0.000127173	0	0	0
0.000127316	0	0	0
0.000128486	0	0	0
0.000129462	0	0	0
0.000130521	0	0	0
0.000131375	0	0	0
0.000132112	0	0	0
0.000133732	0	0	0
0.000134044	0	0	0
0.000136124	0	0	0
0.000136263	0	0	0
0.000137364	0	0	0
0.000139921	0	0	0
0.000141727	0	0	0
0.000142696	0	0	0
0.000143456	0	0	0
0.000144323	0	0	0
0.000145362	0	0	0
0.0001454	0	0	0
0.000145412	0	0	0
0.000146695	0	0	0
0.000146961	0	0	0
0.000148021	0	0	0
0.000148649	0	0	0
0.000148665	0	0	0
0.00015059	0	0	0
0.000152217	0	0	0
0.00015774	0	0	0
0.000159975	0	0	0
0.000161213	0	0	0
0.000161456	0	0	0
0.000161903	0	0	0
0.000162391	0	0	0
0.000163407	0	0	0
0.000163661	0	0	0
0.000163986	0	0	0
0.000164648	0	0	0
0.000166624	0	0	0
0.00016698	0	0	0
0.000168867	0	0	0
0.000169007	0	0	0
0.000169479	0	0	0
0.000170068	0	0	0
0.000170391	0	0	0
0.000174683	0	0	0
0.000175663	0	0	0
0.00018121	0	0	0
0.000186475	0	0	0
0.000191412	0	0	0
0.000191535	0	0	0
0.000194662	0	0	0
0.000194941	0	0	0
0.000200978	0	0	0
0.000203141	0	0	0
0.000207339	0	0	0
0.000208406	0	0	0
0.000216501	0	0	0
0.000221505	0	0	0
0.000225773	0	0	0
0.000233697	0	0	0
0.000234998	0	0	0
0.000236128	0	0	0
0.000236448	0	0	0
0.000236706	0	0	0
0.000242666	0	0	0
0.000244	0	0	0
0.000248218	0	0	0
0.000249678	0	0	0
0.00025893	0	0	0
0.000262881	0	0	0
0.000266532	0	0	0
0.000273422	0	0	0
0.000277485	0	0	0
0.00029002	0	0	0
0.000307136	0	0	0
0.000322721	0	0	0
0.000340872	0	0	0
0.000377222	0	0	0
0.000378967	0	0	0
0.000410086	0	0	0
0.000418824	0	0	0
0.000420675	0	0	0
0.000421953	0	0	0
0.000430016	0	0	0
0.000437616	0	0	0
0.000448046	0	0	0
0.000453258	0	0	0
0.000469637	0	0	0
0.000480215	0	0	0
0.000484457	0	0	0
0.000507828	0	0	0
0.000519143	0	0	0
0.000519162	0	0	0
0.000567756	0	0	0
0.000606973	0	0	0
0.000622401	0	0	0
0.000712555	0	0	0
0.000777387	0	0	0
0.000799936	0	0	0
0.000804712	0	0	0
0.000816204	0	0	0
0.000850963	0	0	0
0.000858844	0	0	0
0.000864406	0	0	0
0.000950183	0	0	0
0.00095878	0	0	0
0.000972956	0	0	0
0.00108628	0	0	0
0.00110182	0	0	0
0.00113707	0	0	0
0.00115257	0	0	0
0.00116219	0	0	0
0.00118019	0	0	0
0.00140107	0	0	0
0.00140872	0	0	0
0.00142604	0	0	0
0.00144382	0	0	0
0.00164546	0	0	0
0.00170661	0	0	0
0.00209657	0	0	0
0.00269575	0	0	0
0.00308103	0	0	0
0.00355769	0	0	0
0.00429485	0	0	0
0.00508181	0	0	0
0.00522211	0	0	0
0.00772497	0	0	0
0.00783681	0	0	0
0.0086049	0	0	0
0.0117563	0	0	0
0.0127601	0	0	0
