2.86339e-09	0	0	0
2.08426e-08	0	0	0
6.54884e-08	0	0	0
1.0644e-07	0	0	0
1.19328e-07	0	0	0
1.47192e-07	0	0	0
1.98874e-07	0	0	0
2.10603e-07	0	0	0
2.24053e-07	0	0	0
2.33404e-07	0	0	0
2.36168e-07	0	0	0
2.85003e-07	0	0	0
2.99395e-07	0	0	0
3.14651e-07	0	0	0
3.22689e-07	0	0	0
3.42285e-07	0	0	0
3.5134e-07	0	0	0
3.53696e-07	0	0	0
3.66722e-07	0	0	0
3.73574e-07	0	0	0
3.87349e-07	0	0	0
4.01956e-07	0	0	0
4.02501e-07	0	0	0
4.42232e-07	0	0	0
4.4807e-07	0	0	0
4.75522e-07	0	0	0
4.76675e-07	0	0	0
4.77897e-07	0	0	0
4.81349e-07	0	0	0
4.93572e-07	0	0	0
4.99941e-07	0	0	0
5.26595e-07	0	0	0
5.33442e-07	0	0	0
5.48971e-07	0	0	0
5.58214e-07	0	0	0
5.68802e-07	0	0	0
5.78343e-07	0	0	0
5.91425e-07	0	0	0
5.96813e-07	0	0	0
6.05835e-07	0	0	0
6.23415e-07	0	0	0
6.53304e-07	0	0	0
6.59788e-07	0	0	0
7.00028e-07	0	0	0
7.08041e-07	0	0	0
7.10849e-07	0	0	0
7.19871e-07	0	0	0
7.27926e-07	0	0	0
7.75617e-07	0	0	0
8.09618e-07	0	0	0
8.17764e-07	0	0	0
8.21195e-07	0	0	0
8.32582e-07	0	0	0
8.34518e-07	0	0	0
8.82836e-07	0	0	0
9.16065e-07	0	0	0
9.37202e-07	0	0	0
9.42777e-07	0	0	0
9.55049e-07	0	0	0
1.00822e-06	0	0	0
1.01239e-06	0	0	0
1.01369e-06	0	0	0
1.08304e-06	0	0	0
1.12184e-06	0	0	0
1.1225e-06	0	0	0
1.13157e-06	0	0	0
1.15148e-06	0	0	0
1.15224e-06	0	0	0
1.15527e-06	0	0	0
1.17302e-06	0	0	0
1.18378e-06	0	0	0
1.19149e-06	0	0	0
1.21174e-06	0	0	0
1.22053e-06	0	0	0
1.22445e-06	0	0	0
1.23045e-06	0	0	0
1.30445e-06	0	0	0
1.30515e-06	0	0	0
1.3483e-06	0	0	0
1.36288e-06	0	0	0
1.36342e-06	0	0	0
1.37234e-06	0	0	0
1.37466e-06	0	0	0
1.38348e-06	0	0	0
1.44458e-06	0	0	0
1.46859e-06	0	0	0
1.47672e-06	0	0	0
1.48492e-06	0	0	0
1.48767e-06	0	0	0
1.49826e-06	0	0	0
1.50372e-06	0	0	0
1.54331e-06	0	0	0
1.57243e-06	0	0	0
1.59046e-06	0	0	0
1.59082e-06	0	0	0
1.59687e-06	0	0	0
1.64359e-06	0	0	0
1.64799e-06	0	0	0
1.72704e-06	0	0	0
1.73159e-06	0	0	0
1.73247e-06	0	0	0
1.74875e-06	0	0	0
1.75924e-06	0	0	0
1.79804e-06	0	0	0
1.80136e-06	0	0	0
1.82078e-06	0	0	0
1.85138e-06	0	0	0
1.86422e-06	0	0	0
1.87492e-06	0	0	0
1.89289e-06	0	0	0
1.90154e-06	0	0	0
1.91582e-06	0	0	0
1.99308e-06	0	0	0
1.99652e-06	0	0	0
2.00423e-06	0	0	0
2.01481e-06	0	0	0
2.0397e-06	0	0	0
2.06768e-06	0	0	0
2.08332e-06	0	0	0
2.09109e-06	0	0	0
2.13696e-06	0	0	0
2.13702e-06	0	0	0
2.14192e-06	0	0	0
2.15855e-06	0	0	0
2.15885e-06	0	0	0
2.17935e-06	0	0	0
2.18042e-06	0	0	0
2.20179e-06	0	0	0
2.22034e-06	0	0	0
2.25236e-06	0	0	0
2.25552e-06	0	0	0
2.2913e-06	0	0	0
2.31161e-06	0	0	0
2.31452e-06	0	0	0
2.35266e-06	0	0	0
2.37991e-06	0	0	0
2.38196e-06	0	0	0
2.39683e-06	0	0	0
2.43361e-06	0	0	0
2.46881e-06	0	0	0
2.53508e-06	0	0	0
2.55718e-06	0	0	0
2.55752e-06	0	0	0
2.56229e-06	0	0	0
2.59645e-06	0	0	0
2.60637e-06	0	0	0
2.64852e-06	0	0	0
2.66666e-06	0	0	0
2.71206e-06	0	0	0
2.7158e-06	0	0	0
2.72953e-06	0	0	0
2.74383e-06	0	0	0
2.80109e-06	0	0	0
2.80824e-06	0	0	0
2.82993e-06	0	0	0
2.86207e-06	0	0	0
2.88872e-06	0	0	0
2.90577e-06	0	0	0
2.91254e-06	0	0	0
2.93117e-06	0	0	0
2.98231e-06	0	0	0
3.10106e-06	0	0	0
3.13067e-06	0	0	0
3.13889e-06	0	0	0
3.16917e-06	0	0	0
3.17757e-06	0	0	0
3.20668e-06	0	0	0
3.21683e-06	0	0	0
3.2716e-06	0	0	0
3.35946e-06	0	0	0
3.38387e-06	0	0	0
3.52036e-06	0	0	0
3.55634e-06	0	0	0
3.57784e-06	0	0	0
3.58218e-06	0	0	0
3.61492e-06	0	0	0
3.65952e-06	0	0	0
3.6928e-06	0	0	0
3.71111e-06	0	0	0
3.73779e-06	0	0	0
3.7506e-06	0	0	0
3.82469e-06	0	0	0
3.86324e-06	0	0	0
3.86991e-06	0	0	0
3.87204e-06	0	0	0
3.87767e-06	0	0	0
3.89132e-06	0	0	0
3.89785e-06	0	0	0
3.92175e-06	0	0	0
3.92955e-06	0	0	0
3.93291e-06	0	0	0
3.94636e-06	0	0	0
3.98445e-06	0	0	0
4.02424e-06	0	0	0
4.02965e-06	0	0	0
4.06394e-06	0	0	0
4.07381e-06	0	0	0
4.07933e-06	0	0	0
4.12619e-06	0	0	0
4.12712e-06	0	0	0
4.13165e-06	0	0	0
4.14161e-06	0	0	0
4.14361e-06	0	0	0
4.15615e-06	0	0	0
4.1852e-06	0	0	0
4.20318e-06	0	0	0
4.21184e-06	0	0	0
4.21276e-06	0	0	0
4.2185e-06	0	0	0
4.22306e-06	0	0	0
4.24556e-06	0	0	0
4.26843e-06	0	0	0
4.28203e-06	0	0	0
4.29375e-06	0	0	0
4.32316e-06	0	0	0
4.32905e-06	0	0	0
4.33436e-06	0	0	0
4.33594e-06	0	0	0
4.3469e-06	0	0	0
4.3562e-06	0	0	0
4.36764e-06	0	0	0
4.39322e-06	0	0	0
4.43199e-06	0	0	0
4.43866e-06	0	0	0
4.44505e-06	0	0	0
4.46032e-06	0	0	0
4.47973e-06	0	0	0
4.5246e-06	0	0	0
4.52649e-06	0	0	0
4.5398e-06	0	0	0
4.58922e-06	0	0	0
4.62274e-06	0	0	0
4.69224e-06	0	0	0
4.70627e-06	0	0	0
4.7332e-06	0	0	0
4.73945e-06	0	0	0
4.74499e-06	0	0	0
4.77678e-06	0	0	0
4.81901e-06	0	0	0
4.83758e-06	0	0	0
4.86972e-06	0	0	0
4.90404e-06	0	0	0
4.93874e-06	0	0	0
4.95129e-06	0	0	0
5.03039e-06	0	0	0
5.06642e-06	0	0	0
5.07353e-06	0	0	0
5.09068e-06	0	0	0
5.14211e-06	0	0	0
5.19376e-06	0	0	0
5.22516e-06	0	0	0
5.23608e-06	0	0	0
5.28968e-06	0	0	0
5.30121e-06	0	0	0
5.31103e-06	0	0	0
5.31186e-06	0	0	0
5.32779e-06	0	0	0
5.3817e-06	0	0	0
5.45186e-06	0	0	0
5.45872e-06	0	0	0
5.48188e-06	0	0	0
5.49362e-06	0	0	0
5.49665e-06	0	0	0
5.60948e-06	0	0	0
5.71763e-06	0	0	0
5.7297e-06	0	0	0
5.7335e-06	0	0	0
5.73436e-06	0	0	0
5.75642e-06	0	0	0
5.76391e-06	0	0	0
5.79008e-06	0	0	0
5.80407e-06	0	0	0
5.88453e-06	0	0	0
5.88732e-06	0	0	0
5.89132e-06	0	0	0
5.89931e-06	0	0	0
5.94119e-06	0	0	0
5.94442e-06	0	0	0
5.97963e-06	0	0	0
6.01077e-06	0	0	0
6.0212e-06	0	0	0
6.02353e-06	0	0	0
6.0541e-06	0	0	0
6.05421e-06	0	0	0
6.09306e-06	0	0	0
6.12843e-06	0	0	0
6.13049e-06	0	0	0
6.13264e-06	0	0	0
6.15232e-06	0	0	0
6.22101e-06	0	0	0
6.24563e-06	0	0	0
6.24652e-06	0	0	0
6.26653e-06	0	0	0
6.32059e-06	0	0	0
6.34906e-06	0	0	0
6.41617e-06	0	0	0
6.43602e-06	0	0	0
6.50864e-06	0	0	0
6.52202e-06	0	0	0
6.5257e-06	0	0	0
6.55552e-06	0	0	0
6.62526e-06	0	0	0
6.6406e-06	0	0	0
6.64531e-06	0	0	0
6.69263e-06	0	0	0
6.69347e-06	0	0	0
6.70148e-06	0	0	0
6.73404e-06	0	0	0
6.75599e-06	0	0	0
6.83058e-06	0	0	0
6.86134e-06	0	0	0
6.88605e-06	0	0	0
6.93239e-06	0	0	0
6.94303e-06	0	0	0
6.95417e-06	0	0	0
6.96247e-06	0	0	0
6.98003e-06	0	0	0
7.01858e-06	0	0	0
7.0294e-06	0	0	0
7.0916e-06	0	0	0
7.10886e-06	0	0	0
7.10914e-06	0	0	0
7.13094e-06	0	0	0
7.14415e-06	0	0	0
7.17867e-06	0	0	0
7.1856e-06	0	0	0
7.20333e-06	0	0	0
7.20703e-06	0	0	0
7.22273e-06	0	0	0
7.24066e-06	0	0	0
7.2655e-06	0	0	0
7.332e-06	0	0	0
7.3603e-06	0	0	0
7.38582e-06	0	0	0
7.40769e-06	0	0	0
7.42677e-06	0	0	0
7.43476e-06	0	0	0
7.45058e-06	0	0	0
7.48534e-06	0	0	0
7.49734e-06	0	0	0
7.50618e-06	0	0	0
7.50978e-06	0	0	0
7.54084e-06	0	0	0
7.58409e-06	0	0	0
7.65219e-06	0	0	0
7.67369e-06	0	0	0
7.69051e-06	0	0	0
7.71404e-06	0	0	0
7.74888e-06	0	0	0
7.81756e-06	0	0	0
7.83107e-06	0	0	0
7.91631e-06	0	0	0
8.0171e-06	0	0	0
8.05647e-06	0	0	0
8.07812e-06	0	0	0
8.08088e-06	0	0	0
8.08416e-06	0	0	0
8.09478e-06	0	0	0
8.12342e-06	0	0	0
8.16454e-06	0	0	0
8.1692e-06	0	0	0
8.17696e-06	0	0	0
8.20593e-06	0	0	0
8.20859e-06	0	0	0
8.23157e-06	0	0	0
8.2526e-06	0	0	0
8.28677e-06	0	0	0
8.28888e-06	0	0	0
8.34447e-06	0	0	0
8.40487e-06	0	0	0
8.43332e-06	0	0	0
8.43712e-06	0	0	0
8.44845e-06	0	0	0
8.45363e-06	0	0	0
8.47731e-06	0	0	0
8.55639e-06	0	0	0
8.55959e-06	0	0	0
8.56624e-06	0	0	0
8.59147e-06	0	0	0
8.63785e-06	0	0	0
8.64108e-06	0	0	0
8.64445e-06	0	0	0
8.69784e-06	0	0	0
8.7416e-06	0	0	0
8.75028e-06	0	0	0
8.83748e-06	0	0	0
8.86515e-06	0	0	0
8.87855e-06	0	0	0
8.9264e-06	0	0	0
9.01404e-06	0	0	0
9.068e-06	0	0	0
9.06805e-06	0	0	0
9.0999e-06	0	0	0
9.10174e-06	0	0	0
9.1046e-06	0	0	0
9.12255e-06	0	0	0
9.13457e-06	0	0	0
9.1363e-06	0	0	0
9.25728e-06	0	0	0
9.34308e-06	0	0	0
9.3947e-06	0	0	0
9.4224e-06	0	0	0
9.47436e-06	0	0	0
9.48566e-06	0	0	0
9.49263e-06	0	0	0
9.50194e-06	0	0	0
9.52398e-06	0	0	0
9.55278e-06	0	0	0
9.57162e-06	0	0	0
9.57842e-06	0	0	0
9.60341e-06	0	0	0
9.63212e-06	0	0	0
9.64395e-06	0	0	0
9.70075e-06	0	0	0
9.72946e-06	0	0	0
9.8346e-06	0	0	0
9.90224e-06	0	0	0
9.93104e-06	0	0	0
1.00254e-05	0	0	0
1.00515e-05	0	0	0
1.01236e-05	0	0	0
1.01428e-05	0	0	0
1.02483e-05	0	0	0
1.04401e-05	0	0	0
1.04469e-05	0	0	0
1.04508e-05	0	0	0
1.05938e-05	0	0	0
1.06154e-05	0	0	0
1.06622e-05	0	0	0
1.0663e-05	0	0	0
1.07032e-05	0	0	0
1.07043e-05	0	0	0
1.07324e-05	0	0	0
1.07827e-05	0	0	0
1.07839e-05	0	0	0
1.08122e-05	0	0	0
1.08148e-05	0	0	0
1.08287e-05	0	0	0
1.08381e-05	0	0	0
1.08398e-05	0	0	0
1.09585e-05	0	0	0
1.09704e-05	0	0	0
1.09847e-05	0	0	0
1.10341e-05	0	0	0
1.10526e-05	0	0	0
1.10805e-05	0	0	0
1.10931e-05	0	0	0
1.11414e-05	0	0	0
1.11892e-05	0	0	0
1.12044e-05	0	0	0
1.12343e-05	0	0	0
1.12668e-05	0	0	0
1.13651e-05	0	0	0
1.13682e-05	0	0	0
1.13692e-05	0	0	0
1.13988e-05	0	0	0
1.14122e-05	0	0	0
1.1413e-05	0	0	0
1.14427e-05	0	0	0
1.14455e-05	0	0	0
1.14689e-05	0	0	0
1.15838e-05	0	0	0
1.16003e-05	0	0	0
1.16051e-05	0	0	0
1.16055e-05	0	0	0
1.16104e-05	0	0	0
1.16843e-05	0	0	0
1.17552e-05	0	0	0
1.17568e-05	0	0	0
1.17593e-05	0	0	0
1.18245e-05	0	0	0
1.18811e-05	0	0	0
1.19008e-05	0	0	0
1.19961e-05	0	0	0
1.20651e-05	0	0	0
1.20716e-05	0	0	0
1.21179e-05	0	0	0
1.21989e-05	0	0	0
1.22056e-05	0	0	0
1.23474e-05	0	0	0
1.23916e-05	0	0	0
1.24182e-05	0	0	0
1.24549e-05	0	0	0
1.24955e-05	0	0	0
1.2498e-05	0	0	0
1.25347e-05	0	0	0
1.25354e-05	0	0	0
1.25365e-05	0	0	0
1.26041e-05	0	0	0
1.26488e-05	0	0	0
1.26738e-05	0	0	0
1.28788e-05	0	0	0
1.29256e-05	0	0	0
1.29472e-05	0	0	0
1.29929e-05	0	0	0
1.30253e-05	0	0	0
1.30756e-05	0	0	0
1.31419e-05	0	0	0
1.31816e-05	0	0	0
1.32036e-05	0	0	0
1.32632e-05	0	0	0
1.32978e-05	0	0	0
1.33022e-05	0	0	0
1.3327e-05	0	0	0
1.33334e-05	0	0	0
1.33402e-05	0	0	0
1.33447e-05	0	0	0
1.33509e-05	0	0	0
1.34086e-05	0	0	0
1.35231e-05	0	0	0
1.3527e-05	0	0	0
1.35493e-05	0	0	0
1.3561e-05	0	0	0
1.36069e-05	0	0	0
1.36475e-05	0	0	0
1.36985e-05	0	0	0
1.37332e-05	0	0	0
1.39469e-05	0	0	0
1.39765e-05	0	0	0
1.39785e-05	0	0	0
1.39799e-05	0	0	0
1.39852e-05	0	0	0
1.39943e-05	0	0	0
1.40392e-05	0	0	0
1.4063e-05	0	0	0
1.41333e-05	0	0	0
1.41348e-05	0	0	0
1.41862e-05	0	0	0
1.42296e-05	0	0	0
1.42558e-05	0	0	0
1.42853e-05	0	0	0
1.43287e-05	0	0	0
1.43597e-05	0	0	0
1.43875e-05	0	0	0
1.45308e-05	0	0	0
1.45547e-05	0	0	0
1.46696e-05	0	0	0
1.46732e-05	0	0	0
1.47173e-05	0	0	0
1.47569e-05	0	0	0
1.47663e-05	0	0	0
1.48159e-05	0	0	0
1.48352e-05	0	0	0
1.49618e-05	0	0	0
1.49655e-05	0	0	0
1.49663e-05	0	0	0
1.50942e-05	0	0	0
1.51637e-05	0	0	0
1.51677e-05	0	0	0
1.52206e-05	0	0	0
1.52603e-05	0	0	0
1.52821e-05	0	0	0
1.52848e-05	0	0	0
1.52886e-05	0	0	0
1.53285e-05	0	0	0
1.53679e-05	0	0	0
1.54716e-05	0	0	0
1.54742e-05	0	0	0
1.54911e-05	0	0	0
1.55303e-05	0	0	0
1.55851e-05	0	0	0
1.57182e-05	0	0	0
1.58089e-05	0	0	0
1.58626e-05	0	0	0
1.59079e-05	0	0	0
1.59266e-05	0	0	0
1.59644e-05	0	0	0
1.59765e-05	0	0	0
1.60129e-05	0	0	0
1.6071e-05	0	0	0
1.61479e-05	0	0	0
1.61932e-05	0	0	0
1.62026e-05	0	0	0
1.62534e-05	0	0	0
1.63481e-05	0	0	0
1.64225e-05	0	0	0
1.64493e-05	0	0	0
1.64831e-05	0	0	0
1.65489e-05	0	0	0
1.65756e-05	0	0	0
1.65835e-05	0	0	0
1.65836e-05	0	0	0
1.67232e-05	0	0	0
1.67375e-05	0	0	0
1.6746e-05	0	0	0
1.68064e-05	0	0	0
1.68879e-05	0	0	0
1.70236e-05	0	0	0
1.71211e-05	0	0	0
1.71366e-05	0	0	0
1.73326e-05	0	0	0
1.73452e-05	0	0	0
1.74286e-05	0	0	0
1.74659e-05	0	0	0
1.74704e-05	0	0	0
1.74782e-05	0	0	0
1.75123e-05	0	0	0
1.75289e-05	0	0	0
1.75565e-05	0	0	0
1.75837e-05	0	0	0
1.76605e-05	0	0	0
1.76689e-05	0	0	0
1.77166e-05	0	0	0
1.77441e-05	0	0	0
1.77495e-05	0	0	0
1.77569e-05	0	0	0
1.77621e-05	0	0	0
1.77707e-05	0	0	0
1.78219e-05	0	0	0
1.78224e-05	0	0	0
1.80093e-05	0	0	0
1.80617e-05	0	0	0
1.80806e-05	0	0	0
1.81588e-05	0	0	0
1.81825e-05	0	0	0
1.82251e-05	0	0	0
1.82304e-05	0	0	0
1.8243e-05	0	0	0
1.82669e-05	0	0	0
1.83215e-05	0	0	0
1.83945e-05	0	0	0
1.84814e-05	0	0	0
1.85419e-05	0	0	0
1.85439e-05	0	0	0
1.86762e-05	0	0	0
1.86828e-05	0	0	0
1.87115e-05	0	0	0
1.87393e-05	0	0	0
1.87821e-05	0	0	0
1.88191e-05	0	0	0
1.89024e-05	0	0	0
1.89098e-05	0	0	0
1.91985e-05	0	0	0
1.92582e-05	0	0	0
1.93324e-05	0	0	0
1.93401e-05	0	0	0
1.94206e-05	0	0	0
1.94849e-05	0	0	0
1.94864e-05	0	0	0
1.9534e-05	0	0	0
1.95418e-05	0	0	0
1.95863e-05	0	0	0
1.96285e-05	0	0	0
1.96568e-05	0	0	0
1.97162e-05	0	0	0
1.97969e-05	0	0	0
1.98212e-05	0	0	0
1.98338e-05	0	0	0
1.98905e-05	0	0	0
1.99353e-05	0	0	0
2.01723e-05	0	0	0
2.021e-05	0	0	0
2.02469e-05	0	0	0
2.03124e-05	0	0	0
2.03808e-05	0	0	0
2.04471e-05	0	0	0
2.04714e-05	0	0	0
2.05248e-05	0	0	0
2.05256e-05	0	0	0
2.05758e-05	0	0	0
2.06194e-05	0	0	0
2.06815e-05	0	0	0
2.06949e-05	0	0	0
2.08348e-05	0	0	0
2.08476e-05	0	0	0
2.1231e-05	0	0	0
2.12649e-05	0	0	0
2.13442e-05	0	0	0
2.13729e-05	0	0	0
2.14049e-05	0	0	0
2.14897e-05	0	0	0
2.15748e-05	0	0	0
2.16285e-05	0	0	0
2.17347e-05	0	0	0
2.17801e-05	0	0	0
2.17845e-05	0	0	0
2.18034e-05	0	0	0
2.18709e-05	0	0	0
2.22688e-05	0	0	0
2.23269e-05	0	0	0
2.24034e-05	0	0	0
2.24769e-05	0	0	0
2.24857e-05	0	0	0
2.25079e-05	0	0	0
2.2639e-05	0	0	0
2.27019e-05	0	0	0
2.28097e-05	0	0	0
2.28397e-05	0	0	0
2.29544e-05	0	0	0
2.29545e-05	0	0	0
2.30817e-05	0	0	0
2.3088e-05	0	0	0
2.31333e-05	0	0	0
2.32134e-05	0	0	0
2.33004e-05	0	0	0
2.33086e-05	0	0	0
2.34289e-05	0	0	0
2.34918e-05	0	0	0
2.34933e-05	0	0	0
2.35085e-05	0	0	0
2.35533e-05	0	0	0
2.35717e-05	0	0	0
2.35725e-05	0	0	0
2.37404e-05	0	0	0
2.37464e-05	0	0	0
2.40129e-05	0	0	0
2.40909e-05	0	0	0
2.41681e-05	0	0	0
2.41683e-05	0	0	0
2.42217e-05	0	0	0
2.44546e-05	0	0	0
2.45368e-05	0	0	0
2.45782e-05	0	0	0
2.46763e-05	0	0	0
2.47094e-05	0	0	0
2.47145e-05	0	0	0
2.472e-05	0	0	0
2.48745e-05	0	0	0
2.49276e-05	0	0	0
2.49827e-05	0	0	0
2.50911e-05	0	0	0
2.52326e-05	0	0	0
2.54835e-05	0	0	0
2.55863e-05	0	0	0
2.56699e-05	0	0	0
2.56742e-05	0	0	0
2.58043e-05	0	0	0
2.58176e-05	0	0	0
2.5976e-05	0	0	0
2.59931e-05	0	0	0
2.60292e-05	0	0	0
2.60978e-05	0	0	0
2.61341e-05	0	0	0
2.61961e-05	0	0	0
2.61999e-05	0	0	0
2.62197e-05	0	0	0
2.62337e-05	0	0	0
2.6477e-05	0	0	0
2.66198e-05	0	0	0
2.67233e-05	0	0	0
2.67756e-05	0	0	0
2.69938e-05	0	0	0
2.70817e-05	0	0	0
2.71008e-05	0	0	0
2.71097e-05	0	0	0
2.71314e-05	0	0	0
2.73346e-05	0	0	0
2.73659e-05	0	0	0
2.73781e-05	0	0	0
2.73969e-05	0	0	0
2.74396e-05	0	0	0
2.7564e-05	0	0	0
2.76786e-05	0	0	0
2.76916e-05	0	0	0
2.77079e-05	0	0	0
2.7757e-05	0	0	0
2.78263e-05	0	0	0
2.8051e-05	0	0	0
2.80642e-05	0	0	0
2.80788e-05	0	0	0
2.83156e-05	0	0	0
2.85762e-05	0	0	0
2.86278e-05	0	0	0
2.86431e-05	0	0	0
2.86474e-05	0	0	0
2.88337e-05	0	0	0
2.89357e-05	0	0	0
2.9209e-05	0	0	0
2.93832e-05	0	0	0
2.9401e-05	0	0	0
2.97124e-05	0	0	0
2.9795e-05	0	0	0
2.99326e-05	0	0	0
3.00428e-05	0	0	0
3.02828e-05	0	0	0
3.02932e-05	0	0	0
3.0372e-05	0	0	0
3.0439e-05	0	0	0
3.0527e-05	0	0	0
3.06312e-05	0	0	0
3.07313e-05	0	0	0
3.0782e-05	0	0	0
3.08226e-05	0	0	0
3.10081e-05	0	0	0
3.11192e-05	0	0	0
3.11693e-05	0	0	0
3.13449e-05	0	0	0
3.15178e-05	0	0	0
3.15652e-05	0	0	0
3.16008e-05	0	0	0
3.17015e-05	0	0	0
3.17088e-05	0	0	0
3.20705e-05	0	0	0
3.20745e-05	0	0	0
3.21063e-05	0	0	0
3.21772e-05	0	0	0
3.23917e-05	0	0	0
3.25758e-05	0	0	0
3.2695e-05	0	0	0
3.27985e-05	0	0	0
3.28723e-05	0	0	0
3.30938e-05	0	0	0
3.33739e-05	0	0	0
3.35966e-05	0	0	0
3.37047e-05	0	0	0
3.37221e-05	0	0	0
3.3749e-05	0	0	0
3.37988e-05	0	0	0
3.39135e-05	0	0	0
3.39683e-05	0	0	0
3.42091e-05	0	0	0
3.45192e-05	0	0	0
3.46003e-05	0	0	0
3.50435e-05	0	0	0
3.50572e-05	0	0	0
3.5197e-05	0	0	0
3.55939e-05	0	0	0
3.56097e-05	0	0	0
3.56338e-05	0	0	0
3.56397e-05	0	0	0
3.56415e-05	0	0	0
3.56886e-05	0	0	0
3.57101e-05	0	0	0
3.5825e-05	0	0	0
3.59656e-05	0	0	0
3.6046e-05	0	0	0
3.60833e-05	0	0	0
3.62268e-05	0	0	0
3.63427e-05	0	0	0
3.63867e-05	0	0	0
3.66198e-05	0	0	0
3.66456e-05	0	0	0
3.67229e-05	0	0	0
3.67247e-05	0	0	0
3.68123e-05	0	0	0
3.69144e-05	0	0	0
3.69793e-05	0	0	0
3.71598e-05	0	0	0
3.71656e-05	0	0	0
3.72023e-05	0	0	0
3.75255e-05	0	0	0
3.7584e-05	0	0	0
3.76926e-05	0	0	0
3.77231e-05	0	0	0
3.78299e-05	0	0	0
3.78461e-05	0	0	0
3.78513e-05	0	0	0
3.7897e-05	0	0	0
3.81756e-05	0	0	0
3.82233e-05	0	0	0
3.82595e-05	0	0	0
3.83662e-05	0	0	0
3.83832e-05	0	0	0
3.83862e-05	0	0	0
3.84861e-05	0	0	0
3.86815e-05	0	0	0
3.87339e-05	0	0	0
3.88173e-05	0	0	0
3.92887e-05	0	0	0
3.94684e-05	0	0	0
3.94853e-05	0	0	0
3.96849e-05	0	0	0
3.96924e-05	0	0	0
3.96952e-05	0	0	0
3.98363e-05	0	0	0
4.00797e-05	0	0	0
4.01297e-05	0	0	0
4.02494e-05	0	0	0
4.02657e-05	0	0	0
4.03466e-05	0	0	0
4.0477e-05	0	0	0
4.04952e-05	0	0	0
4.05505e-05	0	0	0
4.06346e-05	0	0	0
4.08164e-05	0	0	0
4.08455e-05	0	0	0
4.08942e-05	0	0	0
4.09261e-05	0	0	0
4.13363e-05	0	0	0
4.16846e-05	0	0	0
4.17038e-05	0	0	0
4.17478e-05	0	0	0
4.18673e-05	0	0	0
4.19987e-05	0	0	0
4.20214e-05	0	0	0
4.21811e-05	0	0	0
4.24363e-05	0	0	0
4.26817e-05	0	0	0
4.29009e-05	0	0	0
4.3044e-05	0	0	0
4.30954e-05	0	0	0
4.32014e-05	0	0	0
4.32921e-05	0	0	0
4.34532e-05	0	0	0
4.34664e-05	0	0	0
4.37214e-05	0	0	0
4.37881e-05	0	0	0
4.41014e-05	0	0	0
4.42859e-05	0	0	0
4.4491e-05	0	0	0
4.46075e-05	0	0	0
4.5021e-05	0	0	0
4.50928e-05	0	0	0
4.53745e-05	0	0	0
4.5451e-05	0	0	0
4.54635e-05	0	0	0
4.55686e-05	0	0	0
4.5608e-05	0	0	0
4.57641e-05	0	0	0
4.58203e-05	0	0	0
4.58921e-05	0	0	0
4.59131e-05	0	0	0
4.59748e-05	0	0	0
4.60485e-05	0	0	0
4.60942e-05	0	0	0
4.62511e-05	0	0	0
4.6555e-05	0	0	0
4.65911e-05	0	0	0
4.6626e-05	0	0	0
4.69985e-05	0	0	0
4.7279e-05	0	0	0
4.74172e-05	0	0	0
4.75322e-05	0	0	0
4.75996e-05	0	0	0
4.76744e-05	0	0	0
4.77245e-05	0	0	0
4.7913e-05	0	0	0
4.79776e-05	0	0	0
4.8419e-05	0	0	0
4.84712e-05	0	0	0
4.87892e-05	0	0	0
4.90522e-05	0	0	0
4.9332e-05	0	0	0
4.95465e-05	0	0	0
4.9571e-05	0	0	0
4.99405e-05	0	0	0
5.00428e-05	0	0	0
5.00828e-05	0	0	0
5.00853e-05	0	0	0
5.01074e-05	0	0	0
5.0139e-05	0	0	0
5.04152e-05	0	0	0
5.05145e-05	0	0	0
5.07393e-05	0	0	0
5.0773e-05	0	0	0
5.12765e-05	0	0	0
5.15406e-05	0	0	0
5.16936e-05	0	0	0
5.17477e-05	0	0	0
5.24758e-05	0	0	0
5.25769e-05	0	0	0
5.27612e-05	0	0	0
5.28565e-05	0	0	0
5.29782e-05	0	0	0
5.30228e-05	0	0	0
5.30381e-05	0	0	0
5.35425e-05	0	0	0
5.35487e-05	0	0	0
5.36521e-05	0	0	0
5.37875e-05	0	0	0
5.3861e-05	0	0	0
5.42092e-05	0	0	0
5.42537e-05	0	0	0
5.46541e-05	0	0	0
5.47287e-05	0	0	0
5.47857e-05	0	0	0
5.48669e-05	0	0	0
5.50584e-05	0	0	0
5.55894e-05	0	0	0
5.57146e-05	0	0	0
5.61879e-05	0	0	0
5.63479e-05	0	0	0
5.63687e-05	0	0	0
5.65028e-05	0	0	0
5.69181e-05	0	0	0
5.70637e-05	0	0	0
5.75242e-05	0	0	0
5.75641e-05	0	0	0
5.76317e-05	0	0	0
5.81882e-05	0	0	0
5.83481e-05	0	0	0
5.8583e-05	0	0	0
5.8772e-05	0	0	0
5.88161e-05	0	0	0
5.93467e-05	0	0	0
5.93557e-05	0	0	0
5.9524e-05	0	0	0
5.95274e-05	0	0	0
5.98127e-05	0	0	0
5.98786e-05	0	0	0
6.00208e-05	0	0	0
6.00326e-05	0	0	0
6.0142e-05	0	0	0
6.02885e-05	0	0	0
6.04141e-05	0	0	0
6.11111e-05	0	0	0
6.13408e-05	0	0	0
6.13941e-05	0	0	0
6.16852e-05	0	0	0
6.17299e-05	0	0	0
6.19464e-05	0	0	0
6.27112e-05	0	0	0
6.29397e-05	0	0	0
6.31269e-05	0	0	0
6.37797e-05	0	0	0
6.40209e-05	0	0	0
6.4473e-05	0	0	0
6.47729e-05	0	0	0
6.49929e-05	0	0	0
6.51812e-05	0	0	0
6.53732e-05	0	0	0
6.53751e-05	0	0	0
6.57985e-05	0	0	0
6.60332e-05	0	0	0
6.65289e-05	0	0	0
6.6735e-05	0	0	0
6.68432e-05	0	0	0
6.70972e-05	0	0	0
6.71196e-05	0	0	0
6.76902e-05	0	0	0
6.78718e-05	0	0	0
6.80197e-05	0	0	0
6.80248e-05	0	0	0
6.88621e-05	0	0	0
6.89353e-05	0	0	0
6.91211e-05	0	0	0
6.9512e-05	0	0	0
6.96921e-05	0	0	0
6.99668e-05	0	0	0
7.02175e-05	0	0	0
7.04684e-05	0	0	0
7.07686e-05	0	0	0
7.10489e-05	0	0	0
7.12083e-05	0	0	0
7.14355e-05	0	0	0
7.15068e-05	0	0	0
7.17427e-05	0	0	0
7.18459e-05	0	0	0
7.20794e-05	0	0	0
7.22787e-05	0	0	0
7.26348e-05	0	0	0
7.27474e-05	0	0	0
7.30999e-05	0	0	0
7.33181e-05	0	0	0
7.33421e-05	0	0	0
7.3487e-05	0	0	0
7.35393e-05	0	0	0
7.37084e-05	0	0	0
7.38617e-05	0	0	0
7.46226e-05	0	0	0
7.46645e-05	0	0	0
7.48391e-05	0	0	0
7.49161e-05	0	0	0
7.51179e-05	0	0	0
7.62725e-05	0	0	0
7.63078e-05	0	0	0
7.67015e-05	0	0	0
7.67923e-05	0	0	0
7.69046e-05	0	0	0
7.7085e-05	0	0	0
7.70971e-05	0	0	0
7.72098e-05	0	0	0
7.82127e-05	0	0	0
7.83635e-05	0	0	0
7.8516e-05	0	0	0
7.85161e-05	0	0	0
7.89006e-05	0	0	0
7.9018e-05	0	0	0
7.94387e-05	0	0	0
7.96661e-05	0	0	0
7.96785e-05	0	0	0
8.0269e-05	0	0	0
8.07403e-05	0	0	0
8.11234e-05	0	0	0
8.11285e-05	0	0	0
8.11556e-05	0	0	0
8.15359e-05	0	0	0
8.16161e-05	0	0	0
8.1696e-05	0	0	0
8.17973e-05	0	0	0
8.18063e-05	0	0	0
8.28468e-05	0	0	0
8.34783e-05	0	0	0
8.3621e-05	0	0	0
8.46516e-05	0	0	0
8.50352e-05	0	0	0
8.53921e-05	0	0	0
8.59204e-05	0	0	0
8.65908e-05	0	0	0
8.67814e-05	0	0	0
8.68983e-05	0	0	0
8.69084e-05	0	0	0
8.71123e-05	0	0	0
8.73908e-05	0	0	0
8.77365e-05	0	0	0
8.7741e-05	0	0	0
8.80887e-05	0	0	0
8.84629e-05	0	0	0
8.95711e-05	0	0	0
9.00539e-05	0	0	0
9.02362e-05	0	0	0
9.08218e-05	0	0	0
9.12091e-05	0	0	0
9.19801e-05	0	0	0
9.22311e-05	0	0	0
9.51256e-05	0	0	0
9.53094e-05	0	0	0
9.71214e-05	0	0	0
9.77472e-05	0	0	0
9.87033e-05	0	0	0
9.87213e-05	0	0	0
9.90736e-05	0	0	0
9.93916e-05	0	0	0
9.95536e-05	0	0	0
9.96639e-05	0	0	0
0.000100054	0	0	0
0.000100205	0	0	0
0.000100421	0	0	0
0.000100487	0	0	0
0.000100846	0	0	0
0.000100875	0	0	0
0.000101185	0	0	0
0.00010186	0	0	0
0.000103095	0	0	0
0.000103605	0	0	0
0.000104247	0	0	0
0.000105179	0	0	0
0.000105609	0	0	0
0.000105658	0	0	0
0.000105707	0	0	0
0.000106016	0	0	0
0.000106567	0	0	0
0.00010664	0	0	0
0.000106992	0	0	0
0.000107285	0	0	0
0.000107313	0	0	0
0.000108791	0	0	0
0.000109801	0	0	0
0.000110285	0	0	0
0.000110632	0	0	0
0.000111618	0	0	0
0.000111835	0	0	0
0.000113435	0	0	0
0.000113797	0	0	0
0.000114535	0	0	0
0.000115283	0	0	0
0.000115473	0	0	0
0.000115931	0	0	0
0.000118342	0	0	0
0.000119089	0	0	0
0.000119794	0	0	0
0.000122159	0	0	0
0.000122668	0	0	0
0.000123524	0	0	0
0.000128184	0	0	0
0.000132702	0	0	0
0.00013281	0	0	0
0.000133234	0	0	0
0.000133736	0	0	0
0.000133915	0	0	0
0.000135552	0	0	0
0.000135847	0	0	0
0.000136055	0	0	0
0.000136924	0	0	0
0.000139745	0	0	0
0.000140675	0	0	0
0.000141907	0	0	0
0.000142035	0	0	0
0.000144635	0	0	0
0.000144909	0	0	0
0.000146438	0	0	0
0.000147664	0	0	0
0.000148941	0	0	0
0.000150132	0	0	0
0.000150239	0	0	0
0.000152261	0	0	0
0.000152491	0	0	0
0.000154491	0	0	0
0.000158203	0	0	0
0.000159938	0	0	0
0.000162095	0	0	0
0.000167879	0	0	0
0.00016913	0	0	0
0.000173467	0	0	0
0.000175633	0	0	0
0.0001758	0	0	0
0.000176248	0	0	0
0.000177672	0	0	0
0.000178425	0	0	0
0.000180548	0	0	0
0.000181083	0	0	0
0.000187853	0	0	0
0.000188232	0	0	0
0.000194338	0	0	0
0.000200953	0	0	0
0.00020556	0	0	0
0.000207757	0	0	0
0.000208032	0	0	0
0.000213909	0	0	0
0.000214987	0	0	0
0.000215709	0	0	0
0.000221486	0	0	0
0.000224939	0	0	0
0.000230416	0	0	0
0.000239537	0	0	0
0.000240705	0	0	0
0.000251878	0	0	0
0.000255069	0	0	0
0.00026119	0	0	0
0.000261778	0	0	0
0.000266711	0	0	0
0.000268101	0	0	0
0.000269482	0	0	0
0.000277355	0	0	0
0.000278263	0	0	0
0.000279005	0	0	0
0.000284799	0	0	0
0.000287362	0	0	0
0.000291804	0	0	0
0.000291815	0	0	0
0.000294861	0	0	0
0.000296901	0	0	0
0.000325637	0	0	0
0.000330835	0	0	0
0.000340493	0	0	0
0.000342501	0	0	0
0.000347384	0	0	0
0.000368675	0	0	0
0.000388486	0	0	0
0.000389895	0	0	0
0.00039028	0	0	0
0.000398269	0	0	0
0.000418413	0	0	0
0.000443251	0	0	0
0.000490875	0	0	0
0.00055362	0	0	0
0.000569069	0	0	0
0.000577555	0	0	0
0.000636316	0	0	0
0.000663623	0	0	0
0.000771785	0	0	0
0.000834079	0	0	0
0.0008539	0	0	0
0.000859445	0	0	0
0.000886024	0	0	0
0.000934962	0	0	0
0.000940204	0	0	0
0.00096182	0	0	0
0.000986248	0	0	0
0.00102233	0	0	0
0.0010945	0	0	0
0.00109612	0	0	0
0.00112612	0	0	0
0.0011398	0	0	0
0.00119667	0	0	0
0.00127377	0	0	0
0.00136071	0	0	0
0.00139971	0	0	0
0.00153339	0	0	0
0.00160851	0	0	0
0.00165165	0	0	0
0.00189794	0	0	0
0.00212429	0	0	0
0.00214528	0	0	0
0.00219019	0	0	0
0.00226166	0	0	0
0.00263423	0	0	0
0.00271622	0	0	0
0.00276983	0	0	0
0.00280856	0	0	0
0.00326733	0	0	0
0.00329053	0	0	0
0.00457089	0	0	0
0.00537999	0	0	0
0.00572077	0	0	0
0.00788595	0	0	0
