1.05503e-10	0	0	0
1.40855e-09	0	0	0
1.44732e-09	0	0	0
1.84466e-09	0	0	0
1.89388e-09	0	0	0
1.96123e-09	0	0	0
2.34531e-09	0	0	0
2.46353e-09	0	0	0
2.50861e-09	0	0	0
3.24178e-09	0	0	0
3.38466e-09	0	0	0
3.97225e-09	0	0	0
4.0294e-09	0	0	0
5.31052e-09	0	0	0
5.5138e-09	0	0	0
5.95567e-09	0	0	0
6.48351e-09	0	0	0
6.7328e-09	0	0	0
7.40866e-09	0	0	0
8.09707e-09	0	0	0
8.47515e-09	0	0	0
8.85011e-09	0	0	0
9.61159e-09	0	0	0
1.00682e-08	0	0	0
1.05501e-08	0	0	0
1.0769e-08	0	0	0
1.09599e-08	0	0	0
1.10287e-08	0	0	0
1.16663e-08	0	0	0
1.19345e-08	0	0	0
1.21927e-08	0	0	0
1.23374e-08	0	0	0
1.27086e-08	0	0	0
1.43177e-08	0	0	0
1.49175e-08	0	0	0
1.66613e-08	0	0	0
1.74709e-08	0	0	0
1.98166e-08	0	0	0
2.00748e-08	0	0	0
2.06815e-08	0	0	0
2.29414e-08	0	0	0
2.43067e-08	0	0	0
2.56465e-08	0	0	0
2.7489e-08	0	0	0
2.75133e-08	0	0	0
2.83471e-08	0	0	0
2.89354e-08	0	0	0
3.14754e-08	0	0	0
3.33066e-08	0	0	0
3.40462e-08	0	0	0
3.63301e-08	0	0	0
3.6496e-08	0	0	0
3.93411e-08	0	0	0
3.97345e-08	0	0	0
4.00603e-08	0	0	0
4.04039e-08	0	0	0
4.16524e-08	0	0	0
4.22414e-08	0	0	0
4.41014e-08	0	0	0
4.81937e-08	0	0	0
5.28386e-08	0	0	0
5.28609e-08	0	0	0
5.29378e-08	0	0	0
5.51211e-08	0	0	0
5.94978e-08	0	0	0
7.25247e-08	0	0	0
7.39458e-08	0	0	0
7.62423e-08	0	0	0
7.81447e-08	0	0	0
8.25502e-08	0	0	0
8.43537e-08	0	0	0
8.5181e-08	0	0	0
9.32393e-08	0	0	0
9.72632e-08	0	0	0
9.90508e-08	0	0	0
1.00496e-07	0	0	0
1.03039e-07	0	0	0
1.09156e-07	0	0	0
1.10997e-07	0	0	0
1.3631e-07	0	0	0
1.46118e-07	0	0	0
1.70883e-07	0	0	0
1.80132e-07	0	0	0
1.86274e-07	0	0	0
1.99369e-07	0	0	0
2.52693e-07	0	0	0
2.89866e-07	0	0	0
3.36239e-07	0	0	0
4.3167e-07	0	0	0
5.12822e-07	0	0	0
5.35949e-07	0	0	0
6.78476e-07	0	0	0
6.87565e-07	0	0	0
7.34584e-07	0	0	0
7.71938e-07	0	0	0
7.91899e-07	0	0	0
1.03754e-06	0	0	0
1.16728e-06	0	0	0
1.17009e-06	0	0	0
1.43365e-06	0	0	0
1.51704e-06	0	0	0
2.92603e-06	0	0	0
3.59362e-06	0	0	0
3.73769e-06	0	0	0
4.79383e-06	0	0	0
7.63336e-06	0	0	0
1.23071e-05	0	0	0
