6.38006e-11	0	0	0
1.87e-10	0	0	0
2.09442e-10	0	0	0
2.29676e-10	0	0	0
3.21722e-10	0	0	0
9.31645e-10	0	0	0
9.88138e-10	0	0	0
2.50458e-09	0	0	0
2.68446e-09	0	0	0
3.20671e-09	0	0	0
3.45531e-09	0	0	0
3.46536e-09	0	0	0
3.78418e-09	0	0	0
4.31287e-09	0	0	0
4.72187e-09	0	0	0
5.438e-09	0	0	0
5.66472e-09	0	0	0
6.08955e-09	0	0	0
6.33584e-09	0	0	0
6.40622e-09	0	0	0
6.7019e-09	0	0	0
7.03802e-09	0	0	0
7.25119e-09	0	0	0
7.37517e-09	0	0	0
8.15086e-09	0	0	0
8.3215e-09	0	0	0
8.46671e-09	0	0	0
1.15689e-08	0	0	0
1.31249e-08	0	0	0
1.31987e-08	0	0	0
1.32469e-08	0	0	0
1.32885e-08	0	0	0
1.34379e-08	0	0	0
1.57065e-08	0	0	0
1.60645e-08	0	0	0
1.90801e-08	0	0	0
2.02544e-08	0	0	0
2.03101e-08	0	0	0
2.06359e-08	0	0	0
2.24706e-08	0	0	0
2.31703e-08	0	0	0
2.45351e-08	0	0	0
2.4634e-08	0	0	0
2.5388e-08	0	0	0
2.56227e-08	0	0	0
2.60614e-08	0	0	0
2.61469e-08	0	0	0
2.94426e-08	0	0	0
3.07599e-08	0	0	0
3.10301e-08	0	0	0
3.11386e-08	0	0	0
3.15367e-08	0	0	0
3.21735e-08	0	0	0
3.38554e-08	0	0	0
3.42828e-08	0	0	0
3.43304e-08	0	0	0
3.46921e-08	0	0	0
3.50547e-08	0	0	0
3.84626e-08	0	0	0
4.00917e-08	0	0	0
4.04941e-08	0	0	0
4.11293e-08	0	0	0
4.11714e-08	0	0	0
5.00931e-08	0	0	0
5.18663e-08	0	0	0
5.41086e-08	0	0	0
5.64495e-08	0	0	0
5.83979e-08	0	0	0
6.32419e-08	0	0	0
6.36274e-08	0	0	0
7.49278e-08	0	0	0
7.90518e-08	0	0	0
7.97585e-08	0	0	0
8.60155e-08	0	0	0
8.67919e-08	0	0	0
8.69765e-08	0	0	0
8.73299e-08	0	0	0
9.6442e-08	0	0	0
9.9001e-08	0	0	0
1.07861e-07	0	0	0
1.1055e-07	0	0	0
1.12303e-07	0	0	0
1.21917e-07	0	0	0
1.24836e-07	0	0	0
1.45788e-07	0	0	0
1.6258e-07	0	0	0
1.62805e-07	0	0	0
1.67898e-07	0	0	0
2.14174e-07	0	0	0
2.62555e-07	0	0	0
2.74489e-07	0	0	0
3.21675e-07	0	0	0
3.28609e-07	0	0	0
3.48937e-07	0	0	0
3.72462e-07	0	0	0
3.84203e-07	0	0	0
3.84444e-07	0	0	0
4.27303e-07	0	0	0
4.28848e-07	0	0	0
4.30931e-07	0	0	0
6.72351e-07	0	0	0
6.76285e-07	0	0	0
9.2171e-07	0	0	0
1.00869e-06	0	0	0
1.15286e-06	0	0	0
1.26533e-06	0	0	0
1.29492e-06	0	0	0
1.36545e-06	0	0	0
1.40354e-06	0	0	0
1.65376e-06	0	0	0
1.86283e-06	0	0	0
1.98683e-06	0	0	0
2.97738e-06	0	0	0
4.57246e-06	0	0	0
5.0037e-06	0	0	0
1.1321e-05	0	0	0
0.000131231	0	0	0
