4.04143e-10	0	0	0
7.78533e-10	0	0	0
7.93395e-10	0	0	0
9.52828e-10	0	0	0
1.16208e-09	0	0	0
1.29495e-09	0	0	0
1.32354e-09	0	0	0
1.35881e-09	0	0	0
1.57182e-09	0	0	0
1.57241e-09	0	0	0
1.65867e-09	0	0	0
2.78927e-09	0	0	0
2.7909e-09	0	0	0
3.17461e-09	0	0	0
3.69445e-09	0	0	0
4.26881e-09	0	0	0
4.40289e-09	0	0	0
4.70519e-09	0	0	0
6.37045e-09	0	0	0
6.45772e-09	0	0	0
6.76482e-09	0	0	0
7.37522e-09	0	0	0
8.06045e-09	0	0	0
8.28059e-09	0	0	0
8.50638e-09	0	0	0
8.60759e-09	0	0	0
9.75582e-09	0	0	0
1.00321e-08	0	0	0
1.04624e-08	0	0	0
1.08844e-08	0	0	0
1.13592e-08	0	0	0
1.18869e-08	0	0	0
1.25748e-08	0	0	0
1.36365e-08	0	0	0
1.37976e-08	0	0	0
1.47023e-08	0	0	0
1.54081e-08	0	0	0
1.63103e-08	0	0	0
1.88752e-08	0	0	0
2.01292e-08	0	0	0
2.10991e-08	0	0	0
2.15106e-08	0	0	0
2.26501e-08	0	0	0
2.33812e-08	0	0	0
2.42603e-08	0	0	0
2.50265e-08	0	0	0
2.8564e-08	0	0	0
3.07506e-08	0	0	0
3.21825e-08	0	0	0
3.22525e-08	0	0	0
3.39567e-08	0	0	0
3.44772e-08	0	0	0
3.44881e-08	0	0	0
3.59879e-08	0	0	0
3.60667e-08	0	0	0
3.63566e-08	0	0	0
3.71221e-08	0	0	0
3.78799e-08	0	0	0
4.15698e-08	0	0	0
4.60397e-08	0	0	0
4.78015e-08	0	0	0
4.78973e-08	0	0	0
5.25521e-08	0	0	0
5.47144e-08	0	0	0
5.49773e-08	0	0	0
5.62896e-08	0	0	0
5.90508e-08	0	0	0
6.2323e-08	0	0	0
6.49844e-08	0	0	0
6.58912e-08	0	0	0
7.11914e-08	0	0	0
7.5647e-08	0	0	0
7.93096e-08	0	0	0
8.6779e-08	0	0	0
9.73128e-08	0	0	0
1.07573e-07	0	0	0
1.12523e-07	0	0	0
1.18982e-07	0	0	0
1.25269e-07	0	0	0
1.36891e-07	0	0	0
1.37868e-07	0	0	0
1.38149e-07	0	0	0
1.42819e-07	0	0	0
1.94814e-07	0	0	0
2.0364e-07	0	0	0
2.04859e-07	0	0	0
2.13539e-07	0	0	0
2.32609e-07	0	0	0
2.90841e-07	0	0	0
4.72608e-07	0	0	0
4.79287e-07	0	0	0
5.18136e-07	0	0	0
5.68258e-07	0	0	0
6.25973e-07	0	0	0
9.60067e-07	0	0	0
1.02291e-06	0	0	0
1.06624e-06	0	0	0
1.32264e-06	0	0	0
1.87663e-06	0	0	0
2.34677e-06	0	0	0
3.78684e-06	0	0	0
8.94076e-06	0	0	0
