7.34116e-12	0	0	0
8.40542e-11	0	0	0
3.50649e-10	0	0	0
1.90165e-09	0	0	0
2.4234e-09	0	0	0
2.58452e-09	0	0	0
3.09131e-09	0	0	0
3.78083e-09	0	0	0
4.01983e-09	0	0	0
4.49786e-09	0	0	0
4.64515e-09	0	0	0
5.28039e-09	0	0	0
6.45241e-09	0	0	0
6.61656e-09	0	0	0
6.74422e-09	0	0	0
6.80919e-09	0	0	0
7.11466e-09	0	0	0
7.14017e-09	0	0	0
7.30902e-09	0	0	0
7.56321e-09	0	0	0
7.73409e-09	0	0	0
7.93183e-09	0	0	0
8.3093e-09	0	0	0
8.80868e-09	0	0	0
8.85893e-09	0	0	0
1.00198e-08	0	0	0
1.08457e-08	0	0	0
1.22979e-08	0	0	0
1.29265e-08	0	0	0
1.45204e-08	0	0	0
1.48425e-08	0	0	0
1.54944e-08	0	0	0
1.55439e-08	0	0	0
1.80987e-08	0	0	0
2.004e-08	0	0	0
2.10448e-08	0	0	0
2.30485e-08	0	0	0
2.31473e-08	0	0	0
2.39828e-08	0	0	0
2.74603e-08	0	0	0
2.77234e-08	0	0	0
2.79077e-08	0	0	0
2.83206e-08	0	0	0
2.85028e-08	0	0	0
2.99831e-08	0	0	0
3.0547e-08	0	0	0
3.0876e-08	0	0	0
3.21877e-08	0	0	0
3.24918e-08	0	0	0
3.53953e-08	0	0	0
3.58863e-08	0	0	0
3.95754e-08	0	0	0
3.97383e-08	0	0	0
4.0578e-08	0	0	0
4.30459e-08	0	0	0
4.56559e-08	0	0	0
4.57002e-08	0	0	0
4.71313e-08	0	0	0
4.76532e-08	0	0	0
5.06476e-08	0	0	0
5.10683e-08	0	0	0
5.18529e-08	0	0	0
5.26166e-08	0	0	0
5.38426e-08	0	0	0
5.46962e-08	0	0	0
6.94808e-08	0	0	0
7.97495e-08	0	0	0
8.06804e-08	0	0	0
8.13959e-08	0	0	0
8.54087e-08	0	0	0
8.70198e-08	0	0	0
8.7169e-08	0	0	0
9.80308e-08	0	0	0
1.08432e-07	0	0	0
1.17672e-07	0	0	0
1.22552e-07	0	0	0
1.28031e-07	0	0	0
1.38354e-07	0	0	0
1.41232e-07	0	0	0
1.51636e-07	0	0	0
1.77746e-07	0	0	0
2.00165e-07	0	0	0
2.26293e-07	0	0	0
2.37965e-07	0	0	0
2.67299e-07	0	0	0
3.16668e-07	0	0	0
3.75717e-07	0	0	0
4.60659e-07	0	0	0
4.75518e-07	0	0	0
5.1735e-07	0	0	0
5.94487e-07	0	0	0
7.62012e-07	0	0	0
1.02502e-06	0	0	0
1.0623e-06	0	0	0
1.21362e-06	0	0	0
1.46521e-06	0	0	0
1.91367e-06	0	0	0
1.92337e-06	0	0	0
2.04809e-06	0	0	0
2.08506e-06	0	0	0
3.00214e-06	0	0	0
