5.6816e-10	0	0	0
9.01916e-10	0	0	0
1.28168e-09	0	0	0
1.3757e-09	0	0	0
2.51432e-09	0	0	0
2.53849e-09	0	0	0
3.23149e-09	0	0	0
3.5101e-09	0	0	0
3.71462e-09	0	0	0
4.04671e-09	0	0	0
4.59124e-09	0	0	0
4.62525e-09	0	0	0
5.32737e-09	0	0	0
5.41646e-09	0	0	0
5.46025e-09	0	0	0
5.5626e-09	0	0	0
5.56818e-09	0	0	0
5.62218e-09	0	0	0
5.6907e-09	0	0	0
6.19184e-09	0	0	0
6.20431e-09	0	0	0
6.98743e-09	0	0	0
7.15603e-09	0	0	0
7.35739e-09	0	0	0
7.43123e-09	0	0	0
9.98635e-09	0	0	0
1.06483e-08	0	0	0
1.06892e-08	0	0	0
1.14232e-08	0	0	0
1.18419e-08	0	0	0
1.27355e-08	0	0	0
1.34272e-08	0	0	0
1.37661e-08	0	0	0
1.50297e-08	0	0	0
1.55564e-08	0	0	0
1.56556e-08	0	0	0
1.57415e-08	0	0	0
2.01789e-08	0	0	0
2.09644e-08	0	0	0
2.13946e-08	0	0	0
2.26982e-08	0	0	0
2.3082e-08	0	0	0
2.32859e-08	0	0	0
2.38036e-08	0	0	0
2.89788e-08	0	0	0
2.96694e-08	0	0	0
3.05929e-08	0	0	0
3.06742e-08	0	0	0
3.13413e-08	0	0	0
3.20252e-08	0	0	0
3.49931e-08	0	0	0
4.18498e-08	0	0	0
4.42381e-08	0	0	0
4.53314e-08	0	0	0
4.6101e-08	0	0	0
4.90345e-08	0	0	0
4.96804e-08	0	0	0
4.99687e-08	0	0	0
5.03554e-08	0	0	0
5.0937e-08	0	0	0
5.18254e-08	0	0	0
5.18322e-08	0	0	0
5.24238e-08	0	0	0
5.43263e-08	0	0	0
5.59811e-08	0	0	0
5.61365e-08	0	0	0
6.4982e-08	0	0	0
6.7031e-08	0	0	0
6.90813e-08	0	0	0
7.05034e-08	0	0	0
7.14656e-08	0	0	0
7.52892e-08	0	0	0
8.45408e-08	0	0	0
8.61779e-08	0	0	0
9.93482e-08	0	0	0
9.95202e-08	0	0	0
1.11435e-07	0	0	0
1.1271e-07	0	0	0
1.15939e-07	0	0	0
1.1785e-07	0	0	0
1.17887e-07	0	0	0
1.34555e-07	0	0	0
1.36138e-07	0	0	0
1.46606e-07	0	0	0
1.4813e-07	0	0	0
1.53043e-07	0	0	0
1.68253e-07	0	0	0
1.83529e-07	0	0	0
1.91184e-07	0	0	0
2.07259e-07	0	0	0
2.47922e-07	0	0	0
2.85695e-07	0	0	0
2.99524e-07	0	0	0
3.62128e-07	0	0	0
3.64804e-07	0	0	0
3.76496e-07	0	0	0
5.33895e-07	0	0	0
6.50893e-07	0	0	0
7.97082e-07	0	0	0
8.40699e-07	0	0	0
1.04934e-06	0	0	0
1.09804e-06	0	0	0
1.11522e-06	0	0	0
1.17032e-06	0	0	0
1.44345e-06	0	0	0
1.89954e-06	0	0	0
2.05259e-06	0	0	0
2.09935e-06	0	0	0
2.53306e-06	0	0	0
3.68912e-06	0	0	0
3.88407e-06	0	0	0
3.9567e-06	0	0	0
4.37162e-06	0	0	0
6.72337e-06	0	0	0
8.59687e-06	0	0	0
1.2594e-05	0	0	0
1.79053e-05	0	0	0
4.687e-05	0	0	0
