5.62408e-10	0	0	0
7.87102e-10	0	0	0
1.19127e-09	0	0	0
1.26457e-09	0	0	0
1.27559e-09	0	0	0
1.45276e-09	0	0	0
1.53998e-09	0	0	0
2.07525e-09	0	0	0
2.51701e-09	0	0	0
2.86869e-09	0	0	0
3.2171e-09	0	0	0
3.92969e-09	0	0	0
4.16798e-09	0	0	0
4.20581e-09	0	0	0
4.77113e-09	0	0	0
5.0797e-09	0	0	0
5.5553e-09	0	0	0
6.07395e-09	0	0	0
7.46042e-09	0	0	0
7.46323e-09	0	0	0
9.09424e-09	0	0	0
9.41206e-09	0	0	0
1.06339e-08	0	0	0
1.17586e-08	0	0	0
1.19228e-08	0	0	0
1.23347e-08	0	0	0
1.27499e-08	0	0	0
1.28718e-08	0	0	0
1.31197e-08	0	0	0
1.41213e-08	0	0	0
1.41598e-08	0	0	0
1.44293e-08	0	0	0
1.56497e-08	0	0	0
1.74553e-08	0	0	0
1.83237e-08	0	0	0
1.85045e-08	0	0	0
1.93876e-08	0	0	0
2.03391e-08	0	0	0
2.10094e-08	0	0	0
2.33711e-08	0	0	0
2.43823e-08	0	0	0
2.52339e-08	0	0	0
2.6426e-08	0	0	0
2.70577e-08	0	0	0
2.86433e-08	0	0	0
2.89446e-08	0	0	0
2.91607e-08	0	0	0
3.0331e-08	0	0	0
3.15483e-08	0	0	0
3.17882e-08	0	0	0
3.21734e-08	0	0	0
3.34536e-08	0	0	0
3.56613e-08	0	0	0
3.64205e-08	0	0	0
4.04834e-08	0	0	0
4.17445e-08	0	0	0
4.37642e-08	0	0	0
4.52362e-08	0	0	0
4.79382e-08	0	0	0
4.90439e-08	0	0	0
5.21314e-08	0	0	0
5.81859e-08	0	0	0
6.26679e-08	0	0	0
6.36509e-08	0	0	0
6.68712e-08	0	0	0
6.88943e-08	0	0	0
7.0013e-08	0	0	0
7.44082e-08	0	0	0
7.76093e-08	0	0	0
8.55057e-08	0	0	0
9.49322e-08	0	0	0
9.66859e-08	0	0	0
9.75329e-08	0	0	0
1.02955e-07	0	0	0
1.10877e-07	0	0	0
1.30311e-07	0	0	0
1.37421e-07	0	0	0
1.60774e-07	0	0	0
1.66259e-07	0	0	0
1.69639e-07	0	0	0
1.85915e-07	0	0	0
1.8996e-07	0	0	0
1.9349e-07	0	0	0
2.21747e-07	0	0	0
2.28095e-07	0	0	0
2.3681e-07	0	0	0
2.38702e-07	0	0	0
2.40032e-07	0	0	0
2.46622e-07	0	0	0
2.50366e-07	0	0	0
2.6608e-07	0	0	0
2.80423e-07	0	0	0
2.91252e-07	0	0	0
3.06441e-07	0	0	0
3.17206e-07	0	0	0
3.60192e-07	0	0	0
4.08883e-07	0	0	0
4.26051e-07	0	0	0
4.41212e-07	0	0	0
4.62934e-07	0	0	0
5.35841e-07	0	0	0
5.75567e-07	0	0	0
6.70786e-07	0	0	0
6.83371e-07	0	0	0
7.32466e-07	0	0	0
8.46086e-07	0	0	0
8.83913e-07	0	0	0
9.27515e-07	0	0	0
1.01748e-06	0	0	0
1.06439e-06	0	0	0
1.18316e-06	0	0	0
1.53267e-06	0	0	0
1.63118e-06	0	0	0
1.64363e-06	0	0	0
1.76729e-06	0	0	0
1.93659e-06	0	0	0
2.0242e-06	0	0	0
2.04496e-06	0	0	0
2.8466e-06	0	0	0
3.10887e-06	0	0	0
3.1305e-06	0	0	0
3.47965e-06	0	0	0
3.51165e-06	0	0	0
5.0659e-06	0	0	0
1.12612e-05	0	0	0
1.65503e-05	0	0	0
6.33249e-05	0	0	0
