9.97205e-11	0	0	0
1.77766e-10	0	0	0
3.93499e-10	0	0	0
1.08299e-09	0	0	0
2.61511e-09	0	0	0
3.062e-09	0	0	0
3.3066e-09	0	0	0
3.34027e-09	0	0	0
4.0093e-09	0	0	0
4.02195e-09	0	0	0
4.18676e-09	0	0	0
4.1989e-09	0	0	0
4.32546e-09	0	0	0
4.58836e-09	0	0	0
4.68123e-09	0	0	0
5.26285e-09	0	0	0
5.82931e-09	0	0	0
6.49133e-09	0	0	0
6.74909e-09	0	0	0
7.41447e-09	0	0	0
8.06016e-09	0	0	0
8.64917e-09	0	0	0
9.93376e-09	0	0	0
1.07146e-08	0	0	0
1.11089e-08	0	0	0
1.12443e-08	0	0	0
1.14877e-08	0	0	0
1.2315e-08	0	0	0
1.23804e-08	0	0	0
1.32889e-08	0	0	0
1.4259e-08	0	0	0
1.52058e-08	0	0	0
1.53037e-08	0	0	0
1.53864e-08	0	0	0
1.56035e-08	0	0	0
1.6084e-08	0	0	0
1.78988e-08	0	0	0
1.82325e-08	0	0	0
1.84087e-08	0	0	0
1.9768e-08	0	0	0
2.13549e-08	0	0	0
2.19282e-08	0	0	0
2.43658e-08	0	0	0
2.67718e-08	0	0	0
2.68229e-08	0	0	0
2.73385e-08	0	0	0
2.80312e-08	0	0	0
2.80979e-08	0	0	0
2.99897e-08	0	0	0
3.04443e-08	0	0	0
3.08098e-08	0	0	0
3.25171e-08	0	0	0
3.48749e-08	0	0	0
3.53297e-08	0	0	0
3.82221e-08	0	0	0
3.98957e-08	0	0	0
4.1972e-08	0	0	0
4.22666e-08	0	0	0
4.33047e-08	0	0	0
4.36145e-08	0	0	0
4.36315e-08	0	0	0
4.79721e-08	0	0	0
4.94486e-08	0	0	0
6.23966e-08	0	0	0
6.40893e-08	0	0	0
6.74025e-08	0	0	0
7.00893e-08	0	0	0
7.95904e-08	0	0	0
8.69109e-08	0	0	0
8.825e-08	0	0	0
9.64997e-08	0	0	0
1.07566e-07	0	0	0
1.10159e-07	0	0	0
1.13866e-07	0	0	0
1.17609e-07	0	0	0
1.17989e-07	0	0	0
1.22237e-07	0	0	0
1.27273e-07	0	0	0
1.37104e-07	0	0	0
1.49946e-07	0	0	0
1.54533e-07	0	0	0
1.59943e-07	0	0	0
1.72267e-07	0	0	0
1.92136e-07	0	0	0
2.29827e-07	0	0	0
2.63414e-07	0	0	0
2.73103e-07	0	0	0
3.4094e-07	0	0	0
6.16202e-07	0	0	0
6.22524e-07	0	0	0
7.66693e-07	0	0	0
8.30005e-07	0	0	0
8.46438e-07	0	0	0
9.05982e-07	0	0	0
9.09893e-07	0	0	0
1.06251e-06	0	0	0
1.31839e-06	0	0	0
1.55817e-06	0	0	0
1.80127e-06	0	0	0
1.81981e-06	0	0	0
2.13757e-06	0	0	0
2.88406e-06	0	0	0
