2.3544e-10	0	0	0
3.91338e-10	0	0	0
5.01131e-10	0	0	0
7.66741e-10	0	0	0
1.02743e-09	0	0	0
1.05304e-09	0	0	0
1.21529e-09	0	0	0
1.82544e-09	0	0	0
2.28777e-09	0	0	0
2.83962e-09	0	0	0
3.01327e-09	0	0	0
3.26369e-09	0	0	0
3.27345e-09	0	0	0
3.37464e-09	0	0	0
3.48952e-09	0	0	0
3.54597e-09	0	0	0
3.59018e-09	0	0	0
5.10793e-09	0	0	0
5.19486e-09	0	0	0
5.22503e-09	0	0	0
5.36983e-09	0	0	0
5.60371e-09	0	0	0
6.64533e-09	0	0	0
7.05166e-09	0	0	0
7.36013e-09	0	0	0
8.05045e-09	0	0	0
8.59541e-09	0	0	0
9.43277e-09	0	0	0
9.4816e-09	0	0	0
1.12596e-08	0	0	0
1.14349e-08	0	0	0
1.23678e-08	0	0	0
1.25494e-08	0	0	0
1.32808e-08	0	0	0
1.37444e-08	0	0	0
1.37794e-08	0	0	0
1.39087e-08	0	0	0
1.42678e-08	0	0	0
1.48559e-08	0	0	0
1.63121e-08	0	0	0
1.68349e-08	0	0	0
1.81163e-08	0	0	0
1.86356e-08	0	0	0
2.07597e-08	0	0	0
2.1852e-08	0	0	0
2.32354e-08	0	0	0
2.35913e-08	0	0	0
2.65463e-08	0	0	0
2.78253e-08	0	0	0
2.80301e-08	0	0	0
3.01354e-08	0	0	0
3.15827e-08	0	0	0
3.25561e-08	0	0	0
3.48505e-08	0	0	0
3.52917e-08	0	0	0
3.66349e-08	0	0	0
3.72587e-08	0	0	0
3.8682e-08	0	0	0
4.19945e-08	0	0	0
4.20473e-08	0	0	0
4.27478e-08	0	0	0
4.53314e-08	0	0	0
4.86647e-08	0	0	0
4.88117e-08	0	0	0
6.18107e-08	0	0	0
6.72474e-08	0	0	0
7.01592e-08	0	0	0
7.1212e-08	0	0	0
7.53877e-08	0	0	0
8.07185e-08	0	0	0
1.08355e-07	0	0	0
1.16024e-07	0	0	0
1.24135e-07	0	0	0
1.26102e-07	0	0	0
1.29036e-07	0	0	0
1.30631e-07	0	0	0
1.39167e-07	0	0	0
1.46853e-07	0	0	0
1.57661e-07	0	0	0
1.8063e-07	0	0	0
1.8073e-07	0	0	0
1.8521e-07	0	0	0
2.23604e-07	0	0	0
2.45412e-07	0	0	0
2.50411e-07	0	0	0
2.56467e-07	0	0	0
2.61368e-07	0	0	0
2.84361e-07	0	0	0
3.19956e-07	0	0	0
3.46856e-07	0	0	0
4.06778e-07	0	0	0
5.08934e-07	0	0	0
5.44028e-07	0	0	0
5.86753e-07	0	0	0
5.98304e-07	0	0	0
6.017e-07	0	0	0
8.54733e-07	0	0	0
1.17749e-06	0	0	0
1.28e-06	0	0	0
1.31639e-06	0	0	0
1.39721e-06	0	0	0
1.41349e-06	0	0	0
1.60579e-06	0	0	0
2.72901e-06	0	0	0
2.81949e-06	0	0	0
8.03279e-06	0	0	0
1.78315e-05	0	0	0
3.54793e-05	0	0	0
