2.14177e-10	0	0	0
2.71133e-10	0	0	0
6.21395e-10	0	0	0
1.10556e-09	0	0	0
1.36476e-09	0	0	0
1.45451e-09	0	0	0
1.54214e-09	0	0	0
2.3079e-09	0	0	0
2.57648e-09	0	0	0
2.77859e-09	0	0	0
3.51102e-09	0	0	0
3.69544e-09	0	0	0
3.88009e-09	0	0	0
4.72869e-09	0	0	0
5.71967e-09	0	0	0
6.34003e-09	0	0	0
7.09225e-09	0	0	0
7.24062e-09	0	0	0
7.28389e-09	0	0	0
7.33281e-09	0	0	0
8.40455e-09	0	0	0
8.85131e-09	0	0	0
1.03762e-08	0	0	0
1.10495e-08	0	0	0
1.11422e-08	0	0	0
1.11942e-08	0	0	0
1.24058e-08	0	0	0
1.25173e-08	0	0	0
1.34111e-08	0	0	0
1.51855e-08	0	0	0
1.53875e-08	0	0	0
1.66798e-08	0	0	0
1.68804e-08	0	0	0
1.72036e-08	0	0	0
1.74034e-08	0	0	0
1.827e-08	0	0	0
1.92443e-08	0	0	0
1.9588e-08	0	0	0
2.02207e-08	0	0	0
2.20306e-08	0	0	0
2.25625e-08	0	0	0
2.28408e-08	0	0	0
2.29164e-08	0	0	0
2.39287e-08	0	0	0
2.49553e-08	0	0	0
2.57027e-08	0	0	0
2.65261e-08	0	0	0
2.68643e-08	0	0	0
2.94413e-08	0	0	0
3.09989e-08	0	0	0
3.11907e-08	0	0	0
3.12292e-08	0	0	0
3.13633e-08	0	0	0
3.22101e-08	0	0	0
3.24818e-08	0	0	0
3.53828e-08	0	0	0
3.99588e-08	0	0	0
4.1401e-08	0	0	0
4.2697e-08	0	0	0
4.40426e-08	0	0	0
4.75709e-08	0	0	0
4.80079e-08	0	0	0
4.84559e-08	0	0	0
5.14501e-08	0	0	0
5.29019e-08	0	0	0
5.73415e-08	0	0	0
6.03556e-08	0	0	0
6.03749e-08	0	0	0
6.07143e-08	0	0	0
6.44113e-08	0	0	0
7.0711e-08	0	0	0
7.12677e-08	0	0	0
7.21421e-08	0	0	0
7.45251e-08	0	0	0
7.59373e-08	0	0	0
8.49071e-08	0	0	0
8.91424e-08	0	0	0
9.46956e-08	0	0	0
1.03779e-07	0	0	0
1.25717e-07	0	0	0
2.1121e-07	0	0	0
2.12056e-07	0	0	0
2.33737e-07	0	0	0
2.40281e-07	0	0	0
2.6295e-07	0	0	0
2.669e-07	0	0	0
3.29686e-07	0	0	0
4.34526e-07	0	0	0
4.40825e-07	0	0	0
4.52481e-07	0	0	0
5.09772e-07	0	0	0
7.00615e-07	0	0	0
7.66676e-07	0	0	0
1.40276e-06	0	0	0
1.69972e-06	0	0	0
1.73644e-06	0	0	0
2.00131e-06	0	0	0
2.24066e-06	0	0	0
2.35295e-06	0	0	0
2.68494e-06	0	0	0
3.08596e-06	0	0	0
4.19595e-06	0	0	0
4.91562e-06	0	0	0
4.3867e-05	0	0	0
0.00010847	0	0	0
