7.85681e-08	0	0	-nan
9.32159e-08	0	0	-nan
4.16301e-07	0	0	-nan
4.40028e-07	0	0	-nan
4.72914e-07	0	0	-nan
4.99923e-07	0	0	-nan
5.32912e-07	0	0	-nan
5.97692e-07	0	0	-nan
6.52529e-07	0	0	-nan
7.1195e-07	0	0	-nan
7.64616e-07	0	0	-nan
9.21786e-07	0	0	-nan
1.0511e-06	0	0	-nan
1.16461e-06	0	0	-nan
1.30654e-06	0	0	-nan
1.37703e-06	0	0	-nan
1.44758e-06	0	0	-nan
1.91666e-06	0	0	-nan
1.93961e-06	0	0	-nan
1.97674e-06	0	0	-nan
2.00479e-06	0	0	-nan
2.00659e-06	0	0	-nan
2.02428e-06	0	0	-nan
2.08204e-06	0	0	-nan
2.1837e-06	0	0	-nan
2.22317e-06	0	0	-nan
2.43468e-06	0	0	-nan
2.56211e-06	0	0	-nan
2.64518e-06	0	0	-nan
2.84509e-06	0	0	-nan
3.10664e-06	0	0	-nan
3.42008e-06	0	0	-nan
3.44311e-06	0	0	-nan
3.45635e-06	0	0	-nan
3.4674e-06	0	0	-nan
3.62803e-06	0	0	-nan
3.73552e-06	0	0	-nan
3.84566e-06	0	0	-nan
3.91689e-06	0	0	-nan
3.92297e-06	0	0	-nan
3.9885e-06	0	0	-nan
4.09273e-06	0	0	-nan
4.14375e-06	0	0	-nan
4.16359e-06	0	0	-nan
4.16457e-06	0	0	-nan
4.3866e-06	0	0	-nan
4.40892e-06	0	0	-nan
4.54346e-06	0	0	-nan
4.54721e-06	0	0	-nan
4.59909e-06	0	0	-nan
4.61052e-06	0	0	-nan
4.68201e-06	0	0	-nan
4.731e-06	0	0	-nan
4.9082e-06	0	0	-nan
4.99217e-06	0	0	-nan
5.03693e-06	0	0	-nan
5.0624e-06	0	0	-nan
5.11877e-06	0	0	-nan
5.21529e-06	0	0	-nan
5.32823e-06	0	0	-nan
5.42325e-06	0	0	-nan
5.46366e-06	0	0	-nan
5.60121e-06	0	0	-nan
5.71301e-06	0	0	-nan
5.71844e-06	0	0	-nan
5.72699e-06	0	0	-nan
5.761e-06	0	0	-nan
5.76203e-06	0	0	-nan
5.77053e-06	0	0	-nan
5.7769e-06	0	0	-nan
5.88645e-06	0	0	-nan
5.95331e-06	0	0	-nan
5.95937e-06	0	0	-nan
6.06218e-06	0	0	-nan
6.35131e-06	0	0	-nan
6.40842e-06	0	0	-nan
6.41122e-06	0	0	-nan
6.60073e-06	0	0	-nan
6.61969e-06	0	0	-nan
6.728e-06	0	0	-nan
6.93145e-06	0	0	-nan
6.98605e-06	0	0	-nan
7.11136e-06	0	0	-nan
7.12213e-06	0	0	-nan
7.13854e-06	0	0	-nan
7.16422e-06	0	0	-nan
7.19962e-06	0	0	-nan
7.27494e-06	0	0	-nan
7.39836e-06	0	0	-nan
7.40029e-06	0	0	-nan
7.71107e-06	0	0	-nan
7.81733e-06	0	0	-nan
7.82112e-06	0	0	-nan
7.92427e-06	0	0	-nan
7.99269e-06	0	0	-nan
8.11452e-06	0	0	-nan
8.16432e-06	0	0	-nan
8.52681e-06	0	0	-nan
8.56814e-06	0	0	-nan
8.57426e-06	0	0	-nan
8.58906e-06	0	0	-nan
8.92077e-06	0	0	-nan
9.11942e-06	0	0	-nan
9.16779e-06	0	0	-nan
9.35698e-06	0	0	-nan
9.36239e-06	0	0	-nan
9.40941e-06	0	0	-nan
9.42107e-06	0	0	-nan
9.42551e-06	0	0	-nan
9.43251e-06	0	0	-nan
9.47023e-06	0	0	-nan
9.62068e-06	0	0	-nan
9.79129e-06	0	0	-nan
9.80658e-06	0	0	-nan
1.02821e-05	0	0	-nan
1.03688e-05	0	0	-nan
1.04217e-05	0	0	-nan
1.04744e-05	0	0	-nan
1.08851e-05	0	0	-nan
1.09172e-05	0	0	-nan
1.09301e-05	0	0	-nan
1.10153e-05	0	0	-nan
1.11006e-05	0	0	-nan
1.11918e-05	0	0	-nan
1.12052e-05	0	0	-nan
1.12467e-05	0	0	-nan
1.13192e-05	0	0	-nan
1.13682e-05	0	0	-nan
1.14684e-05	0	0	-nan
1.1525e-05	0	0	-nan
1.17536e-05	0	0	-nan
1.17975e-05	0	0	-nan
1.18585e-05	0	0	-nan
1.19642e-05	0	0	-nan
1.20401e-05	0	0	-nan
1.21584e-05	0	0	-nan
1.21862e-05	0	0	-nan
1.22566e-05	0	0	-nan
1.23027e-05	0	0	-nan
1.23886e-05	0	0	-nan
1.25087e-05	0	0	-nan
1.25245e-05	0	0	-nan
1.25562e-05	0	0	-nan
1.28374e-05	0	0	-nan
1.29154e-05	0	0	-nan
1.29631e-05	0	0	-nan
1.30822e-05	0	0	-nan
1.31831e-05	0	0	-nan
1.32499e-05	0	0	-nan
1.32958e-05	0	0	-nan
1.33252e-05	0	0	-nan
1.33329e-05	0	0	-nan
1.34604e-05	0	0	-nan
1.35896e-05	0	0	-nan
1.36778e-05	0	0	-nan
1.39912e-05	0	0	-nan
1.40642e-05	0	0	-nan
1.4078e-05	0	0	-nan
1.4207e-05	0	0	-nan
1.42892e-05	0	0	-nan
1.43377e-05	0	0	-nan
1.45104e-05	0	0	-nan
1.4588e-05	0	0	-nan
1.46329e-05	0	0	-nan
1.47239e-05	0	0	-nan
1.48318e-05	0	0	-nan
1.50213e-05	0	0	-nan
1.50404e-05	0	0	-nan
1.51539e-05	0	0	-nan
1.52842e-05	0	0	-nan
1.5442e-05	0	0	-nan
1.54834e-05	0	0	-nan
1.55885e-05	0	0	-nan
1.57877e-05	0	0	-nan
1.57945e-05	0	0	-nan
1.58859e-05	0	0	-nan
1.59567e-05	0	0	-nan
1.61822e-05	0	0	-nan
1.63175e-05	0	0	-nan
1.65569e-05	0	0	-nan
1.66012e-05	0	0	-nan
1.68135e-05	0	0	-nan
1.69715e-05	0	0	-nan
1.70678e-05	0	0	-nan
1.74243e-05	0	0	-nan
1.74597e-05	0	0	-nan
1.75627e-05	0	0	-nan
1.75738e-05	0	0	-nan
1.75901e-05	0	0	-nan
1.77784e-05	0	0	-nan
1.79299e-05	0	0	-nan
1.80783e-05	0	0	-nan
1.81102e-05	0	0	-nan
1.81415e-05	0	0	-nan
1.82067e-05	0	0	-nan
1.82767e-05	0	0	-nan
1.84746e-05	0	0	-nan
1.85748e-05	0	0	-nan
1.86084e-05	0	0	-nan
1.86434e-05	0	0	-nan
1.87263e-05	0	0	-nan
1.8756e-05	0	0	-nan
1.87895e-05	0	0	-nan
1.91044e-05	0	0	-nan
1.94773e-05	0	0	-nan
1.94789e-05	0	0	-nan
1.95907e-05	0	0	-nan
1.96043e-05	0	0	-nan
1.96561e-05	0	0	-nan
1.9698e-05	0	0	-nan
1.97073e-05	0	0	-nan
1.97107e-05	0	0	-nan
1.98036e-05	0	0	-nan
1.9981e-05	0	0	-nan
2.01464e-05	0	0	-nan
2.02052e-05	0	0	-nan
2.04259e-05	0	0	-nan
2.04387e-05	0	0	-nan
2.0477e-05	0	0	-nan
2.05367e-05	0	0	-nan
2.05429e-05	0	0	-nan
2.05894e-05	0	0	-nan
2.07638e-05	0	0	-nan
2.08883e-05	0	0	-nan
2.09187e-05	0	0	-nan
2.09956e-05	0	0	-nan
2.10027e-05	0	0	-nan
2.10341e-05	0	0	-nan
2.10827e-05	0	0	-nan
2.13423e-05	0	0	-nan
2.15211e-05	0	0	-nan
2.16246e-05	0	0	-nan
2.18193e-05	0	0	-nan
2.18538e-05	0	0	-nan
2.18752e-05	0	0	-nan
2.19868e-05	0	0	-nan
2.20486e-05	0	0	-nan
2.23038e-05	0	0	-nan
2.23969e-05	0	0	-nan
2.24301e-05	0	0	-nan
2.25303e-05	0	0	-nan
2.26251e-05	0	0	-nan
2.26751e-05	0	0	-nan
2.27183e-05	0	0	-nan
2.30335e-05	0	0	-nan
2.31022e-05	0	0	-nan
2.31794e-05	0	0	-nan
2.36212e-05	0	0	-nan
2.37155e-05	0	0	-nan
2.39186e-05	0	0	-nan
2.44693e-05	0	0	-nan
2.45391e-05	0	0	-nan
2.46672e-05	0	0	-nan
2.47035e-05	0	0	-nan
2.47314e-05	0	0	-nan
2.47822e-05	0	0	-nan
2.53263e-05	0	0	-nan
2.54133e-05	0	0	-nan
2.56226e-05	0	0	-nan
2.59288e-05	0	0	-nan
2.61312e-05	0	0	-nan
2.62304e-05	0	0	-nan
2.638e-05	0	0	-nan
2.63823e-05	0	0	-nan
2.67475e-05	0	0	-nan
2.70068e-05	0	0	-nan
2.73468e-05	0	0	-nan
2.74818e-05	0	0	-nan
2.75565e-05	0	0	-nan
2.76587e-05	0	0	-nan
2.78188e-05	0	0	-nan
2.78516e-05	0	0	-nan
2.80048e-05	0	0	-nan
2.80953e-05	0	0	-nan
2.81248e-05	0	0	-nan
2.86028e-05	0	0	-nan
2.87668e-05	0	0	-nan
2.90198e-05	0	0	-nan
2.94195e-05	0	0	-nan
2.94837e-05	0	0	-nan
2.95105e-05	0	0	-nan
2.95969e-05	0	0	-nan
2.96042e-05	0	0	-nan
2.97343e-05	0	0	-nan
2.98121e-05	0	0	-nan
2.99337e-05	0	0	-nan
2.9966e-05	0	0	-nan
3.04104e-05	0	0	-nan
3.04551e-05	0	0	-nan
3.05067e-05	0	0	-nan
3.05114e-05	0	0	-nan
3.06101e-05	0	0	-nan
3.06731e-05	0	0	-nan
3.07235e-05	0	0	-nan
3.08564e-05	0	0	-nan
3.09479e-05	0	0	-nan
3.11978e-05	0	0	-nan
3.19975e-05	0	0	-nan
3.20649e-05	0	0	-nan
3.24538e-05	0	0	-nan
3.24955e-05	0	0	-nan
3.25388e-05	0	0	-nan
3.26697e-05	0	0	-nan
3.32079e-05	0	0	-nan
3.33986e-05	0	0	-nan
3.34234e-05	0	0	-nan
3.36703e-05	0	0	-nan
3.3932e-05	0	0	-nan
3.4121e-05	0	0	-nan
3.41675e-05	0	0	-nan
3.42245e-05	0	0	-nan
3.42884e-05	0	0	-nan
3.44721e-05	0	0	-nan
3.46205e-05	0	0	-nan
3.47533e-05	0	0	-nan
3.49774e-05	0	0	-nan
3.50345e-05	0	0	-nan
3.50528e-05	0	0	-nan
3.50927e-05	0	0	-nan
3.52709e-05	0	0	-nan
3.53503e-05	0	0	-nan
3.53552e-05	0	0	-nan
3.54059e-05	0	0	-nan
3.57726e-05	0	0	-nan
3.64236e-05	0	0	-nan
3.6445e-05	0	0	-nan
3.65596e-05	0	0	-nan
3.66873e-05	0	0	-nan
3.68972e-05	0	0	-nan
3.69641e-05	0	0	-nan
3.70072e-05	0	0	-nan
3.70714e-05	0	0	-nan
3.73505e-05	0	0	-nan
3.74789e-05	0	0	-nan
3.77392e-05	0	0	-nan
3.77752e-05	0	0	-nan
3.78675e-05	0	0	-nan
3.79082e-05	0	0	-nan
3.79122e-05	0	0	-nan
3.81833e-05	0	0	-nan
3.8218e-05	0	0	-nan
3.82233e-05	0	0	-nan
3.83557e-05	0	0	-nan
3.83856e-05	0	0	-nan
3.85708e-05	0	0	-nan
3.86995e-05	0	0	-nan
3.8962e-05	0	0	-nan
3.90232e-05	0	0	-nan
3.9171e-05	0	0	-nan
3.91976e-05	0	0	-nan
3.93068e-05	0	0	-nan
3.94252e-05	0	0	-nan
3.94825e-05	0	0	-nan
3.95034e-05	0	0	-nan
3.95255e-05	0	0	-nan
3.9745e-05	0	0	-nan
4.00351e-05	0	0	-nan
4.00901e-05	0	0	-nan
4.02715e-05	0	0	-nan
4.02949e-05	0	0	-nan
4.03362e-05	0	0	-nan
4.04901e-05	0	0	-nan
4.05121e-05	0	0	-nan
4.06101e-05	0	0	-nan
4.07785e-05	0	0	-nan
4.10043e-05	0	0	-nan
4.10318e-05	0	0	-nan
4.11226e-05	0	0	-nan
4.11511e-05	0	0	-nan
4.14553e-05	0	0	-nan
4.16569e-05	0	0	-nan
4.19133e-05	0	0	-nan
4.21193e-05	0	0	-nan
4.23066e-05	0	0	-nan
4.24431e-05	0	0	-nan
4.26667e-05	0	0	-nan
4.27777e-05	0	0	-nan
4.2785e-05	0	0	-nan
4.29171e-05	0	0	-nan
4.29356e-05	0	0	-nan
4.29991e-05	0	0	-nan
4.30928e-05	0	0	-nan
4.31067e-05	0	0	-nan
4.31471e-05	0	0	-nan
4.31504e-05	0	0	-nan
4.3211e-05	0	0	-nan
4.34171e-05	0	0	-nan
4.3774e-05	0	0	-nan
4.38133e-05	0	0	-nan
4.38876e-05	0	0	-nan
4.39174e-05	0	0	-nan
4.42266e-05	0	0	-nan
4.44394e-05	0	0	-nan
4.46043e-05	0	0	-nan
4.47168e-05	0	0	-nan
4.47424e-05	0	0	-nan
4.48065e-05	0	0	-nan
4.49788e-05	0	0	-nan
4.51325e-05	0	0	-nan
4.5149e-05	0	0	-nan
4.52281e-05	0	0	-nan
4.53753e-05	0	0	-nan
4.54459e-05	0	0	-nan
4.5725e-05	0	0	-nan
4.60533e-05	0	0	-nan
4.61871e-05	0	0	-nan
4.63933e-05	0	0	-nan
4.71585e-05	0	0	-nan
4.78178e-05	0	0	-nan
4.79407e-05	0	0	-nan
4.81813e-05	0	0	-nan
4.82027e-05	0	0	-nan
4.82052e-05	0	0	-nan
4.82346e-05	0	0	-nan
4.86321e-05	0	0	-nan
4.86974e-05	0	0	-nan
4.87546e-05	0	0	-nan
4.91655e-05	0	0	-nan
4.94077e-05	0	0	-nan
4.94242e-05	0	0	-nan
4.94785e-05	0	0	-nan
4.95865e-05	0	0	-nan
4.96141e-05	0	0	-nan
4.96932e-05	0	0	-nan
5.03124e-05	0	0	-nan
5.05132e-05	0	0	-nan
5.05596e-05	0	0	-nan
5.07125e-05	0	0	-nan
5.08121e-05	0	0	-nan
5.10213e-05	0	0	-nan
5.10902e-05	0	0	-nan
5.13351e-05	0	0	-nan
5.15671e-05	0	0	-nan
5.15979e-05	0	0	-nan
5.16654e-05	0	0	-nan
5.19686e-05	0	0	-nan
5.20367e-05	0	0	-nan
5.2267e-05	0	0	-nan
5.24239e-05	0	0	-nan
5.28898e-05	0	0	-nan
5.29852e-05	0	0	-nan
5.3087e-05	0	0	-nan
5.32665e-05	0	0	-nan
5.34362e-05	0	0	-nan
5.38092e-05	0	0	-nan
5.38552e-05	0	0	-nan
5.39231e-05	0	0	-nan
5.39454e-05	0	0	-nan
5.41112e-05	0	0	-nan
5.4477e-05	0	0	-nan
5.49245e-05	0	0	-nan
5.50779e-05	0	0	-nan
5.52345e-05	0	0	-nan
5.52468e-05	0	0	-nan
5.52915e-05	0	0	-nan
5.55212e-05	0	0	-nan
5.55572e-05	0	0	-nan
5.57756e-05	0	0	-nan
5.59326e-05	0	0	-nan
5.63522e-05	0	0	-nan
5.66405e-05	0	0	-nan
5.69689e-05	0	0	-nan
5.71534e-05	0	0	-nan
5.71651e-05	0	0	-nan
5.75503e-05	0	0	-nan
5.83382e-05	0	0	-nan
5.83776e-05	0	0	-nan
5.84314e-05	0	0	-nan
5.85634e-05	0	0	-nan
5.86295e-05	0	0	-nan
5.88641e-05	0	0	-nan
5.91756e-05	0	0	-nan
5.97446e-05	0	0	-nan
5.98648e-05	0	0	-nan
5.98804e-05	0	0	-nan
6.08083e-05	0	0	-nan
6.08331e-05	0	0	-nan
6.08601e-05	0	0	-nan
6.10717e-05	0	0	-nan
6.11082e-05	0	0	-nan
6.11648e-05	0	0	-nan
6.13229e-05	0	0	-nan
6.14356e-05	0	0	-nan
6.14599e-05	0	0	-nan
6.14656e-05	0	0	-nan
6.15934e-05	0	0	-nan
6.28141e-05	0	0	-nan
6.28678e-05	0	0	-nan
6.28812e-05	0	0	-nan
6.31815e-05	0	0	-nan
6.32226e-05	0	0	-nan
6.35574e-05	0	0	-nan
6.38954e-05	0	0	-nan
6.39445e-05	0	0	-nan
6.40737e-05	0	0	-nan
6.41569e-05	0	0	-nan
6.4174e-05	0	0	-nan
6.42029e-05	0	0	-nan
6.50536e-05	0	0	-nan
6.50815e-05	0	0	-nan
6.51758e-05	0	0	-nan
6.5292e-05	0	0	-nan
6.5296e-05	0	0	-nan
6.54962e-05	0	0	-nan
6.58006e-05	0	0	-nan
6.58342e-05	0	0	-nan
6.61817e-05	0	0	-nan
6.61821e-05	0	0	-nan
6.62404e-05	0	0	-nan
6.64488e-05	0	0	-nan
6.69822e-05	0	0	-nan
6.72652e-05	0	0	-nan
6.7365e-05	0	0	-nan
6.7436e-05	0	0	-nan
6.7724e-05	0	0	-nan
6.77289e-05	0	0	-nan
6.79148e-05	0	0	-nan
6.80674e-05	0	0	-nan
6.82826e-05	0	0	-nan
6.83931e-05	0	0	-nan
6.8444e-05	0	0	-nan
6.86687e-05	0	0	-nan
6.87795e-05	0	0	-nan
6.88667e-05	0	0	-nan
6.88767e-05	0	0	-nan
6.9588e-05	0	0	-nan
6.97263e-05	0	0	-nan
6.99e-05	0	0	-nan
6.99151e-05	0	0	-nan
7.00164e-05	0	0	-nan
7.09758e-05	0	0	-nan
7.10927e-05	0	0	-nan
7.13826e-05	0	0	-nan
7.21115e-05	0	0	-nan
7.21515e-05	0	0	-nan
7.23167e-05	0	0	-nan
7.25953e-05	0	0	-nan
7.26838e-05	0	0	-nan
7.28927e-05	0	0	-nan
7.32787e-05	0	0	-nan
7.3327e-05	0	0	-nan
7.34412e-05	0	0	-nan
7.34893e-05	0	0	-nan
7.35743e-05	0	0	-nan
7.38934e-05	0	0	-nan
7.38953e-05	0	0	-nan
7.40325e-05	0	0	-nan
7.40823e-05	0	0	-nan
7.40929e-05	0	0	-nan
7.40957e-05	0	0	-nan
7.44086e-05	0	0	-nan
7.48279e-05	0	0	-nan
7.4847e-05	0	0	-nan
7.49912e-05	0	0	-nan
7.51671e-05	0	0	-nan
7.51822e-05	0	0	-nan
7.52006e-05	0	0	-nan
7.53551e-05	0	0	-nan
7.56896e-05	0	0	-nan
7.56972e-05	0	0	-nan
7.63455e-05	0	0	-nan
7.63957e-05	0	0	-nan
7.65451e-05	0	0	-nan
7.65686e-05	0	0	-nan
7.67237e-05	0	0	-nan
7.69294e-05	0	0	-nan
7.70262e-05	0	0	-nan
7.73368e-05	0	0	-nan
7.77416e-05	0	0	-nan
7.79388e-05	0	0	-nan
7.83428e-05	0	0	-nan
7.83694e-05	0	0	-nan
7.86008e-05	0	0	-nan
7.88372e-05	0	0	-nan
7.91603e-05	0	0	-nan
7.92543e-05	0	0	-nan
7.95819e-05	0	0	-nan
8.00795e-05	0	0	-nan
8.01077e-05	0	0	-nan
8.03523e-05	0	0	-nan
8.09316e-05	0	0	-nan
8.09569e-05	0	0	-nan
8.12991e-05	0	0	-nan
8.17984e-05	0	0	-nan
8.18185e-05	0	0	-nan
8.18205e-05	0	0	-nan
8.18907e-05	0	0	-nan
8.19693e-05	0	0	-nan
8.23778e-05	0	0	-nan
8.26334e-05	0	0	-nan
8.30125e-05	0	0	-nan
8.32205e-05	0	0	-nan
8.32669e-05	0	0	-nan
8.35544e-05	0	0	-nan
8.40219e-05	0	0	-nan
8.42705e-05	0	0	-nan
8.43373e-05	0	0	-nan
8.44211e-05	0	0	-nan
8.44823e-05	0	0	-nan
8.45385e-05	0	0	-nan
8.46562e-05	0	0	-nan
8.46613e-05	0	0	-nan
8.4764e-05	0	0	-nan
8.47926e-05	0	0	-nan
8.48164e-05	0	0	-nan
8.49819e-05	0	0	-nan
8.59851e-05	0	0	-nan
8.64271e-05	0	0	-nan
8.75932e-05	0	0	-nan
8.76383e-05	0	0	-nan
8.76754e-05	0	0	-nan
8.78326e-05	0	0	-nan
8.79369e-05	0	0	-nan
8.82275e-05	0	0	-nan
8.82747e-05	0	0	-nan
8.82836e-05	0	0	-nan
8.82996e-05	0	0	-nan
8.87189e-05	0	0	-nan
8.88348e-05	0	0	-nan
8.88536e-05	0	0	-nan
8.88597e-05	0	0	-nan
8.91334e-05	0	0	-nan
8.92273e-05	0	0	-nan
8.95215e-05	0	0	-nan
8.99906e-05	0	0	-nan
9.03149e-05	0	0	-nan
9.03733e-05	0	0	-nan
9.04624e-05	0	0	-nan
9.04929e-05	0	0	-nan
9.06381e-05	0	0	-nan
9.07873e-05	0	0	-nan
9.1067e-05	0	0	-nan
9.15068e-05	0	0	-nan
9.16235e-05	0	0	-nan
9.20024e-05	0	0	-nan
9.2086e-05	0	0	-nan
9.20882e-05	0	0	-nan
9.21541e-05	0	0	-nan
9.2247e-05	0	0	-nan
9.24219e-05	0	0	-nan
9.25845e-05	0	0	-nan
9.26264e-05	0	0	-nan
9.29029e-05	0	0	-nan
9.33729e-05	0	0	-nan
9.34611e-05	0	0	-nan
9.39554e-05	0	0	-nan
9.43411e-05	0	0	-nan
9.48603e-05	0	0	-nan
9.53327e-05	0	0	-nan
9.5552e-05	0	0	-nan
9.61248e-05	0	0	-nan
9.63008e-05	0	0	-nan
9.63145e-05	0	0	-nan
9.6389e-05	0	0	-nan
9.63938e-05	0	0	-nan
9.67485e-05	0	0	-nan
9.73477e-05	0	0	-nan
9.7378e-05	0	0	-nan
9.73965e-05	0	0	-nan
9.7587e-05	0	0	-nan
9.7614e-05	0	0	-nan
9.83447e-05	0	0	-nan
9.8443e-05	0	0	-nan
9.86039e-05	0	0	-nan
9.88608e-05	0	0	-nan
9.93903e-05	0	0	-nan
9.94842e-05	0	0	-nan
9.96475e-05	0	0	-nan
0.0001001	0	0	-nan
0.000100358	0	0	-nan
0.000100425	0	0	-nan
0.000100799	0	0	-nan
0.000100824	0	0	-nan
0.000101199	0	0	-nan
0.000101522	0	0	-nan
0.000102297	0	0	-nan
0.000102553	0	0	-nan
0.000102636	0	0	-nan
0.000102672	0	0	-nan
0.000103027	0	0	-nan
0.000103138	0	0	-nan
0.000103428	0	0	-nan
0.000103488	0	0	-nan
0.000103604	0	0	-nan
0.000103668	0	0	-nan
0.000103744	0	0	-nan
0.000104436	0	0	-nan
0.000104471	0	0	-nan
0.000104502	0	0	-nan
0.000104536	0	0	-nan
0.000104597	0	0	-nan
0.000104978	0	0	-nan
0.000105422	0	0	-nan
0.000106004	0	0	-nan
0.000106085	0	0	-nan
0.000106142	0	0	-nan
0.000106254	0	0	-nan
0.000106641	0	0	-nan
0.000106795	0	0	-nan
0.000106878	0	0	-nan
0.000107224	0	0	-nan
0.000107375	0	0	-nan
0.000107525	0	0	-nan
0.000107591	0	0	-nan
0.000108129	0	0	-nan
0.000108205	0	0	-nan
0.000108725	0	0	-nan
0.000109011	0	0	-nan
0.000109036	0	0	-nan
0.000109119	0	0	-nan
0.000109599	0	0	-nan
0.000109715	0	0	-nan
0.000110246	0	0	-nan
0.000110553	0	0	-nan
0.000110819	0	0	-nan
0.000111169	0	0	-nan
0.000111651	0	0	-nan
0.000112599	0	0	-nan
0.00011296	0	0	-nan
0.000113046	0	0	-nan
0.000113928	0	0	-nan
0.000114157	0	0	-nan
0.000114312	0	0	-nan
0.000114348	0	0	-nan
0.000114579	0	0	-nan
0.000114749	0	0	-nan
0.000114989	0	0	-nan
0.000116823	0	0	-nan
0.000116824	0	0	-nan
0.000117455	0	0	-nan
0.000117746	0	0	-nan
0.00011792	0	0	-nan
0.000118317	0	0	-nan
0.000118382	0	0	-nan
0.000118422	0	0	-nan
0.000118888	0	0	-nan
0.0001195	0	0	-nan
0.000120365	0	0	-nan
0.000120415	0	0	-nan
0.000120594	0	0	-nan
0.000121578	0	0	-nan
0.000121945	0	0	-nan
0.000122087	0	0	-nan
0.000122461	0	0	-nan
0.000122974	0	0	-nan
0.000123334	0	0	-nan
0.000124052	0	0	-nan
0.000124167	0	0	-nan
0.000124741	0	0	-nan
0.000124798	0	0	-nan
0.000125053	0	0	-nan
0.000125506	0	0	-nan
0.000125722	0	0	-nan
0.000125759	0	0	-nan
0.000125853	0	0	-nan
0.000125874	0	0	-nan
0.000126094	0	0	-nan
0.000126211	0	0	-nan
0.000126283	0	0	-nan
0.000126493	0	0	-nan
0.000126629	0	0	-nan
0.000127136	0	0	-nan
0.000128199	0	0	-nan
0.000128338	0	0	-nan
0.000128451	0	0	-nan
0.000129057	0	0	-nan
0.000129805	0	0	-nan
0.000129818	0	0	-nan
0.000131088	0	0	-nan
0.000131312	0	0	-nan
0.000131468	0	0	-nan
0.000131635	0	0	-nan
0.000131737	0	0	-nan
0.000132494	0	0	-nan
0.000133285	0	0	-nan
0.000133867	0	0	-nan
0.000135249	0	0	-nan
0.000135526	0	0	-nan
0.00013613	0	0	-nan
0.00013692	0	0	-nan
0.000137159	0	0	-nan
0.000137273	0	0	-nan
0.000137886	0	0	-nan
0.000138372	0	0	-nan
0.000138387	0	0	-nan
0.00013847	0	0	-nan
0.000138529	0	0	-nan
0.000138597	0	0	-nan
0.000138846	0	0	-nan
0.000138961	0	0	-nan
0.000139164	0	0	-nan
0.000139335	0	0	-nan
0.00013967	0	0	-nan
0.000139712	0	0	-nan
0.000140327	0	0	-nan
0.000141288	0	0	-nan
0.000141422	0	0	-nan
0.000141468	0	0	-nan
0.000141488	0	0	-nan
0.000142086	0	0	-nan
0.000142453	0	0	-nan
0.000142532	0	0	-nan
0.000142722	0	0	-nan
0.00014297	0	0	-nan
0.000143979	0	0	-nan
0.000144199	0	0	-nan
0.000144304	0	0	-nan
0.000144309	0	0	-nan
0.000144444	0	0	-nan
0.000144524	0	0	-nan
0.000144533	0	0	-nan
0.000144706	0	0	-nan
0.000145127	0	0	-nan
0.000145176	0	0	-nan
0.000145231	0	0	-nan
0.000145739	0	0	-nan
0.000146145	0	0	-nan
0.000146497	0	0	-nan
0.000146666	0	0	-nan
0.000146735	0	0	-nan
0.000147226	0	0	-nan
0.000147508	0	0	-nan
0.000147604	0	0	-nan
0.000147649	0	0	-nan
0.000147703	0	0	-nan
0.000147932	0	0	-nan
0.000147996	0	0	-nan
0.000148105	0	0	-nan
0.000148645	0	0	-nan
0.000148918	0	0	-nan
0.000149023	0	0	-nan
0.000149135	0	0	-nan
0.00015016	0	0	-nan
0.000150221	0	0	-nan
0.000151241	0	0	-nan
0.000152199	0	0	-nan
0.000152333	0	0	-nan
0.00015241	0	0	-nan
0.000152512	0	0	-nan
0.000152568	0	0	-nan
0.000153431	0	0	-nan
0.000153561	0	0	-nan
0.000154075	0	0	-nan
0.000154364	0	0	-nan
0.000155026	0	0	-nan
0.000155555	0	0	-nan
0.000155567	0	0	-nan
0.00015568	0	0	-nan
0.00015568	0	0	-nan
0.000156274	0	0	-nan
0.000156407	0	0	-nan
0.000156852	0	0	-nan
0.000156947	0	0	-nan
0.000157061	0	0	-nan
0.000157992	0	0	-nan
0.00015868	0	0	-nan
0.000159057	0	0	-nan
0.000159398	0	0	-nan
0.00015999	0	0	-nan
0.000160244	0	0	-nan
0.000161416	0	0	-nan
0.00016211	0	0	-nan
0.000163233	0	0	-nan
0.000163755	0	0	-nan
0.000163786	0	0	-nan
0.000165045	0	0	-nan
0.000165122	0	0	-nan
0.000165325	0	0	-nan
0.000165364	0	0	-nan
0.000165843	0	0	-nan
0.000166178	0	0	-nan
0.000166283	0	0	-nan
0.000166532	0	0	-nan
0.000166607	0	0	-nan
0.000167718	0	0	-nan
0.000167884	0	0	-nan
0.000167949	0	0	-nan
0.00016805	0	0	-nan
0.000168098	0	0	-nan
0.000168263	0	0	-nan
0.000168405	0	0	-nan
0.000169029	0	0	-nan
0.000169169	0	0	-nan
0.000170056	0	0	-nan
0.000170149	0	0	-nan
0.000170719	0	0	-nan
0.000171094	0	0	-nan
0.000171191	0	0	-nan
0.000171875	0	0	-nan
0.000171888	0	0	-nan
0.000172227	0	0	-nan
0.000172876	0	0	-nan
0.00017388	0	0	-nan
0.000174458	0	0	-nan
0.000174919	0	0	-nan
0.000174983	0	0	-nan
0.000176021	0	0	-nan
0.000176243	0	0	-nan
0.000176369	0	0	-nan
0.0001765	0	0	-nan
0.000176699	0	0	-nan
0.000177666	0	0	-nan
0.000178491	0	0	-nan
0.000179377	0	0	-nan
0.000180685	0	0	-nan
0.000180989	0	0	-nan
0.00018213	0	0	-nan
0.000182637	0	0	-nan
0.000183397	0	0	-nan
0.000184492	0	0	-nan
0.000184809	0	0	-nan
0.000184899	0	0	-nan
0.000187072	0	0	-nan
0.00018743	0	0	-nan
0.000188112	0	0	-nan
0.000188424	0	0	-nan
0.000189048	0	0	-nan
0.000189424	0	0	-nan
0.000189698	0	0	-nan
0.000189739	0	0	-nan
0.000189776	0	0	-nan
0.000190293	0	0	-nan
0.000190921	0	0	-nan
0.000191694	0	0	-nan
0.000191994	0	0	-nan
0.000192533	0	0	-nan
0.00019255	0	0	-nan
0.000194006	0	0	-nan
0.000194091	0	0	-nan
0.000194254	0	0	-nan
0.000194511	0	0	-nan
0.000195259	0	0	-nan
0.000196517	0	0	-nan
0.000196551	0	0	-nan
0.000196626	0	0	-nan
0.000197434	0	0	-nan
0.000197964	0	0	-nan
0.000198032	0	0	-nan
0.000198286	0	0	-nan
0.000198467	0	0	-nan
0.000198547	0	0	-nan
0.00019859	0	0	-nan
0.000198756	0	0	-nan
0.000199071	0	0	-nan
0.000199173	0	0	-nan
0.000200076	0	0	-nan
0.000201463	0	0	-nan
0.000201508	0	0	-nan
0.000201755	0	0	-nan
0.000201928	0	0	-nan
0.00020282	0	0	-nan
0.000204786	0	0	-nan
0.00020639	0	0	-nan
0.000206936	0	0	-nan
0.000206968	0	0	-nan
0.000207748	0	0	-nan
0.000208484	0	0	-nan
0.000211106	0	0	-nan
0.000211365	0	0	-nan
0.000211729	0	0	-nan
0.000212003	0	0	-nan
0.000212328	0	0	-nan
0.000212577	0	0	-nan
0.000212966	0	0	-nan
0.000213087	0	0	-nan
0.000214487	0	0	-nan
0.000214701	0	0	-nan
0.000214786	0	0	-nan
0.000214889	0	0	-nan
0.000215911	0	0	-nan
0.000216246	0	0	-nan
0.000217156	0	0	-nan
0.000218258	0	0	-nan
0.000218948	0	0	-nan
0.000221194	0	0	-nan
0.000221228	0	0	-nan
0.000221753	0	0	-nan
0.000222388	0	0	-nan
0.000224264	0	0	-nan
0.000225161	0	0	-nan
0.000225533	0	0	-nan
0.00022571	0	0	-nan
0.000226124	0	0	-nan
0.000227137	0	0	-nan
0.000227835	0	0	-nan
0.000228948	0	0	-nan
0.000229026	0	0	-nan
0.000229665	0	0	-nan
0.000233047	0	0	-nan
0.000233374	0	0	-nan
0.000234745	0	0	-nan
0.000234769	0	0	-nan
0.000235561	0	0	-nan
0.000235643	0	0	-nan
0.000236015	0	0	-nan
0.000236481	0	0	-nan
0.000236943	0	0	-nan
0.000237795	0	0	-nan
0.00023794	0	0	-nan
0.000238647	0	0	-nan
0.000239215	0	0	-nan
0.0002393	0	0	-nan
0.000240133	0	0	-nan
0.000240581	0	0	-nan
0.000241449	0	0	-nan
0.000241505	0	0	-nan
0.000242126	0	0	-nan
0.000244353	0	0	-nan
0.000244986	0	0	-nan
0.000245372	0	0	-nan
0.000246575	0	0	-nan
0.000247769	0	0	-nan
0.000248207	0	0	-nan
0.000248464	0	0	-nan
0.000248815	0	0	-nan
0.000249034	0	0	-nan
0.000249118	0	0	-nan
0.000249294	0	0	-nan
0.000249624	0	0	-nan
0.000252342	0	0	-nan
0.000252533	0	0	-nan
0.000252799	0	0	-nan
0.000253276	0	0	-nan
0.000253473	0	0	-nan
0.000255039	0	0	-nan
0.000256716	0	0	-nan
0.000258252	0	0	-nan
0.00025826	0	0	-nan
0.000258601	0	0	-nan
0.000258857	0	0	-nan
0.000262271	0	0	-nan
0.000263302	0	0	-nan
0.000263964	0	0	-nan
0.000263991	0	0	-nan
0.00026411	0	0	-nan
0.00026434	0	0	-nan
0.000264399	0	0	-nan
0.000265028	0	0	-nan
0.000265065	0	0	-nan
0.000265144	0	0	-nan
0.000266857	0	0	-nan
0.000267334	0	0	-nan
0.000267763	0	0	-nan
0.000269029	0	0	-nan
0.000269198	0	0	-nan
0.000269324	0	0	-nan
0.000269368	0	0	-nan
0.000269851	0	0	-nan
0.000270277	0	0	-nan
0.000270873	0	0	-nan
0.000271277	0	0	-nan
0.000272174	0	0	-nan
0.00027277	0	0	-nan
0.000272985	0	0	-nan
0.000273137	0	0	-nan
0.00027358	0	0	-nan
0.000279037	0	0	-nan
0.000279648	0	0	-nan
0.000279659	0	0	-nan
0.000280168	0	0	-nan
0.000280174	0	0	-nan
0.000280963	0	0	-nan
0.000281204	0	0	-nan
0.000281318	0	0	-nan
0.000282579	0	0	-nan
0.000282853	0	0	-nan
0.000283389	0	0	-nan
0.000284607	0	0	-nan
0.000285712	0	0	-nan
0.000285874	0	0	-nan
0.000286168	0	0	-nan
0.000286583	0	0	-nan
0.000287313	0	0	-nan
0.000287321	0	0	-nan
0.000287625	0	0	-nan
0.000287665	0	0	-nan
0.000287743	0	0	-nan
0.000290676	0	0	-nan
0.00029084	0	0	-nan
0.000292252	0	0	-nan
0.000292601	0	0	-nan
0.000294797	0	0	-nan
0.000295041	0	0	-nan
0.000296818	0	0	-nan
0.000297015	0	0	-nan
0.000298701	0	0	-nan
0.000300062	0	0	-nan
0.00030014	0	0	-nan
0.000300225	0	0	-nan
0.000300719	0	0	-nan
0.000301795	0	0	-nan
0.000302023	0	0	-nan
0.000302745	0	0	-nan
0.000303404	0	0	-nan
0.00030406	0	0	-nan
0.000304343	0	0	-nan
0.000306117	0	0	-nan
0.000306199	0	0	-nan
0.000306566	0	0	-nan
0.000306685	0	0	-nan
0.000307193	0	0	-nan
0.000307243	0	0	-nan
0.000307428	0	0	-nan
0.000307776	0	0	-nan
0.000307778	0	0	-nan
0.0003092	0	0	-nan
0.000310072	0	0	-nan
0.000311914	0	0	-nan
0.000311983	0	0	-nan
0.000312313	0	0	-nan
0.000312337	0	0	-nan
0.000312534	0	0	-nan
0.000313621	0	0	-nan
0.000313688	0	0	-nan
0.000313761	0	0	-nan
0.00031412	0	0	-nan
0.000314719	0	0	-nan
0.00031479	0	0	-nan
0.000314818	0	0	-nan
0.000316166	0	0	-nan
0.000316435	0	0	-nan
0.000319811	0	0	-nan
0.000319973	0	0	-nan
0.000320499	0	0	-nan
0.000320666	0	0	-nan
0.000320762	0	0	-nan
0.000320927	0	0	-nan
0.000321545	0	0	-nan
0.000322916	0	0	-nan
0.00032298	0	0	-nan
0.00032304	0	0	-nan
0.000325344	0	0	-nan
0.000326541	0	0	-nan
0.000326725	0	0	-nan
0.000328496	0	0	-nan
0.000328498	0	0	-nan
0.000330207	0	0	-nan
0.000330692	0	0	-nan
0.000333328	0	0	-nan
0.000336457	0	0	-nan
0.000336587	0	0	-nan
0.000337324	0	0	-nan
0.000338788	0	0	-nan
0.000341322	0	0	-nan
0.000343323	0	0	-nan
0.000344514	0	0	-nan
0.00034556	0	0	-nan
0.000347446	0	0	-nan
0.000347456	0	0	-nan
0.000350176	0	0	-nan
0.000351576	0	0	-nan
0.000351942	0	0	-nan
0.000352207	0	0	-nan
0.000352565	0	0	-nan
0.000354618	0	0	-nan
0.000355586	0	0	-nan
0.000356261	0	0	-nan
0.000356828	0	0	-nan
0.000356966	0	0	-nan
0.000357304	0	0	-nan
0.000360436	0	0	-nan
0.000360728	0	0	-nan
0.00036082	0	0	-nan
0.000361094	0	0	-nan
0.000363214	0	0	-nan
0.000363234	0	0	-nan
0.000367613	0	0	-nan
0.000369662	0	0	-nan
0.000369881	0	0	-nan
0.000370258	0	0	-nan
0.000371366	0	0	-nan
0.000371781	0	0	-nan
0.000372538	0	0	-nan
0.000372688	0	0	-nan
0.000374214	0	0	-nan
0.000374681	0	0	-nan
0.000374799	0	0	-nan
0.000377141	0	0	-nan
0.000377226	0	0	-nan
0.000379605	0	0	-nan
0.000379731	0	0	-nan
0.000380985	0	0	-nan
0.000381115	0	0	-nan
0.000382605	0	0	-nan
0.000382713	0	0	-nan
0.000383069	0	0	-nan
0.000386211	0	0	-nan
0.000389997	0	0	-nan
0.000390636	0	0	-nan
0.000392066	0	0	-nan
0.000392168	0	0	-nan
0.000392815	0	0	-nan
0.000393411	0	0	-nan
0.000398153	0	0	-nan
0.000398347	0	0	-nan
0.000398369	0	0	-nan
0.000399614	0	0	-nan
0.000400031	0	0	-nan
0.000401828	0	0	-nan
0.000403183	0	0	-nan
0.00040419	0	0	-nan
0.000404896	0	0	-nan
0.000404994	0	0	-nan
0.000406058	0	0	-nan
0.000407065	0	0	-nan
0.000407371	0	0	-nan
0.000408372	0	0	-nan
0.000409288	0	0	-nan
0.000410093	0	0	-nan
0.000410566	0	0	-nan
0.000411797	0	0	-nan
0.000412866	0	0	-nan
0.000413858	0	0	-nan
0.00041622	0	0	-nan
0.000416643	0	0	-nan
0.000421637	0	0	-nan
0.000423459	0	0	-nan
0.000424093	0	0	-nan
0.00042524	0	0	-nan
0.000427923	0	0	-nan
0.000428545	0	0	-nan
0.000430457	0	0	-nan
0.000432488	0	0	-nan
0.000434353	0	0	-nan
0.000436132	0	0	-nan
0.000438962	0	0	-nan
0.00043897	0	0	-nan
0.000439012	0	0	-nan
0.000439319	0	0	-nan
0.000439517	0	0	-nan
0.000441606	0	0	-nan
0.000442091	0	0	-nan
0.000445854	0	0	-nan
0.000446007	0	0	-nan
0.000450263	0	0	-nan
0.000452125	0	0	-nan
0.00045493	0	0	-nan
0.000456836	0	0	-nan
0.000458342	0	0	-nan
0.000461875	0	0	-nan
0.000464129	0	0	-nan
0.000465018	0	0	-nan
0.000465786	0	0	-nan
0.00046813	0	0	-nan
0.000470354	0	0	-nan
0.000472694	0	0	-nan
0.000475071	0	0	-nan
0.000475743	0	0	-nan
0.000477263	0	0	-nan
0.000477279	0	0	-nan
0.000479534	0	0	-nan
0.000481825	0	0	-nan
0.000486247	0	0	-nan
0.00048744	0	0	-nan
0.000487523	0	0	-nan
0.000489591	0	0	-nan
0.000491308	0	0	-nan
0.000494662	0	0	-nan
0.000498053	0	0	-nan
0.000498644	0	0	-nan
0.000498831	0	0	-nan
0.000499945	0	0	-nan
0.000502122	0	0	-nan
0.000504017	0	0	-nan
0.000504129	0	0	-nan
0.000504993	0	0	-nan
0.000505469	0	0	-nan
0.000510588	0	0	-nan
0.000513748	0	0	-nan
0.000515439	0	0	-nan
0.000521421	0	0	-nan
0.000521634	0	0	-nan
0.000534259	0	0	-nan
0.000534574	0	0	-nan
0.000535307	0	0	-nan
0.000539003	0	0	-nan
0.000539276	0	0	-nan
0.000541951	0	0	-nan
0.000542013	0	0	-nan
0.00054247	0	0	-nan
0.000546885	0	0	-nan
0.000553948	0	0	-nan
0.000558988	0	0	-nan
0.000559441	0	0	-nan
0.000561358	0	0	-nan
0.000562581	0	0	-nan
0.000566262	0	0	-nan
0.000566427	0	0	-nan
0.000566636	0	0	-nan
0.000571345	0	0	-nan
0.00057292	0	0	-nan
0.000576536	0	0	-nan
0.000576659	0	0	-nan
0.000578427	0	0	-nan
0.000583729	0	0	-nan
0.000588172	0	0	-nan
0.000596069	0	0	-nan
0.00059735	0	0	-nan
0.00059856	0	0	-nan
0.000602028	0	0	-nan
0.000603944	0	0	-nan
0.000603959	0	0	-nan
0.000607713	0	0	-nan
0.000610495	0	0	-nan
0.000615249	0	0	-nan
0.000616677	0	0	-nan
0.000622734	0	0	-nan
0.000623288	0	0	-nan
0.000629017	0	0	-nan
0.000630059	0	0	-nan
0.000638661	0	0	-nan
0.00064003	0	0	-nan
0.000641711	0	0	-nan
0.000657787	0	0	-nan
0.000660487	0	0	-nan
0.000673273	0	0	-nan
0.000673426	0	0	-nan
0.000675694	0	0	-nan
0.000678491	0	0	-nan
0.000688123	0	0	-nan
0.000688367	0	0	-nan
0.000707643	0	0	-nan
0.000707758	0	0	-nan
0.000735554	0	0	-nan
0.000758756	0	0	-nan
0.000759963	0	0	-nan
0.000761711	0	0	-nan
0.000777946	0	0	-nan
0.000780222	0	0	-nan
0.000784746	0	0	-nan
0.000798326	0	0	-nan
0.000827806	0	0	-nan
0.000830471	0	0	-nan
0.000841405	0	0	-nan
0.000865928	0	0	-nan
0.0009103	0	0	-nan
0.000923535	0	0	-nan
0.000981014	0	0	-nan
0.000989351	0	0	-nan
0.00101851	0	0	-nan
0.00102645	0	0	-nan
0.00108882	0	0	-nan
0.00109404	0	0	-nan
0.00109875	0	0	-nan
0.00111049	0	0	-nan
0.00111305	0	0	-nan
0.00113789	0	0	-nan
0.0012186	0	0	-nan
