3.91375e-08	0	0	-nan
9.16981e-08	0	0	-nan
1.69143e-07	0	0	-nan
2.11641e-07	0	0	-nan
2.20452e-07	0	0	-nan
2.76807e-07	0	0	-nan
3.40856e-07	0	0	-nan
3.62928e-07	0	0	-nan
4.45229e-07	0	0	-nan
5.55514e-07	0	0	-nan
5.92252e-07	0	0	-nan
6.2129e-07	0	0	-nan
7.40804e-07	0	0	-nan
7.49321e-07	0	0	-nan
8.14983e-07	0	0	-nan
9.67819e-07	0	0	-nan
1.00241e-06	0	0	-nan
1.09394e-06	0	0	-nan
1.09881e-06	0	0	-nan
1.26421e-06	0	0	-nan
1.28359e-06	0	0	-nan
1.40989e-06	0	0	-nan
1.41992e-06	0	0	-nan
1.57803e-06	0	0	-nan
1.66149e-06	0	0	-nan
1.69389e-06	0	0	-nan
1.80343e-06	0	0	-nan
1.8921e-06	0	0	-nan
1.96933e-06	0	0	-nan
2.0059e-06	0	0	-nan
2.03189e-06	0	0	-nan
2.11357e-06	0	0	-nan
2.11925e-06	0	0	-nan
2.1297e-06	0	0	-nan
2.17791e-06	0	0	-nan
2.21976e-06	0	0	-nan
2.27801e-06	0	0	-nan
2.30404e-06	0	0	-nan
2.35436e-06	0	0	-nan
2.3973e-06	0	0	-nan
2.43107e-06	0	0	-nan
2.5462e-06	0	0	-nan
2.58654e-06	0	0	-nan
2.59038e-06	0	0	-nan
2.65641e-06	0	0	-nan
2.734e-06	0	0	-nan
2.83861e-06	0	0	-nan
2.93953e-06	0	0	-nan
3.12669e-06	0	0	-nan
3.17638e-06	0	0	-nan
3.29876e-06	0	0	-nan
3.36454e-06	0	0	-nan
3.52313e-06	0	0	-nan
4.04548e-06	0	0	-nan
4.08898e-06	0	0	-nan
4.27675e-06	0	0	-nan
4.32635e-06	0	0	-nan
4.3264e-06	0	0	-nan
4.39965e-06	0	0	-nan
4.43481e-06	0	0	-nan
4.49201e-06	0	0	-nan
4.53046e-06	0	0	-nan
4.5431e-06	0	0	-nan
4.58869e-06	0	0	-nan
4.65222e-06	0	0	-nan
4.82983e-06	0	0	-nan
4.90508e-06	0	0	-nan
4.98642e-06	0	0	-nan
5.06332e-06	0	0	-nan
5.07335e-06	0	0	-nan
5.14843e-06	0	0	-nan
5.41363e-06	0	0	-nan
5.58138e-06	0	0	-nan
5.61639e-06	0	0	-nan
5.67388e-06	0	0	-nan
5.88851e-06	0	0	-nan
5.89496e-06	0	0	-nan
5.90566e-06	0	0	-nan
5.9483e-06	0	0	-nan
6.03512e-06	0	0	-nan
6.4364e-06	0	0	-nan
6.46944e-06	0	0	-nan
6.68695e-06	0	0	-nan
6.76884e-06	0	0	-nan
7.22955e-06	0	0	-nan
7.31641e-06	0	0	-nan
7.35796e-06	0	0	-nan
7.66573e-06	0	0	-nan
7.72986e-06	0	0	-nan
7.80172e-06	0	0	-nan
7.93096e-06	0	0	-nan
7.95748e-06	0	0	-nan
7.97076e-06	0	0	-nan
8.17999e-06	0	0	-nan
8.31545e-06	0	0	-nan
8.47266e-06	0	0	-nan
8.48948e-06	0	0	-nan
8.83231e-06	0	0	-nan
9.1303e-06	0	0	-nan
9.14628e-06	0	0	-nan
9.17148e-06	0	0	-nan
9.18174e-06	0	0	-nan
9.22468e-06	0	0	-nan
9.24935e-06	0	0	-nan
9.35639e-06	0	0	-nan
9.51085e-06	0	0	-nan
9.53074e-06	0	0	-nan
9.59907e-06	0	0	-nan
9.71004e-06	0	0	-nan
1.00385e-05	0	0	-nan
1.01327e-05	0	0	-nan
1.03628e-05	0	0	-nan
1.03913e-05	0	0	-nan
1.04207e-05	0	0	-nan
1.05167e-05	0	0	-nan
1.05197e-05	0	0	-nan
1.06197e-05	0	0	-nan
1.08995e-05	0	0	-nan
1.10082e-05	0	0	-nan
1.12896e-05	0	0	-nan
1.13613e-05	0	0	-nan
1.13694e-05	0	0	-nan
1.13911e-05	0	0	-nan
1.14861e-05	0	0	-nan
1.14908e-05	0	0	-nan
1.15237e-05	0	0	-nan
1.16319e-05	0	0	-nan
1.1697e-05	0	0	-nan
1.17436e-05	0	0	-nan
1.18154e-05	0	0	-nan
1.18178e-05	0	0	-nan
1.20467e-05	0	0	-nan
1.22586e-05	0	0	-nan
1.22657e-05	0	0	-nan
1.23829e-05	0	0	-nan
1.25598e-05	0	0	-nan
1.26449e-05	0	0	-nan
1.26453e-05	0	0	-nan
1.26772e-05	0	0	-nan
1.27112e-05	0	0	-nan
1.27682e-05	0	0	-nan
1.27749e-05	0	0	-nan
1.28451e-05	0	0	-nan
1.30139e-05	0	0	-nan
1.34917e-05	0	0	-nan
1.34924e-05	0	0	-nan
1.35044e-05	0	0	-nan
1.35083e-05	0	0	-nan
1.35209e-05	0	0	-nan
1.35898e-05	0	0	-nan
1.36457e-05	0	0	-nan
1.38992e-05	0	0	-nan
1.41078e-05	0	0	-nan
1.41129e-05	0	0	-nan
1.43238e-05	0	0	-nan
1.43792e-05	0	0	-nan
1.50179e-05	0	0	-nan
1.50709e-05	0	0	-nan
1.5339e-05	0	0	-nan
1.53404e-05	0	0	-nan
1.54175e-05	0	0	-nan
1.55234e-05	0	0	-nan
1.56207e-05	0	0	-nan
1.57527e-05	0	0	-nan
1.58316e-05	0	0	-nan
1.58598e-05	0	0	-nan
1.58809e-05	0	0	-nan
1.59581e-05	0	0	-nan
1.59793e-05	0	0	-nan
1.60261e-05	0	0	-nan
1.60877e-05	0	0	-nan
1.65013e-05	0	0	-nan
1.6707e-05	0	0	-nan
1.67088e-05	0	0	-nan
1.68168e-05	0	0	-nan
1.69047e-05	0	0	-nan
1.71766e-05	0	0	-nan
1.72696e-05	0	0	-nan
1.73053e-05	0	0	-nan
1.73771e-05	0	0	-nan
1.75067e-05	0	0	-nan
1.75179e-05	0	0	-nan
1.75753e-05	0	0	-nan
1.76014e-05	0	0	-nan
1.76169e-05	0	0	-nan
1.76946e-05	0	0	-nan
1.76977e-05	0	0	-nan
1.78286e-05	0	0	-nan
1.80744e-05	0	0	-nan
1.81333e-05	0	0	-nan
1.81351e-05	0	0	-nan
1.81401e-05	0	0	-nan
1.82555e-05	0	0	-nan
1.83366e-05	0	0	-nan
1.8354e-05	0	0	-nan
1.85261e-05	0	0	-nan
1.86751e-05	0	0	-nan
1.88139e-05	0	0	-nan
1.89121e-05	0	0	-nan
1.90353e-05	0	0	-nan
1.9263e-05	0	0	-nan
1.93193e-05	0	0	-nan
1.93405e-05	0	0	-nan
1.93562e-05	0	0	-nan
1.93876e-05	0	0	-nan
1.95208e-05	0	0	-nan
1.95733e-05	0	0	-nan
1.95775e-05	0	0	-nan
1.96441e-05	0	0	-nan
2.01515e-05	0	0	-nan
2.03047e-05	0	0	-nan
2.03286e-05	0	0	-nan
2.04126e-05	0	0	-nan
2.04984e-05	0	0	-nan
2.05896e-05	0	0	-nan
2.0661e-05	0	0	-nan
2.06653e-05	0	0	-nan
2.07173e-05	0	0	-nan
2.08202e-05	0	0	-nan
2.08849e-05	0	0	-nan
2.11546e-05	0	0	-nan
2.13479e-05	0	0	-nan
2.14133e-05	0	0	-nan
2.14185e-05	0	0	-nan
2.14443e-05	0	0	-nan
2.15872e-05	0	0	-nan
2.16519e-05	0	0	-nan
2.19409e-05	0	0	-nan
2.20137e-05	0	0	-nan
2.20214e-05	0	0	-nan
2.20899e-05	0	0	-nan
2.22046e-05	0	0	-nan
2.24875e-05	0	0	-nan
2.2577e-05	0	0	-nan
2.30503e-05	0	0	-nan
2.30529e-05	0	0	-nan
2.30991e-05	0	0	-nan
2.35306e-05	0	0	-nan
2.35525e-05	0	0	-nan
2.36069e-05	0	0	-nan
2.36688e-05	0	0	-nan
2.36732e-05	0	0	-nan
2.37018e-05	0	0	-nan
2.37917e-05	0	0	-nan
2.37969e-05	0	0	-nan
2.40388e-05	0	0	-nan
2.41586e-05	0	0	-nan
2.42151e-05	0	0	-nan
2.4504e-05	0	0	-nan
2.4536e-05	0	0	-nan
2.45372e-05	0	0	-nan
2.45549e-05	0	0	-nan
2.4571e-05	0	0	-nan
2.47707e-05	0	0	-nan
2.51732e-05	0	0	-nan
2.5183e-05	0	0	-nan
2.52248e-05	0	0	-nan
2.55385e-05	0	0	-nan
2.56607e-05	0	0	-nan
2.58575e-05	0	0	-nan
2.58767e-05	0	0	-nan
2.60269e-05	0	0	-nan
2.6029e-05	0	0	-nan
2.60392e-05	0	0	-nan
2.61857e-05	0	0	-nan
2.66066e-05	0	0	-nan
2.66459e-05	0	0	-nan
2.67535e-05	0	0	-nan
2.69349e-05	0	0	-nan
2.70158e-05	0	0	-nan
2.71529e-05	0	0	-nan
2.72065e-05	0	0	-nan
2.74019e-05	0	0	-nan
2.74805e-05	0	0	-nan
2.75292e-05	0	0	-nan
2.76526e-05	0	0	-nan
2.76812e-05	0	0	-nan
2.77231e-05	0	0	-nan
2.78583e-05	0	0	-nan
2.83363e-05	0	0	-nan
2.83535e-05	0	0	-nan
2.846e-05	0	0	-nan
2.87894e-05	0	0	-nan
2.90077e-05	0	0	-nan
2.92179e-05	0	0	-nan
2.92374e-05	0	0	-nan
2.96478e-05	0	0	-nan
2.96792e-05	0	0	-nan
2.98087e-05	0	0	-nan
3.01446e-05	0	0	-nan
3.01692e-05	0	0	-nan
3.02465e-05	0	0	-nan
3.03936e-05	0	0	-nan
3.0492e-05	0	0	-nan
3.05241e-05	0	0	-nan
3.06081e-05	0	0	-nan
3.07084e-05	0	0	-nan
3.09096e-05	0	0	-nan
3.10464e-05	0	0	-nan
3.15189e-05	0	0	-nan
3.18546e-05	0	0	-nan
3.18556e-05	0	0	-nan
3.20406e-05	0	0	-nan
3.20605e-05	0	0	-nan
3.22436e-05	0	0	-nan
3.24988e-05	0	0	-nan
3.25291e-05	0	0	-nan
3.26936e-05	0	0	-nan
3.30193e-05	0	0	-nan
3.31355e-05	0	0	-nan
3.32408e-05	0	0	-nan
3.33985e-05	0	0	-nan
3.35614e-05	0	0	-nan
3.36168e-05	0	0	-nan
3.38285e-05	0	0	-nan
3.38668e-05	0	0	-nan
3.39354e-05	0	0	-nan
3.41663e-05	0	0	-nan
3.42388e-05	0	0	-nan
3.4389e-05	0	0	-nan
3.44026e-05	0	0	-nan
3.47073e-05	0	0	-nan
3.47976e-05	0	0	-nan
3.49576e-05	0	0	-nan
3.50207e-05	0	0	-nan
3.5137e-05	0	0	-nan
3.52852e-05	0	0	-nan
3.53159e-05	0	0	-nan
3.5323e-05	0	0	-nan
3.55403e-05	0	0	-nan
3.58421e-05	0	0	-nan
3.59074e-05	0	0	-nan
3.59851e-05	0	0	-nan
3.60798e-05	0	0	-nan
3.62849e-05	0	0	-nan
3.63837e-05	0	0	-nan
3.64398e-05	0	0	-nan
3.64481e-05	0	0	-nan
3.66073e-05	0	0	-nan
3.69493e-05	0	0	-nan
3.69671e-05	0	0	-nan
3.71056e-05	0	0	-nan
3.72139e-05	0	0	-nan
3.72657e-05	0	0	-nan
3.75043e-05	0	0	-nan
3.77749e-05	0	0	-nan
3.78468e-05	0	0	-nan
3.79529e-05	0	0	-nan
3.80064e-05	0	0	-nan
3.80897e-05	0	0	-nan
3.82881e-05	0	0	-nan
3.84685e-05	0	0	-nan
3.85232e-05	0	0	-nan
3.86048e-05	0	0	-nan
3.87019e-05	0	0	-nan
3.87448e-05	0	0	-nan
3.89306e-05	0	0	-nan
3.89953e-05	0	0	-nan
3.90545e-05	0	0	-nan
3.91048e-05	0	0	-nan
3.92453e-05	0	0	-nan
3.93224e-05	0	0	-nan
3.93993e-05	0	0	-nan
3.94542e-05	0	0	-nan
3.9463e-05	0	0	-nan
3.95523e-05	0	0	-nan
3.96506e-05	0	0	-nan
3.96978e-05	0	0	-nan
3.97318e-05	0	0	-nan
3.97417e-05	0	0	-nan
3.9774e-05	0	0	-nan
4.03413e-05	0	0	-nan
4.07195e-05	0	0	-nan
4.07259e-05	0	0	-nan
4.07949e-05	0	0	-nan
4.11645e-05	0	0	-nan
4.16779e-05	0	0	-nan
4.21149e-05	0	0	-nan
4.22034e-05	0	0	-nan
4.27307e-05	0	0	-nan
4.28953e-05	0	0	-nan
4.30505e-05	0	0	-nan
4.31338e-05	0	0	-nan
4.32024e-05	0	0	-nan
4.32347e-05	0	0	-nan
4.34243e-05	0	0	-nan
4.36097e-05	0	0	-nan
4.36767e-05	0	0	-nan
4.36997e-05	0	0	-nan
4.3766e-05	0	0	-nan
4.38741e-05	0	0	-nan
4.38815e-05	0	0	-nan
4.39024e-05	0	0	-nan
4.40562e-05	0	0	-nan
4.40995e-05	0	0	-nan
4.41517e-05	0	0	-nan
4.42286e-05	0	0	-nan
4.45463e-05	0	0	-nan
4.46605e-05	0	0	-nan
4.47036e-05	0	0	-nan
4.47699e-05	0	0	-nan
4.50728e-05	0	0	-nan
4.50956e-05	0	0	-nan
4.51229e-05	0	0	-nan
4.51529e-05	0	0	-nan
4.51548e-05	0	0	-nan
4.52098e-05	0	0	-nan
4.53224e-05	0	0	-nan
4.53752e-05	0	0	-nan
4.56211e-05	0	0	-nan
4.58446e-05	0	0	-nan
4.60797e-05	0	0	-nan
4.6121e-05	0	0	-nan
4.66188e-05	0	0	-nan
4.66755e-05	0	0	-nan
4.67196e-05	0	0	-nan
4.67743e-05	0	0	-nan
4.67891e-05	0	0	-nan
4.68307e-05	0	0	-nan
4.68729e-05	0	0	-nan
4.69006e-05	0	0	-nan
4.72305e-05	0	0	-nan
4.73853e-05	0	0	-nan
4.74682e-05	0	0	-nan
4.76146e-05	0	0	-nan
4.77969e-05	0	0	-nan
4.78647e-05	0	0	-nan
4.81088e-05	0	0	-nan
4.83095e-05	0	0	-nan
4.84695e-05	0	0	-nan
4.85359e-05	0	0	-nan
4.85968e-05	0	0	-nan
4.8747e-05	0	0	-nan
4.88725e-05	0	0	-nan
4.9404e-05	0	0	-nan
4.94509e-05	0	0	-nan
4.95783e-05	0	0	-nan
4.97125e-05	0	0	-nan
4.97897e-05	0	0	-nan
4.98721e-05	0	0	-nan
5.02556e-05	0	0	-nan
5.04578e-05	0	0	-nan
5.05196e-05	0	0	-nan
5.06194e-05	0	0	-nan
5.07239e-05	0	0	-nan
5.10182e-05	0	0	-nan
5.13202e-05	0	0	-nan
5.1535e-05	0	0	-nan
5.19238e-05	0	0	-nan
5.24253e-05	0	0	-nan
5.24344e-05	0	0	-nan
5.28009e-05	0	0	-nan
5.28302e-05	0	0	-nan
5.30534e-05	0	0	-nan
5.31272e-05	0	0	-nan
5.31309e-05	0	0	-nan
5.31424e-05	0	0	-nan
5.32968e-05	0	0	-nan
5.3688e-05	0	0	-nan
5.40756e-05	0	0	-nan
5.43222e-05	0	0	-nan
5.45594e-05	0	0	-nan
5.46431e-05	0	0	-nan
5.47835e-05	0	0	-nan
5.50501e-05	0	0	-nan
5.54492e-05	0	0	-nan
5.5588e-05	0	0	-nan
5.56584e-05	0	0	-nan
5.5668e-05	0	0	-nan
5.59562e-05	0	0	-nan
5.61945e-05	0	0	-nan
5.62852e-05	0	0	-nan
5.63468e-05	0	0	-nan
5.65051e-05	0	0	-nan
5.67102e-05	0	0	-nan
5.67798e-05	0	0	-nan
5.7073e-05	0	0	-nan
5.70944e-05	0	0	-nan
5.79782e-05	0	0	-nan
5.8178e-05	0	0	-nan
5.84757e-05	0	0	-nan
5.86164e-05	0	0	-nan
5.90016e-05	0	0	-nan
5.92207e-05	0	0	-nan
5.93574e-05	0	0	-nan
5.97058e-05	0	0	-nan
6.01936e-05	0	0	-nan
6.05738e-05	0	0	-nan
6.05867e-05	0	0	-nan
6.11565e-05	0	0	-nan
6.12701e-05	0	0	-nan
6.13139e-05	0	0	-nan
6.17281e-05	0	0	-nan
6.18083e-05	0	0	-nan
6.18381e-05	0	0	-nan
6.19329e-05	0	0	-nan
6.24269e-05	0	0	-nan
6.26188e-05	0	0	-nan
6.26787e-05	0	0	-nan
6.3102e-05	0	0	-nan
6.32341e-05	0	0	-nan
6.32871e-05	0	0	-nan
6.37113e-05	0	0	-nan
6.39321e-05	0	0	-nan
6.3984e-05	0	0	-nan
6.41033e-05	0	0	-nan
6.44666e-05	0	0	-nan
6.45202e-05	0	0	-nan
6.48523e-05	0	0	-nan
6.49709e-05	0	0	-nan
6.51031e-05	0	0	-nan
6.51483e-05	0	0	-nan
6.52303e-05	0	0	-nan
6.52721e-05	0	0	-nan
6.55395e-05	0	0	-nan
6.55883e-05	0	0	-nan
6.56288e-05	0	0	-nan
6.57812e-05	0	0	-nan
6.58643e-05	0	0	-nan
6.59689e-05	0	0	-nan
6.59841e-05	0	0	-nan
6.6032e-05	0	0	-nan
6.6084e-05	0	0	-nan
6.61912e-05	0	0	-nan
6.63623e-05	0	0	-nan
6.64732e-05	0	0	-nan
6.64779e-05	0	0	-nan
6.67558e-05	0	0	-nan
6.76059e-05	0	0	-nan
6.78425e-05	0	0	-nan
6.79235e-05	0	0	-nan
6.7938e-05	0	0	-nan
6.85272e-05	0	0	-nan
6.86319e-05	0	0	-nan
6.86856e-05	0	0	-nan
6.8703e-05	0	0	-nan
6.913e-05	0	0	-nan
6.92455e-05	0	0	-nan
6.9262e-05	0	0	-nan
6.94026e-05	0	0	-nan
6.94146e-05	0	0	-nan
6.97861e-05	0	0	-nan
6.99828e-05	0	0	-nan
6.99891e-05	0	0	-nan
7.02409e-05	0	0	-nan
7.03419e-05	0	0	-nan
7.04829e-05	0	0	-nan
7.10837e-05	0	0	-nan
7.13062e-05	0	0	-nan
7.14915e-05	0	0	-nan
7.18198e-05	0	0	-nan
7.20082e-05	0	0	-nan
7.21205e-05	0	0	-nan
7.22016e-05	0	0	-nan
7.22634e-05	0	0	-nan
7.23088e-05	0	0	-nan
7.30753e-05	0	0	-nan
7.30793e-05	0	0	-nan
7.30943e-05	0	0	-nan
7.33803e-05	0	0	-nan
7.34303e-05	0	0	-nan
7.35476e-05	0	0	-nan
7.38389e-05	0	0	-nan
7.49808e-05	0	0	-nan
7.52831e-05	0	0	-nan
7.55461e-05	0	0	-nan
7.56998e-05	0	0	-nan
7.57139e-05	0	0	-nan
7.59152e-05	0	0	-nan
7.61149e-05	0	0	-nan
7.62042e-05	0	0	-nan
7.68414e-05	0	0	-nan
7.71145e-05	0	0	-nan
7.72347e-05	0	0	-nan
7.75784e-05	0	0	-nan
7.76778e-05	0	0	-nan
7.7743e-05	0	0	-nan
7.79933e-05	0	0	-nan
7.80593e-05	0	0	-nan
7.81235e-05	0	0	-nan
7.8346e-05	0	0	-nan
7.85373e-05	0	0	-nan
7.8541e-05	0	0	-nan
7.86412e-05	0	0	-nan
7.88105e-05	0	0	-nan
7.89784e-05	0	0	-nan
7.91146e-05	0	0	-nan
7.91518e-05	0	0	-nan
7.92213e-05	0	0	-nan
8.01385e-05	0	0	-nan
8.0471e-05	0	0	-nan
8.06624e-05	0	0	-nan
8.07861e-05	0	0	-nan
8.08525e-05	0	0	-nan
8.08931e-05	0	0	-nan
8.23652e-05	0	0	-nan
8.247e-05	0	0	-nan
8.25501e-05	0	0	-nan
8.26418e-05	0	0	-nan
8.27275e-05	0	0	-nan
8.37743e-05	0	0	-nan
8.41675e-05	0	0	-nan
8.45579e-05	0	0	-nan
8.45699e-05	0	0	-nan
8.47266e-05	0	0	-nan
8.48381e-05	0	0	-nan
8.51288e-05	0	0	-nan
8.5602e-05	0	0	-nan
8.59426e-05	0	0	-nan
8.62659e-05	0	0	-nan
8.643e-05	0	0	-nan
8.65248e-05	0	0	-nan
8.67041e-05	0	0	-nan
8.67499e-05	0	0	-nan
8.67845e-05	0	0	-nan
8.70074e-05	0	0	-nan
8.71879e-05	0	0	-nan
8.78178e-05	0	0	-nan
8.78593e-05	0	0	-nan
8.81051e-05	0	0	-nan
8.81755e-05	0	0	-nan
8.81759e-05	0	0	-nan
8.82227e-05	0	0	-nan
8.83113e-05	0	0	-nan
8.84365e-05	0	0	-nan
8.87075e-05	0	0	-nan
8.87818e-05	0	0	-nan
8.90238e-05	0	0	-nan
8.90385e-05	0	0	-nan
8.94774e-05	0	0	-nan
9.05984e-05	0	0	-nan
9.07048e-05	0	0	-nan
9.09419e-05	0	0	-nan
9.09483e-05	0	0	-nan
9.09491e-05	0	0	-nan
9.10607e-05	0	0	-nan
9.16226e-05	0	0	-nan
9.17257e-05	0	0	-nan
9.17612e-05	0	0	-nan
9.17687e-05	0	0	-nan
9.17944e-05	0	0	-nan
9.24564e-05	0	0	-nan
9.25142e-05	0	0	-nan
9.3071e-05	0	0	-nan
9.36701e-05	0	0	-nan
9.36722e-05	0	0	-nan
9.36818e-05	0	0	-nan
9.39467e-05	0	0	-nan
9.41939e-05	0	0	-nan
9.45356e-05	0	0	-nan
9.4822e-05	0	0	-nan
9.51753e-05	0	0	-nan
9.5421e-05	0	0	-nan
9.55105e-05	0	0	-nan
9.67328e-05	0	0	-nan
9.69548e-05	0	0	-nan
9.69756e-05	0	0	-nan
9.72825e-05	0	0	-nan
9.81315e-05	0	0	-nan
9.82276e-05	0	0	-nan
9.82914e-05	0	0	-nan
9.83019e-05	0	0	-nan
9.84117e-05	0	0	-nan
9.84467e-05	0	0	-nan
9.8527e-05	0	0	-nan
9.89162e-05	0	0	-nan
9.90409e-05	0	0	-nan
9.94397e-05	0	0	-nan
9.97595e-05	0	0	-nan
9.97912e-05	0	0	-nan
0.000100684	0	0	-nan
0.000101025	0	0	-nan
0.000101108	0	0	-nan
0.000101913	0	0	-nan
0.000102019	0	0	-nan
0.000102291	0	0	-nan
0.000102463	0	0	-nan
0.00010277	0	0	-nan
0.000103475	0	0	-nan
0.000103784	0	0	-nan
0.000104103	0	0	-nan
0.00010449	0	0	-nan
0.000104761	0	0	-nan
0.00010482	0	0	-nan
0.000104822	0	0	-nan
0.000105106	0	0	-nan
0.000105812	0	0	-nan
0.000105961	0	0	-nan
0.000106312	0	0	-nan
0.000107425	0	0	-nan
0.000108218	0	0	-nan
0.00010898	0	0	-nan
0.000109007	0	0	-nan
0.000109142	0	0	-nan
0.000109532	0	0	-nan
0.000110589	0	0	-nan
0.000110995	0	0	-nan
0.000111075	0	0	-nan
0.000111548	0	0	-nan
0.000111634	0	0	-nan
0.000111765	0	0	-nan
0.000111971	0	0	-nan
0.000112061	0	0	-nan
0.000112327	0	0	-nan
0.000112427	0	0	-nan
0.000112496	0	0	-nan
0.000112687	0	0	-nan
0.000112708	0	0	-nan
0.000113162	0	0	-nan
0.000113996	0	0	-nan
0.000114029	0	0	-nan
0.000114346	0	0	-nan
0.000114785	0	0	-nan
0.000115226	0	0	-nan
0.000115308	0	0	-nan
0.000116727	0	0	-nan
0.000117071	0	0	-nan
0.000117687	0	0	-nan
0.000118079	0	0	-nan
0.000118227	0	0	-nan
0.000118269	0	0	-nan
0.000118507	0	0	-nan
0.00011872	0	0	-nan
0.000119851	0	0	-nan
0.000120428	0	0	-nan
0.000121222	0	0	-nan
0.00012144	0	0	-nan
0.000121485	0	0	-nan
0.000121571	0	0	-nan
0.00012183	0	0	-nan
0.000121911	0	0	-nan
0.000121948	0	0	-nan
0.000122157	0	0	-nan
0.00012244	0	0	-nan
0.000122452	0	0	-nan
0.00012265	0	0	-nan
0.000122718	0	0	-nan
0.000122841	0	0	-nan
0.000123426	0	0	-nan
0.000123535	0	0	-nan
0.000124508	0	0	-nan
0.000125086	0	0	-nan
0.000125348	0	0	-nan
0.000125541	0	0	-nan
0.000125596	0	0	-nan
0.00012562	0	0	-nan
0.000126351	0	0	-nan
0.00012699	0	0	-nan
0.000127019	0	0	-nan
0.000127087	0	0	-nan
0.000127744	0	0	-nan
0.000127879	0	0	-nan
0.000128113	0	0	-nan
0.000128407	0	0	-nan
0.000128935	0	0	-nan
0.000128974	0	0	-nan
0.000129176	0	0	-nan
0.000129203	0	0	-nan
0.000129367	0	0	-nan
0.000129884	0	0	-nan
0.000130392	0	0	-nan
0.000130704	0	0	-nan
0.000133417	0	0	-nan
0.000133689	0	0	-nan
0.000133974	0	0	-nan
0.000134018	0	0	-nan
0.000134439	0	0	-nan
0.0001347	0	0	-nan
0.000134787	0	0	-nan
0.000134926	0	0	-nan
0.000135077	0	0	-nan
0.000135081	0	0	-nan
0.000135596	0	0	-nan
0.000136084	0	0	-nan
0.000136206	0	0	-nan
0.000138433	0	0	-nan
0.000138542	0	0	-nan
0.000138678	0	0	-nan
0.000139976	0	0	-nan
0.000139978	0	0	-nan
0.000141055	0	0	-nan
0.00014112	0	0	-nan
0.00014143	0	0	-nan
0.00014147	0	0	-nan
0.000141732	0	0	-nan
0.000142151	0	0	-nan
0.000142181	0	0	-nan
0.000142722	0	0	-nan
0.000142822	0	0	-nan
0.000142935	0	0	-nan
0.000143352	0	0	-nan
0.000144391	0	0	-nan
0.000144498	0	0	-nan
0.000145178	0	0	-nan
0.000145807	0	0	-nan
0.000146252	0	0	-nan
0.000146504	0	0	-nan
0.000146907	0	0	-nan
0.000147144	0	0	-nan
0.000148539	0	0	-nan
0.000148604	0	0	-nan
0.000148946	0	0	-nan
0.000149312	0	0	-nan
0.000149513	0	0	-nan
0.000149646	0	0	-nan
0.000149814	0	0	-nan
0.000150114	0	0	-nan
0.000151105	0	0	-nan
0.000151184	0	0	-nan
0.000151481	0	0	-nan
0.000151658	0	0	-nan
0.00015191	0	0	-nan
0.000152882	0	0	-nan
0.000153006	0	0	-nan
0.000153113	0	0	-nan
0.000154581	0	0	-nan
0.000155666	0	0	-nan
0.000155711	0	0	-nan
0.000155787	0	0	-nan
0.000156325	0	0	-nan
0.000156663	0	0	-nan
0.000157999	0	0	-nan
0.000158099	0	0	-nan
0.000159642	0	0	-nan
0.000161158	0	0	-nan
0.000162149	0	0	-nan
0.000162307	0	0	-nan
0.000162432	0	0	-nan
0.000163844	0	0	-nan
0.00016412	0	0	-nan
0.00016466	0	0	-nan
0.000165012	0	0	-nan
0.000165084	0	0	-nan
0.000165336	0	0	-nan
0.000165442	0	0	-nan
0.000165644	0	0	-nan
0.000165865	0	0	-nan
0.000166261	0	0	-nan
0.000166458	0	0	-nan
0.000167039	0	0	-nan
0.000167871	0	0	-nan
0.000168292	0	0	-nan
0.000169052	0	0	-nan
0.00016947	0	0	-nan
0.000169693	0	0	-nan
0.000170051	0	0	-nan
0.000170335	0	0	-nan
0.000172436	0	0	-nan
0.000173061	0	0	-nan
0.000173168	0	0	-nan
0.00017583	0	0	-nan
0.000175897	0	0	-nan
0.000176886	0	0	-nan
0.000177963	0	0	-nan
0.000179717	0	0	-nan
0.000180852	0	0	-nan
0.000181585	0	0	-nan
0.000181758	0	0	-nan
0.00018196	0	0	-nan
0.000182536	0	0	-nan
0.000183608	0	0	-nan
0.000184122	0	0	-nan
0.000184227	0	0	-nan
0.000184437	0	0	-nan
0.00018445	0	0	-nan
0.0001847	0	0	-nan
0.00018514	0	0	-nan
0.000185676	0	0	-nan
0.000185691	0	0	-nan
0.000186158	0	0	-nan
0.000186303	0	0	-nan
0.000187043	0	0	-nan
0.000187235	0	0	-nan
0.000187379	0	0	-nan
0.000188795	0	0	-nan
0.000189657	0	0	-nan
0.000189885	0	0	-nan
0.000190177	0	0	-nan
0.000190491	0	0	-nan
0.000190787	0	0	-nan
0.000191996	0	0	-nan
0.000192207	0	0	-nan
0.000192675	0	0	-nan
0.000192723	0	0	-nan
0.000193866	0	0	-nan
0.000194047	0	0	-nan
0.000194076	0	0	-nan
0.000194549	0	0	-nan
0.000194967	0	0	-nan
0.000196101	0	0	-nan
0.000196238	0	0	-nan
0.000196471	0	0	-nan
0.000196956	0	0	-nan
0.000198601	0	0	-nan
0.000199394	0	0	-nan
0.00019957	0	0	-nan
0.00020052	0	0	-nan
0.000200667	0	0	-nan
0.000201186	0	0	-nan
0.000202328	0	0	-nan
0.00020525	0	0	-nan
0.000205357	0	0	-nan
0.000206037	0	0	-nan
0.000206428	0	0	-nan
0.000207261	0	0	-nan
0.000207937	0	0	-nan
0.000208133	0	0	-nan
0.000209174	0	0	-nan
0.000210461	0	0	-nan
0.000211738	0	0	-nan
0.000212114	0	0	-nan
0.000212666	0	0	-nan
0.000213043	0	0	-nan
0.000213565	0	0	-nan
0.00021393	0	0	-nan
0.000215413	0	0	-nan
0.000218269	0	0	-nan
0.000218915	0	0	-nan
0.000219167	0	0	-nan
0.000219176	0	0	-nan
0.000219628	0	0	-nan
0.00022002	0	0	-nan
0.000221185	0	0	-nan
0.000221795	0	0	-nan
0.000222124	0	0	-nan
0.000222853	0	0	-nan
0.000225101	0	0	-nan
0.000226587	0	0	-nan
0.000226754	0	0	-nan
0.000226852	0	0	-nan
0.000227751	0	0	-nan
0.000228531	0	0	-nan
0.00023096	0	0	-nan
0.000231424	0	0	-nan
0.000232029	0	0	-nan
0.00023298	0	0	-nan
0.000233712	0	0	-nan
0.000234014	0	0	-nan
0.000234226	0	0	-nan
0.000234911	0	0	-nan
0.000235051	0	0	-nan
0.000235753	0	0	-nan
0.000236978	0	0	-nan
0.000236979	0	0	-nan
0.000237721	0	0	-nan
0.000237798	0	0	-nan
0.000238051	0	0	-nan
0.000238386	0	0	-nan
0.000239065	0	0	-nan
0.000239212	0	0	-nan
0.000242797	0	0	-nan
0.000242867	0	0	-nan
0.000242962	0	0	-nan
0.000243364	0	0	-nan
0.000244748	0	0	-nan
0.000245237	0	0	-nan
0.000246126	0	0	-nan
0.000247016	0	0	-nan
0.000249047	0	0	-nan
0.000249248	0	0	-nan
0.00025001	0	0	-nan
0.000250424	0	0	-nan
0.00025062	0	0	-nan
0.000251873	0	0	-nan
0.000252429	0	0	-nan
0.00025303	0	0	-nan
0.000253557	0	0	-nan
0.000253576	0	0	-nan
0.000254041	0	0	-nan
0.000254195	0	0	-nan
0.000254466	0	0	-nan
0.000255059	0	0	-nan
0.00025511	0	0	-nan
0.000255277	0	0	-nan
0.0002583	0	0	-nan
0.000260711	0	0	-nan
0.0002609	0	0	-nan
0.000260966	0	0	-nan
0.00026316	0	0	-nan
0.000265616	0	0	-nan
0.000266823	0	0	-nan
0.000268275	0	0	-nan
0.000269047	0	0	-nan
0.000269506	0	0	-nan
0.000269861	0	0	-nan
0.000270841	0	0	-nan
0.000270843	0	0	-nan
0.000272029	0	0	-nan
0.000272844	0	0	-nan
0.000273254	0	0	-nan
0.000275608	0	0	-nan
0.000277301	0	0	-nan
0.00027744	0	0	-nan
0.000277728	0	0	-nan
0.000277904	0	0	-nan
0.000278055	0	0	-nan
0.000279406	0	0	-nan
0.000280243	0	0	-nan
0.000280695	0	0	-nan
0.000281122	0	0	-nan
0.000282437	0	0	-nan
0.000284471	0	0	-nan
0.000284886	0	0	-nan
0.000285397	0	0	-nan
0.000286256	0	0	-nan
0.000286577	0	0	-nan
0.000286899	0	0	-nan
0.000288418	0	0	-nan
0.000288724	0	0	-nan
0.000290252	0	0	-nan
0.000290347	0	0	-nan
0.00029097	0	0	-nan
0.000291707	0	0	-nan
0.00029228	0	0	-nan
0.000294828	0	0	-nan
0.000295419	0	0	-nan
0.000295461	0	0	-nan
0.000296563	0	0	-nan
0.000297363	0	0	-nan
0.000299395	0	0	-nan
0.000300074	0	0	-nan
0.000300351	0	0	-nan
0.000300872	0	0	-nan
0.000300925	0	0	-nan
0.000302161	0	0	-nan
0.000302982	0	0	-nan
0.000302989	0	0	-nan
0.000303985	0	0	-nan
0.000304037	0	0	-nan
0.000306663	0	0	-nan
0.000306865	0	0	-nan
0.000307854	0	0	-nan
0.000308098	0	0	-nan
0.000308395	0	0	-nan
0.000311742	0	0	-nan
0.000315548	0	0	-nan
0.000316136	0	0	-nan
0.000316364	0	0	-nan
0.000317335	0	0	-nan
0.000317908	0	0	-nan
0.000319113	0	0	-nan
0.000319456	0	0	-nan
0.000320162	0	0	-nan
0.000321754	0	0	-nan
0.00032179	0	0	-nan
0.000323697	0	0	-nan
0.000324269	0	0	-nan
0.000325303	0	0	-nan
0.000327267	0	0	-nan
0.000327712	0	0	-nan
0.000328018	0	0	-nan
0.000328903	0	0	-nan
0.000330842	0	0	-nan
0.00033132	0	0	-nan
0.00033255	0	0	-nan
0.000334403	0	0	-nan
0.000339918	0	0	-nan
0.000342371	0	0	-nan
0.000343075	0	0	-nan
0.000343982	0	0	-nan
0.000345195	0	0	-nan
0.000345666	0	0	-nan
0.000346357	0	0	-nan
0.000346562	0	0	-nan
0.000347295	0	0	-nan
0.000347706	0	0	-nan
0.000349106	0	0	-nan
0.000349394	0	0	-nan
0.000353124	0	0	-nan
0.000353864	0	0	-nan
0.00035439	0	0	-nan
0.000356933	0	0	-nan
0.000357283	0	0	-nan
0.000357676	0	0	-nan
0.000358087	0	0	-nan
0.000358223	0	0	-nan
0.000358925	0	0	-nan
0.000362083	0	0	-nan
0.000362771	0	0	-nan
0.000366951	0	0	-nan
0.000370511	0	0	-nan
0.000370584	0	0	-nan
0.00037112	0	0	-nan
0.00037411	0	0	-nan
0.000374282	0	0	-nan
0.000375346	0	0	-nan
0.000378864	0	0	-nan
0.000382076	0	0	-nan
0.000386408	0	0	-nan
0.000386834	0	0	-nan
0.000387179	0	0	-nan
0.000390098	0	0	-nan
0.000390626	0	0	-nan
0.000391077	0	0	-nan
0.00039124	0	0	-nan
0.000392852	0	0	-nan
0.000393477	0	0	-nan
0.000395182	0	0	-nan
0.000397244	0	0	-nan
0.000399627	0	0	-nan
0.000400599	0	0	-nan
0.000402308	0	0	-nan
0.000402487	0	0	-nan
0.000403465	0	0	-nan
0.000403724	0	0	-nan
0.000403766	0	0	-nan
0.000404951	0	0	-nan
0.000405079	0	0	-nan
0.0004052	0	0	-nan
0.000405332	0	0	-nan
0.000408542	0	0	-nan
0.000410758	0	0	-nan
0.000413869	0	0	-nan
0.00041473	0	0	-nan
0.000418931	0	0	-nan
0.000419033	0	0	-nan
0.000423319	0	0	-nan
0.000423615	0	0	-nan
0.000427664	0	0	-nan
0.000427951	0	0	-nan
0.0004295	0	0	-nan
0.000430941	0	0	-nan
0.000435128	0	0	-nan
0.000435695	0	0	-nan
0.000435852	0	0	-nan
0.000437526	0	0	-nan
0.000440081	0	0	-nan
0.000440658	0	0	-nan
0.000443596	0	0	-nan
0.000444481	0	0	-nan
0.000447188	0	0	-nan
0.000447788	0	0	-nan
0.000448636	0	0	-nan
0.000451184	0	0	-nan
0.000451194	0	0	-nan
0.000452634	0	0	-nan
0.000453851	0	0	-nan
0.000453905	0	0	-nan
0.000455444	0	0	-nan
0.00045893	0	0	-nan
0.000460283	0	0	-nan
0.000460891	0	0	-nan
0.000461983	0	0	-nan
0.000463195	0	0	-nan
0.000463638	0	0	-nan
0.000464617	0	0	-nan
0.000467783	0	0	-nan
0.000469102	0	0	-nan
0.000470925	0	0	-nan
0.000474135	0	0	-nan
0.000478046	0	0	-nan
0.000489615	0	0	-nan
0.000492799	0	0	-nan
0.000493059	0	0	-nan
0.000494684	0	0	-nan
0.000495575	0	0	-nan
0.000495793	0	0	-nan
0.000496514	0	0	-nan
0.000498052	0	0	-nan
0.000498112	0	0	-nan
0.000500309	0	0	-nan
0.000506117	0	0	-nan
0.0005071	0	0	-nan
0.000508056	0	0	-nan
0.000508424	0	0	-nan
0.000509792	0	0	-nan
0.000510498	0	0	-nan
0.000510507	0	0	-nan
0.000513918	0	0	-nan
0.000515697	0	0	-nan
0.000520398	0	0	-nan
0.000521944	0	0	-nan
0.000522238	0	0	-nan
0.000522338	0	0	-nan
0.000525252	0	0	-nan
0.000526591	0	0	-nan
0.000527164	0	0	-nan
0.000527612	0	0	-nan
0.000527713	0	0	-nan
0.000537953	0	0	-nan
0.000538489	0	0	-nan
0.000538854	0	0	-nan
0.000539834	0	0	-nan
0.000540103	0	0	-nan
0.000543748	0	0	-nan
0.000545391	0	0	-nan
0.000546108	0	0	-nan
0.000549109	0	0	-nan
0.000555852	0	0	-nan
0.000564392	0	0	-nan
0.000565573	0	0	-nan
0.000568079	0	0	-nan
0.000571311	0	0	-nan
0.000576894	0	0	-nan
0.000579699	0	0	-nan
0.000579888	0	0	-nan
0.000583862	0	0	-nan
0.000592833	0	0	-nan
0.00060075	0	0	-nan
0.000603013	0	0	-nan
0.000611061	0	0	-nan
0.000619219	0	0	-nan
0.000623258	0	0	-nan
0.000630059	0	0	-nan
0.000630253	0	0	-nan
0.000631584	0	0	-nan
0.000640211	0	0	-nan
0.000641636	0	0	-nan
0.000655597	0	0	-nan
0.000659734	0	0	-nan
0.000663093	0	0	-nan
0.000664145	0	0	-nan
0.000670128	0	0	-nan
0.000683261	0	0	-nan
0.000684593	0	0	-nan
0.000684673	0	0	-nan
0.000686137	0	0	-nan
0.000689941	0	0	-nan
0.000699284	0	0	-nan
0.000700253	0	0	-nan
0.000713544	0	0	-nan
0.000716283	0	0	-nan
0.000717149	0	0	-nan
0.000731463	0	0	-nan
0.000735179	0	0	-nan
0.000749009	0	0	-nan
0.000751009	0	0	-nan
0.000754746	0	0	-nan
0.000756861	0	0	-nan
0.000757934	0	0	-nan
0.00076409	0	0	-nan
0.00077573	0	0	-nan
0.000776196	0	0	-nan
0.000786443	0	0	-nan
0.000788803	0	0	-nan
0.000796888	0	0	-nan
0.000806697	0	0	-nan
0.000808054	0	0	-nan
0.000808128	0	0	-nan
0.000811079	0	0	-nan
0.000837982	0	0	-nan
0.000841867	0	0	-nan
0.000845442	0	0	-nan
0.000866474	0	0	-nan
0.000886017	0	0	-nan
0.000888116	0	0	-nan
0.000895732	0	0	-nan
0.00090868	0	0	-nan
0.000923362	0	0	-nan
0.00096677	0	0	-nan
0.000991434	0	0	-nan
0.00101068	0	0	-nan
0.00106101	0	0	-nan
0.00112294	0	0	-nan
0.0011995	0	0	-nan
0.00126579	0	0	-nan
0.0014046	0	0	-nan
