2.7319e-08	0	0	-nan
4.79962e-08	0	0	-nan
7.43634e-08	0	0	-nan
1.41252e-07	0	0	-nan
2.45435e-07	0	0	-nan
2.7069e-07	0	0	-nan
2.89519e-07	0	0	-nan
4.25279e-07	0	0	-nan
5.05707e-07	0	0	-nan
5.74999e-07	0	0	-nan
6.63819e-07	0	0	-nan
8.61564e-07	0	0	-nan
9.21241e-07	0	0	-nan
9.52291e-07	0	0	-nan
1.05911e-06	0	0	-nan
1.10527e-06	0	0	-nan
1.11538e-06	0	0	-nan
1.26894e-06	0	0	-nan
1.35626e-06	0	0	-nan
1.38061e-06	0	0	-nan
1.56828e-06	0	0	-nan
1.58525e-06	0	0	-nan
1.66277e-06	0	0	-nan
1.70107e-06	0	0	-nan
1.74833e-06	0	0	-nan
1.91024e-06	0	0	-nan
1.96279e-06	0	0	-nan
1.96527e-06	0	0	-nan
1.97768e-06	0	0	-nan
2.00103e-06	0	0	-nan
2.18811e-06	0	0	-nan
2.26402e-06	0	0	-nan
2.3754e-06	0	0	-nan
2.54358e-06	0	0	-nan
2.8016e-06	0	0	-nan
3.03003e-06	0	0	-nan
3.03053e-06	0	0	-nan
3.11184e-06	0	0	-nan
3.22614e-06	0	0	-nan
3.29633e-06	0	0	-nan
3.30536e-06	0	0	-nan
3.49996e-06	0	0	-nan
3.58493e-06	0	0	-nan
3.59692e-06	0	0	-nan
3.62127e-06	0	0	-nan
3.79666e-06	0	0	-nan
3.81656e-06	0	0	-nan
3.91962e-06	0	0	-nan
3.99577e-06	0	0	-nan
4.10914e-06	0	0	-nan
4.1384e-06	0	0	-nan
4.18328e-06	0	0	-nan
4.25041e-06	0	0	-nan
4.39423e-06	0	0	-nan
4.39739e-06	0	0	-nan
4.50597e-06	0	0	-nan
4.53408e-06	0	0	-nan
4.62751e-06	0	0	-nan
4.74007e-06	0	0	-nan
4.7557e-06	0	0	-nan
4.85412e-06	0	0	-nan
5.11232e-06	0	0	-nan
5.16942e-06	0	0	-nan
5.41671e-06	0	0	-nan
5.47944e-06	0	0	-nan
5.80278e-06	0	0	-nan
5.98967e-06	0	0	-nan
6.07256e-06	0	0	-nan
6.32537e-06	0	0	-nan
6.52554e-06	0	0	-nan
6.63884e-06	0	0	-nan
6.67116e-06	0	0	-nan
6.85509e-06	0	0	-nan
7.02524e-06	0	0	-nan
7.06148e-06	0	0	-nan
7.15491e-06	0	0	-nan
7.15761e-06	0	0	-nan
7.25404e-06	0	0	-nan
7.32265e-06	0	0	-nan
7.40703e-06	0	0	-nan
7.41852e-06	0	0	-nan
7.47615e-06	0	0	-nan
7.60342e-06	0	0	-nan
7.79989e-06	0	0	-nan
7.82634e-06	0	0	-nan
7.90888e-06	0	0	-nan
7.94887e-06	0	0	-nan
8.1207e-06	0	0	-nan
8.23639e-06	0	0	-nan
8.25023e-06	0	0	-nan
8.3672e-06	0	0	-nan
8.47333e-06	0	0	-nan
8.47567e-06	0	0	-nan
8.47761e-06	0	0	-nan
8.54212e-06	0	0	-nan
9.16988e-06	0	0	-nan
9.22575e-06	0	0	-nan
9.25206e-06	0	0	-nan
9.30297e-06	0	0	-nan
9.45186e-06	0	0	-nan
9.49166e-06	0	0	-nan
9.50081e-06	0	0	-nan
9.7255e-06	0	0	-nan
9.73538e-06	0	0	-nan
9.73671e-06	0	0	-nan
9.80679e-06	0	0	-nan
9.90485e-06	0	0	-nan
9.961e-06	0	0	-nan
1.00643e-05	0	0	-nan
1.00643e-05	0	0	-nan
1.01498e-05	0	0	-nan
1.03707e-05	0	0	-nan
1.03789e-05	0	0	-nan
1.05611e-05	0	0	-nan
1.06449e-05	0	0	-nan
1.06993e-05	0	0	-nan
1.07233e-05	0	0	-nan
1.07542e-05	0	0	-nan
1.0893e-05	0	0	-nan
1.09068e-05	0	0	-nan
1.09858e-05	0	0	-nan
1.10219e-05	0	0	-nan
1.10584e-05	0	0	-nan
1.10674e-05	0	0	-nan
1.11208e-05	0	0	-nan
1.11418e-05	0	0	-nan
1.12911e-05	0	0	-nan
1.1364e-05	0	0	-nan
1.14619e-05	0	0	-nan
1.17693e-05	0	0	-nan
1.18516e-05	0	0	-nan
1.18724e-05	0	0	-nan
1.2052e-05	0	0	-nan
1.21494e-05	0	0	-nan
1.26653e-05	0	0	-nan
1.26849e-05	0	0	-nan
1.27458e-05	0	0	-nan
1.27568e-05	0	0	-nan
1.28139e-05	0	0	-nan
1.30564e-05	0	0	-nan
1.32111e-05	0	0	-nan
1.3221e-05	0	0	-nan
1.34924e-05	0	0	-nan
1.36327e-05	0	0	-nan
1.36459e-05	0	0	-nan
1.36532e-05	0	0	-nan
1.36963e-05	0	0	-nan
1.37175e-05	0	0	-nan
1.41081e-05	0	0	-nan
1.41546e-05	0	0	-nan
1.41621e-05	0	0	-nan
1.43902e-05	0	0	-nan
1.45068e-05	0	0	-nan
1.45964e-05	0	0	-nan
1.4647e-05	0	0	-nan
1.47377e-05	0	0	-nan
1.48524e-05	0	0	-nan
1.48547e-05	0	0	-nan
1.48601e-05	0	0	-nan
1.49654e-05	0	0	-nan
1.49802e-05	0	0	-nan
1.5001e-05	0	0	-nan
1.50171e-05	0	0	-nan
1.50943e-05	0	0	-nan
1.51624e-05	0	0	-nan
1.51681e-05	0	0	-nan
1.52535e-05	0	0	-nan
1.53812e-05	0	0	-nan
1.54602e-05	0	0	-nan
1.54908e-05	0	0	-nan
1.5585e-05	0	0	-nan
1.5598e-05	0	0	-nan
1.56393e-05	0	0	-nan
1.6323e-05	0	0	-nan
1.64371e-05	0	0	-nan
1.65505e-05	0	0	-nan
1.66397e-05	0	0	-nan
1.68598e-05	0	0	-nan
1.71608e-05	0	0	-nan
1.71718e-05	0	0	-nan
1.72215e-05	0	0	-nan
1.73024e-05	0	0	-nan
1.73915e-05	0	0	-nan
1.7657e-05	0	0	-nan
1.76803e-05	0	0	-nan
1.76917e-05	0	0	-nan
1.77933e-05	0	0	-nan
1.78157e-05	0	0	-nan
1.78503e-05	0	0	-nan
1.79633e-05	0	0	-nan
1.7982e-05	0	0	-nan
1.80288e-05	0	0	-nan
1.85519e-05	0	0	-nan
1.8869e-05	0	0	-nan
1.88874e-05	0	0	-nan
1.90501e-05	0	0	-nan
1.91972e-05	0	0	-nan
1.92148e-05	0	0	-nan
1.95462e-05	0	0	-nan
1.96473e-05	0	0	-nan
1.97368e-05	0	0	-nan
1.98224e-05	0	0	-nan
1.98591e-05	0	0	-nan
2.00789e-05	0	0	-nan
2.02036e-05	0	0	-nan
2.022e-05	0	0	-nan
2.05998e-05	0	0	-nan
2.06482e-05	0	0	-nan
2.06838e-05	0	0	-nan
2.0694e-05	0	0	-nan
2.07312e-05	0	0	-nan
2.0832e-05	0	0	-nan
2.08707e-05	0	0	-nan
2.1166e-05	0	0	-nan
2.11838e-05	0	0	-nan
2.14101e-05	0	0	-nan
2.14377e-05	0	0	-nan
2.15576e-05	0	0	-nan
2.17041e-05	0	0	-nan
2.17585e-05	0	0	-nan
2.19264e-05	0	0	-nan
2.2091e-05	0	0	-nan
2.22527e-05	0	0	-nan
2.22916e-05	0	0	-nan
2.2327e-05	0	0	-nan
2.23669e-05	0	0	-nan
2.2393e-05	0	0	-nan
2.25665e-05	0	0	-nan
2.25839e-05	0	0	-nan
2.26548e-05	0	0	-nan
2.26806e-05	0	0	-nan
2.26989e-05	0	0	-nan
2.2816e-05	0	0	-nan
2.28835e-05	0	0	-nan
2.28876e-05	0	0	-nan
2.29922e-05	0	0	-nan
2.32805e-05	0	0	-nan
2.35225e-05	0	0	-nan
2.35867e-05	0	0	-nan
2.35917e-05	0	0	-nan
2.36817e-05	0	0	-nan
2.37377e-05	0	0	-nan
2.37686e-05	0	0	-nan
2.39924e-05	0	0	-nan
2.40601e-05	0	0	-nan
2.42682e-05	0	0	-nan
2.43589e-05	0	0	-nan
2.44192e-05	0	0	-nan
2.45213e-05	0	0	-nan
2.4541e-05	0	0	-nan
2.45447e-05	0	0	-nan
2.47024e-05	0	0	-nan
2.47099e-05	0	0	-nan
2.49266e-05	0	0	-nan
2.50251e-05	0	0	-nan
2.52381e-05	0	0	-nan
2.55342e-05	0	0	-nan
2.55634e-05	0	0	-nan
2.56799e-05	0	0	-nan
2.57267e-05	0	0	-nan
2.57421e-05	0	0	-nan
2.58903e-05	0	0	-nan
2.63873e-05	0	0	-nan
2.65962e-05	0	0	-nan
2.66234e-05	0	0	-nan
2.67507e-05	0	0	-nan
2.67859e-05	0	0	-nan
2.70199e-05	0	0	-nan
2.74264e-05	0	0	-nan
2.76142e-05	0	0	-nan
2.77019e-05	0	0	-nan
2.77848e-05	0	0	-nan
2.79958e-05	0	0	-nan
2.8098e-05	0	0	-nan
2.82338e-05	0	0	-nan
2.82617e-05	0	0	-nan
2.85243e-05	0	0	-nan
2.85742e-05	0	0	-nan
2.85773e-05	0	0	-nan
2.86824e-05	0	0	-nan
2.86952e-05	0	0	-nan
2.87753e-05	0	0	-nan
2.90002e-05	0	0	-nan
2.9063e-05	0	0	-nan
2.9259e-05	0	0	-nan
2.94099e-05	0	0	-nan
2.95413e-05	0	0	-nan
2.98109e-05	0	0	-nan
2.98184e-05	0	0	-nan
2.98683e-05	0	0	-nan
2.9963e-05	0	0	-nan
3.02229e-05	0	0	-nan
3.02649e-05	0	0	-nan
3.03621e-05	0	0	-nan
3.06914e-05	0	0	-nan
3.07066e-05	0	0	-nan
3.07363e-05	0	0	-nan
3.10926e-05	0	0	-nan
3.1235e-05	0	0	-nan
3.12944e-05	0	0	-nan
3.13256e-05	0	0	-nan
3.13972e-05	0	0	-nan
3.14329e-05	0	0	-nan
3.14706e-05	0	0	-nan
3.18718e-05	0	0	-nan
3.21259e-05	0	0	-nan
3.21691e-05	0	0	-nan
3.22053e-05	0	0	-nan
3.22945e-05	0	0	-nan
3.23386e-05	0	0	-nan
3.23783e-05	0	0	-nan
3.26421e-05	0	0	-nan
3.29448e-05	0	0	-nan
3.30044e-05	0	0	-nan
3.30373e-05	0	0	-nan
3.31196e-05	0	0	-nan
3.40781e-05	0	0	-nan
3.42489e-05	0	0	-nan
3.42924e-05	0	0	-nan
3.44634e-05	0	0	-nan
3.46439e-05	0	0	-nan
3.46753e-05	0	0	-nan
3.47259e-05	0	0	-nan
3.4731e-05	0	0	-nan
3.47559e-05	0	0	-nan
3.4958e-05	0	0	-nan
3.5093e-05	0	0	-nan
3.5194e-05	0	0	-nan
3.52811e-05	0	0	-nan
3.56713e-05	0	0	-nan
3.58752e-05	0	0	-nan
3.58798e-05	0	0	-nan
3.58986e-05	0	0	-nan
3.59813e-05	0	0	-nan
3.60001e-05	0	0	-nan
3.60273e-05	0	0	-nan
3.60625e-05	0	0	-nan
3.6251e-05	0	0	-nan
3.63534e-05	0	0	-nan
3.65707e-05	0	0	-nan
3.66216e-05	0	0	-nan
3.67156e-05	0	0	-nan
3.69337e-05	0	0	-nan
3.69676e-05	0	0	-nan
3.70055e-05	0	0	-nan
3.70326e-05	0	0	-nan
3.70885e-05	0	0	-nan
3.72571e-05	0	0	-nan
3.73336e-05	0	0	-nan
3.74221e-05	0	0	-nan
3.75126e-05	0	0	-nan
3.7532e-05	0	0	-nan
3.75865e-05	0	0	-nan
3.75874e-05	0	0	-nan
3.80022e-05	0	0	-nan
3.84225e-05	0	0	-nan
3.84949e-05	0	0	-nan
3.8937e-05	0	0	-nan
3.90024e-05	0	0	-nan
3.90586e-05	0	0	-nan
3.91681e-05	0	0	-nan
3.92019e-05	0	0	-nan
3.92411e-05	0	0	-nan
3.93186e-05	0	0	-nan
3.94819e-05	0	0	-nan
3.96198e-05	0	0	-nan
3.98345e-05	0	0	-nan
4.01608e-05	0	0	-nan
4.03974e-05	0	0	-nan
4.04986e-05	0	0	-nan
4.08678e-05	0	0	-nan
4.09611e-05	0	0	-nan
4.11266e-05	0	0	-nan
4.12039e-05	0	0	-nan
4.12727e-05	0	0	-nan
4.15462e-05	0	0	-nan
4.17494e-05	0	0	-nan
4.18277e-05	0	0	-nan
4.19013e-05	0	0	-nan
4.20759e-05	0	0	-nan
4.20964e-05	0	0	-nan
4.23964e-05	0	0	-nan
4.27014e-05	0	0	-nan
4.27808e-05	0	0	-nan
4.29053e-05	0	0	-nan
4.29984e-05	0	0	-nan
4.31678e-05	0	0	-nan
4.32466e-05	0	0	-nan
4.34008e-05	0	0	-nan
4.36239e-05	0	0	-nan
4.36699e-05	0	0	-nan
4.37658e-05	0	0	-nan
4.40055e-05	0	0	-nan
4.42135e-05	0	0	-nan
4.43018e-05	0	0	-nan
4.4399e-05	0	0	-nan
4.44093e-05	0	0	-nan
4.45054e-05	0	0	-nan
4.45446e-05	0	0	-nan
4.45965e-05	0	0	-nan
4.46572e-05	0	0	-nan
4.47084e-05	0	0	-nan
4.49066e-05	0	0	-nan
4.5256e-05	0	0	-nan
4.53903e-05	0	0	-nan
4.54359e-05	0	0	-nan
4.55482e-05	0	0	-nan
4.55609e-05	0	0	-nan
4.5921e-05	0	0	-nan
4.59241e-05	0	0	-nan
4.60936e-05	0	0	-nan
4.61324e-05	0	0	-nan
4.62521e-05	0	0	-nan
4.62721e-05	0	0	-nan
4.62817e-05	0	0	-nan
4.63125e-05	0	0	-nan
4.69046e-05	0	0	-nan
4.69169e-05	0	0	-nan
4.70333e-05	0	0	-nan
4.72273e-05	0	0	-nan
4.77975e-05	0	0	-nan
4.80898e-05	0	0	-nan
4.82986e-05	0	0	-nan
4.84159e-05	0	0	-nan
4.87163e-05	0	0	-nan
4.88635e-05	0	0	-nan
4.90957e-05	0	0	-nan
4.92152e-05	0	0	-nan
4.94742e-05	0	0	-nan
4.95031e-05	0	0	-nan
5.03079e-05	0	0	-nan
5.03204e-05	0	0	-nan
5.0324e-05	0	0	-nan
5.04545e-05	0	0	-nan
5.07887e-05	0	0	-nan
5.0793e-05	0	0	-nan
5.09428e-05	0	0	-nan
5.09514e-05	0	0	-nan
5.09613e-05	0	0	-nan
5.11244e-05	0	0	-nan
5.15692e-05	0	0	-nan
5.16607e-05	0	0	-nan
5.17201e-05	0	0	-nan
5.18355e-05	0	0	-nan
5.18891e-05	0	0	-nan
5.20453e-05	0	0	-nan
5.21752e-05	0	0	-nan
5.28555e-05	0	0	-nan
5.3027e-05	0	0	-nan
5.30547e-05	0	0	-nan
5.3252e-05	0	0	-nan
5.33274e-05	0	0	-nan
5.33565e-05	0	0	-nan
5.33621e-05	0	0	-nan
5.34366e-05	0	0	-nan
5.385e-05	0	0	-nan
5.39779e-05	0	0	-nan
5.39919e-05	0	0	-nan
5.40111e-05	0	0	-nan
5.49417e-05	0	0	-nan
5.53643e-05	0	0	-nan
5.53645e-05	0	0	-nan
5.57868e-05	0	0	-nan
5.59013e-05	0	0	-nan
5.60923e-05	0	0	-nan
5.64277e-05	0	0	-nan
5.6527e-05	0	0	-nan
5.7337e-05	0	0	-nan
5.73461e-05	0	0	-nan
5.75552e-05	0	0	-nan
5.75619e-05	0	0	-nan
5.77108e-05	0	0	-nan
5.77353e-05	0	0	-nan
5.77811e-05	0	0	-nan
5.78444e-05	0	0	-nan
5.81066e-05	0	0	-nan
5.85003e-05	0	0	-nan
5.88567e-05	0	0	-nan
5.88801e-05	0	0	-nan
5.90422e-05	0	0	-nan
5.92157e-05	0	0	-nan
5.95097e-05	0	0	-nan
6.03976e-05	0	0	-nan
6.04133e-05	0	0	-nan
6.05624e-05	0	0	-nan
6.09835e-05	0	0	-nan
6.10786e-05	0	0	-nan
6.12255e-05	0	0	-nan
6.12845e-05	0	0	-nan
6.13551e-05	0	0	-nan
6.13893e-05	0	0	-nan
6.16385e-05	0	0	-nan
6.16478e-05	0	0	-nan
6.22335e-05	0	0	-nan
6.22471e-05	0	0	-nan
6.25138e-05	0	0	-nan
6.26016e-05	0	0	-nan
6.2793e-05	0	0	-nan
6.28804e-05	0	0	-nan
6.29463e-05	0	0	-nan
6.3134e-05	0	0	-nan
6.32537e-05	0	0	-nan
6.33011e-05	0	0	-nan
6.34602e-05	0	0	-nan
6.37034e-05	0	0	-nan
6.38138e-05	0	0	-nan
6.43677e-05	0	0	-nan
6.49203e-05	0	0	-nan
6.51772e-05	0	0	-nan
6.54768e-05	0	0	-nan
6.57737e-05	0	0	-nan
6.63756e-05	0	0	-nan
6.66279e-05	0	0	-nan
6.66294e-05	0	0	-nan
6.67012e-05	0	0	-nan
6.72791e-05	0	0	-nan
6.74329e-05	0	0	-nan
6.77676e-05	0	0	-nan
6.83477e-05	0	0	-nan
6.84539e-05	0	0	-nan
6.85019e-05	0	0	-nan
6.85539e-05	0	0	-nan
6.87193e-05	0	0	-nan
6.91288e-05	0	0	-nan
6.96168e-05	0	0	-nan
7.00684e-05	0	0	-nan
7.0527e-05	0	0	-nan
7.09124e-05	0	0	-nan
7.10643e-05	0	0	-nan
7.11274e-05	0	0	-nan
7.1657e-05	0	0	-nan
7.17028e-05	0	0	-nan
7.20875e-05	0	0	-nan
7.21429e-05	0	0	-nan
7.22228e-05	0	0	-nan
7.25276e-05	0	0	-nan
7.32666e-05	0	0	-nan
7.3363e-05	0	0	-nan
7.3793e-05	0	0	-nan
7.38477e-05	0	0	-nan
7.43055e-05	0	0	-nan
7.43635e-05	0	0	-nan
7.46003e-05	0	0	-nan
7.46465e-05	0	0	-nan
7.46696e-05	0	0	-nan
7.47645e-05	0	0	-nan
7.48267e-05	0	0	-nan
7.49081e-05	0	0	-nan
7.50636e-05	0	0	-nan
7.52524e-05	0	0	-nan
7.53074e-05	0	0	-nan
7.54016e-05	0	0	-nan
7.54123e-05	0	0	-nan
7.54865e-05	0	0	-nan
7.56416e-05	0	0	-nan
7.60604e-05	0	0	-nan
7.6197e-05	0	0	-nan
7.62093e-05	0	0	-nan
7.63061e-05	0	0	-nan
7.6505e-05	0	0	-nan
7.67433e-05	0	0	-nan
7.68878e-05	0	0	-nan
7.70905e-05	0	0	-nan
7.73836e-05	0	0	-nan
7.74174e-05	0	0	-nan
7.78352e-05	0	0	-nan
7.80135e-05	0	0	-nan
7.81026e-05	0	0	-nan
7.81638e-05	0	0	-nan
7.82595e-05	0	0	-nan
7.83259e-05	0	0	-nan
7.83582e-05	0	0	-nan
7.85356e-05	0	0	-nan
7.85709e-05	0	0	-nan
7.90355e-05	0	0	-nan
7.91349e-05	0	0	-nan
7.92255e-05	0	0	-nan
7.93141e-05	0	0	-nan
7.99239e-05	0	0	-nan
7.99539e-05	0	0	-nan
8.00012e-05	0	0	-nan
8.01873e-05	0	0	-nan
8.02331e-05	0	0	-nan
8.08076e-05	0	0	-nan
8.10807e-05	0	0	-nan
8.12372e-05	0	0	-nan
8.17412e-05	0	0	-nan
8.20219e-05	0	0	-nan
8.22835e-05	0	0	-nan
8.29076e-05	0	0	-nan
8.29104e-05	0	0	-nan
8.2938e-05	0	0	-nan
8.34073e-05	0	0	-nan
8.35376e-05	0	0	-nan
8.37406e-05	0	0	-nan
8.45098e-05	0	0	-nan
8.4909e-05	0	0	-nan
8.50709e-05	0	0	-nan
8.65147e-05	0	0	-nan
8.66897e-05	0	0	-nan
8.81791e-05	0	0	-nan
8.82579e-05	0	0	-nan
8.85499e-05	0	0	-nan
8.87645e-05	0	0	-nan
8.91366e-05	0	0	-nan
8.93011e-05	0	0	-nan
8.93325e-05	0	0	-nan
8.95575e-05	0	0	-nan
9.07557e-05	0	0	-nan
9.10474e-05	0	0	-nan
9.11531e-05	0	0	-nan
9.11771e-05	0	0	-nan
9.17246e-05	0	0	-nan
9.18307e-05	0	0	-nan
9.1886e-05	0	0	-nan
9.19302e-05	0	0	-nan
9.20104e-05	0	0	-nan
9.27194e-05	0	0	-nan
9.2802e-05	0	0	-nan
9.28276e-05	0	0	-nan
9.29002e-05	0	0	-nan
9.33645e-05	0	0	-nan
9.35346e-05	0	0	-nan
9.37046e-05	0	0	-nan
9.37446e-05	0	0	-nan
9.37719e-05	0	0	-nan
9.38088e-05	0	0	-nan
9.45995e-05	0	0	-nan
9.46701e-05	0	0	-nan
9.49543e-05	0	0	-nan
9.5665e-05	0	0	-nan
9.57048e-05	0	0	-nan
9.57653e-05	0	0	-nan
9.58554e-05	0	0	-nan
9.69843e-05	0	0	-nan
9.70795e-05	0	0	-nan
9.7453e-05	0	0	-nan
9.75726e-05	0	0	-nan
9.82439e-05	0	0	-nan
9.85549e-05	0	0	-nan
9.86468e-05	0	0	-nan
9.91223e-05	0	0	-nan
9.92342e-05	0	0	-nan
9.92382e-05	0	0	-nan
9.93122e-05	0	0	-nan
9.9651e-05	0	0	-nan
9.99603e-05	0	0	-nan
0.000100484	0	0	-nan
0.000100523	0	0	-nan
0.000100862	0	0	-nan
0.000101789	0	0	-nan
0.000101852	0	0	-nan
0.000102028	0	0	-nan
0.000102173	0	0	-nan
0.000102332	0	0	-nan
0.000102464	0	0	-nan
0.000102577	0	0	-nan
0.000102812	0	0	-nan
0.000102897	0	0	-nan
0.000102933	0	0	-nan
0.000103837	0	0	-nan
0.000103939	0	0	-nan
0.000104126	0	0	-nan
0.000104138	0	0	-nan
0.000104275	0	0	-nan
0.000104326	0	0	-nan
0.000105134	0	0	-nan
0.000105316	0	0	-nan
0.000105411	0	0	-nan
0.00010561	0	0	-nan
0.00010626	0	0	-nan
0.000106523	0	0	-nan
0.000106562	0	0	-nan
0.000106889	0	0	-nan
0.000106944	0	0	-nan
0.00010727	0	0	-nan
0.000107362	0	0	-nan
0.000107534	0	0	-nan
0.000107688	0	0	-nan
0.000108155	0	0	-nan
0.00010839	0	0	-nan
0.000109846	0	0	-nan
0.000110699	0	0	-nan
0.000110749	0	0	-nan
0.000111093	0	0	-nan
0.000111429	0	0	-nan
0.000112264	0	0	-nan
0.000112663	0	0	-nan
0.000113033	0	0	-nan
0.000113993	0	0	-nan
0.000114522	0	0	-nan
0.000115041	0	0	-nan
0.000115132	0	0	-nan
0.000115416	0	0	-nan
0.000115462	0	0	-nan
0.000115854	0	0	-nan
0.000115859	0	0	-nan
0.000115917	0	0	-nan
0.000117527	0	0	-nan
0.000117596	0	0	-nan
0.000117881	0	0	-nan
0.000118416	0	0	-nan
0.000118477	0	0	-nan
0.000119	0	0	-nan
0.000119049	0	0	-nan
0.000119259	0	0	-nan
0.000119296	0	0	-nan
0.000119978	0	0	-nan
0.000120089	0	0	-nan
0.000120192	0	0	-nan
0.000120565	0	0	-nan
0.000120928	0	0	-nan
0.000121191	0	0	-nan
0.000121408	0	0	-nan
0.00012146	0	0	-nan
0.000123062	0	0	-nan
0.00012349	0	0	-nan
0.000124288	0	0	-nan
0.000125196	0	0	-nan
0.000125696	0	0	-nan
0.000125728	0	0	-nan
0.000125882	0	0	-nan
0.00012643	0	0	-nan
0.000126703	0	0	-nan
0.000127199	0	0	-nan
0.000127691	0	0	-nan
0.000127725	0	0	-nan
0.00012781	0	0	-nan
0.000127831	0	0	-nan
0.000128579	0	0	-nan
0.000128752	0	0	-nan
0.000128988	0	0	-nan
0.000129082	0	0	-nan
0.000129087	0	0	-nan
0.000129128	0	0	-nan
0.000129298	0	0	-nan
0.000129405	0	0	-nan
0.000129638	0	0	-nan
0.000130001	0	0	-nan
0.000130103	0	0	-nan
0.000130265	0	0	-nan
0.000130445	0	0	-nan
0.000130952	0	0	-nan
0.000131073	0	0	-nan
0.000131427	0	0	-nan
0.000132412	0	0	-nan
0.000132681	0	0	-nan
0.000133693	0	0	-nan
0.000133766	0	0	-nan
0.000133955	0	0	-nan
0.000134936	0	0	-nan
0.000135224	0	0	-nan
0.000136095	0	0	-nan
0.000138098	0	0	-nan
0.000138173	0	0	-nan
0.000138222	0	0	-nan
0.000138238	0	0	-nan
0.000138333	0	0	-nan
0.000138659	0	0	-nan
0.000139039	0	0	-nan
0.000139786	0	0	-nan
0.000141016	0	0	-nan
0.000141976	0	0	-nan
0.00014208	0	0	-nan
0.000142543	0	0	-nan
0.000142867	0	0	-nan
0.00014323	0	0	-nan
0.000143719	0	0	-nan
0.000144115	0	0	-nan
0.000144195	0	0	-nan
0.000144491	0	0	-nan
0.000145109	0	0	-nan
0.000145259	0	0	-nan
0.000145928	0	0	-nan
0.000147027	0	0	-nan
0.000147473	0	0	-nan
0.000148046	0	0	-nan
0.000148817	0	0	-nan
0.000149022	0	0	-nan
0.000149889	0	0	-nan
0.000150029	0	0	-nan
0.000150376	0	0	-nan
0.00015269	0	0	-nan
0.000152803	0	0	-nan
0.000153402	0	0	-nan
0.000153403	0	0	-nan
0.000153455	0	0	-nan
0.000154188	0	0	-nan
0.000154477	0	0	-nan
0.000154515	0	0	-nan
0.000155128	0	0	-nan
0.00015614	0	0	-nan
0.000156492	0	0	-nan
0.000156559	0	0	-nan
0.000156854	0	0	-nan
0.000156975	0	0	-nan
0.000157099	0	0	-nan
0.00015713	0	0	-nan
0.000157583	0	0	-nan
0.000157717	0	0	-nan
0.000157918	0	0	-nan
0.000158363	0	0	-nan
0.000159049	0	0	-nan
0.000160257	0	0	-nan
0.000160333	0	0	-nan
0.00016046	0	0	-nan
0.000161227	0	0	-nan
0.000162507	0	0	-nan
0.000163034	0	0	-nan
0.000164362	0	0	-nan
0.0001646	0	0	-nan
0.000165171	0	0	-nan
0.000165718	0	0	-nan
0.000166472	0	0	-nan
0.000166842	0	0	-nan
0.000169018	0	0	-nan
0.000169106	0	0	-nan
0.000169163	0	0	-nan
0.000169197	0	0	-nan
0.000169354	0	0	-nan
0.00016947	0	0	-nan
0.000169649	0	0	-nan
0.000170855	0	0	-nan
0.000172776	0	0	-nan
0.00017355	0	0	-nan
0.000174917	0	0	-nan
0.00017492	0	0	-nan
0.000175071	0	0	-nan
0.0001756	0	0	-nan
0.0001763	0	0	-nan
0.000176911	0	0	-nan
0.000177687	0	0	-nan
0.00017872	0	0	-nan
0.000179254	0	0	-nan
0.000179355	0	0	-nan
0.000179606	0	0	-nan
0.000179959	0	0	-nan
0.000180114	0	0	-nan
0.000181201	0	0	-nan
0.000182007	0	0	-nan
0.0001834	0	0	-nan
0.000183799	0	0	-nan
0.000185015	0	0	-nan
0.000185131	0	0	-nan
0.00018542	0	0	-nan
0.000186031	0	0	-nan
0.000186619	0	0	-nan
0.00018773	0	0	-nan
0.000188572	0	0	-nan
0.000188671	0	0	-nan
0.000188722	0	0	-nan
0.000190622	0	0	-nan
0.000191722	0	0	-nan
0.000192152	0	0	-nan
0.000192718	0	0	-nan
0.000192944	0	0	-nan
0.000193345	0	0	-nan
0.000193727	0	0	-nan
0.0001938	0	0	-nan
0.000194199	0	0	-nan
0.000194824	0	0	-nan
0.000194828	0	0	-nan
0.000196787	0	0	-nan
0.000197706	0	0	-nan
0.000198012	0	0	-nan
0.000198985	0	0	-nan
0.000199104	0	0	-nan
0.000199538	0	0	-nan
0.000199582	0	0	-nan
0.000200194	0	0	-nan
0.000201116	0	0	-nan
0.000201175	0	0	-nan
0.000201452	0	0	-nan
0.000201938	0	0	-nan
0.000203354	0	0	-nan
0.000204192	0	0	-nan
0.000204478	0	0	-nan
0.000204609	0	0	-nan
0.000206133	0	0	-nan
0.000206288	0	0	-nan
0.000206741	0	0	-nan
0.000207673	0	0	-nan
0.000208169	0	0	-nan
0.000208946	0	0	-nan
0.000209479	0	0	-nan
0.000209542	0	0	-nan
0.000211415	0	0	-nan
0.000211499	0	0	-nan
0.000211524	0	0	-nan
0.000212324	0	0	-nan
0.000213039	0	0	-nan
0.000213167	0	0	-nan
0.000213471	0	0	-nan
0.000213585	0	0	-nan
0.000217002	0	0	-nan
0.000218846	0	0	-nan
0.000220214	0	0	-nan
0.000222392	0	0	-nan
0.00022343	0	0	-nan
0.00022413	0	0	-nan
0.000226264	0	0	-nan
0.00022747	0	0	-nan
0.000228181	0	0	-nan
0.00022892	0	0	-nan
0.000229454	0	0	-nan
0.000230477	0	0	-nan
0.000231391	0	0	-nan
0.000231439	0	0	-nan
0.000231675	0	0	-nan
0.000231742	0	0	-nan
0.000233436	0	0	-nan
0.000233728	0	0	-nan
0.000235047	0	0	-nan
0.000235569	0	0	-nan
0.000235673	0	0	-nan
0.000235902	0	0	-nan
0.000238135	0	0	-nan
0.000240152	0	0	-nan
0.000241432	0	0	-nan
0.000242915	0	0	-nan
0.000243574	0	0	-nan
0.000244643	0	0	-nan
0.000245081	0	0	-nan
0.000246022	0	0	-nan
0.000246383	0	0	-nan
0.000247718	0	0	-nan
0.000249006	0	0	-nan
0.0002491	0	0	-nan
0.000252984	0	0	-nan
0.000253946	0	0	-nan
0.000254837	0	0	-nan
0.000255833	0	0	-nan
0.000257941	0	0	-nan
0.000258366	0	0	-nan
0.00025841	0	0	-nan
0.000258664	0	0	-nan
0.000258786	0	0	-nan
0.000259072	0	0	-nan
0.000259238	0	0	-nan
0.000259501	0	0	-nan
0.000262284	0	0	-nan
0.000263066	0	0	-nan
0.000264389	0	0	-nan
0.00026602	0	0	-nan
0.000267828	0	0	-nan
0.000267993	0	0	-nan
0.000268157	0	0	-nan
0.000269181	0	0	-nan
0.000273974	0	0	-nan
0.000274919	0	0	-nan
0.000277826	0	0	-nan
0.000279364	0	0	-nan
0.00028077	0	0	-nan
0.000281096	0	0	-nan
0.000282315	0	0	-nan
0.000283316	0	0	-nan
0.000283588	0	0	-nan
0.000283692	0	0	-nan
0.0002852	0	0	-nan
0.000285358	0	0	-nan
0.000286004	0	0	-nan
0.000286233	0	0	-nan
0.000288347	0	0	-nan
0.00028949	0	0	-nan
0.0002905	0	0	-nan
0.000291117	0	0	-nan
0.000293363	0	0	-nan
0.000293472	0	0	-nan
0.000293791	0	0	-nan
0.000294701	0	0	-nan
0.000295745	0	0	-nan
0.000296604	0	0	-nan
0.000298132	0	0	-nan
0.00029857	0	0	-nan
0.000302829	0	0	-nan
0.000303514	0	0	-nan
0.000304883	0	0	-nan
0.00030491	0	0	-nan
0.000305425	0	0	-nan
0.000305629	0	0	-nan
0.000306612	0	0	-nan
0.000307173	0	0	-nan
0.000307606	0	0	-nan
0.000308588	0	0	-nan
0.000309589	0	0	-nan
0.000310477	0	0	-nan
0.000311794	0	0	-nan
0.00031218	0	0	-nan
0.000312951	0	0	-nan
0.000314318	0	0	-nan
0.000314488	0	0	-nan
0.000316447	0	0	-nan
0.000316469	0	0	-nan
0.000316586	0	0	-nan
0.000317173	0	0	-nan
0.000319285	0	0	-nan
0.000319768	0	0	-nan
0.000320021	0	0	-nan
0.000321737	0	0	-nan
0.000323015	0	0	-nan
0.000323016	0	0	-nan
0.00032329	0	0	-nan
0.000323496	0	0	-nan
0.000325616	0	0	-nan
0.000326876	0	0	-nan
0.000327014	0	0	-nan
0.000327965	0	0	-nan
0.000330008	0	0	-nan
0.000330796	0	0	-nan
0.000331565	0	0	-nan
0.000331965	0	0	-nan
0.000332048	0	0	-nan
0.000333942	0	0	-nan
0.000335983	0	0	-nan
0.00034101	0	0	-nan
0.000343266	0	0	-nan
0.000343989	0	0	-nan
0.000344428	0	0	-nan
0.000349293	0	0	-nan
0.000349622	0	0	-nan
0.000352606	0	0	-nan
0.000353533	0	0	-nan
0.000357484	0	0	-nan
0.000357771	0	0	-nan
0.000358642	0	0	-nan
0.000360586	0	0	-nan
0.000360595	0	0	-nan
0.000362094	0	0	-nan
0.000362381	0	0	-nan
0.000363176	0	0	-nan
0.000363468	0	0	-nan
0.000368991	0	0	-nan
0.000372902	0	0	-nan
0.000374395	0	0	-nan
0.000378124	0	0	-nan
0.000379566	0	0	-nan
0.000380419	0	0	-nan
0.00038268	0	0	-nan
0.0003831	0	0	-nan
0.000383783	0	0	-nan
0.0003871	0	0	-nan
0.000388449	0	0	-nan
0.000388766	0	0	-nan
0.00038964	0	0	-nan
0.000393657	0	0	-nan
0.000394465	0	0	-nan
0.000394943	0	0	-nan
0.00039628	0	0	-nan
0.000398259	0	0	-nan
0.00040058	0	0	-nan
0.000402052	0	0	-nan
0.000402874	0	0	-nan
0.000403909	0	0	-nan
0.000405818	0	0	-nan
0.000409874	0	0	-nan
0.000410609	0	0	-nan
0.000413317	0	0	-nan
0.000414359	0	0	-nan
0.000414638	0	0	-nan
0.000418663	0	0	-nan
0.000421095	0	0	-nan
0.000421103	0	0	-nan
0.000423645	0	0	-nan
0.000423647	0	0	-nan
0.00042531	0	0	-nan
0.000426387	0	0	-nan
0.000429582	0	0	-nan
0.000430327	0	0	-nan
0.00043389	0	0	-nan
0.000437571	0	0	-nan
0.000438336	0	0	-nan
0.000443106	0	0	-nan
0.000443994	0	0	-nan
0.000447316	0	0	-nan
0.000452887	0	0	-nan
0.000454689	0	0	-nan
0.000456143	0	0	-nan
0.000458512	0	0	-nan
0.000459472	0	0	-nan
0.000460609	0	0	-nan
0.000462339	0	0	-nan
0.000462495	0	0	-nan
0.000463096	0	0	-nan
0.000465125	0	0	-nan
0.000472376	0	0	-nan
0.000475636	0	0	-nan
0.00047697	0	0	-nan
0.000478131	0	0	-nan
0.00047816	0	0	-nan
0.000478527	0	0	-nan
0.0004788	0	0	-nan
0.000480549	0	0	-nan
0.000483751	0	0	-nan
0.000485465	0	0	-nan
0.000491678	0	0	-nan
0.000491769	0	0	-nan
0.000492065	0	0	-nan
0.000496171	0	0	-nan
0.000499399	0	0	-nan
0.000499459	0	0	-nan
0.000499795	0	0	-nan
0.000504293	0	0	-nan
0.000509176	0	0	-nan
0.000510259	0	0	-nan
0.000510605	0	0	-nan
0.000511645	0	0	-nan
0.000514055	0	0	-nan
0.000517759	0	0	-nan
0.000521103	0	0	-nan
0.000524137	0	0	-nan
0.000526831	0	0	-nan
0.000528759	0	0	-nan
0.000537935	0	0	-nan
0.000542101	0	0	-nan
0.00054261	0	0	-nan
0.000544121	0	0	-nan
0.000552146	0	0	-nan
0.000555759	0	0	-nan
0.000561727	0	0	-nan
0.000565147	0	0	-nan
0.000569238	0	0	-nan
0.000575547	0	0	-nan
0.00057676	0	0	-nan
0.000578011	0	0	-nan
0.000582818	0	0	-nan
0.000584945	0	0	-nan
0.00059455	0	0	-nan
0.000594874	0	0	-nan
0.000600479	0	0	-nan
0.000601465	0	0	-nan
0.000603906	0	0	-nan
0.000605899	0	0	-nan
0.000615979	0	0	-nan
0.000619022	0	0	-nan
0.000631855	0	0	-nan
0.000636428	0	0	-nan
0.000637679	0	0	-nan
0.000638672	0	0	-nan
0.000642538	0	0	-nan
0.00064523	0	0	-nan
0.000647902	0	0	-nan
0.000655812	0	0	-nan
0.000656524	0	0	-nan
0.000658923	0	0	-nan
0.000662018	0	0	-nan
0.000666277	0	0	-nan
0.000677245	0	0	-nan
0.000679657	0	0	-nan
0.000689527	0	0	-nan
0.000691475	0	0	-nan
0.000692593	0	0	-nan
0.000704298	0	0	-nan
0.000709151	0	0	-nan
0.000709894	0	0	-nan
0.000718482	0	0	-nan
0.000721225	0	0	-nan
0.000730929	0	0	-nan
0.000733502	0	0	-nan
0.000740869	0	0	-nan
0.000743072	0	0	-nan
0.000743393	0	0	-nan
0.000743681	0	0	-nan
0.000749666	0	0	-nan
0.000766768	0	0	-nan
0.000770556	0	0	-nan
0.000770664	0	0	-nan
0.000773229	0	0	-nan
0.000782475	0	0	-nan
0.00078249	0	0	-nan
0.000785414	0	0	-nan
0.000788536	0	0	-nan
0.000791743	0	0	-nan
0.000792104	0	0	-nan
0.00079437	0	0	-nan
0.000810975	0	0	-nan
0.000819028	0	0	-nan
0.000822942	0	0	-nan
0.000825355	0	0	-nan
0.000832506	0	0	-nan
0.000844206	0	0	-nan
0.00084869	0	0	-nan
0.000851487	0	0	-nan
0.000863957	0	0	-nan
0.00086456	0	0	-nan
0.000869231	0	0	-nan
0.000884318	0	0	-nan
0.000899396	0	0	-nan
0.000916261	0	0	-nan
0.000924006	0	0	-nan
0.000931124	0	0	-nan
0.000987673	0	0	-nan
0.00108047	0	0	-nan
0.00109016	0	0	-nan
0.00113736	0	0	-nan
0.00114031	0	0	-nan
0.00117867	0	0	-nan
0.00146921	0	0	-nan
0.00181838	0	0	-nan
