3.35212e-08	0	0	-nan
1.18951e-07	0	0	-nan
1.46555e-07	0	0	-nan
1.76063e-07	0	0	-nan
3.67389e-07	0	0	-nan
4.74505e-07	0	0	-nan
4.86054e-07	0	0	-nan
5.23909e-07	0	0	-nan
6.81092e-07	0	0	-nan
7.19056e-07	0	0	-nan
7.85128e-07	0	0	-nan
9.37645e-07	0	0	-nan
9.61381e-07	0	0	-nan
1.00082e-06	0	0	-nan
1.08569e-06	0	0	-nan
1.09922e-06	0	0	-nan
1.14255e-06	0	0	-nan
1.16167e-06	0	0	-nan
1.20123e-06	0	0	-nan
1.25156e-06	0	0	-nan
1.31434e-06	0	0	-nan
1.34802e-06	0	0	-nan
1.5064e-06	0	0	-nan
1.55889e-06	0	0	-nan
1.58858e-06	0	0	-nan
1.63337e-06	0	0	-nan
1.69665e-06	0	0	-nan
1.7131e-06	0	0	-nan
1.7161e-06	0	0	-nan
1.82713e-06	0	0	-nan
1.93352e-06	0	0	-nan
2.03104e-06	0	0	-nan
2.18204e-06	0	0	-nan
2.26667e-06	0	0	-nan
2.35819e-06	0	0	-nan
2.41054e-06	0	0	-nan
2.42078e-06	0	0	-nan
2.54568e-06	0	0	-nan
2.57832e-06	0	0	-nan
2.58585e-06	0	0	-nan
2.71731e-06	0	0	-nan
2.84632e-06	0	0	-nan
2.92619e-06	0	0	-nan
3.02968e-06	0	0	-nan
3.06364e-06	0	0	-nan
3.13223e-06	0	0	-nan
3.17214e-06	0	0	-nan
3.18955e-06	0	0	-nan
3.22183e-06	0	0	-nan
3.27832e-06	0	0	-nan
3.30442e-06	0	0	-nan
3.34186e-06	0	0	-nan
3.34407e-06	0	0	-nan
3.38855e-06	0	0	-nan
3.44837e-06	0	0	-nan
3.49333e-06	0	0	-nan
3.54504e-06	0	0	-nan
3.697e-06	0	0	-nan
3.73471e-06	0	0	-nan
3.87832e-06	0	0	-nan
3.92851e-06	0	0	-nan
3.97862e-06	0	0	-nan
4.27358e-06	0	0	-nan
4.33644e-06	0	0	-nan
4.42017e-06	0	0	-nan
4.5431e-06	0	0	-nan
4.64061e-06	0	0	-nan
4.68697e-06	0	0	-nan
4.69167e-06	0	0	-nan
4.82238e-06	0	0	-nan
4.97956e-06	0	0	-nan
5.06143e-06	0	0	-nan
5.08357e-06	0	0	-nan
5.09534e-06	0	0	-nan
5.18471e-06	0	0	-nan
5.27753e-06	0	0	-nan
5.53767e-06	0	0	-nan
5.59015e-06	0	0	-nan
6.05621e-06	0	0	-nan
6.07398e-06	0	0	-nan
6.13257e-06	0	0	-nan
6.20828e-06	0	0	-nan
6.27808e-06	0	0	-nan
6.30744e-06	0	0	-nan
6.34491e-06	0	0	-nan
6.40791e-06	0	0	-nan
6.4185e-06	0	0	-nan
6.49731e-06	0	0	-nan
6.51171e-06	0	0	-nan
6.71206e-06	0	0	-nan
6.88372e-06	0	0	-nan
6.88506e-06	0	0	-nan
6.91824e-06	0	0	-nan
6.97127e-06	0	0	-nan
6.97335e-06	0	0	-nan
7.01437e-06	0	0	-nan
7.11279e-06	0	0	-nan
7.13683e-06	0	0	-nan
7.19734e-06	0	0	-nan
7.21637e-06	0	0	-nan
7.2503e-06	0	0	-nan
7.26045e-06	0	0	-nan
7.36017e-06	0	0	-nan
7.45803e-06	0	0	-nan
7.50428e-06	0	0	-nan
7.55139e-06	0	0	-nan
7.73356e-06	0	0	-nan
7.75103e-06	0	0	-nan
7.8415e-06	0	0	-nan
8.08446e-06	0	0	-nan
8.11544e-06	0	0	-nan
8.12192e-06	0	0	-nan
8.20408e-06	0	0	-nan
8.23353e-06	0	0	-nan
8.29921e-06	0	0	-nan
8.31024e-06	0	0	-nan
8.31415e-06	0	0	-nan
8.32893e-06	0	0	-nan
8.33673e-06	0	0	-nan
8.4899e-06	0	0	-nan
8.56559e-06	0	0	-nan
8.68761e-06	0	0	-nan
8.777e-06	0	0	-nan
9.09332e-06	0	0	-nan
9.43862e-06	0	0	-nan
9.44535e-06	0	0	-nan
9.52928e-06	0	0	-nan
9.53095e-06	0	0	-nan
9.53764e-06	0	0	-nan
9.58227e-06	0	0	-nan
9.6391e-06	0	0	-nan
9.68271e-06	0	0	-nan
9.69267e-06	0	0	-nan
9.78082e-06	0	0	-nan
9.87441e-06	0	0	-nan
9.93886e-06	0	0	-nan
1.00725e-05	0	0	-nan
1.02278e-05	0	0	-nan
1.02763e-05	0	0	-nan
1.03812e-05	0	0	-nan
1.07016e-05	0	0	-nan
1.08395e-05	0	0	-nan
1.08721e-05	0	0	-nan
1.09045e-05	0	0	-nan
1.09195e-05	0	0	-nan
1.09361e-05	0	0	-nan
1.09499e-05	0	0	-nan
1.09712e-05	0	0	-nan
1.09912e-05	0	0	-nan
1.10797e-05	0	0	-nan
1.11631e-05	0	0	-nan
1.14109e-05	0	0	-nan
1.1484e-05	0	0	-nan
1.15266e-05	0	0	-nan
1.15439e-05	0	0	-nan
1.16622e-05	0	0	-nan
1.17025e-05	0	0	-nan
1.2351e-05	0	0	-nan
1.24545e-05	0	0	-nan
1.24657e-05	0	0	-nan
1.26494e-05	0	0	-nan
1.26632e-05	0	0	-nan
1.27971e-05	0	0	-nan
1.28507e-05	0	0	-nan
1.29129e-05	0	0	-nan
1.2936e-05	0	0	-nan
1.30189e-05	0	0	-nan
1.30554e-05	0	0	-nan
1.30878e-05	0	0	-nan
1.32464e-05	0	0	-nan
1.34714e-05	0	0	-nan
1.34933e-05	0	0	-nan
1.3807e-05	0	0	-nan
1.42729e-05	0	0	-nan
1.42948e-05	0	0	-nan
1.43524e-05	0	0	-nan
1.43761e-05	0	0	-nan
1.44247e-05	0	0	-nan
1.44293e-05	0	0	-nan
1.45726e-05	0	0	-nan
1.45865e-05	0	0	-nan
1.47812e-05	0	0	-nan
1.48889e-05	0	0	-nan
1.4989e-05	0	0	-nan
1.52214e-05	0	0	-nan
1.52262e-05	0	0	-nan
1.52433e-05	0	0	-nan
1.5255e-05	0	0	-nan
1.56952e-05	0	0	-nan
1.57256e-05	0	0	-nan
1.57758e-05	0	0	-nan
1.58521e-05	0	0	-nan
1.60305e-05	0	0	-nan
1.61334e-05	0	0	-nan
1.62897e-05	0	0	-nan
1.63189e-05	0	0	-nan
1.64985e-05	0	0	-nan
1.66097e-05	0	0	-nan
1.68236e-05	0	0	-nan
1.68513e-05	0	0	-nan
1.70641e-05	0	0	-nan
1.72109e-05	0	0	-nan
1.72989e-05	0	0	-nan
1.74618e-05	0	0	-nan
1.75552e-05	0	0	-nan
1.7558e-05	0	0	-nan
1.75626e-05	0	0	-nan
1.78236e-05	0	0	-nan
1.79286e-05	0	0	-nan
1.79303e-05	0	0	-nan
1.7962e-05	0	0	-nan
1.80843e-05	0	0	-nan
1.82748e-05	0	0	-nan
1.84508e-05	0	0	-nan
1.85693e-05	0	0	-nan
1.87327e-05	0	0	-nan
1.88146e-05	0	0	-nan
1.88768e-05	0	0	-nan
1.89077e-05	0	0	-nan
1.89184e-05	0	0	-nan
1.89791e-05	0	0	-nan
1.9108e-05	0	0	-nan
1.9207e-05	0	0	-nan
1.92848e-05	0	0	-nan
1.93689e-05	0	0	-nan
1.93708e-05	0	0	-nan
1.93714e-05	0	0	-nan
1.96407e-05	0	0	-nan
1.97463e-05	0	0	-nan
1.98912e-05	0	0	-nan
2.01869e-05	0	0	-nan
2.02031e-05	0	0	-nan
2.02267e-05	0	0	-nan
2.03031e-05	0	0	-nan
2.05078e-05	0	0	-nan
2.054e-05	0	0	-nan
2.07937e-05	0	0	-nan
2.09292e-05	0	0	-nan
2.11492e-05	0	0	-nan
2.13209e-05	0	0	-nan
2.13527e-05	0	0	-nan
2.13876e-05	0	0	-nan
2.15786e-05	0	0	-nan
2.1614e-05	0	0	-nan
2.16518e-05	0	0	-nan
2.16973e-05	0	0	-nan
2.17372e-05	0	0	-nan
2.19166e-05	0	0	-nan
2.2018e-05	0	0	-nan
2.20748e-05	0	0	-nan
2.21311e-05	0	0	-nan
2.21703e-05	0	0	-nan
2.2185e-05	0	0	-nan
2.22558e-05	0	0	-nan
2.22991e-05	0	0	-nan
2.24676e-05	0	0	-nan
2.24924e-05	0	0	-nan
2.25179e-05	0	0	-nan
2.25199e-05	0	0	-nan
2.29374e-05	0	0	-nan
2.30105e-05	0	0	-nan
2.30304e-05	0	0	-nan
2.33915e-05	0	0	-nan
2.34782e-05	0	0	-nan
2.35333e-05	0	0	-nan
2.37365e-05	0	0	-nan
2.39378e-05	0	0	-nan
2.39475e-05	0	0	-nan
2.41104e-05	0	0	-nan
2.41876e-05	0	0	-nan
2.44769e-05	0	0	-nan
2.48317e-05	0	0	-nan
2.4909e-05	0	0	-nan
2.50879e-05	0	0	-nan
2.509e-05	0	0	-nan
2.50974e-05	0	0	-nan
2.5126e-05	0	0	-nan
2.51654e-05	0	0	-nan
2.51912e-05	0	0	-nan
2.52467e-05	0	0	-nan
2.54871e-05	0	0	-nan
2.55393e-05	0	0	-nan
2.57654e-05	0	0	-nan
2.58526e-05	0	0	-nan
2.59067e-05	0	0	-nan
2.59607e-05	0	0	-nan
2.6118e-05	0	0	-nan
2.62849e-05	0	0	-nan
2.64792e-05	0	0	-nan
2.65481e-05	0	0	-nan
2.70592e-05	0	0	-nan
2.70884e-05	0	0	-nan
2.71377e-05	0	0	-nan
2.7323e-05	0	0	-nan
2.7413e-05	0	0	-nan
2.78025e-05	0	0	-nan
2.79021e-05	0	0	-nan
2.79071e-05	0	0	-nan
2.81462e-05	0	0	-nan
2.81524e-05	0	0	-nan
2.81736e-05	0	0	-nan
2.84491e-05	0	0	-nan
2.89381e-05	0	0	-nan
2.92504e-05	0	0	-nan
2.94202e-05	0	0	-nan
2.94583e-05	0	0	-nan
3.00508e-05	0	0	-nan
3.01501e-05	0	0	-nan
3.02024e-05	0	0	-nan
3.04239e-05	0	0	-nan
3.05358e-05	0	0	-nan
3.08085e-05	0	0	-nan
3.0918e-05	0	0	-nan
3.09477e-05	0	0	-nan
3.09776e-05	0	0	-nan
3.11056e-05	0	0	-nan
3.12245e-05	0	0	-nan
3.12981e-05	0	0	-nan
3.18041e-05	0	0	-nan
3.18239e-05	0	0	-nan
3.18779e-05	0	0	-nan
3.23034e-05	0	0	-nan
3.23082e-05	0	0	-nan
3.23212e-05	0	0	-nan
3.24026e-05	0	0	-nan
3.24315e-05	0	0	-nan
3.25455e-05	0	0	-nan
3.27543e-05	0	0	-nan
3.28025e-05	0	0	-nan
3.29032e-05	0	0	-nan
3.29632e-05	0	0	-nan
3.33231e-05	0	0	-nan
3.34608e-05	0	0	-nan
3.35218e-05	0	0	-nan
3.3653e-05	0	0	-nan
3.36973e-05	0	0	-nan
3.38113e-05	0	0	-nan
3.38599e-05	0	0	-nan
3.39919e-05	0	0	-nan
3.40249e-05	0	0	-nan
3.42205e-05	0	0	-nan
3.43946e-05	0	0	-nan
3.44896e-05	0	0	-nan
3.45852e-05	0	0	-nan
3.48537e-05	0	0	-nan
3.49253e-05	0	0	-nan
3.50134e-05	0	0	-nan
3.52495e-05	0	0	-nan
3.55437e-05	0	0	-nan
3.56746e-05	0	0	-nan
3.62384e-05	0	0	-nan
3.63798e-05	0	0	-nan
3.64341e-05	0	0	-nan
3.64446e-05	0	0	-nan
3.64708e-05	0	0	-nan
3.69002e-05	0	0	-nan
3.71932e-05	0	0	-nan
3.75153e-05	0	0	-nan
3.7644e-05	0	0	-nan
3.76544e-05	0	0	-nan
3.78076e-05	0	0	-nan
3.7815e-05	0	0	-nan
3.78415e-05	0	0	-nan
3.78848e-05	0	0	-nan
3.79456e-05	0	0	-nan
3.79941e-05	0	0	-nan
3.79964e-05	0	0	-nan
3.81033e-05	0	0	-nan
3.82599e-05	0	0	-nan
3.85447e-05	0	0	-nan
3.85739e-05	0	0	-nan
3.8971e-05	0	0	-nan
3.9067e-05	0	0	-nan
3.90894e-05	0	0	-nan
3.90988e-05	0	0	-nan
3.9136e-05	0	0	-nan
3.96331e-05	0	0	-nan
3.97167e-05	0	0	-nan
3.99217e-05	0	0	-nan
3.99382e-05	0	0	-nan
3.99575e-05	0	0	-nan
4.01814e-05	0	0	-nan
4.03995e-05	0	0	-nan
4.06132e-05	0	0	-nan
4.07661e-05	0	0	-nan
4.08528e-05	0	0	-nan
4.08622e-05	0	0	-nan
4.09605e-05	0	0	-nan
4.13441e-05	0	0	-nan
4.16138e-05	0	0	-nan
4.17478e-05	0	0	-nan
4.21579e-05	0	0	-nan
4.24728e-05	0	0	-nan
4.25341e-05	0	0	-nan
4.26475e-05	0	0	-nan
4.30856e-05	0	0	-nan
4.31504e-05	0	0	-nan
4.31779e-05	0	0	-nan
4.33386e-05	0	0	-nan
4.35361e-05	0	0	-nan
4.38575e-05	0	0	-nan
4.41965e-05	0	0	-nan
4.42709e-05	0	0	-nan
4.44224e-05	0	0	-nan
4.48415e-05	0	0	-nan
4.49373e-05	0	0	-nan
4.51355e-05	0	0	-nan
4.51827e-05	0	0	-nan
4.54432e-05	0	0	-nan
4.5741e-05	0	0	-nan
4.58082e-05	0	0	-nan
4.59678e-05	0	0	-nan
4.59732e-05	0	0	-nan
4.6063e-05	0	0	-nan
4.61026e-05	0	0	-nan
4.6172e-05	0	0	-nan
4.62341e-05	0	0	-nan
4.65617e-05	0	0	-nan
4.65711e-05	0	0	-nan
4.66839e-05	0	0	-nan
4.72469e-05	0	0	-nan
4.73087e-05	0	0	-nan
4.74151e-05	0	0	-nan
4.7947e-05	0	0	-nan
4.87675e-05	0	0	-nan
4.91184e-05	0	0	-nan
4.93996e-05	0	0	-nan
4.99474e-05	0	0	-nan
5.00055e-05	0	0	-nan
5.0014e-05	0	0	-nan
5.00242e-05	0	0	-nan
5.02386e-05	0	0	-nan
5.0509e-05	0	0	-nan
5.06834e-05	0	0	-nan
5.11616e-05	0	0	-nan
5.13421e-05	0	0	-nan
5.15217e-05	0	0	-nan
5.15842e-05	0	0	-nan
5.18788e-05	0	0	-nan
5.19546e-05	0	0	-nan
5.20398e-05	0	0	-nan
5.20443e-05	0	0	-nan
5.22227e-05	0	0	-nan
5.26789e-05	0	0	-nan
5.27611e-05	0	0	-nan
5.28358e-05	0	0	-nan
5.28633e-05	0	0	-nan
5.30227e-05	0	0	-nan
5.32744e-05	0	0	-nan
5.33309e-05	0	0	-nan
5.34023e-05	0	0	-nan
5.3613e-05	0	0	-nan
5.39171e-05	0	0	-nan
5.39782e-05	0	0	-nan
5.40532e-05	0	0	-nan
5.46925e-05	0	0	-nan
5.48831e-05	0	0	-nan
5.49833e-05	0	0	-nan
5.51899e-05	0	0	-nan
5.52256e-05	0	0	-nan
5.52429e-05	0	0	-nan
5.52933e-05	0	0	-nan
5.53565e-05	0	0	-nan
5.54868e-05	0	0	-nan
5.57448e-05	0	0	-nan
5.58723e-05	0	0	-nan
5.63231e-05	0	0	-nan
5.66862e-05	0	0	-nan
5.68792e-05	0	0	-nan
5.70096e-05	0	0	-nan
5.73025e-05	0	0	-nan
5.73933e-05	0	0	-nan
5.75274e-05	0	0	-nan
5.75548e-05	0	0	-nan
5.75805e-05	0	0	-nan
5.75947e-05	0	0	-nan
5.76021e-05	0	0	-nan
5.78431e-05	0	0	-nan
5.78712e-05	0	0	-nan
5.82112e-05	0	0	-nan
5.82432e-05	0	0	-nan
5.86422e-05	0	0	-nan
5.88064e-05	0	0	-nan
5.94765e-05	0	0	-nan
5.95907e-05	0	0	-nan
5.97684e-05	0	0	-nan
6.02456e-05	0	0	-nan
6.08722e-05	0	0	-nan
6.09116e-05	0	0	-nan
6.09789e-05	0	0	-nan
6.10672e-05	0	0	-nan
6.14579e-05	0	0	-nan
6.15174e-05	0	0	-nan
6.17984e-05	0	0	-nan
6.18259e-05	0	0	-nan
6.19192e-05	0	0	-nan
6.20797e-05	0	0	-nan
6.2221e-05	0	0	-nan
6.24745e-05	0	0	-nan
6.25262e-05	0	0	-nan
6.2657e-05	0	0	-nan
6.28976e-05	0	0	-nan
6.29003e-05	0	0	-nan
6.31122e-05	0	0	-nan
6.31599e-05	0	0	-nan
6.36578e-05	0	0	-nan
6.3673e-05	0	0	-nan
6.38543e-05	0	0	-nan
6.4124e-05	0	0	-nan
6.48563e-05	0	0	-nan
6.48849e-05	0	0	-nan
6.48896e-05	0	0	-nan
6.50495e-05	0	0	-nan
6.50786e-05	0	0	-nan
6.51872e-05	0	0	-nan
6.53313e-05	0	0	-nan
6.53441e-05	0	0	-nan
6.57332e-05	0	0	-nan
6.60675e-05	0	0	-nan
6.61579e-05	0	0	-nan
6.62987e-05	0	0	-nan
6.6653e-05	0	0	-nan
6.66575e-05	0	0	-nan
6.66967e-05	0	0	-nan
6.68728e-05	0	0	-nan
6.68734e-05	0	0	-nan
6.71807e-05	0	0	-nan
6.71828e-05	0	0	-nan
6.74324e-05	0	0	-nan
6.82915e-05	0	0	-nan
6.83961e-05	0	0	-nan
6.84219e-05	0	0	-nan
6.87258e-05	0	0	-nan
6.88335e-05	0	0	-nan
6.9685e-05	0	0	-nan
7.02014e-05	0	0	-nan
7.02353e-05	0	0	-nan
7.02491e-05	0	0	-nan
7.02976e-05	0	0	-nan
7.05355e-05	0	0	-nan
7.06134e-05	0	0	-nan
7.09013e-05	0	0	-nan
7.20254e-05	0	0	-nan
7.23616e-05	0	0	-nan
7.24667e-05	0	0	-nan
7.26373e-05	0	0	-nan
7.28977e-05	0	0	-nan
7.29821e-05	0	0	-nan
7.30088e-05	0	0	-nan
7.3308e-05	0	0	-nan
7.35811e-05	0	0	-nan
7.35835e-05	0	0	-nan
7.37997e-05	0	0	-nan
7.39838e-05	0	0	-nan
7.4077e-05	0	0	-nan
7.45093e-05	0	0	-nan
7.46629e-05	0	0	-nan
7.4938e-05	0	0	-nan
7.55788e-05	0	0	-nan
7.56058e-05	0	0	-nan
7.56321e-05	0	0	-nan
7.65235e-05	0	0	-nan
7.69614e-05	0	0	-nan
7.71028e-05	0	0	-nan
7.7667e-05	0	0	-nan
7.82194e-05	0	0	-nan
7.83689e-05	0	0	-nan
7.84891e-05	0	0	-nan
7.89788e-05	0	0	-nan
7.9035e-05	0	0	-nan
7.90594e-05	0	0	-nan
7.93253e-05	0	0	-nan
7.9354e-05	0	0	-nan
7.94512e-05	0	0	-nan
7.96144e-05	0	0	-nan
7.96404e-05	0	0	-nan
7.97391e-05	0	0	-nan
8.0029e-05	0	0	-nan
8.02899e-05	0	0	-nan
8.0369e-05	0	0	-nan
8.05281e-05	0	0	-nan
8.10961e-05	0	0	-nan
8.12187e-05	0	0	-nan
8.13081e-05	0	0	-nan
8.14595e-05	0	0	-nan
8.15518e-05	0	0	-nan
8.15837e-05	0	0	-nan
8.19211e-05	0	0	-nan
8.19213e-05	0	0	-nan
8.25485e-05	0	0	-nan
8.26461e-05	0	0	-nan
8.26892e-05	0	0	-nan
8.29345e-05	0	0	-nan
8.29516e-05	0	0	-nan
8.46726e-05	0	0	-nan
8.51448e-05	0	0	-nan
8.54263e-05	0	0	-nan
8.56558e-05	0	0	-nan
8.57219e-05	0	0	-nan
8.59262e-05	0	0	-nan
8.60925e-05	0	0	-nan
8.61478e-05	0	0	-nan
8.6215e-05	0	0	-nan
8.63368e-05	0	0	-nan
8.63451e-05	0	0	-nan
8.69763e-05	0	0	-nan
8.69777e-05	0	0	-nan
8.71516e-05	0	0	-nan
8.72256e-05	0	0	-nan
8.73439e-05	0	0	-nan
8.76636e-05	0	0	-nan
8.77214e-05	0	0	-nan
8.78699e-05	0	0	-nan
8.84255e-05	0	0	-nan
8.84515e-05	0	0	-nan
8.90633e-05	0	0	-nan
8.91955e-05	0	0	-nan
8.93113e-05	0	0	-nan
8.96302e-05	0	0	-nan
8.96545e-05	0	0	-nan
8.98792e-05	0	0	-nan
8.99828e-05	0	0	-nan
9.03995e-05	0	0	-nan
9.06275e-05	0	0	-nan
9.06986e-05	0	0	-nan
9.08113e-05	0	0	-nan
9.09501e-05	0	0	-nan
9.13099e-05	0	0	-nan
9.1752e-05	0	0	-nan
9.19145e-05	0	0	-nan
9.21857e-05	0	0	-nan
9.28774e-05	0	0	-nan
9.31251e-05	0	0	-nan
9.34709e-05	0	0	-nan
9.35579e-05	0	0	-nan
9.3872e-05	0	0	-nan
9.4007e-05	0	0	-nan
9.44661e-05	0	0	-nan
9.45552e-05	0	0	-nan
9.49153e-05	0	0	-nan
9.49645e-05	0	0	-nan
9.58173e-05	0	0	-nan
9.59369e-05	0	0	-nan
9.59515e-05	0	0	-nan
9.62754e-05	0	0	-nan
9.73005e-05	0	0	-nan
9.73215e-05	0	0	-nan
9.7355e-05	0	0	-nan
9.76411e-05	0	0	-nan
9.76434e-05	0	0	-nan
9.7885e-05	0	0	-nan
9.80066e-05	0	0	-nan
9.85671e-05	0	0	-nan
9.91179e-05	0	0	-nan
9.94043e-05	0	0	-nan
9.96117e-05	0	0	-nan
9.99491e-05	0	0	-nan
0.000100157	0	0	-nan
0.000100251	0	0	-nan
0.000100442	0	0	-nan
0.000102089	0	0	-nan
0.000102661	0	0	-nan
0.00010278	0	0	-nan
0.000102855	0	0	-nan
0.000103039	0	0	-nan
0.000103635	0	0	-nan
0.000103721	0	0	-nan
0.000103732	0	0	-nan
0.000104167	0	0	-nan
0.000104177	0	0	-nan
0.000104195	0	0	-nan
0.00010483	0	0	-nan
0.000104998	0	0	-nan
0.000105382	0	0	-nan
0.000105387	0	0	-nan
0.000105641	0	0	-nan
0.000105986	0	0	-nan
0.000106041	0	0	-nan
0.00010675	0	0	-nan
0.000106888	0	0	-nan
0.000106999	0	0	-nan
0.000107574	0	0	-nan
0.000108247	0	0	-nan
0.000108344	0	0	-nan
0.000108853	0	0	-nan
0.000109538	0	0	-nan
0.000109602	0	0	-nan
0.000109684	0	0	-nan
0.000109965	0	0	-nan
0.000110359	0	0	-nan
0.000110923	0	0	-nan
0.000111058	0	0	-nan
0.000112783	0	0	-nan
0.000112942	0	0	-nan
0.000112964	0	0	-nan
0.000113434	0	0	-nan
0.000113509	0	0	-nan
0.00011371	0	0	-nan
0.000114029	0	0	-nan
0.000114122	0	0	-nan
0.000114382	0	0	-nan
0.000114556	0	0	-nan
0.000115084	0	0	-nan
0.000115179	0	0	-nan
0.000115278	0	0	-nan
0.000115802	0	0	-nan
0.000115954	0	0	-nan
0.000116101	0	0	-nan
0.000116287	0	0	-nan
0.000117082	0	0	-nan
0.000117227	0	0	-nan
0.000117238	0	0	-nan
0.000117824	0	0	-nan
0.000117873	0	0	-nan
0.000118305	0	0	-nan
0.000119399	0	0	-nan
0.000119419	0	0	-nan
0.000119598	0	0	-nan
0.00011995	0	0	-nan
0.000120032	0	0	-nan
0.000120772	0	0	-nan
0.0001218	0	0	-nan
0.000121946	0	0	-nan
0.000122588	0	0	-nan
0.000122771	0	0	-nan
0.000122783	0	0	-nan
0.00012345	0	0	-nan
0.000123457	0	0	-nan
0.000123825	0	0	-nan
0.000123828	0	0	-nan
0.000124026	0	0	-nan
0.000124471	0	0	-nan
0.000124535	0	0	-nan
0.0001248	0	0	-nan
0.000125028	0	0	-nan
0.000125816	0	0	-nan
0.000125888	0	0	-nan
0.000126892	0	0	-nan
0.000127008	0	0	-nan
0.000127111	0	0	-nan
0.000127415	0	0	-nan
0.000128889	0	0	-nan
0.000130144	0	0	-nan
0.000130233	0	0	-nan
0.000130778	0	0	-nan
0.000130989	0	0	-nan
0.000131147	0	0	-nan
0.0001314	0	0	-nan
0.000131937	0	0	-nan
0.00013306	0	0	-nan
0.000133234	0	0	-nan
0.000133259	0	0	-nan
0.000133677	0	0	-nan
0.000134917	0	0	-nan
0.000135023	0	0	-nan
0.00013507	0	0	-nan
0.000135453	0	0	-nan
0.000135522	0	0	-nan
0.000135565	0	0	-nan
0.000135694	0	0	-nan
0.000135725	0	0	-nan
0.000136169	0	0	-nan
0.00013645	0	0	-nan
0.000136618	0	0	-nan
0.000136707	0	0	-nan
0.000136777	0	0	-nan
0.000137367	0	0	-nan
0.000137387	0	0	-nan
0.000137575	0	0	-nan
0.000137683	0	0	-nan
0.000137803	0	0	-nan
0.000139455	0	0	-nan
0.000139639	0	0	-nan
0.000139799	0	0	-nan
0.000140726	0	0	-nan
0.000140951	0	0	-nan
0.000141092	0	0	-nan
0.000141231	0	0	-nan
0.000142246	0	0	-nan
0.000142574	0	0	-nan
0.000142845	0	0	-nan
0.000143034	0	0	-nan
0.000143503	0	0	-nan
0.000144185	0	0	-nan
0.000144252	0	0	-nan
0.000144311	0	0	-nan
0.000144824	0	0	-nan
0.000145243	0	0	-nan
0.000146533	0	0	-nan
0.000146577	0	0	-nan
0.000146745	0	0	-nan
0.000146803	0	0	-nan
0.00014711	0	0	-nan
0.000147719	0	0	-nan
0.000148274	0	0	-nan
0.000149494	0	0	-nan
0.000150279	0	0	-nan
0.000150297	0	0	-nan
0.000150674	0	0	-nan
0.000150748	0	0	-nan
0.000150825	0	0	-nan
0.00015094	0	0	-nan
0.00015117	0	0	-nan
0.000151391	0	0	-nan
0.000151642	0	0	-nan
0.000151825	0	0	-nan
0.000152014	0	0	-nan
0.000152403	0	0	-nan
0.000152785	0	0	-nan
0.000152803	0	0	-nan
0.000152836	0	0	-nan
0.000153739	0	0	-nan
0.000155046	0	0	-nan
0.000157058	0	0	-nan
0.000157543	0	0	-nan
0.000157763	0	0	-nan
0.0001578	0	0	-nan
0.0001578	0	0	-nan
0.000158364	0	0	-nan
0.000158899	0	0	-nan
0.000159594	0	0	-nan
0.00015985	0	0	-nan
0.000160321	0	0	-nan
0.000161057	0	0	-nan
0.000161068	0	0	-nan
0.000161254	0	0	-nan
0.000161531	0	0	-nan
0.000161838	0	0	-nan
0.000162418	0	0	-nan
0.00016283	0	0	-nan
0.000162911	0	0	-nan
0.000163087	0	0	-nan
0.000163243	0	0	-nan
0.000163369	0	0	-nan
0.000163952	0	0	-nan
0.000164682	0	0	-nan
0.000165264	0	0	-nan
0.000165723	0	0	-nan
0.000165879	0	0	-nan
0.000166451	0	0	-nan
0.000166517	0	0	-nan
0.00016662	0	0	-nan
0.000166879	0	0	-nan
0.000167257	0	0	-nan
0.000167424	0	0	-nan
0.00016796	0	0	-nan
0.000168625	0	0	-nan
0.000168648	0	0	-nan
0.000169002	0	0	-nan
0.000169551	0	0	-nan
0.000169808	0	0	-nan
0.000170372	0	0	-nan
0.000171061	0	0	-nan
0.000171476	0	0	-nan
0.000171966	0	0	-nan
0.000172022	0	0	-nan
0.000173079	0	0	-nan
0.000173151	0	0	-nan
0.000173222	0	0	-nan
0.000173307	0	0	-nan
0.000173503	0	0	-nan
0.000174002	0	0	-nan
0.000174367	0	0	-nan
0.000174513	0	0	-nan
0.000175175	0	0	-nan
0.000175305	0	0	-nan
0.000175632	0	0	-nan
0.000176205	0	0	-nan
0.000176223	0	0	-nan
0.000177765	0	0	-nan
0.000178375	0	0	-nan
0.000178555	0	0	-nan
0.000178947	0	0	-nan
0.000179202	0	0	-nan
0.000179864	0	0	-nan
0.000180374	0	0	-nan
0.000180865	0	0	-nan
0.000181755	0	0	-nan
0.000182128	0	0	-nan
0.000182214	0	0	-nan
0.000182233	0	0	-nan
0.000182891	0	0	-nan
0.000182911	0	0	-nan
0.000183093	0	0	-nan
0.000184645	0	0	-nan
0.000184911	0	0	-nan
0.000185312	0	0	-nan
0.00018573	0	0	-nan
0.000186077	0	0	-nan
0.000186269	0	0	-nan
0.00018688	0	0	-nan
0.000188517	0	0	-nan
0.000189878	0	0	-nan
0.000189902	0	0	-nan
0.000191123	0	0	-nan
0.000192043	0	0	-nan
0.000192247	0	0	-nan
0.000192521	0	0	-nan
0.000192672	0	0	-nan
0.000192818	0	0	-nan
0.000192885	0	0	-nan
0.000193188	0	0	-nan
0.000193234	0	0	-nan
0.000193459	0	0	-nan
0.000195207	0	0	-nan
0.00019654	0	0	-nan
0.00019809	0	0	-nan
0.000198383	0	0	-nan
0.000200367	0	0	-nan
0.000200481	0	0	-nan
0.000200916	0	0	-nan
0.000201452	0	0	-nan
0.000201824	0	0	-nan
0.000202325	0	0	-nan
0.000202338	0	0	-nan
0.00020252	0	0	-nan
0.000202835	0	0	-nan
0.000202986	0	0	-nan
0.000203494	0	0	-nan
0.000204911	0	0	-nan
0.0002073	0	0	-nan
0.000207877	0	0	-nan
0.000209222	0	0	-nan
0.000210931	0	0	-nan
0.000211305	0	0	-nan
0.00021155	0	0	-nan
0.000211823	0	0	-nan
0.000213555	0	0	-nan
0.000214761	0	0	-nan
0.000216032	0	0	-nan
0.000216737	0	0	-nan
0.000217734	0	0	-nan
0.000219463	0	0	-nan
0.000220185	0	0	-nan
0.000221069	0	0	-nan
0.000221598	0	0	-nan
0.000222031	0	0	-nan
0.00022252	0	0	-nan
0.000222728	0	0	-nan
0.000223401	0	0	-nan
0.000223893	0	0	-nan
0.000224158	0	0	-nan
0.000224514	0	0	-nan
0.000226421	0	0	-nan
0.00022681	0	0	-nan
0.00022748	0	0	-nan
0.000228485	0	0	-nan
0.000230675	0	0	-nan
0.000231569	0	0	-nan
0.000231962	0	0	-nan
0.000232452	0	0	-nan
0.000233177	0	0	-nan
0.00023337	0	0	-nan
0.000235666	0	0	-nan
0.000236272	0	0	-nan
0.000236349	0	0	-nan
0.000237188	0	0	-nan
0.000237357	0	0	-nan
0.00023749	0	0	-nan
0.000240179	0	0	-nan
0.000240349	0	0	-nan
0.000240605	0	0	-nan
0.000240659	0	0	-nan
0.000241423	0	0	-nan
0.000242718	0	0	-nan
0.000243539	0	0	-nan
0.000243611	0	0	-nan
0.000245935	0	0	-nan
0.000246148	0	0	-nan
0.000246341	0	0	-nan
0.000247874	0	0	-nan
0.000248251	0	0	-nan
0.000249387	0	0	-nan
0.000249908	0	0	-nan
0.000250061	0	0	-nan
0.000250401	0	0	-nan
0.000250652	0	0	-nan
0.000250678	0	0	-nan
0.000251262	0	0	-nan
0.000251362	0	0	-nan
0.000254412	0	0	-nan
0.000254486	0	0	-nan
0.000256847	0	0	-nan
0.000257888	0	0	-nan
0.00025811	0	0	-nan
0.00025868	0	0	-nan
0.000258911	0	0	-nan
0.000259017	0	0	-nan
0.000261157	0	0	-nan
0.000262696	0	0	-nan
0.000262865	0	0	-nan
0.000263163	0	0	-nan
0.000264309	0	0	-nan
0.000264817	0	0	-nan
0.000264882	0	0	-nan
0.000265023	0	0	-nan
0.000266402	0	0	-nan
0.000266461	0	0	-nan
0.000266518	0	0	-nan
0.000266879	0	0	-nan
0.000268317	0	0	-nan
0.000268468	0	0	-nan
0.000270709	0	0	-nan
0.00027177	0	0	-nan
0.000272485	0	0	-nan
0.000273178	0	0	-nan
0.000274381	0	0	-nan
0.000274987	0	0	-nan
0.000276194	0	0	-nan
0.000277061	0	0	-nan
0.000277067	0	0	-nan
0.000277071	0	0	-nan
0.000277396	0	0	-nan
0.000278664	0	0	-nan
0.000279096	0	0	-nan
0.000279383	0	0	-nan
0.000279565	0	0	-nan
0.000279593	0	0	-nan
0.00027962	0	0	-nan
0.000282002	0	0	-nan
0.000283236	0	0	-nan
0.000284374	0	0	-nan
0.000285409	0	0	-nan
0.00028841	0	0	-nan
0.000289514	0	0	-nan
0.000291463	0	0	-nan
0.000292108	0	0	-nan
0.000292614	0	0	-nan
0.000294054	0	0	-nan
0.000295475	0	0	-nan
0.000296607	0	0	-nan
0.000297367	0	0	-nan
0.000299425	0	0	-nan
0.00030159	0	0	-nan
0.00030224	0	0	-nan
0.000302251	0	0	-nan
0.000302315	0	0	-nan
0.00030243	0	0	-nan
0.000303945	0	0	-nan
0.000303969	0	0	-nan
0.00030504	0	0	-nan
0.000305455	0	0	-nan
0.000305715	0	0	-nan
0.000307412	0	0	-nan
0.000312056	0	0	-nan
0.000312899	0	0	-nan
0.000313541	0	0	-nan
0.000313756	0	0	-nan
0.000315162	0	0	-nan
0.000319059	0	0	-nan
0.000319944	0	0	-nan
0.000320608	0	0	-nan
0.000322116	0	0	-nan
0.000322171	0	0	-nan
0.000322682	0	0	-nan
0.000323278	0	0	-nan
0.000323983	0	0	-nan
0.000329427	0	0	-nan
0.000329733	0	0	-nan
0.000330205	0	0	-nan
0.000330317	0	0	-nan
0.000331162	0	0	-nan
0.000332785	0	0	-nan
0.00033366	0	0	-nan
0.000333747	0	0	-nan
0.000335454	0	0	-nan
0.000338282	0	0	-nan
0.000338718	0	0	-nan
0.000338764	0	0	-nan
0.000338767	0	0	-nan
0.000339036	0	0	-nan
0.000339084	0	0	-nan
0.000339131	0	0	-nan
0.000339437	0	0	-nan
0.0003409	0	0	-nan
0.000342298	0	0	-nan
0.00034305	0	0	-nan
0.000344243	0	0	-nan
0.000346783	0	0	-nan
0.000347505	0	0	-nan
0.000349252	0	0	-nan
0.000350098	0	0	-nan
0.000350571	0	0	-nan
0.000351131	0	0	-nan
0.000352294	0	0	-nan
0.000356518	0	0	-nan
0.000357026	0	0	-nan
0.000357982	0	0	-nan
0.000358781	0	0	-nan
0.000363042	0	0	-nan
0.000363525	0	0	-nan
0.000369461	0	0	-nan
0.000371879	0	0	-nan
0.00037284	0	0	-nan
0.000376389	0	0	-nan
0.000379098	0	0	-nan
0.000380911	0	0	-nan
0.000386124	0	0	-nan
0.000387503	0	0	-nan
0.000387677	0	0	-nan
0.000389662	0	0	-nan
0.000390172	0	0	-nan
0.000393008	0	0	-nan
0.000393126	0	0	-nan
0.000394921	0	0	-nan
0.000395875	0	0	-nan
0.000396901	0	0	-nan
0.00039743	0	0	-nan
0.000398171	0	0	-nan
0.000407535	0	0	-nan
0.000408162	0	0	-nan
0.000408164	0	0	-nan
0.000409189	0	0	-nan
0.000410636	0	0	-nan
0.000410751	0	0	-nan
0.000411075	0	0	-nan
0.000411176	0	0	-nan
0.000412896	0	0	-nan
0.000414063	0	0	-nan
0.000415207	0	0	-nan
0.000417711	0	0	-nan
0.000419551	0	0	-nan
0.00042145	0	0	-nan
0.000427713	0	0	-nan
0.000428138	0	0	-nan
0.000428231	0	0	-nan
0.000430331	0	0	-nan
0.000430682	0	0	-nan
0.000432162	0	0	-nan
0.000432947	0	0	-nan
0.000433842	0	0	-nan
0.000434362	0	0	-nan
0.000434663	0	0	-nan
0.000435729	0	0	-nan
0.000442025	0	0	-nan
0.000444954	0	0	-nan
0.000449968	0	0	-nan
0.000454834	0	0	-nan
0.000457535	0	0	-nan
0.000459844	0	0	-nan
0.000460176	0	0	-nan
0.000460468	0	0	-nan
0.000463675	0	0	-nan
0.000464721	0	0	-nan
0.000465208	0	0	-nan
0.000467664	0	0	-nan
0.000474023	0	0	-nan
0.000476091	0	0	-nan
0.000477765	0	0	-nan
0.000480387	0	0	-nan
0.000482359	0	0	-nan
0.000484315	0	0	-nan
0.000486157	0	0	-nan
0.000487125	0	0	-nan
0.000488844	0	0	-nan
0.000492478	0	0	-nan
0.000495517	0	0	-nan
0.000496983	0	0	-nan
0.000500384	0	0	-nan
0.000503547	0	0	-nan
0.000509464	0	0	-nan
0.000516694	0	0	-nan
0.000519272	0	0	-nan
0.000520778	0	0	-nan
0.000521998	0	0	-nan
0.000525869	0	0	-nan
0.000526721	0	0	-nan
0.000530857	0	0	-nan
0.000531063	0	0	-nan
0.000535914	0	0	-nan
0.000536509	0	0	-nan
0.000537485	0	0	-nan
0.000543527	0	0	-nan
0.0005445	0	0	-nan
0.000549352	0	0	-nan
0.000553187	0	0	-nan
0.000553484	0	0	-nan
0.000554358	0	0	-nan
0.000556772	0	0	-nan
0.000559991	0	0	-nan
0.000562431	0	0	-nan
0.000562864	0	0	-nan
0.000565839	0	0	-nan
0.000568446	0	0	-nan
0.000570638	0	0	-nan
0.000571843	0	0	-nan
0.000572221	0	0	-nan
0.000574054	0	0	-nan
0.000586491	0	0	-nan
0.000586977	0	0	-nan
0.000588012	0	0	-nan
0.000592909	0	0	-nan
0.000594948	0	0	-nan
0.000598626	0	0	-nan
0.000598806	0	0	-nan
0.000601246	0	0	-nan
0.00060628	0	0	-nan
0.000617347	0	0	-nan
0.00061922	0	0	-nan
0.000632956	0	0	-nan
0.000638464	0	0	-nan
0.000647818	0	0	-nan
0.000659543	0	0	-nan
0.000667668	0	0	-nan
0.000674881	0	0	-nan
0.000679842	0	0	-nan
0.00068185	0	0	-nan
0.000691833	0	0	-nan
0.000692845	0	0	-nan
0.000703357	0	0	-nan
0.000710109	0	0	-nan
0.000713883	0	0	-nan
0.00071935	0	0	-nan
0.000723177	0	0	-nan
0.00072837	0	0	-nan
0.000741145	0	0	-nan
0.000748583	0	0	-nan
0.000754821	0	0	-nan
0.000762778	0	0	-nan
0.000774213	0	0	-nan
0.000775801	0	0	-nan
0.000800747	0	0	-nan
0.000819359	0	0	-nan
0.000826681	0	0	-nan
0.000839334	0	0	-nan
0.00092207	0	0	-nan
0.000960675	0	0	-nan
0.000973145	0	0	-nan
0.000975635	0	0	-nan
0.000980878	0	0	-nan
0.00105189	0	0	-nan
0.00112074	0	0	-nan
0.00113197	0	0	-nan
0.00113963	0	0	-nan
0.00129255	0	0	-nan
0.00139815	0	0	-nan
