3.35326e-08	0	0	-nan
1.07608e-07	0	0	-nan
3.62762e-07	0	0	-nan
4.58693e-07	0	0	-nan
5.25294e-07	0	0	-nan
5.80969e-07	0	0	-nan
6.09784e-07	0	0	-nan
6.23466e-07	0	0	-nan
6.41019e-07	0	0	-nan
8.10668e-07	0	0	-nan
8.42615e-07	0	0	-nan
1.06735e-06	0	0	-nan
1.07044e-06	0	0	-nan
1.09772e-06	0	0	-nan
1.20586e-06	0	0	-nan
1.31649e-06	0	0	-nan
1.36336e-06	0	0	-nan
1.41769e-06	0	0	-nan
1.43074e-06	0	0	-nan
1.50312e-06	0	0	-nan
1.51559e-06	0	0	-nan
1.52771e-06	0	0	-nan
1.8516e-06	0	0	-nan
1.88686e-06	0	0	-nan
1.89863e-06	0	0	-nan
1.97984e-06	0	0	-nan
2.0144e-06	0	0	-nan
2.26529e-06	0	0	-nan
2.35919e-06	0	0	-nan
2.36989e-06	0	0	-nan
2.55411e-06	0	0	-nan
2.58147e-06	0	0	-nan
2.62355e-06	0	0	-nan
2.66937e-06	0	0	-nan
2.67142e-06	0	0	-nan
2.69316e-06	0	0	-nan
2.72191e-06	0	0	-nan
2.72594e-06	0	0	-nan
2.8014e-06	0	0	-nan
2.81006e-06	0	0	-nan
2.83111e-06	0	0	-nan
3.05259e-06	0	0	-nan
3.06834e-06	0	0	-nan
3.09035e-06	0	0	-nan
3.09768e-06	0	0	-nan
3.14348e-06	0	0	-nan
3.21229e-06	0	0	-nan
3.36732e-06	0	0	-nan
3.39877e-06	0	0	-nan
3.48497e-06	0	0	-nan
3.51053e-06	0	0	-nan
3.54848e-06	0	0	-nan
3.58296e-06	0	0	-nan
3.90405e-06	0	0	-nan
4.11012e-06	0	0	-nan
4.15482e-06	0	0	-nan
4.1551e-06	0	0	-nan
4.16659e-06	0	0	-nan
4.21514e-06	0	0	-nan
4.45132e-06	0	0	-nan
4.45671e-06	0	0	-nan
4.47939e-06	0	0	-nan
4.52436e-06	0	0	-nan
4.65773e-06	0	0	-nan
4.65939e-06	0	0	-nan
4.74621e-06	0	0	-nan
4.81113e-06	0	0	-nan
5.06839e-06	0	0	-nan
5.21909e-06	0	0	-nan
5.23528e-06	0	0	-nan
5.28118e-06	0	0	-nan
5.30174e-06	0	0	-nan
5.34877e-06	0	0	-nan
5.36455e-06	0	0	-nan
5.41686e-06	0	0	-nan
5.50073e-06	0	0	-nan
5.58445e-06	0	0	-nan
5.7402e-06	0	0	-nan
5.86781e-06	0	0	-nan
5.92964e-06	0	0	-nan
5.95229e-06	0	0	-nan
5.95845e-06	0	0	-nan
5.99785e-06	0	0	-nan
6.05933e-06	0	0	-nan
6.10413e-06	0	0	-nan
6.13706e-06	0	0	-nan
6.2109e-06	0	0	-nan
6.22297e-06	0	0	-nan
6.24605e-06	0	0	-nan
6.26494e-06	0	0	-nan
6.42181e-06	0	0	-nan
6.54857e-06	0	0	-nan
6.61584e-06	0	0	-nan
6.72076e-06	0	0	-nan
6.74161e-06	0	0	-nan
6.81763e-06	0	0	-nan
6.85918e-06	0	0	-nan
6.91038e-06	0	0	-nan
7.12018e-06	0	0	-nan
7.13135e-06	0	0	-nan
7.2037e-06	0	0	-nan
7.31463e-06	0	0	-nan
7.3226e-06	0	0	-nan
7.36213e-06	0	0	-nan
7.43037e-06	0	0	-nan
7.5543e-06	0	0	-nan
7.66296e-06	0	0	-nan
7.72421e-06	0	0	-nan
7.82072e-06	0	0	-nan
7.85316e-06	0	0	-nan
8.20982e-06	0	0	-nan
8.293e-06	0	0	-nan
8.34944e-06	0	0	-nan
8.37872e-06	0	0	-nan
8.38088e-06	0	0	-nan
8.42071e-06	0	0	-nan
8.8115e-06	0	0	-nan
8.83389e-06	0	0	-nan
9.05119e-06	0	0	-nan
9.26929e-06	0	0	-nan
9.31912e-06	0	0	-nan
9.33286e-06	0	0	-nan
9.3373e-06	0	0	-nan
9.3593e-06	0	0	-nan
9.4475e-06	0	0	-nan
9.51014e-06	0	0	-nan
9.82393e-06	0	0	-nan
9.84884e-06	0	0	-nan
9.95054e-06	0	0	-nan
1.03927e-05	0	0	-nan
1.04105e-05	0	0	-nan
1.06008e-05	0	0	-nan
1.07918e-05	0	0	-nan
1.08315e-05	0	0	-nan
1.08937e-05	0	0	-nan
1.10118e-05	0	0	-nan
1.11948e-05	0	0	-nan
1.12311e-05	0	0	-nan
1.13022e-05	0	0	-nan
1.1354e-05	0	0	-nan
1.13727e-05	0	0	-nan
1.15258e-05	0	0	-nan
1.16026e-05	0	0	-nan
1.17733e-05	0	0	-nan
1.17742e-05	0	0	-nan
1.17971e-05	0	0	-nan
1.18987e-05	0	0	-nan
1.21561e-05	0	0	-nan
1.22953e-05	0	0	-nan
1.2315e-05	0	0	-nan
1.24158e-05	0	0	-nan
1.24438e-05	0	0	-nan
1.2519e-05	0	0	-nan
1.29882e-05	0	0	-nan
1.30542e-05	0	0	-nan
1.31064e-05	0	0	-nan
1.31326e-05	0	0	-nan
1.34731e-05	0	0	-nan
1.35098e-05	0	0	-nan
1.36227e-05	0	0	-nan
1.39327e-05	0	0	-nan
1.40317e-05	0	0	-nan
1.41109e-05	0	0	-nan
1.41637e-05	0	0	-nan
1.42259e-05	0	0	-nan
1.43557e-05	0	0	-nan
1.47391e-05	0	0	-nan
1.475e-05	0	0	-nan
1.47721e-05	0	0	-nan
1.48311e-05	0	0	-nan
1.48544e-05	0	0	-nan
1.49508e-05	0	0	-nan
1.49585e-05	0	0	-nan
1.50316e-05	0	0	-nan
1.51368e-05	0	0	-nan
1.52221e-05	0	0	-nan
1.52338e-05	0	0	-nan
1.53099e-05	0	0	-nan
1.5421e-05	0	0	-nan
1.54347e-05	0	0	-nan
1.54914e-05	0	0	-nan
1.55406e-05	0	0	-nan
1.55732e-05	0	0	-nan
1.55956e-05	0	0	-nan
1.56084e-05	0	0	-nan
1.57216e-05	0	0	-nan
1.57558e-05	0	0	-nan
1.57558e-05	0	0	-nan
1.57681e-05	0	0	-nan
1.58138e-05	0	0	-nan
1.58983e-05	0	0	-nan
1.59328e-05	0	0	-nan
1.61015e-05	0	0	-nan
1.61241e-05	0	0	-nan
1.62945e-05	0	0	-nan
1.63092e-05	0	0	-nan
1.65088e-05	0	0	-nan
1.65998e-05	0	0	-nan
1.6631e-05	0	0	-nan
1.66316e-05	0	0	-nan
1.66817e-05	0	0	-nan
1.67337e-05	0	0	-nan
1.68418e-05	0	0	-nan
1.68509e-05	0	0	-nan
1.71226e-05	0	0	-nan
1.71383e-05	0	0	-nan
1.73354e-05	0	0	-nan
1.73957e-05	0	0	-nan
1.74142e-05	0	0	-nan
1.74769e-05	0	0	-nan
1.76897e-05	0	0	-nan
1.77612e-05	0	0	-nan
1.79839e-05	0	0	-nan
1.80292e-05	0	0	-nan
1.80317e-05	0	0	-nan
1.81261e-05	0	0	-nan
1.82159e-05	0	0	-nan
1.82186e-05	0	0	-nan
1.83243e-05	0	0	-nan
1.86793e-05	0	0	-nan
1.87706e-05	0	0	-nan
1.87854e-05	0	0	-nan
1.90377e-05	0	0	-nan
1.91179e-05	0	0	-nan
1.93061e-05	0	0	-nan
1.93647e-05	0	0	-nan
1.94172e-05	0	0	-nan
1.98466e-05	0	0	-nan
1.9848e-05	0	0	-nan
1.99583e-05	0	0	-nan
2.01277e-05	0	0	-nan
2.02475e-05	0	0	-nan
2.02792e-05	0	0	-nan
2.07463e-05	0	0	-nan
2.07502e-05	0	0	-nan
2.07805e-05	0	0	-nan
2.08216e-05	0	0	-nan
2.08609e-05	0	0	-nan
2.1127e-05	0	0	-nan
2.14281e-05	0	0	-nan
2.17329e-05	0	0	-nan
2.17587e-05	0	0	-nan
2.19962e-05	0	0	-nan
2.20725e-05	0	0	-nan
2.23338e-05	0	0	-nan
2.27535e-05	0	0	-nan
2.28322e-05	0	0	-nan
2.28642e-05	0	0	-nan
2.28858e-05	0	0	-nan
2.29901e-05	0	0	-nan
2.29958e-05	0	0	-nan
2.31553e-05	0	0	-nan
2.33231e-05	0	0	-nan
2.35329e-05	0	0	-nan
2.35544e-05	0	0	-nan
2.36575e-05	0	0	-nan
2.39192e-05	0	0	-nan
2.39757e-05	0	0	-nan
2.41279e-05	0	0	-nan
2.42027e-05	0	0	-nan
2.42462e-05	0	0	-nan
2.42797e-05	0	0	-nan
2.43238e-05	0	0	-nan
2.44516e-05	0	0	-nan
2.44565e-05	0	0	-nan
2.45538e-05	0	0	-nan
2.46228e-05	0	0	-nan
2.46319e-05	0	0	-nan
2.46486e-05	0	0	-nan
2.47665e-05	0	0	-nan
2.47849e-05	0	0	-nan
2.49586e-05	0	0	-nan
2.50477e-05	0	0	-nan
2.52535e-05	0	0	-nan
2.52654e-05	0	0	-nan
2.549e-05	0	0	-nan
2.5713e-05	0	0	-nan
2.57436e-05	0	0	-nan
2.58274e-05	0	0	-nan
2.5913e-05	0	0	-nan
2.59707e-05	0	0	-nan
2.60487e-05	0	0	-nan
2.61565e-05	0	0	-nan
2.61899e-05	0	0	-nan
2.63583e-05	0	0	-nan
2.63799e-05	0	0	-nan
2.64928e-05	0	0	-nan
2.65732e-05	0	0	-nan
2.65813e-05	0	0	-nan
2.66256e-05	0	0	-nan
2.66779e-05	0	0	-nan
2.70468e-05	0	0	-nan
2.73129e-05	0	0	-nan
2.73473e-05	0	0	-nan
2.73921e-05	0	0	-nan
2.77101e-05	0	0	-nan
2.77195e-05	0	0	-nan
2.81879e-05	0	0	-nan
2.83617e-05	0	0	-nan
2.84064e-05	0	0	-nan
2.86171e-05	0	0	-nan
2.86799e-05	0	0	-nan
2.87762e-05	0	0	-nan
2.87867e-05	0	0	-nan
2.88714e-05	0	0	-nan
2.89614e-05	0	0	-nan
2.90846e-05	0	0	-nan
2.98519e-05	0	0	-nan
2.98927e-05	0	0	-nan
3.00206e-05	0	0	-nan
3.00411e-05	0	0	-nan
3.0233e-05	0	0	-nan
3.05053e-05	0	0	-nan
3.07985e-05	0	0	-nan
3.08205e-05	0	0	-nan
3.08269e-05	0	0	-nan
3.0894e-05	0	0	-nan
3.09061e-05	0	0	-nan
3.09198e-05	0	0	-nan
3.09872e-05	0	0	-nan
3.11843e-05	0	0	-nan
3.13987e-05	0	0	-nan
3.16309e-05	0	0	-nan
3.17326e-05	0	0	-nan
3.17663e-05	0	0	-nan
3.18167e-05	0	0	-nan
3.20601e-05	0	0	-nan
3.21041e-05	0	0	-nan
3.22704e-05	0	0	-nan
3.22812e-05	0	0	-nan
3.23475e-05	0	0	-nan
3.24626e-05	0	0	-nan
3.25922e-05	0	0	-nan
3.26015e-05	0	0	-nan
3.26621e-05	0	0	-nan
3.26892e-05	0	0	-nan
3.27698e-05	0	0	-nan
3.28303e-05	0	0	-nan
3.30263e-05	0	0	-nan
3.31128e-05	0	0	-nan
3.35672e-05	0	0	-nan
3.35842e-05	0	0	-nan
3.3608e-05	0	0	-nan
3.36869e-05	0	0	-nan
3.40139e-05	0	0	-nan
3.40379e-05	0	0	-nan
3.41607e-05	0	0	-nan
3.41755e-05	0	0	-nan
3.41953e-05	0	0	-nan
3.45637e-05	0	0	-nan
3.45868e-05	0	0	-nan
3.49837e-05	0	0	-nan
3.55059e-05	0	0	-nan
3.55168e-05	0	0	-nan
3.56996e-05	0	0	-nan
3.62658e-05	0	0	-nan
3.63882e-05	0	0	-nan
3.64274e-05	0	0	-nan
3.64827e-05	0	0	-nan
3.67939e-05	0	0	-nan
3.67984e-05	0	0	-nan
3.70991e-05	0	0	-nan
3.71852e-05	0	0	-nan
3.73636e-05	0	0	-nan
3.75499e-05	0	0	-nan
3.76657e-05	0	0	-nan
3.76903e-05	0	0	-nan
3.78091e-05	0	0	-nan
3.80712e-05	0	0	-nan
3.81062e-05	0	0	-nan
3.8117e-05	0	0	-nan
3.82744e-05	0	0	-nan
3.8381e-05	0	0	-nan
3.88247e-05	0	0	-nan
3.89792e-05	0	0	-nan
3.90487e-05	0	0	-nan
3.9098e-05	0	0	-nan
3.92481e-05	0	0	-nan
3.98622e-05	0	0	-nan
3.99156e-05	0	0	-nan
3.99282e-05	0	0	-nan
4.01251e-05	0	0	-nan
4.02238e-05	0	0	-nan
4.03057e-05	0	0	-nan
4.03987e-05	0	0	-nan
4.04756e-05	0	0	-nan
4.04762e-05	0	0	-nan
4.07083e-05	0	0	-nan
4.07584e-05	0	0	-nan
4.08744e-05	0	0	-nan
4.09677e-05	0	0	-nan
4.11018e-05	0	0	-nan
4.17025e-05	0	0	-nan
4.22715e-05	0	0	-nan
4.23249e-05	0	0	-nan
4.23588e-05	0	0	-nan
4.2627e-05	0	0	-nan
4.28002e-05	0	0	-nan
4.29447e-05	0	0	-nan
4.29681e-05	0	0	-nan
4.30148e-05	0	0	-nan
4.31075e-05	0	0	-nan
4.32656e-05	0	0	-nan
4.33268e-05	0	0	-nan
4.33457e-05	0	0	-nan
4.33756e-05	0	0	-nan
4.34913e-05	0	0	-nan
4.35006e-05	0	0	-nan
4.35457e-05	0	0	-nan
4.3612e-05	0	0	-nan
4.36433e-05	0	0	-nan
4.38863e-05	0	0	-nan
4.40605e-05	0	0	-nan
4.40733e-05	0	0	-nan
4.40735e-05	0	0	-nan
4.44751e-05	0	0	-nan
4.45048e-05	0	0	-nan
4.46537e-05	0	0	-nan
4.49583e-05	0	0	-nan
4.50365e-05	0	0	-nan
4.50572e-05	0	0	-nan
4.51156e-05	0	0	-nan
4.52351e-05	0	0	-nan
4.55175e-05	0	0	-nan
4.57523e-05	0	0	-nan
4.58341e-05	0	0	-nan
4.62583e-05	0	0	-nan
4.64375e-05	0	0	-nan
4.65263e-05	0	0	-nan
4.65872e-05	0	0	-nan
4.67105e-05	0	0	-nan
4.71015e-05	0	0	-nan
4.71357e-05	0	0	-nan
4.71992e-05	0	0	-nan
4.73126e-05	0	0	-nan
4.78516e-05	0	0	-nan
4.79691e-05	0	0	-nan
4.79817e-05	0	0	-nan
4.80104e-05	0	0	-nan
4.8409e-05	0	0	-nan
4.89762e-05	0	0	-nan
4.90438e-05	0	0	-nan
4.9049e-05	0	0	-nan
4.92667e-05	0	0	-nan
4.96688e-05	0	0	-nan
5.00922e-05	0	0	-nan
5.01498e-05	0	0	-nan
5.0323e-05	0	0	-nan
5.06843e-05	0	0	-nan
5.10347e-05	0	0	-nan
5.14495e-05	0	0	-nan
5.15617e-05	0	0	-nan
5.1756e-05	0	0	-nan
5.17911e-05	0	0	-nan
5.18867e-05	0	0	-nan
5.23858e-05	0	0	-nan
5.24314e-05	0	0	-nan
5.26876e-05	0	0	-nan
5.28223e-05	0	0	-nan
5.30326e-05	0	0	-nan
5.3122e-05	0	0	-nan
5.31496e-05	0	0	-nan
5.32651e-05	0	0	-nan
5.38687e-05	0	0	-nan
5.38782e-05	0	0	-nan
5.38821e-05	0	0	-nan
5.39151e-05	0	0	-nan
5.39951e-05	0	0	-nan
5.41055e-05	0	0	-nan
5.41682e-05	0	0	-nan
5.44649e-05	0	0	-nan
5.45201e-05	0	0	-nan
5.46671e-05	0	0	-nan
5.47065e-05	0	0	-nan
5.50599e-05	0	0	-nan
5.51365e-05	0	0	-nan
5.55864e-05	0	0	-nan
5.57768e-05	0	0	-nan
5.5915e-05	0	0	-nan
5.61893e-05	0	0	-nan
5.65465e-05	0	0	-nan
5.66021e-05	0	0	-nan
5.6703e-05	0	0	-nan
5.69407e-05	0	0	-nan
5.71252e-05	0	0	-nan
5.72623e-05	0	0	-nan
5.72651e-05	0	0	-nan
5.7452e-05	0	0	-nan
5.75812e-05	0	0	-nan
5.801e-05	0	0	-nan
5.80129e-05	0	0	-nan
5.82746e-05	0	0	-nan
5.84135e-05	0	0	-nan
5.84172e-05	0	0	-nan
5.88508e-05	0	0	-nan
5.89494e-05	0	0	-nan
5.91233e-05	0	0	-nan
5.93017e-05	0	0	-nan
5.95901e-05	0	0	-nan
5.95914e-05	0	0	-nan
5.9597e-05	0	0	-nan
5.9627e-05	0	0	-nan
5.96915e-05	0	0	-nan
5.97467e-05	0	0	-nan
5.99167e-05	0	0	-nan
6.0005e-05	0	0	-nan
6.05214e-05	0	0	-nan
6.05254e-05	0	0	-nan
6.05514e-05	0	0	-nan
6.06566e-05	0	0	-nan
6.09323e-05	0	0	-nan
6.09476e-05	0	0	-nan
6.11703e-05	0	0	-nan
6.12698e-05	0	0	-nan
6.16285e-05	0	0	-nan
6.17554e-05	0	0	-nan
6.20153e-05	0	0	-nan
6.20647e-05	0	0	-nan
6.21636e-05	0	0	-nan
6.23506e-05	0	0	-nan
6.26748e-05	0	0	-nan
6.28044e-05	0	0	-nan
6.28548e-05	0	0	-nan
6.30578e-05	0	0	-nan
6.30669e-05	0	0	-nan
6.3115e-05	0	0	-nan
6.31335e-05	0	0	-nan
6.31603e-05	0	0	-nan
6.32713e-05	0	0	-nan
6.35736e-05	0	0	-nan
6.37185e-05	0	0	-nan
6.38761e-05	0	0	-nan
6.39008e-05	0	0	-nan
6.42779e-05	0	0	-nan
6.44638e-05	0	0	-nan
6.5127e-05	0	0	-nan
6.53039e-05	0	0	-nan
6.53303e-05	0	0	-nan
6.57323e-05	0	0	-nan
6.58248e-05	0	0	-nan
6.58491e-05	0	0	-nan
6.6022e-05	0	0	-nan
6.61464e-05	0	0	-nan
6.62549e-05	0	0	-nan
6.62818e-05	0	0	-nan
6.63496e-05	0	0	-nan
6.64958e-05	0	0	-nan
6.68885e-05	0	0	-nan
6.71515e-05	0	0	-nan
6.72122e-05	0	0	-nan
6.72766e-05	0	0	-nan
6.741e-05	0	0	-nan
6.77445e-05	0	0	-nan
6.79352e-05	0	0	-nan
6.80262e-05	0	0	-nan
6.82534e-05	0	0	-nan
6.84451e-05	0	0	-nan
6.84505e-05	0	0	-nan
6.85314e-05	0	0	-nan
6.8625e-05	0	0	-nan
6.90775e-05	0	0	-nan
6.90884e-05	0	0	-nan
6.90998e-05	0	0	-nan
6.91282e-05	0	0	-nan
6.91551e-05	0	0	-nan
6.93036e-05	0	0	-nan
6.94723e-05	0	0	-nan
6.94866e-05	0	0	-nan
6.95763e-05	0	0	-nan
6.97448e-05	0	0	-nan
7.02108e-05	0	0	-nan
7.04472e-05	0	0	-nan
7.06278e-05	0	0	-nan
7.06623e-05	0	0	-nan
7.06652e-05	0	0	-nan
7.0715e-05	0	0	-nan
7.10332e-05	0	0	-nan
7.10735e-05	0	0	-nan
7.1158e-05	0	0	-nan
7.11603e-05	0	0	-nan
7.14108e-05	0	0	-nan
7.1443e-05	0	0	-nan
7.17034e-05	0	0	-nan
7.26041e-05	0	0	-nan
7.2849e-05	0	0	-nan
7.30317e-05	0	0	-nan
7.36125e-05	0	0	-nan
7.40085e-05	0	0	-nan
7.40331e-05	0	0	-nan
7.40464e-05	0	0	-nan
7.40863e-05	0	0	-nan
7.47356e-05	0	0	-nan
7.52904e-05	0	0	-nan
7.6104e-05	0	0	-nan
7.64975e-05	0	0	-nan
7.65601e-05	0	0	-nan
7.65706e-05	0	0	-nan
7.65932e-05	0	0	-nan
7.67299e-05	0	0	-nan
7.68433e-05	0	0	-nan
7.70302e-05	0	0	-nan
7.7084e-05	0	0	-nan
7.70985e-05	0	0	-nan
7.71682e-05	0	0	-nan
7.72946e-05	0	0	-nan
7.78508e-05	0	0	-nan
7.7983e-05	0	0	-nan
7.89948e-05	0	0	-nan
7.9071e-05	0	0	-nan
7.90851e-05	0	0	-nan
7.91063e-05	0	0	-nan
7.98084e-05	0	0	-nan
7.98228e-05	0	0	-nan
7.99479e-05	0	0	-nan
8.00863e-05	0	0	-nan
8.01527e-05	0	0	-nan
8.01543e-05	0	0	-nan
8.08259e-05	0	0	-nan
8.12431e-05	0	0	-nan
8.14108e-05	0	0	-nan
8.21601e-05	0	0	-nan
8.23883e-05	0	0	-nan
8.23924e-05	0	0	-nan
8.24505e-05	0	0	-nan
8.30149e-05	0	0	-nan
8.32363e-05	0	0	-nan
8.38478e-05	0	0	-nan
8.38562e-05	0	0	-nan
8.38956e-05	0	0	-nan
8.41683e-05	0	0	-nan
8.4443e-05	0	0	-nan
8.46537e-05	0	0	-nan
8.51251e-05	0	0	-nan
8.5276e-05	0	0	-nan
8.5375e-05	0	0	-nan
8.56288e-05	0	0	-nan
8.56715e-05	0	0	-nan
8.5712e-05	0	0	-nan
8.5919e-05	0	0	-nan
8.6291e-05	0	0	-nan
8.64522e-05	0	0	-nan
8.69684e-05	0	0	-nan
8.69768e-05	0	0	-nan
8.70044e-05	0	0	-nan
8.76005e-05	0	0	-nan
8.77006e-05	0	0	-nan
8.80492e-05	0	0	-nan
8.80739e-05	0	0	-nan
8.8292e-05	0	0	-nan
8.87746e-05	0	0	-nan
8.91611e-05	0	0	-nan
8.93711e-05	0	0	-nan
8.93814e-05	0	0	-nan
9.01666e-05	0	0	-nan
9.18896e-05	0	0	-nan
9.21707e-05	0	0	-nan
9.21814e-05	0	0	-nan
9.24449e-05	0	0	-nan
9.25901e-05	0	0	-nan
9.26279e-05	0	0	-nan
9.27641e-05	0	0	-nan
9.29288e-05	0	0	-nan
9.29555e-05	0	0	-nan
9.33766e-05	0	0	-nan
9.34204e-05	0	0	-nan
9.35253e-05	0	0	-nan
9.35898e-05	0	0	-nan
9.39269e-05	0	0	-nan
9.43908e-05	0	0	-nan
9.43951e-05	0	0	-nan
9.44489e-05	0	0	-nan
9.56504e-05	0	0	-nan
9.58697e-05	0	0	-nan
9.62789e-05	0	0	-nan
9.63356e-05	0	0	-nan
9.65907e-05	0	0	-nan
9.7581e-05	0	0	-nan
9.76268e-05	0	0	-nan
9.80206e-05	0	0	-nan
9.83073e-05	0	0	-nan
9.89997e-05	0	0	-nan
9.92736e-05	0	0	-nan
9.99847e-05	0	0	-nan
0.00010015	0	0	-nan
0.000100471	0	0	-nan
0.000101057	0	0	-nan
0.000101104	0	0	-nan
0.000101192	0	0	-nan
0.000101524	0	0	-nan
0.000101811	0	0	-nan
0.000101944	0	0	-nan
0.000102118	0	0	-nan
0.000102387	0	0	-nan
0.000103084	0	0	-nan
0.00010318	0	0	-nan
0.000103238	0	0	-nan
0.000104202	0	0	-nan
0.000104496	0	0	-nan
0.000105157	0	0	-nan
0.000105501	0	0	-nan
0.00010562	0	0	-nan
0.000105864	0	0	-nan
0.000105959	0	0	-nan
0.000106246	0	0	-nan
0.00010637	0	0	-nan
0.0001064	0	0	-nan
0.000106548	0	0	-nan
0.000106659	0	0	-nan
0.000107096	0	0	-nan
0.000107358	0	0	-nan
0.000108063	0	0	-nan
0.000108479	0	0	-nan
0.00010886	0	0	-nan
0.000109161	0	0	-nan
0.000109209	0	0	-nan
0.000109301	0	0	-nan
0.000109671	0	0	-nan
0.00010977	0	0	-nan
0.00010984	0	0	-nan
0.000109901	0	0	-nan
0.000110412	0	0	-nan
0.000110758	0	0	-nan
0.000110811	0	0	-nan
0.000110851	0	0	-nan
0.000111134	0	0	-nan
0.000111481	0	0	-nan
0.000112196	0	0	-nan
0.000112197	0	0	-nan
0.000112471	0	0	-nan
0.00011285	0	0	-nan
0.000113241	0	0	-nan
0.000113444	0	0	-nan
0.000113484	0	0	-nan
0.000113537	0	0	-nan
0.000114186	0	0	-nan
0.000114197	0	0	-nan
0.000114433	0	0	-nan
0.000114847	0	0	-nan
0.000114849	0	0	-nan
0.000115945	0	0	-nan
0.000116565	0	0	-nan
0.000116596	0	0	-nan
0.000117049	0	0	-nan
0.000117822	0	0	-nan
0.000118083	0	0	-nan
0.000119133	0	0	-nan
0.000119202	0	0	-nan
0.000120207	0	0	-nan
0.000120324	0	0	-nan
0.00012047	0	0	-nan
0.000120657	0	0	-nan
0.000120712	0	0	-nan
0.000120726	0	0	-nan
0.000122323	0	0	-nan
0.0001233	0	0	-nan
0.000123427	0	0	-nan
0.000124438	0	0	-nan
0.000124838	0	0	-nan
0.000124839	0	0	-nan
0.000125006	0	0	-nan
0.00012507	0	0	-nan
0.000125478	0	0	-nan
0.000125812	0	0	-nan
0.000126557	0	0	-nan
0.000126604	0	0	-nan
0.000126781	0	0	-nan
0.000127004	0	0	-nan
0.000127108	0	0	-nan
0.000127365	0	0	-nan
0.000127914	0	0	-nan
0.000128156	0	0	-nan
0.000128493	0	0	-nan
0.00012922	0	0	-nan
0.000129768	0	0	-nan
0.000129835	0	0	-nan
0.000130354	0	0	-nan
0.000130889	0	0	-nan
0.000131639	0	0	-nan
0.00013203	0	0	-nan
0.000132163	0	0	-nan
0.000133973	0	0	-nan
0.000134088	0	0	-nan
0.000134885	0	0	-nan
0.000134932	0	0	-nan
0.000135849	0	0	-nan
0.000136203	0	0	-nan
0.000136612	0	0	-nan
0.000136724	0	0	-nan
0.000136808	0	0	-nan
0.000138064	0	0	-nan
0.000138193	0	0	-nan
0.000138275	0	0	-nan
0.000138587	0	0	-nan
0.000138937	0	0	-nan
0.000140022	0	0	-nan
0.000140056	0	0	-nan
0.000140578	0	0	-nan
0.000141742	0	0	-nan
0.000142329	0	0	-nan
0.000142885	0	0	-nan
0.000142898	0	0	-nan
0.000142982	0	0	-nan
0.000143144	0	0	-nan
0.000143313	0	0	-nan
0.000143667	0	0	-nan
0.000143877	0	0	-nan
0.000144538	0	0	-nan
0.000144905	0	0	-nan
0.000145448	0	0	-nan
0.000145494	0	0	-nan
0.000145597	0	0	-nan
0.000145826	0	0	-nan
0.00014588	0	0	-nan
0.000145943	0	0	-nan
0.000146391	0	0	-nan
0.000146881	0	0	-nan
0.000147362	0	0	-nan
0.000147398	0	0	-nan
0.000147541	0	0	-nan
0.000147736	0	0	-nan
0.000147812	0	0	-nan
0.000148025	0	0	-nan
0.0001481	0	0	-nan
0.000148131	0	0	-nan
0.000148246	0	0	-nan
0.000148551	0	0	-nan
0.000149092	0	0	-nan
0.000149434	0	0	-nan
0.000150001	0	0	-nan
0.000150123	0	0	-nan
0.000150411	0	0	-nan
0.000150637	0	0	-nan
0.000150936	0	0	-nan
0.00015198	0	0	-nan
0.000152005	0	0	-nan
0.000152359	0	0	-nan
0.000153716	0	0	-nan
0.000154408	0	0	-nan
0.000154952	0	0	-nan
0.000156025	0	0	-nan
0.000156191	0	0	-nan
0.000156195	0	0	-nan
0.000156648	0	0	-nan
0.00015665	0	0	-nan
0.000156653	0	0	-nan
0.000157779	0	0	-nan
0.000159344	0	0	-nan
0.000159487	0	0	-nan
0.000159562	0	0	-nan
0.000160286	0	0	-nan
0.000160762	0	0	-nan
0.000162391	0	0	-nan
0.000163357	0	0	-nan
0.00016411	0	0	-nan
0.000164227	0	0	-nan
0.000164732	0	0	-nan
0.000165072	0	0	-nan
0.000165217	0	0	-nan
0.000165246	0	0	-nan
0.000165392	0	0	-nan
0.000165438	0	0	-nan
0.000165625	0	0	-nan
0.000167178	0	0	-nan
0.000167533	0	0	-nan
0.000167552	0	0	-nan
0.00016762	0	0	-nan
0.000168074	0	0	-nan
0.000168098	0	0	-nan
0.000168282	0	0	-nan
0.000168407	0	0	-nan
0.000168494	0	0	-nan
0.000168938	0	0	-nan
0.000169121	0	0	-nan
0.000169149	0	0	-nan
0.000169564	0	0	-nan
0.000169681	0	0	-nan
0.000170047	0	0	-nan
0.000172078	0	0	-nan
0.000174016	0	0	-nan
0.000175273	0	0	-nan
0.000175581	0	0	-nan
0.000176153	0	0	-nan
0.000176472	0	0	-nan
0.000176475	0	0	-nan
0.000176822	0	0	-nan
0.000177048	0	0	-nan
0.000177283	0	0	-nan
0.000177434	0	0	-nan
0.000177822	0	0	-nan
0.000177838	0	0	-nan
0.000178272	0	0	-nan
0.00017887	0	0	-nan
0.000179102	0	0	-nan
0.000179141	0	0	-nan
0.0001793	0	0	-nan
0.000179784	0	0	-nan
0.000179978	0	0	-nan
0.000180357	0	0	-nan
0.000180603	0	0	-nan
0.000182341	0	0	-nan
0.000182397	0	0	-nan
0.000182892	0	0	-nan
0.000182943	0	0	-nan
0.000183036	0	0	-nan
0.000183113	0	0	-nan
0.00018332	0	0	-nan
0.000183923	0	0	-nan
0.000184795	0	0	-nan
0.000184985	0	0	-nan
0.000185593	0	0	-nan
0.000185704	0	0	-nan
0.000186167	0	0	-nan
0.000186281	0	0	-nan
0.00018666	0	0	-nan
0.000186961	0	0	-nan
0.00018708	0	0	-nan
0.000187635	0	0	-nan
0.000187868	0	0	-nan
0.000188201	0	0	-nan
0.000189093	0	0	-nan
0.000189355	0	0	-nan
0.000189685	0	0	-nan
0.000190683	0	0	-nan
0.000190762	0	0	-nan
0.000190882	0	0	-nan
0.000191381	0	0	-nan
0.000191798	0	0	-nan
0.000192517	0	0	-nan
0.000193308	0	0	-nan
0.000193449	0	0	-nan
0.000193632	0	0	-nan
0.000193753	0	0	-nan
0.000194062	0	0	-nan
0.000194712	0	0	-nan
0.000194741	0	0	-nan
0.000195339	0	0	-nan
0.000195699	0	0	-nan
0.000195825	0	0	-nan
0.000195972	0	0	-nan
0.000197446	0	0	-nan
0.000197467	0	0	-nan
0.000200628	0	0	-nan
0.000200915	0	0	-nan
0.000202568	0	0	-nan
0.000202671	0	0	-nan
0.000203054	0	0	-nan
0.000203073	0	0	-nan
0.000203336	0	0	-nan
0.000203395	0	0	-nan
0.000205718	0	0	-nan
0.000206031	0	0	-nan
0.000207515	0	0	-nan
0.000207728	0	0	-nan
0.000208262	0	0	-nan
0.000209359	0	0	-nan
0.000209454	0	0	-nan
0.000211337	0	0	-nan
0.000211458	0	0	-nan
0.000212257	0	0	-nan
0.000212341	0	0	-nan
0.000214745	0	0	-nan
0.000215378	0	0	-nan
0.000215629	0	0	-nan
0.000216141	0	0	-nan
0.000216223	0	0	-nan
0.00021667	0	0	-nan
0.000216776	0	0	-nan
0.000217148	0	0	-nan
0.000217229	0	0	-nan
0.000217306	0	0	-nan
0.000217427	0	0	-nan
0.000218249	0	0	-nan
0.000218765	0	0	-nan
0.000219198	0	0	-nan
0.000219541	0	0	-nan
0.000220845	0	0	-nan
0.000221883	0	0	-nan
0.000222166	0	0	-nan
0.000222476	0	0	-nan
0.000222868	0	0	-nan
0.000223842	0	0	-nan
0.00022572	0	0	-nan
0.000225896	0	0	-nan
0.000225955	0	0	-nan
0.000227229	0	0	-nan
0.000228176	0	0	-nan
0.000228456	0	0	-nan
0.00022936	0	0	-nan
0.000231607	0	0	-nan
0.000232019	0	0	-nan
0.000232497	0	0	-nan
0.000232873	0	0	-nan
0.000233486	0	0	-nan
0.00023455	0	0	-nan
0.000235331	0	0	-nan
0.00023664	0	0	-nan
0.000236756	0	0	-nan
0.000239107	0	0	-nan
0.000241884	0	0	-nan
0.000241936	0	0	-nan
0.000242309	0	0	-nan
0.000242327	0	0	-nan
0.000242447	0	0	-nan
0.000244123	0	0	-nan
0.000245365	0	0	-nan
0.000246001	0	0	-nan
0.000246253	0	0	-nan
0.000246727	0	0	-nan
0.000247475	0	0	-nan
0.000250872	0	0	-nan
0.000252465	0	0	-nan
0.00025362	0	0	-nan
0.000253659	0	0	-nan
0.000253909	0	0	-nan
0.000254946	0	0	-nan
0.000255012	0	0	-nan
0.000255654	0	0	-nan
0.000257648	0	0	-nan
0.000258461	0	0	-nan
0.000258487	0	0	-nan
0.000259818	0	0	-nan
0.000261316	0	0	-nan
0.000263846	0	0	-nan
0.00026411	0	0	-nan
0.000264241	0	0	-nan
0.000265015	0	0	-nan
0.000265042	0	0	-nan
0.000265525	0	0	-nan
0.000265901	0	0	-nan
0.000266946	0	0	-nan
0.000267301	0	0	-nan
0.000267594	0	0	-nan
0.000268088	0	0	-nan
0.000268416	0	0	-nan
0.000268643	0	0	-nan
0.000269402	0	0	-nan
0.00026974	0	0	-nan
0.000270721	0	0	-nan
0.000270991	0	0	-nan
0.000272768	0	0	-nan
0.000273422	0	0	-nan
0.000274	0	0	-nan
0.000274018	0	0	-nan
0.000274343	0	0	-nan
0.000274918	0	0	-nan
0.000275003	0	0	-nan
0.000277111	0	0	-nan
0.000277398	0	0	-nan
0.000277414	0	0	-nan
0.000278823	0	0	-nan
0.000279717	0	0	-nan
0.000279854	0	0	-nan
0.000282207	0	0	-nan
0.000282254	0	0	-nan
0.000282299	0	0	-nan
0.000283665	0	0	-nan
0.000284893	0	0	-nan
0.000286378	0	0	-nan
0.000287717	0	0	-nan
0.000287725	0	0	-nan
0.000292727	0	0	-nan
0.000294771	0	0	-nan
0.000295134	0	0	-nan
0.000295336	0	0	-nan
0.000296088	0	0	-nan
0.00029628	0	0	-nan
0.0002989	0	0	-nan
0.000299726	0	0	-nan
0.000302103	0	0	-nan
0.000302394	0	0	-nan
0.000302411	0	0	-nan
0.000303407	0	0	-nan
0.000304012	0	0	-nan
0.000304467	0	0	-nan
0.000305034	0	0	-nan
0.000305529	0	0	-nan
0.000306055	0	0	-nan
0.000306474	0	0	-nan
0.000306483	0	0	-nan
0.000309634	0	0	-nan
0.000311066	0	0	-nan
0.000313464	0	0	-nan
0.000314865	0	0	-nan
0.000316644	0	0	-nan
0.000317139	0	0	-nan
0.000317284	0	0	-nan
0.000319266	0	0	-nan
0.000321841	0	0	-nan
0.000322021	0	0	-nan
0.000323193	0	0	-nan
0.000326919	0	0	-nan
0.000327245	0	0	-nan
0.000329253	0	0	-nan
0.000330448	0	0	-nan
0.000330813	0	0	-nan
0.000333692	0	0	-nan
0.000334244	0	0	-nan
0.00033517	0	0	-nan
0.000335818	0	0	-nan
0.00033589	0	0	-nan
0.000336134	0	0	-nan
0.000336311	0	0	-nan
0.0003371	0	0	-nan
0.000337408	0	0	-nan
0.000338644	0	0	-nan
0.000342187	0	0	-nan
0.000342553	0	0	-nan
0.000342703	0	0	-nan
0.000343626	0	0	-nan
0.000344456	0	0	-nan
0.000345159	0	0	-nan
0.000345998	0	0	-nan
0.000349386	0	0	-nan
0.000350097	0	0	-nan
0.00035109	0	0	-nan
0.00035111	0	0	-nan
0.000355438	0	0	-nan
0.000356782	0	0	-nan
0.000356867	0	0	-nan
0.000357762	0	0	-nan
0.000357947	0	0	-nan
0.000358917	0	0	-nan
0.000359247	0	0	-nan
0.000362951	0	0	-nan
0.000363979	0	0	-nan
0.000364307	0	0	-nan
0.00036574	0	0	-nan
0.00036651	0	0	-nan
0.000368418	0	0	-nan
0.000368791	0	0	-nan
0.000370641	0	0	-nan
0.000370899	0	0	-nan
0.000371573	0	0	-nan
0.000371833	0	0	-nan
0.000374414	0	0	-nan
0.000377996	0	0	-nan
0.000378076	0	0	-nan
0.000378089	0	0	-nan
0.000383115	0	0	-nan
0.000386848	0	0	-nan
0.000389205	0	0	-nan
0.000389557	0	0	-nan
0.000396076	0	0	-nan
0.00040023	0	0	-nan
0.000401996	0	0	-nan
0.000402503	0	0	-nan
0.000406248	0	0	-nan
0.000407966	0	0	-nan
0.000414691	0	0	-nan
0.000421209	0	0	-nan
0.000422379	0	0	-nan
0.000422699	0	0	-nan
0.000426508	0	0	-nan
0.000426835	0	0	-nan
0.000430121	0	0	-nan
0.00043463	0	0	-nan
0.000435065	0	0	-nan
0.000435966	0	0	-nan
0.000436256	0	0	-nan
0.000436515	0	0	-nan
0.000439202	0	0	-nan
0.000441322	0	0	-nan
0.000442479	0	0	-nan
0.000443566	0	0	-nan
0.000445579	0	0	-nan
0.000446034	0	0	-nan
0.000446305	0	0	-nan
0.000448504	0	0	-nan
0.000449559	0	0	-nan
0.000450289	0	0	-nan
0.00045151	0	0	-nan
0.000451872	0	0	-nan
0.000452941	0	0	-nan
0.000456491	0	0	-nan
0.000459258	0	0	-nan
0.000461073	0	0	-nan
0.000464723	0	0	-nan
0.000464911	0	0	-nan
0.000465382	0	0	-nan
0.000466554	0	0	-nan
0.000474758	0	0	-nan
0.000478262	0	0	-nan
0.000483775	0	0	-nan
0.00048429	0	0	-nan
0.000487151	0	0	-nan
0.000487445	0	0	-nan
0.000489062	0	0	-nan
0.000492118	0	0	-nan
0.00049389	0	0	-nan
0.000494623	0	0	-nan
0.000499928	0	0	-nan
0.000501572	0	0	-nan
0.000504445	0	0	-nan
0.000506284	0	0	-nan
0.000507675	0	0	-nan
0.000511718	0	0	-nan
0.00051609	0	0	-nan
0.000517742	0	0	-nan
0.000519348	0	0	-nan
0.000520127	0	0	-nan
0.000523784	0	0	-nan
0.000524774	0	0	-nan
0.000526002	0	0	-nan
0.000526208	0	0	-nan
0.000529729	0	0	-nan
0.000533701	0	0	-nan
0.00053486	0	0	-nan
0.000538769	0	0	-nan
0.000543446	0	0	-nan
0.000543754	0	0	-nan
0.000544873	0	0	-nan
0.000546217	0	0	-nan
0.000549747	0	0	-nan
0.00055157	0	0	-nan
0.000554371	0	0	-nan
0.000558186	0	0	-nan
0.000558771	0	0	-nan
0.000559648	0	0	-nan
0.000563466	0	0	-nan
0.000563701	0	0	-nan
0.000565626	0	0	-nan
0.00056889	0	0	-nan
0.000569058	0	0	-nan
0.000574157	0	0	-nan
0.000576782	0	0	-nan
0.000579312	0	0	-nan
0.000580717	0	0	-nan
0.000582904	0	0	-nan
0.000585036	0	0	-nan
0.000591918	0	0	-nan
0.000592167	0	0	-nan
0.00060089	0	0	-nan
0.000606028	0	0	-nan
0.000606224	0	0	-nan
0.000614967	0	0	-nan
0.000615679	0	0	-nan
0.000616316	0	0	-nan
0.000616683	0	0	-nan
0.00061783	0	0	-nan
0.000623913	0	0	-nan
0.000625734	0	0	-nan
0.000629021	0	0	-nan
0.000637201	0	0	-nan
0.0006376	0	0	-nan
0.000643674	0	0	-nan
0.000649674	0	0	-nan
0.000650093	0	0	-nan
0.000654213	0	0	-nan
0.000654788	0	0	-nan
0.000675244	0	0	-nan
0.000676313	0	0	-nan
0.000681167	0	0	-nan
0.000690191	0	0	-nan
0.000704829	0	0	-nan
0.000705336	0	0	-nan
0.00070709	0	0	-nan
0.000710283	0	0	-nan
0.000718344	0	0	-nan
0.000720284	0	0	-nan
0.000724574	0	0	-nan
0.000726508	0	0	-nan
0.000727111	0	0	-nan
0.000733904	0	0	-nan
0.000751592	0	0	-nan
0.000753229	0	0	-nan
0.000763385	0	0	-nan
0.0007749	0	0	-nan
0.000792266	0	0	-nan
0.000803027	0	0	-nan
0.000819766	0	0	-nan
0.000846053	0	0	-nan
0.00084858	0	0	-nan
0.000852065	0	0	-nan
0.000853011	0	0	-nan
0.000855422	0	0	-nan
0.000867535	0	0	-nan
0.000871127	0	0	-nan
0.000895776	0	0	-nan
0.000901215	0	0	-nan
0.000939292	0	0	-nan
0.000941338	0	0	-nan
0.000966888	0	0	-nan
0.000970681	0	0	-nan
0.00100215	0	0	-nan
0.00109969	0	0	-nan
0.00120373	0	0	-nan
0.00141664	0	0	-nan
0.00144547	0	0	-nan
0.00159552	0	0	-nan
