2.34188e-08	0	0	-nan
8.33074e-08	0	0	-nan
1.36345e-07	0	0	-nan
4.87941e-07	0	0	-nan
5.08333e-07	0	0	-nan
5.44729e-07	0	0	-nan
5.95393e-07	0	0	-nan
7.10889e-07	0	0	-nan
7.53429e-07	0	0	-nan
7.88625e-07	0	0	-nan
8.22596e-07	0	0	-nan
8.89803e-07	0	0	-nan
9.21718e-07	0	0	-nan
1.06906e-06	0	0	-nan
1.23251e-06	0	0	-nan
1.23619e-06	0	0	-nan
1.31171e-06	0	0	-nan
1.44832e-06	0	0	-nan
1.45974e-06	0	0	-nan
1.52999e-06	0	0	-nan
1.77849e-06	0	0	-nan
1.90115e-06	0	0	-nan
1.99201e-06	0	0	-nan
2.05934e-06	0	0	-nan
2.06799e-06	0	0	-nan
2.09953e-06	0	0	-nan
2.19071e-06	0	0	-nan
2.21021e-06	0	0	-nan
2.40368e-06	0	0	-nan
2.42061e-06	0	0	-nan
2.79102e-06	0	0	-nan
2.82967e-06	0	0	-nan
2.84884e-06	0	0	-nan
2.84967e-06	0	0	-nan
3.25139e-06	0	0	-nan
3.39778e-06	0	0	-nan
3.434e-06	0	0	-nan
3.47396e-06	0	0	-nan
3.4917e-06	0	0	-nan
3.62221e-06	0	0	-nan
3.64923e-06	0	0	-nan
3.67859e-06	0	0	-nan
3.94348e-06	0	0	-nan
4.13591e-06	0	0	-nan
4.14144e-06	0	0	-nan
4.17765e-06	0	0	-nan
4.2175e-06	0	0	-nan
4.48259e-06	0	0	-nan
4.51363e-06	0	0	-nan
4.62049e-06	0	0	-nan
4.85321e-06	0	0	-nan
4.96949e-06	0	0	-nan
5.06077e-06	0	0	-nan
5.20786e-06	0	0	-nan
5.23674e-06	0	0	-nan
5.37869e-06	0	0	-nan
5.39932e-06	0	0	-nan
5.41071e-06	0	0	-nan
5.53403e-06	0	0	-nan
5.54759e-06	0	0	-nan
5.58664e-06	0	0	-nan
5.62948e-06	0	0	-nan
5.77646e-06	0	0	-nan
5.88427e-06	0	0	-nan
5.90342e-06	0	0	-nan
5.91291e-06	0	0	-nan
6.07622e-06	0	0	-nan
6.19886e-06	0	0	-nan
6.27808e-06	0	0	-nan
6.31362e-06	0	0	-nan
6.33107e-06	0	0	-nan
6.33824e-06	0	0	-nan
6.43144e-06	0	0	-nan
6.50192e-06	0	0	-nan
6.5379e-06	0	0	-nan
6.67021e-06	0	0	-nan
6.67351e-06	0	0	-nan
6.69496e-06	0	0	-nan
6.85375e-06	0	0	-nan
6.91746e-06	0	0	-nan
7.00233e-06	0	0	-nan
7.30981e-06	0	0	-nan
7.40393e-06	0	0	-nan
7.71779e-06	0	0	-nan
8.09155e-06	0	0	-nan
8.09275e-06	0	0	-nan
8.18828e-06	0	0	-nan
8.20421e-06	0	0	-nan
8.2752e-06	0	0	-nan
8.27686e-06	0	0	-nan
8.33099e-06	0	0	-nan
8.42932e-06	0	0	-nan
8.43813e-06	0	0	-nan
8.45354e-06	0	0	-nan
8.62606e-06	0	0	-nan
8.68375e-06	0	0	-nan
8.97458e-06	0	0	-nan
9.04622e-06	0	0	-nan
9.30159e-06	0	0	-nan
9.34747e-06	0	0	-nan
9.47342e-06	0	0	-nan
9.62259e-06	0	0	-nan
9.68887e-06	0	0	-nan
9.89182e-06	0	0	-nan
1.00687e-05	0	0	-nan
1.03384e-05	0	0	-nan
1.10615e-05	0	0	-nan
1.12363e-05	0	0	-nan
1.12386e-05	0	0	-nan
1.15132e-05	0	0	-nan
1.16983e-05	0	0	-nan
1.18902e-05	0	0	-nan
1.19805e-05	0	0	-nan
1.21458e-05	0	0	-nan
1.22884e-05	0	0	-nan
1.25932e-05	0	0	-nan
1.26398e-05	0	0	-nan
1.26974e-05	0	0	-nan
1.27569e-05	0	0	-nan
1.27598e-05	0	0	-nan
1.29148e-05	0	0	-nan
1.29577e-05	0	0	-nan
1.29892e-05	0	0	-nan
1.29917e-05	0	0	-nan
1.30859e-05	0	0	-nan
1.32608e-05	0	0	-nan
1.33797e-05	0	0	-nan
1.34314e-05	0	0	-nan
1.3479e-05	0	0	-nan
1.35041e-05	0	0	-nan
1.35701e-05	0	0	-nan
1.35718e-05	0	0	-nan
1.3737e-05	0	0	-nan
1.38706e-05	0	0	-nan
1.39894e-05	0	0	-nan
1.43856e-05	0	0	-nan
1.45385e-05	0	0	-nan
1.45407e-05	0	0	-nan
1.46113e-05	0	0	-nan
1.4755e-05	0	0	-nan
1.47834e-05	0	0	-nan
1.48603e-05	0	0	-nan
1.50027e-05	0	0	-nan
1.50327e-05	0	0	-nan
1.5494e-05	0	0	-nan
1.55683e-05	0	0	-nan
1.57569e-05	0	0	-nan
1.59316e-05	0	0	-nan
1.60241e-05	0	0	-nan
1.61408e-05	0	0	-nan
1.6423e-05	0	0	-nan
1.64373e-05	0	0	-nan
1.64631e-05	0	0	-nan
1.67661e-05	0	0	-nan
1.67806e-05	0	0	-nan
1.68155e-05	0	0	-nan
1.6921e-05	0	0	-nan
1.70504e-05	0	0	-nan
1.73658e-05	0	0	-nan
1.74115e-05	0	0	-nan
1.74726e-05	0	0	-nan
1.75489e-05	0	0	-nan
1.75662e-05	0	0	-nan
1.76502e-05	0	0	-nan
1.76703e-05	0	0	-nan
1.77886e-05	0	0	-nan
1.78219e-05	0	0	-nan
1.79354e-05	0	0	-nan
1.79482e-05	0	0	-nan
1.79831e-05	0	0	-nan
1.80915e-05	0	0	-nan
1.83128e-05	0	0	-nan
1.83787e-05	0	0	-nan
1.84178e-05	0	0	-nan
1.86326e-05	0	0	-nan
1.86608e-05	0	0	-nan
1.87099e-05	0	0	-nan
1.88506e-05	0	0	-nan
1.88945e-05	0	0	-nan
1.90503e-05	0	0	-nan
1.91055e-05	0	0	-nan
1.91196e-05	0	0	-nan
1.91357e-05	0	0	-nan
1.92389e-05	0	0	-nan
1.93067e-05	0	0	-nan
1.93376e-05	0	0	-nan
1.94541e-05	0	0	-nan
1.94971e-05	0	0	-nan
1.99015e-05	0	0	-nan
2.01458e-05	0	0	-nan
2.02481e-05	0	0	-nan
2.04295e-05	0	0	-nan
2.04532e-05	0	0	-nan
2.04587e-05	0	0	-nan
2.04748e-05	0	0	-nan
2.06001e-05	0	0	-nan
2.0842e-05	0	0	-nan
2.08591e-05	0	0	-nan
2.08679e-05	0	0	-nan
2.1009e-05	0	0	-nan
2.10199e-05	0	0	-nan
2.10693e-05	0	0	-nan
2.10925e-05	0	0	-nan
2.14833e-05	0	0	-nan
2.15059e-05	0	0	-nan
2.16452e-05	0	0	-nan
2.18651e-05	0	0	-nan
2.21067e-05	0	0	-nan
2.25044e-05	0	0	-nan
2.25051e-05	0	0	-nan
2.26259e-05	0	0	-nan
2.27404e-05	0	0	-nan
2.2755e-05	0	0	-nan
2.28277e-05	0	0	-nan
2.29444e-05	0	0	-nan
2.29989e-05	0	0	-nan
2.30481e-05	0	0	-nan
2.31731e-05	0	0	-nan
2.33201e-05	0	0	-nan
2.33267e-05	0	0	-nan
2.36483e-05	0	0	-nan
2.36808e-05	0	0	-nan
2.3881e-05	0	0	-nan
2.39188e-05	0	0	-nan
2.39632e-05	0	0	-nan
2.39936e-05	0	0	-nan
2.42006e-05	0	0	-nan
2.44973e-05	0	0	-nan
2.45888e-05	0	0	-nan
2.4621e-05	0	0	-nan
2.47273e-05	0	0	-nan
2.49146e-05	0	0	-nan
2.49601e-05	0	0	-nan
2.53461e-05	0	0	-nan
2.53617e-05	0	0	-nan
2.53672e-05	0	0	-nan
2.53833e-05	0	0	-nan
2.54042e-05	0	0	-nan
2.54748e-05	0	0	-nan
2.55994e-05	0	0	-nan
2.56656e-05	0	0	-nan
2.59216e-05	0	0	-nan
2.59492e-05	0	0	-nan
2.59964e-05	0	0	-nan
2.60536e-05	0	0	-nan
2.60851e-05	0	0	-nan
2.62124e-05	0	0	-nan
2.71395e-05	0	0	-nan
2.776e-05	0	0	-nan
2.78587e-05	0	0	-nan
2.7917e-05	0	0	-nan
2.79534e-05	0	0	-nan
2.81109e-05	0	0	-nan
2.8113e-05	0	0	-nan
2.81642e-05	0	0	-nan
2.82297e-05	0	0	-nan
2.83361e-05	0	0	-nan
2.84217e-05	0	0	-nan
2.84298e-05	0	0	-nan
2.84485e-05	0	0	-nan
2.84817e-05	0	0	-nan
2.84842e-05	0	0	-nan
2.85157e-05	0	0	-nan
2.85226e-05	0	0	-nan
2.86592e-05	0	0	-nan
2.87099e-05	0	0	-nan
2.91146e-05	0	0	-nan
2.91166e-05	0	0	-nan
2.94403e-05	0	0	-nan
2.95712e-05	0	0	-nan
2.96395e-05	0	0	-nan
3.05113e-05	0	0	-nan
3.05996e-05	0	0	-nan
3.06305e-05	0	0	-nan
3.06459e-05	0	0	-nan
3.09206e-05	0	0	-nan
3.11824e-05	0	0	-nan
3.13957e-05	0	0	-nan
3.14811e-05	0	0	-nan
3.15085e-05	0	0	-nan
3.18938e-05	0	0	-nan
3.18956e-05	0	0	-nan
3.20914e-05	0	0	-nan
3.23339e-05	0	0	-nan
3.23557e-05	0	0	-nan
3.25254e-05	0	0	-nan
3.30159e-05	0	0	-nan
3.31547e-05	0	0	-nan
3.32709e-05	0	0	-nan
3.34249e-05	0	0	-nan
3.3516e-05	0	0	-nan
3.35277e-05	0	0	-nan
3.36733e-05	0	0	-nan
3.36774e-05	0	0	-nan
3.37459e-05	0	0	-nan
3.37461e-05	0	0	-nan
3.402e-05	0	0	-nan
3.41021e-05	0	0	-nan
3.41151e-05	0	0	-nan
3.42286e-05	0	0	-nan
3.42713e-05	0	0	-nan
3.45376e-05	0	0	-nan
3.46542e-05	0	0	-nan
3.47045e-05	0	0	-nan
3.4818e-05	0	0	-nan
3.49297e-05	0	0	-nan
3.49382e-05	0	0	-nan
3.50785e-05	0	0	-nan
3.50795e-05	0	0	-nan
3.53531e-05	0	0	-nan
3.55018e-05	0	0	-nan
3.55098e-05	0	0	-nan
3.55276e-05	0	0	-nan
3.55887e-05	0	0	-nan
3.57657e-05	0	0	-nan
3.59597e-05	0	0	-nan
3.59768e-05	0	0	-nan
3.60846e-05	0	0	-nan
3.6115e-05	0	0	-nan
3.63365e-05	0	0	-nan
3.64277e-05	0	0	-nan
3.65518e-05	0	0	-nan
3.65866e-05	0	0	-nan
3.66153e-05	0	0	-nan
3.68496e-05	0	0	-nan
3.69425e-05	0	0	-nan
3.71083e-05	0	0	-nan
3.71952e-05	0	0	-nan
3.73542e-05	0	0	-nan
3.76389e-05	0	0	-nan
3.77516e-05	0	0	-nan
3.77657e-05	0	0	-nan
3.77675e-05	0	0	-nan
3.80837e-05	0	0	-nan
3.82666e-05	0	0	-nan
3.83505e-05	0	0	-nan
3.84259e-05	0	0	-nan
3.84965e-05	0	0	-nan
3.91895e-05	0	0	-nan
3.94526e-05	0	0	-nan
3.94985e-05	0	0	-nan
3.95472e-05	0	0	-nan
3.98328e-05	0	0	-nan
3.99295e-05	0	0	-nan
4.00553e-05	0	0	-nan
4.01564e-05	0	0	-nan
4.04737e-05	0	0	-nan
4.0725e-05	0	0	-nan
4.08299e-05	0	0	-nan
4.09664e-05	0	0	-nan
4.11734e-05	0	0	-nan
4.17099e-05	0	0	-nan
4.1857e-05	0	0	-nan
4.19407e-05	0	0	-nan
4.22475e-05	0	0	-nan
4.22497e-05	0	0	-nan
4.23805e-05	0	0	-nan
4.24528e-05	0	0	-nan
4.25886e-05	0	0	-nan
4.26751e-05	0	0	-nan
4.27176e-05	0	0	-nan
4.2957e-05	0	0	-nan
4.29993e-05	0	0	-nan
4.30985e-05	0	0	-nan
4.32943e-05	0	0	-nan
4.36482e-05	0	0	-nan
4.38687e-05	0	0	-nan
4.38773e-05	0	0	-nan
4.39343e-05	0	0	-nan
4.39483e-05	0	0	-nan
4.40893e-05	0	0	-nan
4.43217e-05	0	0	-nan
4.43675e-05	0	0	-nan
4.43785e-05	0	0	-nan
4.46304e-05	0	0	-nan
4.48455e-05	0	0	-nan
4.50879e-05	0	0	-nan
4.54158e-05	0	0	-nan
4.55252e-05	0	0	-nan
4.57728e-05	0	0	-nan
4.58499e-05	0	0	-nan
4.6047e-05	0	0	-nan
4.65751e-05	0	0	-nan
4.71861e-05	0	0	-nan
4.73078e-05	0	0	-nan
4.74974e-05	0	0	-nan
4.76167e-05	0	0	-nan
4.76754e-05	0	0	-nan
4.76946e-05	0	0	-nan
4.77475e-05	0	0	-nan
4.78355e-05	0	0	-nan
4.78712e-05	0	0	-nan
4.78806e-05	0	0	-nan
4.79965e-05	0	0	-nan
4.82759e-05	0	0	-nan
4.86495e-05	0	0	-nan
4.86905e-05	0	0	-nan
4.89264e-05	0	0	-nan
4.8962e-05	0	0	-nan
4.90155e-05	0	0	-nan
4.91687e-05	0	0	-nan
4.92138e-05	0	0	-nan
4.92561e-05	0	0	-nan
4.92712e-05	0	0	-nan
4.93428e-05	0	0	-nan
4.94906e-05	0	0	-nan
4.95376e-05	0	0	-nan
4.9848e-05	0	0	-nan
5.00292e-05	0	0	-nan
5.0594e-05	0	0	-nan
5.05961e-05	0	0	-nan
5.06446e-05	0	0	-nan
5.08829e-05	0	0	-nan
5.12617e-05	0	0	-nan
5.14524e-05	0	0	-nan
5.1596e-05	0	0	-nan
5.18793e-05	0	0	-nan
5.20401e-05	0	0	-nan
5.21058e-05	0	0	-nan
5.22498e-05	0	0	-nan
5.24375e-05	0	0	-nan
5.24853e-05	0	0	-nan
5.27719e-05	0	0	-nan
5.29134e-05	0	0	-nan
5.33663e-05	0	0	-nan
5.35833e-05	0	0	-nan
5.38551e-05	0	0	-nan
5.3917e-05	0	0	-nan
5.41177e-05	0	0	-nan
5.42455e-05	0	0	-nan
5.4416e-05	0	0	-nan
5.44429e-05	0	0	-nan
5.46197e-05	0	0	-nan
5.46497e-05	0	0	-nan
5.48416e-05	0	0	-nan
5.49478e-05	0	0	-nan
5.49548e-05	0	0	-nan
5.50066e-05	0	0	-nan
5.51351e-05	0	0	-nan
5.52933e-05	0	0	-nan
5.53628e-05	0	0	-nan
5.54894e-05	0	0	-nan
5.5732e-05	0	0	-nan
5.59166e-05	0	0	-nan
5.62237e-05	0	0	-nan
5.65824e-05	0	0	-nan
5.66092e-05	0	0	-nan
5.66143e-05	0	0	-nan
5.66192e-05	0	0	-nan
5.69482e-05	0	0	-nan
5.72351e-05	0	0	-nan
5.74454e-05	0	0	-nan
5.76301e-05	0	0	-nan
5.76811e-05	0	0	-nan
5.7967e-05	0	0	-nan
5.82893e-05	0	0	-nan
5.83567e-05	0	0	-nan
5.85284e-05	0	0	-nan
5.86757e-05	0	0	-nan
5.87219e-05	0	0	-nan
5.90363e-05	0	0	-nan
5.90458e-05	0	0	-nan
5.92118e-05	0	0	-nan
5.97837e-05	0	0	-nan
5.97861e-05	0	0	-nan
5.99094e-05	0	0	-nan
6.02327e-05	0	0	-nan
6.0481e-05	0	0	-nan
6.0596e-05	0	0	-nan
6.0937e-05	0	0	-nan
6.19733e-05	0	0	-nan
6.21428e-05	0	0	-nan
6.22401e-05	0	0	-nan
6.25638e-05	0	0	-nan
6.28193e-05	0	0	-nan
6.37216e-05	0	0	-nan
6.38492e-05	0	0	-nan
6.39053e-05	0	0	-nan
6.42054e-05	0	0	-nan
6.43594e-05	0	0	-nan
6.45778e-05	0	0	-nan
6.49218e-05	0	0	-nan
6.57788e-05	0	0	-nan
6.58535e-05	0	0	-nan
6.67516e-05	0	0	-nan
6.70293e-05	0	0	-nan
6.70544e-05	0	0	-nan
6.72599e-05	0	0	-nan
6.7274e-05	0	0	-nan
6.784e-05	0	0	-nan
6.79318e-05	0	0	-nan
6.84047e-05	0	0	-nan
6.84145e-05	0	0	-nan
6.86005e-05	0	0	-nan
6.86107e-05	0	0	-nan
6.9006e-05	0	0	-nan
6.96937e-05	0	0	-nan
6.98933e-05	0	0	-nan
7.01108e-05	0	0	-nan
7.08994e-05	0	0	-nan
7.09199e-05	0	0	-nan
7.09731e-05	0	0	-nan
7.10874e-05	0	0	-nan
7.14571e-05	0	0	-nan
7.15474e-05	0	0	-nan
7.19577e-05	0	0	-nan
7.21586e-05	0	0	-nan
7.23706e-05	0	0	-nan
7.29184e-05	0	0	-nan
7.32392e-05	0	0	-nan
7.32674e-05	0	0	-nan
7.34501e-05	0	0	-nan
7.3496e-05	0	0	-nan
7.35042e-05	0	0	-nan
7.3967e-05	0	0	-nan
7.40226e-05	0	0	-nan
7.43917e-05	0	0	-nan
7.43989e-05	0	0	-nan
7.43996e-05	0	0	-nan
7.46566e-05	0	0	-nan
7.49294e-05	0	0	-nan
7.49862e-05	0	0	-nan
7.56997e-05	0	0	-nan
7.59895e-05	0	0	-nan
7.68786e-05	0	0	-nan
7.7333e-05	0	0	-nan
7.75631e-05	0	0	-nan
7.78927e-05	0	0	-nan
7.80341e-05	0	0	-nan
7.81417e-05	0	0	-nan
7.8402e-05	0	0	-nan
7.85892e-05	0	0	-nan
7.95383e-05	0	0	-nan
7.9666e-05	0	0	-nan
7.97924e-05	0	0	-nan
7.99614e-05	0	0	-nan
8.00145e-05	0	0	-nan
8.0122e-05	0	0	-nan
8.0161e-05	0	0	-nan
8.02961e-05	0	0	-nan
8.03233e-05	0	0	-nan
8.04616e-05	0	0	-nan
8.09359e-05	0	0	-nan
8.14992e-05	0	0	-nan
8.16051e-05	0	0	-nan
8.16284e-05	0	0	-nan
8.20139e-05	0	0	-nan
8.24266e-05	0	0	-nan
8.25806e-05	0	0	-nan
8.28512e-05	0	0	-nan
8.30218e-05	0	0	-nan
8.31873e-05	0	0	-nan
8.48032e-05	0	0	-nan
8.48249e-05	0	0	-nan
8.49126e-05	0	0	-nan
8.56062e-05	0	0	-nan
8.58737e-05	0	0	-nan
8.60588e-05	0	0	-nan
8.61403e-05	0	0	-nan
8.62237e-05	0	0	-nan
8.63121e-05	0	0	-nan
8.63577e-05	0	0	-nan
8.641e-05	0	0	-nan
8.67822e-05	0	0	-nan
8.68643e-05	0	0	-nan
8.71176e-05	0	0	-nan
8.73338e-05	0	0	-nan
8.74233e-05	0	0	-nan
8.78609e-05	0	0	-nan
8.83771e-05	0	0	-nan
8.84204e-05	0	0	-nan
8.87695e-05	0	0	-nan
8.95096e-05	0	0	-nan
8.95775e-05	0	0	-nan
8.96254e-05	0	0	-nan
8.97175e-05	0	0	-nan
8.98918e-05	0	0	-nan
8.99182e-05	0	0	-nan
9.03042e-05	0	0	-nan
9.03823e-05	0	0	-nan
9.04207e-05	0	0	-nan
9.07996e-05	0	0	-nan
9.13801e-05	0	0	-nan
9.16916e-05	0	0	-nan
9.18081e-05	0	0	-nan
9.19081e-05	0	0	-nan
9.2229e-05	0	0	-nan
9.22525e-05	0	0	-nan
9.22976e-05	0	0	-nan
9.23328e-05	0	0	-nan
9.40876e-05	0	0	-nan
9.41157e-05	0	0	-nan
9.41951e-05	0	0	-nan
9.46075e-05	0	0	-nan
9.4622e-05	0	0	-nan
9.47427e-05	0	0	-nan
9.50052e-05	0	0	-nan
9.50609e-05	0	0	-nan
9.52585e-05	0	0	-nan
9.53389e-05	0	0	-nan
9.53417e-05	0	0	-nan
9.54278e-05	0	0	-nan
9.59186e-05	0	0	-nan
9.69481e-05	0	0	-nan
9.73694e-05	0	0	-nan
9.76813e-05	0	0	-nan
9.77432e-05	0	0	-nan
9.81792e-05	0	0	-nan
9.87565e-05	0	0	-nan
9.91175e-05	0	0	-nan
9.95024e-05	0	0	-nan
9.99665e-05	0	0	-nan
0.000100514	0	0	-nan
0.000100605	0	0	-nan
0.000100647	0	0	-nan
0.000101219	0	0	-nan
0.000101787	0	0	-nan
0.000102432	0	0	-nan
0.00010255	0	0	-nan
0.000102911	0	0	-nan
0.000103537	0	0	-nan
0.000103607	0	0	-nan
0.000103899	0	0	-nan
0.000104228	0	0	-nan
0.00010522	0	0	-nan
0.000105298	0	0	-nan
0.000105899	0	0	-nan
0.000105947	0	0	-nan
0.000105982	0	0	-nan
0.000106315	0	0	-nan
0.000106485	0	0	-nan
0.000107064	0	0	-nan
0.000107496	0	0	-nan
0.000107529	0	0	-nan
0.000107919	0	0	-nan
0.000108227	0	0	-nan
0.000108351	0	0	-nan
0.00010843	0	0	-nan
0.000109182	0	0	-nan
0.000109563	0	0	-nan
0.000109902	0	0	-nan
0.000110547	0	0	-nan
0.000111613	0	0	-nan
0.0001118	0	0	-nan
0.00011181	0	0	-nan
0.000112219	0	0	-nan
0.000112582	0	0	-nan
0.000112997	0	0	-nan
0.000115055	0	0	-nan
0.000115407	0	0	-nan
0.000115422	0	0	-nan
0.000116096	0	0	-nan
0.000116738	0	0	-nan
0.000116868	0	0	-nan
0.000117206	0	0	-nan
0.00011723	0	0	-nan
0.000117424	0	0	-nan
0.000117695	0	0	-nan
0.000118775	0	0	-nan
0.000118817	0	0	-nan
0.000119092	0	0	-nan
0.000119203	0	0	-nan
0.000119875	0	0	-nan
0.000120246	0	0	-nan
0.000120982	0	0	-nan
0.000121051	0	0	-nan
0.000121242	0	0	-nan
0.000121884	0	0	-nan
0.000122802	0	0	-nan
0.000122896	0	0	-nan
0.000123219	0	0	-nan
0.000123522	0	0	-nan
0.000123843	0	0	-nan
0.000124149	0	0	-nan
0.00012417	0	0	-nan
0.000125013	0	0	-nan
0.000125254	0	0	-nan
0.000125612	0	0	-nan
0.000125826	0	0	-nan
0.000126707	0	0	-nan
0.000126883	0	0	-nan
0.000127688	0	0	-nan
0.000127738	0	0	-nan
0.000127898	0	0	-nan
0.000128461	0	0	-nan
0.000129277	0	0	-nan
0.000130357	0	0	-nan
0.000130647	0	0	-nan
0.000131546	0	0	-nan
0.000132313	0	0	-nan
0.000132358	0	0	-nan
0.000132743	0	0	-nan
0.000133101	0	0	-nan
0.00013323	0	0	-nan
0.000133238	0	0	-nan
0.000133825	0	0	-nan
0.000134122	0	0	-nan
0.000134146	0	0	-nan
0.000134149	0	0	-nan
0.00013427	0	0	-nan
0.000134294	0	0	-nan
0.000134319	0	0	-nan
0.000134829	0	0	-nan
0.000135036	0	0	-nan
0.000135521	0	0	-nan
0.000136321	0	0	-nan
0.000136402	0	0	-nan
0.000136437	0	0	-nan
0.00013702	0	0	-nan
0.000137138	0	0	-nan
0.000137297	0	0	-nan
0.000137618	0	0	-nan
0.000138152	0	0	-nan
0.000138206	0	0	-nan
0.000138287	0	0	-nan
0.000139204	0	0	-nan
0.000139358	0	0	-nan
0.000139553	0	0	-nan
0.000141079	0	0	-nan
0.000141284	0	0	-nan
0.000141791	0	0	-nan
0.000141834	0	0	-nan
0.000141919	0	0	-nan
0.000142812	0	0	-nan
0.00014322	0	0	-nan
0.000143292	0	0	-nan
0.000144291	0	0	-nan
0.000144431	0	0	-nan
0.000145116	0	0	-nan
0.000146334	0	0	-nan
0.000146385	0	0	-nan
0.000147485	0	0	-nan
0.000147519	0	0	-nan
0.00014765	0	0	-nan
0.000147816	0	0	-nan
0.000147833	0	0	-nan
0.000148516	0	0	-nan
0.000148519	0	0	-nan
0.000148956	0	0	-nan
0.00014912	0	0	-nan
0.000151457	0	0	-nan
0.000151927	0	0	-nan
0.000152085	0	0	-nan
0.000152223	0	0	-nan
0.000152336	0	0	-nan
0.000152489	0	0	-nan
0.000152981	0	0	-nan
0.000153309	0	0	-nan
0.00015397	0	0	-nan
0.000154061	0	0	-nan
0.000154474	0	0	-nan
0.000154499	0	0	-nan
0.000154634	0	0	-nan
0.000155445	0	0	-nan
0.000155447	0	0	-nan
0.000155498	0	0	-nan
0.0001556	0	0	-nan
0.000156316	0	0	-nan
0.000157093	0	0	-nan
0.000157346	0	0	-nan
0.000158133	0	0	-nan
0.00015894	0	0	-nan
0.000158983	0	0	-nan
0.00015923	0	0	-nan
0.000160259	0	0	-nan
0.000160515	0	0	-nan
0.000160742	0	0	-nan
0.000160806	0	0	-nan
0.000161501	0	0	-nan
0.000161543	0	0	-nan
0.000161767	0	0	-nan
0.000162472	0	0	-nan
0.000163299	0	0	-nan
0.000163856	0	0	-nan
0.000163903	0	0	-nan
0.000163936	0	0	-nan
0.000164395	0	0	-nan
0.000164629	0	0	-nan
0.000164919	0	0	-nan
0.000164946	0	0	-nan
0.000166687	0	0	-nan
0.000166744	0	0	-nan
0.000167593	0	0	-nan
0.000167742	0	0	-nan
0.000168953	0	0	-nan
0.000169633	0	0	-nan
0.00017049	0	0	-nan
0.00017146	0	0	-nan
0.000171943	0	0	-nan
0.000172416	0	0	-nan
0.000172816	0	0	-nan
0.000172914	0	0	-nan
0.000173299	0	0	-nan
0.000174229	0	0	-nan
0.00017427	0	0	-nan
0.000174483	0	0	-nan
0.000174858	0	0	-nan
0.000175041	0	0	-nan
0.000176412	0	0	-nan
0.000179275	0	0	-nan
0.000179365	0	0	-nan
0.000180836	0	0	-nan
0.000181643	0	0	-nan
0.000181883	0	0	-nan
0.000181916	0	0	-nan
0.000181977	0	0	-nan
0.000183689	0	0	-nan
0.000186221	0	0	-nan
0.000186275	0	0	-nan
0.000186424	0	0	-nan
0.00018868	0	0	-nan
0.000188724	0	0	-nan
0.000188971	0	0	-nan
0.000189139	0	0	-nan
0.000189225	0	0	-nan
0.000190274	0	0	-nan
0.000190771	0	0	-nan
0.000190913	0	0	-nan
0.000192062	0	0	-nan
0.000192127	0	0	-nan
0.000192712	0	0	-nan
0.000195024	0	0	-nan
0.000195212	0	0	-nan
0.000195635	0	0	-nan
0.000196486	0	0	-nan
0.000197741	0	0	-nan
0.00019821	0	0	-nan
0.000198765	0	0	-nan
0.000199784	0	0	-nan
0.000200857	0	0	-nan
0.000200864	0	0	-nan
0.000201038	0	0	-nan
0.000203931	0	0	-nan
0.000204484	0	0	-nan
0.000205422	0	0	-nan
0.00020594	0	0	-nan
0.000206043	0	0	-nan
0.000206892	0	0	-nan
0.000207147	0	0	-nan
0.000207175	0	0	-nan
0.000207412	0	0	-nan
0.000207527	0	0	-nan
0.00020836	0	0	-nan
0.000208854	0	0	-nan
0.000208919	0	0	-nan
0.000209311	0	0	-nan
0.000209791	0	0	-nan
0.000209995	0	0	-nan
0.000211014	0	0	-nan
0.000212339	0	0	-nan
0.000212374	0	0	-nan
0.000213546	0	0	-nan
0.00021401	0	0	-nan
0.000217378	0	0	-nan
0.000218403	0	0	-nan
0.000218458	0	0	-nan
0.000218898	0	0	-nan
0.00021893	0	0	-nan
0.000219254	0	0	-nan
0.000219331	0	0	-nan
0.000220069	0	0	-nan
0.000220631	0	0	-nan
0.000221452	0	0	-nan
0.000222465	0	0	-nan
0.000223951	0	0	-nan
0.000224406	0	0	-nan
0.00022447	0	0	-nan
0.000224506	0	0	-nan
0.000224688	0	0	-nan
0.000227777	0	0	-nan
0.000229051	0	0	-nan
0.000229194	0	0	-nan
0.000231566	0	0	-nan
0.000232089	0	0	-nan
0.000232654	0	0	-nan
0.000232732	0	0	-nan
0.000236467	0	0	-nan
0.000236487	0	0	-nan
0.000236955	0	0	-nan
0.00023792	0	0	-nan
0.000239424	0	0	-nan
0.00023999	0	0	-nan
0.000240009	0	0	-nan
0.000240071	0	0	-nan
0.000240791	0	0	-nan
0.000241359	0	0	-nan
0.000242474	0	0	-nan
0.000242703	0	0	-nan
0.000242704	0	0	-nan
0.000242915	0	0	-nan
0.000243151	0	0	-nan
0.000243513	0	0	-nan
0.000244795	0	0	-nan
0.000244888	0	0	-nan
0.000245837	0	0	-nan
0.000247406	0	0	-nan
0.000248434	0	0	-nan
0.000251294	0	0	-nan
0.000252474	0	0	-nan
0.000252587	0	0	-nan
0.000252981	0	0	-nan
0.000253185	0	0	-nan
0.000253448	0	0	-nan
0.000254288	0	0	-nan
0.000254453	0	0	-nan
0.000254852	0	0	-nan
0.00025504	0	0	-nan
0.000255612	0	0	-nan
0.000255628	0	0	-nan
0.000256285	0	0	-nan
0.000258092	0	0	-nan
0.000260661	0	0	-nan
0.000261136	0	0	-nan
0.000263032	0	0	-nan
0.000263122	0	0	-nan
0.000264634	0	0	-nan
0.000265026	0	0	-nan
0.000265529	0	0	-nan
0.000265724	0	0	-nan
0.000269117	0	0	-nan
0.000269377	0	0	-nan
0.000269746	0	0	-nan
0.000270721	0	0	-nan
0.000270803	0	0	-nan
0.000272292	0	0	-nan
0.000274814	0	0	-nan
0.000274991	0	0	-nan
0.000276282	0	0	-nan
0.000277226	0	0	-nan
0.000279504	0	0	-nan
0.000279752	0	0	-nan
0.00027992	0	0	-nan
0.000280013	0	0	-nan
0.000280357	0	0	-nan
0.000280909	0	0	-nan
0.000282774	0	0	-nan
0.000282877	0	0	-nan
0.00028311	0	0	-nan
0.000284429	0	0	-nan
0.000286705	0	0	-nan
0.000286763	0	0	-nan
0.00028812	0	0	-nan
0.000288909	0	0	-nan
0.000288988	0	0	-nan
0.000289365	0	0	-nan
0.000289901	0	0	-nan
0.000290421	0	0	-nan
0.000294558	0	0	-nan
0.000296035	0	0	-nan
0.000296507	0	0	-nan
0.000297925	0	0	-nan
0.000298095	0	0	-nan
0.000298958	0	0	-nan
0.000299554	0	0	-nan
0.000300817	0	0	-nan
0.000301392	0	0	-nan
0.000302385	0	0	-nan
0.000302717	0	0	-nan
0.000303543	0	0	-nan
0.00030635	0	0	-nan
0.000308498	0	0	-nan
0.000308875	0	0	-nan
0.000309036	0	0	-nan
0.000309634	0	0	-nan
0.000309636	0	0	-nan
0.000311931	0	0	-nan
0.000313615	0	0	-nan
0.000314994	0	0	-nan
0.000315115	0	0	-nan
0.000318432	0	0	-nan
0.000318856	0	0	-nan
0.000319473	0	0	-nan
0.000319728	0	0	-nan
0.000320199	0	0	-nan
0.000320904	0	0	-nan
0.000320975	0	0	-nan
0.000323146	0	0	-nan
0.000323202	0	0	-nan
0.000323458	0	0	-nan
0.000324881	0	0	-nan
0.000325091	0	0	-nan
0.000326051	0	0	-nan
0.000326866	0	0	-nan
0.000328325	0	0	-nan
0.000329091	0	0	-nan
0.000332816	0	0	-nan
0.000334451	0	0	-nan
0.000336387	0	0	-nan
0.00033779	0	0	-nan
0.000338485	0	0	-nan
0.00034154	0	0	-nan
0.000346467	0	0	-nan
0.000347948	0	0	-nan
0.000348174	0	0	-nan
0.000348406	0	0	-nan
0.000355882	0	0	-nan
0.000355912	0	0	-nan
0.000356612	0	0	-nan
0.000357942	0	0	-nan
0.000363921	0	0	-nan
0.00036644	0	0	-nan
0.000366957	0	0	-nan
0.000374807	0	0	-nan
0.000376343	0	0	-nan
0.000377388	0	0	-nan
0.000377431	0	0	-nan
0.000381114	0	0	-nan
0.000384754	0	0	-nan
0.00038706	0	0	-nan
0.000388893	0	0	-nan
0.000396599	0	0	-nan
0.000397414	0	0	-nan
0.000397739	0	0	-nan
0.00039933	0	0	-nan
0.000400464	0	0	-nan
0.000406033	0	0	-nan
0.000408438	0	0	-nan
0.000409908	0	0	-nan
0.000412499	0	0	-nan
0.000413676	0	0	-nan
0.00041491	0	0	-nan
0.000415711	0	0	-nan
0.000417548	0	0	-nan
0.000422874	0	0	-nan
0.000429735	0	0	-nan
0.000433658	0	0	-nan
0.000434908	0	0	-nan
0.000435989	0	0	-nan
0.000437738	0	0	-nan
0.000457169	0	0	-nan
0.000457779	0	0	-nan
0.000461264	0	0	-nan
0.000468475	0	0	-nan
0.000470546	0	0	-nan
0.000480195	0	0	-nan
0.000485202	0	0	-nan
0.000489136	0	0	-nan
0.000492612	0	0	-nan
0.000497222	0	0	-nan
0.000499478	0	0	-nan
0.000500266	0	0	-nan
0.000505908	0	0	-nan
0.000508164	0	0	-nan
0.000510649	0	0	-nan
0.000511054	0	0	-nan
0.000519882	0	0	-nan
0.000541227	0	0	-nan
0.000552313	0	0	-nan
0.000571987	0	0	-nan
0.000577494	0	0	-nan
0.000598091	0	0	-nan
0.00060236	0	0	-nan
0.000605382	0	0	-nan
0.000613698	0	0	-nan
0.000637587	0	0	-nan
0.000652445	0	0	-nan
0.000668261	0	0	-nan
0.000669562	0	0	-nan
0.000688146	0	0	-nan
0.00070766	0	0	-nan
0.000712933	0	0	-nan
0.000719436	0	0	-nan
0.000785951	0	0	-nan
0.00079062	0	0	-nan
0.00106194	0	0	-nan
0.00117204	0	0	-nan
0.00117343	0	0	-nan
0.0012698	0	0	-nan
0.00134516	0	0	-nan
