7.90382e-08	0	0	-nan
8.64495e-08	0	0	-nan
1.38228e-07	0	0	-nan
2.25156e-07	0	0	-nan
4.91337e-07	0	0	-nan
5.71329e-07	0	0	-nan
6.62811e-07	0	0	-nan
6.81257e-07	0	0	-nan
6.91105e-07	0	0	-nan
6.96308e-07	0	0	-nan
7.01296e-07	0	0	-nan
7.80638e-07	0	0	-nan
9.59836e-07	0	0	-nan
1.04339e-06	0	0	-nan
1.16702e-06	0	0	-nan
1.18617e-06	0	0	-nan
1.22437e-06	0	0	-nan
1.2428e-06	0	0	-nan
1.29635e-06	0	0	-nan
1.3432e-06	0	0	-nan
1.34597e-06	0	0	-nan
1.45427e-06	0	0	-nan
1.74572e-06	0	0	-nan
1.77049e-06	0	0	-nan
1.77467e-06	0	0	-nan
1.84053e-06	0	0	-nan
2.05035e-06	0	0	-nan
2.17535e-06	0	0	-nan
2.25599e-06	0	0	-nan
2.27213e-06	0	0	-nan
2.34609e-06	0	0	-nan
2.49209e-06	0	0	-nan
2.53356e-06	0	0	-nan
2.59487e-06	0	0	-nan
2.7989e-06	0	0	-nan
2.85795e-06	0	0	-nan
3.00713e-06	0	0	-nan
3.18156e-06	0	0	-nan
3.18415e-06	0	0	-nan
3.2125e-06	0	0	-nan
3.21818e-06	0	0	-nan
3.38726e-06	0	0	-nan
3.41354e-06	0	0	-nan
3.43128e-06	0	0	-nan
3.46644e-06	0	0	-nan
3.51063e-06	0	0	-nan
3.63282e-06	0	0	-nan
3.65038e-06	0	0	-nan
4.10606e-06	0	0	-nan
4.12808e-06	0	0	-nan
4.18886e-06	0	0	-nan
4.20591e-06	0	0	-nan
4.21271e-06	0	0	-nan
4.26012e-06	0	0	-nan
4.40008e-06	0	0	-nan
4.46891e-06	0	0	-nan
4.49538e-06	0	0	-nan
4.59311e-06	0	0	-nan
4.60937e-06	0	0	-nan
4.81617e-06	0	0	-nan
4.91066e-06	0	0	-nan
4.95105e-06	0	0	-nan
5.02268e-06	0	0	-nan
5.0454e-06	0	0	-nan
5.3172e-06	0	0	-nan
5.37634e-06	0	0	-nan
5.49317e-06	0	0	-nan
5.59057e-06	0	0	-nan
5.64219e-06	0	0	-nan
5.6439e-06	0	0	-nan
5.79933e-06	0	0	-nan
6.04084e-06	0	0	-nan
6.37196e-06	0	0	-nan
6.37377e-06	0	0	-nan
6.38368e-06	0	0	-nan
6.40057e-06	0	0	-nan
6.41353e-06	0	0	-nan
6.42576e-06	0	0	-nan
6.53104e-06	0	0	-nan
6.63552e-06	0	0	-nan
6.75071e-06	0	0	-nan
6.79956e-06	0	0	-nan
6.89939e-06	0	0	-nan
6.97456e-06	0	0	-nan
7.03516e-06	0	0	-nan
7.08732e-06	0	0	-nan
7.11833e-06	0	0	-nan
7.25689e-06	0	0	-nan
7.40802e-06	0	0	-nan
7.49029e-06	0	0	-nan
7.66356e-06	0	0	-nan
7.79028e-06	0	0	-nan
7.87975e-06	0	0	-nan
8.04598e-06	0	0	-nan
8.07356e-06	0	0	-nan
8.09278e-06	0	0	-nan
8.21306e-06	0	0	-nan
8.35031e-06	0	0	-nan
8.46595e-06	0	0	-nan
8.50628e-06	0	0	-nan
8.72731e-06	0	0	-nan
8.77088e-06	0	0	-nan
8.91543e-06	0	0	-nan
8.94333e-06	0	0	-nan
8.9647e-06	0	0	-nan
9.02606e-06	0	0	-nan
9.05404e-06	0	0	-nan
9.10614e-06	0	0	-nan
9.19809e-06	0	0	-nan
9.21009e-06	0	0	-nan
9.2558e-06	0	0	-nan
9.33024e-06	0	0	-nan
9.52539e-06	0	0	-nan
9.84964e-06	0	0	-nan
9.87622e-06	0	0	-nan
9.88832e-06	0	0	-nan
1.00931e-05	0	0	-nan
1.01259e-05	0	0	-nan
1.01441e-05	0	0	-nan
1.02021e-05	0	0	-nan
1.03503e-05	0	0	-nan
1.03666e-05	0	0	-nan
1.04779e-05	0	0	-nan
1.0553e-05	0	0	-nan
1.09172e-05	0	0	-nan
1.09203e-05	0	0	-nan
1.09575e-05	0	0	-nan
1.1241e-05	0	0	-nan
1.15457e-05	0	0	-nan
1.16118e-05	0	0	-nan
1.16199e-05	0	0	-nan
1.16324e-05	0	0	-nan
1.16647e-05	0	0	-nan
1.17256e-05	0	0	-nan
1.19067e-05	0	0	-nan
1.21258e-05	0	0	-nan
1.22191e-05	0	0	-nan
1.22798e-05	0	0	-nan
1.23186e-05	0	0	-nan
1.23683e-05	0	0	-nan
1.26605e-05	0	0	-nan
1.26986e-05	0	0	-nan
1.28449e-05	0	0	-nan
1.28563e-05	0	0	-nan
1.28623e-05	0	0	-nan
1.28883e-05	0	0	-nan
1.2961e-05	0	0	-nan
1.31211e-05	0	0	-nan
1.31581e-05	0	0	-nan
1.32216e-05	0	0	-nan
1.32221e-05	0	0	-nan
1.32638e-05	0	0	-nan
1.32854e-05	0	0	-nan
1.33975e-05	0	0	-nan
1.35974e-05	0	0	-nan
1.37754e-05	0	0	-nan
1.37826e-05	0	0	-nan
1.38233e-05	0	0	-nan
1.39668e-05	0	0	-nan
1.40869e-05	0	0	-nan
1.4134e-05	0	0	-nan
1.42328e-05	0	0	-nan
1.42823e-05	0	0	-nan
1.43652e-05	0	0	-nan
1.44554e-05	0	0	-nan
1.44701e-05	0	0	-nan
1.45579e-05	0	0	-nan
1.45891e-05	0	0	-nan
1.46042e-05	0	0	-nan
1.49952e-05	0	0	-nan
1.50616e-05	0	0	-nan
1.51714e-05	0	0	-nan
1.53747e-05	0	0	-nan
1.5404e-05	0	0	-nan
1.54157e-05	0	0	-nan
1.55778e-05	0	0	-nan
1.57185e-05	0	0	-nan
1.5736e-05	0	0	-nan
1.57511e-05	0	0	-nan
1.57614e-05	0	0	-nan
1.6177e-05	0	0	-nan
1.62192e-05	0	0	-nan
1.62406e-05	0	0	-nan
1.6482e-05	0	0	-nan
1.67619e-05	0	0	-nan
1.67699e-05	0	0	-nan
1.68576e-05	0	0	-nan
1.69024e-05	0	0	-nan
1.69186e-05	0	0	-nan
1.71e-05	0	0	-nan
1.71137e-05	0	0	-nan
1.7477e-05	0	0	-nan
1.74771e-05	0	0	-nan
1.75444e-05	0	0	-nan
1.76368e-05	0	0	-nan
1.7799e-05	0	0	-nan
1.79086e-05	0	0	-nan
1.7914e-05	0	0	-nan
1.81678e-05	0	0	-nan
1.83225e-05	0	0	-nan
1.8359e-05	0	0	-nan
1.8408e-05	0	0	-nan
1.85786e-05	0	0	-nan
1.86454e-05	0	0	-nan
1.86736e-05	0	0	-nan
1.86826e-05	0	0	-nan
1.90264e-05	0	0	-nan
1.91113e-05	0	0	-nan
1.92361e-05	0	0	-nan
1.95721e-05	0	0	-nan
1.96914e-05	0	0	-nan
1.97878e-05	0	0	-nan
1.99967e-05	0	0	-nan
2.00001e-05	0	0	-nan
2.00902e-05	0	0	-nan
2.00915e-05	0	0	-nan
2.01918e-05	0	0	-nan
2.0217e-05	0	0	-nan
2.04839e-05	0	0	-nan
2.05339e-05	0	0	-nan
2.0665e-05	0	0	-nan
2.07215e-05	0	0	-nan
2.07352e-05	0	0	-nan
2.08082e-05	0	0	-nan
2.09271e-05	0	0	-nan
2.09306e-05	0	0	-nan
2.10704e-05	0	0	-nan
2.13645e-05	0	0	-nan
2.13647e-05	0	0	-nan
2.15125e-05	0	0	-nan
2.17277e-05	0	0	-nan
2.17503e-05	0	0	-nan
2.17513e-05	0	0	-nan
2.1882e-05	0	0	-nan
2.21214e-05	0	0	-nan
2.2248e-05	0	0	-nan
2.22538e-05	0	0	-nan
2.2366e-05	0	0	-nan
2.24768e-05	0	0	-nan
2.25303e-05	0	0	-nan
2.31018e-05	0	0	-nan
2.33238e-05	0	0	-nan
2.34988e-05	0	0	-nan
2.35103e-05	0	0	-nan
2.3562e-05	0	0	-nan
2.38553e-05	0	0	-nan
2.419e-05	0	0	-nan
2.44292e-05	0	0	-nan
2.45288e-05	0	0	-nan
2.46235e-05	0	0	-nan
2.48073e-05	0	0	-nan
2.56637e-05	0	0	-nan
2.59734e-05	0	0	-nan
2.60697e-05	0	0	-nan
2.6126e-05	0	0	-nan
2.61397e-05	0	0	-nan
2.63229e-05	0	0	-nan
2.6517e-05	0	0	-nan
2.66069e-05	0	0	-nan
2.67409e-05	0	0	-nan
2.6751e-05	0	0	-nan
2.68267e-05	0	0	-nan
2.7227e-05	0	0	-nan
2.7396e-05	0	0	-nan
2.74057e-05	0	0	-nan
2.75465e-05	0	0	-nan
2.75588e-05	0	0	-nan
2.76262e-05	0	0	-nan
2.76638e-05	0	0	-nan
2.77352e-05	0	0	-nan
2.77619e-05	0	0	-nan
2.78921e-05	0	0	-nan
2.79368e-05	0	0	-nan
2.79799e-05	0	0	-nan
2.80007e-05	0	0	-nan
2.80837e-05	0	0	-nan
2.83537e-05	0	0	-nan
2.86222e-05	0	0	-nan
2.89234e-05	0	0	-nan
2.90095e-05	0	0	-nan
2.92518e-05	0	0	-nan
2.93712e-05	0	0	-nan
2.94731e-05	0	0	-nan
2.95152e-05	0	0	-nan
2.98578e-05	0	0	-nan
3.01311e-05	0	0	-nan
3.05275e-05	0	0	-nan
3.06162e-05	0	0	-nan
3.10929e-05	0	0	-nan
3.11616e-05	0	0	-nan
3.138e-05	0	0	-nan
3.14756e-05	0	0	-nan
3.14832e-05	0	0	-nan
3.14843e-05	0	0	-nan
3.1572e-05	0	0	-nan
3.15837e-05	0	0	-nan
3.16408e-05	0	0	-nan
3.17753e-05	0	0	-nan
3.18971e-05	0	0	-nan
3.20239e-05	0	0	-nan
3.20816e-05	0	0	-nan
3.22421e-05	0	0	-nan
3.23244e-05	0	0	-nan
3.23542e-05	0	0	-nan
3.25207e-05	0	0	-nan
3.28373e-05	0	0	-nan
3.28669e-05	0	0	-nan
3.29336e-05	0	0	-nan
3.29409e-05	0	0	-nan
3.30051e-05	0	0	-nan
3.30682e-05	0	0	-nan
3.35157e-05	0	0	-nan
3.36641e-05	0	0	-nan
3.36728e-05	0	0	-nan
3.37403e-05	0	0	-nan
3.37447e-05	0	0	-nan
3.38817e-05	0	0	-nan
3.39289e-05	0	0	-nan
3.40267e-05	0	0	-nan
3.41365e-05	0	0	-nan
3.41709e-05	0	0	-nan
3.45491e-05	0	0	-nan
3.46391e-05	0	0	-nan
3.48614e-05	0	0	-nan
3.49469e-05	0	0	-nan
3.53729e-05	0	0	-nan
3.54307e-05	0	0	-nan
3.5586e-05	0	0	-nan
3.57932e-05	0	0	-nan
3.60511e-05	0	0	-nan
3.60775e-05	0	0	-nan
3.60928e-05	0	0	-nan
3.6232e-05	0	0	-nan
3.64757e-05	0	0	-nan
3.65761e-05	0	0	-nan
3.65776e-05	0	0	-nan
3.66118e-05	0	0	-nan
3.67116e-05	0	0	-nan
3.68156e-05	0	0	-nan
3.69678e-05	0	0	-nan
3.70096e-05	0	0	-nan
3.73095e-05	0	0	-nan
3.73645e-05	0	0	-nan
3.76065e-05	0	0	-nan
3.77332e-05	0	0	-nan
3.78219e-05	0	0	-nan
3.78768e-05	0	0	-nan
3.79782e-05	0	0	-nan
3.79832e-05	0	0	-nan
3.80519e-05	0	0	-nan
3.81576e-05	0	0	-nan
3.81595e-05	0	0	-nan
3.86051e-05	0	0	-nan
3.86714e-05	0	0	-nan
3.87454e-05	0	0	-nan
3.88845e-05	0	0	-nan
3.8887e-05	0	0	-nan
3.90575e-05	0	0	-nan
3.91232e-05	0	0	-nan
3.91291e-05	0	0	-nan
3.93256e-05	0	0	-nan
3.93735e-05	0	0	-nan
3.93883e-05	0	0	-nan
3.95776e-05	0	0	-nan
3.97428e-05	0	0	-nan
3.99035e-05	0	0	-nan
4.00584e-05	0	0	-nan
4.04988e-05	0	0	-nan
4.05005e-05	0	0	-nan
4.1018e-05	0	0	-nan
4.10863e-05	0	0	-nan
4.11853e-05	0	0	-nan
4.13004e-05	0	0	-nan
4.13421e-05	0	0	-nan
4.15115e-05	0	0	-nan
4.15405e-05	0	0	-nan
4.16078e-05	0	0	-nan
4.19252e-05	0	0	-nan
4.20129e-05	0	0	-nan
4.20301e-05	0	0	-nan
4.2162e-05	0	0	-nan
4.21639e-05	0	0	-nan
4.2201e-05	0	0	-nan
4.25775e-05	0	0	-nan
4.26099e-05	0	0	-nan
4.26774e-05	0	0	-nan
4.27409e-05	0	0	-nan
4.27889e-05	0	0	-nan
4.27963e-05	0	0	-nan
4.2875e-05	0	0	-nan
4.29847e-05	0	0	-nan
4.31677e-05	0	0	-nan
4.33703e-05	0	0	-nan
4.34064e-05	0	0	-nan
4.35854e-05	0	0	-nan
4.37458e-05	0	0	-nan
4.38719e-05	0	0	-nan
4.38965e-05	0	0	-nan
4.39221e-05	0	0	-nan
4.41318e-05	0	0	-nan
4.43958e-05	0	0	-nan
4.44035e-05	0	0	-nan
4.44257e-05	0	0	-nan
4.50755e-05	0	0	-nan
4.5318e-05	0	0	-nan
4.57196e-05	0	0	-nan
4.60054e-05	0	0	-nan
4.61961e-05	0	0	-nan
4.62112e-05	0	0	-nan
4.66589e-05	0	0	-nan
4.68532e-05	0	0	-nan
4.7071e-05	0	0	-nan
4.72108e-05	0	0	-nan
4.7392e-05	0	0	-nan
4.7523e-05	0	0	-nan
4.75764e-05	0	0	-nan
4.81685e-05	0	0	-nan
4.822e-05	0	0	-nan
4.85347e-05	0	0	-nan
4.86154e-05	0	0	-nan
4.90472e-05	0	0	-nan
4.90982e-05	0	0	-nan
4.91981e-05	0	0	-nan
4.92919e-05	0	0	-nan
4.93309e-05	0	0	-nan
4.94734e-05	0	0	-nan
4.95226e-05	0	0	-nan
4.97204e-05	0	0	-nan
4.97684e-05	0	0	-nan
4.97871e-05	0	0	-nan
4.99913e-05	0	0	-nan
5.02719e-05	0	0	-nan
5.04498e-05	0	0	-nan
5.08341e-05	0	0	-nan
5.10417e-05	0	0	-nan
5.13381e-05	0	0	-nan
5.15992e-05	0	0	-nan
5.16442e-05	0	0	-nan
5.17163e-05	0	0	-nan
5.1905e-05	0	0	-nan
5.2118e-05	0	0	-nan
5.23989e-05	0	0	-nan
5.27318e-05	0	0	-nan
5.27617e-05	0	0	-nan
5.27938e-05	0	0	-nan
5.32198e-05	0	0	-nan
5.34682e-05	0	0	-nan
5.35513e-05	0	0	-nan
5.37059e-05	0	0	-nan
5.3759e-05	0	0	-nan
5.38221e-05	0	0	-nan
5.41769e-05	0	0	-nan
5.42319e-05	0	0	-nan
5.43729e-05	0	0	-nan
5.44413e-05	0	0	-nan
5.44982e-05	0	0	-nan
5.45463e-05	0	0	-nan
5.48411e-05	0	0	-nan
5.49722e-05	0	0	-nan
5.62543e-05	0	0	-nan
5.62915e-05	0	0	-nan
5.64892e-05	0	0	-nan
5.65562e-05	0	0	-nan
5.66646e-05	0	0	-nan
5.68589e-05	0	0	-nan
5.72394e-05	0	0	-nan
5.74245e-05	0	0	-nan
5.74831e-05	0	0	-nan
5.77283e-05	0	0	-nan
5.77742e-05	0	0	-nan
5.78229e-05	0	0	-nan
5.81443e-05	0	0	-nan
5.81494e-05	0	0	-nan
5.81851e-05	0	0	-nan
5.85602e-05	0	0	-nan
5.85909e-05	0	0	-nan
5.90402e-05	0	0	-nan
5.91382e-05	0	0	-nan
5.91557e-05	0	0	-nan
5.92628e-05	0	0	-nan
5.94173e-05	0	0	-nan
5.95073e-05	0	0	-nan
5.95637e-05	0	0	-nan
5.97522e-05	0	0	-nan
5.97693e-05	0	0	-nan
6.02276e-05	0	0	-nan
6.02584e-05	0	0	-nan
6.07196e-05	0	0	-nan
6.08475e-05	0	0	-nan
6.11301e-05	0	0	-nan
6.11479e-05	0	0	-nan
6.18528e-05	0	0	-nan
6.1864e-05	0	0	-nan
6.18652e-05	0	0	-nan
6.1985e-05	0	0	-nan
6.21331e-05	0	0	-nan
6.2169e-05	0	0	-nan
6.2233e-05	0	0	-nan
6.27135e-05	0	0	-nan
6.27684e-05	0	0	-nan
6.28073e-05	0	0	-nan
6.28298e-05	0	0	-nan
6.28378e-05	0	0	-nan
6.29403e-05	0	0	-nan
6.30027e-05	0	0	-nan
6.3061e-05	0	0	-nan
6.31267e-05	0	0	-nan
6.32436e-05	0	0	-nan
6.3254e-05	0	0	-nan
6.36077e-05	0	0	-nan
6.36662e-05	0	0	-nan
6.37859e-05	0	0	-nan
6.48253e-05	0	0	-nan
6.54489e-05	0	0	-nan
6.55709e-05	0	0	-nan
6.57694e-05	0	0	-nan
6.59386e-05	0	0	-nan
6.60155e-05	0	0	-nan
6.61231e-05	0	0	-nan
6.62445e-05	0	0	-nan
6.6255e-05	0	0	-nan
6.63675e-05	0	0	-nan
6.6638e-05	0	0	-nan
6.66431e-05	0	0	-nan
6.67885e-05	0	0	-nan
6.69468e-05	0	0	-nan
6.69676e-05	0	0	-nan
6.70639e-05	0	0	-nan
6.71709e-05	0	0	-nan
6.72807e-05	0	0	-nan
6.73552e-05	0	0	-nan
6.74596e-05	0	0	-nan
6.76618e-05	0	0	-nan
6.76728e-05	0	0	-nan
6.78555e-05	0	0	-nan
6.79713e-05	0	0	-nan
6.85649e-05	0	0	-nan
6.86458e-05	0	0	-nan
6.87775e-05	0	0	-nan
6.88202e-05	0	0	-nan
6.88346e-05	0	0	-nan
6.88363e-05	0	0	-nan
6.88946e-05	0	0	-nan
6.93971e-05	0	0	-nan
6.94212e-05	0	0	-nan
6.95481e-05	0	0	-nan
6.95512e-05	0	0	-nan
6.97957e-05	0	0	-nan
7.00736e-05	0	0	-nan
7.03673e-05	0	0	-nan
7.06526e-05	0	0	-nan
7.08316e-05	0	0	-nan
7.1212e-05	0	0	-nan
7.1251e-05	0	0	-nan
7.15015e-05	0	0	-nan
7.18213e-05	0	0	-nan
7.21176e-05	0	0	-nan
7.21738e-05	0	0	-nan
7.21887e-05	0	0	-nan
7.22446e-05	0	0	-nan
7.22498e-05	0	0	-nan
7.23566e-05	0	0	-nan
7.24886e-05	0	0	-nan
7.30247e-05	0	0	-nan
7.30473e-05	0	0	-nan
7.32785e-05	0	0	-nan
7.349e-05	0	0	-nan
7.37238e-05	0	0	-nan
7.37359e-05	0	0	-nan
7.42956e-05	0	0	-nan
7.45244e-05	0	0	-nan
7.45376e-05	0	0	-nan
7.45589e-05	0	0	-nan
7.49391e-05	0	0	-nan
7.52008e-05	0	0	-nan
7.52435e-05	0	0	-nan
7.54966e-05	0	0	-nan
7.55604e-05	0	0	-nan
7.56313e-05	0	0	-nan
7.5678e-05	0	0	-nan
7.58696e-05	0	0	-nan
7.6044e-05	0	0	-nan
7.61056e-05	0	0	-nan
7.61922e-05	0	0	-nan
7.61953e-05	0	0	-nan
7.67176e-05	0	0	-nan
7.6816e-05	0	0	-nan
7.68897e-05	0	0	-nan
7.71082e-05	0	0	-nan
7.71496e-05	0	0	-nan
7.73569e-05	0	0	-nan
7.75773e-05	0	0	-nan
7.76171e-05	0	0	-nan
7.78483e-05	0	0	-nan
7.81092e-05	0	0	-nan
7.90434e-05	0	0	-nan
7.91239e-05	0	0	-nan
7.99087e-05	0	0	-nan
8.00161e-05	0	0	-nan
8.01098e-05	0	0	-nan
8.05149e-05	0	0	-nan
8.07358e-05	0	0	-nan
8.08309e-05	0	0	-nan
8.08328e-05	0	0	-nan
8.08475e-05	0	0	-nan
8.09002e-05	0	0	-nan
8.11989e-05	0	0	-nan
8.12218e-05	0	0	-nan
8.1903e-05	0	0	-nan
8.21471e-05	0	0	-nan
8.22917e-05	0	0	-nan
8.23641e-05	0	0	-nan
8.26625e-05	0	0	-nan
8.3034e-05	0	0	-nan
8.36471e-05	0	0	-nan
8.38171e-05	0	0	-nan
8.41083e-05	0	0	-nan
8.43274e-05	0	0	-nan
8.44876e-05	0	0	-nan
8.47753e-05	0	0	-nan
8.50319e-05	0	0	-nan
8.54527e-05	0	0	-nan
8.56969e-05	0	0	-nan
8.57951e-05	0	0	-nan
8.58503e-05	0	0	-nan
8.59256e-05	0	0	-nan
8.65611e-05	0	0	-nan
8.65854e-05	0	0	-nan
8.67956e-05	0	0	-nan
8.68493e-05	0	0	-nan
8.72257e-05	0	0	-nan
8.77801e-05	0	0	-nan
8.83148e-05	0	0	-nan
8.83389e-05	0	0	-nan
8.84982e-05	0	0	-nan
8.85049e-05	0	0	-nan
8.8849e-05	0	0	-nan
8.91279e-05	0	0	-nan
8.96213e-05	0	0	-nan
8.97729e-05	0	0	-nan
8.98466e-05	0	0	-nan
9.01103e-05	0	0	-nan
9.06725e-05	0	0	-nan
9.09165e-05	0	0	-nan
9.15908e-05	0	0	-nan
9.18762e-05	0	0	-nan
9.18846e-05	0	0	-nan
9.25715e-05	0	0	-nan
9.28535e-05	0	0	-nan
9.32158e-05	0	0	-nan
9.32437e-05	0	0	-nan
9.35207e-05	0	0	-nan
9.39091e-05	0	0	-nan
9.39518e-05	0	0	-nan
9.44181e-05	0	0	-nan
9.44948e-05	0	0	-nan
9.56566e-05	0	0	-nan
9.58776e-05	0	0	-nan
9.59457e-05	0	0	-nan
9.60479e-05	0	0	-nan
9.63948e-05	0	0	-nan
9.67652e-05	0	0	-nan
9.71039e-05	0	0	-nan
9.71518e-05	0	0	-nan
9.72448e-05	0	0	-nan
9.7487e-05	0	0	-nan
9.76261e-05	0	0	-nan
9.7993e-05	0	0	-nan
9.85983e-05	0	0	-nan
9.90507e-05	0	0	-nan
9.91404e-05	0	0	-nan
9.91568e-05	0	0	-nan
9.9533e-05	0	0	-nan
9.96099e-05	0	0	-nan
9.98852e-05	0	0	-nan
0.000100491	0	0	-nan
0.000100584	0	0	-nan
0.00010087	0	0	-nan
0.000100946	0	0	-nan
0.000101024	0	0	-nan
0.000101784	0	0	-nan
0.000102433	0	0	-nan
0.000102468	0	0	-nan
0.000102512	0	0	-nan
0.000102787	0	0	-nan
0.00010283	0	0	-nan
0.000103331	0	0	-nan
0.000103806	0	0	-nan
0.000104067	0	0	-nan
0.000104451	0	0	-nan
0.000104593	0	0	-nan
0.000104778	0	0	-nan
0.00010528	0	0	-nan
0.00010563	0	0	-nan
0.000105763	0	0	-nan
0.000106074	0	0	-nan
0.000107128	0	0	-nan
0.000107243	0	0	-nan
0.00010734	0	0	-nan
0.00010735	0	0	-nan
0.000108085	0	0	-nan
0.000108162	0	0	-nan
0.000108224	0	0	-nan
0.00010832	0	0	-nan
0.000108384	0	0	-nan
0.000108474	0	0	-nan
0.000108615	0	0	-nan
0.000108657	0	0	-nan
0.000108766	0	0	-nan
0.000109491	0	0	-nan
0.000109506	0	0	-nan
0.000109909	0	0	-nan
0.000110038	0	0	-nan
0.000110402	0	0	-nan
0.000110407	0	0	-nan
0.000110451	0	0	-nan
0.000110587	0	0	-nan
0.000110778	0	0	-nan
0.00011118	0	0	-nan
0.000111285	0	0	-nan
0.000111914	0	0	-nan
0.000111952	0	0	-nan
0.000112124	0	0	-nan
0.000112185	0	0	-nan
0.000112234	0	0	-nan
0.000112328	0	0	-nan
0.000112614	0	0	-nan
0.000112707	0	0	-nan
0.000113937	0	0	-nan
0.000114059	0	0	-nan
0.00011433	0	0	-nan
0.000114588	0	0	-nan
0.0001156	0	0	-nan
0.000116338	0	0	-nan
0.000117118	0	0	-nan
0.000117283	0	0	-nan
0.000118085	0	0	-nan
0.000118163	0	0	-nan
0.000118421	0	0	-nan
0.000119076	0	0	-nan
0.000119109	0	0	-nan
0.000119966	0	0	-nan
0.000120155	0	0	-nan
0.000120161	0	0	-nan
0.000120167	0	0	-nan
0.000120255	0	0	-nan
0.000120652	0	0	-nan
0.000120876	0	0	-nan
0.000121367	0	0	-nan
0.00012148	0	0	-nan
0.00012152	0	0	-nan
0.000122114	0	0	-nan
0.000122324	0	0	-nan
0.000122658	0	0	-nan
0.000122739	0	0	-nan
0.000123032	0	0	-nan
0.000123171	0	0	-nan
0.000123623	0	0	-nan
0.000124044	0	0	-nan
0.00012427	0	0	-nan
0.000125831	0	0	-nan
0.000126004	0	0	-nan
0.000126085	0	0	-nan
0.000126257	0	0	-nan
0.000127108	0	0	-nan
0.000127371	0	0	-nan
0.000128115	0	0	-nan
0.000128223	0	0	-nan
0.000128242	0	0	-nan
0.000128748	0	0	-nan
0.00012878	0	0	-nan
0.000128989	0	0	-nan
0.00012917	0	0	-nan
0.000129773	0	0	-nan
0.000129897	0	0	-nan
0.000130092	0	0	-nan
0.000130922	0	0	-nan
0.000131038	0	0	-nan
0.000131156	0	0	-nan
0.000131307	0	0	-nan
0.000131631	0	0	-nan
0.000132187	0	0	-nan
0.000133024	0	0	-nan
0.000133108	0	0	-nan
0.000133464	0	0	-nan
0.000133731	0	0	-nan
0.000133751	0	0	-nan
0.000134173	0	0	-nan
0.000134267	0	0	-nan
0.000134506	0	0	-nan
0.000134517	0	0	-nan
0.000134587	0	0	-nan
0.000134637	0	0	-nan
0.000134678	0	0	-nan
0.000134961	0	0	-nan
0.000135681	0	0	-nan
0.000136127	0	0	-nan
0.000136544	0	0	-nan
0.000137483	0	0	-nan
0.000137548	0	0	-nan
0.000137931	0	0	-nan
0.000138047	0	0	-nan
0.000138457	0	0	-nan
0.000138598	0	0	-nan
0.00013861	0	0	-nan
0.000138755	0	0	-nan
0.000139718	0	0	-nan
0.00014134	0	0	-nan
0.000141414	0	0	-nan
0.000141788	0	0	-nan
0.000141942	0	0	-nan
0.000142489	0	0	-nan
0.000142704	0	0	-nan
0.000142933	0	0	-nan
0.00014329	0	0	-nan
0.0001434	0	0	-nan
0.000143519	0	0	-nan
0.000143978	0	0	-nan
0.000144591	0	0	-nan
0.000144896	0	0	-nan
0.000145144	0	0	-nan
0.000145535	0	0	-nan
0.000145543	0	0	-nan
0.00014577	0	0	-nan
0.000145987	0	0	-nan
0.000146723	0	0	-nan
0.000147572	0	0	-nan
0.000147998	0	0	-nan
0.000148106	0	0	-nan
0.000148213	0	0	-nan
0.000148569	0	0	-nan
0.000149191	0	0	-nan
0.000149448	0	0	-nan
0.000149778	0	0	-nan
0.000150143	0	0	-nan
0.000150596	0	0	-nan
0.000151071	0	0	-nan
0.000153003	0	0	-nan
0.000153638	0	0	-nan
0.000153988	0	0	-nan
0.000154602	0	0	-nan
0.000155123	0	0	-nan
0.000155795	0	0	-nan
0.000155966	0	0	-nan
0.000156029	0	0	-nan
0.000156038	0	0	-nan
0.000156057	0	0	-nan
0.000156169	0	0	-nan
0.000157422	0	0	-nan
0.00015752	0	0	-nan
0.0001584	0	0	-nan
0.000158689	0	0	-nan
0.000158833	0	0	-nan
0.000160362	0	0	-nan
0.000160639	0	0	-nan
0.000162578	0	0	-nan
0.000162579	0	0	-nan
0.000162656	0	0	-nan
0.000162902	0	0	-nan
0.000163602	0	0	-nan
0.000163661	0	0	-nan
0.000164724	0	0	-nan
0.00016505	0	0	-nan
0.000165067	0	0	-nan
0.000165157	0	0	-nan
0.000166205	0	0	-nan
0.000166902	0	0	-nan
0.000167015	0	0	-nan
0.000167205	0	0	-nan
0.000167371	0	0	-nan
0.000168825	0	0	-nan
0.000169392	0	0	-nan
0.000169464	0	0	-nan
0.000169488	0	0	-nan
0.000169741	0	0	-nan
0.000169928	0	0	-nan
0.000169932	0	0	-nan
0.000170028	0	0	-nan
0.000170697	0	0	-nan
0.00017187	0	0	-nan
0.000172411	0	0	-nan
0.000172567	0	0	-nan
0.000173278	0	0	-nan
0.000173316	0	0	-nan
0.000173799	0	0	-nan
0.000173905	0	0	-nan
0.000174041	0	0	-nan
0.000174389	0	0	-nan
0.000175209	0	0	-nan
0.000175379	0	0	-nan
0.000175516	0	0	-nan
0.000175565	0	0	-nan
0.000175718	0	0	-nan
0.000175939	0	0	-nan
0.000176068	0	0	-nan
0.00017618	0	0	-nan
0.00017651	0	0	-nan
0.000176677	0	0	-nan
0.00017834	0	0	-nan
0.000178471	0	0	-nan
0.000178919	0	0	-nan
0.000179391	0	0	-nan
0.000179428	0	0	-nan
0.000179678	0	0	-nan
0.000179892	0	0	-nan
0.000180051	0	0	-nan
0.000181418	0	0	-nan
0.000181979	0	0	-nan
0.000182427	0	0	-nan
0.000182587	0	0	-nan
0.000183135	0	0	-nan
0.000183326	0	0	-nan
0.000183636	0	0	-nan
0.000183806	0	0	-nan
0.000184258	0	0	-nan
0.000184689	0	0	-nan
0.000185005	0	0	-nan
0.000185198	0	0	-nan
0.000185615	0	0	-nan
0.000186028	0	0	-nan
0.000186553	0	0	-nan
0.000187678	0	0	-nan
0.000188324	0	0	-nan
0.000188644	0	0	-nan
0.000188724	0	0	-nan
0.000188777	0	0	-nan
0.000189683	0	0	-nan
0.000189948	0	0	-nan
0.000190017	0	0	-nan
0.000190768	0	0	-nan
0.000190956	0	0	-nan
0.000191553	0	0	-nan
0.000191763	0	0	-nan
0.000192166	0	0	-nan
0.000192361	0	0	-nan
0.00019239	0	0	-nan
0.000192577	0	0	-nan
0.000192741	0	0	-nan
0.000192741	0	0	-nan
0.000193296	0	0	-nan
0.000193656	0	0	-nan
0.000193869	0	0	-nan
0.000194647	0	0	-nan
0.00019482	0	0	-nan
0.000195012	0	0	-nan
0.000195123	0	0	-nan
0.000195167	0	0	-nan
0.000195648	0	0	-nan
0.000195876	0	0	-nan
0.000196181	0	0	-nan
0.000196502	0	0	-nan
0.000196776	0	0	-nan
0.000196898	0	0	-nan
0.000196978	0	0	-nan
0.000196979	0	0	-nan
0.000197064	0	0	-nan
0.000197674	0	0	-nan
0.000199269	0	0	-nan
0.000199623	0	0	-nan
0.000199824	0	0	-nan
0.000199957	0	0	-nan
0.00020019	0	0	-nan
0.000200249	0	0	-nan
0.000202307	0	0	-nan
0.000203099	0	0	-nan
0.000203311	0	0	-nan
0.000203324	0	0	-nan
0.000203398	0	0	-nan
0.000203667	0	0	-nan
0.000204214	0	0	-nan
0.000206119	0	0	-nan
0.000206332	0	0	-nan
0.000206741	0	0	-nan
0.000206848	0	0	-nan
0.000206924	0	0	-nan
0.000207697	0	0	-nan
0.00020795	0	0	-nan
0.000209686	0	0	-nan
0.000210141	0	0	-nan
0.00021239	0	0	-nan
0.000212488	0	0	-nan
0.000212853	0	0	-nan
0.000213533	0	0	-nan
0.000215282	0	0	-nan
0.000215531	0	0	-nan
0.000217261	0	0	-nan
0.000217599	0	0	-nan
0.000217942	0	0	-nan
0.00021885	0	0	-nan
0.000218961	0	0	-nan
0.000219513	0	0	-nan
0.000219711	0	0	-nan
0.000219739	0	0	-nan
0.000220906	0	0	-nan
0.000222208	0	0	-nan
0.000222851	0	0	-nan
0.000222896	0	0	-nan
0.000224167	0	0	-nan
0.000226347	0	0	-nan
0.000228345	0	0	-nan
0.000231775	0	0	-nan
0.000231896	0	0	-nan
0.00023196	0	0	-nan
0.000232776	0	0	-nan
0.000232994	0	0	-nan
0.000233688	0	0	-nan
0.000233917	0	0	-nan
0.000233936	0	0	-nan
0.000234052	0	0	-nan
0.000235928	0	0	-nan
0.000237235	0	0	-nan
0.000237276	0	0	-nan
0.000237411	0	0	-nan
0.000237483	0	0	-nan
0.000237531	0	0	-nan
0.0002389	0	0	-nan
0.00023968	0	0	-nan
0.000240099	0	0	-nan
0.000240655	0	0	-nan
0.000240858	0	0	-nan
0.000241838	0	0	-nan
0.00024239	0	0	-nan
0.000244643	0	0	-nan
0.000246165	0	0	-nan
0.000246531	0	0	-nan
0.000246555	0	0	-nan
0.00024678	0	0	-nan
0.000247031	0	0	-nan
0.000247778	0	0	-nan
0.000247797	0	0	-nan
0.000248074	0	0	-nan
0.000249277	0	0	-nan
0.000249402	0	0	-nan
0.000250128	0	0	-nan
0.000250331	0	0	-nan
0.000250492	0	0	-nan
0.000251223	0	0	-nan
0.00025217	0	0	-nan
0.000252207	0	0	-nan
0.000252357	0	0	-nan
0.000253626	0	0	-nan
0.000253996	0	0	-nan
0.000254084	0	0	-nan
0.000254999	0	0	-nan
0.000255441	0	0	-nan
0.000255773	0	0	-nan
0.000256038	0	0	-nan
0.00025604	0	0	-nan
0.000256071	0	0	-nan
0.00025625	0	0	-nan
0.000258773	0	0	-nan
0.000263144	0	0	-nan
0.000263407	0	0	-nan
0.000263538	0	0	-nan
0.000263732	0	0	-nan
0.000264192	0	0	-nan
0.000264869	0	0	-nan
0.000267318	0	0	-nan
0.000267515	0	0	-nan
0.000268741	0	0	-nan
0.000269228	0	0	-nan
0.000269333	0	0	-nan
0.000269829	0	0	-nan
0.00027009	0	0	-nan
0.000272589	0	0	-nan
0.000272643	0	0	-nan
0.00027279	0	0	-nan
0.000273282	0	0	-nan
0.000273341	0	0	-nan
0.000273464	0	0	-nan
0.000274325	0	0	-nan
0.000275454	0	0	-nan
0.000278554	0	0	-nan
0.000279437	0	0	-nan
0.000279724	0	0	-nan
0.000280527	0	0	-nan
0.000280667	0	0	-nan
0.00028296	0	0	-nan
0.000283292	0	0	-nan
0.000283359	0	0	-nan
0.000284678	0	0	-nan
0.000284821	0	0	-nan
0.000285143	0	0	-nan
0.00028548	0	0	-nan
0.00028664	0	0	-nan
0.000286932	0	0	-nan
0.000287867	0	0	-nan
0.000289109	0	0	-nan
0.000289566	0	0	-nan
0.000289966	0	0	-nan
0.000290725	0	0	-nan
0.00029145	0	0	-nan
0.000291585	0	0	-nan
0.00029238	0	0	-nan
0.000292457	0	0	-nan
0.000293066	0	0	-nan
0.000293346	0	0	-nan
0.00029335	0	0	-nan
0.000294447	0	0	-nan
0.00029552	0	0	-nan
0.000297042	0	0	-nan
0.00029797	0	0	-nan
0.000298324	0	0	-nan
0.000299007	0	0	-nan
0.00029948	0	0	-nan
0.000299499	0	0	-nan
0.000299846	0	0	-nan
0.000300441	0	0	-nan
0.000301277	0	0	-nan
0.000302324	0	0	-nan
0.000303543	0	0	-nan
0.000303972	0	0	-nan
0.000304284	0	0	-nan
0.00030485	0	0	-nan
0.000305027	0	0	-nan
0.000306831	0	0	-nan
0.00030687	0	0	-nan
0.000307372	0	0	-nan
0.00030829	0	0	-nan
0.000308317	0	0	-nan
0.000309054	0	0	-nan
0.000311412	0	0	-nan
0.000311996	0	0	-nan
0.00031256	0	0	-nan
0.000313227	0	0	-nan
0.00031393	0	0	-nan
0.000317214	0	0	-nan
0.000318	0	0	-nan
0.000318455	0	0	-nan
0.000322134	0	0	-nan
0.000323415	0	0	-nan
0.000323674	0	0	-nan
0.000323958	0	0	-nan
0.000324877	0	0	-nan
0.000325627	0	0	-nan
0.00032719	0	0	-nan
0.00032783	0	0	-nan
0.000328816	0	0	-nan
0.000331393	0	0	-nan
0.000335125	0	0	-nan
0.000336241	0	0	-nan
0.000336465	0	0	-nan
0.000340366	0	0	-nan
0.000340369	0	0	-nan
0.000340417	0	0	-nan
0.000340594	0	0	-nan
0.000340802	0	0	-nan
0.000340968	0	0	-nan
0.00034163	0	0	-nan
0.000342829	0	0	-nan
0.000343162	0	0	-nan
0.000343583	0	0	-nan
0.000344144	0	0	-nan
0.000345922	0	0	-nan
0.000347126	0	0	-nan
0.000348495	0	0	-nan
0.000348756	0	0	-nan
0.000348864	0	0	-nan
0.00035049	0	0	-nan
0.00035148	0	0	-nan
0.000355351	0	0	-nan
0.000355933	0	0	-nan
0.0003575	0	0	-nan
0.000357708	0	0	-nan
0.000357793	0	0	-nan
0.000359215	0	0	-nan
0.000359246	0	0	-nan
0.000360192	0	0	-nan
0.000360323	0	0	-nan
0.000364331	0	0	-nan
0.000364548	0	0	-nan
0.000365634	0	0	-nan
0.000368857	0	0	-nan
0.000369815	0	0	-nan
0.000372628	0	0	-nan
0.000373839	0	0	-nan
0.000379235	0	0	-nan
0.000381007	0	0	-nan
0.000384104	0	0	-nan
0.000384645	0	0	-nan
0.000385667	0	0	-nan
0.000386979	0	0	-nan
0.000388068	0	0	-nan
0.000388522	0	0	-nan
0.000388885	0	0	-nan
0.000390723	0	0	-nan
0.000392427	0	0	-nan
0.000393247	0	0	-nan
0.000393855	0	0	-nan
0.000395758	0	0	-nan
0.000397027	0	0	-nan
0.000397054	0	0	-nan
0.000398643	0	0	-nan
0.000398969	0	0	-nan
0.000400333	0	0	-nan
0.000400588	0	0	-nan
0.000401799	0	0	-nan
0.000401852	0	0	-nan
0.000405388	0	0	-nan
0.000405602	0	0	-nan
0.000410012	0	0	-nan
0.000411114	0	0	-nan
0.000414162	0	0	-nan
0.000418422	0	0	-nan
0.000419521	0	0	-nan
0.000422676	0	0	-nan
0.000422735	0	0	-nan
0.000423075	0	0	-nan
0.000425629	0	0	-nan
0.000426211	0	0	-nan
0.000427021	0	0	-nan
0.000427946	0	0	-nan
0.000427969	0	0	-nan
0.000428814	0	0	-nan
0.000429169	0	0	-nan
0.000429526	0	0	-nan
0.000430227	0	0	-nan
0.000430823	0	0	-nan
0.000434171	0	0	-nan
0.000438241	0	0	-nan
0.000438856	0	0	-nan
0.000441226	0	0	-nan
0.000443057	0	0	-nan
0.000446537	0	0	-nan
0.000446633	0	0	-nan
0.000448366	0	0	-nan
0.00044885	0	0	-nan
0.000453522	0	0	-nan
0.000453613	0	0	-nan
0.000453687	0	0	-nan
0.000456015	0	0	-nan
0.000460649	0	0	-nan
0.0004622	0	0	-nan
0.000462322	0	0	-nan
0.000463475	0	0	-nan
0.000466858	0	0	-nan
0.000473071	0	0	-nan
0.000474926	0	0	-nan
0.000479503	0	0	-nan
0.000480209	0	0	-nan
0.000481104	0	0	-nan
0.000481416	0	0	-nan
0.000484701	0	0	-nan
0.00048714	0	0	-nan
0.000487614	0	0	-nan
0.000493344	0	0	-nan
0.00049582	0	0	-nan
0.000496546	0	0	-nan
0.000497907	0	0	-nan
0.000501889	0	0	-nan
0.000502048	0	0	-nan
0.000502126	0	0	-nan
0.000502718	0	0	-nan
0.000504985	0	0	-nan
0.000505571	0	0	-nan
0.000507192	0	0	-nan
0.000507241	0	0	-nan
0.000508698	0	0	-nan
0.00051514	0	0	-nan
0.00051629	0	0	-nan
0.000518467	0	0	-nan
0.000520015	0	0	-nan
0.000520623	0	0	-nan
0.000523451	0	0	-nan
0.00052369	0	0	-nan
0.000527658	0	0	-nan
0.000527899	0	0	-nan
0.000530162	0	0	-nan
0.000533626	0	0	-nan
0.000533893	0	0	-nan
0.000535965	0	0	-nan
0.00053851	0	0	-nan
0.000538835	0	0	-nan
0.000540013	0	0	-nan
0.00054197	0	0	-nan
0.00054307	0	0	-nan
0.000548749	0	0	-nan
0.000554536	0	0	-nan
0.000558483	0	0	-nan
0.000559811	0	0	-nan
0.000567757	0	0	-nan
0.000568318	0	0	-nan
0.000570256	0	0	-nan
0.000572951	0	0	-nan
0.000574752	0	0	-nan
0.000576122	0	0	-nan
0.00057635	0	0	-nan
0.000579653	0	0	-nan
0.000579836	0	0	-nan
0.000580945	0	0	-nan
0.000581687	0	0	-nan
0.000589232	0	0	-nan
0.000590837	0	0	-nan
0.000591407	0	0	-nan
0.000595329	0	0	-nan
0.000597509	0	0	-nan
0.00059795	0	0	-nan
0.000599323	0	0	-nan
0.000601272	0	0	-nan
0.000608499	0	0	-nan
0.000613324	0	0	-nan
0.000616787	0	0	-nan
0.000620555	0	0	-nan
0.000633622	0	0	-nan
0.000636803	0	0	-nan
0.000637643	0	0	-nan
0.0006393	0	0	-nan
0.000642679	0	0	-nan
0.000648989	0	0	-nan
0.000657345	0	0	-nan
0.000658203	0	0	-nan
0.000662898	0	0	-nan
0.000663527	0	0	-nan
0.00067887	0	0	-nan
0.000681997	0	0	-nan
0.000684622	0	0	-nan
0.000689633	0	0	-nan
0.000696602	0	0	-nan
0.000697354	0	0	-nan
0.000701673	0	0	-nan
0.000709944	0	0	-nan
0.000713572	0	0	-nan
0.000714252	0	0	-nan
0.000721553	0	0	-nan
0.000726335	0	0	-nan
0.000728341	0	0	-nan
0.000736582	0	0	-nan
0.000753158	0	0	-nan
0.000756181	0	0	-nan
0.000758001	0	0	-nan
0.000760423	0	0	-nan
0.000763567	0	0	-nan
0.000766463	0	0	-nan
0.000773149	0	0	-nan
0.000776508	0	0	-nan
0.0007772	0	0	-nan
0.000779001	0	0	-nan
0.000782867	0	0	-nan
0.000788504	0	0	-nan
0.000803092	0	0	-nan
0.000806514	0	0	-nan
0.000815764	0	0	-nan
0.000818538	0	0	-nan
0.000822449	0	0	-nan
0.000830225	0	0	-nan
0.000833565	0	0	-nan
0.000839803	0	0	-nan
0.000848502	0	0	-nan
0.000864008	0	0	-nan
0.000877279	0	0	-nan
0.000893506	0	0	-nan
0.000902264	0	0	-nan
0.000917404	0	0	-nan
0.000924309	0	0	-nan
0.00093362	0	0	-nan
0.000942648	0	0	-nan
0.000975414	0	0	-nan
0.00110048	0	0	-nan
0.00112327	0	0	-nan
0.00118248	0	0	-nan
0.00119898	0	0	-nan
0.00120713	0	0	-nan
0.00121803	0	0	-nan
0.00123911	0	0	-nan
0.00126289	0	0	-nan
0.00127133	0	0	-nan
0.0013093	0	0	-nan
0.00131711	0	0	-nan
0.00133367	0	0	-nan
0.00136276	0	0	-nan
0.00139504	0	0	-nan
