2.60708e-09	0	0	-nan
8.99465e-08	0	0	-nan
1.6784e-07	0	0	-nan
3.63174e-07	0	0	-nan
4.02017e-07	0	0	-nan
4.77127e-07	0	0	-nan
5.20084e-07	0	0	-nan
6.59061e-07	0	0	-nan
6.66758e-07	0	0	-nan
6.69585e-07	0	0	-nan
7.66042e-07	0	0	-nan
8.86704e-07	0	0	-nan
9.32763e-07	0	0	-nan
9.57143e-07	0	0	-nan
9.68442e-07	0	0	-nan
1.07223e-06	0	0	-nan
1.14603e-06	0	0	-nan
1.2223e-06	0	0	-nan
1.38221e-06	0	0	-nan
1.4385e-06	0	0	-nan
1.44363e-06	0	0	-nan
1.50712e-06	0	0	-nan
1.68991e-06	0	0	-nan
1.79026e-06	0	0	-nan
1.82578e-06	0	0	-nan
1.83399e-06	0	0	-nan
1.91959e-06	0	0	-nan
1.96629e-06	0	0	-nan
2.00671e-06	0	0	-nan
2.02412e-06	0	0	-nan
2.08096e-06	0	0	-nan
2.08102e-06	0	0	-nan
2.14394e-06	0	0	-nan
2.15527e-06	0	0	-nan
2.21371e-06	0	0	-nan
2.22506e-06	0	0	-nan
2.34299e-06	0	0	-nan
2.3511e-06	0	0	-nan
2.5598e-06	0	0	-nan
2.63153e-06	0	0	-nan
2.65687e-06	0	0	-nan
2.97812e-06	0	0	-nan
3.09672e-06	0	0	-nan
3.11115e-06	0	0	-nan
3.13491e-06	0	0	-nan
3.4501e-06	0	0	-nan
3.47966e-06	0	0	-nan
3.51949e-06	0	0	-nan
3.68789e-06	0	0	-nan
3.74968e-06	0	0	-nan
3.76306e-06	0	0	-nan
3.84215e-06	0	0	-nan
3.96242e-06	0	0	-nan
3.96913e-06	0	0	-nan
4.01283e-06	0	0	-nan
4.08541e-06	0	0	-nan
4.10284e-06	0	0	-nan
4.10643e-06	0	0	-nan
4.147e-06	0	0	-nan
4.18188e-06	0	0	-nan
4.21181e-06	0	0	-nan
4.29716e-06	0	0	-nan
4.33067e-06	0	0	-nan
4.40254e-06	0	0	-nan
4.59444e-06	0	0	-nan
4.60248e-06	0	0	-nan
4.78355e-06	0	0	-nan
5.06841e-06	0	0	-nan
5.19217e-06	0	0	-nan
5.34725e-06	0	0	-nan
5.34732e-06	0	0	-nan
5.55074e-06	0	0	-nan
5.62789e-06	0	0	-nan
5.66543e-06	0	0	-nan
5.76538e-06	0	0	-nan
5.79197e-06	0	0	-nan
5.85e-06	0	0	-nan
5.92194e-06	0	0	-nan
6.14645e-06	0	0	-nan
6.16785e-06	0	0	-nan
6.18746e-06	0	0	-nan
6.21625e-06	0	0	-nan
6.23634e-06	0	0	-nan
6.27282e-06	0	0	-nan
6.30559e-06	0	0	-nan
6.30772e-06	0	0	-nan
6.31323e-06	0	0	-nan
6.58261e-06	0	0	-nan
6.82711e-06	0	0	-nan
7.12419e-06	0	0	-nan
7.154e-06	0	0	-nan
7.29349e-06	0	0	-nan
7.51304e-06	0	0	-nan
7.52915e-06	0	0	-nan
7.69778e-06	0	0	-nan
7.7501e-06	0	0	-nan
7.90024e-06	0	0	-nan
7.95665e-06	0	0	-nan
8.08468e-06	0	0	-nan
8.21456e-06	0	0	-nan
8.33312e-06	0	0	-nan
8.3828e-06	0	0	-nan
8.53174e-06	0	0	-nan
8.61511e-06	0	0	-nan
8.67831e-06	0	0	-nan
8.76022e-06	0	0	-nan
8.81674e-06	0	0	-nan
8.89052e-06	0	0	-nan
8.97642e-06	0	0	-nan
8.99834e-06	0	0	-nan
9.01026e-06	0	0	-nan
9.04408e-06	0	0	-nan
9.04738e-06	0	0	-nan
9.2364e-06	0	0	-nan
9.28301e-06	0	0	-nan
9.30527e-06	0	0	-nan
9.31699e-06	0	0	-nan
9.34238e-06	0	0	-nan
9.36907e-06	0	0	-nan
9.39518e-06	0	0	-nan
9.48087e-06	0	0	-nan
9.49641e-06	0	0	-nan
9.55861e-06	0	0	-nan
9.58795e-06	0	0	-nan
9.59774e-06	0	0	-nan
9.65872e-06	0	0	-nan
9.70403e-06	0	0	-nan
9.83719e-06	0	0	-nan
9.89647e-06	0	0	-nan
9.90975e-06	0	0	-nan
9.9242e-06	0	0	-nan
9.99519e-06	0	0	-nan
1.01948e-05	0	0	-nan
1.02512e-05	0	0	-nan
1.029e-05	0	0	-nan
1.02907e-05	0	0	-nan
1.04265e-05	0	0	-nan
1.05442e-05	0	0	-nan
1.06224e-05	0	0	-nan
1.07123e-05	0	0	-nan
1.07437e-05	0	0	-nan
1.07572e-05	0	0	-nan
1.07786e-05	0	0	-nan
1.08422e-05	0	0	-nan
1.0948e-05	0	0	-nan
1.13345e-05	0	0	-nan
1.13983e-05	0	0	-nan
1.14918e-05	0	0	-nan
1.15252e-05	0	0	-nan
1.16191e-05	0	0	-nan
1.17807e-05	0	0	-nan
1.18822e-05	0	0	-nan
1.19113e-05	0	0	-nan
1.19449e-05	0	0	-nan
1.21294e-05	0	0	-nan
1.21455e-05	0	0	-nan
1.21528e-05	0	0	-nan
1.22019e-05	0	0	-nan
1.24062e-05	0	0	-nan
1.24357e-05	0	0	-nan
1.29078e-05	0	0	-nan
1.29965e-05	0	0	-nan
1.3071e-05	0	0	-nan
1.31435e-05	0	0	-nan
1.32427e-05	0	0	-nan
1.33891e-05	0	0	-nan
1.34283e-05	0	0	-nan
1.3542e-05	0	0	-nan
1.36424e-05	0	0	-nan
1.36547e-05	0	0	-nan
1.36688e-05	0	0	-nan
1.38953e-05	0	0	-nan
1.39426e-05	0	0	-nan
1.42634e-05	0	0	-nan
1.42887e-05	0	0	-nan
1.43121e-05	0	0	-nan
1.43246e-05	0	0	-nan
1.43286e-05	0	0	-nan
1.44035e-05	0	0	-nan
1.45496e-05	0	0	-nan
1.45916e-05	0	0	-nan
1.47263e-05	0	0	-nan
1.47596e-05	0	0	-nan
1.47812e-05	0	0	-nan
1.48732e-05	0	0	-nan
1.49891e-05	0	0	-nan
1.50732e-05	0	0	-nan
1.52828e-05	0	0	-nan
1.54551e-05	0	0	-nan
1.55717e-05	0	0	-nan
1.57584e-05	0	0	-nan
1.58376e-05	0	0	-nan
1.59642e-05	0	0	-nan
1.60171e-05	0	0	-nan
1.60411e-05	0	0	-nan
1.61309e-05	0	0	-nan
1.62577e-05	0	0	-nan
1.63351e-05	0	0	-nan
1.65488e-05	0	0	-nan
1.67377e-05	0	0	-nan
1.69185e-05	0	0	-nan
1.69481e-05	0	0	-nan
1.7686e-05	0	0	-nan
1.77229e-05	0	0	-nan
1.78772e-05	0	0	-nan
1.83712e-05	0	0	-nan
1.84133e-05	0	0	-nan
1.84367e-05	0	0	-nan
1.8586e-05	0	0	-nan
1.85867e-05	0	0	-nan
1.86699e-05	0	0	-nan
1.87244e-05	0	0	-nan
1.8831e-05	0	0	-nan
1.88575e-05	0	0	-nan
1.91083e-05	0	0	-nan
1.9197e-05	0	0	-nan
1.92253e-05	0	0	-nan
1.92522e-05	0	0	-nan
1.93276e-05	0	0	-nan
1.9518e-05	0	0	-nan
1.95437e-05	0	0	-nan
1.96534e-05	0	0	-nan
1.96588e-05	0	0	-nan
1.96618e-05	0	0	-nan
1.96745e-05	0	0	-nan
1.97163e-05	0	0	-nan
1.97534e-05	0	0	-nan
1.97818e-05	0	0	-nan
2.00087e-05	0	0	-nan
2.01891e-05	0	0	-nan
2.02693e-05	0	0	-nan
2.02837e-05	0	0	-nan
2.0546e-05	0	0	-nan
2.0597e-05	0	0	-nan
2.06505e-05	0	0	-nan
2.08477e-05	0	0	-nan
2.08609e-05	0	0	-nan
2.10369e-05	0	0	-nan
2.12159e-05	0	0	-nan
2.13318e-05	0	0	-nan
2.16299e-05	0	0	-nan
2.19348e-05	0	0	-nan
2.19722e-05	0	0	-nan
2.20774e-05	0	0	-nan
2.23461e-05	0	0	-nan
2.24021e-05	0	0	-nan
2.25221e-05	0	0	-nan
2.26838e-05	0	0	-nan
2.27027e-05	0	0	-nan
2.27477e-05	0	0	-nan
2.27514e-05	0	0	-nan
2.30866e-05	0	0	-nan
2.31468e-05	0	0	-nan
2.36848e-05	0	0	-nan
2.38477e-05	0	0	-nan
2.39579e-05	0	0	-nan
2.39894e-05	0	0	-nan
2.40667e-05	0	0	-nan
2.41486e-05	0	0	-nan
2.43485e-05	0	0	-nan
2.44386e-05	0	0	-nan
2.46507e-05	0	0	-nan
2.47421e-05	0	0	-nan
2.49805e-05	0	0	-nan
2.50369e-05	0	0	-nan
2.508e-05	0	0	-nan
2.51514e-05	0	0	-nan
2.53003e-05	0	0	-nan
2.53819e-05	0	0	-nan
2.56073e-05	0	0	-nan
2.56194e-05	0	0	-nan
2.57527e-05	0	0	-nan
2.57825e-05	0	0	-nan
2.58991e-05	0	0	-nan
2.5957e-05	0	0	-nan
2.61124e-05	0	0	-nan
2.62637e-05	0	0	-nan
2.6328e-05	0	0	-nan
2.65831e-05	0	0	-nan
2.6679e-05	0	0	-nan
2.67674e-05	0	0	-nan
2.68144e-05	0	0	-nan
2.68993e-05	0	0	-nan
2.69193e-05	0	0	-nan
2.69296e-05	0	0	-nan
2.69346e-05	0	0	-nan
2.71634e-05	0	0	-nan
2.71704e-05	0	0	-nan
2.7411e-05	0	0	-nan
2.75483e-05	0	0	-nan
2.76514e-05	0	0	-nan
2.81056e-05	0	0	-nan
2.81131e-05	0	0	-nan
2.81799e-05	0	0	-nan
2.82057e-05	0	0	-nan
2.82197e-05	0	0	-nan
2.82626e-05	0	0	-nan
2.86865e-05	0	0	-nan
2.87321e-05	0	0	-nan
2.87922e-05	0	0	-nan
2.88034e-05	0	0	-nan
2.88412e-05	0	0	-nan
2.90373e-05	0	0	-nan
2.91039e-05	0	0	-nan
2.92594e-05	0	0	-nan
2.99041e-05	0	0	-nan
3.01594e-05	0	0	-nan
3.01863e-05	0	0	-nan
3.02303e-05	0	0	-nan
3.0484e-05	0	0	-nan
3.0517e-05	0	0	-nan
3.0561e-05	0	0	-nan
3.06299e-05	0	0	-nan
3.14064e-05	0	0	-nan
3.14824e-05	0	0	-nan
3.16801e-05	0	0	-nan
3.17596e-05	0	0	-nan
3.18261e-05	0	0	-nan
3.19996e-05	0	0	-nan
3.22694e-05	0	0	-nan
3.22825e-05	0	0	-nan
3.23023e-05	0	0	-nan
3.23042e-05	0	0	-nan
3.2312e-05	0	0	-nan
3.25001e-05	0	0	-nan
3.25616e-05	0	0	-nan
3.26813e-05	0	0	-nan
3.27698e-05	0	0	-nan
3.27975e-05	0	0	-nan
3.28992e-05	0	0	-nan
3.3082e-05	0	0	-nan
3.31361e-05	0	0	-nan
3.33022e-05	0	0	-nan
3.34246e-05	0	0	-nan
3.36549e-05	0	0	-nan
3.38169e-05	0	0	-nan
3.38916e-05	0	0	-nan
3.39816e-05	0	0	-nan
3.41834e-05	0	0	-nan
3.42443e-05	0	0	-nan
3.43077e-05	0	0	-nan
3.45573e-05	0	0	-nan
3.45664e-05	0	0	-nan
3.46139e-05	0	0	-nan
3.50104e-05	0	0	-nan
3.50822e-05	0	0	-nan
3.50988e-05	0	0	-nan
3.53135e-05	0	0	-nan
3.54748e-05	0	0	-nan
3.57092e-05	0	0	-nan
3.57408e-05	0	0	-nan
3.57671e-05	0	0	-nan
3.5802e-05	0	0	-nan
3.59365e-05	0	0	-nan
3.63582e-05	0	0	-nan
3.65189e-05	0	0	-nan
3.66437e-05	0	0	-nan
3.66901e-05	0	0	-nan
3.66917e-05	0	0	-nan
3.66932e-05	0	0	-nan
3.7038e-05	0	0	-nan
3.70397e-05	0	0	-nan
3.7369e-05	0	0	-nan
3.7396e-05	0	0	-nan
3.74197e-05	0	0	-nan
3.74865e-05	0	0	-nan
3.7673e-05	0	0	-nan
3.76834e-05	0	0	-nan
3.77079e-05	0	0	-nan
3.77251e-05	0	0	-nan
3.78343e-05	0	0	-nan
3.78391e-05	0	0	-nan
3.83039e-05	0	0	-nan
3.83856e-05	0	0	-nan
3.85522e-05	0	0	-nan
3.86672e-05	0	0	-nan
3.9144e-05	0	0	-nan
3.92e-05	0	0	-nan
3.92921e-05	0	0	-nan
4.00824e-05	0	0	-nan
4.02027e-05	0	0	-nan
4.10876e-05	0	0	-nan
4.11009e-05	0	0	-nan
4.11749e-05	0	0	-nan
4.14442e-05	0	0	-nan
4.14656e-05	0	0	-nan
4.17988e-05	0	0	-nan
4.18047e-05	0	0	-nan
4.19286e-05	0	0	-nan
4.20631e-05	0	0	-nan
4.22053e-05	0	0	-nan
4.22676e-05	0	0	-nan
4.24478e-05	0	0	-nan
4.25767e-05	0	0	-nan
4.26099e-05	0	0	-nan
4.2878e-05	0	0	-nan
4.3069e-05	0	0	-nan
4.32982e-05	0	0	-nan
4.35306e-05	0	0	-nan
4.37451e-05	0	0	-nan
4.39278e-05	0	0	-nan
4.40288e-05	0	0	-nan
4.40495e-05	0	0	-nan
4.40749e-05	0	0	-nan
4.41078e-05	0	0	-nan
4.42734e-05	0	0	-nan
4.43836e-05	0	0	-nan
4.4504e-05	0	0	-nan
4.50735e-05	0	0	-nan
4.52228e-05	0	0	-nan
4.54081e-05	0	0	-nan
4.55365e-05	0	0	-nan
4.57612e-05	0	0	-nan
4.59965e-05	0	0	-nan
4.62987e-05	0	0	-nan
4.6406e-05	0	0	-nan
4.64927e-05	0	0	-nan
4.65499e-05	0	0	-nan
4.65654e-05	0	0	-nan
4.65754e-05	0	0	-nan
4.66963e-05	0	0	-nan
4.67634e-05	0	0	-nan
4.6783e-05	0	0	-nan
4.67926e-05	0	0	-nan
4.72949e-05	0	0	-nan
4.7326e-05	0	0	-nan
4.74873e-05	0	0	-nan
4.77408e-05	0	0	-nan
4.7801e-05	0	0	-nan
4.80998e-05	0	0	-nan
4.82878e-05	0	0	-nan
4.89049e-05	0	0	-nan
4.92092e-05	0	0	-nan
4.92209e-05	0	0	-nan
4.92821e-05	0	0	-nan
4.9572e-05	0	0	-nan
4.96532e-05	0	0	-nan
4.99573e-05	0	0	-nan
5.01367e-05	0	0	-nan
5.01838e-05	0	0	-nan
5.03922e-05	0	0	-nan
5.08435e-05	0	0	-nan
5.08751e-05	0	0	-nan
5.10942e-05	0	0	-nan
5.11131e-05	0	0	-nan
5.12343e-05	0	0	-nan
5.1729e-05	0	0	-nan
5.17548e-05	0	0	-nan
5.18266e-05	0	0	-nan
5.23275e-05	0	0	-nan
5.25962e-05	0	0	-nan
5.28516e-05	0	0	-nan
5.30515e-05	0	0	-nan
5.309e-05	0	0	-nan
5.33167e-05	0	0	-nan
5.33762e-05	0	0	-nan
5.34242e-05	0	0	-nan
5.34263e-05	0	0	-nan
5.34342e-05	0	0	-nan
5.4136e-05	0	0	-nan
5.41466e-05	0	0	-nan
5.49797e-05	0	0	-nan
5.49811e-05	0	0	-nan
5.52035e-05	0	0	-nan
5.53824e-05	0	0	-nan
5.54082e-05	0	0	-nan
5.55346e-05	0	0	-nan
5.55651e-05	0	0	-nan
5.57433e-05	0	0	-nan
5.57695e-05	0	0	-nan
5.58323e-05	0	0	-nan
5.58928e-05	0	0	-nan
5.593e-05	0	0	-nan
5.61739e-05	0	0	-nan
5.62135e-05	0	0	-nan
5.62913e-05	0	0	-nan
5.6409e-05	0	0	-nan
5.67497e-05	0	0	-nan
5.68073e-05	0	0	-nan
5.68097e-05	0	0	-nan
5.71901e-05	0	0	-nan
5.71921e-05	0	0	-nan
5.72513e-05	0	0	-nan
5.76757e-05	0	0	-nan
5.77929e-05	0	0	-nan
5.78528e-05	0	0	-nan
5.78677e-05	0	0	-nan
5.80356e-05	0	0	-nan
5.81731e-05	0	0	-nan
5.83669e-05	0	0	-nan
5.8369e-05	0	0	-nan
5.83816e-05	0	0	-nan
5.85168e-05	0	0	-nan
5.86394e-05	0	0	-nan
5.86421e-05	0	0	-nan
5.87253e-05	0	0	-nan
5.88414e-05	0	0	-nan
5.91879e-05	0	0	-nan
5.96034e-05	0	0	-nan
5.96678e-05	0	0	-nan
5.98265e-05	0	0	-nan
5.99692e-05	0	0	-nan
6.00122e-05	0	0	-nan
6.00915e-05	0	0	-nan
6.05957e-05	0	0	-nan
6.06887e-05	0	0	-nan
6.08553e-05	0	0	-nan
6.14356e-05	0	0	-nan
6.16139e-05	0	0	-nan
6.16346e-05	0	0	-nan
6.18177e-05	0	0	-nan
6.18188e-05	0	0	-nan
6.18568e-05	0	0	-nan
6.18622e-05	0	0	-nan
6.19264e-05	0	0	-nan
6.19298e-05	0	0	-nan
6.22817e-05	0	0	-nan
6.24548e-05	0	0	-nan
6.25533e-05	0	0	-nan
6.2685e-05	0	0	-nan
6.28099e-05	0	0	-nan
6.29911e-05	0	0	-nan
6.30851e-05	0	0	-nan
6.33778e-05	0	0	-nan
6.36008e-05	0	0	-nan
6.36415e-05	0	0	-nan
6.36967e-05	0	0	-nan
6.38076e-05	0	0	-nan
6.42936e-05	0	0	-nan
6.44437e-05	0	0	-nan
6.47414e-05	0	0	-nan
6.49899e-05	0	0	-nan
6.51053e-05	0	0	-nan
6.54385e-05	0	0	-nan
6.55079e-05	0	0	-nan
6.55207e-05	0	0	-nan
6.55486e-05	0	0	-nan
6.56401e-05	0	0	-nan
6.63021e-05	0	0	-nan
6.65168e-05	0	0	-nan
6.67789e-05	0	0	-nan
6.69044e-05	0	0	-nan
6.70823e-05	0	0	-nan
6.72546e-05	0	0	-nan
6.75004e-05	0	0	-nan
6.82516e-05	0	0	-nan
6.82542e-05	0	0	-nan
6.85169e-05	0	0	-nan
6.87137e-05	0	0	-nan
6.87388e-05	0	0	-nan
6.88379e-05	0	0	-nan
6.92786e-05	0	0	-nan
6.93174e-05	0	0	-nan
6.9785e-05	0	0	-nan
7.00301e-05	0	0	-nan
7.02981e-05	0	0	-nan
7.09224e-05	0	0	-nan
7.09421e-05	0	0	-nan
7.09496e-05	0	0	-nan
7.1048e-05	0	0	-nan
7.17452e-05	0	0	-nan
7.18626e-05	0	0	-nan
7.26108e-05	0	0	-nan
7.26794e-05	0	0	-nan
7.26883e-05	0	0	-nan
7.27726e-05	0	0	-nan
7.32904e-05	0	0	-nan
7.33099e-05	0	0	-nan
7.34232e-05	0	0	-nan
7.40854e-05	0	0	-nan
7.40862e-05	0	0	-nan
7.41307e-05	0	0	-nan
7.43298e-05	0	0	-nan
7.4488e-05	0	0	-nan
7.45601e-05	0	0	-nan
7.4714e-05	0	0	-nan
7.4823e-05	0	0	-nan
7.52449e-05	0	0	-nan
7.57749e-05	0	0	-nan
7.599e-05	0	0	-nan
7.61337e-05	0	0	-nan
7.61405e-05	0	0	-nan
7.62563e-05	0	0	-nan
7.62873e-05	0	0	-nan
7.64117e-05	0	0	-nan
7.70713e-05	0	0	-nan
7.73024e-05	0	0	-nan
7.73093e-05	0	0	-nan
7.73438e-05	0	0	-nan
7.7474e-05	0	0	-nan
7.75734e-05	0	0	-nan
7.75775e-05	0	0	-nan
7.77558e-05	0	0	-nan
7.7756e-05	0	0	-nan
7.7807e-05	0	0	-nan
7.7829e-05	0	0	-nan
7.79995e-05	0	0	-nan
7.80427e-05	0	0	-nan
7.83173e-05	0	0	-nan
7.84255e-05	0	0	-nan
7.86824e-05	0	0	-nan
7.87972e-05	0	0	-nan
7.90133e-05	0	0	-nan
7.92961e-05	0	0	-nan
7.93097e-05	0	0	-nan
7.94864e-05	0	0	-nan
7.95062e-05	0	0	-nan
7.9534e-05	0	0	-nan
7.96681e-05	0	0	-nan
7.98594e-05	0	0	-nan
8.00432e-05	0	0	-nan
8.03755e-05	0	0	-nan
8.04472e-05	0	0	-nan
8.04474e-05	0	0	-nan
8.0515e-05	0	0	-nan
8.06555e-05	0	0	-nan
8.07015e-05	0	0	-nan
8.08478e-05	0	0	-nan
8.10961e-05	0	0	-nan
8.11807e-05	0	0	-nan
8.12985e-05	0	0	-nan
8.17074e-05	0	0	-nan
8.20705e-05	0	0	-nan
8.22411e-05	0	0	-nan
8.23473e-05	0	0	-nan
8.24574e-05	0	0	-nan
8.25714e-05	0	0	-nan
8.28456e-05	0	0	-nan
8.3004e-05	0	0	-nan
8.3291e-05	0	0	-nan
8.35172e-05	0	0	-nan
8.36759e-05	0	0	-nan
8.41445e-05	0	0	-nan
8.41461e-05	0	0	-nan
8.42105e-05	0	0	-nan
8.50971e-05	0	0	-nan
8.51916e-05	0	0	-nan
8.53112e-05	0	0	-nan
8.53149e-05	0	0	-nan
8.63662e-05	0	0	-nan
8.64432e-05	0	0	-nan
8.64518e-05	0	0	-nan
8.66143e-05	0	0	-nan
8.69871e-05	0	0	-nan
8.7284e-05	0	0	-nan
8.72879e-05	0	0	-nan
8.75472e-05	0	0	-nan
8.77209e-05	0	0	-nan
8.80064e-05	0	0	-nan
8.84976e-05	0	0	-nan
8.89568e-05	0	0	-nan
8.92847e-05	0	0	-nan
8.93664e-05	0	0	-nan
8.98451e-05	0	0	-nan
9.01147e-05	0	0	-nan
9.02327e-05	0	0	-nan
9.03093e-05	0	0	-nan
9.20119e-05	0	0	-nan
9.20375e-05	0	0	-nan
9.24062e-05	0	0	-nan
9.26734e-05	0	0	-nan
9.2933e-05	0	0	-nan
9.35619e-05	0	0	-nan
9.40113e-05	0	0	-nan
9.40765e-05	0	0	-nan
9.45223e-05	0	0	-nan
9.45429e-05	0	0	-nan
9.47469e-05	0	0	-nan
9.50907e-05	0	0	-nan
9.51669e-05	0	0	-nan
9.52111e-05	0	0	-nan
9.54566e-05	0	0	-nan
9.5784e-05	0	0	-nan
9.61613e-05	0	0	-nan
9.6345e-05	0	0	-nan
9.63843e-05	0	0	-nan
9.66198e-05	0	0	-nan
9.6718e-05	0	0	-nan
9.69526e-05	0	0	-nan
9.71756e-05	0	0	-nan
9.73273e-05	0	0	-nan
9.73591e-05	0	0	-nan
9.75339e-05	0	0	-nan
9.85067e-05	0	0	-nan
9.88219e-05	0	0	-nan
0.000100484	0	0	-nan
0.000100741	0	0	-nan
0.000100792	0	0	-nan
0.000101116	0	0	-nan
0.000101227	0	0	-nan
0.000101232	0	0	-nan
0.000101237	0	0	-nan
0.000101496	0	0	-nan
0.00010154	0	0	-nan
0.000101711	0	0	-nan
0.000102	0	0	-nan
0.000102327	0	0	-nan
0.000102776	0	0	-nan
0.000102935	0	0	-nan
0.000103342	0	0	-nan
0.000103922	0	0	-nan
0.000104035	0	0	-nan
0.000105129	0	0	-nan
0.000105267	0	0	-nan
0.000105336	0	0	-nan
0.000105544	0	0	-nan
0.000105574	0	0	-nan
0.000105619	0	0	-nan
0.000106359	0	0	-nan
0.000106468	0	0	-nan
0.000106884	0	0	-nan
0.000108279	0	0	-nan
0.000108347	0	0	-nan
0.00010924	0	0	-nan
0.000109583	0	0	-nan
0.000109874	0	0	-nan
0.000109949	0	0	-nan
0.000110428	0	0	-nan
0.00011055	0	0	-nan
0.000111117	0	0	-nan
0.000111246	0	0	-nan
0.000111424	0	0	-nan
0.000111558	0	0	-nan
0.000111673	0	0	-nan
0.000111832	0	0	-nan
0.000112148	0	0	-nan
0.000112437	0	0	-nan
0.000112461	0	0	-nan
0.000112547	0	0	-nan
0.000112813	0	0	-nan
0.000113284	0	0	-nan
0.000113314	0	0	-nan
0.000113928	0	0	-nan
0.000114143	0	0	-nan
0.000114612	0	0	-nan
0.00011489	0	0	-nan
0.000114911	0	0	-nan
0.000115796	0	0	-nan
0.000116188	0	0	-nan
0.000116213	0	0	-nan
0.000116408	0	0	-nan
0.000116541	0	0	-nan
0.000116867	0	0	-nan
0.000116879	0	0	-nan
0.00011696	0	0	-nan
0.000117056	0	0	-nan
0.000117686	0	0	-nan
0.000118011	0	0	-nan
0.000119198	0	0	-nan
0.000120436	0	0	-nan
0.00012071	0	0	-nan
0.000121707	0	0	-nan
0.000122276	0	0	-nan
0.00012271	0	0	-nan
0.000122758	0	0	-nan
0.00012319	0	0	-nan
0.000123199	0	0	-nan
0.000123638	0	0	-nan
0.000124788	0	0	-nan
0.000126752	0	0	-nan
0.000127033	0	0	-nan
0.000127744	0	0	-nan
0.000128149	0	0	-nan
0.000128566	0	0	-nan
0.000128984	0	0	-nan
0.000130136	0	0	-nan
0.000130276	0	0	-nan
0.000130539	0	0	-nan
0.000130628	0	0	-nan
0.00013136	0	0	-nan
0.000131657	0	0	-nan
0.000132156	0	0	-nan
0.000132326	0	0	-nan
0.000133051	0	0	-nan
0.000133402	0	0	-nan
0.000133793	0	0	-nan
0.000134611	0	0	-nan
0.000135163	0	0	-nan
0.00013543	0	0	-nan
0.000135516	0	0	-nan
0.000136069	0	0	-nan
0.000136805	0	0	-nan
0.000137738	0	0	-nan
0.000137843	0	0	-nan
0.000138559	0	0	-nan
0.000138822	0	0	-nan
0.000140763	0	0	-nan
0.000141018	0	0	-nan
0.000141187	0	0	-nan
0.000141447	0	0	-nan
0.000142471	0	0	-nan
0.000143009	0	0	-nan
0.000143916	0	0	-nan
0.000144017	0	0	-nan
0.00014409	0	0	-nan
0.000144914	0	0	-nan
0.000145488	0	0	-nan
0.000145801	0	0	-nan
0.000146122	0	0	-nan
0.000148067	0	0	-nan
0.000150728	0	0	-nan
0.000150766	0	0	-nan
0.000150911	0	0	-nan
0.000151633	0	0	-nan
0.000151858	0	0	-nan
0.000151985	0	0	-nan
0.00015199	0	0	-nan
0.00015255	0	0	-nan
0.000153068	0	0	-nan
0.000153313	0	0	-nan
0.000153666	0	0	-nan
0.000154092	0	0	-nan
0.000154274	0	0	-nan
0.000154602	0	0	-nan
0.00015472	0	0	-nan
0.000155119	0	0	-nan
0.000156257	0	0	-nan
0.000157814	0	0	-nan
0.000158569	0	0	-nan
0.000158981	0	0	-nan
0.000159411	0	0	-nan
0.000159869	0	0	-nan
0.000160947	0	0	-nan
0.000161228	0	0	-nan
0.000161317	0	0	-nan
0.000162955	0	0	-nan
0.000163034	0	0	-nan
0.00016354	0	0	-nan
0.000166781	0	0	-nan
0.000166935	0	0	-nan
0.000167025	0	0	-nan
0.000171279	0	0	-nan
0.00017169	0	0	-nan
0.000172629	0	0	-nan
0.000175298	0	0	-nan
0.000175508	0	0	-nan
0.000176001	0	0	-nan
0.000180878	0	0	-nan
0.000182039	0	0	-nan
0.000184526	0	0	-nan
0.000187058	0	0	-nan
0.000191295	0	0	-nan
0.000191417	0	0	-nan
0.000192492	0	0	-nan
0.000194722	0	0	-nan
0.000195616	0	0	-nan
0.000196046	0	0	-nan
0.000196122	0	0	-nan
0.000196943	0	0	-nan
0.000197165	0	0	-nan
0.00019836	0	0	-nan
0.000199371	0	0	-nan
0.000201228	0	0	-nan
0.000202287	0	0	-nan
0.000205246	0	0	-nan
0.000205296	0	0	-nan
0.000205687	0	0	-nan
0.000209375	0	0	-nan
0.000209498	0	0	-nan
0.000210647	0	0	-nan
0.000211185	0	0	-nan
0.000212987	0	0	-nan
0.000213348	0	0	-nan
0.000214341	0	0	-nan
0.000214459	0	0	-nan
0.000215943	0	0	-nan
0.000217268	0	0	-nan
0.000219434	0	0	-nan
0.000219553	0	0	-nan
0.000224463	0	0	-nan
0.000226284	0	0	-nan
0.000226305	0	0	-nan
0.000226418	0	0	-nan
0.00022645	0	0	-nan
0.000229144	0	0	-nan
0.000238176	0	0	-nan
0.000240004	0	0	-nan
0.000240118	0	0	-nan
0.000240172	0	0	-nan
0.000243062	0	0	-nan
0.000248132	0	0	-nan
0.000248285	0	0	-nan
0.000249314	0	0	-nan
0.000249865	0	0	-nan
0.000253424	0	0	-nan
0.000253713	0	0	-nan
0.000262454	0	0	-nan
0.000263442	0	0	-nan
0.000265015	0	0	-nan
0.000265755	0	0	-nan
0.000267042	0	0	-nan
0.000267502	0	0	-nan
0.000283252	0	0	-nan
0.000285878	0	0	-nan
0.000289104	0	0	-nan
0.000290597	0	0	-nan
0.000295239	0	0	-nan
0.000296214	0	0	-nan
0.00029893	0	0	-nan
0.000303024	0	0	-nan
0.00030534	0	0	-nan
0.000314562	0	0	-nan
0.000319761	0	0	-nan
0.000322181	0	0	-nan
0.000323549	0	0	-nan
0.000323825	0	0	-nan
0.000330359	0	0	-nan
0.000337281	0	0	-nan
0.000338494	0	0	-nan
0.000340833	0	0	-nan
0.000351541	0	0	-nan
0.000358699	0	0	-nan
0.000369016	0	0	-nan
0.000378668	0	0	-nan
0.00038047	0	0	-nan
0.000380796	0	0	-nan
0.000383582	0	0	-nan
0.000393539	0	0	-nan
0.000395694	0	0	-nan
0.000417053	0	0	-nan
0.000423298	0	0	-nan
0.000455495	0	0	-nan
0.000488331	0	0	-nan
0.000502956	0	0	-nan
0.000542648	0	0	-nan
0.000546774	0	0	-nan
0.000550534	0	0	-nan
0.000579046	0	0	-nan
0.00064779	0	0	-nan
0.000659354	0	0	-nan
0.000667117	0	0	-nan
0.000724782	0	0	-nan
0.00073891	0	0	-nan
0.000801337	0	0	-nan
0.000808189	0	0	-nan
0.000813815	0	0	-nan
0.000951585	0	0	-nan
0.00163207	0	0	-nan
