7.25089e-08	0	0	-nan
1.09327e-07	0	0	-nan
1.75642e-07	0	0	-nan
4.87343e-07	0	0	-nan
8.27721e-07	0	0	-nan
9.35937e-07	0	0	-nan
9.89075e-07	0	0	-nan
1.05977e-06	0	0	-nan
1.34755e-06	0	0	-nan
1.36064e-06	0	0	-nan
1.37368e-06	0	0	-nan
1.47777e-06	0	0	-nan
1.6108e-06	0	0	-nan
1.6407e-06	0	0	-nan
1.64225e-06	0	0	-nan
1.90504e-06	0	0	-nan
1.92155e-06	0	0	-nan
1.94571e-06	0	0	-nan
2.00186e-06	0	0	-nan
2.03255e-06	0	0	-nan
2.07912e-06	0	0	-nan
2.15062e-06	0	0	-nan
2.17525e-06	0	0	-nan
2.22457e-06	0	0	-nan
2.27276e-06	0	0	-nan
2.30247e-06	0	0	-nan
2.517e-06	0	0	-nan
2.68528e-06	0	0	-nan
2.7054e-06	0	0	-nan
2.81665e-06	0	0	-nan
2.82694e-06	0	0	-nan
2.86854e-06	0	0	-nan
2.93322e-06	0	0	-nan
3.18544e-06	0	0	-nan
3.34164e-06	0	0	-nan
3.38357e-06	0	0	-nan
3.38486e-06	0	0	-nan
3.41715e-06	0	0	-nan
3.41824e-06	0	0	-nan
3.5035e-06	0	0	-nan
3.58622e-06	0	0	-nan
3.72871e-06	0	0	-nan
3.73778e-06	0	0	-nan
3.88948e-06	0	0	-nan
3.88989e-06	0	0	-nan
3.90666e-06	0	0	-nan
3.92404e-06	0	0	-nan
3.92722e-06	0	0	-nan
4.04827e-06	0	0	-nan
4.16346e-06	0	0	-nan
4.25681e-06	0	0	-nan
4.38872e-06	0	0	-nan
4.39019e-06	0	0	-nan
4.43315e-06	0	0	-nan
4.4749e-06	0	0	-nan
4.71333e-06	0	0	-nan
4.76472e-06	0	0	-nan
4.91206e-06	0	0	-nan
4.97631e-06	0	0	-nan
4.98083e-06	0	0	-nan
4.98399e-06	0	0	-nan
4.98819e-06	0	0	-nan
5.13038e-06	0	0	-nan
5.18774e-06	0	0	-nan
5.21112e-06	0	0	-nan
5.29229e-06	0	0	-nan
5.44161e-06	0	0	-nan
5.4684e-06	0	0	-nan
5.50593e-06	0	0	-nan
5.68247e-06	0	0	-nan
5.80152e-06	0	0	-nan
5.803e-06	0	0	-nan
5.91364e-06	0	0	-nan
6.22139e-06	0	0	-nan
6.26465e-06	0	0	-nan
6.47441e-06	0	0	-nan
6.58515e-06	0	0	-nan
6.60156e-06	0	0	-nan
6.80269e-06	0	0	-nan
6.90989e-06	0	0	-nan
7.04305e-06	0	0	-nan
7.17629e-06	0	0	-nan
7.24084e-06	0	0	-nan
7.30011e-06	0	0	-nan
7.38084e-06	0	0	-nan
7.47848e-06	0	0	-nan
7.50118e-06	0	0	-nan
7.556e-06	0	0	-nan
7.61194e-06	0	0	-nan
7.70856e-06	0	0	-nan
7.8962e-06	0	0	-nan
7.94713e-06	0	0	-nan
7.96147e-06	0	0	-nan
8.18888e-06	0	0	-nan
8.23893e-06	0	0	-nan
8.28784e-06	0	0	-nan
8.3783e-06	0	0	-nan
8.43674e-06	0	0	-nan
8.47467e-06	0	0	-nan
8.50027e-06	0	0	-nan
8.52485e-06	0	0	-nan
8.78762e-06	0	0	-nan
8.86647e-06	0	0	-nan
9.02603e-06	0	0	-nan
9.0506e-06	0	0	-nan
9.13225e-06	0	0	-nan
9.31167e-06	0	0	-nan
9.35955e-06	0	0	-nan
9.37969e-06	0	0	-nan
9.38469e-06	0	0	-nan
9.51274e-06	0	0	-nan
9.84918e-06	0	0	-nan
9.91924e-06	0	0	-nan
9.95112e-06	0	0	-nan
9.98107e-06	0	0	-nan
1.02364e-05	0	0	-nan
1.02778e-05	0	0	-nan
1.03909e-05	0	0	-nan
1.0401e-05	0	0	-nan
1.04277e-05	0	0	-nan
1.07478e-05	0	0	-nan
1.08937e-05	0	0	-nan
1.0932e-05	0	0	-nan
1.09516e-05	0	0	-nan
1.09862e-05	0	0	-nan
1.10107e-05	0	0	-nan
1.14097e-05	0	0	-nan
1.14446e-05	0	0	-nan
1.16765e-05	0	0	-nan
1.16802e-05	0	0	-nan
1.18e-05	0	0	-nan
1.18375e-05	0	0	-nan
1.18841e-05	0	0	-nan
1.21774e-05	0	0	-nan
1.22204e-05	0	0	-nan
1.22329e-05	0	0	-nan
1.22683e-05	0	0	-nan
1.23e-05	0	0	-nan
1.24658e-05	0	0	-nan
1.25463e-05	0	0	-nan
1.27472e-05	0	0	-nan
1.27585e-05	0	0	-nan
1.28367e-05	0	0	-nan
1.28857e-05	0	0	-nan
1.30916e-05	0	0	-nan
1.30977e-05	0	0	-nan
1.32154e-05	0	0	-nan
1.32278e-05	0	0	-nan
1.34468e-05	0	0	-nan
1.35267e-05	0	0	-nan
1.35413e-05	0	0	-nan
1.36515e-05	0	0	-nan
1.37095e-05	0	0	-nan
1.37219e-05	0	0	-nan
1.37575e-05	0	0	-nan
1.38119e-05	0	0	-nan
1.40533e-05	0	0	-nan
1.40696e-05	0	0	-nan
1.41447e-05	0	0	-nan
1.41516e-05	0	0	-nan
1.4228e-05	0	0	-nan
1.42774e-05	0	0	-nan
1.45811e-05	0	0	-nan
1.459e-05	0	0	-nan
1.46543e-05	0	0	-nan
1.46985e-05	0	0	-nan
1.47741e-05	0	0	-nan
1.48342e-05	0	0	-nan
1.48701e-05	0	0	-nan
1.48738e-05	0	0	-nan
1.50138e-05	0	0	-nan
1.51284e-05	0	0	-nan
1.51923e-05	0	0	-nan
1.52418e-05	0	0	-nan
1.54723e-05	0	0	-nan
1.55508e-05	0	0	-nan
1.56104e-05	0	0	-nan
1.56393e-05	0	0	-nan
1.56695e-05	0	0	-nan
1.56935e-05	0	0	-nan
1.57025e-05	0	0	-nan
1.61391e-05	0	0	-nan
1.62813e-05	0	0	-nan
1.63062e-05	0	0	-nan
1.64131e-05	0	0	-nan
1.64351e-05	0	0	-nan
1.65661e-05	0	0	-nan
1.65688e-05	0	0	-nan
1.66056e-05	0	0	-nan
1.67235e-05	0	0	-nan
1.67578e-05	0	0	-nan
1.67635e-05	0	0	-nan
1.69038e-05	0	0	-nan
1.69602e-05	0	0	-nan
1.70702e-05	0	0	-nan
1.71238e-05	0	0	-nan
1.71858e-05	0	0	-nan
1.75386e-05	0	0	-nan
1.75575e-05	0	0	-nan
1.77228e-05	0	0	-nan
1.7815e-05	0	0	-nan
1.78953e-05	0	0	-nan
1.79747e-05	0	0	-nan
1.79754e-05	0	0	-nan
1.80178e-05	0	0	-nan
1.84303e-05	0	0	-nan
1.8536e-05	0	0	-nan
1.85726e-05	0	0	-nan
1.86228e-05	0	0	-nan
1.89856e-05	0	0	-nan
1.92981e-05	0	0	-nan
1.93272e-05	0	0	-nan
1.95647e-05	0	0	-nan
1.9633e-05	0	0	-nan
2.01345e-05	0	0	-nan
2.01697e-05	0	0	-nan
2.0431e-05	0	0	-nan
2.046e-05	0	0	-nan
2.05323e-05	0	0	-nan
2.07106e-05	0	0	-nan
2.07545e-05	0	0	-nan
2.07602e-05	0	0	-nan
2.08003e-05	0	0	-nan
2.09802e-05	0	0	-nan
2.14041e-05	0	0	-nan
2.15993e-05	0	0	-nan
2.16085e-05	0	0	-nan
2.16416e-05	0	0	-nan
2.16793e-05	0	0	-nan
2.1727e-05	0	0	-nan
2.17526e-05	0	0	-nan
2.1782e-05	0	0	-nan
2.20392e-05	0	0	-nan
2.22268e-05	0	0	-nan
2.23748e-05	0	0	-nan
2.24255e-05	0	0	-nan
2.24441e-05	0	0	-nan
2.24709e-05	0	0	-nan
2.25051e-05	0	0	-nan
2.27741e-05	0	0	-nan
2.29185e-05	0	0	-nan
2.30916e-05	0	0	-nan
2.3132e-05	0	0	-nan
2.32006e-05	0	0	-nan
2.349e-05	0	0	-nan
2.35082e-05	0	0	-nan
2.35391e-05	0	0	-nan
2.38292e-05	0	0	-nan
2.3862e-05	0	0	-nan
2.38758e-05	0	0	-nan
2.39239e-05	0	0	-nan
2.40733e-05	0	0	-nan
2.41043e-05	0	0	-nan
2.41395e-05	0	0	-nan
2.43082e-05	0	0	-nan
2.45301e-05	0	0	-nan
2.48617e-05	0	0	-nan
2.48672e-05	0	0	-nan
2.49191e-05	0	0	-nan
2.50106e-05	0	0	-nan
2.5316e-05	0	0	-nan
2.53659e-05	0	0	-nan
2.54253e-05	0	0	-nan
2.55038e-05	0	0	-nan
2.56943e-05	0	0	-nan
2.5825e-05	0	0	-nan
2.58662e-05	0	0	-nan
2.62606e-05	0	0	-nan
2.62739e-05	0	0	-nan
2.65223e-05	0	0	-nan
2.67706e-05	0	0	-nan
2.68983e-05	0	0	-nan
2.69882e-05	0	0	-nan
2.75171e-05	0	0	-nan
2.76057e-05	0	0	-nan
2.76067e-05	0	0	-nan
2.76414e-05	0	0	-nan
2.76417e-05	0	0	-nan
2.76761e-05	0	0	-nan
2.76979e-05	0	0	-nan
2.79438e-05	0	0	-nan
2.79624e-05	0	0	-nan
2.81025e-05	0	0	-nan
2.8118e-05	0	0	-nan
2.81274e-05	0	0	-nan
2.84028e-05	0	0	-nan
2.8599e-05	0	0	-nan
2.87627e-05	0	0	-nan
2.87935e-05	0	0	-nan
2.8868e-05	0	0	-nan
2.89365e-05	0	0	-nan
2.90355e-05	0	0	-nan
2.92971e-05	0	0	-nan
2.94621e-05	0	0	-nan
2.95782e-05	0	0	-nan
2.98633e-05	0	0	-nan
2.99485e-05	0	0	-nan
2.99662e-05	0	0	-nan
2.99887e-05	0	0	-nan
3.04677e-05	0	0	-nan
3.05755e-05	0	0	-nan
3.06511e-05	0	0	-nan
3.06843e-05	0	0	-nan
3.08131e-05	0	0	-nan
3.10634e-05	0	0	-nan
3.15835e-05	0	0	-nan
3.17646e-05	0	0	-nan
3.18609e-05	0	0	-nan
3.19684e-05	0	0	-nan
3.23066e-05	0	0	-nan
3.25066e-05	0	0	-nan
3.25312e-05	0	0	-nan
3.2903e-05	0	0	-nan
3.29423e-05	0	0	-nan
3.30984e-05	0	0	-nan
3.34077e-05	0	0	-nan
3.34462e-05	0	0	-nan
3.34883e-05	0	0	-nan
3.35542e-05	0	0	-nan
3.35886e-05	0	0	-nan
3.36952e-05	0	0	-nan
3.38302e-05	0	0	-nan
3.38772e-05	0	0	-nan
3.39623e-05	0	0	-nan
3.41465e-05	0	0	-nan
3.42145e-05	0	0	-nan
3.44342e-05	0	0	-nan
3.45662e-05	0	0	-nan
3.49233e-05	0	0	-nan
3.53068e-05	0	0	-nan
3.56123e-05	0	0	-nan
3.56764e-05	0	0	-nan
3.5691e-05	0	0	-nan
3.62958e-05	0	0	-nan
3.64648e-05	0	0	-nan
3.64737e-05	0	0	-nan
3.65177e-05	0	0	-nan
3.65273e-05	0	0	-nan
3.65319e-05	0	0	-nan
3.65391e-05	0	0	-nan
3.6568e-05	0	0	-nan
3.67176e-05	0	0	-nan
3.71218e-05	0	0	-nan
3.74385e-05	0	0	-nan
3.74748e-05	0	0	-nan
3.75123e-05	0	0	-nan
3.7726e-05	0	0	-nan
3.82555e-05	0	0	-nan
3.84828e-05	0	0	-nan
3.86413e-05	0	0	-nan
3.86953e-05	0	0	-nan
3.87413e-05	0	0	-nan
3.88363e-05	0	0	-nan
3.90423e-05	0	0	-nan
3.90504e-05	0	0	-nan
3.93095e-05	0	0	-nan
3.93934e-05	0	0	-nan
3.94368e-05	0	0	-nan
3.95248e-05	0	0	-nan
3.99302e-05	0	0	-nan
3.99652e-05	0	0	-nan
4.0064e-05	0	0	-nan
4.0607e-05	0	0	-nan
4.06338e-05	0	0	-nan
4.06618e-05	0	0	-nan
4.07279e-05	0	0	-nan
4.10933e-05	0	0	-nan
4.13792e-05	0	0	-nan
4.17369e-05	0	0	-nan
4.19693e-05	0	0	-nan
4.23094e-05	0	0	-nan
4.23934e-05	0	0	-nan
4.27259e-05	0	0	-nan
4.28305e-05	0	0	-nan
4.29112e-05	0	0	-nan
4.29771e-05	0	0	-nan
4.3029e-05	0	0	-nan
4.32111e-05	0	0	-nan
4.32125e-05	0	0	-nan
4.32251e-05	0	0	-nan
4.34794e-05	0	0	-nan
4.3488e-05	0	0	-nan
4.35656e-05	0	0	-nan
4.35656e-05	0	0	-nan
4.35822e-05	0	0	-nan
4.35981e-05	0	0	-nan
4.36798e-05	0	0	-nan
4.37739e-05	0	0	-nan
4.40147e-05	0	0	-nan
4.40363e-05	0	0	-nan
4.40817e-05	0	0	-nan
4.43264e-05	0	0	-nan
4.44822e-05	0	0	-nan
4.45821e-05	0	0	-nan
4.47045e-05	0	0	-nan
4.47997e-05	0	0	-nan
4.48566e-05	0	0	-nan
4.49184e-05	0	0	-nan
4.51729e-05	0	0	-nan
4.54542e-05	0	0	-nan
4.55859e-05	0	0	-nan
4.56167e-05	0	0	-nan
4.66461e-05	0	0	-nan
4.67142e-05	0	0	-nan
4.6854e-05	0	0	-nan
4.69182e-05	0	0	-nan
4.70774e-05	0	0	-nan
4.71494e-05	0	0	-nan
4.71806e-05	0	0	-nan
4.72276e-05	0	0	-nan
4.72477e-05	0	0	-nan
4.73073e-05	0	0	-nan
4.76817e-05	0	0	-nan
4.77056e-05	0	0	-nan
4.7836e-05	0	0	-nan
4.78563e-05	0	0	-nan
4.80436e-05	0	0	-nan
4.81282e-05	0	0	-nan
4.85204e-05	0	0	-nan
4.86818e-05	0	0	-nan
4.87116e-05	0	0	-nan
4.87544e-05	0	0	-nan
4.88134e-05	0	0	-nan
4.88776e-05	0	0	-nan
4.8911e-05	0	0	-nan
4.90612e-05	0	0	-nan
4.90779e-05	0	0	-nan
4.96816e-05	0	0	-nan
4.977e-05	0	0	-nan
4.98553e-05	0	0	-nan
4.98762e-05	0	0	-nan
4.99e-05	0	0	-nan
5.00511e-05	0	0	-nan
5.01401e-05	0	0	-nan
5.01804e-05	0	0	-nan
5.03797e-05	0	0	-nan
5.07274e-05	0	0	-nan
5.11519e-05	0	0	-nan
5.12481e-05	0	0	-nan
5.16906e-05	0	0	-nan
5.18602e-05	0	0	-nan
5.18837e-05	0	0	-nan
5.19875e-05	0	0	-nan
5.21651e-05	0	0	-nan
5.23748e-05	0	0	-nan
5.2428e-05	0	0	-nan
5.25099e-05	0	0	-nan
5.25882e-05	0	0	-nan
5.2622e-05	0	0	-nan
5.27732e-05	0	0	-nan
5.30502e-05	0	0	-nan
5.31345e-05	0	0	-nan
5.34983e-05	0	0	-nan
5.3552e-05	0	0	-nan
5.41947e-05	0	0	-nan
5.46097e-05	0	0	-nan
5.47175e-05	0	0	-nan
5.48168e-05	0	0	-nan
5.48548e-05	0	0	-nan
5.49398e-05	0	0	-nan
5.50201e-05	0	0	-nan
5.50415e-05	0	0	-nan
5.52593e-05	0	0	-nan
5.53188e-05	0	0	-nan
5.53242e-05	0	0	-nan
5.53879e-05	0	0	-nan
5.54663e-05	0	0	-nan
5.56277e-05	0	0	-nan
5.58369e-05	0	0	-nan
5.60454e-05	0	0	-nan
5.63554e-05	0	0	-nan
5.63979e-05	0	0	-nan
5.65311e-05	0	0	-nan
5.71999e-05	0	0	-nan
5.72904e-05	0	0	-nan
5.74299e-05	0	0	-nan
5.75371e-05	0	0	-nan
5.75532e-05	0	0	-nan
5.77176e-05	0	0	-nan
5.7781e-05	0	0	-nan
5.7941e-05	0	0	-nan
5.80886e-05	0	0	-nan
5.82644e-05	0	0	-nan
5.83096e-05	0	0	-nan
5.84681e-05	0	0	-nan
5.88364e-05	0	0	-nan
5.88854e-05	0	0	-nan
5.90803e-05	0	0	-nan
5.9285e-05	0	0	-nan
5.93921e-05	0	0	-nan
5.93988e-05	0	0	-nan
5.96825e-05	0	0	-nan
5.97822e-05	0	0	-nan
6.00796e-05	0	0	-nan
6.07457e-05	0	0	-nan
6.09641e-05	0	0	-nan
6.1248e-05	0	0	-nan
6.12701e-05	0	0	-nan
6.15023e-05	0	0	-nan
6.16115e-05	0	0	-nan
6.17801e-05	0	0	-nan
6.19353e-05	0	0	-nan
6.26462e-05	0	0	-nan
6.26739e-05	0	0	-nan
6.27713e-05	0	0	-nan
6.29763e-05	0	0	-nan
6.31976e-05	0	0	-nan
6.36255e-05	0	0	-nan
6.38046e-05	0	0	-nan
6.38127e-05	0	0	-nan
6.38231e-05	0	0	-nan
6.38382e-05	0	0	-nan
6.40349e-05	0	0	-nan
6.40587e-05	0	0	-nan
6.40633e-05	0	0	-nan
6.41457e-05	0	0	-nan
6.45885e-05	0	0	-nan
6.52219e-05	0	0	-nan
6.58668e-05	0	0	-nan
6.59251e-05	0	0	-nan
6.62799e-05	0	0	-nan
6.63881e-05	0	0	-nan
6.66398e-05	0	0	-nan
6.67348e-05	0	0	-nan
6.72167e-05	0	0	-nan
6.73929e-05	0	0	-nan
6.74648e-05	0	0	-nan
6.75961e-05	0	0	-nan
6.81206e-05	0	0	-nan
6.82866e-05	0	0	-nan
6.86342e-05	0	0	-nan
6.86546e-05	0	0	-nan
6.87819e-05	0	0	-nan
6.88509e-05	0	0	-nan
6.9105e-05	0	0	-nan
6.9145e-05	0	0	-nan
6.95029e-05	0	0	-nan
6.95228e-05	0	0	-nan
6.97166e-05	0	0	-nan
6.97505e-05	0	0	-nan
6.97924e-05	0	0	-nan
6.98127e-05	0	0	-nan
6.99719e-05	0	0	-nan
7.00015e-05	0	0	-nan
7.00262e-05	0	0	-nan
7.04153e-05	0	0	-nan
7.04589e-05	0	0	-nan
7.07801e-05	0	0	-nan
7.13472e-05	0	0	-nan
7.15157e-05	0	0	-nan
7.17191e-05	0	0	-nan
7.17233e-05	0	0	-nan
7.20543e-05	0	0	-nan
7.25788e-05	0	0	-nan
7.26622e-05	0	0	-nan
7.28312e-05	0	0	-nan
7.30198e-05	0	0	-nan
7.37025e-05	0	0	-nan
7.39296e-05	0	0	-nan
7.40597e-05	0	0	-nan
7.41032e-05	0	0	-nan
7.41695e-05	0	0	-nan
7.43834e-05	0	0	-nan
7.44327e-05	0	0	-nan
7.45939e-05	0	0	-nan
7.46158e-05	0	0	-nan
7.47023e-05	0	0	-nan
7.49202e-05	0	0	-nan
7.50738e-05	0	0	-nan
7.51302e-05	0	0	-nan
7.52137e-05	0	0	-nan
7.55246e-05	0	0	-nan
7.58568e-05	0	0	-nan
7.60324e-05	0	0	-nan
7.60525e-05	0	0	-nan
7.64188e-05	0	0	-nan
7.6584e-05	0	0	-nan
7.68412e-05	0	0	-nan
7.69079e-05	0	0	-nan
7.71409e-05	0	0	-nan
7.7337e-05	0	0	-nan
7.7448e-05	0	0	-nan
7.75446e-05	0	0	-nan
7.7595e-05	0	0	-nan
7.76912e-05	0	0	-nan
7.85447e-05	0	0	-nan
7.90187e-05	0	0	-nan
7.93937e-05	0	0	-nan
7.98009e-05	0	0	-nan
7.98442e-05	0	0	-nan
7.99762e-05	0	0	-nan
8.06505e-05	0	0	-nan
8.07739e-05	0	0	-nan
8.10066e-05	0	0	-nan
8.10688e-05	0	0	-nan
8.15255e-05	0	0	-nan
8.18079e-05	0	0	-nan
8.26298e-05	0	0	-nan
8.28353e-05	0	0	-nan
8.29371e-05	0	0	-nan
8.36217e-05	0	0	-nan
8.37534e-05	0	0	-nan
8.38665e-05	0	0	-nan
8.41261e-05	0	0	-nan
8.42458e-05	0	0	-nan
8.42992e-05	0	0	-nan
8.46808e-05	0	0	-nan
8.48377e-05	0	0	-nan
8.51489e-05	0	0	-nan
8.53219e-05	0	0	-nan
8.56017e-05	0	0	-nan
8.56379e-05	0	0	-nan
8.60576e-05	0	0	-nan
8.62226e-05	0	0	-nan
8.63341e-05	0	0	-nan
8.68225e-05	0	0	-nan
8.71557e-05	0	0	-nan
8.73727e-05	0	0	-nan
8.78369e-05	0	0	-nan
8.78378e-05	0	0	-nan
8.80878e-05	0	0	-nan
8.83921e-05	0	0	-nan
8.85112e-05	0	0	-nan
8.89764e-05	0	0	-nan
8.90338e-05	0	0	-nan
8.90932e-05	0	0	-nan
8.94529e-05	0	0	-nan
8.98306e-05	0	0	-nan
9.04472e-05	0	0	-nan
9.14164e-05	0	0	-nan
9.15883e-05	0	0	-nan
9.20346e-05	0	0	-nan
9.2705e-05	0	0	-nan
9.35056e-05	0	0	-nan
9.3626e-05	0	0	-nan
9.37052e-05	0	0	-nan
9.38807e-05	0	0	-nan
9.39768e-05	0	0	-nan
9.4402e-05	0	0	-nan
9.45592e-05	0	0	-nan
9.56552e-05	0	0	-nan
9.60581e-05	0	0	-nan
9.61565e-05	0	0	-nan
9.63045e-05	0	0	-nan
9.65753e-05	0	0	-nan
9.65962e-05	0	0	-nan
9.68712e-05	0	0	-nan
9.70809e-05	0	0	-nan
9.71913e-05	0	0	-nan
9.82113e-05	0	0	-nan
9.87402e-05	0	0	-nan
9.90307e-05	0	0	-nan
9.9286e-05	0	0	-nan
9.95136e-05	0	0	-nan
9.95944e-05	0	0	-nan
9.98974e-05	0	0	-nan
0.00010011	0	0	-nan
0.000100346	0	0	-nan
0.000101169	0	0	-nan
0.000101398	0	0	-nan
0.000101624	0	0	-nan
0.000102131	0	0	-nan
0.000102535	0	0	-nan
0.000102856	0	0	-nan
0.000103209	0	0	-nan
0.000103473	0	0	-nan
0.000104452	0	0	-nan
0.000105081	0	0	-nan
0.000105471	0	0	-nan
0.000105573	0	0	-nan
0.000105773	0	0	-nan
0.000106056	0	0	-nan
0.00010613	0	0	-nan
0.00010635	0	0	-nan
0.0001064	0	0	-nan
0.000106545	0	0	-nan
0.000106992	0	0	-nan
0.000107101	0	0	-nan
0.000107477	0	0	-nan
0.000107864	0	0	-nan
0.000107975	0	0	-nan
0.000108064	0	0	-nan
0.000108166	0	0	-nan
0.000108181	0	0	-nan
0.000108436	0	0	-nan
0.000108501	0	0	-nan
0.000109358	0	0	-nan
0.000110106	0	0	-nan
0.000110411	0	0	-nan
0.00011052	0	0	-nan
0.000110525	0	0	-nan
0.000110928	0	0	-nan
0.000111139	0	0	-nan
0.000111281	0	0	-nan
0.000111479	0	0	-nan
0.000112098	0	0	-nan
0.000112459	0	0	-nan
0.000112698	0	0	-nan
0.000112924	0	0	-nan
0.00011311	0	0	-nan
0.000114149	0	0	-nan
0.000114198	0	0	-nan
0.000114258	0	0	-nan
0.000114407	0	0	-nan
0.000114494	0	0	-nan
0.000114545	0	0	-nan
0.000114985	0	0	-nan
0.000115739	0	0	-nan
0.000115966	0	0	-nan
0.000116386	0	0	-nan
0.000116409	0	0	-nan
0.000116675	0	0	-nan
0.000117845	0	0	-nan
0.000118012	0	0	-nan
0.000118706	0	0	-nan
0.000119967	0	0	-nan
0.000120399	0	0	-nan
0.000120442	0	0	-nan
0.000120668	0	0	-nan
0.000120807	0	0	-nan
0.000120933	0	0	-nan
0.000121211	0	0	-nan
0.000121392	0	0	-nan
0.000121475	0	0	-nan
0.000121901	0	0	-nan
0.000122407	0	0	-nan
0.000123787	0	0	-nan
0.000123886	0	0	-nan
0.000123956	0	0	-nan
0.000125047	0	0	-nan
0.000125266	0	0	-nan
0.000125656	0	0	-nan
0.00012576	0	0	-nan
0.000126397	0	0	-nan
0.000126665	0	0	-nan
0.00012669	0	0	-nan
0.000128303	0	0	-nan
0.000128481	0	0	-nan
0.00012863	0	0	-nan
0.000128654	0	0	-nan
0.000128802	0	0	-nan
0.00012899	0	0	-nan
0.000129031	0	0	-nan
0.00012943	0	0	-nan
0.000129926	0	0	-nan
0.000130253	0	0	-nan
0.000131254	0	0	-nan
0.000131362	0	0	-nan
0.000131422	0	0	-nan
0.00013154	0	0	-nan
0.000131908	0	0	-nan
0.000132	0	0	-nan
0.000132255	0	0	-nan
0.000132395	0	0	-nan
0.000132482	0	0	-nan
0.000133013	0	0	-nan
0.000133207	0	0	-nan
0.00013399	0	0	-nan
0.000134074	0	0	-nan
0.000134696	0	0	-nan
0.000135775	0	0	-nan
0.000135823	0	0	-nan
0.000136787	0	0	-nan
0.000136946	0	0	-nan
0.00013764	0	0	-nan
0.000137923	0	0	-nan
0.00013885	0	0	-nan
0.0001393	0	0	-nan
0.000140146	0	0	-nan
0.000140846	0	0	-nan
0.000141142	0	0	-nan
0.00014127	0	0	-nan
0.000141573	0	0	-nan
0.000141921	0	0	-nan
0.000142097	0	0	-nan
0.000142543	0	0	-nan
0.000142947	0	0	-nan
0.00014358	0	0	-nan
0.000144003	0	0	-nan
0.000144031	0	0	-nan
0.000144073	0	0	-nan
0.000144412	0	0	-nan
0.000144797	0	0	-nan
0.000144804	0	0	-nan
0.000144905	0	0	-nan
0.000145606	0	0	-nan
0.000146145	0	0	-nan
0.000147765	0	0	-nan
0.000148472	0	0	-nan
0.000148568	0	0	-nan
0.00014887	0	0	-nan
0.000149818	0	0	-nan
0.000149964	0	0	-nan
0.000150051	0	0	-nan
0.000150273	0	0	-nan
0.000150439	0	0	-nan
0.000150754	0	0	-nan
0.000151553	0	0	-nan
0.000152181	0	0	-nan
0.000152428	0	0	-nan
0.000152878	0	0	-nan
0.000153279	0	0	-nan
0.000153419	0	0	-nan
0.000153969	0	0	-nan
0.000153974	0	0	-nan
0.000154091	0	0	-nan
0.000154475	0	0	-nan
0.000155318	0	0	-nan
0.000155513	0	0	-nan
0.000155909	0	0	-nan
0.000156179	0	0	-nan
0.000157293	0	0	-nan
0.000157822	0	0	-nan
0.000158026	0	0	-nan
0.000158185	0	0	-nan
0.000159431	0	0	-nan
0.00015981	0	0	-nan
0.000160238	0	0	-nan
0.000162424	0	0	-nan
0.000162726	0	0	-nan
0.000162799	0	0	-nan
0.000163858	0	0	-nan
0.000163972	0	0	-nan
0.00016457	0	0	-nan
0.000164805	0	0	-nan
0.000164905	0	0	-nan
0.00016499	0	0	-nan
0.000165789	0	0	-nan
0.000166628	0	0	-nan
0.000166668	0	0	-nan
0.000167092	0	0	-nan
0.000167691	0	0	-nan
0.00016798	0	0	-nan
0.000168138	0	0	-nan
0.000168603	0	0	-nan
0.000168771	0	0	-nan
0.000169696	0	0	-nan
0.000169728	0	0	-nan
0.000169732	0	0	-nan
0.000170661	0	0	-nan
0.000171011	0	0	-nan
0.00017132	0	0	-nan
0.000173063	0	0	-nan
0.00017369	0	0	-nan
0.000174977	0	0	-nan
0.000174986	0	0	-nan
0.000175186	0	0	-nan
0.000175216	0	0	-nan
0.000176199	0	0	-nan
0.000177755	0	0	-nan
0.00017812	0	0	-nan
0.000178955	0	0	-nan
0.000179976	0	0	-nan
0.000180047	0	0	-nan
0.00018031	0	0	-nan
0.000181147	0	0	-nan
0.0001812	0	0	-nan
0.000181457	0	0	-nan
0.000182265	0	0	-nan
0.000182586	0	0	-nan
0.000182998	0	0	-nan
0.000183449	0	0	-nan
0.000184162	0	0	-nan
0.000184742	0	0	-nan
0.000185163	0	0	-nan
0.00018526	0	0	-nan
0.000185364	0	0	-nan
0.000185379	0	0	-nan
0.000185516	0	0	-nan
0.000187049	0	0	-nan
0.000187076	0	0	-nan
0.000188355	0	0	-nan
0.000188781	0	0	-nan
0.000189325	0	0	-nan
0.000189386	0	0	-nan
0.000189526	0	0	-nan
0.000190485	0	0	-nan
0.000190585	0	0	-nan
0.00019086	0	0	-nan
0.000191069	0	0	-nan
0.000191258	0	0	-nan
0.000192522	0	0	-nan
0.000193619	0	0	-nan
0.000193673	0	0	-nan
0.000194259	0	0	-nan
0.000194353	0	0	-nan
0.000194389	0	0	-nan
0.000194431	0	0	-nan
0.000195077	0	0	-nan
0.000195498	0	0	-nan
0.000195978	0	0	-nan
0.000196227	0	0	-nan
0.000196357	0	0	-nan
0.000196754	0	0	-nan
0.000198404	0	0	-nan
0.000198552	0	0	-nan
0.000199315	0	0	-nan
0.00019947	0	0	-nan
0.000199918	0	0	-nan
0.000200069	0	0	-nan
0.000201991	0	0	-nan
0.000202016	0	0	-nan
0.000202053	0	0	-nan
0.000202404	0	0	-nan
0.000202423	0	0	-nan
0.000202938	0	0	-nan
0.000204421	0	0	-nan
0.000204911	0	0	-nan
0.000205277	0	0	-nan
0.000205507	0	0	-nan
0.000206103	0	0	-nan
0.000206116	0	0	-nan
0.000206714	0	0	-nan
0.000206753	0	0	-nan
0.000207144	0	0	-nan
0.000207889	0	0	-nan
0.000208823	0	0	-nan
0.000208947	0	0	-nan
0.000209507	0	0	-nan
0.000209573	0	0	-nan
0.000209943	0	0	-nan
0.000210095	0	0	-nan
0.000211375	0	0	-nan
0.000212037	0	0	-nan
0.000212373	0	0	-nan
0.000214437	0	0	-nan
0.00021516	0	0	-nan
0.000215169	0	0	-nan
0.000216019	0	0	-nan
0.000216689	0	0	-nan
0.000217303	0	0	-nan
0.000217458	0	0	-nan
0.000217521	0	0	-nan
0.000217755	0	0	-nan
0.000218841	0	0	-nan
0.000219159	0	0	-nan
0.000219225	0	0	-nan
0.000220354	0	0	-nan
0.00022067	0	0	-nan
0.000220702	0	0	-nan
0.000221309	0	0	-nan
0.000221314	0	0	-nan
0.000221795	0	0	-nan
0.000221916	0	0	-nan
0.000222747	0	0	-nan
0.00022294	0	0	-nan
0.000222991	0	0	-nan
0.000224129	0	0	-nan
0.000224596	0	0	-nan
0.000224663	0	0	-nan
0.000225583	0	0	-nan
0.000225632	0	0	-nan
0.000226366	0	0	-nan
0.000226665	0	0	-nan
0.000228302	0	0	-nan
0.00022882	0	0	-nan
0.000229292	0	0	-nan
0.000230421	0	0	-nan
0.000231082	0	0	-nan
0.000231447	0	0	-nan
0.000231649	0	0	-nan
0.000231944	0	0	-nan
0.000233007	0	0	-nan
0.000233196	0	0	-nan
0.000234626	0	0	-nan
0.000234669	0	0	-nan
0.000234842	0	0	-nan
0.000235124	0	0	-nan
0.000235415	0	0	-nan
0.000235691	0	0	-nan
0.000235957	0	0	-nan
0.000237091	0	0	-nan
0.000237983	0	0	-nan
0.000238705	0	0	-nan
0.00024021	0	0	-nan
0.000241445	0	0	-nan
0.000241609	0	0	-nan
0.000242002	0	0	-nan
0.000242427	0	0	-nan
0.000242636	0	0	-nan
0.000243049	0	0	-nan
0.000243207	0	0	-nan
0.000243696	0	0	-nan
0.000244808	0	0	-nan
0.000246335	0	0	-nan
0.000247252	0	0	-nan
0.000248776	0	0	-nan
0.000250392	0	0	-nan
0.000250482	0	0	-nan
0.000251	0	0	-nan
0.000251971	0	0	-nan
0.000252058	0	0	-nan
0.000253312	0	0	-nan
0.000253618	0	0	-nan
0.000254299	0	0	-nan
0.000254685	0	0	-nan
0.000254834	0	0	-nan
0.000254879	0	0	-nan
0.000255954	0	0	-nan
0.000257791	0	0	-nan
0.00025782	0	0	-nan
0.000258328	0	0	-nan
0.000259662	0	0	-nan
0.000260395	0	0	-nan
0.000260697	0	0	-nan
0.000261299	0	0	-nan
0.00026504	0	0	-nan
0.000266394	0	0	-nan
0.000266861	0	0	-nan
0.00026797	0	0	-nan
0.000268207	0	0	-nan
0.000268821	0	0	-nan
0.00026998	0	0	-nan
0.000270027	0	0	-nan
0.000271045	0	0	-nan
0.000276727	0	0	-nan
0.000277018	0	0	-nan
0.000277023	0	0	-nan
0.000277555	0	0	-nan
0.000278487	0	0	-nan
0.000279615	0	0	-nan
0.000280124	0	0	-nan
0.000280617	0	0	-nan
0.000282347	0	0	-nan
0.000282376	0	0	-nan
0.000283232	0	0	-nan
0.000283963	0	0	-nan
0.000288763	0	0	-nan
0.000289207	0	0	-nan
0.00029186	0	0	-nan
0.000292275	0	0	-nan
0.000292998	0	0	-nan
0.000293697	0	0	-nan
0.00029486	0	0	-nan
0.000295118	0	0	-nan
0.000295486	0	0	-nan
0.000295617	0	0	-nan
0.000295682	0	0	-nan
0.000295789	0	0	-nan
0.000296155	0	0	-nan
0.000298099	0	0	-nan
0.000298258	0	0	-nan
0.000298289	0	0	-nan
0.000298834	0	0	-nan
0.000299266	0	0	-nan
0.000301081	0	0	-nan
0.000301319	0	0	-nan
0.000301331	0	0	-nan
0.000302074	0	0	-nan
0.000303138	0	0	-nan
0.000304842	0	0	-nan
0.000305044	0	0	-nan
0.000306446	0	0	-nan
0.000306648	0	0	-nan
0.000307429	0	0	-nan
0.000312443	0	0	-nan
0.000312671	0	0	-nan
0.000313035	0	0	-nan
0.000313892	0	0	-nan
0.000316718	0	0	-nan
0.000317597	0	0	-nan
0.000318791	0	0	-nan
0.00031917	0	0	-nan
0.000319673	0	0	-nan
0.000320187	0	0	-nan
0.000320539	0	0	-nan
0.000325437	0	0	-nan
0.000326871	0	0	-nan
0.000329095	0	0	-nan
0.000330385	0	0	-nan
0.000332156	0	0	-nan
0.00033243	0	0	-nan
0.000335177	0	0	-nan
0.0003353	0	0	-nan
0.000335528	0	0	-nan
0.000336397	0	0	-nan
0.000337089	0	0	-nan
0.000337746	0	0	-nan
0.000338529	0	0	-nan
0.000338728	0	0	-nan
0.000339326	0	0	-nan
0.000339723	0	0	-nan
0.000341613	0	0	-nan
0.000342072	0	0	-nan
0.000343295	0	0	-nan
0.00034522	0	0	-nan
0.000346215	0	0	-nan
0.000347282	0	0	-nan
0.000350813	0	0	-nan
0.0003511	0	0	-nan
0.000352129	0	0	-nan
0.000352612	0	0	-nan
0.000353022	0	0	-nan
0.000353465	0	0	-nan
0.00035559	0	0	-nan
0.000355896	0	0	-nan
0.000356272	0	0	-nan
0.000356741	0	0	-nan
0.000357588	0	0	-nan
0.000359447	0	0	-nan
0.00035949	0	0	-nan
0.000360582	0	0	-nan
0.000364833	0	0	-nan
0.00036632	0	0	-nan
0.000368246	0	0	-nan
0.000368761	0	0	-nan
0.000368889	0	0	-nan
0.000369715	0	0	-nan
0.000370432	0	0	-nan
0.000374695	0	0	-nan
0.000377937	0	0	-nan
0.000378169	0	0	-nan
0.000378408	0	0	-nan
0.000379063	0	0	-nan
0.000379705	0	0	-nan
0.000380458	0	0	-nan
0.000381229	0	0	-nan
0.000381297	0	0	-nan
0.000382092	0	0	-nan
0.000382829	0	0	-nan
0.000383249	0	0	-nan
0.000384294	0	0	-nan
0.000384795	0	0	-nan
0.000388308	0	0	-nan
0.000389611	0	0	-nan
0.000389621	0	0	-nan
0.000390949	0	0	-nan
0.000391339	0	0	-nan
0.000395088	0	0	-nan
0.000396645	0	0	-nan
0.00039709	0	0	-nan
0.00039761	0	0	-nan
0.000397813	0	0	-nan
0.000398695	0	0	-nan
0.000400527	0	0	-nan
0.0004015	0	0	-nan
0.000405595	0	0	-nan
0.000406277	0	0	-nan
0.000406294	0	0	-nan
0.000406327	0	0	-nan
0.000408395	0	0	-nan
0.000408864	0	0	-nan
0.000409813	0	0	-nan
0.000413216	0	0	-nan
0.000416997	0	0	-nan
0.000417105	0	0	-nan
0.000419311	0	0	-nan
0.00042288	0	0	-nan
0.000422953	0	0	-nan
0.000426498	0	0	-nan
0.000429194	0	0	-nan
0.000430844	0	0	-nan
0.000431893	0	0	-nan
0.000433188	0	0	-nan
0.000433749	0	0	-nan
0.000437362	0	0	-nan
0.000438414	0	0	-nan
0.000439328	0	0	-nan
0.000440924	0	0	-nan
0.000441152	0	0	-nan
0.000442467	0	0	-nan
0.000442768	0	0	-nan
0.000443258	0	0	-nan
0.000446171	0	0	-nan
0.000448371	0	0	-nan
0.000450338	0	0	-nan
0.000455069	0	0	-nan
0.00045704	0	0	-nan
0.000457673	0	0	-nan
0.000460169	0	0	-nan
0.000465371	0	0	-nan
0.000466191	0	0	-nan
0.000466417	0	0	-nan
0.000468213	0	0	-nan
0.000473936	0	0	-nan
0.000475196	0	0	-nan
0.000476031	0	0	-nan
0.000476705	0	0	-nan
0.000477064	0	0	-nan
0.000482304	0	0	-nan
0.000482726	0	0	-nan
0.000483046	0	0	-nan
0.000484524	0	0	-nan
0.000484717	0	0	-nan
0.000488054	0	0	-nan
0.000488181	0	0	-nan
0.000489176	0	0	-nan
0.000495333	0	0	-nan
0.000498116	0	0	-nan
0.000501458	0	0	-nan
0.000503553	0	0	-nan
0.000510947	0	0	-nan
0.000512845	0	0	-nan
0.00051647	0	0	-nan
0.000517226	0	0	-nan
0.000525876	0	0	-nan
0.000527962	0	0	-nan
0.000529004	0	0	-nan
0.000529098	0	0	-nan
0.000529872	0	0	-nan
0.000530826	0	0	-nan
0.000533536	0	0	-nan
0.000536082	0	0	-nan
0.000536114	0	0	-nan
0.000540015	0	0	-nan
0.000556074	0	0	-nan
0.000561516	0	0	-nan
0.000567353	0	0	-nan
0.000572384	0	0	-nan
0.000575933	0	0	-nan
0.000576931	0	0	-nan
0.000581101	0	0	-nan
0.000581911	0	0	-nan
0.000588744	0	0	-nan
0.000588976	0	0	-nan
0.000594387	0	0	-nan
0.000595793	0	0	-nan
0.000597134	0	0	-nan
0.000598862	0	0	-nan
0.000602212	0	0	-nan
0.000606644	0	0	-nan
0.000607359	0	0	-nan
0.000608556	0	0	-nan
0.000611487	0	0	-nan
0.000627592	0	0	-nan
0.000627868	0	0	-nan
0.000633096	0	0	-nan
0.000634096	0	0	-nan
0.000640087	0	0	-nan
0.000640467	0	0	-nan
0.000649727	0	0	-nan
0.000653483	0	0	-nan
0.000659681	0	0	-nan
0.00068215	0	0	-nan
0.000682784	0	0	-nan
0.000707392	0	0	-nan
0.000710378	0	0	-nan
0.000713287	0	0	-nan
0.000716359	0	0	-nan
0.000718279	0	0	-nan
0.00072321	0	0	-nan
0.000729001	0	0	-nan
0.000730768	0	0	-nan
0.000745094	0	0	-nan
0.000745465	0	0	-nan
0.000746086	0	0	-nan
0.000746173	0	0	-nan
0.000746298	0	0	-nan
0.000756374	0	0	-nan
0.000760054	0	0	-nan
0.000797987	0	0	-nan
0.000811832	0	0	-nan
0.000829825	0	0	-nan
0.000830465	0	0	-nan
0.000835312	0	0	-nan
0.000853724	0	0	-nan
0.000857406	0	0	-nan
0.000910368	0	0	-nan
0.000916541	0	0	-nan
0.000923844	0	0	-nan
0.000924219	0	0	-nan
0.000943172	0	0	-nan
0.000968896	0	0	-nan
0.000995459	0	0	-nan
0.00101716	0	0	-nan
0.00107574	0	0	-nan
0.001174	0	0	-nan
0.00125325	0	0	-nan
