1.05273e-08	0	0	-nan
3.74966e-07	0	0	-nan
4.08461e-07	0	0	-nan
4.46235e-07	0	0	-nan
4.80614e-07	0	0	-nan
4.97523e-07	0	0	-nan
6.94072e-07	0	0	-nan
7.07113e-07	0	0	-nan
7.08744e-07	0	0	-nan
7.43337e-07	0	0	-nan
7.82789e-07	0	0	-nan
8.63485e-07	0	0	-nan
9.34572e-07	0	0	-nan
9.8773e-07	0	0	-nan
1.00833e-06	0	0	-nan
1.10874e-06	0	0	-nan
1.14119e-06	0	0	-nan
1.30445e-06	0	0	-nan
1.30787e-06	0	0	-nan
1.33998e-06	0	0	-nan
1.4306e-06	0	0	-nan
1.46694e-06	0	0	-nan
1.67468e-06	0	0	-nan
1.68194e-06	0	0	-nan
1.7489e-06	0	0	-nan
1.88813e-06	0	0	-nan
1.95555e-06	0	0	-nan
2.09777e-06	0	0	-nan
2.11925e-06	0	0	-nan
2.16949e-06	0	0	-nan
2.23815e-06	0	0	-nan
2.25925e-06	0	0	-nan
2.29693e-06	0	0	-nan
2.3227e-06	0	0	-nan
2.37739e-06	0	0	-nan
2.44351e-06	0	0	-nan
2.45791e-06	0	0	-nan
2.53344e-06	0	0	-nan
2.56669e-06	0	0	-nan
2.58557e-06	0	0	-nan
2.68033e-06	0	0	-nan
2.68604e-06	0	0	-nan
2.74e-06	0	0	-nan
2.8557e-06	0	0	-nan
3.05371e-06	0	0	-nan
3.06927e-06	0	0	-nan
3.11673e-06	0	0	-nan
3.19575e-06	0	0	-nan
3.22063e-06	0	0	-nan
3.32334e-06	0	0	-nan
3.34735e-06	0	0	-nan
3.38686e-06	0	0	-nan
3.53269e-06	0	0	-nan
3.7684e-06	0	0	-nan
3.89449e-06	0	0	-nan
3.90973e-06	0	0	-nan
4.00335e-06	0	0	-nan
4.14966e-06	0	0	-nan
4.20035e-06	0	0	-nan
4.20457e-06	0	0	-nan
4.24811e-06	0	0	-nan
4.31807e-06	0	0	-nan
4.44676e-06	0	0	-nan
4.69902e-06	0	0	-nan
4.70637e-06	0	0	-nan
4.72319e-06	0	0	-nan
4.85692e-06	0	0	-nan
4.94801e-06	0	0	-nan
5.00993e-06	0	0	-nan
5.0326e-06	0	0	-nan
5.05938e-06	0	0	-nan
5.05985e-06	0	0	-nan
5.09772e-06	0	0	-nan
5.11929e-06	0	0	-nan
5.17508e-06	0	0	-nan
5.23118e-06	0	0	-nan
5.25245e-06	0	0	-nan
5.27443e-06	0	0	-nan
5.36548e-06	0	0	-nan
5.4153e-06	0	0	-nan
5.4307e-06	0	0	-nan
5.58909e-06	0	0	-nan
5.58959e-06	0	0	-nan
5.61201e-06	0	0	-nan
5.72009e-06	0	0	-nan
5.81116e-06	0	0	-nan
5.84849e-06	0	0	-nan
5.87796e-06	0	0	-nan
5.98316e-06	0	0	-nan
6.14981e-06	0	0	-nan
6.19345e-06	0	0	-nan
6.20191e-06	0	0	-nan
6.27145e-06	0	0	-nan
6.52673e-06	0	0	-nan
6.53987e-06	0	0	-nan
6.54457e-06	0	0	-nan
6.55518e-06	0	0	-nan
6.56232e-06	0	0	-nan
6.60899e-06	0	0	-nan
6.6232e-06	0	0	-nan
6.70821e-06	0	0	-nan
6.79659e-06	0	0	-nan
6.84142e-06	0	0	-nan
6.86591e-06	0	0	-nan
6.88647e-06	0	0	-nan
6.99833e-06	0	0	-nan
7.00835e-06	0	0	-nan
7.08085e-06	0	0	-nan
7.10999e-06	0	0	-nan
7.11104e-06	0	0	-nan
7.1342e-06	0	0	-nan
7.27013e-06	0	0	-nan
7.31396e-06	0	0	-nan
7.3583e-06	0	0	-nan
7.36177e-06	0	0	-nan
7.40814e-06	0	0	-nan
7.41617e-06	0	0	-nan
7.47415e-06	0	0	-nan
7.52053e-06	0	0	-nan
7.52962e-06	0	0	-nan
7.60246e-06	0	0	-nan
7.60354e-06	0	0	-nan
7.6842e-06	0	0	-nan
7.75334e-06	0	0	-nan
7.78023e-06	0	0	-nan
7.81905e-06	0	0	-nan
7.8297e-06	0	0	-nan
7.87399e-06	0	0	-nan
7.88928e-06	0	0	-nan
8.05158e-06	0	0	-nan
8.10379e-06	0	0	-nan
8.16831e-06	0	0	-nan
8.25952e-06	0	0	-nan
8.33109e-06	0	0	-nan
8.3541e-06	0	0	-nan
8.39537e-06	0	0	-nan
8.6242e-06	0	0	-nan
8.73366e-06	0	0	-nan
8.75296e-06	0	0	-nan
8.75563e-06	0	0	-nan
9.04302e-06	0	0	-nan
9.06002e-06	0	0	-nan
9.16088e-06	0	0	-nan
9.22463e-06	0	0	-nan
9.30133e-06	0	0	-nan
9.48345e-06	0	0	-nan
9.60994e-06	0	0	-nan
9.84016e-06	0	0	-nan
1.0003e-05	0	0	-nan
1.00215e-05	0	0	-nan
1.00694e-05	0	0	-nan
1.01569e-05	0	0	-nan
1.0193e-05	0	0	-nan
1.02182e-05	0	0	-nan
1.02198e-05	0	0	-nan
1.02258e-05	0	0	-nan
1.04959e-05	0	0	-nan
1.05264e-05	0	0	-nan
1.05481e-05	0	0	-nan
1.06822e-05	0	0	-nan
1.07608e-05	0	0	-nan
1.08795e-05	0	0	-nan
1.08962e-05	0	0	-nan
1.09099e-05	0	0	-nan
1.0985e-05	0	0	-nan
1.1076e-05	0	0	-nan
1.11385e-05	0	0	-nan
1.1248e-05	0	0	-nan
1.12804e-05	0	0	-nan
1.13447e-05	0	0	-nan
1.14771e-05	0	0	-nan
1.1764e-05	0	0	-nan
1.1818e-05	0	0	-nan
1.18502e-05	0	0	-nan
1.18821e-05	0	0	-nan
1.19068e-05	0	0	-nan
1.19112e-05	0	0	-nan
1.19123e-05	0	0	-nan
1.19686e-05	0	0	-nan
1.1973e-05	0	0	-nan
1.21072e-05	0	0	-nan
1.21272e-05	0	0	-nan
1.22219e-05	0	0	-nan
1.23452e-05	0	0	-nan
1.24425e-05	0	0	-nan
1.24486e-05	0	0	-nan
1.25027e-05	0	0	-nan
1.26473e-05	0	0	-nan
1.26493e-05	0	0	-nan
1.2744e-05	0	0	-nan
1.28969e-05	0	0	-nan
1.30925e-05	0	0	-nan
1.31606e-05	0	0	-nan
1.32869e-05	0	0	-nan
1.33127e-05	0	0	-nan
1.33752e-05	0	0	-nan
1.3384e-05	0	0	-nan
1.35304e-05	0	0	-nan
1.35768e-05	0	0	-nan
1.37844e-05	0	0	-nan
1.38089e-05	0	0	-nan
1.38695e-05	0	0	-nan
1.39964e-05	0	0	-nan
1.40224e-05	0	0	-nan
1.4028e-05	0	0	-nan
1.40283e-05	0	0	-nan
1.40603e-05	0	0	-nan
1.40736e-05	0	0	-nan
1.41414e-05	0	0	-nan
1.42593e-05	0	0	-nan
1.43892e-05	0	0	-nan
1.44285e-05	0	0	-nan
1.45144e-05	0	0	-nan
1.46156e-05	0	0	-nan
1.47441e-05	0	0	-nan
1.47657e-05	0	0	-nan
1.48504e-05	0	0	-nan
1.50075e-05	0	0	-nan
1.50978e-05	0	0	-nan
1.51156e-05	0	0	-nan
1.521e-05	0	0	-nan
1.52362e-05	0	0	-nan
1.52362e-05	0	0	-nan
1.52741e-05	0	0	-nan
1.52743e-05	0	0	-nan
1.54469e-05	0	0	-nan
1.54986e-05	0	0	-nan
1.56323e-05	0	0	-nan
1.56431e-05	0	0	-nan
1.57489e-05	0	0	-nan
1.57787e-05	0	0	-nan
1.59032e-05	0	0	-nan
1.59138e-05	0	0	-nan
1.59592e-05	0	0	-nan
1.60163e-05	0	0	-nan
1.60505e-05	0	0	-nan
1.62212e-05	0	0	-nan
1.62366e-05	0	0	-nan
1.62606e-05	0	0	-nan
1.63775e-05	0	0	-nan
1.64858e-05	0	0	-nan
1.67017e-05	0	0	-nan
1.67476e-05	0	0	-nan
1.67758e-05	0	0	-nan
1.68813e-05	0	0	-nan
1.70027e-05	0	0	-nan
1.7043e-05	0	0	-nan
1.71023e-05	0	0	-nan
1.71333e-05	0	0	-nan
1.71389e-05	0	0	-nan
1.71585e-05	0	0	-nan
1.71919e-05	0	0	-nan
1.73405e-05	0	0	-nan
1.76338e-05	0	0	-nan
1.76739e-05	0	0	-nan
1.77338e-05	0	0	-nan
1.78738e-05	0	0	-nan
1.79001e-05	0	0	-nan
1.81039e-05	0	0	-nan
1.81669e-05	0	0	-nan
1.82342e-05	0	0	-nan
1.83681e-05	0	0	-nan
1.85226e-05	0	0	-nan
1.8666e-05	0	0	-nan
1.86763e-05	0	0	-nan
1.86941e-05	0	0	-nan
1.89652e-05	0	0	-nan
1.8971e-05	0	0	-nan
1.89827e-05	0	0	-nan
1.89878e-05	0	0	-nan
1.89918e-05	0	0	-nan
1.90691e-05	0	0	-nan
1.91006e-05	0	0	-nan
1.91067e-05	0	0	-nan
1.91939e-05	0	0	-nan
1.93722e-05	0	0	-nan
1.93816e-05	0	0	-nan
1.93827e-05	0	0	-nan
1.94228e-05	0	0	-nan
1.95451e-05	0	0	-nan
1.95999e-05	0	0	-nan
1.96049e-05	0	0	-nan
1.97006e-05	0	0	-nan
1.97497e-05	0	0	-nan
1.97577e-05	0	0	-nan
1.9901e-05	0	0	-nan
2.0142e-05	0	0	-nan
2.02067e-05	0	0	-nan
2.02955e-05	0	0	-nan
2.04486e-05	0	0	-nan
2.04851e-05	0	0	-nan
2.04919e-05	0	0	-nan
2.05289e-05	0	0	-nan
2.05597e-05	0	0	-nan
2.05766e-05	0	0	-nan
2.06025e-05	0	0	-nan
2.06354e-05	0	0	-nan
2.06657e-05	0	0	-nan
2.07352e-05	0	0	-nan
2.08321e-05	0	0	-nan
2.08849e-05	0	0	-nan
2.08915e-05	0	0	-nan
2.09009e-05	0	0	-nan
2.11136e-05	0	0	-nan
2.11449e-05	0	0	-nan
2.11818e-05	0	0	-nan
2.12139e-05	0	0	-nan
2.12864e-05	0	0	-nan
2.14428e-05	0	0	-nan
2.15926e-05	0	0	-nan
2.16184e-05	0	0	-nan
2.18209e-05	0	0	-nan
2.18213e-05	0	0	-nan
2.18862e-05	0	0	-nan
2.19172e-05	0	0	-nan
2.19642e-05	0	0	-nan
2.25263e-05	0	0	-nan
2.257e-05	0	0	-nan
2.25726e-05	0	0	-nan
2.26007e-05	0	0	-nan
2.26836e-05	0	0	-nan
2.27037e-05	0	0	-nan
2.29549e-05	0	0	-nan
2.30534e-05	0	0	-nan
2.32246e-05	0	0	-nan
2.32342e-05	0	0	-nan
2.33678e-05	0	0	-nan
2.3445e-05	0	0	-nan
2.34608e-05	0	0	-nan
2.34742e-05	0	0	-nan
2.34945e-05	0	0	-nan
2.3545e-05	0	0	-nan
2.38734e-05	0	0	-nan
2.39208e-05	0	0	-nan
2.39693e-05	0	0	-nan
2.40371e-05	0	0	-nan
2.40969e-05	0	0	-nan
2.42136e-05	0	0	-nan
2.42481e-05	0	0	-nan
2.44266e-05	0	0	-nan
2.45122e-05	0	0	-nan
2.45914e-05	0	0	-nan
2.46046e-05	0	0	-nan
2.47208e-05	0	0	-nan
2.47768e-05	0	0	-nan
2.48627e-05	0	0	-nan
2.50157e-05	0	0	-nan
2.51333e-05	0	0	-nan
2.53669e-05	0	0	-nan
2.53841e-05	0	0	-nan
2.54084e-05	0	0	-nan
2.55405e-05	0	0	-nan
2.55883e-05	0	0	-nan
2.60346e-05	0	0	-nan
2.62034e-05	0	0	-nan
2.63491e-05	0	0	-nan
2.63539e-05	0	0	-nan
2.65112e-05	0	0	-nan
2.65553e-05	0	0	-nan
2.66315e-05	0	0	-nan
2.66547e-05	0	0	-nan
2.66772e-05	0	0	-nan
2.67485e-05	0	0	-nan
2.68232e-05	0	0	-nan
2.68771e-05	0	0	-nan
2.68875e-05	0	0	-nan
2.70453e-05	0	0	-nan
2.71019e-05	0	0	-nan
2.7105e-05	0	0	-nan
2.72568e-05	0	0	-nan
2.76635e-05	0	0	-nan
2.76911e-05	0	0	-nan
2.79017e-05	0	0	-nan
2.80455e-05	0	0	-nan
2.81974e-05	0	0	-nan
2.82138e-05	0	0	-nan
2.85109e-05	0	0	-nan
2.8816e-05	0	0	-nan
2.89856e-05	0	0	-nan
2.91014e-05	0	0	-nan
2.91414e-05	0	0	-nan
2.9255e-05	0	0	-nan
2.9663e-05	0	0	-nan
2.9695e-05	0	0	-nan
2.97798e-05	0	0	-nan
2.97964e-05	0	0	-nan
3.00462e-05	0	0	-nan
3.02969e-05	0	0	-nan
3.03488e-05	0	0	-nan
3.03569e-05	0	0	-nan
3.03951e-05	0	0	-nan
3.04508e-05	0	0	-nan
3.05898e-05	0	0	-nan
3.06038e-05	0	0	-nan
3.06515e-05	0	0	-nan
3.07191e-05	0	0	-nan
3.07478e-05	0	0	-nan
3.10972e-05	0	0	-nan
3.12156e-05	0	0	-nan
3.12865e-05	0	0	-nan
3.1464e-05	0	0	-nan
3.14832e-05	0	0	-nan
3.15117e-05	0	0	-nan
3.16578e-05	0	0	-nan
3.16757e-05	0	0	-nan
3.17006e-05	0	0	-nan
3.17588e-05	0	0	-nan
3.20133e-05	0	0	-nan
3.20579e-05	0	0	-nan
3.20806e-05	0	0	-nan
3.21625e-05	0	0	-nan
3.21852e-05	0	0	-nan
3.22213e-05	0	0	-nan
3.22757e-05	0	0	-nan
3.25488e-05	0	0	-nan
3.26855e-05	0	0	-nan
3.27671e-05	0	0	-nan
3.27817e-05	0	0	-nan
3.28886e-05	0	0	-nan
3.28954e-05	0	0	-nan
3.33728e-05	0	0	-nan
3.36811e-05	0	0	-nan
3.40369e-05	0	0	-nan
3.40682e-05	0	0	-nan
3.4102e-05	0	0	-nan
3.41356e-05	0	0	-nan
3.42531e-05	0	0	-nan
3.42881e-05	0	0	-nan
3.44539e-05	0	0	-nan
3.44952e-05	0	0	-nan
3.45097e-05	0	0	-nan
3.45255e-05	0	0	-nan
3.45959e-05	0	0	-nan
3.46017e-05	0	0	-nan
3.48518e-05	0	0	-nan
3.51139e-05	0	0	-nan
3.51151e-05	0	0	-nan
3.51988e-05	0	0	-nan
3.52104e-05	0	0	-nan
3.53396e-05	0	0	-nan
3.5668e-05	0	0	-nan
3.58256e-05	0	0	-nan
3.61813e-05	0	0	-nan
3.62881e-05	0	0	-nan
3.63085e-05	0	0	-nan
3.63402e-05	0	0	-nan
3.64807e-05	0	0	-nan
3.66903e-05	0	0	-nan
3.672e-05	0	0	-nan
3.68251e-05	0	0	-nan
3.68929e-05	0	0	-nan
3.70116e-05	0	0	-nan
3.70153e-05	0	0	-nan
3.70497e-05	0	0	-nan
3.74012e-05	0	0	-nan
3.75211e-05	0	0	-nan
3.78738e-05	0	0	-nan
3.80121e-05	0	0	-nan
3.80552e-05	0	0	-nan
3.81229e-05	0	0	-nan
3.81642e-05	0	0	-nan
3.84236e-05	0	0	-nan
3.85301e-05	0	0	-nan
3.85979e-05	0	0	-nan
3.87469e-05	0	0	-nan
3.88793e-05	0	0	-nan
3.89021e-05	0	0	-nan
3.93128e-05	0	0	-nan
3.93899e-05	0	0	-nan
3.96171e-05	0	0	-nan
3.98106e-05	0	0	-nan
3.9883e-05	0	0	-nan
3.99971e-05	0	0	-nan
4.01301e-05	0	0	-nan
4.01678e-05	0	0	-nan
4.01975e-05	0	0	-nan
4.04447e-05	0	0	-nan
4.0543e-05	0	0	-nan
4.05453e-05	0	0	-nan
4.06651e-05	0	0	-nan
4.08359e-05	0	0	-nan
4.09149e-05	0	0	-nan
4.10451e-05	0	0	-nan
4.11482e-05	0	0	-nan
4.12017e-05	0	0	-nan
4.14033e-05	0	0	-nan
4.14402e-05	0	0	-nan
4.15345e-05	0	0	-nan
4.1632e-05	0	0	-nan
4.17708e-05	0	0	-nan
4.17861e-05	0	0	-nan
4.20951e-05	0	0	-nan
4.23103e-05	0	0	-nan
4.23929e-05	0	0	-nan
4.23942e-05	0	0	-nan
4.23953e-05	0	0	-nan
4.24733e-05	0	0	-nan
4.24986e-05	0	0	-nan
4.26904e-05	0	0	-nan
4.29672e-05	0	0	-nan
4.32247e-05	0	0	-nan
4.33281e-05	0	0	-nan
4.38397e-05	0	0	-nan
4.4014e-05	0	0	-nan
4.41606e-05	0	0	-nan
4.42687e-05	0	0	-nan
4.42961e-05	0	0	-nan
4.43387e-05	0	0	-nan
4.46974e-05	0	0	-nan
4.48195e-05	0	0	-nan
4.483e-05	0	0	-nan
4.50609e-05	0	0	-nan
4.52405e-05	0	0	-nan
4.56845e-05	0	0	-nan
4.58351e-05	0	0	-nan
4.60419e-05	0	0	-nan
4.65056e-05	0	0	-nan
4.68745e-05	0	0	-nan
4.69189e-05	0	0	-nan
4.69932e-05	0	0	-nan
4.70774e-05	0	0	-nan
4.70914e-05	0	0	-nan
4.74621e-05	0	0	-nan
4.74913e-05	0	0	-nan
4.74949e-05	0	0	-nan
4.765e-05	0	0	-nan
4.77594e-05	0	0	-nan
4.78022e-05	0	0	-nan
4.78182e-05	0	0	-nan
4.7977e-05	0	0	-nan
4.81972e-05	0	0	-nan
4.83537e-05	0	0	-nan
4.87457e-05	0	0	-nan
4.87555e-05	0	0	-nan
4.87749e-05	0	0	-nan
4.93506e-05	0	0	-nan
4.93733e-05	0	0	-nan
4.9451e-05	0	0	-nan
4.95679e-05	0	0	-nan
4.95839e-05	0	0	-nan
4.96751e-05	0	0	-nan
4.96916e-05	0	0	-nan
5.0099e-05	0	0	-nan
5.04046e-05	0	0	-nan
5.06588e-05	0	0	-nan
5.11475e-05	0	0	-nan
5.12078e-05	0	0	-nan
5.14551e-05	0	0	-nan
5.15166e-05	0	0	-nan
5.15587e-05	0	0	-nan
5.18856e-05	0	0	-nan
5.18895e-05	0	0	-nan
5.20506e-05	0	0	-nan
5.20776e-05	0	0	-nan
5.21054e-05	0	0	-nan
5.21309e-05	0	0	-nan
5.22598e-05	0	0	-nan
5.23126e-05	0	0	-nan
5.2333e-05	0	0	-nan
5.24214e-05	0	0	-nan
5.26106e-05	0	0	-nan
5.2655e-05	0	0	-nan
5.29411e-05	0	0	-nan
5.29755e-05	0	0	-nan
5.30375e-05	0	0	-nan
5.33531e-05	0	0	-nan
5.33803e-05	0	0	-nan
5.34068e-05	0	0	-nan
5.37499e-05	0	0	-nan
5.38821e-05	0	0	-nan
5.39717e-05	0	0	-nan
5.41e-05	0	0	-nan
5.41696e-05	0	0	-nan
5.42552e-05	0	0	-nan
5.42717e-05	0	0	-nan
5.45542e-05	0	0	-nan
5.47643e-05	0	0	-nan
5.47809e-05	0	0	-nan
5.48097e-05	0	0	-nan
5.50153e-05	0	0	-nan
5.50182e-05	0	0	-nan
5.50505e-05	0	0	-nan
5.53405e-05	0	0	-nan
5.55654e-05	0	0	-nan
5.58792e-05	0	0	-nan
5.61351e-05	0	0	-nan
5.61864e-05	0	0	-nan
5.68033e-05	0	0	-nan
5.69125e-05	0	0	-nan
5.71239e-05	0	0	-nan
5.74602e-05	0	0	-nan
5.74954e-05	0	0	-nan
5.78083e-05	0	0	-nan
5.78831e-05	0	0	-nan
5.79338e-05	0	0	-nan
5.8017e-05	0	0	-nan
5.81008e-05	0	0	-nan
5.83262e-05	0	0	-nan
5.8396e-05	0	0	-nan
5.84536e-05	0	0	-nan
5.86843e-05	0	0	-nan
5.86853e-05	0	0	-nan
5.87613e-05	0	0	-nan
5.87644e-05	0	0	-nan
5.88691e-05	0	0	-nan
5.90065e-05	0	0	-nan
5.92171e-05	0	0	-nan
5.94812e-05	0	0	-nan
5.99496e-05	0	0	-nan
6.00531e-05	0	0	-nan
6.00906e-05	0	0	-nan
6.02675e-05	0	0	-nan
6.03313e-05	0	0	-nan
6.05718e-05	0	0	-nan
6.07289e-05	0	0	-nan
6.0753e-05	0	0	-nan
6.07904e-05	0	0	-nan
6.0808e-05	0	0	-nan
6.12417e-05	0	0	-nan
6.1317e-05	0	0	-nan
6.13558e-05	0	0	-nan
6.13588e-05	0	0	-nan
6.14354e-05	0	0	-nan
6.17546e-05	0	0	-nan
6.18608e-05	0	0	-nan
6.18993e-05	0	0	-nan
6.21637e-05	0	0	-nan
6.21657e-05	0	0	-nan
6.24041e-05	0	0	-nan
6.25896e-05	0	0	-nan
6.26343e-05	0	0	-nan
6.31404e-05	0	0	-nan
6.31617e-05	0	0	-nan
6.35432e-05	0	0	-nan
6.35903e-05	0	0	-nan
6.42586e-05	0	0	-nan
6.46598e-05	0	0	-nan
6.48489e-05	0	0	-nan
6.48708e-05	0	0	-nan
6.53137e-05	0	0	-nan
6.53825e-05	0	0	-nan
6.58606e-05	0	0	-nan
6.59836e-05	0	0	-nan
6.59983e-05	0	0	-nan
6.64791e-05	0	0	-nan
6.65645e-05	0	0	-nan
6.66474e-05	0	0	-nan
6.69693e-05	0	0	-nan
6.70519e-05	0	0	-nan
6.72126e-05	0	0	-nan
6.75686e-05	0	0	-nan
6.77852e-05	0	0	-nan
6.79681e-05	0	0	-nan
6.80851e-05	0	0	-nan
6.82561e-05	0	0	-nan
6.84095e-05	0	0	-nan
6.89731e-05	0	0	-nan
6.92762e-05	0	0	-nan
6.93151e-05	0	0	-nan
6.9578e-05	0	0	-nan
6.99635e-05	0	0	-nan
7.03312e-05	0	0	-nan
7.04009e-05	0	0	-nan
7.05482e-05	0	0	-nan
7.05752e-05	0	0	-nan
7.07611e-05	0	0	-nan
7.1052e-05	0	0	-nan
7.10927e-05	0	0	-nan
7.12518e-05	0	0	-nan
7.14919e-05	0	0	-nan
7.19586e-05	0	0	-nan
7.23104e-05	0	0	-nan
7.26844e-05	0	0	-nan
7.27045e-05	0	0	-nan
7.31524e-05	0	0	-nan
7.31631e-05	0	0	-nan
7.32637e-05	0	0	-nan
7.33939e-05	0	0	-nan
7.36154e-05	0	0	-nan
7.37044e-05	0	0	-nan
7.40081e-05	0	0	-nan
7.43084e-05	0	0	-nan
7.48079e-05	0	0	-nan
7.50166e-05	0	0	-nan
7.51251e-05	0	0	-nan
7.5152e-05	0	0	-nan
7.52983e-05	0	0	-nan
7.54775e-05	0	0	-nan
7.60738e-05	0	0	-nan
7.60746e-05	0	0	-nan
7.62483e-05	0	0	-nan
7.63104e-05	0	0	-nan
7.63847e-05	0	0	-nan
7.68772e-05	0	0	-nan
7.69636e-05	0	0	-nan
7.76606e-05	0	0	-nan
7.77823e-05	0	0	-nan
7.80744e-05	0	0	-nan
7.83076e-05	0	0	-nan
7.86372e-05	0	0	-nan
7.86936e-05	0	0	-nan
7.87208e-05	0	0	-nan
7.91303e-05	0	0	-nan
7.94176e-05	0	0	-nan
7.96489e-05	0	0	-nan
7.99836e-05	0	0	-nan
8.02155e-05	0	0	-nan
8.02898e-05	0	0	-nan
8.03982e-05	0	0	-nan
8.06404e-05	0	0	-nan
8.06462e-05	0	0	-nan
8.08653e-05	0	0	-nan
8.08668e-05	0	0	-nan
8.11041e-05	0	0	-nan
8.13005e-05	0	0	-nan
8.16306e-05	0	0	-nan
8.19109e-05	0	0	-nan
8.19303e-05	0	0	-nan
8.19425e-05	0	0	-nan
8.21342e-05	0	0	-nan
8.21679e-05	0	0	-nan
8.24222e-05	0	0	-nan
8.24785e-05	0	0	-nan
8.26419e-05	0	0	-nan
8.26953e-05	0	0	-nan
8.30585e-05	0	0	-nan
8.31286e-05	0	0	-nan
8.35762e-05	0	0	-nan
8.41873e-05	0	0	-nan
8.46761e-05	0	0	-nan
8.47533e-05	0	0	-nan
8.47597e-05	0	0	-nan
8.49617e-05	0	0	-nan
8.59856e-05	0	0	-nan
8.65088e-05	0	0	-nan
8.68119e-05	0	0	-nan
8.69668e-05	0	0	-nan
8.69717e-05	0	0	-nan
8.71811e-05	0	0	-nan
8.72704e-05	0	0	-nan
8.77504e-05	0	0	-nan
8.79641e-05	0	0	-nan
8.82208e-05	0	0	-nan
8.84155e-05	0	0	-nan
8.90124e-05	0	0	-nan
8.94256e-05	0	0	-nan
8.97119e-05	0	0	-nan
8.9929e-05	0	0	-nan
9.03184e-05	0	0	-nan
9.03348e-05	0	0	-nan
9.03813e-05	0	0	-nan
9.16729e-05	0	0	-nan
9.17557e-05	0	0	-nan
9.17898e-05	0	0	-nan
9.18344e-05	0	0	-nan
9.19666e-05	0	0	-nan
9.19817e-05	0	0	-nan
9.22131e-05	0	0	-nan
9.249e-05	0	0	-nan
9.25175e-05	0	0	-nan
9.26058e-05	0	0	-nan
9.2831e-05	0	0	-nan
9.29503e-05	0	0	-nan
9.30251e-05	0	0	-nan
9.32769e-05	0	0	-nan
9.38878e-05	0	0	-nan
9.41914e-05	0	0	-nan
9.44397e-05	0	0	-nan
9.44659e-05	0	0	-nan
9.47547e-05	0	0	-nan
9.48018e-05	0	0	-nan
9.48427e-05	0	0	-nan
9.53981e-05	0	0	-nan
9.54499e-05	0	0	-nan
9.54898e-05	0	0	-nan
9.55552e-05	0	0	-nan
9.5579e-05	0	0	-nan
9.58239e-05	0	0	-nan
9.58303e-05	0	0	-nan
9.61367e-05	0	0	-nan
9.62045e-05	0	0	-nan
9.6672e-05	0	0	-nan
9.7205e-05	0	0	-nan
9.72994e-05	0	0	-nan
9.73393e-05	0	0	-nan
9.80953e-05	0	0	-nan
9.82334e-05	0	0	-nan
9.82966e-05	0	0	-nan
9.89347e-05	0	0	-nan
9.95558e-05	0	0	-nan
9.95607e-05	0	0	-nan
9.97051e-05	0	0	-nan
0.000100397	0	0	-nan
0.000100454	0	0	-nan
0.000100911	0	0	-nan
0.000100995	0	0	-nan
0.000101068	0	0	-nan
0.000101167	0	0	-nan
0.000101688	0	0	-nan
0.000101741	0	0	-nan
0.00010191	0	0	-nan
0.000101954	0	0	-nan
0.000102202	0	0	-nan
0.000102799	0	0	-nan
0.000103376	0	0	-nan
0.000103671	0	0	-nan
0.000103947	0	0	-nan
0.000104558	0	0	-nan
0.000104929	0	0	-nan
0.000105521	0	0	-nan
0.000105746	0	0	-nan
0.000106066	0	0	-nan
0.000106167	0	0	-nan
0.00010621	0	0	-nan
0.00010623	0	0	-nan
0.0001071	0	0	-nan
0.000107145	0	0	-nan
0.000107307	0	0	-nan
0.000107447	0	0	-nan
0.00010762	0	0	-nan
0.000108349	0	0	-nan
0.000108482	0	0	-nan
0.000108702	0	0	-nan
0.000108776	0	0	-nan
0.000108939	0	0	-nan
0.000109054	0	0	-nan
0.000109383	0	0	-nan
0.000109554	0	0	-nan
0.000109762	0	0	-nan
0.000110059	0	0	-nan
0.0001104	0	0	-nan
0.000110626	0	0	-nan
0.000110699	0	0	-nan
0.000110845	0	0	-nan
0.000110892	0	0	-nan
0.0001109	0	0	-nan
0.00011105	0	0	-nan
0.000111236	0	0	-nan
0.00011127	0	0	-nan
0.000111354	0	0	-nan
0.000111542	0	0	-nan
0.000111772	0	0	-nan
0.000111871	0	0	-nan
0.000112092	0	0	-nan
0.000112552	0	0	-nan
0.000113044	0	0	-nan
0.000113136	0	0	-nan
0.000113409	0	0	-nan
0.000113447	0	0	-nan
0.000113449	0	0	-nan
0.000113758	0	0	-nan
0.000113799	0	0	-nan
0.000114104	0	0	-nan
0.000114143	0	0	-nan
0.000114428	0	0	-nan
0.00011492	0	0	-nan
0.000114954	0	0	-nan
0.000115211	0	0	-nan
0.000115572	0	0	-nan
0.000115796	0	0	-nan
0.000115944	0	0	-nan
0.000115948	0	0	-nan
0.000116682	0	0	-nan
0.000116989	0	0	-nan
0.000117123	0	0	-nan
0.00011743	0	0	-nan
0.000117924	0	0	-nan
0.000118003	0	0	-nan
0.000118122	0	0	-nan
0.00011871	0	0	-nan
0.000118759	0	0	-nan
0.000119025	0	0	-nan
0.000119086	0	0	-nan
0.000120003	0	0	-nan
0.000120356	0	0	-nan
0.000120505	0	0	-nan
0.000120672	0	0	-nan
0.00012097	0	0	-nan
0.000121336	0	0	-nan
0.000121395	0	0	-nan
0.000121708	0	0	-nan
0.00012177	0	0	-nan
0.0001222	0	0	-nan
0.000122616	0	0	-nan
0.000122895	0	0	-nan
0.000122956	0	0	-nan
0.000123109	0	0	-nan
0.000123157	0	0	-nan
0.000123667	0	0	-nan
0.000123722	0	0	-nan
0.000123758	0	0	-nan
0.000123872	0	0	-nan
0.000124062	0	0	-nan
0.000124148	0	0	-nan
0.000124295	0	0	-nan
0.00012457	0	0	-nan
0.000124803	0	0	-nan
0.000125559	0	0	-nan
0.000125638	0	0	-nan
0.000125862	0	0	-nan
0.000125984	0	0	-nan
0.000126121	0	0	-nan
0.000126158	0	0	-nan
0.000126461	0	0	-nan
0.000126662	0	0	-nan
0.000126782	0	0	-nan
0.000126815	0	0	-nan
0.000126948	0	0	-nan
0.000126955	0	0	-nan
0.00012713	0	0	-nan
0.00012718	0	0	-nan
0.000127181	0	0	-nan
0.00012721	0	0	-nan
0.000127239	0	0	-nan
0.000127461	0	0	-nan
0.000127678	0	0	-nan
0.000127932	0	0	-nan
0.000127986	0	0	-nan
0.00012824	0	0	-nan
0.000128328	0	0	-nan
0.000128784	0	0	-nan
0.00012909	0	0	-nan
0.000129183	0	0	-nan
0.000129276	0	0	-nan
0.000129323	0	0	-nan
0.000129665	0	0	-nan
0.000129822	0	0	-nan
0.000130016	0	0	-nan
0.000130245	0	0	-nan
0.000130678	0	0	-nan
0.000130848	0	0	-nan
0.000130983	0	0	-nan
0.000130994	0	0	-nan
0.000131046	0	0	-nan
0.000131811	0	0	-nan
0.000132862	0	0	-nan
0.00013331	0	0	-nan
0.000134027	0	0	-nan
0.000134707	0	0	-nan
0.000134751	0	0	-nan
0.000134838	0	0	-nan
0.000135172	0	0	-nan
0.00013545	0	0	-nan
0.000135859	0	0	-nan
0.00013606	0	0	-nan
0.000137137	0	0	-nan
0.000137246	0	0	-nan
0.000137894	0	0	-nan
0.000137894	0	0	-nan
0.00013813	0	0	-nan
0.000138572	0	0	-nan
0.000138597	0	0	-nan
0.000138851	0	0	-nan
0.00013895	0	0	-nan
0.000139659	0	0	-nan
0.000139712	0	0	-nan
0.000139984	0	0	-nan
0.000140007	0	0	-nan
0.000140223	0	0	-nan
0.000140531	0	0	-nan
0.000140992	0	0	-nan
0.000141688	0	0	-nan
0.000142055	0	0	-nan
0.000142417	0	0	-nan
0.000142486	0	0	-nan
0.000142664	0	0	-nan
0.000142694	0	0	-nan
0.000143172	0	0	-nan
0.000143297	0	0	-nan
0.000143332	0	0	-nan
0.000143351	0	0	-nan
0.000143962	0	0	-nan
0.000143986	0	0	-nan
0.000144087	0	0	-nan
0.000144539	0	0	-nan
0.000144702	0	0	-nan
0.000144792	0	0	-nan
0.000144847	0	0	-nan
0.000144847	0	0	-nan
0.000145041	0	0	-nan
0.00014567	0	0	-nan
0.000145825	0	0	-nan
0.000146566	0	0	-nan
0.000146885	0	0	-nan
0.000147151	0	0	-nan
0.000147158	0	0	-nan
0.000147759	0	0	-nan
0.000147805	0	0	-nan
0.000147836	0	0	-nan
0.000148496	0	0	-nan
0.00014857	0	0	-nan
0.000149155	0	0	-nan
0.000149513	0	0	-nan
0.00014955	0	0	-nan
0.000149837	0	0	-nan
0.000150344	0	0	-nan
0.000150405	0	0	-nan
0.00015115	0	0	-nan
0.0001522	0	0	-nan
0.000152345	0	0	-nan
0.000152426	0	0	-nan
0.000152533	0	0	-nan
0.000152786	0	0	-nan
0.000153859	0	0	-nan
0.00015387	0	0	-nan
0.000154048	0	0	-nan
0.000154092	0	0	-nan
0.000155464	0	0	-nan
0.000155709	0	0	-nan
0.000156033	0	0	-nan
0.000156405	0	0	-nan
0.0001567	0	0	-nan
0.00015886	0	0	-nan
0.000159284	0	0	-nan
0.000159518	0	0	-nan
0.000160184	0	0	-nan
0.000160723	0	0	-nan
0.000160915	0	0	-nan
0.000161435	0	0	-nan
0.000162089	0	0	-nan
0.000162248	0	0	-nan
0.000162652	0	0	-nan
0.000162854	0	0	-nan
0.000163501	0	0	-nan
0.000163834	0	0	-nan
0.000164047	0	0	-nan
0.000164697	0	0	-nan
0.00016502	0	0	-nan
0.000165174	0	0	-nan
0.000165387	0	0	-nan
0.000165488	0	0	-nan
0.000167121	0	0	-nan
0.000167156	0	0	-nan
0.000167538	0	0	-nan
0.000167646	0	0	-nan
0.000168286	0	0	-nan
0.000168996	0	0	-nan
0.000169216	0	0	-nan
0.000170042	0	0	-nan
0.000170406	0	0	-nan
0.000170433	0	0	-nan
0.000170873	0	0	-nan
0.000170967	0	0	-nan
0.000171234	0	0	-nan
0.000171431	0	0	-nan
0.000171472	0	0	-nan
0.000172447	0	0	-nan
0.000172565	0	0	-nan
0.000172593	0	0	-nan
0.000172905	0	0	-nan
0.000172944	0	0	-nan
0.000174236	0	0	-nan
0.000174353	0	0	-nan
0.000174626	0	0	-nan
0.000175119	0	0	-nan
0.000175524	0	0	-nan
0.000176032	0	0	-nan
0.000176451	0	0	-nan
0.000176736	0	0	-nan
0.000177013	0	0	-nan
0.000177135	0	0	-nan
0.000177528	0	0	-nan
0.000177619	0	0	-nan
0.000177941	0	0	-nan
0.000178289	0	0	-nan
0.000178297	0	0	-nan
0.000179076	0	0	-nan
0.000179187	0	0	-nan
0.000179405	0	0	-nan
0.000180299	0	0	-nan
0.000181504	0	0	-nan
0.000181708	0	0	-nan
0.000182372	0	0	-nan
0.00018293	0	0	-nan
0.000183049	0	0	-nan
0.000183174	0	0	-nan
0.000183317	0	0	-nan
0.000183431	0	0	-nan
0.000183472	0	0	-nan
0.000184316	0	0	-nan
0.00018483	0	0	-nan
0.000185091	0	0	-nan
0.000185332	0	0	-nan
0.000186455	0	0	-nan
0.000186908	0	0	-nan
0.000187525	0	0	-nan
0.000188109	0	0	-nan
0.000188215	0	0	-nan
0.000190127	0	0	-nan
0.000191051	0	0	-nan
0.000191322	0	0	-nan
0.000191407	0	0	-nan
0.00019168	0	0	-nan
0.000192065	0	0	-nan
0.000192774	0	0	-nan
0.000192984	0	0	-nan
0.000193532	0	0	-nan
0.000194019	0	0	-nan
0.00019428	0	0	-nan
0.000194413	0	0	-nan
0.000194677	0	0	-nan
0.000194847	0	0	-nan
0.000195371	0	0	-nan
0.00019591	0	0	-nan
0.000196782	0	0	-nan
0.000197721	0	0	-nan
0.000198118	0	0	-nan
0.000198274	0	0	-nan
0.000199192	0	0	-nan
0.000199286	0	0	-nan
0.000199379	0	0	-nan
0.000199815	0	0	-nan
0.000200085	0	0	-nan
0.0002009	0	0	-nan
0.000201414	0	0	-nan
0.000201895	0	0	-nan
0.0002024	0	0	-nan
0.00020414	0	0	-nan
0.000204363	0	0	-nan
0.000204427	0	0	-nan
0.00020462	0	0	-nan
0.000204626	0	0	-nan
0.000204857	0	0	-nan
0.000205313	0	0	-nan
0.000205393	0	0	-nan
0.000205515	0	0	-nan
0.000205973	0	0	-nan
0.000207494	0	0	-nan
0.000207857	0	0	-nan
0.000207936	0	0	-nan
0.000208264	0	0	-nan
0.00020902	0	0	-nan
0.000210946	0	0	-nan
0.000211729	0	0	-nan
0.000211913	0	0	-nan
0.000212332	0	0	-nan
0.000212365	0	0	-nan
0.000212531	0	0	-nan
0.000212938	0	0	-nan
0.000212977	0	0	-nan
0.000212999	0	0	-nan
0.000213996	0	0	-nan
0.000214025	0	0	-nan
0.000214126	0	0	-nan
0.000214838	0	0	-nan
0.000214853	0	0	-nan
0.00021561	0	0	-nan
0.000215862	0	0	-nan
0.000216547	0	0	-nan
0.00021655	0	0	-nan
0.000216806	0	0	-nan
0.000217101	0	0	-nan
0.000217151	0	0	-nan
0.000217513	0	0	-nan
0.000219202	0	0	-nan
0.000219313	0	0	-nan
0.000220126	0	0	-nan
0.000222581	0	0	-nan
0.000222754	0	0	-nan
0.000223894	0	0	-nan
0.000224368	0	0	-nan
0.000224397	0	0	-nan
0.000225522	0	0	-nan
0.00022623	0	0	-nan
0.00022655	0	0	-nan
0.000226713	0	0	-nan
0.000226944	0	0	-nan
0.00022825	0	0	-nan
0.000229698	0	0	-nan
0.000230104	0	0	-nan
0.000230308	0	0	-nan
0.000230653	0	0	-nan
0.000231707	0	0	-nan
0.00023206	0	0	-nan
0.000232156	0	0	-nan
0.000232716	0	0	-nan
0.000233594	0	0	-nan
0.000233677	0	0	-nan
0.000234396	0	0	-nan
0.000235785	0	0	-nan
0.000236357	0	0	-nan
0.000236839	0	0	-nan
0.000236896	0	0	-nan
0.000237584	0	0	-nan
0.000238014	0	0	-nan
0.000238234	0	0	-nan
0.000238539	0	0	-nan
0.000238718	0	0	-nan
0.000239081	0	0	-nan
0.000241109	0	0	-nan
0.000242211	0	0	-nan
0.000242429	0	0	-nan
0.000242858	0	0	-nan
0.000243121	0	0	-nan
0.000243282	0	0	-nan
0.000243351	0	0	-nan
0.000244245	0	0	-nan
0.000244291	0	0	-nan
0.000244559	0	0	-nan
0.000245307	0	0	-nan
0.000245668	0	0	-nan
0.000245899	0	0	-nan
0.000246711	0	0	-nan
0.000247035	0	0	-nan
0.000247069	0	0	-nan
0.000247216	0	0	-nan
0.000248442	0	0	-nan
0.000248474	0	0	-nan
0.000248848	0	0	-nan
0.000250132	0	0	-nan
0.000251384	0	0	-nan
0.000251734	0	0	-nan
0.000251971	0	0	-nan
0.00025258	0	0	-nan
0.000252757	0	0	-nan
0.000252972	0	0	-nan
0.000254691	0	0	-nan
0.000255799	0	0	-nan
0.000256809	0	0	-nan
0.00025695	0	0	-nan
0.000257612	0	0	-nan
0.000259422	0	0	-nan
0.000259982	0	0	-nan
0.000260657	0	0	-nan
0.000261211	0	0	-nan
0.000261821	0	0	-nan
0.000263471	0	0	-nan
0.000263544	0	0	-nan
0.000266533	0	0	-nan
0.000266639	0	0	-nan
0.000266956	0	0	-nan
0.000267121	0	0	-nan
0.000268067	0	0	-nan
0.000268771	0	0	-nan
0.000268927	0	0	-nan
0.000269105	0	0	-nan
0.000269516	0	0	-nan
0.000271369	0	0	-nan
0.000271416	0	0	-nan
0.000271614	0	0	-nan
0.000272722	0	0	-nan
0.000274707	0	0	-nan
0.000274777	0	0	-nan
0.000276026	0	0	-nan
0.000276142	0	0	-nan
0.000276782	0	0	-nan
0.000276833	0	0	-nan
0.000277663	0	0	-nan
0.000277813	0	0	-nan
0.000277909	0	0	-nan
0.000278351	0	0	-nan
0.000280856	0	0	-nan
0.000283521	0	0	-nan
0.000283812	0	0	-nan
0.00028426	0	0	-nan
0.000286088	0	0	-nan
0.00028713	0	0	-nan
0.000287562	0	0	-nan
0.000288405	0	0	-nan
0.000289242	0	0	-nan
0.00029146	0	0	-nan
0.00029167	0	0	-nan
0.000292111	0	0	-nan
0.00029233	0	0	-nan
0.000293232	0	0	-nan
0.00029419	0	0	-nan
0.000294586	0	0	-nan
0.000295283	0	0	-nan
0.000296845	0	0	-nan
0.000298913	0	0	-nan
0.000298918	0	0	-nan
0.000299063	0	0	-nan
0.000299073	0	0	-nan
0.000304308	0	0	-nan
0.000305016	0	0	-nan
0.000305056	0	0	-nan
0.000306983	0	0	-nan
0.000307142	0	0	-nan
0.000307228	0	0	-nan
0.000308816	0	0	-nan
0.000310328	0	0	-nan
0.000310563	0	0	-nan
0.000310854	0	0	-nan
0.00031086	0	0	-nan
0.000313343	0	0	-nan
0.000313446	0	0	-nan
0.000318376	0	0	-nan
0.000319179	0	0	-nan
0.00031926	0	0	-nan
0.000319699	0	0	-nan
0.000320384	0	0	-nan
0.000320581	0	0	-nan
0.00032124	0	0	-nan
0.00032132	0	0	-nan
0.000324323	0	0	-nan
0.000326825	0	0	-nan
0.000326962	0	0	-nan
0.000327507	0	0	-nan
0.000328046	0	0	-nan
0.000328595	0	0	-nan
0.000329175	0	0	-nan
0.000329815	0	0	-nan
0.000333306	0	0	-nan
0.000339042	0	0	-nan
0.000339793	0	0	-nan
0.000341283	0	0	-nan
0.000342708	0	0	-nan
0.00034283	0	0	-nan
0.000343554	0	0	-nan
0.000348846	0	0	-nan
0.000349001	0	0	-nan
0.000350425	0	0	-nan
0.00035091	0	0	-nan
0.00035297	0	0	-nan
0.000355437	0	0	-nan
0.000355614	0	0	-nan
0.000355875	0	0	-nan
0.000357136	0	0	-nan
0.000359813	0	0	-nan
0.000362125	0	0	-nan
0.000363433	0	0	-nan
0.000364963	0	0	-nan
0.000366432	0	0	-nan
0.000367912	0	0	-nan
0.000368384	0	0	-nan
0.00037068	0	0	-nan
0.000372184	0	0	-nan
0.000373412	0	0	-nan
0.000375128	0	0	-nan
0.000375796	0	0	-nan
0.00038141	0	0	-nan
0.000387706	0	0	-nan
0.000389735	0	0	-nan
0.000390178	0	0	-nan
0.000390724	0	0	-nan
0.000391325	0	0	-nan
0.000394545	0	0	-nan
0.000395081	0	0	-nan
0.000397216	0	0	-nan
0.000397825	0	0	-nan
0.000397995	0	0	-nan
0.0003985	0	0	-nan
0.000398543	0	0	-nan
0.000400603	0	0	-nan
0.00040133	0	0	-nan
0.000407524	0	0	-nan
0.000409225	0	0	-nan
0.000409717	0	0	-nan
0.000410566	0	0	-nan
0.000413962	0	0	-nan
0.000416523	0	0	-nan
0.000430568	0	0	-nan
0.000430991	0	0	-nan
0.000434734	0	0	-nan
0.000436417	0	0	-nan
0.000443757	0	0	-nan
0.000451391	0	0	-nan
0.000467497	0	0	-nan
0.000471082	0	0	-nan
0.000471353	0	0	-nan
0.000471543	0	0	-nan
0.000473016	0	0	-nan
0.000473046	0	0	-nan
0.000476473	0	0	-nan
0.00047711	0	0	-nan
0.000482466	0	0	-nan
0.000491259	0	0	-nan
0.000498132	0	0	-nan
0.000507831	0	0	-nan
0.000526836	0	0	-nan
0.000538482	0	0	-nan
0.000544956	0	0	-nan
0.000554808	0	0	-nan
0.000558001	0	0	-nan
0.00056831	0	0	-nan
0.000570252	0	0	-nan
0.000578604	0	0	-nan
0.00058842	0	0	-nan
0.0006196	0	0	-nan
0.000621019	0	0	-nan
0.0006223	0	0	-nan
0.000636612	0	0	-nan
0.000646517	0	0	-nan
0.000650316	0	0	-nan
0.000658918	0	0	-nan
0.000698857	0	0	-nan
0.000710394	0	0	-nan
0.000801699	0	0	-nan
0.000828834	0	0	-nan
0.000829477	0	0	-nan
0.0008743	0	0	-nan
0.000878464	0	0	-nan
0.00087943	0	0	-nan
0.000882062	0	0	-nan
0.000902661	0	0	-nan
0.000924349	0	0	-nan
0.000929208	0	0	-nan
0.000967909	0	0	-nan
0.000970442	0	0	-nan
0.000971034	0	0	-nan
0.0009844	0	0	-nan
0.00099605	0	0	-nan
0.0010242	0	0	-nan
0.00107457	0	0	-nan
0.00113167	0	0	-nan
0.00121426	0	0	-nan
0.00161083	0	0	-nan
