100 100 100 100 100	1	0.095	0.28	0 0.15 0.25 0.3
#Medium:100 100 100 100 100	1	0.095	0.28	0 0.23 0.25
#High:100 100 100 100 100	1	0.053	0.31	0 0.10 0.10
#100 100 100 100 100 1 0.095 0.28 0
#100	100   100	100	100	1	0.4	0.1	0

#init_EG >> init_CBH >> init_BGL >> init_XYL >> length_fibril >> pct_xyl >> pct_hemi >> pct_lign >> pct_acetyl_hemi >> pct_crystalline_cellu >> pct_crystalline_hemi