6.93511e-08	0	0	0
1.30146e-07	0	0	0
1.01308e-06	0	0	0
1.20625e-06	0	0	0
1.29741e-06	0	0	0
1.38681e-06	0	0	0
1.44072e-06	0	0	0
1.47614e-06	0	0	0
1.54109e-06	0	0	0
1.57801e-06	0	0	0
1.68004e-06	0	0	0
1.81909e-06	0	0	0
1.83531e-06	0	0	0
1.87537e-06	0	0	0
1.99517e-06	0	0	0
2.14456e-06	0	0	0
2.28862e-06	0	0	0
2.44938e-06	0	0	0
2.62297e-06	0	0	0
2.81781e-06	0	0	0
2.85351e-06	0	0	0
2.87435e-06	0	0	0
2.87826e-06	0	0	0
3.08508e-06	0	0	0
3.18924e-06	0	0	0
3.28548e-06	0	0	0
3.43797e-06	0	0	0
3.55907e-06	0	0	0
3.56651e-06	0	0	0
3.67672e-06	0	0	0
3.71202e-06	0	0	0
3.75239e-06	0	0	0
3.81523e-06	0	0	0
4.01986e-06	0	0	0
4.32218e-06	0	0	0
4.65976e-06	0	0	0
4.66049e-06	0	0	0
4.79358e-06	0	0	0
5.15144e-06	0	0	0
5.21357e-06	0	0	0
5.22556e-06	0	0	0
5.59104e-06	0	0	0
5.73302e-06	0	0	0
5.75063e-06	0	0	0
5.87527e-06	0	0	0
5.91689e-06	0	0	0
5.98495e-06	0	0	0
6.17806e-06	0	0	0
6.23693e-06	0	0	0
6.46794e-06	0	0	0
6.48811e-06	0	0	0
6.4983e-06	0	0	0
6.59766e-06	0	0	0
7.04398e-06	0	0	0
7.05705e-06	0	0	0
7.08561e-06	0	0	0
7.22154e-06	0	0	0
7.3265e-06	0	0	0
7.66937e-06	0	0	0
7.81485e-06	0	0	0
8.05532e-06	0	0	0
8.06218e-06	0	0	0
8.74865e-06	0	0	0
8.75113e-06	0	0	0
9.12571e-06	0	0	0
9.14187e-06	0	0	0
9.29813e-06	0	0	0
9.34355e-06	0	0	0
9.70402e-06	0	0	0
9.73875e-06	0	0	0
9.89547e-06	0	0	0
1.00851e-05	0	0	0
1.00977e-05	0	0	0
1.01354e-05	0	0	0
1.02634e-05	0	0	0
1.03511e-05	0	0	0
1.0512e-05	0	0	0
1.05594e-05	0	0	0
1.08193e-05	0	0	0
1.10074e-05	0	0	0
1.10454e-05	0	0	0
1.13679e-05	0	0	0
1.14016e-05	0	0	0
1.14808e-05	0	0	0
1.21234e-05	0	0	0
1.22859e-05	0	0	0
1.25956e-05	0	0	0
1.29663e-05	0	0	0
1.3028e-05	0	0	0
1.31654e-05	0	0	0
1.34456e-05	0	0	0
1.36608e-05	0	0	0
1.36739e-05	0	0	0
1.40927e-05	0	0	0
1.41732e-05	0	0	0
1.41999e-05	0	0	0
1.42271e-05	0	0	0
1.42629e-05	0	0	0
1.42966e-05	0	0	0
1.5079e-05	0	0	0
1.51972e-05	0	0	0
1.53062e-05	0	0	0
1.53449e-05	0	0	0
1.54197e-05	0	0	0
1.55626e-05	0	0	0
1.56043e-05	0	0	0
1.56457e-05	0	0	0
1.61206e-05	0	0	0
1.6641e-05	0	0	0
1.7339e-05	0	0	0
1.76099e-05	0	0	0
1.77328e-05	0	0	0
1.81855e-05	0	0	0
1.82528e-05	0	0	0
1.85362e-05	0	0	0
1.86034e-05	0	0	0
1.86153e-05	0	0	0
1.87298e-05	0	0	0
1.88282e-05	0	0	0
1.90013e-05	0	0	0
1.91571e-05	0	0	0
1.92741e-05	0	0	0
1.95606e-05	0	0	0
1.96355e-05	0	0	0
1.98385e-05	0	0	0
1.98551e-05	0	0	0
1.98614e-05	0	0	0
1.99215e-05	0	0	0
1.99869e-05	0	0	0
2.00128e-05	0	0	0
2.00216e-05	0	0	0
2.00692e-05	0	0	0
2.03737e-05	0	0	0
2.06286e-05	0	0	0
2.06858e-05	0	0	0
2.07587e-05	0	0	0
2.07875e-05	0	0	0
2.11799e-05	0	0	0
2.15527e-05	0	0	0
2.162e-05	0	0	0
2.17632e-05	0	0	0
2.18614e-05	0	0	0
2.18836e-05	0	0	0
2.22411e-05	0	0	0
2.23156e-05	0	0	0
2.26252e-05	0	0	0
2.26687e-05	0	0	0
2.29063e-05	0	0	0
2.29201e-05	0	0	0
2.30587e-05	0	0	0
2.32196e-05	0	0	0
2.34191e-05	0	0	0
2.37218e-05	0	0	0
2.38833e-05	0	0	0
2.42294e-05	0	0	0
2.44681e-05	0	0	0
2.50592e-05	0	0	0
2.50713e-05	0	0	0
2.53728e-05	0	0	0
2.5617e-05	0	0	0
2.60165e-05	0	0	0
2.62642e-05	0	0	0
2.66547e-05	0	0	0
2.66616e-05	0	0	0
2.66856e-05	0	0	0
2.67079e-05	0	0	0
2.70345e-05	0	0	0
2.71359e-05	0	0	0
2.71362e-05	0	0	0
2.74716e-05	0	0	0
2.76401e-05	0	0	0
2.82318e-05	0	0	0
2.82932e-05	0	0	0
2.85877e-05	0	0	0
2.90846e-05	0	0	0
2.92465e-05	0	0	0
2.93815e-05	0	0	0
2.95037e-05	0	0	0
2.96964e-05	0	0	0
3.00772e-05	0	0	0
3.06835e-05	0	0	0
3.20221e-05	0	0	0
3.22083e-05	0	0	0
3.25708e-05	0	0	0
3.26531e-05	0	0	0
3.30226e-05	0	0	0
3.30776e-05	0	0	0
3.31868e-05	0	0	0
3.35054e-05	0	0	0
3.3837e-05	0	0	0
3.39618e-05	0	0	0
3.41191e-05	0	0	0
3.42367e-05	0	0	0
3.43978e-05	0	0	0
3.44892e-05	0	0	0
3.45877e-05	0	0	0
3.48498e-05	0	0	0
3.49341e-05	0	0	0
3.51411e-05	0	0	0
3.53877e-05	0	0	0
3.57064e-05	0	0	0
3.57871e-05	0	0	0
3.58811e-05	0	0	0
3.59328e-05	0	0	0
3.60087e-05	0	0	0
3.62913e-05	0	0	0
3.66025e-05	0	0	0
3.68662e-05	0	0	0
3.7453e-05	0	0	0
3.75497e-05	0	0	0
3.8066e-05	0	0	0
3.85473e-05	0	0	0
3.86443e-05	0	0	0
3.88545e-05	0	0	0
3.91967e-05	0	0	0
3.94803e-05	0	0	0
3.99517e-05	0	0	0
4.01994e-05	0	0	0
4.04911e-05	0	0	0
4.07709e-05	0	0	0
4.08089e-05	0	0	0
4.10846e-05	0	0	0
4.1107e-05	0	0	0
4.14007e-05	0	0	0
4.15158e-05	0	0	0
4.15962e-05	0	0	0
4.17246e-05	0	0	0
4.17675e-05	0	0	0
4.20601e-05	0	0	0
4.25752e-05	0	0	0
4.28017e-05	0	0	0
4.29775e-05	0	0	0
4.37223e-05	0	0	0
4.37272e-05	0	0	0
4.52075e-05	0	0	0
4.54906e-05	0	0	0
4.58798e-05	0	0	0
4.60091e-05	0	0	0
4.60575e-05	0	0	0
4.6188e-05	0	0	0
4.6883e-05	0	0	0
4.70641e-05	0	0	0
4.75714e-05	0	0	0
4.77164e-05	0	0	0
4.79152e-05	0	0	0
4.89778e-05	0	0	0
4.91176e-05	0	0	0
4.91281e-05	0	0	0
4.91336e-05	0	0	0
4.98485e-05	0	0	0
4.98718e-05	0	0	0
5.01573e-05	0	0	0
5.04303e-05	0	0	0
5.05204e-05	0	0	0
5.07321e-05	0	0	0
5.07478e-05	0	0	0
5.13663e-05	0	0	0
5.15444e-05	0	0	0
5.16276e-05	0	0	0
5.20586e-05	0	0	0
5.21427e-05	0	0	0
5.25448e-05	0	0	0
5.28525e-05	0	0	0
5.2912e-05	0	0	0
5.2947e-05	0	0	0
5.30315e-05	0	0	0
5.3143e-05	0	0	0
5.3918e-05	0	0	0
5.43711e-05	0	0	0
5.49731e-05	0	0	0
5.50295e-05	0	0	0
5.50624e-05	0	0	0
5.58206e-05	0	0	0
5.6344e-05	0	0	0
5.64424e-05	0	0	0
5.64815e-05	0	0	0
5.66071e-05	0	0	0
5.67867e-05	0	0	0
5.70407e-05	0	0	0
5.71645e-05	0	0	0
5.72983e-05	0	0	0
5.76567e-05	0	0	0
5.77542e-05	0	0	0
5.85901e-05	0	0	0
5.86345e-05	0	0	0
5.86884e-05	0	0	0
5.87364e-05	0	0	0
5.90089e-05	0	0	0
5.95391e-05	0	0	0
6.04614e-05	0	0	0
6.08747e-05	0	0	0
6.11924e-05	0	0	0
6.11988e-05	0	0	0
6.20333e-05	0	0	0
6.22651e-05	0	0	0
6.26539e-05	0	0	0
6.27395e-05	0	0	0
6.29646e-05	0	0	0
6.4116e-05	0	0	0
6.47444e-05	0	0	0
6.50644e-05	0	0	0
6.52422e-05	0	0	0
6.55607e-05	0	0	0
6.55689e-05	0	0	0
6.56282e-05	0	0	0
6.65886e-05	0	0	0
6.68386e-05	0	0	0
6.68432e-05	0	0	0
6.80459e-05	0	0	0
6.85146e-05	0	0	0
6.89544e-05	0	0	0
6.93137e-05	0	0	0
6.95492e-05	0	0	0
6.96981e-05	0	0	0
6.9883e-05	0	0	0
6.98995e-05	0	0	0
7.05711e-05	0	0	0
7.05738e-05	0	0	0
7.07326e-05	0	0	0
7.1042e-05	0	0	0
7.12063e-05	0	0	0
7.13005e-05	0	0	0
7.1678e-05	0	0	0
7.18591e-05	0	0	0
7.19652e-05	0	0	0
7.26131e-05	0	0	0
7.26441e-05	0	0	0
7.26638e-05	0	0	0
7.28852e-05	0	0	0
7.30033e-05	0	0	0
7.30363e-05	0	0	0
7.30747e-05	0	0	0
7.374e-05	0	0	0
7.42305e-05	0	0	0
7.50634e-05	0	0	0
7.5606e-05	0	0	0
7.57392e-05	0	0	0
7.65426e-05	0	0	0
7.66498e-05	0	0	0
7.68542e-05	0	0	0
7.71453e-05	0	0	0
7.73371e-05	0	0	0
7.8043e-05	0	0	0
7.82779e-05	0	0	0
7.86977e-05	0	0	0
7.93934e-05	0	0	0
7.95445e-05	0	0	0
8.01571e-05	0	0	0
8.11166e-05	0	0	0
8.16732e-05	0	0	0
8.18756e-05	0	0	0
8.19299e-05	0	0	0
8.20081e-05	0	0	0
8.22414e-05	0	0	0
8.24789e-05	0	0	0
8.28846e-05	0	0	0
8.31472e-05	0	0	0
8.35175e-05	0	0	0
8.35772e-05	0	0	0
8.38201e-05	0	0	0
8.5063e-05	0	0	0
8.51283e-05	0	0	0
8.52172e-05	0	0	0
8.52537e-05	0	0	0
8.54555e-05	0	0	0
8.6462e-05	0	0	0
8.67452e-05	0	0	0
8.69396e-05	0	0	0
8.69416e-05	0	0	0
8.74273e-05	0	0	0
8.74445e-05	0	0	0
8.8433e-05	0	0	0
8.9117e-05	0	0	0
9.11637e-05	0	0	0
9.12487e-05	0	0	0
9.13337e-05	0	0	0
9.25832e-05	0	0	0
9.28943e-05	0	0	0
9.2991e-05	0	0	0
9.30765e-05	0	0	0
9.36226e-05	0	0	0
9.36743e-05	0	0	0
9.45296e-05	0	0	0
9.48015e-05	0	0	0
9.49911e-05	0	0	0
9.53146e-05	0	0	0
9.53432e-05	0	0	0
9.58425e-05	0	0	0
9.68118e-05	0	0	0
9.68425e-05	0	0	0
9.7321e-05	0	0	0
9.75225e-05	0	0	0
9.799e-05	0	0	0
9.91254e-05	0	0	0
9.93465e-05	0	0	0
9.99045e-05	0	0	0
0.000100142	0	0	0
0.000100203	0	0	0
0.000101261	0	0	0
0.000101751	0	0	0
0.000102109	0	0	0
0.000102948	0	0	0
0.000103269	0	0	0
0.000103306	0	0	0
0.000104075	0	0	0
0.000104107	0	0	0
0.000104308	0	0	0
0.000104309	0	0	0
0.000104406	0	0	0
0.000104433	0	0	0
0.000104844	0	0	0
0.000105327	0	0	0
0.000106363	0	0	0
0.000106596	0	0	0
0.000106717	0	0	0
0.000107949	0	0	0
0.00010888	0	0	0
0.000108995	0	0	0
0.000109618	0	0	0
0.000110128	0	0	0
0.000110938	0	0	0
0.000111527	0	0	0
0.000111839	0	0	0
0.000112349	0	0	0
0.000112538	0	0	0
0.000113327	0	0	0
0.000116005	0	0	0
0.000116163	0	0	0
0.000116771	0	0	0
0.000116885	0	0	0
0.000117273	0	0	0
0.000117593	0	0	0
0.000118848	0	0	0
0.00011889	0	0	0
0.00011915	0	0	0
0.000119294	0	0	0
0.000119394	0	0	0
0.000120298	0	0	0
0.000121523	0	0	0
0.000122047	0	0	0
0.000122489	0	0	0
0.000122974	0	0	0
0.000123118	0	0	0
0.00012429	0	0	0
0.000124937	0	0	0
0.000125195	0	0	0
0.000125337	0	0	0
0.000125644	0	0	0
0.000126939	0	0	0
0.000127817	0	0	0
0.000129141	0	0	0
0.000129251	0	0	0
0.000130107	0	0	0
0.000130429	0	0	0
0.000130647	0	0	0
0.000131043	0	0	0
0.000131195	0	0	0
0.000131228	0	0	0
0.000133554	0	0	0
0.000133672	0	0	0
0.000134342	0	0	0
0.000135232	0	0	0
0.000136193	0	0	0
0.0001375	0	0	0
0.000138489	0	0	0
0.000138533	0	0	0
0.000138924	0	0	0
0.000139262	0	0	0
0.000139591	0	0	0
0.000139686	0	0	0
0.000139969	0	0	0
0.000140503	0	0	0
0.000140897	0	0	0
0.000141609	0	0	0
0.000142662	0	0	0
0.000144346	0	0	0
0.000144719	0	0	0
0.000145116	0	0	0
0.000145192	0	0	0
0.000147564	0	0	0
0.000147883	0	0	0
0.000148976	0	0	0
0.000149695	0	0	0
0.000150222	0	0	0
0.000150474	0	0	0
0.000150898	0	0	0
0.000152338	0	0	0
0.000154687	0	0	0
0.000155042	0	0	0
0.000155967	0	0	0
0.00015628	0	0	0
0.000156508	0	0	0
0.000158615	0	0	0
0.000159622	0	0	0
0.00016146	0	0	0
0.000161905	0	0	0
0.000161979	0	0	0
0.000162495	0	0	0
0.00016327	0	0	0
0.000163761	0	0	0
0.000164155	0	0	0
0.000164894	0	0	0
0.000165953	0	0	0
0.000168762	0	0	0
0.00016936	0	0	0
0.000170179	0	0	0
0.000170988	0	0	0
0.000172744	0	0	0
0.000175222	0	0	0
0.000176121	0	0	0
0.000176332	0	0	0
0.000177109	0	0	0
0.000177886	0	0	0
0.000179758	0	0	0
0.000180676	0	0	0
0.000181974	0	0	0
0.000182383	0	0	0
0.000184329	0	0	0
0.000184937	0	0	0
0.000185062	0	0	0
0.000185255	0	0	0
0.000187203	0	0	0
0.000187688	0	0	0
0.000188783	0	0	0
0.000188811	0	0	0
0.000189061	0	0	0
0.00019206	0	0	0
0.000194395	0	0	0
0.000195028	0	0	0
0.000195983	0	0	0
0.000196111	0	0	0
0.000196905	0	0	0
0.000197601	0	0	0
0.000197658	0	0	0
0.000197749	0	0	0
0.000198693	0	0	0
0.000198877	0	0	0
0.000199076	0	0	0
0.000200223	0	0	0
0.000201996	0	0	0
0.000202045	0	0	0
0.000202197	0	0	0
0.0002034	0	0	0
0.000203966	0	0	0
0.000205265	0	0	0
0.000207662	0	0	0
0.000208501	0	0	0
0.000209088	0	0	0
0.000209876	0	0	0
0.000210709	0	0	0
0.000212241	0	0	0
0.00021293	0	0	0
0.000213025	0	0	0
0.000214748	0	0	0
0.000215815	0	0	0
0.000216635	0	0	0
0.000216636	0	0	0
0.000216643	0	0	0
0.000217266	0	0	0
0.000217678	0	0	0
0.000218231	0	0	0
0.000218623	0	0	0
0.000219969	0	0	0
0.000220489	0	0	0
0.000220953	0	0	0
0.000223564	0	0	0
0.000225276	0	0	0
0.00022673	0	0	0
0.00022802	0	0	0
0.000228732	0	0	0
0.000228809	0	0	0
0.000230176	0	0	0
0.000234099	0	0	0
0.000234205	0	0	0
0.000234366	0	0	0
0.000234917	0	0	0
0.000235789	0	0	0
0.000237111	0	0	0
0.000240277	0	0	0
0.000240638	0	0	0
0.000241568	0	0	0
0.000244464	0	0	0
0.000245186	0	0	0
0.000246049	0	0	0
0.00024625	0	0	0
0.000246795	0	0	0
0.000248096	0	0	0
0.000249363	0	0	0
0.000249772	0	0	0
0.000250088	0	0	0
0.000250771	0	0	0
0.000251128	0	0	0
0.000252334	0	0	0
0.000253584	0	0	0
0.000254284	0	0	0
0.000255343	0	0	0
0.000255387	0	0	0
0.000256598	0	0	0
0.00025706	0	0	0
0.00025826	0	0	0
0.000263305	0	0	0
0.000265602	0	0	0
0.000267879	0	0	0
0.000269255	0	0	0
0.000269941	0	0	0
0.000270367	0	0	0
0.000272263	0	0	0
0.0002745	0	0	0
0.000277252	0	0	0
0.000277434	0	0	0
0.000278589	0	0	0
0.000281393	0	0	0
0.000282675	0	0	0
0.000282999	0	0	0
0.000283485	0	0	0
0.000285033	0	0	0
0.000286409	0	0	0
0.000286504	0	0	0
0.000289575	0	0	0
0.000290287	0	0	0
0.000293891	0	0	0
0.000294058	0	0	0
0.000294893	0	0	0
0.000299027	0	0	0
0.000299207	0	0	0
0.000301301	0	0	0
0.000301917	0	0	0
0.00030213	0	0	0
0.000304132	0	0	0
0.000304697	0	0	0
0.000312379	0	0	0
0.000312655	0	0	0
0.000312675	0	0	0
0.000312739	0	0	0
0.000314568	0	0	0
0.000315231	0	0	0
0.000317223	0	0	0
0.000317321	0	0	0
0.000317913	0	0	0
0.000318447	0	0	0
0.000319957	0	0	0
0.000320698	0	0	0
0.000321438	0	0	0
0.000321816	0	0	0
0.000323246	0	0	0
0.000324744	0	0	0
0.000325853	0	0	0
0.000326762	0	0	0
0.000328665	0	0	0
0.000333226	0	0	0
0.000336218	0	0	0
0.000336315	0	0	0
0.000336399	0	0	0
0.00033856	0	0	0
0.000340359	0	0	0
0.000341124	0	0	0
0.000341504	0	0	0
0.000344412	0	0	0
0.00034598	0	0	0
0.000346143	0	0	0
0.000347042	0	0	0
0.000348443	0	0	0
0.000352653	0	0	0
0.000353324	0	0	0
0.000354257	0	0	0
0.000363467	0	0	0
0.000363649	0	0	0
0.000363804	0	0	0
0.000365564	0	0	0
0.000368606	0	0	0
0.00036932	0	0	0
0.000376553	0	0	0
0.000379583	0	0	0
0.000379751	0	0	0
0.00038096	0	0	0
0.000381681	0	0	0
0.000382087	0	0	0
0.000384645	0	0	0
0.000387699	0	0	0
0.000388344	0	0	0
0.000390718	0	0	0
0.00039327	0	0	0
0.000395303	0	0	0
0.000396518	0	0	0
0.000396683	0	0	0
0.000400695	0	0	0
0.000407164	0	0	0
0.000409757	0	0	0
0.000417773	0	0	0
0.000419337	0	0	0
0.000421399	0	0	0
0.000433674	0	0	0
0.000437161	0	0	0
0.000448409	0	0	0
0.00045733	0	0	0
0.000459557	0	0	0
0.000464589	0	0	0
0.000471138	0	0	0
0.000472391	0	0	0
0.000474231	0	0	0
0.0004749	0	0	0
0.000475698	0	0	0
0.000476674	0	0	0
0.000479295	0	0	0
0.00048086	0	0	0
0.000482381	0	0	0
0.000483461	0	0	0
0.000490199	0	0	0
0.000504111	0	0	0
0.000508036	0	0	0
0.000515464	0	0	0
0.000516871	0	0	0
0.000519878	0	0	0
0.000529214	0	0	0
0.000530929	0	0	0
0.000532214	0	0	0
0.000533028	0	0	0
0.000534081	0	0	0
0.000537766	0	0	0
0.000538148	0	0	0
0.000545476	0	0	0
0.000546995	0	0	0
0.000555872	0	0	0
0.000569149	0	0	0
0.000573268	0	0	0
0.00057457	0	0	0
0.000595637	0	0	0
0.0005988	0	0	0
0.00060297	0	0	0
0.000609734	0	0	0
0.000618718	0	0	0
0.000655679	0	0	0
0.000657581	0	0	0
0.0006675	0	0	0
0.00068275	0	0	0
0.000682994	0	0	0
0.000690392	0	0	0
0.00069262	0	0	0
0.000703368	0	0	0
0.000713606	0	0	0
0.000714177	0	0	0
0.000725756	0	0	0
0.000726024	0	0	0
0.000752665	0	0	0
0.000757457	0	0	0
0.000800514	0	0	0
0.000802826	0	0	0
0.000812262	0	0	0
0.000816902	0	0	0
0.000819153	0	0	0
0.000840103	0	0	0
0.000866145	0	0	0
0.000888131	0	0	0
0.000909154	0	0	0
0.000923546	0	0	0
0.000925766	0	0	0
0.000951134	0	0	0
0.000951855	0	0	0
0.00096312	0	0	0
0.00100174	0	0	0
0.00103137	0	0	0
0.0010721	0	0	0
0.00108743	0	0	0
0.00110218	0	0	0
0.00117031	0	0	0
0.0012358	0	0	0
0.00131588	0	0	0
0.00153777	0	0	0
0.00154311	0	0	0
0.00163552	0	0	0
0.00191998	0	0	0
0.00270326	0	0	0
