1.90908e-08	0	0	0
6.89758e-08	0	0	0
8.50758e-08	0	0	0
1.73503e-07	0	0	0
2.27628e-07	0	0	0
7.82681e-07	0	0	0
9.50037e-07	0	0	0
1.22778e-06	0	0	0
1.32089e-06	0	0	0
1.41792e-06	0	0	0
1.4255e-06	0	0	0
1.50727e-06	0	0	0
1.58873e-06	0	0	0
1.9888e-06	0	0	0
2.06118e-06	0	0	0
2.13293e-06	0	0	0
2.51868e-06	0	0	0
2.55851e-06	0	0	0
2.62188e-06	0	0	0
2.84254e-06	0	0	0
2.92506e-06	0	0	0
3.14329e-06	0	0	0
3.32616e-06	0	0	0
3.38994e-06	0	0	0
3.5902e-06	0	0	0
3.60292e-06	0	0	0
3.81039e-06	0	0	0
3.9573e-06	0	0	0
3.97501e-06	0	0	0
4.07587e-06	0	0	0
4.10422e-06	0	0	0
4.1095e-06	0	0	0
4.44303e-06	0	0	0
4.63884e-06	0	0	0
4.8658e-06	0	0	0
4.89998e-06	0	0	0
4.93057e-06	0	0	0
5.17841e-06	0	0	0
5.77296e-06	0	0	0
6.01523e-06	0	0	0
6.07743e-06	0	0	0
6.5017e-06	0	0	0
6.59794e-06	0	0	0
6.62348e-06	0	0	0
6.74312e-06	0	0	0
6.85469e-06	0	0	0
7.09694e-06	0	0	0
7.15652e-06	0	0	0
7.19224e-06	0	0	0
7.43162e-06	0	0	0
7.50718e-06	0	0	0
7.60118e-06	0	0	0
7.627e-06	0	0	0
7.63949e-06	0	0	0
7.89969e-06	0	0	0
8.17927e-06	0	0	0
9.14339e-06	0	0	0
9.45896e-06	0	0	0
9.53539e-06	0	0	0
9.65451e-06	0	0	0
9.70942e-06	0	0	0
1.00577e-05	0	0	0
1.0078e-05	0	0	0
1.02954e-05	0	0	0
1.10101e-05	0	0	0
1.12571e-05	0	0	0
1.15057e-05	0	0	0
1.16383e-05	0	0	0
1.20926e-05	0	0	0
1.22287e-05	0	0	0
1.22289e-05	0	0	0
1.23204e-05	0	0	0
1.24891e-05	0	0	0
1.25869e-05	0	0	0
1.27133e-05	0	0	0
1.28615e-05	0	0	0
1.43304e-05	0	0	0
1.43783e-05	0	0	0
1.45221e-05	0	0	0
1.46584e-05	0	0	0
1.48427e-05	0	0	0
1.49028e-05	0	0	0
1.4937e-05	0	0	0
1.50567e-05	0	0	0
1.52787e-05	0	0	0
1.54532e-05	0	0	0
1.56372e-05	0	0	0
1.58449e-05	0	0	0
1.59123e-05	0	0	0
1.65076e-05	0	0	0
1.69367e-05	0	0	0
1.71573e-05	0	0	0
1.73081e-05	0	0	0
1.74521e-05	0	0	0
1.7968e-05	0	0	0
1.80394e-05	0	0	0
1.84113e-05	0	0	0
1.8772e-05	0	0	0
1.90875e-05	0	0	0
2.01684e-05	0	0	0
2.02925e-05	0	0	0
2.04343e-05	0	0	0
2.07303e-05	0	0	0
2.12915e-05	0	0	0
2.19191e-05	0	0	0
2.19344e-05	0	0	0
2.32114e-05	0	0	0
2.32929e-05	0	0	0
2.33877e-05	0	0	0
2.34029e-05	0	0	0
2.35652e-05	0	0	0
2.39945e-05	0	0	0
2.43014e-05	0	0	0
2.49439e-05	0	0	0
2.53258e-05	0	0	0
2.53597e-05	0	0	0
2.5412e-05	0	0	0
2.56536e-05	0	0	0
2.59258e-05	0	0	0
2.61824e-05	0	0	0
2.62072e-05	0	0	0
2.62552e-05	0	0	0
2.63669e-05	0	0	0
2.68667e-05	0	0	0
2.68977e-05	0	0	0
2.72132e-05	0	0	0
2.83388e-05	0	0	0
2.89306e-05	0	0	0
2.91943e-05	0	0	0
2.93205e-05	0	0	0
3.02269e-05	0	0	0
3.04924e-05	0	0	0
3.07764e-05	0	0	0
3.15786e-05	0	0	0
3.16104e-05	0	0	0
3.24195e-05	0	0	0
3.24407e-05	0	0	0
3.32095e-05	0	0	0
3.36672e-05	0	0	0
3.41423e-05	0	0	0
3.43871e-05	0	0	0
3.44085e-05	0	0	0
3.45145e-05	0	0	0
3.45791e-05	0	0	0
3.51553e-05	0	0	0
3.52247e-05	0	0	0
3.59394e-05	0	0	0
3.60975e-05	0	0	0
3.61374e-05	0	0	0
3.64707e-05	0	0	0
3.6637e-05	0	0	0
3.69482e-05	0	0	0
3.69638e-05	0	0	0
3.83198e-05	0	0	0
3.89981e-05	0	0	0
3.93334e-05	0	0	0
3.94658e-05	0	0	0
3.95441e-05	0	0	0
3.96671e-05	0	0	0
3.9816e-05	0	0	0
3.9824e-05	0	0	0
3.99665e-05	0	0	0
4.04125e-05	0	0	0
4.08582e-05	0	0	0
4.13711e-05	0	0	0
4.18827e-05	0	0	0
4.29797e-05	0	0	0
4.30742e-05	0	0	0
4.31206e-05	0	0	0
4.32068e-05	0	0	0
4.5239e-05	0	0	0
4.6524e-05	0	0	0
4.66509e-05	0	0	0
4.70057e-05	0	0	0
4.70564e-05	0	0	0
5.0015e-05	0	0	0
5.03732e-05	0	0	0
5.10411e-05	0	0	0
5.16294e-05	0	0	0
5.18271e-05	0	0	0
5.18439e-05	0	0	0
5.2464e-05	0	0	0
5.29298e-05	0	0	0
5.32822e-05	0	0	0
5.33178e-05	0	0	0
5.38342e-05	0	0	0
5.38359e-05	0	0	0
5.39995e-05	0	0	0
5.44478e-05	0	0	0
5.51483e-05	0	0	0
5.60848e-05	0	0	0
5.65302e-05	0	0	0
5.65746e-05	0	0	0
5.81076e-05	0	0	0
5.81565e-05	0	0	0
5.93198e-05	0	0	0
6.03105e-05	0	0	0
6.1171e-05	0	0	0
6.12096e-05	0	0	0
6.1323e-05	0	0	0
6.24238e-05	0	0	0
6.24814e-05	0	0	0
6.28401e-05	0	0	0
6.32919e-05	0	0	0
6.33035e-05	0	0	0
6.33857e-05	0	0	0
6.41423e-05	0	0	0
6.4287e-05	0	0	0
6.49841e-05	0	0	0
6.53448e-05	0	0	0
6.58012e-05	0	0	0
6.62208e-05	0	0	0
6.79252e-05	0	0	0
6.79626e-05	0	0	0
6.80369e-05	0	0	0
6.81343e-05	0	0	0
6.85197e-05	0	0	0
7.06628e-05	0	0	0
7.12171e-05	0	0	0
7.13814e-05	0	0	0
7.16001e-05	0	0	0
7.20567e-05	0	0	0
7.28588e-05	0	0	0
7.36805e-05	0	0	0
7.39672e-05	0	0	0
7.43155e-05	0	0	0
7.4896e-05	0	0	0
7.51832e-05	0	0	0
7.59717e-05	0	0	0
7.71736e-05	0	0	0
7.80424e-05	0	0	0
7.81017e-05	0	0	0
7.81202e-05	0	0	0
7.82991e-05	0	0	0
7.92193e-05	0	0	0
8.03916e-05	0	0	0
8.05296e-05	0	0	0
8.13355e-05	0	0	0
8.19513e-05	0	0	0
8.34363e-05	0	0	0
8.41555e-05	0	0	0
8.44252e-05	0	0	0
8.57424e-05	0	0	0
8.62541e-05	0	0	0
8.64323e-05	0	0	0
8.69444e-05	0	0	0
8.70081e-05	0	0	0
8.74744e-05	0	0	0
8.8638e-05	0	0	0
8.87879e-05	0	0	0
8.91729e-05	0	0	0
8.94027e-05	0	0	0
8.9516e-05	0	0	0
8.95554e-05	0	0	0
9.05012e-05	0	0	0
9.05571e-05	0	0	0
9.12969e-05	0	0	0
9.29367e-05	0	0	0
9.34684e-05	0	0	0
9.34898e-05	0	0	0
9.40078e-05	0	0	0
9.52021e-05	0	0	0
9.57058e-05	0	0	0
9.57808e-05	0	0	0
9.66913e-05	0	0	0
9.84871e-05	0	0	0
9.89742e-05	0	0	0
9.97235e-05	0	0	0
0.000100154	0	0	0
0.000100516	0	0	0
0.000100976	0	0	0
0.000101537	0	0	0
0.000102357	0	0	0
0.000105081	0	0	0
0.000106142	0	0	0
0.000106702	0	0	0
0.000107709	0	0	0
0.000110689	0	0	0
0.000112468	0	0	0
0.000112759	0	0	0
0.000113536	0	0	0
0.000113559	0	0	0
0.000114512	0	0	0
0.000114823	0	0	0
0.000116264	0	0	0
0.000116677	0	0	0
0.000116744	0	0	0
0.000117574	0	0	0
0.00011874	0	0	0
0.000119659	0	0	0
0.000121197	0	0	0
0.000122237	0	0	0
0.000124466	0	0	0
0.000124506	0	0	0
0.00012534	0	0	0
0.000125367	0	0	0
0.000125585	0	0	0
0.000126965	0	0	0
0.000127354	0	0	0
0.000130473	0	0	0
0.000131536	0	0	0
0.000132614	0	0	0
0.000132976	0	0	0
0.000133447	0	0	0
0.000135189	0	0	0
0.000135608	0	0	0
0.000135612	0	0	0
0.0001398	0	0	0
0.000140271	0	0	0
0.000140761	0	0	0
0.000144783	0	0	0
0.000150783	0	0	0
0.000150961	0	0	0
0.000153627	0	0	0
0.000154708	0	0	0
0.000156085	0	0	0
0.000156486	0	0	0
0.000158545	0	0	0
0.000159435	0	0	0
0.000159605	0	0	0
0.000160926	0	0	0
0.000162942	0	0	0
0.000164313	0	0	0
0.000164628	0	0	0
0.000164753	0	0	0
0.000164781	0	0	0
0.000165231	0	0	0
0.000166521	0	0	0
0.000166806	0	0	0
0.000167509	0	0	0
0.00016766	0	0	0
0.000167885	0	0	0
0.000168331	0	0	0
0.00016873	0	0	0
0.000171396	0	0	0
0.000172894	0	0	0
0.000177131	0	0	0
0.00017833	0	0	0
0.000182446	0	0	0
0.000182492	0	0	0
0.000184198	0	0	0
0.00018672	0	0	0
0.00018911	0	0	0
0.000191953	0	0	0
0.000192513	0	0	0
0.000193473	0	0	0
0.000193726	0	0	0
0.000194245	0	0	0
0.00019446	0	0	0
0.000195386	0	0	0
0.000195979	0	0	0
0.000196788	0	0	0
0.000197698	0	0	0
0.000201679	0	0	0
0.000202161	0	0	0
0.000203799	0	0	0
0.000206511	0	0	0
0.000206591	0	0	0
0.000208269	0	0	0
0.000210997	0	0	0
0.000214276	0	0	0
0.000215028	0	0	0
0.000217539	0	0	0
0.00021924	0	0	0
0.000221087	0	0	0
0.000221163	0	0	0
0.000223604	0	0	0
0.00022549	0	0	0
0.000226231	0	0	0
0.000227686	0	0	0
0.000229208	0	0	0
0.000230131	0	0	0
0.000231938	0	0	0
0.000233144	0	0	0
0.000234807	0	0	0
0.000235437	0	0	0
0.0002373	0	0	0
0.000237441	0	0	0
0.000237959	0	0	0
0.000240528	0	0	0
0.000241705	0	0	0
0.000242678	0	0	0
0.000244809	0	0	0
0.000247483	0	0	0
0.000250313	0	0	0
0.000253811	0	0	0
0.000256412	0	0	0
0.000261186	0	0	0
0.000264957	0	0	0
0.000268371	0	0	0
0.00027004	0	0	0
0.000270235	0	0	0
0.000271827	0	0	0
0.000272008	0	0	0
0.000273326	0	0	0
0.000275968	0	0	0
0.000276338	0	0	0
0.000277204	0	0	0
0.000277685	0	0	0
0.000278624	0	0	0
0.000278633	0	0	0
0.000281465	0	0	0
0.000286906	0	0	0
0.000288458	0	0	0
0.000291508	0	0	0
0.000293507	0	0	0
0.000293791	0	0	0
0.000298205	0	0	0
0.000298482	0	0	0
0.000299552	0	0	0
0.000299813	0	0	0
0.000301856	0	0	0
0.00030253	0	0	0
0.000303745	0	0	0
0.000303812	0	0	0
0.00031044	0	0	0
0.000313113	0	0	0
0.000322649	0	0	0
0.000322977	0	0	0
0.000324156	0	0	0
0.000324378	0	0	0
0.00032449	0	0	0
0.000328437	0	0	0
0.000334517	0	0	0
0.000335605	0	0	0
0.000339345	0	0	0
0.000340785	0	0	0
0.000341251	0	0	0
0.000342367	0	0	0
0.000349807	0	0	0
0.000350451	0	0	0
0.000351909	0	0	0
0.000352178	0	0	0
0.0003529	0	0	0
0.000355696	0	0	0
0.000356685	0	0	0
0.000358215	0	0	0
0.000363034	0	0	0
0.000364028	0	0	0
0.00036454	0	0	0
0.000370843	0	0	0
0.000375981	0	0	0
0.00037622	0	0	0
0.000377722	0	0	0
0.000380806	0	0	0
0.000382921	0	0	0
0.000383724	0	0	0
0.000384162	0	0	0
0.000389136	0	0	0
0.000394719	0	0	0
0.00039936	0	0	0
0.000400639	0	0	0
0.000408331	0	0	0
0.000408422	0	0	0
0.000408447	0	0	0
0.000409343	0	0	0
0.000417747	0	0	0
0.000418537	0	0	0
0.000431748	0	0	0
0.000435556	0	0	0
0.000435642	0	0	0
0.000448545	0	0	0
0.000452165	0	0	0
0.000453167	0	0	0
0.000459707	0	0	0
0.00046403	0	0	0
0.000464243	0	0	0
0.000465627	0	0	0
0.000478311	0	0	0
0.000495204	0	0	0
0.000495993	0	0	0
0.000498175	0	0	0
0.000502831	0	0	0
0.00050602	0	0	0
0.000514361	0	0	0
0.000520151	0	0	0
0.000521937	0	0	0
0.000522901	0	0	0
0.00053429	0	0	0
0.000538409	0	0	0
0.000540888	0	0	0
0.000542341	0	0	0
0.000543619	0	0	0
0.000545713	0	0	0
0.000545929	0	0	0
0.000553513	0	0	0
0.000554956	0	0	0
0.000556841	0	0	0
0.000560001	0	0	0
0.000569388	0	0	0
0.000581016	0	0	0
0.000584752	0	0	0
0.000592139	0	0	0
0.000600571	0	0	0
0.000602489	0	0	0
0.000610761	0	0	0
0.000611311	0	0	0
0.00062296	0	0	0
0.00062305	0	0	0
0.000626756	0	0	0
0.000630642	0	0	0
0.000639226	0	0	0
0.000653434	0	0	0
0.000653471	0	0	0
0.000662814	0	0	0
0.000668835	0	0	0
0.000671043	0	0	0
0.000679057	0	0	0
0.000679962	0	0	0
0.000681622	0	0	0
0.000691641	0	0	0
0.000698663	0	0	0
0.00073443	0	0	0
0.000736633	0	0	0
0.000748891	0	0	0
0.000763756	0	0	0
0.000824644	0	0	0
0.000827834	0	0	0
0.000840305	0	0	0
0.000851992	0	0	0
0.000852391	0	0	0
0.000881624	0	0	0
0.000890637	0	0	0
0.000900378	0	0	0
0.00093361	0	0	0
0.00106097	0	0	0
0.00108222	0	0	0
0.00112512	0	0	0
0.00113446	0	0	0
0.00114282	0	0	0
0.00114491	0	0	0
0.00126185	0	0	0
0.00140103	0	0	0
0.00145495	0	0	0
0.00156893	0	0	0
0.00176557	0	0	0
0.00176842	0	0	0
0.0022377	0	0	0
0.00364418	0	0	0
