7.85754e-08	0	0	0
8.95208e-08	0	0	0
1.42465e-07	0	0	0
2.81057e-07	0	0	0
7.91957e-07	0	0	0
1.0374e-06	0	0	0
1.08789e-06	0	0	0
1.19173e-06	0	0	0
1.37775e-06	0	0	0
1.44212e-06	0	0	0
1.47287e-06	0	0	0
1.7353e-06	0	0	0
1.84557e-06	0	0	0
1.97239e-06	0	0	0
2.41476e-06	0	0	0
2.42741e-06	0	0	0
2.42953e-06	0	0	0
2.50851e-06	0	0	0
2.51635e-06	0	0	0
2.55096e-06	0	0	0
2.71852e-06	0	0	0
2.72232e-06	0	0	0
2.94924e-06	0	0	0
3.09104e-06	0	0	0
3.29817e-06	0	0	0
3.34511e-06	0	0	0
3.43614e-06	0	0	0
3.50271e-06	0	0	0
3.63735e-06	0	0	0
3.73983e-06	0	0	0
3.77502e-06	0	0	0
3.9602e-06	0	0	0
4.07265e-06	0	0	0
4.31242e-06	0	0	0
4.48683e-06	0	0	0
4.57667e-06	0	0	0
4.66102e-06	0	0	0
4.80041e-06	0	0	0
5.11898e-06	0	0	0
5.15782e-06	0	0	0
5.55394e-06	0	0	0
5.71026e-06	0	0	0
5.74289e-06	0	0	0
5.75846e-06	0	0	0
5.77102e-06	0	0	0
5.93945e-06	0	0	0
6.03291e-06	0	0	0
6.10221e-06	0	0	0
6.30571e-06	0	0	0
6.31608e-06	0	0	0
6.44459e-06	0	0	0
6.60416e-06	0	0	0
6.73689e-06	0	0	0
6.9219e-06	0	0	0
6.96812e-06	0	0	0
7.14882e-06	0	0	0
7.2677e-06	0	0	0
7.34357e-06	0	0	0
7.44851e-06	0	0	0
7.62356e-06	0	0	0
7.73211e-06	0	0	0
7.73566e-06	0	0	0
7.75059e-06	0	0	0
7.97082e-06	0	0	0
8.06174e-06	0	0	0
8.1044e-06	0	0	0
8.23442e-06	0	0	0
8.52228e-06	0	0	0
9.11849e-06	0	0	0
9.23104e-06	0	0	0
9.28767e-06	0	0	0
9.32399e-06	0	0	0
9.51426e-06	0	0	0
9.62559e-06	0	0	0
9.62799e-06	0	0	0
9.63906e-06	0	0	0
9.79916e-06	0	0	0
9.99144e-06	0	0	0
1.00951e-05	0	0	0
1.01825e-05	0	0	0
1.03171e-05	0	0	0
1.03935e-05	0	0	0
1.05092e-05	0	0	0
1.05273e-05	0	0	0
1.06466e-05	0	0	0
1.10746e-05	0	0	0
1.1469e-05	0	0	0
1.14783e-05	0	0	0
1.14792e-05	0	0	0
1.15091e-05	0	0	0
1.16932e-05	0	0	0
1.17328e-05	0	0	0
1.17578e-05	0	0	0
1.19844e-05	0	0	0
1.20234e-05	0	0	0
1.21829e-05	0	0	0
1.22527e-05	0	0	0
1.27653e-05	0	0	0
1.28777e-05	0	0	0
1.31606e-05	0	0	0
1.31721e-05	0	0	0
1.31817e-05	0	0	0
1.34742e-05	0	0	0
1.35388e-05	0	0	0
1.35991e-05	0	0	0
1.3621e-05	0	0	0
1.37284e-05	0	0	0
1.37488e-05	0	0	0
1.40253e-05	0	0	0
1.40535e-05	0	0	0
1.41441e-05	0	0	0
1.46203e-05	0	0	0
1.47311e-05	0	0	0
1.50065e-05	0	0	0
1.51446e-05	0	0	0
1.53506e-05	0	0	0
1.54201e-05	0	0	0
1.54376e-05	0	0	0
1.5661e-05	0	0	0
1.56831e-05	0	0	0
1.63611e-05	0	0	0
1.6423e-05	0	0	0
1.65205e-05	0	0	0
1.6694e-05	0	0	0
1.67761e-05	0	0	0
1.68721e-05	0	0	0
1.70477e-05	0	0	0
1.73141e-05	0	0	0
1.73954e-05	0	0	0
1.75485e-05	0	0	0
1.81162e-05	0	0	0
1.81442e-05	0	0	0
1.8479e-05	0	0	0
1.86423e-05	0	0	0
1.86604e-05	0	0	0
1.88587e-05	0	0	0
1.90171e-05	0	0	0
1.90993e-05	0	0	0
1.93871e-05	0	0	0
1.9467e-05	0	0	0
1.96557e-05	0	0	0
1.97014e-05	0	0	0
2.00052e-05	0	0	0
2.00257e-05	0	0	0
2.03284e-05	0	0	0
2.07394e-05	0	0	0
2.08225e-05	0	0	0
2.09103e-05	0	0	0
2.16347e-05	0	0	0
2.17236e-05	0	0	0
2.18385e-05	0	0	0
2.19161e-05	0	0	0
2.21106e-05	0	0	0
2.25186e-05	0	0	0
2.29777e-05	0	0	0
2.31457e-05	0	0	0
2.31735e-05	0	0	0
2.3228e-05	0	0	0
2.33356e-05	0	0	0
2.33735e-05	0	0	0
2.37506e-05	0	0	0
2.39157e-05	0	0	0
2.40164e-05	0	0	0
2.44148e-05	0	0	0
2.45015e-05	0	0	0
2.46148e-05	0	0	0
2.48294e-05	0	0	0
2.50628e-05	0	0	0
2.52393e-05	0	0	0
2.53833e-05	0	0	0
2.53986e-05	0	0	0
2.56034e-05	0	0	0
2.57006e-05	0	0	0
2.57288e-05	0	0	0
2.58186e-05	0	0	0
2.60375e-05	0	0	0
2.61033e-05	0	0	0
2.62927e-05	0	0	0
2.63604e-05	0	0	0
2.67643e-05	0	0	0
2.69502e-05	0	0	0
2.7302e-05	0	0	0
2.73343e-05	0	0	0
2.78578e-05	0	0	0
2.79859e-05	0	0	0
2.81947e-05	0	0	0
2.85014e-05	0	0	0
2.85861e-05	0	0	0
2.86796e-05	0	0	0
2.87832e-05	0	0	0
2.88631e-05	0	0	0
2.90409e-05	0	0	0
2.91362e-05	0	0	0
2.91991e-05	0	0	0
3.00483e-05	0	0	0
3.00709e-05	0	0	0
3.02662e-05	0	0	0
3.0513e-05	0	0	0
3.05901e-05	0	0	0
3.0658e-05	0	0	0
3.10576e-05	0	0	0
3.10747e-05	0	0	0
3.14882e-05	0	0	0
3.17248e-05	0	0	0
3.20995e-05	0	0	0
3.23618e-05	0	0	0
3.23821e-05	0	0	0
3.24554e-05	0	0	0
3.2458e-05	0	0	0
3.25554e-05	0	0	0
3.25742e-05	0	0	0
3.26887e-05	0	0	0
3.27125e-05	0	0	0
3.28383e-05	0	0	0
3.30004e-05	0	0	0
3.31973e-05	0	0	0
3.35565e-05	0	0	0
3.37977e-05	0	0	0
3.38526e-05	0	0	0
3.39917e-05	0	0	0
3.50527e-05	0	0	0
3.51234e-05	0	0	0
3.54218e-05	0	0	0
3.58193e-05	0	0	0
3.63318e-05	0	0	0
3.65899e-05	0	0	0
3.68844e-05	0	0	0
3.69949e-05	0	0	0
3.71075e-05	0	0	0
3.74157e-05	0	0	0
3.7506e-05	0	0	0
3.76887e-05	0	0	0
3.77988e-05	0	0	0
3.78079e-05	0	0	0
3.79151e-05	0	0	0
3.79693e-05	0	0	0
3.81058e-05	0	0	0
3.84626e-05	0	0	0
3.90365e-05	0	0	0
3.98151e-05	0	0	0
4.01147e-05	0	0	0
4.0393e-05	0	0	0
4.04913e-05	0	0	0
4.06514e-05	0	0	0
4.06532e-05	0	0	0
4.06577e-05	0	0	0
4.19326e-05	0	0	0
4.28185e-05	0	0	0
4.3091e-05	0	0	0
4.31678e-05	0	0	0
4.31755e-05	0	0	0
4.32899e-05	0	0	0
4.34578e-05	0	0	0
4.3774e-05	0	0	0
4.40157e-05	0	0	0
4.4048e-05	0	0	0
4.41823e-05	0	0	0
4.43046e-05	0	0	0
4.43664e-05	0	0	0
4.4419e-05	0	0	0
4.46576e-05	0	0	0
4.47096e-05	0	0	0
4.53456e-05	0	0	0
4.54556e-05	0	0	0
4.55141e-05	0	0	0
4.55922e-05	0	0	0
4.57793e-05	0	0	0
4.5873e-05	0	0	0
4.58902e-05	0	0	0
4.65297e-05	0	0	0
4.66861e-05	0	0	0
4.69001e-05	0	0	0
4.74591e-05	0	0	0
4.75951e-05	0	0	0
4.76134e-05	0	0	0
4.78962e-05	0	0	0
4.80869e-05	0	0	0
4.82166e-05	0	0	0
4.89534e-05	0	0	0
4.90417e-05	0	0	0
4.90595e-05	0	0	0
4.92806e-05	0	0	0
4.93276e-05	0	0	0
4.95195e-05	0	0	0
4.96707e-05	0	0	0
4.96814e-05	0	0	0
4.98972e-05	0	0	0
5.00612e-05	0	0	0
5.04439e-05	0	0	0
5.05144e-05	0	0	0
5.05498e-05	0	0	0
5.05775e-05	0	0	0
5.06984e-05	0	0	0
5.07273e-05	0	0	0
5.07361e-05	0	0	0
5.09382e-05	0	0	0
5.10544e-05	0	0	0
5.11329e-05	0	0	0
5.14224e-05	0	0	0
5.19759e-05	0	0	0
5.2113e-05	0	0	0
5.21322e-05	0	0	0
5.23769e-05	0	0	0
5.29117e-05	0	0	0
5.30798e-05	0	0	0
5.34845e-05	0	0	0
5.40393e-05	0	0	0
5.4117e-05	0	0	0
5.41711e-05	0	0	0
5.42136e-05	0	0	0
5.42903e-05	0	0	0
5.44487e-05	0	0	0
5.52985e-05	0	0	0
5.54594e-05	0	0	0
5.60645e-05	0	0	0
5.62531e-05	0	0	0
5.69467e-05	0	0	0
5.70872e-05	0	0	0
5.74091e-05	0	0	0
5.79482e-05	0	0	0
5.8116e-05	0	0	0
5.84969e-05	0	0	0
5.90938e-05	0	0	0
5.91917e-05	0	0	0
5.92779e-05	0	0	0
5.9615e-05	0	0	0
5.9638e-05	0	0	0
5.98999e-05	0	0	0
6.03405e-05	0	0	0
6.03615e-05	0	0	0
6.03944e-05	0	0	0
6.05508e-05	0	0	0
6.14351e-05	0	0	0
6.16541e-05	0	0	0
6.20829e-05	0	0	0
6.21706e-05	0	0	0
6.25208e-05	0	0	0
6.35652e-05	0	0	0
6.36883e-05	0	0	0
6.38117e-05	0	0	0
6.41485e-05	0	0	0
6.42691e-05	0	0	0
6.43759e-05	0	0	0
6.4406e-05	0	0	0
6.45677e-05	0	0	0
6.47385e-05	0	0	0
6.4999e-05	0	0	0
6.54696e-05	0	0	0
6.55994e-05	0	0	0
6.62306e-05	0	0	0
6.65694e-05	0	0	0
6.66108e-05	0	0	0
6.74681e-05	0	0	0
6.75934e-05	0	0	0
6.76222e-05	0	0	0
6.78928e-05	0	0	0
6.88641e-05	0	0	0
6.94818e-05	0	0	0
6.97163e-05	0	0	0
7.00408e-05	0	0	0
7.01787e-05	0	0	0
7.04654e-05	0	0	0
7.05826e-05	0	0	0
7.06699e-05	0	0	0
7.10075e-05	0	0	0
7.16218e-05	0	0	0
7.19681e-05	0	0	0
7.24839e-05	0	0	0
7.25707e-05	0	0	0
7.2638e-05	0	0	0
7.29764e-05	0	0	0
7.30898e-05	0	0	0
7.33089e-05	0	0	0
7.33412e-05	0	0	0
7.34171e-05	0	0	0
7.40601e-05	0	0	0
7.41559e-05	0	0	0
7.4383e-05	0	0	0
7.48267e-05	0	0	0
7.48342e-05	0	0	0
7.49992e-05	0	0	0
7.57454e-05	0	0	0
7.58275e-05	0	0	0
7.70596e-05	0	0	0
7.71768e-05	0	0	0
7.7325e-05	0	0	0
7.7637e-05	0	0	0
7.78347e-05	0	0	0
7.89795e-05	0	0	0
7.92165e-05	0	0	0
7.95069e-05	0	0	0
7.99111e-05	0	0	0
8.04283e-05	0	0	0
8.16377e-05	0	0	0
8.18219e-05	0	0	0
8.19618e-05	0	0	0
8.20703e-05	0	0	0
8.2772e-05	0	0	0
8.29511e-05	0	0	0
8.32635e-05	0	0	0
8.33023e-05	0	0	0
8.36557e-05	0	0	0
8.37364e-05	0	0	0
8.37469e-05	0	0	0
8.4215e-05	0	0	0
8.42501e-05	0	0	0
8.43808e-05	0	0	0
8.48615e-05	0	0	0
8.498e-05	0	0	0
8.61424e-05	0	0	0
8.6173e-05	0	0	0
8.65419e-05	0	0	0
8.69305e-05	0	0	0
8.70385e-05	0	0	0
8.82404e-05	0	0	0
8.86001e-05	0	0	0
8.87813e-05	0	0	0
8.89074e-05	0	0	0
8.96689e-05	0	0	0
8.97715e-05	0	0	0
8.98575e-05	0	0	0
8.98847e-05	0	0	0
9.09594e-05	0	0	0
9.11792e-05	0	0	0
9.12867e-05	0	0	0
9.22538e-05	0	0	0
9.25766e-05	0	0	0
9.26034e-05	0	0	0
9.35409e-05	0	0	0
9.36771e-05	0	0	0
9.43039e-05	0	0	0
9.47716e-05	0	0	0
9.51342e-05	0	0	0
9.52602e-05	0	0	0
9.63291e-05	0	0	0
9.68823e-05	0	0	0
9.70273e-05	0	0	0
9.72641e-05	0	0	0
9.76835e-05	0	0	0
9.80654e-05	0	0	0
9.83712e-05	0	0	0
9.90828e-05	0	0	0
9.97998e-05	0	0	0
0.000100318	0	0	0
0.000100558	0	0	0
0.00010064	0	0	0
0.000100726	0	0	0
0.000100807	0	0	0
0.000102144	0	0	0
0.000102459	0	0	0
0.000103713	0	0	0
0.000104371	0	0	0
0.000104821	0	0	0
0.00010529	0	0	0
0.000105346	0	0	0
0.000105483	0	0	0
0.000105731	0	0	0
0.000106163	0	0	0
0.00010892	0	0	0
0.00010913	0	0	0
0.000109808	0	0	0
0.000109862	0	0	0
0.00011018	0	0	0
0.000110317	0	0	0
0.000110627	0	0	0
0.000112439	0	0	0
0.000112525	0	0	0
0.000112828	0	0	0
0.000113024	0	0	0
0.000113506	0	0	0
0.000114247	0	0	0
0.000114511	0	0	0
0.00011581	0	0	0
0.000115963	0	0	0
0.000116687	0	0	0
0.000117453	0	0	0
0.000117467	0	0	0
0.000119052	0	0	0
0.000119076	0	0	0
0.000120982	0	0	0
0.000121445	0	0	0
0.000121733	0	0	0
0.000121909	0	0	0
0.000122888	0	0	0
0.000123149	0	0	0
0.000123203	0	0	0
0.000123478	0	0	0
0.000124034	0	0	0
0.000124526	0	0	0
0.000125076	0	0	0
0.00012741	0	0	0
0.000127528	0	0	0
0.000128656	0	0	0
0.000128843	0	0	0
0.000129035	0	0	0
0.000129707	0	0	0
0.000129976	0	0	0
0.000130043	0	0	0
0.000130135	0	0	0
0.000130593	0	0	0
0.000131152	0	0	0
0.000132894	0	0	0
0.000133035	0	0	0
0.000133475	0	0	0
0.00013414	0	0	0
0.000137632	0	0	0
0.000138344	0	0	0
0.000139461	0	0	0
0.000139879	0	0	0
0.000140337	0	0	0
0.000140534	0	0	0
0.000140631	0	0	0
0.000142294	0	0	0
0.000142612	0	0	0
0.000144359	0	0	0
0.000145433	0	0	0
0.000145666	0	0	0
0.000145866	0	0	0
0.000147206	0	0	0
0.000147236	0	0	0
0.000147698	0	0	0
0.000148356	0	0	0
0.000148551	0	0	0
0.000148843	0	0	0
0.000148956	0	0	0
0.000149926	0	0	0
0.000150465	0	0	0
0.000150698	0	0	0
0.0001508	0	0	0
0.000152155	0	0	0
0.000152379	0	0	0
0.000154909	0	0	0
0.000155202	0	0	0
0.000155518	0	0	0
0.000155919	0	0	0
0.000155942	0	0	0
0.000156091	0	0	0
0.000156221	0	0	0
0.000157157	0	0	0
0.000157835	0	0	0
0.000158388	0	0	0
0.000158609	0	0	0
0.000160185	0	0	0
0.000161974	0	0	0
0.000163313	0	0	0
0.000163743	0	0	0
0.000165018	0	0	0
0.000165863	0	0	0
0.000165952	0	0	0
0.000167911	0	0	0
0.000168145	0	0	0
0.000169138	0	0	0
0.000169401	0	0	0
0.00017079	0	0	0
0.000171305	0	0	0
0.000172423	0	0	0
0.000172586	0	0	0
0.000174416	0	0	0
0.000176668	0	0	0
0.000178488	0	0	0
0.000178769	0	0	0
0.000180199	0	0	0
0.00018395	0	0	0
0.00018686	0	0	0
0.000186927	0	0	0
0.000187442	0	0	0
0.000187445	0	0	0
0.000187705	0	0	0
0.000187974	0	0	0
0.000188868	0	0	0
0.000189737	0	0	0
0.000190284	0	0	0
0.000192947	0	0	0
0.000194999	0	0	0
0.000196276	0	0	0
0.000197078	0	0	0
0.000199176	0	0	0
0.000200852	0	0	0
0.000201779	0	0	0
0.000202918	0	0	0
0.000204648	0	0	0
0.000205546	0	0	0
0.000206669	0	0	0
0.000208077	0	0	0
0.000208549	0	0	0
0.000210187	0	0	0
0.000210235	0	0	0
0.000214332	0	0	0
0.00021474	0	0	0
0.000215515	0	0	0
0.000216635	0	0	0
0.000217233	0	0	0
0.000222937	0	0	0
0.000223873	0	0	0
0.000224331	0	0	0
0.000224877	0	0	0
0.000225111	0	0	0
0.00022681	0	0	0
0.000228429	0	0	0
0.000228973	0	0	0
0.0002294	0	0	0
0.000233128	0	0	0
0.000233426	0	0	0
0.000233531	0	0	0
0.000234063	0	0	0
0.000234217	0	0	0
0.000236091	0	0	0
0.000236272	0	0	0
0.000236855	0	0	0
0.000240908	0	0	0
0.000241036	0	0	0
0.000242064	0	0	0
0.000242607	0	0	0
0.000243035	0	0	0
0.000248721	0	0	0
0.000250344	0	0	0
0.000253903	0	0	0
0.000254011	0	0	0
0.000254362	0	0	0
0.000254823	0	0	0
0.000255773	0	0	0
0.000257597	0	0	0
0.00025889	0	0	0
0.000260025	0	0	0
0.000261192	0	0	0
0.000261227	0	0	0
0.000261975	0	0	0
0.000269673	0	0	0
0.00027104	0	0	0
0.000273352	0	0	0
0.000273819	0	0	0
0.000276248	0	0	0
0.00027699	0	0	0
0.00028171	0	0	0
0.000282464	0	0	0
0.000284251	0	0	0
0.000285133	0	0	0
0.000287406	0	0	0
0.000287957	0	0	0
0.000288392	0	0	0
0.000289163	0	0	0
0.000296102	0	0	0
0.000297206	0	0	0
0.000298143	0	0	0
0.000302252	0	0	0
0.000304592	0	0	0
0.000307657	0	0	0
0.000308995	0	0	0
0.000309719	0	0	0
0.000311581	0	0	0
0.000312638	0	0	0
0.000313468	0	0	0
0.000313536	0	0	0
0.000317209	0	0	0
0.000317885	0	0	0
0.000321789	0	0	0
0.000322559	0	0	0
0.000322628	0	0	0
0.00032345	0	0	0
0.000326764	0	0	0
0.000327333	0	0	0
0.000327519	0	0	0
0.000328087	0	0	0
0.000328829	0	0	0
0.000330153	0	0	0
0.000332191	0	0	0
0.000332768	0	0	0
0.000333076	0	0	0
0.000335225	0	0	0
0.000337206	0	0	0
0.000337621	0	0	0
0.000342142	0	0	0
0.000343656	0	0	0
0.000344099	0	0	0
0.000344417	0	0	0
0.000344872	0	0	0
0.000345184	0	0	0
0.000345682	0	0	0
0.00034652	0	0	0
0.000358848	0	0	0
0.0003612	0	0	0
0.000362326	0	0	0
0.000369046	0	0	0
0.000370076	0	0	0
0.000370323	0	0	0
0.00037252	0	0	0
0.000372658	0	0	0
0.000375407	0	0	0
0.000376227	0	0	0
0.000376913	0	0	0
0.0003795	0	0	0
0.00038061	0	0	0
0.000385502	0	0	0
0.000385664	0	0	0
0.000388739	0	0	0
0.000389781	0	0	0
0.000389903	0	0	0
0.000389946	0	0	0
0.000392919	0	0	0
0.000394383	0	0	0
0.000394472	0	0	0
0.000394717	0	0	0
0.000396392	0	0	0
0.000399063	0	0	0
0.000400252	0	0	0
0.000404154	0	0	0
0.000406323	0	0	0
0.000407511	0	0	0
0.000412257	0	0	0
0.000415107	0	0	0
0.000415216	0	0	0
0.000416243	0	0	0
0.000416571	0	0	0
0.000417028	0	0	0
0.000429307	0	0	0
0.000429443	0	0	0
0.000432654	0	0	0
0.000437461	0	0	0
0.00043881	0	0	0
0.000445105	0	0	0
0.000448415	0	0	0
0.000450393	0	0	0
0.000458069	0	0	0
0.000459905	0	0	0
0.00046016	0	0	0
0.000463551	0	0	0
0.000465395	0	0	0
0.000465424	0	0	0
0.000469118	0	0	0
0.000472842	0	0	0
0.000478522	0	0	0
0.000481411	0	0	0
0.000482517	0	0	0
0.00048688	0	0	0
0.000490288	0	0	0
0.000494778	0	0	0
0.00050483	0	0	0
0.000508899	0	0	0
0.000509259	0	0	0
0.000510568	0	0	0
0.000520259	0	0	0
0.000525764	0	0	0
0.000538261	0	0	0
0.000538366	0	0	0
0.000542656	0	0	0
0.000543048	0	0	0
0.000543982	0	0	0
0.000544231	0	0	0
0.000549259	0	0	0
0.000555166	0	0	0
0.000555297	0	0	0
0.000556048	0	0	0
0.000558532	0	0	0
0.000562415	0	0	0
0.000564258	0	0	0
0.000565604	0	0	0
0.000570213	0	0	0
0.000578697	0	0	0
0.000585159	0	0	0
0.000588143	0	0	0
0.000591119	0	0	0
0.000593484	0	0	0
0.000594375	0	0	0
0.000601348	0	0	0
0.000610273	0	0	0
0.000613598	0	0	0
0.000615638	0	0	0
0.000620692	0	0	0
0.00062182	0	0	0
0.000623814	0	0	0
0.000628519	0	0	0
0.000648021	0	0	0
0.000655551	0	0	0
0.000661597	0	0	0
0.000662885	0	0	0
0.000666776	0	0	0
0.000667066	0	0	0
0.000672583	0	0	0
0.00068433	0	0	0
0.000697935	0	0	0
0.000702692	0	0	0
0.000706774	0	0	0
0.000709141	0	0	0
0.000710507	0	0	0
0.000744936	0	0	0
0.000750542	0	0	0
0.000750891	0	0	0
0.00076091	0	0	0
0.000765709	0	0	0
0.000766781	0	0	0
0.000769444	0	0	0
0.000780796	0	0	0
0.000790434	0	0	0
0.000809907	0	0	0
0.000813597	0	0	0
0.000821874	0	0	0
0.000886138	0	0	0
0.000905269	0	0	0
0.000907921	0	0	0
0.000910402	0	0	0
0.000914949	0	0	0
0.000939484	0	0	0
0.000958615	0	0	0
0.000961786	0	0	0
0.000989668	0	0	0
0.000999553	0	0	0
0.00102444	0	0	0
0.0010276	0	0	0
0.0010525	0	0	0
0.00109699	0	0	0
0.00110293	0	0	0
0.00110755	0	0	0
0.00113073	0	0	0
0.00119707	0	0	0
0.00121493	0	0	0
0.00126744	0	0	0
0.00127268	0	0	0
0.00127899	0	0	0
0.00129001	0	0	0
0.00132759	0	0	0
0.00132792	0	0	0
0.00145319	0	0	0
