2.99126e-08	0	0	0
1.40832e-07	0	0	0
7.43275e-07	0	0	0
8.76042e-07	0	0	0
9.14801e-07	0	0	0
1.12141e-06	0	0	0
1.65203e-06	0	0	0
3.10544e-06	0	0	0
3.1759e-06	0	0	0
3.2088e-06	0	0	0
3.35532e-06	0	0	0
3.38072e-06	0	0	0
3.40421e-06	0	0	0
3.71892e-06	0	0	0
3.72279e-06	0	0	0
4.05086e-06	0	0	0
4.47226e-06	0	0	0
4.71901e-06	0	0	0
4.87313e-06	0	0	0
5.19764e-06	0	0	0
5.39036e-06	0	0	0
5.42507e-06	0	0	0
5.58143e-06	0	0	0
6.02243e-06	0	0	0
6.04769e-06	0	0	0
6.54308e-06	0	0	0
6.54734e-06	0	0	0
6.63849e-06	0	0	0
7.41041e-06	0	0	0
7.59016e-06	0	0	0
7.71295e-06	0	0	0
7.73052e-06	0	0	0
7.84517e-06	0	0	0
8.06212e-06	0	0	0
8.49184e-06	0	0	0
9.32937e-06	0	0	0
9.41582e-06	0	0	0
9.44605e-06	0	0	0
9.46214e-06	0	0	0
9.65611e-06	0	0	0
9.7319e-06	0	0	0
9.84634e-06	0	0	0
1.04324e-05	0	0	0
1.04751e-05	0	0	0
1.05913e-05	0	0	0
1.15408e-05	0	0	0
1.1659e-05	0	0	0
1.25796e-05	0	0	0
1.26157e-05	0	0	0
1.26414e-05	0	0	0
1.266e-05	0	0	0
1.3244e-05	0	0	0
1.32473e-05	0	0	0
1.32927e-05	0	0	0
1.34233e-05	0	0	0
1.35844e-05	0	0	0
1.39355e-05	0	0	0
1.4042e-05	0	0	0
1.42732e-05	0	0	0
1.45982e-05	0	0	0
1.47638e-05	0	0	0
1.48261e-05	0	0	0
1.49912e-05	0	0	0
1.51151e-05	0	0	0
1.51784e-05	0	0	0
1.53521e-05	0	0	0
1.54111e-05	0	0	0
1.54186e-05	0	0	0
1.54222e-05	0	0	0
1.55019e-05	0	0	0
1.57543e-05	0	0	0
1.58282e-05	0	0	0
1.61545e-05	0	0	0
1.67831e-05	0	0	0
1.71648e-05	0	0	0
1.72298e-05	0	0	0
1.75588e-05	0	0	0
1.76492e-05	0	0	0
1.77669e-05	0	0	0
1.79425e-05	0	0	0
1.85043e-05	0	0	0
1.87914e-05	0	0	0
1.94351e-05	0	0	0
1.95268e-05	0	0	0
1.95933e-05	0	0	0
1.96724e-05	0	0	0
1.97117e-05	0	0	0
1.98364e-05	0	0	0
1.99313e-05	0	0	0
2.00713e-05	0	0	0
2.0156e-05	0	0	0
2.05953e-05	0	0	0
2.08265e-05	0	0	0
2.12771e-05	0	0	0
2.1373e-05	0	0	0
2.15523e-05	0	0	0
2.19429e-05	0	0	0
2.28948e-05	0	0	0
2.30868e-05	0	0	0
2.31104e-05	0	0	0
2.31547e-05	0	0	0
2.31605e-05	0	0	0
2.31624e-05	0	0	0
2.34252e-05	0	0	0
2.34694e-05	0	0	0
2.39386e-05	0	0	0
2.43539e-05	0	0	0
2.4639e-05	0	0	0
2.48205e-05	0	0	0
2.52973e-05	0	0	0
2.53471e-05	0	0	0
2.56849e-05	0	0	0
2.5736e-05	0	0	0
2.58522e-05	0	0	0
2.60836e-05	0	0	0
2.61134e-05	0	0	0
2.62425e-05	0	0	0
2.6271e-05	0	0	0
2.64258e-05	0	0	0
2.7282e-05	0	0	0
2.77148e-05	0	0	0
2.91693e-05	0	0	0
2.9233e-05	0	0	0
2.94621e-05	0	0	0
2.94983e-05	0	0	0
2.9662e-05	0	0	0
3.00154e-05	0	0	0
3.0025e-05	0	0	0
3.00881e-05	0	0	0
3.0144e-05	0	0	0
3.05973e-05	0	0	0
3.11276e-05	0	0	0
3.16871e-05	0	0	0
3.1826e-05	0	0	0
3.19522e-05	0	0	0
3.25101e-05	0	0	0
3.2813e-05	0	0	0
3.28282e-05	0	0	0
3.35517e-05	0	0	0
3.35559e-05	0	0	0
3.35682e-05	0	0	0
3.37426e-05	0	0	0
3.42053e-05	0	0	0
3.46099e-05	0	0	0
3.59544e-05	0	0	0
3.60866e-05	0	0	0
3.62571e-05	0	0	0
3.64049e-05	0	0	0
3.70682e-05	0	0	0
3.72312e-05	0	0	0
3.74268e-05	0	0	0
3.74727e-05	0	0	0
3.78653e-05	0	0	0
3.80957e-05	0	0	0
3.81339e-05	0	0	0
3.81431e-05	0	0	0
3.82578e-05	0	0	0
3.88241e-05	0	0	0
3.91358e-05	0	0	0
3.92664e-05	0	0	0
3.97022e-05	0	0	0
3.99757e-05	0	0	0
4.06263e-05	0	0	0
4.07958e-05	0	0	0
4.14492e-05	0	0	0
4.14711e-05	0	0	0
4.18639e-05	0	0	0
4.25032e-05	0	0	0
4.29783e-05	0	0	0
4.33594e-05	0	0	0
4.36251e-05	0	0	0
4.36325e-05	0	0	0
4.44711e-05	0	0	0
4.59967e-05	0	0	0
4.61096e-05	0	0	0
4.67739e-05	0	0	0
4.69287e-05	0	0	0
4.72161e-05	0	0	0
4.87268e-05	0	0	0
4.88389e-05	0	0	0
4.92678e-05	0	0	0
4.93767e-05	0	0	0
4.96672e-05	0	0	0
4.97745e-05	0	0	0
4.98722e-05	0	0	0
5.00555e-05	0	0	0
5.03405e-05	0	0	0
5.08734e-05	0	0	0
5.11991e-05	0	0	0
5.1409e-05	0	0	0
5.18069e-05	0	0	0
5.37839e-05	0	0	0
5.38117e-05	0	0	0
5.40628e-05	0	0	0
5.43171e-05	0	0	0
5.46933e-05	0	0	0
5.47227e-05	0	0	0
5.48391e-05	0	0	0
5.53229e-05	0	0	0
5.58493e-05	0	0	0
5.60609e-05	0	0	0
5.65178e-05	0	0	0
5.67703e-05	0	0	0
5.71573e-05	0	0	0
5.76725e-05	0	0	0
5.77245e-05	0	0	0
5.79121e-05	0	0	0
5.93173e-05	0	0	0
5.94084e-05	0	0	0
5.97681e-05	0	0	0
5.98049e-05	0	0	0
5.99465e-05	0	0	0
6.00084e-05	0	0	0
6.05084e-05	0	0	0
6.2189e-05	0	0	0
6.29167e-05	0	0	0
6.37434e-05	0	0	0
6.37437e-05	0	0	0
6.40622e-05	0	0	0
6.57826e-05	0	0	0
6.66232e-05	0	0	0
6.68806e-05	0	0	0
6.89729e-05	0	0	0
6.9334e-05	0	0	0
6.97468e-05	0	0	0
6.98533e-05	0	0	0
6.99517e-05	0	0	0
7.01594e-05	0	0	0
7.10164e-05	0	0	0
7.1072e-05	0	0	0
7.18144e-05	0	0	0
7.20389e-05	0	0	0
7.22996e-05	0	0	0
7.30201e-05	0	0	0
7.30336e-05	0	0	0
7.36232e-05	0	0	0
7.37946e-05	0	0	0
7.39439e-05	0	0	0
7.50301e-05	0	0	0
7.52047e-05	0	0	0
7.53025e-05	0	0	0
7.56828e-05	0	0	0
7.68208e-05	0	0	0
7.77131e-05	0	0	0
7.87521e-05	0	0	0
7.93975e-05	0	0	0
8.00177e-05	0	0	0
8.05247e-05	0	0	0
8.05433e-05	0	0	0
8.09519e-05	0	0	0
8.49201e-05	0	0	0
8.50577e-05	0	0	0
8.56072e-05	0	0	0
8.67572e-05	0	0	0
8.69941e-05	0	0	0
8.71558e-05	0	0	0
8.74188e-05	0	0	0
8.75943e-05	0	0	0
8.81173e-05	0	0	0
8.82324e-05	0	0	0
8.82933e-05	0	0	0
8.93225e-05	0	0	0
8.98927e-05	0	0	0
9.00275e-05	0	0	0
9.06998e-05	0	0	0
9.10843e-05	0	0	0
9.22008e-05	0	0	0
9.22659e-05	0	0	0
9.36127e-05	0	0	0
9.37998e-05	0	0	0
9.45954e-05	0	0	0
9.46651e-05	0	0	0
9.49841e-05	0	0	0
9.56281e-05	0	0	0
9.63161e-05	0	0	0
9.64146e-05	0	0	0
9.72654e-05	0	0	0
9.80021e-05	0	0	0
9.92902e-05	0	0	0
9.93796e-05	0	0	0
9.96593e-05	0	0	0
0.000101319	0	0	0
0.000101595	0	0	0
0.000101605	0	0	0
0.000102188	0	0	0
0.00010221	0	0	0
0.000104898	0	0	0
0.000106049	0	0	0
0.000106094	0	0	0
0.000106573	0	0	0
0.000106808	0	0	0
0.000107322	0	0	0
0.000107455	0	0	0
0.000108762	0	0	0
0.000108882	0	0	0
0.000109417	0	0	0
0.000110167	0	0	0
0.000110788	0	0	0
0.000111194	0	0	0
0.000111645	0	0	0
0.000112079	0	0	0
0.000113718	0	0	0
0.000116805	0	0	0
0.00011757	0	0	0
0.000117845	0	0	0
0.000118244	0	0	0
0.000118413	0	0	0
0.000119223	0	0	0
0.000120266	0	0	0
0.000121137	0	0	0
0.000121946	0	0	0
0.000122737	0	0	0
0.000122825	0	0	0
0.000123046	0	0	0
0.000126274	0	0	0
0.00012683	0	0	0
0.000127434	0	0	0
0.000127874	0	0	0
0.000128653	0	0	0
0.000130094	0	0	0
0.000130103	0	0	0
0.00013012	0	0	0
0.000130741	0	0	0
0.000131019	0	0	0
0.000131167	0	0	0
0.000131501	0	0	0
0.000131646	0	0	0
0.000131844	0	0	0
0.000132062	0	0	0
0.000136274	0	0	0
0.000137413	0	0	0
0.00013907	0	0	0
0.00014099	0	0	0
0.000141197	0	0	0
0.000146416	0	0	0
0.000147568	0	0	0
0.000147749	0	0	0
0.000150329	0	0	0
0.000150628	0	0	0
0.00015093	0	0	0
0.000151722	0	0	0
0.000152266	0	0	0
0.000152828	0	0	0
0.000155823	0	0	0
0.000158533	0	0	0
0.000158779	0	0	0
0.000161199	0	0	0
0.000161309	0	0	0
0.000162532	0	0	0
0.000164033	0	0	0
0.000164558	0	0	0
0.000166559	0	0	0
0.00016671	0	0	0
0.000166823	0	0	0
0.000168167	0	0	0
0.000171859	0	0	0
0.000172879	0	0	0
0.000173687	0	0	0
0.000177288	0	0	0
0.000177629	0	0	0
0.000178181	0	0	0
0.000178205	0	0	0
0.00017925	0	0	0
0.000179948	0	0	0
0.000181117	0	0	0
0.000181415	0	0	0
0.000182684	0	0	0
0.000183857	0	0	0
0.000185776	0	0	0
0.000187552	0	0	0
0.000187574	0	0	0
0.000187619	0	0	0
0.000187642	0	0	0
0.00018808	0	0	0
0.000189302	0	0	0
0.000190205	0	0	0
0.000191292	0	0	0
0.000192376	0	0	0
0.000192684	0	0	0
0.00019361	0	0	0
0.000197946	0	0	0
0.000200146	0	0	0
0.000200589	0	0	0
0.000202005	0	0	0
0.000202667	0	0	0
0.00020378	0	0	0
0.000203818	0	0	0
0.000206404	0	0	0
0.00020663	0	0	0
0.000207048	0	0	0
0.000207328	0	0	0
0.000208145	0	0	0
0.000209886	0	0	0
0.000210067	0	0	0
0.00021104	0	0	0
0.000212501	0	0	0
0.000214523	0	0	0
0.000214939	0	0	0
0.00021655	0	0	0
0.000217751	0	0	0
0.000217907	0	0	0
0.000218282	0	0	0
0.000218596	0	0	0
0.000218623	0	0	0
0.000219054	0	0	0
0.000219669	0	0	0
0.000220007	0	0	0
0.000224301	0	0	0
0.000226322	0	0	0
0.000226516	0	0	0
0.000228061	0	0	0
0.000230057	0	0	0
0.000230534	0	0	0
0.00023094	0	0	0
0.00023171	0	0	0
0.000232615	0	0	0
0.000233932	0	0	0
0.000233962	0	0	0
0.000234607	0	0	0
0.000234916	0	0	0
0.000235654	0	0	0
0.000235728	0	0	0
0.000237219	0	0	0
0.000237233	0	0	0
0.00023734	0	0	0
0.000239251	0	0	0
0.000240049	0	0	0
0.000240261	0	0	0
0.000243354	0	0	0
0.000244904	0	0	0
0.000250579	0	0	0
0.000251104	0	0	0
0.000251857	0	0	0
0.000254074	0	0	0
0.000254677	0	0	0
0.000256118	0	0	0
0.000256753	0	0	0
0.000257609	0	0	0
0.000262522	0	0	0
0.000263536	0	0	0
0.000263838	0	0	0
0.000266949	0	0	0
0.000267165	0	0	0
0.000270117	0	0	0
0.000273138	0	0	0
0.000276338	0	0	0
0.000276529	0	0	0
0.000277873	0	0	0
0.000278007	0	0	0
0.00028193	0	0	0
0.000283382	0	0	0
0.000283486	0	0	0
0.000284022	0	0	0
0.000285407	0	0	0
0.000285557	0	0	0
0.000285615	0	0	0
0.00028775	0	0	0
0.000291444	0	0	0
0.000292291	0	0	0
0.000292822	0	0	0
0.000296693	0	0	0
0.000298106	0	0	0
0.000300643	0	0	0
0.000300941	0	0	0
0.000303698	0	0	0
0.000308751	0	0	0
0.00030977	0	0	0
0.000309779	0	0	0
0.000310692	0	0	0
0.000311965	0	0	0
0.000312507	0	0	0
0.000313464	0	0	0
0.00031689	0	0	0
0.000317523	0	0	0
0.000319857	0	0	0
0.000326003	0	0	0
0.000326028	0	0	0
0.00032627	0	0	0
0.000326973	0	0	0
0.000328046	0	0	0
0.000328885	0	0	0
0.000329266	0	0	0
0.000331301	0	0	0
0.000332413	0	0	0
0.000335681	0	0	0
0.000336556	0	0	0
0.000341384	0	0	0
0.00034416	0	0	0
0.000344419	0	0	0
0.000346035	0	0	0
0.000347241	0	0	0
0.000347326	0	0	0
0.000348288	0	0	0
0.000348537	0	0	0
0.000350027	0	0	0
0.00035251	0	0	0
0.000357124	0	0	0
0.000357845	0	0	0
0.000358822	0	0	0
0.000359181	0	0	0
0.000359709	0	0	0
0.00036014	0	0	0
0.000360489	0	0	0
0.000360966	0	0	0
0.000361469	0	0	0
0.000362851	0	0	0
0.000365281	0	0	0
0.000366013	0	0	0
0.000368322	0	0	0
0.000369494	0	0	0
0.000371273	0	0	0
0.000373603	0	0	0
0.000376792	0	0	0
0.000377133	0	0	0
0.000378723	0	0	0
0.000379607	0	0	0
0.000380776	0	0	0
0.000382584	0	0	0
0.000384034	0	0	0
0.000385435	0	0	0
0.000387273	0	0	0
0.000389543	0	0	0
0.000390483	0	0	0
0.000396878	0	0	0
0.000397102	0	0	0
0.00039959	0	0	0
0.000399956	0	0	0
0.000400769	0	0	0
0.000400863	0	0	0
0.000404021	0	0	0
0.000405071	0	0	0
0.000414443	0	0	0
0.000418629	0	0	0
0.000419688	0	0	0
0.000419967	0	0	0
0.000421724	0	0	0
0.00042538	0	0	0
0.000428875	0	0	0
0.000431712	0	0	0
0.000432851	0	0	0
0.000440477	0	0	0
0.000444172	0	0	0
0.000444407	0	0	0
0.000444551	0	0	0
0.000446654	0	0	0
0.000446853	0	0	0
0.000446977	0	0	0
0.000447876	0	0	0
0.000450947	0	0	0
0.000451628	0	0	0
0.000455472	0	0	0
0.000458285	0	0	0
0.000458366	0	0	0
0.000458605	0	0	0
0.000458688	0	0	0
0.000462441	0	0	0
0.000462447	0	0	0
0.000473228	0	0	0
0.000476212	0	0	0
0.0004771	0	0	0
0.000477478	0	0	0
0.000479366	0	0	0
0.000479562	0	0	0
0.000481567	0	0	0
0.000481754	0	0	0
0.000483664	0	0	0
0.000484748	0	0	0
0.000490176	0	0	0
0.000490473	0	0	0
0.000491378	0	0	0
0.000491904	0	0	0
0.000492059	0	0	0
0.00049966	0	0	0
0.000509397	0	0	0
0.000511359	0	0	0
0.000512566	0	0	0
0.00051304	0	0	0
0.000518005	0	0	0
0.000527017	0	0	0
0.000533839	0	0	0
0.000535804	0	0	0
0.000536753	0	0	0
0.00054082	0	0	0
0.000547504	0	0	0
0.00054884	0	0	0
0.000549963	0	0	0
0.000554968	0	0	0
0.000557001	0	0	0
0.000558311	0	0	0
0.000569449	0	0	0
0.0005767	0	0	0
0.000578804	0	0	0
0.000580605	0	0	0
0.000582865	0	0	0
0.000590681	0	0	0
0.000591664	0	0	0
0.000593812	0	0	0
0.000598584	0	0	0
0.000612305	0	0	0
0.000614197	0	0	0
0.00061866	0	0	0
0.000618854	0	0	0
0.00062148	0	0	0
0.000622952	0	0	0
0.000632287	0	0	0
0.000633269	0	0	0
0.000642422	0	0	0
0.000643443	0	0	0
0.000644403	0	0	0
0.000645964	0	0	0
0.000654117	0	0	0
0.000654304	0	0	0
0.000661539	0	0	0
0.000663539	0	0	0
0.000676528	0	0	0
0.000678733	0	0	0
0.000680371	0	0	0
0.000686627	0	0	0
0.000687354	0	0	0
0.00069434	0	0	0
0.000699555	0	0	0
0.000716448	0	0	0
0.000717176	0	0	0
0.000735121	0	0	0
0.000735983	0	0	0
0.000745088	0	0	0
0.000747239	0	0	0
0.000753648	0	0	0
0.000761563	0	0	0
0.000769434	0	0	0
0.000778728	0	0	0
0.000794015	0	0	0
0.000813592	0	0	0
0.000828441	0	0	0
0.000831861	0	0	0
0.00084072	0	0	0
0.000844386	0	0	0
0.000849818	0	0	0
0.000855447	0	0	0
0.000856386	0	0	0
0.000869042	0	0	0
0.000879355	0	0	0
0.000882456	0	0	0
0.000895072	0	0	0
0.000916262	0	0	0
0.000930706	0	0	0
0.000930756	0	0	0
0.000945761	0	0	0
0.000962865	0	0	0
0.00099575	0	0	0
0.00101255	0	0	0
0.00101959	0	0	0
0.00103459	0	0	0
0.00104062	0	0	0
0.00105065	0	0	0
0.00107129	0	0	0
0.00107329	0	0	0
0.00109417	0	0	0
0.00111058	0	0	0
0.00111233	0	0	0
0.00111748	0	0	0
0.00112345	0	0	0
0.00113168	0	0	0
0.00115696	0	0	0
0.00116764	0	0	0
0.00121385	0	0	0
0.00122043	0	0	0
0.00123246	0	0	0
0.0012509	0	0	0
0.00125806	0	0	0
0.00130183	0	0	0
0.00135784	0	0	0
0.00139222	0	0	0
0.00141492	0	0	0
0.00144747	0	0	0
0.00156552	0	0	0
0.00156799	0	0	0
0.00173688	0	0	0
0.00179411	0	0	0
0.00180756	0	0	0
0.00187088	0	0	0
0.00197594	0	0	0
0.00212616	0	0	0
