4.42276e-07	0	0	0
5.82872e-07	0	0	0
7.45183e-07	0	0	0
1.22058e-06	0	0	0
1.25655e-06	0	0	0
1.41774e-06	0	0	0
1.67026e-06	0	0	0
1.68518e-06	0	0	0
1.71843e-06	0	0	0
2.19825e-06	0	0	0
2.37138e-06	0	0	0
2.69939e-06	0	0	0
2.7225e-06	0	0	0
2.88043e-06	0	0	0
3.21699e-06	0	0	0
3.30863e-06	0	0	0
3.30895e-06	0	0	0
3.40036e-06	0	0	0
3.58724e-06	0	0	0
3.68493e-06	0	0	0
3.75658e-06	0	0	0
4.51863e-06	0	0	0
4.51903e-06	0	0	0
4.57793e-06	0	0	0
4.62606e-06	0	0	0
4.83882e-06	0	0	0
5.10448e-06	0	0	0
5.16159e-06	0	0	0
5.24003e-06	0	0	0
5.38678e-06	0	0	0
5.40771e-06	0	0	0
5.74077e-06	0	0	0
5.88184e-06	0	0	0
6.20308e-06	0	0	0
6.20508e-06	0	0	0
6.20581e-06	0	0	0
6.34894e-06	0	0	0
6.41278e-06	0	0	0
6.62207e-06	0	0	0
6.69884e-06	0	0	0
6.85809e-06	0	0	0
7.10911e-06	0	0	0
7.42924e-06	0	0	0
7.45366e-06	0	0	0
7.58676e-06	0	0	0
7.62014e-06	0	0	0
7.90528e-06	0	0	0
7.92263e-06	0	0	0
8.00125e-06	0	0	0
8.12704e-06	0	0	0
8.51471e-06	0	0	0
8.54065e-06	0	0	0
8.58537e-06	0	0	0
8.95851e-06	0	0	0
8.96524e-06	0	0	0
9.05529e-06	0	0	0
9.34328e-06	0	0	0
9.73824e-06	0	0	0
9.82846e-06	0	0	0
9.85201e-06	0	0	0
9.86859e-06	0	0	0
9.98897e-06	0	0	0
1.01062e-05	0	0	0
1.08229e-05	0	0	0
1.08985e-05	0	0	0
1.11768e-05	0	0	0
1.12781e-05	0	0	0
1.13001e-05	0	0	0
1.13236e-05	0	0	0
1.14857e-05	0	0	0
1.15044e-05	0	0	0
1.18077e-05	0	0	0
1.18512e-05	0	0	0
1.22145e-05	0	0	0
1.23053e-05	0	0	0
1.23611e-05	0	0	0
1.23981e-05	0	0	0
1.27466e-05	0	0	0
1.28234e-05	0	0	0
1.30675e-05	0	0	0
1.3227e-05	0	0	0
1.32454e-05	0	0	0
1.35109e-05	0	0	0
1.39564e-05	0	0	0
1.3973e-05	0	0	0
1.40031e-05	0	0	0
1.41184e-05	0	0	0
1.41836e-05	0	0	0
1.42359e-05	0	0	0
1.43352e-05	0	0	0
1.45243e-05	0	0	0
1.46066e-05	0	0	0
1.46737e-05	0	0	0
1.49485e-05	0	0	0
1.49671e-05	0	0	0
1.49772e-05	0	0	0
1.50804e-05	0	0	0
1.50848e-05	0	0	0
1.52553e-05	0	0	0
1.52759e-05	0	0	0
1.55179e-05	0	0	0
1.60047e-05	0	0	0
1.60164e-05	0	0	0
1.66474e-05	0	0	0
1.7045e-05	0	0	0
1.71359e-05	0	0	0
1.74061e-05	0	0	0
1.74748e-05	0	0	0
1.79303e-05	0	0	0
1.83006e-05	0	0	0
1.83054e-05	0	0	0
1.87356e-05	0	0	0
1.92598e-05	0	0	0
1.9388e-05	0	0	0
1.96967e-05	0	0	0
1.97376e-05	0	0	0
1.97407e-05	0	0	0
1.99161e-05	0	0	0
2.06529e-05	0	0	0
2.0732e-05	0	0	0
2.10355e-05	0	0	0
2.14915e-05	0	0	0
2.18577e-05	0	0	0
2.21281e-05	0	0	0
2.21841e-05	0	0	0
2.22083e-05	0	0	0
2.22664e-05	0	0	0
2.23488e-05	0	0	0
2.24596e-05	0	0	0
2.26943e-05	0	0	0
2.27375e-05	0	0	0
2.29494e-05	0	0	0
2.35675e-05	0	0	0
2.3773e-05	0	0	0
2.38895e-05	0	0	0
2.42045e-05	0	0	0
2.45953e-05	0	0	0
2.53114e-05	0	0	0
2.55488e-05	0	0	0
2.59185e-05	0	0	0
2.60022e-05	0	0	0
2.60772e-05	0	0	0
2.61655e-05	0	0	0
2.65768e-05	0	0	0
2.6587e-05	0	0	0
2.67607e-05	0	0	0
2.68441e-05	0	0	0
2.68518e-05	0	0	0
2.70731e-05	0	0	0
2.70775e-05	0	0	0
2.70952e-05	0	0	0
2.72139e-05	0	0	0
2.7492e-05	0	0	0
2.75854e-05	0	0	0
2.76982e-05	0	0	0
2.77981e-05	0	0	0
2.78786e-05	0	0	0
2.79949e-05	0	0	0
2.83381e-05	0	0	0
2.86424e-05	0	0	0
2.91226e-05	0	0	0
2.9164e-05	0	0	0
2.92462e-05	0	0	0
2.95487e-05	0	0	0
2.95937e-05	0	0	0
2.96698e-05	0	0	0
2.99375e-05	0	0	0
3.02021e-05	0	0	0
3.04176e-05	0	0	0
3.04978e-05	0	0	0
3.07814e-05	0	0	0
3.09645e-05	0	0	0
3.0992e-05	0	0	0
3.13052e-05	0	0	0
3.14233e-05	0	0	0
3.15068e-05	0	0	0
3.18103e-05	0	0	0
3.18264e-05	0	0	0
3.22781e-05	0	0	0
3.23002e-05	0	0	0
3.24248e-05	0	0	0
3.24465e-05	0	0	0
3.2684e-05	0	0	0
3.28592e-05	0	0	0
3.29354e-05	0	0	0
3.36123e-05	0	0	0
3.36461e-05	0	0	0
3.38882e-05	0	0	0
3.43122e-05	0	0	0
3.43508e-05	0	0	0
3.43518e-05	0	0	0
3.44526e-05	0	0	0
3.48118e-05	0	0	0
3.48654e-05	0	0	0
3.4891e-05	0	0	0
3.58549e-05	0	0	0
3.59258e-05	0	0	0
3.61026e-05	0	0	0
3.61663e-05	0	0	0
3.6234e-05	0	0	0
3.64819e-05	0	0	0
3.69459e-05	0	0	0
3.75567e-05	0	0	0
3.77263e-05	0	0	0
3.77422e-05	0	0	0
3.80766e-05	0	0	0
3.80822e-05	0	0	0
3.83406e-05	0	0	0
3.91771e-05	0	0	0
3.92532e-05	0	0	0
3.94905e-05	0	0	0
3.98757e-05	0	0	0
3.99309e-05	0	0	0
4.01916e-05	0	0	0
4.03818e-05	0	0	0
4.05484e-05	0	0	0
4.13753e-05	0	0	0
4.14227e-05	0	0	0
4.16773e-05	0	0	0
4.18907e-05	0	0	0
4.25574e-05	0	0	0
4.26946e-05	0	0	0
4.31701e-05	0	0	0
4.37003e-05	0	0	0
4.4086e-05	0	0	0
4.41944e-05	0	0	0
4.43578e-05	0	0	0
4.51298e-05	0	0	0
4.51666e-05	0	0	0
4.56785e-05	0	0	0
4.60855e-05	0	0	0
4.61741e-05	0	0	0
4.63823e-05	0	0	0
4.67939e-05	0	0	0
4.68266e-05	0	0	0
4.70009e-05	0	0	0
4.71827e-05	0	0	0
4.81172e-05	0	0	0
4.8361e-05	0	0	0
4.87953e-05	0	0	0
4.97441e-05	0	0	0
5.00966e-05	0	0	0
5.04193e-05	0	0	0
5.0926e-05	0	0	0
5.14752e-05	0	0	0
5.14856e-05	0	0	0
5.15692e-05	0	0	0
5.16951e-05	0	0	0
5.18466e-05	0	0	0
5.18645e-05	0	0	0
5.23369e-05	0	0	0
5.23901e-05	0	0	0
5.32564e-05	0	0	0
5.38779e-05	0	0	0
5.40618e-05	0	0	0
5.46667e-05	0	0	0
5.54323e-05	0	0	0
5.58334e-05	0	0	0
5.62872e-05	0	0	0
5.63465e-05	0	0	0
5.64581e-05	0	0	0
5.65329e-05	0	0	0
5.66017e-05	0	0	0
5.66865e-05	0	0	0
5.7267e-05	0	0	0
5.7384e-05	0	0	0
5.74437e-05	0	0	0
5.76574e-05	0	0	0
5.84979e-05	0	0	0
5.85135e-05	0	0	0
5.87066e-05	0	0	0
5.91987e-05	0	0	0
5.9403e-05	0	0	0
5.9416e-05	0	0	0
5.94479e-05	0	0	0
5.95446e-05	0	0	0
5.97032e-05	0	0	0
5.97762e-05	0	0	0
5.9957e-05	0	0	0
6.03868e-05	0	0	0
6.11402e-05	0	0	0
6.12014e-05	0	0	0
6.15513e-05	0	0	0
6.20683e-05	0	0	0
6.29714e-05	0	0	0
6.3193e-05	0	0	0
6.3235e-05	0	0	0
6.35113e-05	0	0	0
6.36767e-05	0	0	0
6.43717e-05	0	0	0
6.44214e-05	0	0	0
6.48247e-05	0	0	0
6.48961e-05	0	0	0
6.50619e-05	0	0	0
6.53086e-05	0	0	0
6.56175e-05	0	0	0
6.58579e-05	0	0	0
6.6173e-05	0	0	0
6.6237e-05	0	0	0
6.69503e-05	0	0	0
6.7062e-05	0	0	0
6.80946e-05	0	0	0
6.81711e-05	0	0	0
6.88482e-05	0	0	0
6.88609e-05	0	0	0
6.90373e-05	0	0	0
6.92924e-05	0	0	0
6.94493e-05	0	0	0
6.96753e-05	0	0	0
6.98663e-05	0	0	0
7.03109e-05	0	0	0
7.04511e-05	0	0	0
7.07793e-05	0	0	0
7.10916e-05	0	0	0
7.13093e-05	0	0	0
7.18335e-05	0	0	0
7.26259e-05	0	0	0
7.29813e-05	0	0	0
7.32836e-05	0	0	0
7.46213e-05	0	0	0
7.54665e-05	0	0	0
7.60155e-05	0	0	0
7.60651e-05	0	0	0
7.68161e-05	0	0	0
7.72191e-05	0	0	0
7.74401e-05	0	0	0
7.81083e-05	0	0	0
7.8245e-05	0	0	0
7.88605e-05	0	0	0
7.89848e-05	0	0	0
8.07806e-05	0	0	0
8.12793e-05	0	0	0
8.18022e-05	0	0	0
8.29584e-05	0	0	0
8.29904e-05	0	0	0
8.30602e-05	0	0	0
8.31828e-05	0	0	0
8.32815e-05	0	0	0
8.33009e-05	0	0	0
8.3348e-05	0	0	0
8.34979e-05	0	0	0
8.41362e-05	0	0	0
8.49213e-05	0	0	0
8.4961e-05	0	0	0
8.50038e-05	0	0	0
8.58914e-05	0	0	0
8.59554e-05	0	0	0
8.72011e-05	0	0	0
8.73154e-05	0	0	0
8.74453e-05	0	0	0
8.7446e-05	0	0	0
8.76957e-05	0	0	0
8.772e-05	0	0	0
8.79273e-05	0	0	0
8.8002e-05	0	0	0
8.80502e-05	0	0	0
8.82222e-05	0	0	0
8.83523e-05	0	0	0
8.90526e-05	0	0	0
8.91069e-05	0	0	0
8.91229e-05	0	0	0
8.91653e-05	0	0	0
8.99081e-05	0	0	0
9.01239e-05	0	0	0
9.04787e-05	0	0	0
9.07049e-05	0	0	0
9.09139e-05	0	0	0
9.11396e-05	0	0	0
9.118e-05	0	0	0
9.14691e-05	0	0	0
9.2339e-05	0	0	0
9.29246e-05	0	0	0
9.39095e-05	0	0	0
9.47311e-05	0	0	0
9.56253e-05	0	0	0
9.57741e-05	0	0	0
9.69272e-05	0	0	0
9.76203e-05	0	0	0
9.81298e-05	0	0	0
9.91983e-05	0	0	0
0.000100272	0	0	0
0.000100643	0	0	0
0.000100718	0	0	0
0.000100938	0	0	0
0.000101319	0	0	0
0.000101834	0	0	0
0.000103059	0	0	0
0.000103401	0	0	0
0.000104008	0	0	0
0.000104148	0	0	0
0.000104583	0	0	0
0.000105006	0	0	0
0.000106479	0	0	0
0.00010786	0	0	0
0.000108001	0	0	0
0.000108217	0	0	0
0.000108439	0	0	0
0.000108712	0	0	0
0.000109745	0	0	0
0.000109888	0	0	0
0.000110164	0	0	0
0.00011027	0	0	0
0.000110363	0	0	0
0.000110707	0	0	0
0.00011336	0	0	0
0.000113716	0	0	0
0.000113781	0	0	0
0.000114055	0	0	0
0.000114341	0	0	0
0.000114495	0	0	0
0.000115638	0	0	0
0.000117813	0	0	0
0.000117871	0	0	0
0.000118676	0	0	0
0.000119893	0	0	0
0.000119925	0	0	0
0.00012126	0	0	0
0.000121722	0	0	0
0.000122329	0	0	0
0.000122752	0	0	0
0.000123002	0	0	0
0.000123376	0	0	0
0.00012397	0	0	0
0.000125456	0	0	0
0.00012565	0	0	0
0.000125759	0	0	0
0.000126823	0	0	0
0.000127705	0	0	0
0.000128064	0	0	0
0.000128604	0	0	0
0.000128956	0	0	0
0.000130887	0	0	0
0.000131644	0	0	0
0.000132895	0	0	0
0.000134369	0	0	0
0.000136338	0	0	0
0.000140384	0	0	0
0.000141579	0	0	0
0.000141653	0	0	0
0.000141944	0	0	0
0.000142074	0	0	0
0.000145243	0	0	0
0.000146124	0	0	0
0.000146125	0	0	0
0.000147946	0	0	0
0.000149472	0	0	0
0.000151073	0	0	0
0.000151987	0	0	0
0.000153432	0	0	0
0.000153499	0	0	0
0.000153641	0	0	0
0.000153659	0	0	0
0.000154315	0	0	0
0.000154896	0	0	0
0.000155465	0	0	0
0.000157086	0	0	0
0.000157477	0	0	0
0.000158424	0	0	0
0.000163264	0	0	0
0.000163682	0	0	0
0.00016434	0	0	0
0.000164571	0	0	0
0.000165401	0	0	0
0.000166861	0	0	0
0.000166982	0	0	0
0.000167889	0	0	0
0.000168097	0	0	0
0.000168287	0	0	0
0.000169362	0	0	0
0.000169364	0	0	0
0.000170914	0	0	0
0.000171576	0	0	0
0.000172901	0	0	0
0.000172959	0	0	0
0.000173336	0	0	0
0.000174602	0	0	0
0.000176492	0	0	0
0.000177203	0	0	0
0.000177348	0	0	0
0.000177644	0	0	0
0.0001784	0	0	0
0.000178506	0	0	0
0.000180383	0	0	0
0.00018066	0	0	0
0.000181725	0	0	0
0.000182249	0	0	0
0.000183377	0	0	0
0.000183669	0	0	0
0.000183997	0	0	0
0.000184095	0	0	0
0.000184223	0	0	0
0.000190833	0	0	0
0.000192048	0	0	0
0.000193322	0	0	0
0.000193901	0	0	0
0.000194178	0	0	0
0.0001952	0	0	0
0.00019615	0	0	0
0.000196653	0	0	0
0.000197691	0	0	0
0.000198971	0	0	0
0.000199566	0	0	0
0.000202371	0	0	0
0.000205345	0	0	0
0.000205731	0	0	0
0.000208498	0	0	0
0.000209906	0	0	0
0.000210691	0	0	0
0.000213105	0	0	0
0.000216729	0	0	0
0.00021678	0	0	0
0.000219954	0	0	0
0.000220168	0	0	0
0.000220784	0	0	0
0.000223056	0	0	0
0.000224296	0	0	0
0.000225475	0	0	0
0.000226889	0	0	0
0.000227097	0	0	0
0.000228025	0	0	0
0.000230552	0	0	0
0.000231007	0	0	0
0.000232079	0	0	0
0.000232114	0	0	0
0.000233078	0	0	0
0.000234655	0	0	0
0.00023631	0	0	0
0.000236779	0	0	0
0.000237645	0	0	0
0.000238361	0	0	0
0.000240218	0	0	0
0.000240235	0	0	0
0.000243715	0	0	0
0.000245546	0	0	0
0.000245717	0	0	0
0.000246006	0	0	0
0.000251281	0	0	0
0.000251545	0	0	0
0.000252253	0	0	0
0.00025526	0	0	0
0.000258541	0	0	0
0.000258709	0	0	0
0.000259233	0	0	0
0.000259489	0	0	0
0.000261835	0	0	0
0.000261944	0	0	0
0.000262368	0	0	0
0.000262901	0	0	0
0.00026303	0	0	0
0.000264848	0	0	0
0.000266435	0	0	0
0.000267354	0	0	0
0.000268273	0	0	0
0.000270332	0	0	0
0.000271835	0	0	0
0.000274607	0	0	0
0.000275744	0	0	0
0.000277115	0	0	0
0.00027923	0	0	0
0.000282871	0	0	0
0.000283403	0	0	0
0.000284414	0	0	0
0.000285598	0	0	0
0.000285652	0	0	0
0.000285967	0	0	0
0.00028662	0	0	0
0.000288923	0	0	0
0.000293372	0	0	0
0.000295871	0	0	0
0.000297826	0	0	0
0.000300098	0	0	0
0.000303595	0	0	0
0.000305253	0	0	0
0.000307478	0	0	0
0.000308129	0	0	0
0.000308878	0	0	0
0.000309505	0	0	0
0.000310563	0	0	0
0.000312253	0	0	0
0.000313415	0	0	0
0.000313584	0	0	0
0.000319816	0	0	0
0.000320788	0	0	0
0.000324747	0	0	0
0.000330532	0	0	0
0.000334442	0	0	0
0.000336251	0	0	0
0.000336353	0	0	0
0.000340725	0	0	0
0.000342571	0	0	0
0.000342809	0	0	0
0.0003465	0	0	0
0.000347774	0	0	0
0.000350744	0	0	0
0.000351597	0	0	0
0.000355577	0	0	0
0.000357697	0	0	0
0.000358628	0	0	0
0.000358758	0	0	0
0.000360096	0	0	0
0.000360928	0	0	0
0.000363537	0	0	0
0.000369811	0	0	0
0.000382669	0	0	0
0.000384637	0	0	0
0.000386217	0	0	0
0.000386547	0	0	0
0.0003924	0	0	0
0.000394807	0	0	0
0.000395867	0	0	0
0.00040171	0	0	0
0.000402681	0	0	0
0.000404663	0	0	0
0.000406075	0	0	0
0.000409015	0	0	0
0.000409549	0	0	0
0.000410104	0	0	0
0.000414359	0	0	0
0.00041829	0	0	0
0.000428625	0	0	0
0.000432908	0	0	0
0.000435643	0	0	0
0.000435883	0	0	0
0.000436161	0	0	0
0.000438543	0	0	0
0.00043864	0	0	0
0.000442895	0	0	0
0.000451878	0	0	0
0.000460073	0	0	0
0.000462108	0	0	0
0.000462863	0	0	0
0.000465063	0	0	0
0.000466979	0	0	0
0.000468017	0	0	0
0.000470637	0	0	0
0.000475509	0	0	0
0.000482587	0	0	0
0.000489628	0	0	0
0.000495456	0	0	0
0.000499671	0	0	0
0.000499692	0	0	0
0.000501841	0	0	0
0.000503488	0	0	0
0.000506982	0	0	0
0.000514331	0	0	0
0.00052026	0	0	0
0.000541002	0	0	0
0.000545739	0	0	0
0.000554651	0	0	0
0.000555373	0	0	0
0.000555996	0	0	0
0.000558993	0	0	0
0.000571076	0	0	0
0.000571247	0	0	0
0.000575478	0	0	0
0.000581525	0	0	0
0.000582913	0	0	0
0.000584739	0	0	0
0.000589142	0	0	0
0.000589598	0	0	0
0.00059414	0	0	0
0.000596363	0	0	0
0.000602353	0	0	0
0.00060481	0	0	0
0.000604913	0	0	0
0.000617325	0	0	0
0.000627684	0	0	0
0.000639722	0	0	0
0.000643068	0	0	0
0.000648225	0	0	0
0.000655075	0	0	0
0.000661938	0	0	0
0.000668779	0	0	0
0.000694718	0	0	0
0.00069593	0	0	0
0.000697348	0	0	0
0.000702794	0	0	0
0.000712528	0	0	0
0.00071326	0	0	0
0.000747013	0	0	0
0.000752792	0	0	0
0.000760967	0	0	0
0.000792544	0	0	0
0.000795571	0	0	0
0.000797869	0	0	0
0.00081499	0	0	0
0.000817939	0	0	0
0.000846875	0	0	0
0.000847618	0	0	0
0.000863723	0	0	0
0.000876728	0	0	0
0.000901764	0	0	0
0.00094012	0	0	0
0.0009761	0	0	0
0.00108739	0	0	0
0.00113066	0	0	0
0.00117542	0	0	0
0.00122361	0	0	0
0.00134758	0	0	0
0.00148184	0	0	0
