4.96314e-08	0	0	0
1.88441e-07	0	0	0
2.73805e-07	0	0	0
5.6443e-07	0	0	0
8.04935e-07	0	0	0
1.14947e-06	0	0	0
1.17339e-06	0	0	0
1.45967e-06	0	0	0
1.4719e-06	0	0	0
1.58698e-06	0	0	0
1.70157e-06	0	0	0
2.07239e-06	0	0	0
2.38284e-06	0	0	0
2.39218e-06	0	0	0
2.44149e-06	0	0	0
2.68217e-06	0	0	0
2.68647e-06	0	0	0
2.74549e-06	0	0	0
2.84844e-06	0	0	0
2.87852e-06	0	0	0
3.0962e-06	0	0	0
3.1349e-06	0	0	0
3.14372e-06	0	0	0
3.16839e-06	0	0	0
3.5931e-06	0	0	0
3.76942e-06	0	0	0
4.08524e-06	0	0	0
4.22081e-06	0	0	0
4.63137e-06	0	0	0
4.7333e-06	0	0	0
4.84789e-06	0	0	0
5.15428e-06	0	0	0
5.21431e-06	0	0	0
5.48142e-06	0	0	0
5.48194e-06	0	0	0
5.70816e-06	0	0	0
5.71658e-06	0	0	0
5.74931e-06	0	0	0
5.97288e-06	0	0	0
6.01117e-06	0	0	0
6.19565e-06	0	0	0
6.22104e-06	0	0	0
6.22644e-06	0	0	0
6.39257e-06	0	0	0
6.57505e-06	0	0	0
6.79617e-06	0	0	0
6.8514e-06	0	0	0
6.93487e-06	0	0	0
6.94721e-06	0	0	0
8.3887e-06	0	0	0
8.58208e-06	0	0	0
8.60161e-06	0	0	0
9.01682e-06	0	0	0
9.01693e-06	0	0	0
9.13966e-06	0	0	0
9.29846e-06	0	0	0
9.51125e-06	0	0	0
9.74087e-06	0	0	0
9.76579e-06	0	0	0
9.83733e-06	0	0	0
9.93484e-06	0	0	0
1.00094e-05	0	0	0
1.03312e-05	0	0	0
1.05376e-05	0	0	0
1.06018e-05	0	0	0
1.08471e-05	0	0	0
1.09237e-05	0	0	0
1.11429e-05	0	0	0
1.13228e-05	0	0	0
1.13413e-05	0	0	0
1.20579e-05	0	0	0
1.20958e-05	0	0	0
1.22e-05	0	0	0
1.22159e-05	0	0	0
1.23299e-05	0	0	0
1.25989e-05	0	0	0
1.26859e-05	0	0	0
1.27218e-05	0	0	0
1.2747e-05	0	0	0
1.27674e-05	0	0	0
1.30881e-05	0	0	0
1.35637e-05	0	0	0
1.36177e-05	0	0	0
1.39164e-05	0	0	0
1.3932e-05	0	0	0
1.40112e-05	0	0	0
1.40417e-05	0	0	0
1.40997e-05	0	0	0
1.41045e-05	0	0	0
1.44812e-05	0	0	0
1.45579e-05	0	0	0
1.46812e-05	0	0	0
1.46988e-05	0	0	0
1.48759e-05	0	0	0
1.51409e-05	0	0	0
1.59001e-05	0	0	0
1.59134e-05	0	0	0
1.59901e-05	0	0	0
1.62074e-05	0	0	0
1.62119e-05	0	0	0
1.6219e-05	0	0	0
1.66426e-05	0	0	0
1.67555e-05	0	0	0
1.73432e-05	0	0	0
1.74728e-05	0	0	0
1.74733e-05	0	0	0
1.76046e-05	0	0	0
1.77411e-05	0	0	0
1.77773e-05	0	0	0
1.78291e-05	0	0	0
1.78856e-05	0	0	0
1.81021e-05	0	0	0
1.83387e-05	0	0	0
1.84239e-05	0	0	0
1.8769e-05	0	0	0
1.8923e-05	0	0	0
1.89325e-05	0	0	0
1.92219e-05	0	0	0
1.933e-05	0	0	0
1.94566e-05	0	0	0
1.97439e-05	0	0	0
1.98835e-05	0	0	0
2.01707e-05	0	0	0
2.02102e-05	0	0	0
2.02438e-05	0	0	0
2.02991e-05	0	0	0
2.0564e-05	0	0	0
2.08934e-05	0	0	0
2.09797e-05	0	0	0
2.1392e-05	0	0	0
2.16427e-05	0	0	0
2.19274e-05	0	0	0
2.19748e-05	0	0	0
2.23004e-05	0	0	0
2.27521e-05	0	0	0
2.30888e-05	0	0	0
2.31989e-05	0	0	0
2.32564e-05	0	0	0
2.336e-05	0	0	0
2.34261e-05	0	0	0
2.35086e-05	0	0	0
2.40696e-05	0	0	0
2.51116e-05	0	0	0
2.53416e-05	0	0	0
2.55382e-05	0	0	0
2.62113e-05	0	0	0
2.66754e-05	0	0	0
2.68201e-05	0	0	0
2.69193e-05	0	0	0
2.70013e-05	0	0	0
2.72612e-05	0	0	0
2.74166e-05	0	0	0
2.7695e-05	0	0	0
2.81318e-05	0	0	0
2.87004e-05	0	0	0
2.87675e-05	0	0	0
2.89233e-05	0	0	0
2.89552e-05	0	0	0
2.89765e-05	0	0	0
2.9173e-05	0	0	0
2.92678e-05	0	0	0
2.92754e-05	0	0	0
2.96255e-05	0	0	0
2.9961e-05	0	0	0
3.00329e-05	0	0	0
3.00569e-05	0	0	0
3.05555e-05	0	0	0
3.08784e-05	0	0	0
3.11838e-05	0	0	0
3.16949e-05	0	0	0
3.17546e-05	0	0	0
3.20798e-05	0	0	0
3.30372e-05	0	0	0
3.36719e-05	0	0	0
3.38395e-05	0	0	0
3.38401e-05	0	0	0
3.4729e-05	0	0	0
3.47822e-05	0	0	0
3.52288e-05	0	0	0
3.55836e-05	0	0	0
3.56823e-05	0	0	0
3.57958e-05	0	0	0
3.61301e-05	0	0	0
3.64157e-05	0	0	0
3.67659e-05	0	0	0
3.67901e-05	0	0	0
3.68221e-05	0	0	0
3.68635e-05	0	0	0
3.70929e-05	0	0	0
3.71165e-05	0	0	0
3.8305e-05	0	0	0
3.83244e-05	0	0	0
3.84399e-05	0	0	0
3.86777e-05	0	0	0
3.88296e-05	0	0	0
3.89517e-05	0	0	0
3.95363e-05	0	0	0
3.9741e-05	0	0	0
3.98903e-05	0	0	0
4.00429e-05	0	0	0
4.00625e-05	0	0	0
4.03453e-05	0	0	0
4.05822e-05	0	0	0
4.07161e-05	0	0	0
4.11598e-05	0	0	0
4.1543e-05	0	0	0
4.1748e-05	0	0	0
4.18672e-05	0	0	0
4.19319e-05	0	0	0
4.19734e-05	0	0	0
4.21746e-05	0	0	0
4.29587e-05	0	0	0
4.30913e-05	0	0	0
4.3223e-05	0	0	0
4.3379e-05	0	0	0
4.38248e-05	0	0	0
4.421e-05	0	0	0
4.44824e-05	0	0	0
4.46768e-05	0	0	0
4.51235e-05	0	0	0
4.51616e-05	0	0	0
4.54066e-05	0	0	0
4.55177e-05	0	0	0
4.55858e-05	0	0	0
4.63271e-05	0	0	0
4.72779e-05	0	0	0
4.81875e-05	0	0	0
4.85095e-05	0	0	0
4.88033e-05	0	0	0
4.92346e-05	0	0	0
5.00745e-05	0	0	0
5.05347e-05	0	0	0
5.06729e-05	0	0	0
5.09198e-05	0	0	0
5.10944e-05	0	0	0
5.11145e-05	0	0	0
5.11469e-05	0	0	0
5.11546e-05	0	0	0
5.13715e-05	0	0	0
5.15584e-05	0	0	0
5.23793e-05	0	0	0
5.25009e-05	0	0	0
5.30166e-05	0	0	0
5.30965e-05	0	0	0
5.32925e-05	0	0	0
5.36406e-05	0	0	0
5.36539e-05	0	0	0
5.38043e-05	0	0	0
5.42983e-05	0	0	0
5.44477e-05	0	0	0
5.45457e-05	0	0	0
5.46535e-05	0	0	0
5.4809e-05	0	0	0
5.51952e-05	0	0	0
5.54627e-05	0	0	0
5.64902e-05	0	0	0
5.65049e-05	0	0	0
5.66386e-05	0	0	0
5.69593e-05	0	0	0
5.76228e-05	0	0	0
5.77133e-05	0	0	0
5.77161e-05	0	0	0
5.85365e-05	0	0	0
5.87347e-05	0	0	0
5.87386e-05	0	0	0
5.87625e-05	0	0	0
5.93087e-05	0	0	0
5.9875e-05	0	0	0
6.02993e-05	0	0	0
6.08964e-05	0	0	0
6.10681e-05	0	0	0
6.14432e-05	0	0	0
6.16272e-05	0	0	0
6.22011e-05	0	0	0
6.26445e-05	0	0	0
6.28587e-05	0	0	0
6.29129e-05	0	0	0
6.34294e-05	0	0	0
6.34444e-05	0	0	0
6.45809e-05	0	0	0
6.45957e-05	0	0	0
6.4821e-05	0	0	0
6.49719e-05	0	0	0
6.53884e-05	0	0	0
6.54184e-05	0	0	0
6.61677e-05	0	0	0
6.66301e-05	0	0	0
6.68182e-05	0	0	0
6.71645e-05	0	0	0
6.74383e-05	0	0	0
6.76247e-05	0	0	0
6.78496e-05	0	0	0
6.80178e-05	0	0	0
6.82707e-05	0	0	0
6.9378e-05	0	0	0
6.96795e-05	0	0	0
6.97375e-05	0	0	0
6.9742e-05	0	0	0
7.01113e-05	0	0	0
7.07347e-05	0	0	0
7.08775e-05	0	0	0
7.10003e-05	0	0	0
7.11256e-05	0	0	0
7.11734e-05	0	0	0
7.17239e-05	0	0	0
7.18453e-05	0	0	0
7.19645e-05	0	0	0
7.20607e-05	0	0	0
7.20965e-05	0	0	0
7.23991e-05	0	0	0
7.25949e-05	0	0	0
7.28368e-05	0	0	0
7.33511e-05	0	0	0
7.42203e-05	0	0	0
7.42292e-05	0	0	0
7.43835e-05	0	0	0
7.49364e-05	0	0	0
7.55627e-05	0	0	0
7.57075e-05	0	0	0
7.58195e-05	0	0	0
7.59902e-05	0	0	0
7.69765e-05	0	0	0
7.74884e-05	0	0	0
7.81177e-05	0	0	0
7.82142e-05	0	0	0
7.89494e-05	0	0	0
7.90919e-05	0	0	0
7.93461e-05	0	0	0
7.96169e-05	0	0	0
7.9689e-05	0	0	0
7.9801e-05	0	0	0
8.08024e-05	0	0	0
8.08914e-05	0	0	0
8.14801e-05	0	0	0
8.2044e-05	0	0	0
8.25575e-05	0	0	0
8.25926e-05	0	0	0
8.27944e-05	0	0	0
8.33645e-05	0	0	0
8.35182e-05	0	0	0
8.43036e-05	0	0	0
8.48148e-05	0	0	0
8.5306e-05	0	0	0
8.54823e-05	0	0	0
8.62913e-05	0	0	0
8.64491e-05	0	0	0
8.72576e-05	0	0	0
8.75308e-05	0	0	0
8.78523e-05	0	0	0
8.79269e-05	0	0	0
8.95868e-05	0	0	0
8.9638e-05	0	0	0
9.01713e-05	0	0	0
9.02323e-05	0	0	0
9.06031e-05	0	0	0
9.0764e-05	0	0	0
9.08453e-05	0	0	0
9.11948e-05	0	0	0
9.16281e-05	0	0	0
9.17896e-05	0	0	0
9.19053e-05	0	0	0
9.3339e-05	0	0	0
9.34662e-05	0	0	0
9.35136e-05	0	0	0
9.36231e-05	0	0	0
9.39389e-05	0	0	0
9.44277e-05	0	0	0
9.44296e-05	0	0	0
9.57532e-05	0	0	0
9.65e-05	0	0	0
9.67974e-05	0	0	0
9.6812e-05	0	0	0
9.71064e-05	0	0	0
9.71248e-05	0	0	0
9.84508e-05	0	0	0
9.85121e-05	0	0	0
9.90855e-05	0	0	0
9.96384e-05	0	0	0
0.000100585	0	0	0
0.000100911	0	0	0
0.000102742	0	0	0
0.000103055	0	0	0
0.000103249	0	0	0
0.000103333	0	0	0
0.000103397	0	0	0
0.000104999	0	0	0
0.000105233	0	0	0
0.000105901	0	0	0
0.000105943	0	0	0
0.000106119	0	0	0
0.000108142	0	0	0
0.000108327	0	0	0
0.000108376	0	0	0
0.000108813	0	0	0
0.000109084	0	0	0
0.00011082	0	0	0
0.000110849	0	0	0
0.000111487	0	0	0
0.000112108	0	0	0
0.000112912	0	0	0
0.000113671	0	0	0
0.000114087	0	0	0
0.000114572	0	0	0
0.000115034	0	0	0
0.000116729	0	0	0
0.000117783	0	0	0
0.000118832	0	0	0
0.000119351	0	0	0
0.000121442	0	0	0
0.000124125	0	0	0
0.000124513	0	0	0
0.000124968	0	0	0
0.000125101	0	0	0
0.000125431	0	0	0
0.000125454	0	0	0
0.000127004	0	0	0
0.000127247	0	0	0
0.000127247	0	0	0
0.000128517	0	0	0
0.000128763	0	0	0
0.000129684	0	0	0
0.000131939	0	0	0
0.000132899	0	0	0
0.000133498	0	0	0
0.000133995	0	0	0
0.000135259	0	0	0
0.00013583	0	0	0
0.000137436	0	0	0
0.000137981	0	0	0
0.000138991	0	0	0
0.000140105	0	0	0
0.000142265	0	0	0
0.000142854	0	0	0
0.00014481	0	0	0
0.000144959	0	0	0
0.00014819	0	0	0
0.000148513	0	0	0
0.000151386	0	0	0
0.000152089	0	0	0
0.000152755	0	0	0
0.000153651	0	0	0
0.000154158	0	0	0
0.00015495	0	0	0
0.0001564	0	0	0
0.000157192	0	0	0
0.000158178	0	0	0
0.000158351	0	0	0
0.00015929	0	0	0
0.00015966	0	0	0
0.000160016	0	0	0
0.000160986	0	0	0
0.00016125	0	0	0
0.000162029	0	0	0
0.000162074	0	0	0
0.000164087	0	0	0
0.000166415	0	0	0
0.000166725	0	0	0
0.000169322	0	0	0
0.000170098	0	0	0
0.000170486	0	0	0
0.000170641	0	0	0
0.000171094	0	0	0
0.000171384	0	0	0
0.000172294	0	0	0
0.000173488	0	0	0
0.000174621	0	0	0
0.000175264	0	0	0
0.000176561	0	0	0
0.000177742	0	0	0
0.000178554	0	0	0
0.00017865	0	0	0
0.000180549	0	0	0
0.000180765	0	0	0
0.00018151	0	0	0
0.000182209	0	0	0
0.000182488	0	0	0
0.000182541	0	0	0
0.000184597	0	0	0
0.00018618	0	0	0
0.000186662	0	0	0
0.000187007	0	0	0
0.00018727	0	0	0
0.000188008	0	0	0
0.000189035	0	0	0
0.000189465	0	0	0
0.000189511	0	0	0
0.00019196	0	0	0
0.000192509	0	0	0
0.000194837	0	0	0
0.000195001	0	0	0
0.000197222	0	0	0
0.000197262	0	0	0
0.000197379	0	0	0
0.000197464	0	0	0
0.000197985	0	0	0
0.000198268	0	0	0
0.00019973	0	0	0
0.000200273	0	0	0
0.000202338	0	0	0
0.000202497	0	0	0
0.000204145	0	0	0
0.000210853	0	0	0
0.000211053	0	0	0
0.000211663	0	0	0
0.000212233	0	0	0
0.00021301	0	0	0
0.000214937	0	0	0
0.000215491	0	0	0
0.000215674	0	0	0
0.000217984	0	0	0
0.000218253	0	0	0
0.000219694	0	0	0
0.0002224	0	0	0
0.000222451	0	0	0
0.000224214	0	0	0
0.000226302	0	0	0
0.000226822	0	0	0
0.000227649	0	0	0
0.00023016	0	0	0
0.000231102	0	0	0
0.000231223	0	0	0
0.000231574	0	0	0
0.000231649	0	0	0
0.000231918	0	0	0
0.000233056	0	0	0
0.00023366	0	0	0
0.00023543	0	0	0
0.000235908	0	0	0
0.000236073	0	0	0
0.000237256	0	0	0
0.000237702	0	0	0
0.000238784	0	0	0
0.000239152	0	0	0
0.000239635	0	0	0
0.000240791	0	0	0
0.000242974	0	0	0
0.000243341	0	0	0
0.000243934	0	0	0
0.000245266	0	0	0
0.000249817	0	0	0
0.000250225	0	0	0
0.000250634	0	0	0
0.000250864	0	0	0
0.00025214	0	0	0
0.000252802	0	0	0
0.000253618	0	0	0
0.000254887	0	0	0
0.000255236	0	0	0
0.000258737	0	0	0
0.000259625	0	0	0
0.000259878	0	0	0
0.000260717	0	0	0
0.000261613	0	0	0
0.000261908	0	0	0
0.000262688	0	0	0
0.000263534	0	0	0
0.000264094	0	0	0
0.000265345	0	0	0
0.000268983	0	0	0
0.000269446	0	0	0
0.00027019	0	0	0
0.000272958	0	0	0
0.000275134	0	0	0
0.000277349	0	0	0
0.000278298	0	0	0
0.000279522	0	0	0
0.000280295	0	0	0
0.000281046	0	0	0
0.000281173	0	0	0
0.000283722	0	0	0
0.000285187	0	0	0
0.000285476	0	0	0
0.000285992	0	0	0
0.00028808	0	0	0
0.000291182	0	0	0
0.000291327	0	0	0
0.000292045	0	0	0
0.000292168	0	0	0
0.000293715	0	0	0
0.000297761	0	0	0
0.000305948	0	0	0
0.000306655	0	0	0
0.00030856	0	0	0
0.000311802	0	0	0
0.000316468	0	0	0
0.000323772	0	0	0
0.000324274	0	0	0
0.000329899	0	0	0
0.000329997	0	0	0
0.000330025	0	0	0
0.000332857	0	0	0
0.000333943	0	0	0
0.00033652	0	0	0
0.000337659	0	0	0
0.000339276	0	0	0
0.000340429	0	0	0
0.000346952	0	0	0
0.000347174	0	0	0
0.000353471	0	0	0
0.000365315	0	0	0
0.000365683	0	0	0
0.000366591	0	0	0
0.000372595	0	0	0
0.000374977	0	0	0
0.000382503	0	0	0
0.000383364	0	0	0
0.000385557	0	0	0
0.000386282	0	0	0
0.000386516	0	0	0
0.000398736	0	0	0
0.000401021	0	0	0
0.000403347	0	0	0
0.000405243	0	0	0
0.000406775	0	0	0
0.000410555	0	0	0
0.000412432	0	0	0
0.000412884	0	0	0
0.000413241	0	0	0
0.000433005	0	0	0
0.000437142	0	0	0
0.000463806	0	0	0
0.00046871	0	0	0
0.000470165	0	0	0
0.000482261	0	0	0
0.000499783	0	0	0
0.000506454	0	0	0
0.000507539	0	0	0
0.000512402	0	0	0
0.000515327	0	0	0
0.000515886	0	0	0
0.000548216	0	0	0
0.000554542	0	0	0
0.000571652	0	0	0
0.00057326	0	0	0
0.000576496	0	0	0
0.000641582	0	0	0
0.000646841	0	0	0
0.000670264	0	0	0
0.00068204	0	0	0
0.000729229	0	0	0
0.0007595	0	0	0
0.000774905	0	0	0
0.000782572	0	0	0
0.000812438	0	0	0
0.000816074	0	0	0
0.000861349	0	0	0
0.000933073	0	0	0
0.000973493	0	0	0
0.0010765	0	0	0
0.00113353	0	0	0
0.00132009	0	0	0
0.0014286	0	0	0
0.00143154	0	0	0
