1.50174e-07	0	0	0
4.77437e-07	0	0	0
5.43523e-07	0	0	0
6.91896e-07	0	0	0
7.28707e-07	0	0	0
1.0751e-06	0	0	0
1.33345e-06	0	0	0
1.47138e-06	0	0	0
1.64265e-06	0	0	0
1.86149e-06	0	0	0
2.49866e-06	0	0	0
2.50037e-06	0	0	0
2.72491e-06	0	0	0
3.12544e-06	0	0	0
3.25667e-06	0	0	0
3.349e-06	0	0	0
3.43988e-06	0	0	0
3.4613e-06	0	0	0
3.56686e-06	0	0	0
3.60775e-06	0	0	0
3.91997e-06	0	0	0
3.98797e-06	0	0	0
4.01369e-06	0	0	0
4.296e-06	0	0	0
4.40644e-06	0	0	0
4.52149e-06	0	0	0
4.77075e-06	0	0	0
4.82415e-06	0	0	0
4.92274e-06	0	0	0
5.02854e-06	0	0	0
5.14418e-06	0	0	0
5.42683e-06	0	0	0
5.48817e-06	0	0	0
6.01325e-06	0	0	0
6.04324e-06	0	0	0
6.05414e-06	0	0	0
6.2041e-06	0	0	0
6.30349e-06	0	0	0
6.80851e-06	0	0	0
6.9093e-06	0	0	0
7.01016e-06	0	0	0
7.07996e-06	0	0	0
7.08295e-06	0	0	0
7.14719e-06	0	0	0
7.3418e-06	0	0	0
7.35661e-06	0	0	0
7.55728e-06	0	0	0
7.7528e-06	0	0	0
7.86132e-06	0	0	0
7.9715e-06	0	0	0
8.05311e-06	0	0	0
8.2425e-06	0	0	0
8.40251e-06	0	0	0
8.61979e-06	0	0	0
9.17717e-06	0	0	0
9.46023e-06	0	0	0
9.54294e-06	0	0	0
9.7952e-06	0	0	0
9.99711e-06	0	0	0
1.01087e-05	0	0	0
1.01321e-05	0	0	0
1.0693e-05	0	0	0
1.08345e-05	0	0	0
1.09933e-05	0	0	0
1.12308e-05	0	0	0
1.15852e-05	0	0	0
1.17532e-05	0	0	0
1.19016e-05	0	0	0
1.21924e-05	0	0	0
1.22824e-05	0	0	0
1.22994e-05	0	0	0
1.24304e-05	0	0	0
1.24353e-05	0	0	0
1.24515e-05	0	0	0
1.24706e-05	0	0	0
1.25485e-05	0	0	0
1.2718e-05	0	0	0
1.27309e-05	0	0	0
1.28239e-05	0	0	0
1.3071e-05	0	0	0
1.31849e-05	0	0	0
1.32136e-05	0	0	0
1.37988e-05	0	0	0
1.39173e-05	0	0	0
1.41247e-05	0	0	0
1.41531e-05	0	0	0
1.43573e-05	0	0	0
1.46295e-05	0	0	0
1.49297e-05	0	0	0
1.51417e-05	0	0	0
1.52648e-05	0	0	0
1.53141e-05	0	0	0
1.53245e-05	0	0	0
1.58853e-05	0	0	0
1.6021e-05	0	0	0
1.60241e-05	0	0	0
1.61593e-05	0	0	0
1.63018e-05	0	0	0
1.6307e-05	0	0	0
1.63994e-05	0	0	0
1.65301e-05	0	0	0
1.66875e-05	0	0	0
1.69784e-05	0	0	0
1.71355e-05	0	0	0
1.72329e-05	0	0	0
1.74774e-05	0	0	0
1.76039e-05	0	0	0
1.76092e-05	0	0	0
1.77019e-05	0	0	0
1.77739e-05	0	0	0
1.77923e-05	0	0	0
1.827e-05	0	0	0
1.85875e-05	0	0	0
1.88601e-05	0	0	0
1.8889e-05	0	0	0
1.91778e-05	0	0	0
1.93131e-05	0	0	0
1.9347e-05	0	0	0
1.93829e-05	0	0	0
1.95639e-05	0	0	0
1.97473e-05	0	0	0
1.98843e-05	0	0	0
1.99841e-05	0	0	0
2.00203e-05	0	0	0
2.00708e-05	0	0	0
2.0314e-05	0	0	0
2.04813e-05	0	0	0
2.07705e-05	0	0	0
2.1206e-05	0	0	0
2.16261e-05	0	0	0
2.16578e-05	0	0	0
2.1792e-05	0	0	0
2.18993e-05	0	0	0
2.1935e-05	0	0	0
2.20102e-05	0	0	0
2.20645e-05	0	0	0
2.27437e-05	0	0	0
2.39155e-05	0	0	0
2.43738e-05	0	0	0
2.47015e-05	0	0	0
2.51022e-05	0	0	0
2.5353e-05	0	0	0
2.56416e-05	0	0	0
2.56523e-05	0	0	0
2.56937e-05	0	0	0
2.58806e-05	0	0	0
2.6344e-05	0	0	0
2.7138e-05	0	0	0
2.7425e-05	0	0	0
2.74265e-05	0	0	0
2.74286e-05	0	0	0
2.77918e-05	0	0	0
2.82698e-05	0	0	0
2.83791e-05	0	0	0
2.85527e-05	0	0	0
2.86374e-05	0	0	0
2.86743e-05	0	0	0
2.87118e-05	0	0	0
2.88845e-05	0	0	0
2.90445e-05	0	0	0
2.91714e-05	0	0	0
2.94223e-05	0	0	0
2.99174e-05	0	0	0
2.99264e-05	0	0	0
2.99961e-05	0	0	0
3.00686e-05	0	0	0
3.0556e-05	0	0	0
3.05685e-05	0	0	0
3.05952e-05	0	0	0
3.06794e-05	0	0	0
3.1086e-05	0	0	0
3.14434e-05	0	0	0
3.19658e-05	0	0	0
3.20714e-05	0	0	0
3.21026e-05	0	0	0
3.23394e-05	0	0	0
3.2418e-05	0	0	0
3.28596e-05	0	0	0
3.30366e-05	0	0	0
3.34621e-05	0	0	0
3.36132e-05	0	0	0
3.36804e-05	0	0	0
3.38371e-05	0	0	0
3.38923e-05	0	0	0
3.40862e-05	0	0	0
3.45795e-05	0	0	0
3.46981e-05	0	0	0
3.51849e-05	0	0	0
3.5562e-05	0	0	0
3.59032e-05	0	0	0
3.59054e-05	0	0	0
3.59164e-05	0	0	0
3.60694e-05	0	0	0
3.61423e-05	0	0	0
3.64333e-05	0	0	0
3.73227e-05	0	0	0
3.74482e-05	0	0	0
3.75065e-05	0	0	0
3.8222e-05	0	0	0
3.84117e-05	0	0	0
3.86086e-05	0	0	0
3.8904e-05	0	0	0
3.89786e-05	0	0	0
3.92298e-05	0	0	0
3.92336e-05	0	0	0
3.93339e-05	0	0	0
3.93392e-05	0	0	0
3.95242e-05	0	0	0
3.97667e-05	0	0	0
4.02461e-05	0	0	0
4.02874e-05	0	0	0
4.0328e-05	0	0	0
4.03733e-05	0	0	0
4.05095e-05	0	0	0
4.05249e-05	0	0	0
4.06185e-05	0	0	0
4.06631e-05	0	0	0
4.07995e-05	0	0	0
4.08704e-05	0	0	0
4.0898e-05	0	0	0
4.17042e-05	0	0	0
4.1999e-05	0	0	0
4.21214e-05	0	0	0
4.26308e-05	0	0	0
4.28156e-05	0	0	0
4.28463e-05	0	0	0
4.30733e-05	0	0	0
4.388e-05	0	0	0
4.42365e-05	0	0	0
4.44873e-05	0	0	0
4.51235e-05	0	0	0
4.51979e-05	0	0	0
4.53414e-05	0	0	0
4.54794e-05	0	0	0
4.58859e-05	0	0	0
4.59182e-05	0	0	0
4.60847e-05	0	0	0
4.62801e-05	0	0	0
4.80953e-05	0	0	0
4.82194e-05	0	0	0
4.8729e-05	0	0	0
4.89579e-05	0	0	0
4.94077e-05	0	0	0
4.98575e-05	0	0	0
5.10677e-05	0	0	0
5.13534e-05	0	0	0
5.20545e-05	0	0	0
5.29108e-05	0	0	0
5.3114e-05	0	0	0
5.32507e-05	0	0	0
5.33923e-05	0	0	0
5.36062e-05	0	0	0
5.38006e-05	0	0	0
5.40345e-05	0	0	0
5.45596e-05	0	0	0
5.47772e-05	0	0	0
5.48323e-05	0	0	0
5.51105e-05	0	0	0
5.52607e-05	0	0	0
5.53419e-05	0	0	0
5.617e-05	0	0	0
5.65688e-05	0	0	0
5.75889e-05	0	0	0
5.77311e-05	0	0	0
5.79675e-05	0	0	0
5.84785e-05	0	0	0
5.86701e-05	0	0	0
5.91231e-05	0	0	0
5.91489e-05	0	0	0
5.96782e-05	0	0	0
5.9785e-05	0	0	0
6.0335e-05	0	0	0
6.04342e-05	0	0	0
6.11021e-05	0	0	0
6.14394e-05	0	0	0
6.15813e-05	0	0	0
6.22887e-05	0	0	0
6.26814e-05	0	0	0
6.35888e-05	0	0	0
6.37028e-05	0	0	0
6.38242e-05	0	0	0
6.40925e-05	0	0	0
6.465e-05	0	0	0
6.48659e-05	0	0	0
6.50596e-05	0	0	0
6.50618e-05	0	0	0
6.50665e-05	0	0	0
6.59507e-05	0	0	0
6.59605e-05	0	0	0
6.62817e-05	0	0	0
6.67388e-05	0	0	0
6.71622e-05	0	0	0
6.71844e-05	0	0	0
6.80764e-05	0	0	0
6.836e-05	0	0	0
6.87651e-05	0	0	0
6.87768e-05	0	0	0
6.92335e-05	0	0	0
6.97227e-05	0	0	0
7.03653e-05	0	0	0
7.05317e-05	0	0	0
7.05788e-05	0	0	0
7.07193e-05	0	0	0
7.0949e-05	0	0	0
7.10054e-05	0	0	0
7.10984e-05	0	0	0
7.23615e-05	0	0	0
7.2743e-05	0	0	0
7.32176e-05	0	0	0
7.45341e-05	0	0	0
7.46548e-05	0	0	0
7.6068e-05	0	0	0
7.84611e-05	0	0	0
7.91477e-05	0	0	0
7.93149e-05	0	0	0
7.97062e-05	0	0	0
8.00524e-05	0	0	0
8.03931e-05	0	0	0
8.04314e-05	0	0	0
8.11231e-05	0	0	0
8.1356e-05	0	0	0
8.17304e-05	0	0	0
8.28564e-05	0	0	0
8.29489e-05	0	0	0
8.33772e-05	0	0	0
8.37745e-05	0	0	0
8.45237e-05	0	0	0
8.60298e-05	0	0	0
8.65723e-05	0	0	0
8.70301e-05	0	0	0
8.73026e-05	0	0	0
8.73571e-05	0	0	0
8.79847e-05	0	0	0
8.86305e-05	0	0	0
8.9133e-05	0	0	0
8.99586e-05	0	0	0
9.0176e-05	0	0	0
9.03414e-05	0	0	0
9.0539e-05	0	0	0
9.0589e-05	0	0	0
9.11889e-05	0	0	0
9.17202e-05	0	0	0
9.17235e-05	0	0	0
9.183e-05	0	0	0
9.20763e-05	0	0	0
9.25131e-05	0	0	0
9.25233e-05	0	0	0
9.27625e-05	0	0	0
9.36179e-05	0	0	0
9.37085e-05	0	0	0
9.43297e-05	0	0	0
9.60549e-05	0	0	0
9.71341e-05	0	0	0
9.72778e-05	0	0	0
9.90075e-05	0	0	0
9.93715e-05	0	0	0
0.000100038	0	0	0
0.000100365	0	0	0
0.000100452	0	0	0
0.000100971	0	0	0
0.000102148	0	0	0
0.000103022	0	0	0
0.000103884	0	0	0
0.000104126	0	0	0
0.000105272	0	0	0
0.000105782	0	0	0
0.000105855	0	0	0
0.000106131	0	0	0
0.000106609	0	0	0
0.000107091	0	0	0
0.000107612	0	0	0
0.000107633	0	0	0
0.000107956	0	0	0
0.000108684	0	0	0
0.000109538	0	0	0
0.000109817	0	0	0
0.000110734	0	0	0
0.000111493	0	0	0
0.000112085	0	0	0
0.000112492	0	0	0
0.000112949	0	0	0
0.000113114	0	0	0
0.000113905	0	0	0
0.000114101	0	0	0
0.000115035	0	0	0
0.000115678	0	0	0
0.000115838	0	0	0
0.000115962	0	0	0
0.000116248	0	0	0
0.00011678	0	0	0
0.000120897	0	0	0
0.000121336	0	0	0
0.000122249	0	0	0
0.000122395	0	0	0
0.000122802	0	0	0
0.000122954	0	0	0
0.000123405	0	0	0
0.00012343	0	0	0
0.000123826	0	0	0
0.000124089	0	0	0
0.000124549	0	0	0
0.000124652	0	0	0
0.000125403	0	0	0
0.000125427	0	0	0
0.000126325	0	0	0
0.000127027	0	0	0
0.000128666	0	0	0
0.000129768	0	0	0
0.000129837	0	0	0
0.000129841	0	0	0
0.000130151	0	0	0
0.000131006	0	0	0
0.000131472	0	0	0
0.000132779	0	0	0
0.000132963	0	0	0
0.00013336	0	0	0
0.000133712	0	0	0
0.000134287	0	0	0
0.000134336	0	0	0
0.000135014	0	0	0
0.000135333	0	0	0
0.000136989	0	0	0
0.000137291	0	0	0
0.000137348	0	0	0
0.000137827	0	0	0
0.00013845	0	0	0
0.000139176	0	0	0
0.000139203	0	0	0
0.000140612	0	0	0
0.000141448	0	0	0
0.000141726	0	0	0
0.000143058	0	0	0
0.000144667	0	0	0
0.000145953	0	0	0
0.00014671	0	0	0
0.000146971	0	0	0
0.000147449	0	0	0
0.000148511	0	0	0
0.00014892	0	0	0
0.000149591	0	0	0
0.000149644	0	0	0
0.000149655	0	0	0
0.000149911	0	0	0
0.000150283	0	0	0
0.000152265	0	0	0
0.000152904	0	0	0
0.000153916	0	0	0
0.000154484	0	0	0
0.00015467	0	0	0
0.000155058	0	0	0
0.000155714	0	0	0
0.000158079	0	0	0
0.000158303	0	0	0
0.000158604	0	0	0
0.000162044	0	0	0
0.000163219	0	0	0
0.000163493	0	0	0
0.000163739	0	0	0
0.000165356	0	0	0
0.00016826	0	0	0
0.000168589	0	0	0
0.000168925	0	0	0
0.000168985	0	0	0
0.00016911	0	0	0
0.00016914	0	0	0
0.000169802	0	0	0
0.000171906	0	0	0
0.000172691	0	0	0
0.000172699	0	0	0
0.000173425	0	0	0
0.000175773	0	0	0
0.000176464	0	0	0
0.00017651	0	0	0
0.000177477	0	0	0
0.000178028	0	0	0
0.000178223	0	0	0
0.000178489	0	0	0
0.000179428	0	0	0
0.000181272	0	0	0
0.000182011	0	0	0
0.000182991	0	0	0
0.000183499	0	0	0
0.000190625	0	0	0
0.000190883	0	0	0
0.000193322	0	0	0
0.000194386	0	0	0
0.000194814	0	0	0
0.00019493	0	0	0
0.000195541	0	0	0
0.000195941	0	0	0
0.000196968	0	0	0
0.000197836	0	0	0
0.000197932	0	0	0
0.000198593	0	0	0
0.000198819	0	0	0
0.000199103	0	0	0
0.000200069	0	0	0
0.000202322	0	0	0
0.00020269	0	0	0
0.000204084	0	0	0
0.000205589	0	0	0
0.000208835	0	0	0
0.000211243	0	0	0
0.000211697	0	0	0
0.000212023	0	0	0
0.000212062	0	0	0
0.000212871	0	0	0
0.0002158	0	0	0
0.000218412	0	0	0
0.000219102	0	0	0
0.000219114	0	0	0
0.000220625	0	0	0
0.000221581	0	0	0
0.000225541	0	0	0
0.000226376	0	0	0
0.000226516	0	0	0
0.000229009	0	0	0
0.000229654	0	0	0
0.000232868	0	0	0
0.000233701	0	0	0
0.000233758	0	0	0
0.000235601	0	0	0
0.000235623	0	0	0
0.000236194	0	0	0
0.000237099	0	0	0
0.000238342	0	0	0
0.000239294	0	0	0
0.000239368	0	0	0
0.000239708	0	0	0
0.000240252	0	0	0
0.000240267	0	0	0
0.000240874	0	0	0
0.000240896	0	0	0
0.00024703	0	0	0
0.000248416	0	0	0
0.000249803	0	0	0
0.000251008	0	0	0
0.000251671	0	0	0
0.000252721	0	0	0
0.000254383	0	0	0
0.00025539	0	0	0
0.000255534	0	0	0
0.000256249	0	0	0
0.000256254	0	0	0
0.000257615	0	0	0
0.000257708	0	0	0
0.000259348	0	0	0
0.00026182	0	0	0
0.0002661	0	0	0
0.000266332	0	0	0
0.000267148	0	0	0
0.000267368	0	0	0
0.000269298	0	0	0
0.00027033	0	0	0
0.000270642	0	0	0
0.000271225	0	0	0
0.000272851	0	0	0
0.000274244	0	0	0
0.000275848	0	0	0
0.000276936	0	0	0
0.000277087	0	0	0
0.000277154	0	0	0
0.000277823	0	0	0
0.000278209	0	0	0
0.00028109	0	0	0
0.000281344	0	0	0
0.000284632	0	0	0
0.000285639	0	0	0
0.000287796	0	0	0
0.000288264	0	0	0
0.000288608	0	0	0
0.000289027	0	0	0
0.000291534	0	0	0
0.000291631	0	0	0
0.000293907	0	0	0
0.000294789	0	0	0
0.000294878	0	0	0
0.000297743	0	0	0
0.00029829	0	0	0
0.000299381	0	0	0
0.000300611	0	0	0
0.000302307	0	0	0
0.000303203	0	0	0
0.000304894	0	0	0
0.000306608	0	0	0
0.000308689	0	0	0
0.000309589	0	0	0
0.000311639	0	0	0
0.000313385	0	0	0
0.000313571	0	0	0
0.000316277	0	0	0
0.000317039	0	0	0
0.000319632	0	0	0
0.000320116	0	0	0
0.000320296	0	0	0
0.000320828	0	0	0
0.00032123	0	0	0
0.000321862	0	0	0
0.000325468	0	0	0
0.000329308	0	0	0
0.000331016	0	0	0
0.000334949	0	0	0
0.000336496	0	0	0
0.000339401	0	0	0
0.000340472	0	0	0
0.000341911	0	0	0
0.000342934	0	0	0
0.000343513	0	0	0
0.00034453	0	0	0
0.000345034	0	0	0
0.000345196	0	0	0
0.000347501	0	0	0
0.000348219	0	0	0
0.000348413	0	0	0
0.000348865	0	0	0
0.000349831	0	0	0
0.000351496	0	0	0
0.000352525	0	0	0
0.000356046	0	0	0
0.000358362	0	0	0
0.00035922	0	0	0
0.000361265	0	0	0
0.000366413	0	0	0
0.000368818	0	0	0
0.000372042	0	0	0
0.000373433	0	0	0
0.000380101	0	0	0
0.00038131	0	0	0
0.000389942	0	0	0
0.000393744	0	0	0
0.000395033	0	0	0
0.000403079	0	0	0
0.000406099	0	0	0
0.000406221	0	0	0
0.000406321	0	0	0
0.000409049	0	0	0
0.000412282	0	0	0
0.000413339	0	0	0
0.00041442	0	0	0
0.000415852	0	0	0
0.000418713	0	0	0
0.000422313	0	0	0
0.000422885	0	0	0
0.000423171	0	0	0
0.000425147	0	0	0
0.000426048	0	0	0
0.000430714	0	0	0
0.000435859	0	0	0
0.000437398	0	0	0
0.000439163	0	0	0
0.000439583	0	0	0
0.00043968	0	0	0
0.00044117	0	0	0
0.000443955	0	0	0
0.000448139	0	0	0
0.000453326	0	0	0
0.000456831	0	0	0
0.000457933	0	0	0
0.000461256	0	0	0
0.000462602	0	0	0
0.0004647	0	0	0
0.000465402	0	0	0
0.000468946	0	0	0
0.000473805	0	0	0
0.000476589	0	0	0
0.000477183	0	0	0
0.000477759	0	0	0
0.000484872	0	0	0
0.000486307	0	0	0
0.00048903	0	0	0
0.000489894	0	0	0
0.000493405	0	0	0
0.000496906	0	0	0
0.000498583	0	0	0
0.000498745	0	0	0
0.000500348	0	0	0
0.000501657	0	0	0
0.000508661	0	0	0
0.000509017	0	0	0
0.000510246	0	0	0
0.000511526	0	0	0
0.000513797	0	0	0
0.000521394	0	0	0
0.000522734	0	0	0
0.000524825	0	0	0
0.000529731	0	0	0
0.000530629	0	0	0
0.000539155	0	0	0
0.000542183	0	0	0
0.000548213	0	0	0
0.000550607	0	0	0
0.000551404	0	0	0
0.000551477	0	0	0
0.000552396	0	0	0
0.000554944	0	0	0
0.000558964	0	0	0
0.000562917	0	0	0
0.000566592	0	0	0
0.000568527	0	0	0
0.000568863	0	0	0
0.000569187	0	0	0
0.000569474	0	0	0
0.000569543	0	0	0
0.000572465	0	0	0
0.000578699	0	0	0
0.000585226	0	0	0
0.000587395	0	0	0
0.000594368	0	0	0
0.000595284	0	0	0
0.000601881	0	0	0
0.000603576	0	0	0
0.000616573	0	0	0
0.0006212	0	0	0
0.000621982	0	0	0
0.000622446	0	0	0
0.000624201	0	0	0
0.000637394	0	0	0
0.000638179	0	0	0
0.000655434	0	0	0
0.0006662	0	0	0
0.00066742	0	0	0
0.000676927	0	0	0
0.000680193	0	0	0
0.000697659	0	0	0
0.000707091	0	0	0
0.000715283	0	0	0
0.000717563	0	0	0
0.00072683	0	0	0
0.000728361	0	0	0
0.000743019	0	0	0
0.000752273	0	0	0
0.000752303	0	0	0
0.000773774	0	0	0
0.00077815	0	0	0
0.000798539	0	0	0
0.000802274	0	0	0
0.000820467	0	0	0
0.000833847	0	0	0
0.000834624	0	0	0
0.000861694	0	0	0
0.000862911	0	0	0
0.000884919	0	0	0
0.000898491	0	0	0
0.00092936	0	0	0
0.0009376	0	0	0
0.000947685	0	0	0
0.000977109	0	0	0
0.00102127	0	0	0
0.00103521	0	0	0
0.00105021	0	0	0
0.00105096	0	0	0
0.00117478	0	0	0
0.00119139	0	0	0
0.00120885	0	0	0
0.00124302	0	0	0
0.00138645	0	0	0
0.00149794	0	0	0
0.00161716	0	0	0
0.00328721	0	0	0
