1.29746e-08	0	0	0
2.01764e-08	0	0	0
1.84185e-07	0	0	0
2.81039e-07	0	0	0
4.04874e-07	0	0	0
5.77378e-07	0	0	0
7.01453e-07	0	0	0
8.85126e-07	0	0	0
9.98505e-07	0	0	0
1.12118e-06	0	0	0
1.38323e-06	0	0	0
1.47807e-06	0	0	0
1.68279e-06	0	0	0
1.79899e-06	0	0	0
1.91098e-06	0	0	0
2.10514e-06	0	0	0
2.14869e-06	0	0	0
2.43214e-06	0	0	0
2.50563e-06	0	0	0
2.65435e-06	0	0	0
2.70448e-06	0	0	0
2.76143e-06	0	0	0
2.85739e-06	0	0	0
3.121e-06	0	0	0
3.12697e-06	0	0	0
3.29233e-06	0	0	0
3.43618e-06	0	0	0
3.48878e-06	0	0	0
3.58885e-06	0	0	0
3.7873e-06	0	0	0
3.97386e-06	0	0	0
3.97679e-06	0	0	0
3.99845e-06	0	0	0
4.10075e-06	0	0	0
4.27758e-06	0	0	0
4.55023e-06	0	0	0
4.71914e-06	0	0	0
4.7854e-06	0	0	0
4.81806e-06	0	0	0
4.88234e-06	0	0	0
4.93309e-06	0	0	0
5.00279e-06	0	0	0
5.05078e-06	0	0	0
5.38447e-06	0	0	0
5.39292e-06	0	0	0
5.44949e-06	0	0	0
5.49714e-06	0	0	0
5.55941e-06	0	0	0
5.75531e-06	0	0	0
5.95267e-06	0	0	0
6.00036e-06	0	0	0
6.05626e-06	0	0	0
6.42908e-06	0	0	0
6.6848e-06	0	0	0
6.80987e-06	0	0	0
6.84156e-06	0	0	0
6.92759e-06	0	0	0
7.23861e-06	0	0	0
7.26827e-06	0	0	0
7.4168e-06	0	0	0
7.61571e-06	0	0	0
7.74607e-06	0	0	0
7.85761e-06	0	0	0
7.89689e-06	0	0	0
8.01422e-06	0	0	0
8.29969e-06	0	0	0
8.31052e-06	0	0	0
8.36167e-06	0	0	0
8.41432e-06	0	0	0
8.45677e-06	0	0	0
8.51977e-06	0	0	0
8.52362e-06	0	0	0
8.65968e-06	0	0	0
8.68159e-06	0	0	0
8.71714e-06	0	0	0
8.96628e-06	0	0	0
8.99266e-06	0	0	0
9.15064e-06	0	0	0
9.23196e-06	0	0	0
9.47251e-06	0	0	0
9.48684e-06	0	0	0
9.54826e-06	0	0	0
9.83623e-06	0	0	0
9.9929e-06	0	0	0
1.00184e-05	0	0	0
1.00739e-05	0	0	0
1.01386e-05	0	0	0
1.01567e-05	0	0	0
1.03125e-05	0	0	0
1.04764e-05	0	0	0
1.06414e-05	0	0	0
1.07405e-05	0	0	0
1.0843e-05	0	0	0
1.10506e-05	0	0	0
1.11103e-05	0	0	0
1.11908e-05	0	0	0
1.12356e-05	0	0	0
1.12429e-05	0	0	0
1.15645e-05	0	0	0
1.15966e-05	0	0	0
1.18241e-05	0	0	0
1.18601e-05	0	0	0
1.19147e-05	0	0	0
1.19411e-05	0	0	0
1.1992e-05	0	0	0
1.20829e-05	0	0	0
1.21062e-05	0	0	0
1.23175e-05	0	0	0
1.23523e-05	0	0	0
1.23889e-05	0	0	0
1.24449e-05	0	0	0
1.2497e-05	0	0	0
1.25971e-05	0	0	0
1.27728e-05	0	0	0
1.29116e-05	0	0	0
1.30125e-05	0	0	0
1.3149e-05	0	0	0
1.33527e-05	0	0	0
1.36569e-05	0	0	0
1.36834e-05	0	0	0
1.36895e-05	0	0	0
1.37893e-05	0	0	0
1.40724e-05	0	0	0
1.41642e-05	0	0	0
1.43758e-05	0	0	0
1.44245e-05	0	0	0
1.44922e-05	0	0	0
1.48941e-05	0	0	0
1.50493e-05	0	0	0
1.53953e-05	0	0	0
1.54299e-05	0	0	0
1.57413e-05	0	0	0
1.5897e-05	0	0	0
1.60861e-05	0	0	0
1.61441e-05	0	0	0
1.61813e-05	0	0	0
1.64132e-05	0	0	0
1.65414e-05	0	0	0
1.66157e-05	0	0	0
1.67077e-05	0	0	0
1.68832e-05	0	0	0
1.705e-05	0	0	0
1.70971e-05	0	0	0
1.7352e-05	0	0	0
1.74037e-05	0	0	0
1.75424e-05	0	0	0
1.89973e-05	0	0	0
1.91142e-05	0	0	0
1.93454e-05	0	0	0
1.94106e-05	0	0	0
1.96746e-05	0	0	0
2.01631e-05	0	0	0
2.01787e-05	0	0	0
2.03922e-05	0	0	0
2.0728e-05	0	0	0
2.09148e-05	0	0	0
2.09157e-05	0	0	0
2.10242e-05	0	0	0
2.15595e-05	0	0	0
2.16131e-05	0	0	0
2.16269e-05	0	0	0
2.17516e-05	0	0	0
2.2238e-05	0	0	0
2.26531e-05	0	0	0
2.26588e-05	0	0	0
2.2669e-05	0	0	0
2.27218e-05	0	0	0
2.28565e-05	0	0	0
2.36421e-05	0	0	0
2.40359e-05	0	0	0
2.42287e-05	0	0	0
2.43256e-05	0	0	0
2.46315e-05	0	0	0
2.46652e-05	0	0	0
2.47963e-05	0	0	0
2.49279e-05	0	0	0
2.6301e-05	0	0	0
2.63405e-05	0	0	0
2.63573e-05	0	0	0
2.66699e-05	0	0	0
2.67594e-05	0	0	0
2.68594e-05	0	0	0
2.71526e-05	0	0	0
2.76255e-05	0	0	0
2.76919e-05	0	0	0
2.80709e-05	0	0	0
2.81235e-05	0	0	0
2.82226e-05	0	0	0
2.82247e-05	0	0	0
2.99789e-05	0	0	0
3.00249e-05	0	0	0
3.028e-05	0	0	0
3.05037e-05	0	0	0
3.06776e-05	0	0	0
3.09554e-05	0	0	0
3.12329e-05	0	0	0
3.12766e-05	0	0	0
3.14254e-05	0	0	0
3.15815e-05	0	0	0
3.20687e-05	0	0	0
3.30933e-05	0	0	0
3.31564e-05	0	0	0
3.3169e-05	0	0	0
3.3174e-05	0	0	0
3.35348e-05	0	0	0
3.36137e-05	0	0	0
3.39403e-05	0	0	0
3.39555e-05	0	0	0
3.44184e-05	0	0	0
3.4952e-05	0	0	0
3.50728e-05	0	0	0
3.61235e-05	0	0	0
3.63296e-05	0	0	0
3.67387e-05	0	0	0
3.68027e-05	0	0	0
3.71701e-05	0	0	0
3.73571e-05	0	0	0
3.75933e-05	0	0	0
3.77956e-05	0	0	0
3.79142e-05	0	0	0
3.84728e-05	0	0	0
3.85078e-05	0	0	0
3.85197e-05	0	0	0
3.85908e-05	0	0	0
3.89178e-05	0	0	0
3.8973e-05	0	0	0
3.91342e-05	0	0	0
3.95046e-05	0	0	0
4.00199e-05	0	0	0
4.03155e-05	0	0	0
4.05496e-05	0	0	0
4.11209e-05	0	0	0
4.11715e-05	0	0	0
4.16777e-05	0	0	0
4.19768e-05	0	0	0
4.21818e-05	0	0	0
4.22674e-05	0	0	0
4.24701e-05	0	0	0
4.25887e-05	0	0	0
4.31875e-05	0	0	0
4.33664e-05	0	0	0
4.35502e-05	0	0	0
4.36095e-05	0	0	0
4.37893e-05	0	0	0
4.40286e-05	0	0	0
4.43615e-05	0	0	0
4.49312e-05	0	0	0
4.57849e-05	0	0	0
4.5885e-05	0	0	0
4.59217e-05	0	0	0
4.61209e-05	0	0	0
4.6671e-05	0	0	0
4.69928e-05	0	0	0
4.7283e-05	0	0	0
4.7384e-05	0	0	0
4.74891e-05	0	0	0
4.79853e-05	0	0	0
4.81071e-05	0	0	0
4.88775e-05	0	0	0
4.94781e-05	0	0	0
4.9809e-05	0	0	0
4.98283e-05	0	0	0
4.98497e-05	0	0	0
5.06248e-05	0	0	0
5.0768e-05	0	0	0
5.08046e-05	0	0	0
5.13268e-05	0	0	0
5.15517e-05	0	0	0
5.17266e-05	0	0	0
5.17288e-05	0	0	0
5.17727e-05	0	0	0
5.19749e-05	0	0	0
5.25616e-05	0	0	0
5.26194e-05	0	0	0
5.27248e-05	0	0	0
5.30971e-05	0	0	0
5.31628e-05	0	0	0
5.32773e-05	0	0	0
5.36088e-05	0	0	0
5.40774e-05	0	0	0
5.49911e-05	0	0	0
5.51865e-05	0	0	0
5.53107e-05	0	0	0
5.55177e-05	0	0	0
5.60631e-05	0	0	0
5.62592e-05	0	0	0
5.71018e-05	0	0	0
5.78325e-05	0	0	0
5.80253e-05	0	0	0
5.82762e-05	0	0	0
5.83825e-05	0	0	0
5.91355e-05	0	0	0
5.94965e-05	0	0	0
5.95984e-05	0	0	0
5.96084e-05	0	0	0
5.97393e-05	0	0	0
6.00875e-05	0	0	0
6.045e-05	0	0	0
6.05784e-05	0	0	0
6.11274e-05	0	0	0
6.12947e-05	0	0	0
6.19109e-05	0	0	0
6.22161e-05	0	0	0
6.37101e-05	0	0	0
6.39259e-05	0	0	0
6.39716e-05	0	0	0
6.40692e-05	0	0	0
6.40958e-05	0	0	0
6.48174e-05	0	0	0
6.51866e-05	0	0	0
6.52118e-05	0	0	0
6.55195e-05	0	0	0
6.56511e-05	0	0	0
6.67717e-05	0	0	0
6.69823e-05	0	0	0
6.70013e-05	0	0	0
6.834e-05	0	0	0
6.87902e-05	0	0	0
6.88034e-05	0	0	0
6.98385e-05	0	0	0
6.98715e-05	0	0	0
7.02474e-05	0	0	0
7.12378e-05	0	0	0
7.1793e-05	0	0	0
7.25106e-05	0	0	0
7.25123e-05	0	0	0
7.27151e-05	0	0	0
7.27861e-05	0	0	0
7.31553e-05	0	0	0
7.40284e-05	0	0	0
7.40378e-05	0	0	0
7.40663e-05	0	0	0
7.469e-05	0	0	0
7.47408e-05	0	0	0
7.47596e-05	0	0	0
7.47885e-05	0	0	0
7.53297e-05	0	0	0
7.6018e-05	0	0	0
7.63193e-05	0	0	0
7.77962e-05	0	0	0
7.81482e-05	0	0	0
7.82806e-05	0	0	0
7.85021e-05	0	0	0
7.98669e-05	0	0	0
7.99972e-05	0	0	0
8.20143e-05	0	0	0
8.26465e-05	0	0	0
8.3098e-05	0	0	0
8.40104e-05	0	0	0
8.48149e-05	0	0	0
8.57736e-05	0	0	0
8.58054e-05	0	0	0
8.68278e-05	0	0	0
8.68936e-05	0	0	0
8.7176e-05	0	0	0
8.75094e-05	0	0	0
8.86623e-05	0	0	0
8.87439e-05	0	0	0
8.9997e-05	0	0	0
9.01063e-05	0	0	0
9.13353e-05	0	0	0
9.19988e-05	0	0	0
9.21063e-05	0	0	0
9.22996e-05	0	0	0
9.25498e-05	0	0	0
9.26347e-05	0	0	0
9.4359e-05	0	0	0
9.49029e-05	0	0	0
9.49309e-05	0	0	0
9.5393e-05	0	0	0
9.55391e-05	0	0	0
9.56582e-05	0	0	0
9.57165e-05	0	0	0
9.62778e-05	0	0	0
9.63653e-05	0	0	0
9.67176e-05	0	0	0
9.68764e-05	0	0	0
9.72544e-05	0	0	0
9.77956e-05	0	0	0
9.84772e-05	0	0	0
0.000101088	0	0	0
0.000101311	0	0	0
0.000101402	0	0	0
0.000102041	0	0	0
0.0001024	0	0	0
0.000102488	0	0	0
0.000102711	0	0	0
0.000102962	0	0	0
0.000102994	0	0	0
0.000103878	0	0	0
0.000104517	0	0	0
0.000104694	0	0	0
0.000104867	0	0	0
0.000105528	0	0	0
0.000106136	0	0	0
0.000106311	0	0	0
0.000106507	0	0	0
0.000106554	0	0	0
0.000107069	0	0	0
0.000107471	0	0	0
0.000107955	0	0	0
0.000108648	0	0	0
0.000109788	0	0	0
0.000111374	0	0	0
0.000111406	0	0	0
0.000111579	0	0	0
0.000111618	0	0	0
0.000111975	0	0	0
0.000112214	0	0	0
0.000112379	0	0	0
0.000112908	0	0	0
0.000113124	0	0	0
0.000113977	0	0	0
0.000114217	0	0	0
0.000114219	0	0	0
0.000115582	0	0	0
0.000115831	0	0	0
0.000115921	0	0	0
0.000116151	0	0	0
0.000116592	0	0	0
0.000116784	0	0	0
0.000116898	0	0	0
0.000116984	0	0	0
0.000117283	0	0	0
0.000118572	0	0	0
0.000119088	0	0	0
0.000119415	0	0	0
0.000119982	0	0	0
0.00012018	0	0	0
0.000121448	0	0	0
0.000121482	0	0	0
0.000121628	0	0	0
0.000122522	0	0	0
0.000124231	0	0	0
0.000125214	0	0	0
0.000126316	0	0	0
0.000127441	0	0	0
0.000128359	0	0	0
0.00012933	0	0	0
0.000131896	0	0	0
0.000132245	0	0	0
0.000132705	0	0	0
0.000133052	0	0	0
0.000133409	0	0	0
0.000134342	0	0	0
0.000136842	0	0	0
0.000138453	0	0	0
0.000141941	0	0	0
0.000142292	0	0	0
0.000142624	0	0	0
0.000142675	0	0	0
0.000142917	0	0	0
0.000144566	0	0	0
0.000146856	0	0	0
0.000148941	0	0	0
0.000149011	0	0	0
0.000149078	0	0	0
0.000149136	0	0	0
0.000149159	0	0	0
0.000149331	0	0	0
0.000150291	0	0	0
0.000150308	0	0	0
0.000152735	0	0	0
0.000153532	0	0	0
0.000153819	0	0	0
0.000154481	0	0	0
0.000154555	0	0	0
0.000155977	0	0	0
0.00015626	0	0	0
0.000157608	0	0	0
0.000159116	0	0	0
0.000162206	0	0	0
0.000163567	0	0	0
0.000165085	0	0	0
0.000166382	0	0	0
0.000170952	0	0	0
0.000178668	0	0	0
0.000179945	0	0	0
0.000180107	0	0	0
0.000180222	0	0	0
0.000180245	0	0	0
0.000180499	0	0	0
0.000182906	0	0	0
0.00018433	0	0	0
0.000184994	0	0	0
0.000185084	0	0	0
0.000186306	0	0	0
0.000187188	0	0	0
0.000188751	0	0	0
0.000190077	0	0	0
0.000190271	0	0	0
0.000194367	0	0	0
0.000194636	0	0	0
0.000195837	0	0	0
0.000198822	0	0	0
0.000199663	0	0	0
0.000203106	0	0	0
0.000203894	0	0	0
0.000206616	0	0	0
0.000207773	0	0	0
0.000208082	0	0	0
0.000210335	0	0	0
0.000214966	0	0	0
0.000216208	0	0	0
0.000219769	0	0	0
0.000221022	0	0	0
0.000222347	0	0	0
0.00022402	0	0	0
0.000225455	0	0	0
0.000225841	0	0	0
0.000226449	0	0	0
0.000226561	0	0	0
0.000227734	0	0	0
0.000228668	0	0	0
0.000229677	0	0	0
0.000232262	0	0	0
0.00023347	0	0	0
0.000234166	0	0	0
0.000234674	0	0	0
0.000236649	0	0	0
0.000237663	0	0	0
0.000238683	0	0	0
0.000239263	0	0	0
0.000240237	0	0	0
0.000241231	0	0	0
0.000242264	0	0	0
0.000242442	0	0	0
0.000243606	0	0	0
0.000243926	0	0	0
0.000245117	0	0	0
0.000245658	0	0	0
0.000248744	0	0	0
0.000249644	0	0	0
0.000250556	0	0	0
0.000251086	0	0	0
0.00025251	0	0	0
0.000255138	0	0	0
0.000256339	0	0	0
0.00025793	0	0	0
0.000259278	0	0	0
0.000259549	0	0	0
0.000261719	0	0	0
0.000263041	0	0	0
0.000263083	0	0	0
0.000263152	0	0	0
0.000265355	0	0	0
0.000267126	0	0	0
0.00026716	0	0	0
0.000271093	0	0	0
0.000271313	0	0	0
0.000273216	0	0	0
0.00027377	0	0	0
0.000273804	0	0	0
0.000277531	0	0	0
0.000277904	0	0	0
0.000279659	0	0	0
0.000280085	0	0	0
0.00028151	0	0	0
0.000283513	0	0	0
0.000284976	0	0	0
0.000285054	0	0	0
0.000285079	0	0	0
0.00028528	0	0	0
0.000287447	0	0	0
0.000290261	0	0	0
0.000291925	0	0	0
0.000293532	0	0	0
0.000294635	0	0	0
0.000295037	0	0	0
0.000298258	0	0	0
0.000299925	0	0	0
0.000300156	0	0	0
0.000300158	0	0	0
0.000302026	0	0	0
0.000306499	0	0	0
0.000308451	0	0	0
0.000309976	0	0	0
0.000311561	0	0	0
0.000312341	0	0	0
0.000313991	0	0	0
0.000318839	0	0	0
0.000320158	0	0	0
0.000321325	0	0	0
0.000323356	0	0	0
0.000326327	0	0	0
0.000327644	0	0	0
0.000333649	0	0	0
0.000334297	0	0	0
0.000334522	0	0	0
0.000341339	0	0	0
0.000341913	0	0	0
0.000342466	0	0	0
0.000342541	0	0	0
0.000343539	0	0	0
0.000344608	0	0	0
0.000346414	0	0	0
0.000347385	0	0	0
0.00034945	0	0	0
0.000351414	0	0	0
0.000351744	0	0	0
0.000352525	0	0	0
0.000353386	0	0	0
0.000357372	0	0	0
0.000360902	0	0	0
0.000360975	0	0	0
0.000364787	0	0	0
0.000369978	0	0	0
0.000370599	0	0	0
0.000371539	0	0	0
0.000371992	0	0	0
0.000373666	0	0	0
0.000377882	0	0	0
0.00037794	0	0	0
0.000378004	0	0	0
0.000379669	0	0	0
0.000380161	0	0	0
0.000384466	0	0	0
0.000389475	0	0	0
0.000390087	0	0	0
0.000394336	0	0	0
0.000416622	0	0	0
0.000417087	0	0	0
0.000418967	0	0	0
0.000430264	0	0	0
0.000435459	0	0	0
0.000441105	0	0	0
0.000442091	0	0	0
0.000443575	0	0	0
0.000445481	0	0	0
0.000448476	0	0	0
0.000450923	0	0	0
0.000455525	0	0	0
0.000455536	0	0	0
0.000456411	0	0	0
0.000460601	0	0	0
0.00046269	0	0	0
0.000463059	0	0	0
0.000464485	0	0	0
0.000482133	0	0	0
0.000484553	0	0	0
0.000486426	0	0	0
0.000487462	0	0	0
0.000494592	0	0	0
0.000498307	0	0	0
0.000500885	0	0	0
0.000506655	0	0	0
0.000508577	0	0	0
0.00052391	0	0	0
0.00054474	0	0	0
0.000546045	0	0	0
0.000548063	0	0	0
0.000548501	0	0	0
0.000549359	0	0	0
0.000550531	0	0	0
0.000553771	0	0	0
0.000554934	0	0	0
0.000560519	0	0	0
0.000571814	0	0	0
0.000572727	0	0	0
0.000577917	0	0	0
0.000589435	0	0	0
0.000601256	0	0	0
0.000611727	0	0	0
0.000618321	0	0	0
0.00063769	0	0	0
0.000649879	0	0	0
0.000651605	0	0	0
0.00066696	0	0	0
0.000670013	0	0	0
0.000676257	0	0	0
0.000679355	0	0	0
0.000685242	0	0	0
0.000704444	0	0	0
0.00070838	0	0	0
0.000722204	0	0	0
0.000725808	0	0	0
0.000732241	0	0	0
0.000737615	0	0	0
0.000755514	0	0	0
0.000756693	0	0	0
0.000768413	0	0	0
0.000771891	0	0	0
0.000782033	0	0	0
0.000830565	0	0	0
0.000839091	0	0	0
0.000844475	0	0	0
0.000845023	0	0	0
0.000856055	0	0	0
0.000883442	0	0	0
0.00091595	0	0	0
0.000997852	0	0	0
0.00100655	0	0	0
0.00101055	0	0	0
0.00105363	0	0	0
0.00108172	0	0	0
0.00110786	0	0	0
0.00113508	0	0	0
0.00117615	0	0	0
0.0011822	0	0	0
0.00118879	0	0	0
0.00119291	0	0	0
0.00124145	0	0	0
0.00124522	0	0	0
0.00131615	0	0	0
