8.91455e-11	0	0	0
2.63729e-10	0	0	0
2.49954e-09	0	0	0
2.571e-09	0	0	0
2.73785e-09	0	0	0
4.74141e-09	0	0	0
6.70204e-09	0	0	0
6.99622e-09	0	0	0
8.41252e-09	0	0	0
1.00333e-08	0	0	0
1.0202e-08	0	0	0
1.0334e-08	0	0	0
1.07561e-08	0	0	0
1.13325e-08	0	0	0
1.14028e-08	0	0	0
1.18657e-08	0	0	0
1.30467e-08	0	0	0
1.39468e-08	0	0	0
1.41201e-08	0	0	0
1.51047e-08	0	0	0
1.56501e-08	0	0	0
1.65779e-08	0	0	0
1.71139e-08	0	0	0
1.7145e-08	0	0	0
1.77821e-08	0	0	0
1.78865e-08	0	0	0
1.79516e-08	0	0	0
1.8215e-08	0	0	0
1.85833e-08	0	0	0
1.87652e-08	0	0	0
1.9978e-08	0	0	0
2.07379e-08	0	0	0
2.16339e-08	0	0	0
2.16372e-08	0	0	0
2.22642e-08	0	0	0
2.23445e-08	0	0	0
2.33131e-08	0	0	0
2.47826e-08	0	0	0
2.71345e-08	0	0	0
2.73597e-08	0	0	0
2.74007e-08	0	0	0
2.96396e-08	0	0	0
3.05507e-08	0	0	0
3.18755e-08	0	0	0
3.20052e-08	0	0	0
3.31739e-08	0	0	0
3.49042e-08	0	0	0
3.69431e-08	0	0	0
3.87309e-08	0	0	0
3.94464e-08	0	0	0
4.26239e-08	0	0	0
4.29385e-08	0	0	0
4.64895e-08	0	0	0
4.93702e-08	0	0	0
5.02397e-08	0	0	0
5.12659e-08	0	0	0
5.14941e-08	0	0	0
5.2906e-08	0	0	0
5.51225e-08	0	0	0
5.61708e-08	0	0	0
6.25877e-08	0	0	0
6.32041e-08	0	0	0
6.80096e-08	0	0	0
7.00321e-08	0	0	0
7.04441e-08	0	0	0
7.50974e-08	0	0	0
8.03872e-08	0	0	0
8.088e-08	0	0	0
9.03204e-08	0	0	0
9.5135e-08	0	0	0
9.84785e-08	0	0	0
1.02612e-07	0	0	0
1.19153e-07	0	0	0
1.26372e-07	0	0	0
1.26869e-07	0	0	0
1.31663e-07	0	0	0
1.53113e-07	0	0	0
2.22236e-07	0	0	0
2.34941e-07	0	0	0
2.38115e-07	0	0	0
2.43922e-07	0	0	0
2.5863e-07	0	0	0
2.70983e-07	0	0	0
2.73963e-07	0	0	0
3.16396e-07	0	0	0
3.43681e-07	0	0	0
3.59542e-07	0	0	0
4.04049e-07	0	0	0
4.06134e-07	0	0	0
4.08064e-07	0	0	0
4.28884e-07	0	0	0
4.50138e-07	0	0	0
5.4365e-07	0	0	0
5.45087e-07	0	0	0
6.00083e-07	0	0	0
6.17447e-07	0	0	0
6.60295e-07	0	0	0
6.7422e-07	0	0	0
7.60236e-07	0	0	0
7.84278e-07	0	0	0
7.94844e-07	0	0	0
8.75449e-07	0	0	0
9.01613e-07	0	0	0
9.84211e-07	0	0	0
9.98474e-07	0	0	0
1.04413e-06	0	0	0
1.139e-06	0	0	0
1.24569e-06	0	0	0
1.28771e-06	0	0	0
1.30771e-06	0	0	0
1.43649e-06	0	0	0
1.43818e-06	0	0	0
1.47118e-06	0	0	0
1.77047e-06	0	0	0
2.15865e-06	0	0	0
2.35934e-06	0	0	0
2.89897e-06	0	0	0
2.9269e-06	0	0	0
3.00528e-06	0	0	0
3.01429e-06	0	0	0
3.28529e-06	0	0	0
3.4216e-06	0	0	0
4.69881e-06	0	0	0
4.69993e-06	0	0	0
5.31451e-06	0	0	0
6.70708e-06	0	0	0
9.02369e-06	0	0	0
9.55488e-06	0	0	0
9.93646e-06	0	0	0
1.8528e-05	0	0	0
2.53763e-05	0	0	0
2.54704e-05	0	0	0
3.68661e-05	0	0	0
