3.49057e-12	0	0	0
1.21051e-09	0	0	0
1.24702e-09	0	0	0
1.63473e-09	0	0	0
2.54214e-09	0	0	0
3.00975e-09	0	0	0
3.12479e-09	0	0	0
3.40134e-09	0	0	0
3.56565e-09	0	0	0
3.81324e-09	0	0	0
6.08078e-09	0	0	0
6.55802e-09	0	0	0
6.56415e-09	0	0	0
6.65915e-09	0	0	0
7.77244e-09	0	0	0
1.08335e-08	0	0	0
1.15755e-08	0	0	0
1.24618e-08	0	0	0
1.26056e-08	0	0	0
1.42872e-08	0	0	0
1.4652e-08	0	0	0
1.47556e-08	0	0	0
1.65205e-08	0	0	0
1.76555e-08	0	0	0
1.81598e-08	0	0	0
1.84973e-08	0	0	0
1.92259e-08	0	0	0
1.99755e-08	0	0	0
2.03037e-08	0	0	0
2.17921e-08	0	0	0
2.24962e-08	0	0	0
2.37178e-08	0	0	0
2.40984e-08	0	0	0
2.44885e-08	0	0	0
2.6304e-08	0	0	0
2.7073e-08	0	0	0
2.92537e-08	0	0	0
3.06113e-08	0	0	0
3.1192e-08	0	0	0
3.15801e-08	0	0	0
3.16531e-08	0	0	0
3.20299e-08	0	0	0
3.26823e-08	0	0	0
3.44607e-08	0	0	0
3.47071e-08	0	0	0
3.63867e-08	0	0	0
3.68814e-08	0	0	0
4.65297e-08	0	0	0
4.75125e-08	0	0	0
5.12019e-08	0	0	0
5.18634e-08	0	0	0
5.35094e-08	0	0	0
5.61466e-08	0	0	0
5.7293e-08	0	0	0
5.83644e-08	0	0	0
6.22795e-08	0	0	0
7.32011e-08	0	0	0
7.8032e-08	0	0	0
7.90239e-08	0	0	0
8.07652e-08	0	0	0
8.91428e-08	0	0	0
8.94882e-08	0	0	0
9.08984e-08	0	0	0
9.17901e-08	0	0	0
9.20159e-08	0	0	0
9.94951e-08	0	0	0
1.00665e-07	0	0	0
1.08028e-07	0	0	0
1.13521e-07	0	0	0
1.17401e-07	0	0	0
1.22077e-07	0	0	0
1.23696e-07	0	0	0
1.28171e-07	0	0	0
1.32114e-07	0	0	0
1.4065e-07	0	0	0
1.5405e-07	0	0	0
1.62305e-07	0	0	0
1.73599e-07	0	0	0
2.18434e-07	0	0	0
2.27918e-07	0	0	0
2.27981e-07	0	0	0
2.44203e-07	0	0	0
2.55718e-07	0	0	0
2.56462e-07	0	0	0
2.6003e-07	0	0	0
2.7902e-07	0	0	0
3.42528e-07	0	0	0
3.49314e-07	0	0	0
3.88337e-07	0	0	0
4.26491e-07	0	0	0
5.05859e-07	0	0	0
5.24291e-07	0	0	0
5.31405e-07	0	0	0
5.71064e-07	0	0	0
6.24387e-07	0	0	0
6.50156e-07	0	0	0
7.20522e-07	0	0	0
7.23942e-07	0	0	0
8.94463e-07	0	0	0
1.00684e-06	0	0	0
1.03646e-06	0	0	0
1.0656e-06	0	0	0
1.12536e-06	0	0	0
1.20466e-06	0	0	0
1.31758e-06	0	0	0
1.36142e-06	0	0	0
1.38647e-06	0	0	0
1.91914e-06	0	0	0
2.00888e-06	0	0	0
2.22889e-06	0	0	0
2.38019e-06	0	0	0
2.5591e-06	0	0	0
2.66163e-06	0	0	0
2.66546e-06	0	0	0
3.43387e-06	0	0	0
5.09945e-06	0	0	0
7.00167e-06	0	0	0
7.68095e-06	0	0	0
9.73089e-06	0	0	0
1.02003e-05	0	0	0
1.40831e-05	0	0	0
2.01525e-05	0	0	0
2.26037e-05	0	0	0
3.66996e-05	0	0	0
6.83965e-05	0	0	0
8.40525e-05	0	0	0
