3.02592e-10	0	0	0
1.06464e-09	0	0	0
1.83005e-09	0	0	0
2.52376e-09	0	0	0
2.73718e-09	0	0	0
2.92851e-09	0	0	0
3.02228e-09	0	0	0
3.14578e-09	0	0	0
3.70551e-09	0	0	0
4.23711e-09	0	0	0
5.05953e-09	0	0	0
5.26049e-09	0	0	0
5.37595e-09	0	0	0
5.97316e-09	0	0	0
6.73121e-09	0	0	0
7.19684e-09	0	0	0
7.5942e-09	0	0	0
7.67519e-09	0	0	0
8.17879e-09	0	0	0
8.90516e-09	0	0	0
1.05371e-08	0	0	0
1.17023e-08	0	0	0
1.28016e-08	0	0	0
1.33399e-08	0	0	0
1.38729e-08	0	0	0
1.41354e-08	0	0	0
1.50775e-08	0	0	0
1.534e-08	0	0	0
1.65889e-08	0	0	0
1.6821e-08	0	0	0
1.7312e-08	0	0	0
1.75796e-08	0	0	0
1.77794e-08	0	0	0
1.80551e-08	0	0	0
1.94752e-08	0	0	0
2.08091e-08	0	0	0
2.15799e-08	0	0	0
2.16313e-08	0	0	0
2.25153e-08	0	0	0
2.25161e-08	0	0	0
2.7714e-08	0	0	0
2.77553e-08	0	0	0
3.12775e-08	0	0	0
3.19969e-08	0	0	0
3.60823e-08	0	0	0
3.65691e-08	0	0	0
3.75912e-08	0	0	0
3.80655e-08	0	0	0
3.84334e-08	0	0	0
3.85145e-08	0	0	0
3.89325e-08	0	0	0
4.51897e-08	0	0	0
4.71673e-08	0	0	0
5.47125e-08	0	0	0
5.6029e-08	0	0	0
5.83316e-08	0	0	0
5.92528e-08	0	0	0
6.13544e-08	0	0	0
7.76547e-08	0	0	0
8.30365e-08	0	0	0
9.1351e-08	0	0	0
9.32885e-08	0	0	0
9.43501e-08	0	0	0
9.541e-08	0	0	0
9.97986e-08	0	0	0
1.11586e-07	0	0	0
1.2137e-07	0	0	0
1.3295e-07	0	0	0
1.33176e-07	0	0	0
1.46689e-07	0	0	0
1.87355e-07	0	0	0
1.9614e-07	0	0	0
2.04146e-07	0	0	0
2.04814e-07	0	0	0
2.35134e-07	0	0	0
2.78417e-07	0	0	0
2.97232e-07	0	0	0
4.05916e-07	0	0	0
4.31754e-07	0	0	0
4.39127e-07	0	0	0
4.50689e-07	0	0	0
4.50801e-07	0	0	0
4.74504e-07	0	0	0
5.56919e-07	0	0	0
6.75212e-07	0	0	0
8.18753e-07	0	0	0
8.60077e-07	0	0	0
8.80611e-07	0	0	0
1.22272e-06	0	0	0
1.25894e-06	0	0	0
1.54193e-06	0	0	0
2.34794e-06	0	0	0
2.58116e-06	0	0	0
3.0242e-06	0	0	0
3.27537e-06	0	0	0
1.05184e-05	0	0	0
1.13128e-05	0	0	0
