2.3613e-11	0	0	0
5.56534e-10	0	0	0
1.46911e-09	0	0	0
1.59125e-09	0	0	0
2.10432e-09	0	0	0
2.22887e-09	0	0	0
2.4005e-09	0	0	0
2.50632e-09	0	0	0
2.5734e-09	0	0	0
2.57662e-09	0	0	0
2.62092e-09	0	0	0
2.66191e-09	0	0	0
3.17726e-09	0	0	0
3.36014e-09	0	0	0
3.43491e-09	0	0	0
3.51227e-09	0	0	0
3.58913e-09	0	0	0
5.23519e-09	0	0	0
6.57013e-09	0	0	0
6.7309e-09	0	0	0
8.44289e-09	0	0	0
8.49173e-09	0	0	0
9.68296e-09	0	0	0
9.93954e-09	0	0	0
1.00076e-08	0	0	0
1.03418e-08	0	0	0
1.04331e-08	0	0	0
1.18538e-08	0	0	0
1.24032e-08	0	0	0
1.29749e-08	0	0	0
1.35017e-08	0	0	0
1.47171e-08	0	0	0
1.58764e-08	0	0	0
1.76511e-08	0	0	0
1.79098e-08	0	0	0
2.06163e-08	0	0	0
2.28068e-08	0	0	0
2.28421e-08	0	0	0
2.36154e-08	0	0	0
2.38194e-08	0	0	0
2.51737e-08	0	0	0
2.62108e-08	0	0	0
2.74465e-08	0	0	0
2.76642e-08	0	0	0
2.84737e-08	0	0	0
3.02841e-08	0	0	0
3.06285e-08	0	0	0
3.32537e-08	0	0	0
3.43671e-08	0	0	0
3.53677e-08	0	0	0
4.04317e-08	0	0	0
4.21833e-08	0	0	0
4.40528e-08	0	0	0
4.54516e-08	0	0	0
4.92137e-08	0	0	0
5.32041e-08	0	0	0
5.68794e-08	0	0	0
6.89071e-08	0	0	0
7.11667e-08	0	0	0
7.49669e-08	0	0	0
8.18787e-08	0	0	0
9.11915e-08	0	0	0
9.46832e-08	0	0	0
9.9637e-08	0	0	0
1.1027e-07	0	0	0
1.20399e-07	0	0	0
1.22294e-07	0	0	0
1.26195e-07	0	0	0
1.32132e-07	0	0	0
1.58664e-07	0	0	0
1.64633e-07	0	0	0
1.7738e-07	0	0	0
1.94402e-07	0	0	0
2.00773e-07	0	0	0
2.03793e-07	0	0	0
2.04689e-07	0	0	0
2.38467e-07	0	0	0
2.40237e-07	0	0	0
3.13251e-07	0	0	0
3.18704e-07	0	0	0
3.31299e-07	0	0	0
3.79975e-07	0	0	0
3.83016e-07	0	0	0
4.27376e-07	0	0	0
5.20994e-07	0	0	0
6.24588e-07	0	0	0
6.62115e-07	0	0	0
8.45817e-07	0	0	0
8.68903e-07	0	0	0
8.70378e-07	0	0	0
9.18863e-07	0	0	0
1.07045e-06	0	0	0
1.31023e-06	0	0	0
1.48275e-06	0	0	0
1.70151e-06	0	0	0
1.80404e-06	0	0	0
2.13804e-06	0	0	0
2.18035e-06	0	0	0
3.58492e-06	0	0	0
3.86613e-06	0	0	0
5.14353e-06	0	0	0
9.19456e-06	0	0	0
1.55487e-05	0	0	0
4.17104e-05	0	0	0
0.000120444	0	0	0
0.000207824	0	0	0
