3.06802e-10	0	0	0
7.03638e-10	0	0	0
1.34319e-09	0	0	0
1.78831e-09	0	0	0
2.64646e-09	0	0	0
2.85133e-09	0	0	0
3.91706e-09	0	0	0
3.92557e-09	0	0	0
5.30583e-09	0	0	0
5.5039e-09	0	0	0
6.55586e-09	0	0	0
7.22434e-09	0	0	0
7.52993e-09	0	0	0
7.69365e-09	0	0	0
9.58034e-09	0	0	0
9.85713e-09	0	0	0
1.07056e-08	0	0	0
1.15794e-08	0	0	0
1.17702e-08	0	0	0
1.20971e-08	0	0	0
1.23663e-08	0	0	0
1.26086e-08	0	0	0
1.39531e-08	0	0	0
1.50134e-08	0	0	0
1.63968e-08	0	0	0
1.70222e-08	0	0	0
1.7295e-08	0	0	0
1.84169e-08	0	0	0
1.86394e-08	0	0	0
1.98315e-08	0	0	0
2.15479e-08	0	0	0
2.16374e-08	0	0	0
2.48317e-08	0	0	0
2.51622e-08	0	0	0
2.58388e-08	0	0	0
2.61619e-08	0	0	0
2.70532e-08	0	0	0
2.78579e-08	0	0	0
2.88741e-08	0	0	0
3.0174e-08	0	0	0
3.30954e-08	0	0	0
3.33447e-08	0	0	0
3.59542e-08	0	0	0
3.71374e-08	0	0	0
4.11863e-08	0	0	0
4.18987e-08	0	0	0
4.5134e-08	0	0	0
4.89333e-08	0	0	0
5.0565e-08	0	0	0
5.16452e-08	0	0	0
5.74798e-08	0	0	0
6.03776e-08	0	0	0
6.22485e-08	0	0	0
6.3192e-08	0	0	0
6.74253e-08	0	0	0
6.99667e-08	0	0	0
7.55033e-08	0	0	0
8.13066e-08	0	0	0
8.15814e-08	0	0	0
9.54621e-08	0	0	0
1.00734e-07	0	0	0
1.0668e-07	0	0	0
1.07146e-07	0	0	0
1.133e-07	0	0	0
1.14665e-07	0	0	0
1.19591e-07	0	0	0
1.26421e-07	0	0	0
1.27698e-07	0	0	0
1.3517e-07	0	0	0
1.35281e-07	0	0	0
1.36813e-07	0	0	0
1.42195e-07	0	0	0
1.46869e-07	0	0	0
1.57385e-07	0	0	0
1.63872e-07	0	0	0
1.67926e-07	0	0	0
1.79267e-07	0	0	0
1.85466e-07	0	0	0
2.23283e-07	0	0	0
2.37751e-07	0	0	0
2.49722e-07	0	0	0
2.51166e-07	0	0	0
2.58944e-07	0	0	0
2.96614e-07	0	0	0
3.08002e-07	0	0	0
3.10561e-07	0	0	0
3.54715e-07	0	0	0
3.56693e-07	0	0	0
4.4886e-07	0	0	0
4.61525e-07	0	0	0
6.10408e-07	0	0	0
6.95407e-07	0	0	0
7.02496e-07	0	0	0
7.20417e-07	0	0	0
7.67108e-07	0	0	0
8.37267e-07	0	0	0
1.08593e-06	0	0	0
1.46569e-06	0	0	0
2.28666e-06	0	0	0
2.29589e-06	0	0	0
4.58542e-06	0	0	0
4.61457e-06	0	0	0
4.70167e-06	0	0	0
5.4509e-06	0	0	0
6.34098e-06	0	0	0
1.16553e-05	0	0	0
1.59638e-05	0	0	0
1.61217e-05	0	0	0
1.99099e-05	0	0	0
0.000223505	0	0	0
