3.3476e-10	0	0	0
8.1028e-10	0	0	0
8.10687e-10	0	0	0
2.02917e-09	0	0	0
2.20241e-09	0	0	0
2.39143e-09	0	0	0
2.97706e-09	0	0	0
3.54575e-09	0	0	0
3.75251e-09	0	0	0
3.75983e-09	0	0	0
4.74874e-09	0	0	0
5.09098e-09	0	0	0
5.39231e-09	0	0	0
5.49207e-09	0	0	0
7.05744e-09	0	0	0
7.32811e-09	0	0	0
8.95781e-09	0	0	0
9.26844e-09	0	0	0
9.4018e-09	0	0	0
1.01153e-08	0	0	0
1.12239e-08	0	0	0
1.12937e-08	0	0	0
1.14396e-08	0	0	0
1.23221e-08	0	0	0
1.24934e-08	0	0	0
1.3139e-08	0	0	0
1.32432e-08	0	0	0
1.57077e-08	0	0	0
1.58163e-08	0	0	0
1.718e-08	0	0	0
1.72597e-08	0	0	0
1.79287e-08	0	0	0
1.85284e-08	0	0	0
1.91351e-08	0	0	0
1.99264e-08	0	0	0
2.07933e-08	0	0	0
2.21103e-08	0	0	0
2.41843e-08	0	0	0
2.70985e-08	0	0	0
2.75797e-08	0	0	0
2.93891e-08	0	0	0
3.03841e-08	0	0	0
3.07955e-08	0	0	0
3.19188e-08	0	0	0
3.24885e-08	0	0	0
3.3468e-08	0	0	0
3.52071e-08	0	0	0
3.59868e-08	0	0	0
4.04464e-08	0	0	0
4.11934e-08	0	0	0
4.16616e-08	0	0	0
4.47829e-08	0	0	0
4.86104e-08	0	0	0
4.88857e-08	0	0	0
4.89224e-08	0	0	0
5.18396e-08	0	0	0
5.22826e-08	0	0	0
5.63487e-08	0	0	0
6.46838e-08	0	0	0
6.65252e-08	0	0	0
6.87588e-08	0	0	0
7.42958e-08	0	0	0
7.53625e-08	0	0	0
7.63714e-08	0	0	0
8.7829e-08	0	0	0
8.94222e-08	0	0	0
9.05894e-08	0	0	0
9.47459e-08	0	0	0
9.50296e-08	0	0	0
9.78541e-08	0	0	0
9.81012e-08	0	0	0
1.00464e-07	0	0	0
1.00684e-07	0	0	0
1.10899e-07	0	0	0
1.11149e-07	0	0	0
1.12e-07	0	0	0
1.23986e-07	0	0	0
1.26681e-07	0	0	0
1.58163e-07	0	0	0
1.71251e-07	0	0	0
1.80386e-07	0	0	0
2.28906e-07	0	0	0
2.37032e-07	0	0	0
2.6889e-07	0	0	0
2.7851e-07	0	0	0
2.99527e-07	0	0	0
3.27232e-07	0	0	0
3.27277e-07	0	0	0
3.61573e-07	0	0	0
4.22075e-07	0	0	0
4.50631e-07	0	0	0
5.40326e-07	0	0	0
7.3475e-07	0	0	0
8.16854e-07	0	0	0
8.19696e-07	0	0	0
9.81929e-07	0	0	0
1.07376e-06	0	0	0
1.07627e-06	0	0	0
1.17098e-06	0	0	0
1.20724e-06	0	0	0
1.73285e-06	0	0	0
2.1646e-06	0	0	0
2.75621e-06	0	0	0
2.79457e-06	0	0	0
3.00703e-06	0	0	0
3.8104e-06	0	0	0
1.84882e-05	0	0	0
3.16797e-05	0	0	0
0.000113665	0	0	0
