3.38027e-11	0	0	0
6.15853e-11	0	0	0
3.581e-10	0	0	0
5.63798e-10	0	0	0
6.21749e-10	0	0	0
1.86237e-09	0	0	0
3.32815e-09	0	0	0
3.38377e-09	0	0	0
3.59083e-09	0	0	0
4.04324e-09	0	0	0
5.15096e-09	0	0	0
5.41966e-09	0	0	0
5.56441e-09	0	0	0
6.288e-09	0	0	0
6.92545e-09	0	0	0
7.06834e-09	0	0	0
7.44004e-09	0	0	0
9.69387e-09	0	0	0
1.1061e-08	0	0	0
1.18048e-08	0	0	0
1.20948e-08	0	0	0
1.27501e-08	0	0	0
1.32133e-08	0	0	0
1.35258e-08	0	0	0
1.37769e-08	0	0	0
1.46986e-08	0	0	0
1.50968e-08	0	0	0
1.59567e-08	0	0	0
1.61331e-08	0	0	0
1.69878e-08	0	0	0
1.8469e-08	0	0	0
1.85193e-08	0	0	0
1.86418e-08	0	0	0
1.90329e-08	0	0	0
1.94235e-08	0	0	0
2.07456e-08	0	0	0
2.24036e-08	0	0	0
2.55059e-08	0	0	0
2.62831e-08	0	0	0
2.71792e-08	0	0	0
2.8554e-08	0	0	0
3.01522e-08	0	0	0
3.28251e-08	0	0	0
3.73785e-08	0	0	0
4.42985e-08	0	0	0
4.43587e-08	0	0	0
4.58282e-08	0	0	0
4.62169e-08	0	0	0
4.75915e-08	0	0	0
4.92865e-08	0	0	0
5.21949e-08	0	0	0
6.19845e-08	0	0	0
6.66076e-08	0	0	0
7.1351e-08	0	0	0
8.19337e-08	0	0	0
8.4059e-08	0	0	0
8.42246e-08	0	0	0
8.4497e-08	0	0	0
8.48741e-08	0	0	0
9.27681e-08	0	0	0
9.31529e-08	0	0	0
9.32648e-08	0	0	0
9.58912e-08	0	0	0
9.69714e-08	0	0	0
1.01111e-07	0	0	0
1.0423e-07	0	0	0
1.12133e-07	0	0	0
1.20597e-07	0	0	0
1.22711e-07	0	0	0
1.27585e-07	0	0	0
1.27837e-07	0	0	0
1.30917e-07	0	0	0
1.34825e-07	0	0	0
1.49974e-07	0	0	0
1.50682e-07	0	0	0
1.63752e-07	0	0	0
1.65566e-07	0	0	0
1.69624e-07	0	0	0
1.71978e-07	0	0	0
1.78588e-07	0	0	0
1.87871e-07	0	0	0
2.10672e-07	0	0	0
2.17705e-07	0	0	0
2.79368e-07	0	0	0
2.81739e-07	0	0	0
3.38265e-07	0	0	0
3.73567e-07	0	0	0
3.84084e-07	0	0	0
4.81074e-07	0	0	0
4.96489e-07	0	0	0
5.27416e-07	0	0	0
6.0677e-07	0	0	0
6.78669e-07	0	0	0
7.00132e-07	0	0	0
8.19753e-07	0	0	0
8.46049e-07	0	0	0
8.91557e-07	0	0	0
1.11609e-06	0	0	0
1.15247e-06	0	0	0
1.68766e-06	0	0	0
1.71104e-06	0	0	0
1.8178e-06	0	0	0
1.98872e-06	0	0	0
2.25631e-06	0	0	0
2.66217e-06	0	0	0
2.82264e-06	0	0	0
3.5057e-06	0	0	0
5.13485e-06	0	0	0
5.68116e-06	0	0	0
8.46811e-06	0	0	0
8.94363e-06	0	0	0
9.01427e-06	0	0	0
9.5087e-06	0	0	0
1.00994e-05	0	0	0
1.24363e-05	0	0	0
2.50119e-05	0	0	0
6.74076e-05	0	0	0
