1.75324e-10	0	0	0
1.1174e-09	0	0	0
1.1194e-09	0	0	0
1.29214e-09	0	0	0
1.56885e-09	0	0	0
2.13373e-09	0	0	0
2.40968e-09	0	0	0
3.08267e-09	0	0	0
3.55948e-09	0	0	0
3.89788e-09	0	0	0
4.10368e-09	0	0	0
4.3658e-09	0	0	0
4.37318e-09	0	0	0
5.13236e-09	0	0	0
6.07913e-09	0	0	0
6.11497e-09	0	0	0
6.16534e-09	0	0	0
6.68629e-09	0	0	0
7.34621e-09	0	0	0
7.3897e-09	0	0	0
7.46243e-09	0	0	0
8.36453e-09	0	0	0
8.4533e-09	0	0	0
9.23308e-09	0	0	0
1.04396e-08	0	0	0
1.06857e-08	0	0	0
1.1439e-08	0	0	0
1.30719e-08	0	0	0
1.41667e-08	0	0	0
1.42293e-08	0	0	0
1.57102e-08	0	0	0
1.6437e-08	0	0	0
1.7592e-08	0	0	0
1.82047e-08	0	0	0
1.82763e-08	0	0	0
1.86043e-08	0	0	0
2.00119e-08	0	0	0
2.20037e-08	0	0	0
2.52884e-08	0	0	0
2.56177e-08	0	0	0
2.56436e-08	0	0	0
2.61071e-08	0	0	0
2.62781e-08	0	0	0
2.72539e-08	0	0	0
2.83228e-08	0	0	0
2.9126e-08	0	0	0
3.19979e-08	0	0	0
3.47116e-08	0	0	0
3.49799e-08	0	0	0
4.28029e-08	0	0	0
4.44888e-08	0	0	0
4.44969e-08	0	0	0
4.58297e-08	0	0	0
5.19363e-08	0	0	0
5.32556e-08	0	0	0
5.68584e-08	0	0	0
5.77019e-08	0	0	0
5.99756e-08	0	0	0
6.45521e-08	0	0	0
7.42215e-08	0	0	0
8.14913e-08	0	0	0
8.27172e-08	0	0	0
8.33815e-08	0	0	0
8.52035e-08	0	0	0
8.80117e-08	0	0	0
9.06986e-08	0	0	0
9.30381e-08	0	0	0
9.99515e-08	0	0	0
1.01686e-07	0	0	0
1.09042e-07	0	0	0
1.09627e-07	0	0	0
1.31362e-07	0	0	0
1.44738e-07	0	0	0
1.56979e-07	0	0	0
1.61097e-07	0	0	0
1.68334e-07	0	0	0
1.95293e-07	0	0	0
2.0526e-07	0	0	0
2.08743e-07	0	0	0
2.11615e-07	0	0	0
2.40492e-07	0	0	0
2.5547e-07	0	0	0
3.00104e-07	0	0	0
3.02293e-07	0	0	0
3.02585e-07	0	0	0
3.19287e-07	0	0	0
3.2089e-07	0	0	0
3.36043e-07	0	0	0
3.39197e-07	0	0	0
3.4102e-07	0	0	0
4.11316e-07	0	0	0
4.11566e-07	0	0	0
4.47142e-07	0	0	0
4.83686e-07	0	0	0
5.12437e-07	0	0	0
5.61943e-07	0	0	0
6.59391e-07	0	0	0
6.65051e-07	0	0	0
7.6071e-07	0	0	0
8.39546e-07	0	0	0
1.0763e-06	0	0	0
1.3903e-06	0	0	0
1.61389e-06	0	0	0
1.69768e-06	0	0	0
1.75192e-06	0	0	0
1.99737e-06	0	0	0
2.06052e-06	0	0	0
2.08843e-06	0	0	0
2.26739e-06	0	0	0
2.3687e-06	0	0	0
2.44137e-06	0	0	0
3.17556e-06	0	0	0
3.19457e-06	0	0	0
3.19821e-06	0	0	0
5.74838e-06	0	0	0
7.5827e-06	0	0	0
1.24743e-05	0	0	0
2.43931e-05	0	0	0
2.97212e-05	0	0	0
5.43335e-05	0	0	0
0.000108902	0	0	0
