4.05976e-11	0	0	0
1.44637e-10	0	0	0
2.75768e-10	0	0	0
3.13306e-10	0	0	0
6.4091e-10	0	0	0
7.23256e-10	0	0	0
8.13237e-10	0	0	0
8.71136e-10	0	0	0
1.44859e-09	0	0	0
2.80427e-09	0	0	0
2.98779e-09	0	0	0
3.61425e-09	0	0	0
3.97779e-09	0	0	0
4.80647e-09	0	0	0
5.172e-09	0	0	0
5.76354e-09	0	0	0
5.92767e-09	0	0	0
6.7874e-09	0	0	0
7.18815e-09	0	0	0
8.774e-09	0	0	0
8.95682e-09	0	0	0
9.7082e-09	0	0	0
9.92563e-09	0	0	0
1.02128e-08	0	0	0
1.13629e-08	0	0	0
1.16835e-08	0	0	0
1.20087e-08	0	0	0
1.20224e-08	0	0	0
1.54498e-08	0	0	0
1.54727e-08	0	0	0
1.54872e-08	0	0	0
1.59982e-08	0	0	0
1.73753e-08	0	0	0
1.74673e-08	0	0	0
1.85408e-08	0	0	0
2.01058e-08	0	0	0
2.03522e-08	0	0	0
2.10572e-08	0	0	0
2.16116e-08	0	0	0
2.25191e-08	0	0	0
2.494e-08	0	0	0
3.05529e-08	0	0	0
3.11651e-08	0	0	0
3.1879e-08	0	0	0
3.45958e-08	0	0	0
4.24818e-08	0	0	0
4.51814e-08	0	0	0
4.62373e-08	0	0	0
4.65918e-08	0	0	0
4.97141e-08	0	0	0
5.05018e-08	0	0	0
5.28493e-08	0	0	0
5.3518e-08	0	0	0
5.36561e-08	0	0	0
5.39117e-08	0	0	0
6.6639e-08	0	0	0
6.77527e-08	0	0	0
7.60777e-08	0	0	0
7.61775e-08	0	0	0
7.77975e-08	0	0	0
8.01758e-08	0	0	0
8.29534e-08	0	0	0
8.77759e-08	0	0	0
9.53512e-08	0	0	0
9.9193e-08	0	0	0
1.07685e-07	0	0	0
1.20329e-07	0	0	0
1.22691e-07	0	0	0
1.33216e-07	0	0	0
1.36334e-07	0	0	0
1.7574e-07	0	0	0
1.84011e-07	0	0	0
1.88459e-07	0	0	0
1.96442e-07	0	0	0
2.40123e-07	0	0	0
2.42195e-07	0	0	0
2.82119e-07	0	0	0
2.93887e-07	0	0	0
3.23786e-07	0	0	0
4.05227e-07	0	0	0
4.78969e-07	0	0	0
5.20293e-07	0	0	0
5.36449e-07	0	0	0
7.24707e-07	0	0	0
8.1226e-07	0	0	0
9.12838e-07	0	0	0
9.26558e-07	0	0	0
1.02633e-06	0	0	0
1.03426e-06	0	0	0
1.0358e-06	0	0	0
1.23075e-06	0	0	0
1.44881e-06	0	0	0
2.20859e-06	0	0	0
2.25415e-06	0	0	0
2.35612e-06	0	0	0
4.40641e-06	0	0	0
4.76517e-06	0	0	0
1.04615e-05	0	0	0
2.01464e-05	0	0	0
2.26198e-05	0	0	0
